#Timestamp	CPU(0) Frequency(MHz)	CPU(0) Temperature(C)	A7 Voltage(V)	A7 Current(A)	A7 Power(W)	CPU(4) Frequency(MHz)	CPU(4) Temperature(C)	A15 Voltage(V)	A15 Current(A)	A15 Power(W)	GPU Frequency(MHz)	GPU Temperature(C)	GPU Voltage(V)	GPU Current(A)	GPU Power(W)	RAM Voltage(V)	RAM Current(A)	RAM Power(W)
1559795732587835409	800 32 1.000000 0.072000 0.073000 900 30 0.900000 0.236000 0.224000 600 34 1.000000 0.050000 0.050000 1.200000 0.048000 0.058000
1559795733098746243	800 33 1.000000 0.034000 0.034000 900 30 0.900000 0.502000 0.472000 600 34 1.000000 0.050000 0.050000 1.200000 0.042000 0.050000
1559795733609503118	800 33 1.000000 0.038000 0.038000 900 30 0.900000 0.501000 0.470000 600 35 1.000000 0.050000 0.050000 1.200000 0.042000 0.050000
1559795734120173410	800 33 1.000000 0.065000 0.066000 900 30 0.900000 0.489000 0.459000 600 34 1.000000 0.050000 0.050000 1.200000 0.054000 0.065000
1559795734630931535	800 33 1.000000 0.035000 0.035000 900 30 0.900000 0.474000 0.445000 600 34 1.000000 0.050000 0.050000 1.200000 0.027000 0.032000
1559795735141715993	800 33 1.000000 0.036000 0.036000 900 30 0.900000 0.474000 0.445000 600 34 1.000000 0.050000 0.050000 1.200000 0.028000 0.033000
1559795735652857826	800 33 1.000000 0.036000 0.036000 900 30 0.900000 0.473000 0.444000 600 34 1.000000 0.050000 0.050000 1.200000 0.028000 0.033000
1559795736164925410	800 33 1.000000 0.053000 0.054000 900 30 0.900000 0.478000 0.449000 600 35 1.000000 0.050000 0.050000 1.200000 0.033000 0.039000
1559795736676015743	800 33 1.000000 0.070000 0.071000 900 30 0.900000 0.480000 0.451000 600 34 1.000000 0.050000 0.050000 1.200000 0.038000 0.045000
1559795737186827618	800 33 1.000000 0.037000 0.037000 900 30 0.900000 0.477000 0.448000 600 34 1.000000 0.050000 0.050000 1.200000 0.028000 0.033000
1559795737698251327	800 33 1.000000 0.035000 0.035000 900 30 0.900000 0.475000 0.446000 600 34 1.000000 0.050000 0.050000 1.200000 0.027000 0.032000
1559795738210939702	800 33 1.000000 0.054000 0.055000 900 30 0.900000 0.476000 0.447000 600 34 1.000000 0.050000 0.050000 1.200000 0.034000 0.041000
1559795738723216743	800 34 1.000000 0.071000 0.072000 900 30 0.900000 0.484000 0.455000 600 34 1.000000 0.050000 0.050000 1.200000 0.048000 0.058000
1559795739234019118	800 33 1.000000 0.033000 0.033000 900 30 0.900000 0.475000 0.446000 600 34 1.000000 0.050000 0.050000 1.200000 0.027000 0.032000
1559795739744596660	800 33 1.000000 0.033000 0.033000 900 30 0.900000 0.477000 0.448000 600 34 1.000000 0.050000 0.050000 1.200000 0.027000 0.032000
1559795740255440077	800 33 1.000000 0.034000 0.034000 900 30 0.900000 0.476000 0.447000 600 34 1.000000 0.050000 0.050000 1.200000 0.031000 0.037000
1559795740766288577	800 33 1.000000 0.040000 0.041000 900 30 0.900000 0.489000 0.459000 600 34 1.000000 0.050000 0.050000 1.200000 0.047000 0.056000
1559795741276997244	800 33 1.000000 0.035000 0.035000 900 30 0.900000 0.474000 0.446000 600 34 1.000000 0.050000 0.050000 1.200000 0.026000 0.031000
1559795741787714869	800 33 1.000000 0.035000 0.035000 900 30 0.900000 0.475000 0.446000 600 34 1.000000 0.050000 0.050000 1.200000 0.026000 0.031000
1559795742298308702	800 33 1.000000 0.052000 0.053000 900 30 0.900000 0.476000 0.447000 600 34 1.000000 0.050000 0.050000 1.200000 0.028000 0.033000
1559795742811414786	800 33 1.000000 0.035000 0.035000 900 30 0.900000 0.485000 0.456000 600 34 1.000000 0.050000 0.050000 1.200000 0.037000 0.044000
1559795743323935452	800 33 1.000000 0.077000 0.078000 900 30 0.900000 0.480000 0.451000 600 34 1.000000 0.050000 0.050000 1.200000 0.040000 0.048000
1559795743834674494	800 33 1.000000 0.035000 0.035000 900 30 0.900000 0.475000 0.446000 600 34 1.000000 0.050000 0.050000 1.200000 0.028000 0.033000
1559795744345484744	800 33 1.000000 0.048000 0.049000 900 30 0.900000 0.481000 0.452000 600 34 1.000000 0.050000 0.050000 1.200000 0.034000 0.041000
1559795744857423203	800 33 1.000000 0.035000 0.035000 900 30 0.900000 0.477000 0.448000 600 34 1.000000 0.050000 0.050000 1.200000 0.028000 0.033000
1559795745368243869	800 33 1.000000 0.079000 0.080000 900 30 0.900000 0.486000 0.457000 600 34 1.000000 0.051000 0.051000 1.200000 0.048000 0.058000
1559795745879155369	800 33 1.000000 0.034000 0.034000 900 30 0.900000 0.473000 0.444000 600 34 1.000000 0.051000 0.051000 1.200000 0.026000 0.031000
1559795746390004494	800 33 1.000000 0.052000 0.053000 900 30 0.900000 0.480000 0.451000 600 34 1.000000 0.050000 0.050000 1.200000 0.033000 0.039000
1559795746900789536	800 33 1.000000 0.033000 0.033000 900 30 0.900000 0.476000 0.447000 600 34 1.000000 0.050000 0.050000 1.200000 0.027000 0.032000
1559795747411713036	800 33 1.000000 0.036000 0.036000 900 30 0.900000 0.492000 0.462000 600 34 1.000000 0.050000 0.050000 1.200000 0.045000 0.054000
1559795747922434620	800 33 1.000000 0.037000 0.037000 900 30 0.900000 0.475000 0.446000 600 34 1.000000 0.050000 0.050000 1.200000 0.027000 0.032000
1559795748433170245	800 33 1.000000 0.038000 0.038000 900 30 0.900000 0.475000 0.446000 600 34 1.000000 0.050000 0.050000 1.200000 0.032000 0.038000
1559795748943918536	800 33 1.000000 0.035000 0.035000 900 30 0.900000 0.476000 0.447000 600 34 1.000000 0.050000 0.050000 1.200000 0.026000 0.031000
1559795749459264286	800 33 1.000000 0.033000 0.033000 900 30 0.900000 0.477000 0.448000 600 34 1.000000 0.050000 0.050000 1.200000 0.039000 0.047000
1559795749970292953	800 33 1.000000 0.034000 0.034000 900 30 0.900000 0.481000 0.452000 600 34 1.000000 0.050000 0.050000 1.200000 0.026000 0.031000
1559795750481164453	800 33 1.000000 0.052000 0.053000 900 30 0.900000 0.474000 0.446000 600 34 1.000000 0.050000 0.050000 1.200000 0.034000 0.041000
1559795750991980078	800 33 1.000000 0.033000 0.033000 900 30 0.900000 0.474000 0.445000 600 34 1.000000 0.050000 0.050000 1.200000 0.027000 0.032000
1559795751504761120	800 33 1.000000 0.037000 0.037000 900 30 0.900000 0.476000 0.447000 600 34 1.000000 0.050000 0.050000 1.200000 0.028000 0.033000
1559795752016806037	800 33 1.000000 0.079000 0.080000 900 30 0.900000 0.479000 0.450000 600 34 1.000000 0.051000 0.051000 1.200000 0.049000 0.059000
1559795752527762537	800 33 1.000000 0.034000 0.034000 900 30 0.900000 0.476000 0.447000 600 34 1.000000 0.050000 0.050000 1.200000 0.028000 0.033000
1559795753038605745	800 33 1.000000 0.033000 0.033000 900 30 0.900000 0.476000 0.447000 600 34 1.000000 0.050000 0.050000 1.200000 0.026000 0.031000
1559795753549401870	800 33 1.000000 0.037000 0.037000 900 30 0.900000 0.474000 0.446000 600 34 1.000000 0.050000 0.050000 1.200000 0.027000 0.032000
1559795754060091245	800 33 1.000000 0.035000 0.035000 900 30 0.900000 0.476000 0.447000 600 34 1.000000 0.050000 0.050000 1.200000 0.045000 0.054000
1559795754570923995	800 33 1.000000 0.035000 0.035000 900 30 0.900000 0.477000 0.448000 600 34 1.000000 0.050000 0.050000 1.200000 0.029000 0.035000
1559795755081676495	800 33 1.000000 0.037000 0.037000 900 30 0.900000 0.475000 0.446000 600 34 1.000000 0.050000 0.050000 1.200000 0.027000 0.032000
1559795755592276287	800 33 1.000000 0.035000 0.035000 900 30 0.900000 0.473000 0.445000 600 34 1.000000 0.050000 0.050000 1.200000 0.027000 0.032000
1559795756106016496	800 33 1.000000 0.035000 0.035000 900 30 0.900000 0.474000 0.446000 600 34 1.000000 0.050000 0.050000 1.200000 0.026000 0.031000
1559795756618121537	800 33 1.000000 0.035000 0.035000 900 30 0.900000 0.480000 0.451000 600 34 1.000000 0.050000 0.050000 1.200000 0.040000 0.048000
1559795757128644912	800 33 1.000000 0.033000 0.033000 900 30 0.900000 0.477000 0.448000 600 34 1.000000 0.050000 0.050000 1.200000 0.029000 0.035000
1559795757639267829	800 33 1.000000 0.033000 0.033000 900 30 0.900000 0.475000 0.446000 600 34 1.000000 0.050000 0.050000 1.200000 0.029000 0.035000
1559795758151383371	800 33 1.000000 0.033000 0.033000 900 30 0.900000 0.473000 0.445000 600 34 1.000000 0.051000 0.051000 1.200000 0.028000 0.033000
1559795758662177704	800 33 1.000000 0.050000 0.051000 900 30 0.900000 0.487000 0.457000 600 34 1.000000 0.050000 0.050000 1.200000 0.050000 0.060000
1559795759172898871	800 33 1.000000 0.033000 0.033000 900 30 0.900000 0.477000 0.448000 600 34 1.000000 0.050000 0.050000 1.200000 0.027000 0.032000
1559795759683751746	800 33 1.000000 0.034000 0.034000 900 30 0.900000 0.477000 0.448000 600 34 1.000000 0.050000 0.050000 1.200000 0.029000 0.035000
1559795760194573038	800 33 1.000000 0.036000 0.036000 900 30 0.900000 0.475000 0.446000 600 34 1.000000 0.050000 0.050000 1.200000 0.027000 0.032000
1559795760705658371	800 33 1.000000 0.037000 0.037000 900 30 0.900000 0.474000 0.446000 600 34 1.000000 0.051000 0.051000 1.200000 0.027000 0.032000
1559795761216333413	800 33 1.000000 0.061000 0.062000 900 30 0.900000 0.479000 0.450000 600 34 1.000000 0.050000 0.050000 1.200000 0.039000 0.047000
1559795761727240621	800 33 1.000000 0.035000 0.035000 900 30 0.900000 0.477000 0.448000 600 34 1.000000 0.050000 0.050000 1.200000 0.027000 0.032000
1559795762237934455	800 33 1.000000 0.037000 0.037000 900 30 0.900000 0.477000 0.448000 600 34 1.000000 0.050000 0.050000 1.200000 0.029000 0.035000
1559795762752748871	800 33 1.000000 0.035000 0.035000 900 30 0.900000 0.475000 0.446000 600 34 1.000000 0.050000 0.050000 1.200000 0.027000 0.032000
1559795763264051413	800 33 1.000000 0.060000 0.061000 900 30 0.900000 0.483000 0.454000 600 34 1.000000 0.050000 0.050000 1.200000 0.047000 0.056000
1559795763775028413	800 33 1.000000 0.033000 0.033000 900 30 0.900000 0.476000 0.447000 600 34 1.000000 0.050000 0.050000 1.200000 0.027000 0.032000
1559795764285867330	800 33 1.000000 0.033000 0.033000 900 30 0.900000 0.478000 0.449000 600 34 1.000000 0.050000 0.050000 1.200000 0.028000 0.033000
1559795764798536580	800 33 1.000000 0.033000 0.033000 900 30 0.900000 0.477000 0.448000 600 34 1.000000 0.050000 0.050000 1.200000 0.029000 0.035000
1559795765310548080	800 33 1.000000 0.049000 0.050000 900 30 0.900000 0.490000 0.461000 600 34 1.000000 0.050000 0.050000 1.200000 0.053000 0.064000
1559795765820997247	800 33 1.000000 0.033000 0.033000 900 30 0.900000 0.473000 0.445000 600 34 1.000000 0.050000 0.050000 1.200000 0.029000 0.035000
1559795766331533622	800 33 1.000000 0.037000 0.037000 900 30 0.900000 0.475000 0.446000 600 34 1.000000 0.050000 0.050000 1.200000 0.027000 0.032000
1559795766842039538	800 33 1.000000 0.034000 0.034000 900 30 0.900000 0.476000 0.447000 600 34 1.000000 0.050000 0.050000 1.200000 0.025000 0.030000
1559795767352594664	800 33 1.000000 0.077000 0.078000 900 30 0.900000 0.493000 0.463000 600 34 1.000000 0.050000 0.050000 1.200000 0.047000 0.056000
1559795767863494080	800 33 1.000000 0.055000 0.056000 900 30 0.900000 0.475000 0.446000 600 34 1.000000 0.050000 0.050000 1.200000 0.035000 0.042000
1559795768374143497	800 33 1.000000 0.034000 0.034000 900 30 0.900000 0.473000 0.445000 600 34 1.000000 0.050000 0.050000 1.200000 0.028000 0.033000
1559795768884771289	800 33 1.000000 0.035000 0.035000 900 30 0.900000 0.475000 0.446000 600 34 1.000000 0.051000 0.051000 1.200000 0.028000 0.033000
1559795769396072122	800 33 1.000000 0.045000 0.046000 900 30 0.900000 0.480000 0.451000 600 34 1.000000 0.050000 0.050000 1.200000 0.029000 0.035000
1559795769907242830	800 33 1.000000 0.055000 0.056000 900 30 0.900000 0.483000 0.454000 600 34 1.000000 0.050000 0.050000 1.200000 0.042000 0.050000
1559795770418088789	800 33 1.000000 0.035000 0.035000 900 30 0.900000 0.474000 0.446000 600 34 1.000000 0.050000 0.050000 1.200000 0.028000 0.033000
1559795770928597706	800 33 1.000000 0.033000 0.033000 900 30 0.900000 0.473000 0.445000 600 34 1.000000 0.050000 0.050000 1.200000 0.028000 0.033000
1559795771440634747	800 33 1.000000 0.052000 0.053000 900 30 0.900000 0.481000 0.452000 600 34 1.000000 0.050000 0.050000 1.200000 0.029000 0.035000
1559795771951747747	800 33 1.000000 0.055000 0.056000 900 30 0.900000 0.490000 0.461000 600 34 1.000000 0.050000 0.050000 1.200000 0.049000 0.059000
1559795772462465039	800 33 1.000000 0.035000 0.035000 900 30 0.900000 0.474000 0.445000 600 34 1.000000 0.050000 0.050000 1.200000 0.027000 0.032000
1559795772972974998	800 33 1.000000 0.037000 0.037000 900 30 0.900000 0.473000 0.445000 600 34 1.000000 0.050000 0.050000 1.200000 0.028000 0.033000
1559795773483701331	800 33 1.000000 0.035000 0.035000 900 30 0.900000 0.478000 0.449000 600 34 1.000000 0.050000 0.050000 1.200000 0.032000 0.038000
1559795773994564539	800 33 1.000000 0.055000 0.056000 900 30 0.900000 0.489000 0.459000 600 34 1.000000 0.050000 0.050000 1.200000 0.043000 0.052000
1559795774505035331	800 33 1.000000 0.033000 0.033000 900 30 0.900000 0.476000 0.447000 600 34 1.000000 0.051000 0.051000 1.200000 0.027000 0.032000
1559795775015767248	800 33 1.000000 0.033000 0.033000 900 30 0.900000 0.474000 0.446000 600 34 1.000000 0.050000 0.050000 1.200000 0.027000 0.032000
1559795775526511623	800 33 1.000000 0.052000 0.053000 900 30 0.900000 0.478000 0.449000 600 34 1.000000 0.050000 0.050000 1.200000 0.032000 0.038000
1559795776039179540	800 33 1.000000 0.037000 0.037000 900 30 0.900000 0.475000 0.446000 600 34 1.000000 0.050000 0.050000 1.200000 0.028000 0.033000
1559795776550367790	800 33 1.000000 0.061000 0.062000 900 30 0.900000 0.483000 0.454000 600 34 1.000000 0.050000 0.050000 1.200000 0.042000 0.050000
1559795777060895081	800 33 1.000000 0.035000 0.035000 900 30 0.900000 0.478000 0.449000 600 34 1.000000 0.050000 0.050000 1.200000 0.028000 0.033000
1559795777571535331	800 33 1.000000 0.036000 0.036000 900 30 0.900000 0.474000 0.445000 600 34 1.000000 0.050000 0.050000 1.200000 0.029000 0.035000
1559795778085613331	800 33 1.000000 0.034000 0.034000 900 30 0.900000 0.473000 0.445000 600 34 1.000000 0.050000 0.050000 1.200000 0.028000 0.033000
1559795778596628998	800 33 1.000000 0.062000 0.063000 900 30 0.900000 0.487000 0.458000 600 34 1.000000 0.050000 0.050000 1.200000 0.049000 0.059000
1559795779107405790	800 33 1.000000 0.035000 0.035000 900 30 0.900000 0.475000 0.446000 600 34 1.000000 0.050000 0.050000 1.200000 0.027000 0.032000
1559795779618253707	800 33 1.000000 0.037000 0.037000 900 30 0.900000 0.475000 0.446000 600 34 1.000000 0.050000 0.050000 1.200000 0.027000 0.032000
1559795780128929123	800 33 1.000000 0.037000 0.037000 900 30 0.900000 0.474000 0.445000 600 34 1.000000 0.050000 0.050000 1.200000 0.027000 0.032000
1559795780639727915	800 33 1.000000 0.047000 0.048000 900 30 0.900000 0.487000 0.458000 600 34 1.000000 0.050000 0.050000 1.200000 0.042000 0.050000
1559795781150416165	800 33 1.000000 0.036000 0.036000 900 30 0.900000 0.474000 0.445000 600 34 1.000000 0.051000 0.051000 1.200000 0.026000 0.031000
1559795781661102332	800 33 1.000000 0.033000 0.033000 900 30 0.900000 0.476000 0.447000 600 34 1.000000 0.050000 0.050000 1.200000 0.027000 0.032000
1559795782171766374	800 33 1.000000 0.033000 0.033000 900 30 0.900000 0.474000 0.445000 600 34 1.000000 0.050000 0.050000 1.200000 0.026000 0.031000
1559795782683238374	800 33 1.000000 0.044000 0.045000 900 30 0.900000 0.482000 0.453000 600 34 1.000000 0.050000 0.050000 1.200000 0.033000 0.039000
1559795783194349999	800 33 1.000000 0.033000 0.033000 900 30 0.900000 0.473000 0.444000 600 34 1.000000 0.050000 0.050000 1.200000 0.026000 0.031000
1559795783705019415	800 33 1.000000 0.040000 0.041000 900 30 0.900000 0.478000 0.449000 600 34 1.000000 0.050000 0.050000 1.200000 0.027000 0.032000
1559795784215819957	800 33 1.000000 0.046000 0.047000 900 30 0.900000 0.477000 0.448000 600 34 1.000000 0.050000 0.050000 1.200000 0.033000 0.039000
1559795784728707874	800 33 1.000000 0.037000 0.037000 900 30 0.900000 0.475000 0.446000 600 34 1.000000 0.050000 0.050000 1.200000 0.028000 0.033000
1559795785239761666	800 33 1.000000 0.043000 0.044000 900 30 0.900000 0.488000 0.458000 600 34 1.000000 0.050000 0.050000 1.200000 0.050000 0.060000
1559795785751204999	800 32 1.000000 0.034000 0.034000 900 30 0.900000 0.471000 0.442000 600 34 1.000000 0.050000 0.050000 1.200000 0.028000 0.033000
1559795786264001999	800 34 1.000000 0.056000 0.057000 900 30 0.900000 0.470000 0.441000 600 37 1.000000 0.050000 0.050000 1.200000 0.080000 0.097000
1559795786776830374	800 35 1.000000 0.150000 0.153000 900 31 0.900000 1.607000 1.518000 600 39 1.000000 0.050000 0.050000 1.200000 0.088000 0.106000
1559795787289778874	800 36 1.000000 0.157000 0.160000 900 32 0.900000 1.595000 1.508000 600 40 1.000000 0.050000 0.050000 1.200000 0.096000 0.116000
1559795787802998249	800 37 1.000000 0.150000 0.153000 900 32 0.900000 1.602000 1.515000 600 41 1.000000 0.050000 0.050000 1.200000 0.087000 0.105000
1559795788316164333	800 37 1.000000 0.170000 0.173000 900 33 0.900000 1.602000 1.513000 600 42 1.000000 0.051000 0.051000 1.200000 0.087000 0.105000
1559795788829426041	800 37 1.000000 0.149000 0.152000 900 33 0.900000 1.605000 1.518000 600 42 1.000000 0.051000 0.051000 1.200000 0.087000 0.105000
1559795789344194583	800 38 1.000000 0.149000 0.152000 900 33 0.900000 1.606000 1.519000 600 42 1.000000 0.051000 0.051000 1.200000 0.088000 0.106000
1559795789857673166	800 38 1.000000 0.151000 0.154000 900 34 0.900000 1.597000 1.510000 600 42 1.000000 0.051000 0.051000 1.200000 0.087000 0.105000
1559795790370567250	800 38 1.000000 0.150000 0.153000 900 34 0.900000 1.605000 1.518000 600 43 1.000000 0.050000 0.050000 1.200000 0.087000 0.105000
1559795790883585666	800 38 1.000000 0.150000 0.153000 900 34 0.900000 1.606000 1.519000 600 43 1.000000 0.051000 0.051000 1.200000 0.087000 0.105000
1559795791396506958	800 38 1.000000 0.151000 0.154000 900 34 0.900000 1.607000 1.520000 600 43 1.000000 0.051000 0.051000 1.200000 0.087000 0.105000
1559795791909686791	800 39 1.000000 0.184000 0.187000 900 34 0.900000 1.598000 1.511000 600 43 1.000000 0.051000 0.051000 1.200000 0.093000 0.112000
1559795792422639875	800 39 1.000000 0.172000 0.175000 900 35 0.900000 1.604000 1.517000 600 43 1.000000 0.051000 0.051000 1.200000 0.087000 0.105000
1559795792935484750	800 39 1.000000 0.152000 0.155000 900 35 0.900000 1.609000 1.522000 600 43 1.000000 0.051000 0.051000 1.200000 0.088000 0.106000
1559795793448447875	800 39 1.000000 0.152000 0.155000 900 35 0.900000 1.609000 1.522000 600 44 1.000000 0.051000 0.051000 1.200000 0.087000 0.105000
1559795793961527833	800 39 1.000000 0.152000 0.155000 900 35 0.900000 1.609000 1.522000 600 44 1.000000 0.051000 0.051000 1.200000 0.088000 0.106000
1559795794474662375	800 39 1.000000 0.175000 0.178000 900 35 0.900000 1.599000 1.511000 600 44 1.000000 0.051000 0.051000 1.200000 0.091000 0.110000
1559795794987690000	800 39 1.000000 0.152000 0.155000 900 35 0.900000 1.608000 1.521000 600 44 1.000000 0.051000 0.051000 1.200000 0.087000 0.105000
1559795795500543375	800 39 1.000000 0.153000 0.156000 900 35 0.900000 1.609000 1.522000 600 44 1.000000 0.051000 0.051000 1.200000 0.087000 0.105000
1559795796015994917	800 39 1.000000 0.152000 0.155000 900 35 0.900000 1.611000 1.524000 600 44 1.000000 0.051000 0.051000 1.200000 0.087000 0.105000
1559795796528866000	800 39 1.000000 0.196000 0.200000 900 35 0.900000 1.599000 1.512000 600 44 1.000000 0.051000 0.051000 1.200000 0.097000 0.117000
1559795797041897875	800 40 1.000000 0.150000 0.153000 900 35 0.900000 1.609000 1.522000 600 44 1.000000 0.051000 0.051000 1.200000 0.087000 0.105000
1559795797554892459	800 40 1.000000 0.149000 0.152000 900 35 0.900000 1.609000 1.522000 600 44 1.000000 0.051000 0.051000 1.200000 0.087000 0.105000
1559795798067980209	800 40 1.000000 0.152000 0.155000 900 35 0.900000 1.609000 1.522000 600 44 1.000000 0.051000 0.051000 1.200000 0.088000 0.106000
1559795798580936167	800 40 1.000000 0.158000 0.161000 900 36 0.900000 1.606000 1.519000 600 44 1.000000 0.051000 0.051000 1.200000 0.089000 0.107000
1559795799093917834	800 40 1.000000 0.153000 0.156000 900 35 0.900000 1.610000 1.523000 600 44 1.000000 0.051000 0.051000 1.200000 0.088000 0.106000
1559795799606826542	800 40 1.000000 0.152000 0.155000 900 36 0.900000 1.610000 1.523000 600 44 1.000000 0.051000 0.051000 1.200000 0.088000 0.106000
1559795800119924667	800 40 1.000000 0.150000 0.153000 900 36 0.900000 1.611000 1.524000 600 44 1.000000 0.051000 0.051000 1.200000 0.088000 0.106000
1559795800634883501	800 40 1.000000 0.155000 0.158000 900 36 0.900000 1.611000 1.524000 600 45 1.000000 0.051000 0.051000 1.200000 0.087000 0.105000
1559795801148379251	800 40 1.000000 0.150000 0.153000 900 36 0.900000 1.607000 1.520000 600 44 1.000000 0.051000 0.051000 1.200000 0.095000 0.115000
1559795801661424293	800 40 1.000000 0.149000 0.152000 900 36 0.900000 1.611000 1.524000 600 45 1.000000 0.051000 0.051000 1.200000 0.087000 0.105000
1559795802174570584	800 40 1.000000 0.150000 0.153000 900 36 0.900000 1.611000 1.524000 600 45 1.000000 0.051000 0.051000 1.200000 0.088000 0.106000
1559795802687689168	800 40 1.000000 0.153000 0.156000 900 36 0.900000 1.610000 1.523000 600 44 1.000000 0.051000 0.051000 1.200000 0.088000 0.106000
1559795803200737043	800 40 1.000000 0.184000 0.188000 900 36 0.900000 1.604000 1.517000 600 45 1.000000 0.051000 0.051000 1.200000 0.092000 0.111000
1559795803713705126	800 40 1.000000 0.152000 0.155000 900 36 0.900000 1.609000 1.522000 600 45 1.000000 0.051000 0.051000 1.200000 0.087000 0.105000
1559795804226760876	800 40 1.000000 0.153000 0.156000 900 36 0.900000 1.610000 1.523000 600 45 1.000000 0.051000 0.051000 1.200000 0.088000 0.106000
1559795804739595001	800 40 1.000000 0.153000 0.156000 900 36 0.900000 1.610000 1.523000 600 45 1.000000 0.051000 0.051000 1.200000 0.088000 0.106000
1559795805252454126	800 40 1.000000 0.172000 0.175000 900 36 0.900000 1.608000 1.521000 600 45 1.000000 0.051000 0.051000 1.200000 0.092000 0.111000
1559795805765534626	800 40 1.000000 0.170000 0.173000 900 36 0.900000 1.609000 1.522000 600 45 1.000000 0.051000 0.051000 1.200000 0.095000 0.115000
1559795806278439293	800 40 1.000000 0.152000 0.155000 900 36 0.900000 1.610000 1.523000 600 45 1.000000 0.051000 0.051000 1.200000 0.088000 0.106000
1559795806791509710	800 40 1.000000 0.152000 0.155000 900 36 0.900000 1.612000 1.524000 600 45 1.000000 0.051000 0.051000 1.200000 0.088000 0.106000
1559795807307285085	800 40 1.000000 0.163000 0.166000 900 36 0.900000 1.610000 1.523000 600 45 1.000000 0.051000 0.051000 1.200000 0.092000 0.111000
1559795807820363127	800 40 1.000000 0.179000 0.182000 900 36 0.900000 1.603000 1.516000 600 45 1.000000 0.051000 0.051000 1.200000 0.103000 0.124000
1559795808333393960	800 40 1.000000 0.151000 0.154000 900 36 0.900000 1.612000 1.524000 600 45 1.000000 0.051000 0.051000 1.200000 0.088000 0.106000
1559795808846666002	800 40 1.000000 0.151000 0.154000 900 36 0.900000 1.610000 1.523000 600 45 1.000000 0.051000 0.051000 1.200000 0.087000 0.105000
1559795809359873252	800 40 1.000000 0.150000 0.153000 900 36 0.900000 1.611000 1.524000 600 45 1.000000 0.051000 0.051000 1.200000 0.091000 0.110000
1559795809872939002	800 40 1.000000 0.187000 0.190000 900 36 0.900000 1.602000 1.515000 600 45 1.000000 0.051000 0.051000 1.200000 0.096000 0.116000
1559795810385916585	800 40 1.000000 0.153000 0.156000 900 36 0.900000 1.611000 1.524000 600 45 1.000000 0.051000 0.051000 1.200000 0.087000 0.105000
1559795810898612877	800 40 1.000000 0.153000 0.156000 900 36 0.900000 1.611000 1.524000 600 45 1.000000 0.051000 0.051000 1.200000 0.087000 0.105000
1559795811411647044	800 40 1.000000 0.172000 0.175000 900 36 0.900000 1.610000 1.521000 600 45 1.000000 0.051000 0.051000 1.200000 0.089000 0.107000
1559795811928235752	800 41 1.000000 0.153000 0.156000 900 36 0.900000 1.610000 1.523000 600 45 1.000000 0.051000 0.051000 1.200000 0.088000 0.106000
1559795812441521627	800 40 1.000000 0.195000 0.199000 900 36 0.900000 1.603000 1.516000 600 45 1.000000 0.051000 0.051000 1.200000 0.103000 0.124000
1559795812954622586	800 40 1.000000 0.152000 0.155000 900 36 0.900000 1.610000 1.523000 600 45 1.000000 0.051000 0.051000 1.200000 0.088000 0.106000
1559795813467806169	800 41 1.000000 0.170000 0.173000 900 36 0.900000 1.607000 1.520000 600 45 1.000000 0.051000 0.051000 1.200000 0.091000 0.110000
1559795813981020794	800 41 1.000000 0.155000 0.158000 900 36 0.900000 1.611000 1.524000 600 45 1.000000 0.051000 0.051000 1.200000 0.088000 0.106000
1559795814493974877	800 41 1.000000 0.186000 0.190000 900 36 0.900000 1.600000 1.513000 600 45 1.000000 0.051000 0.051000 1.200000 0.097000 0.117000
1559795815007071753	800 41 1.000000 0.153000 0.156000 900 36 0.900000 1.610000 1.523000 600 45 1.000000 0.051000 0.051000 1.200000 0.088000 0.106000
1559795815519905711	800 41 1.000000 0.169000 0.172000 900 36 0.900000 1.608000 1.521000 600 45 1.000000 0.051000 0.051000 1.200000 0.092000 0.111000
1559795816033213378	800 41 1.000000 0.152000 0.155000 900 36 0.900000 1.611000 1.524000 600 45 1.000000 0.051000 0.051000 1.200000 0.088000 0.106000
1559795816546574919	800 41 1.000000 0.176000 0.179000 900 36 0.900000 1.607000 1.520000 600 45 1.000000 0.051000 0.051000 1.200000 0.089000 0.107000
1559795817059637461	800 41 1.000000 0.170000 0.173000 900 37 0.900000 1.612000 1.524000 600 45 1.000000 0.051000 0.051000 1.200000 0.088000 0.106000
1559795817572415545	800 41 1.000000 0.159000 0.162000 900 36 0.900000 1.608000 1.521000 600 45 1.000000 0.051000 0.051000 1.200000 0.091000 0.110000
1559795818085702128	800 41 1.000000 0.153000 0.156000 900 36 0.900000 1.612000 1.524000 600 45 1.000000 0.051000 0.051000 1.200000 0.087000 0.105000
1559795818600399295	800 41 1.000000 0.153000 0.156000 900 36 0.900000 1.611000 1.524000 600 45 1.000000 0.051000 0.051000 1.200000 0.087000 0.105000
1559795819113614170	800 41 1.000000 0.178000 0.181000 900 37 0.900000 1.609000 1.522000 600 45 1.000000 0.051000 0.051000 1.200000 0.094000 0.113000
1559795819626634753	800 41 1.000000 0.170000 0.173000 900 37 0.900000 1.610000 1.523000 600 45 1.000000 0.051000 0.051000 1.200000 0.091000 0.110000
1559795820139596920	800 41 1.000000 0.152000 0.155000 900 36 0.900000 1.611000 1.524000 600 45 1.000000 0.051000 0.051000 1.200000 0.087000 0.105000
1559795820652606420	800 41 1.000000 0.152000 0.155000 900 37 0.900000 1.611000 1.524000 600 46 1.000000 0.051000 0.051000 1.200000 0.087000 0.105000
1559795821165739837	800 41 1.000000 0.160000 0.163000 900 37 0.900000 1.605000 1.518000 600 46 1.000000 0.051000 0.051000 1.200000 0.089000 0.107000
1559795821678788087	800 41 1.000000 0.153000 0.156000 900 37 0.900000 1.610000 1.523000 600 46 1.000000 0.051000 0.051000 1.200000 0.088000 0.106000
1559795822191869212	800 41 1.000000 0.154000 0.157000 900 37 0.900000 1.611000 1.524000 600 46 1.000000 0.051000 0.051000 1.200000 0.088000 0.106000
1559795822704949087	800 41 1.000000 0.154000 0.157000 900 37 0.900000 1.610000 1.523000 600 46 1.000000 0.051000 0.051000 1.200000 0.088000 0.106000
1559795823219046670	800 41 1.000000 0.155000 0.158000 900 37 0.900000 1.610000 1.523000 600 46 1.000000 0.051000 0.051000 1.200000 0.088000 0.106000
1559795823732115420	800 41 1.000000 0.195000 0.199000 900 37 0.900000 1.609000 1.522000 600 46 1.000000 0.051000 0.051000 1.200000 0.095000 0.115000
1559795824243761212	800 40 1.000000 0.160000 0.163000 900 37 0.900000 1.612000 1.524000 600 44 1.000000 0.051000 0.051000 1.200000 0.088000 0.106000
1559795824754748629	800 36 1.000000 0.095000 0.097000 900 35 0.900000 0.098000 0.093000 600 41 1.000000 0.051000 0.051000 1.200000 0.029000 0.035000
1559795825265588462	800 35 1.000000 0.038000 0.038000 900 34 0.900000 0.095000 0.090000 600 39 1.000000 0.051000 0.051000 1.200000 0.022000 0.026000
