#Timestamp	CPU(0) Frequency(MHz)	CPU(0) Temperature(C)	A7 Voltage(V)	A7 Current(A)	A7 Power(W)	CPU(4) Frequency(MHz)	CPU(4) Temperature(C)	A15 Voltage(V)	A15 Current(A)	A15 Power(W)	GPU Frequency(MHz)	GPU Temperature(C)	GPU Voltage(V)	GPU Current(A)	GPU Power(W)	RAM Voltage(V)	RAM Current(A)	RAM Power(W)
1517157987429866927	1500 71 1.200000 0.481000 0.622000 2000 56 1.200000 1.852000 2.259000 600 75 1.000000 0.055000 0.055000 1.200000 0.051000 0.061000
1517157987934475302	1500 73 1.200000 0.547000 0.708000 2000 58 1.300000 4.532000 6.059000 600 79 1.000000 0.055000 0.055000 1.200000 0.056000 0.067000
1517157988464591678	1500 76 1.200000 0.488000 0.632000 2000 60 1.300000 5.168000 6.930000 600 83 1.000000 0.055000 0.055000 1.200000 0.045000 0.054000
1517157988974070886	1500 74 1.200000 0.464000 0.601000 1900 61 1.300000 4.439000 5.939000 600 81 1.000000 0.056000 0.056000 1.200000 0.051000 0.061000
1517157989488283678	1500 78 1.200000 0.541000 0.700000 2000 62 1.200000 4.437000 5.728000 600 83 1.000000 0.056000 0.056000 1.200000 0.043000 0.051000
1517157990006574928	1500 80 1.200000 0.479000 0.620000 2000 63 1.300000 4.413000 5.811000 600 86 1.000000 0.057000 0.057000 1.200000 0.058000 0.070000
1517157990510945136	1500 79 1.200000 0.518000 0.670000 2000 63 1.300000 4.333000 5.697000 600 85 1.000000 0.057000 0.057000 1.200000 0.047000 0.056000
1517157991052620803	1500 78 1.200000 0.441000 0.571000 1900 63 1.300000 4.385000 5.748000 600 84 1.000000 0.057000 0.057000 1.200000 0.051000 0.061000
1517157991558560345	1500 75 1.200000 0.512000 0.663000 1800 63 1.300000 4.204000 5.486000 600 84 1.000000 0.057000 0.057000 1.200000 0.053000 0.063000
1517157992063916428	1500 78 1.200000 0.512000 0.664000 1900 64 1.200000 4.072000 5.183000 600 83 1.000000 0.057000 0.057000 1.200000 0.052000 0.062000
1517157992569168845	1500 76 1.200000 0.587000 0.758000 1900 64 1.200000 3.887000 4.944000 600 84 1.000000 0.057000 0.057000 1.200000 0.048000 0.057000
1517157993078572595	1500 76 1.200000 0.465000 0.602000 1800 64 1.200000 3.949000 4.944000 600 81 1.000000 0.057000 0.057000 1.200000 0.050000 0.060000
1517157993583237636	1500 78 1.200000 0.572000 0.739000 1900 64 1.200000 3.818000 4.764000 600 84 1.000000 0.057000 0.057000 1.200000 0.052000 0.062000
1517157994119728512	1500 79 1.200000 0.480000 0.622000 1900 64 1.200000 4.416000 5.630000 600 84 1.000000 0.057000 0.057000 1.200000 0.045000 0.054000
1517157994624372053	1500 79 1.200000 0.499000 0.646000 1900 64 1.200000 4.023000 5.117000 600 85 1.000000 0.057000 0.057000 1.200000 0.057000 0.068000
1517157995128715345	1500 76 1.200000 0.476000 0.616000 1900 64 1.200000 4.184000 5.326000 600 86 1.000000 0.057000 0.057000 1.200000 0.046000 0.055000
1517157995634475303	1500 76 1.200000 0.506000 0.655000 1900 64 1.200000 3.700000 4.721000 600 81 1.000000 0.057000 0.057000 1.200000 0.053000 0.063000
1517157996140373012	1500 81 1.200000 0.489000 0.633000 2000 64 1.200000 3.906000 4.968000 600 87 1.000000 0.057000 0.057000 1.200000 0.047000 0.056000
1517157996656683012	1500 79 1.200000 0.507000 0.656000 1900 64 1.300000 4.472000 5.894000 600 85 1.000000 0.057000 0.057000 1.200000 0.064000 0.077000
1517157997161635220	1500 74 1.200000 0.487000 0.631000 1900 64 1.200000 3.888000 4.902000 600 82 1.000000 0.057000 0.057000 1.200000 0.050000 0.060000
1517157997684022220	1500 78 1.200000 0.548000 0.708000 1900 64 1.200000 4.431000 5.587000 600 83 1.000000 0.057000 0.057000 1.200000 0.044000 0.053000
1517157998218020637	1500 79 1.200000 0.483000 0.626000 1900 64 1.200000 3.892000 4.950000 600 84 1.000000 0.057000 0.057000 1.200000 0.050000 0.060000
1517157998746152220	1500 80 1.200000 0.575000 0.742000 2000 64 1.200000 3.854000 4.902000 600 85 1.000000 0.057000 0.057000 1.200000 0.056000 0.067000
1517157999283712220	1500 80 1.200000 0.491000 0.636000 1900 65 1.300000 4.371000 5.704000 600 85 1.000000 0.057000 0.057000 1.200000 0.052000 0.062000
1517157999793072096	1500 76 1.200000 0.541000 0.699000 1800 65 1.300000 4.380000 5.746000 600 85 1.000000 0.057000 0.057000 1.200000 0.052000 0.062000
1517158000298403221	1500 78 1.200000 0.509000 0.660000 1900 65 1.200000 4.345000 5.457000 600 86 1.000000 0.057000 0.057000 1.200000 0.045000 0.054000
1517158000816133721	1500 77 1.200000 0.509000 0.659000 1800 64 1.200000 3.352000 4.039000 600 83 1.000000 0.057000 0.057000 1.200000 0.057000 0.068000
1517158001321411929	1500 71 1.200000 0.484000 0.627000 1800 63 1.200000 3.487000 4.247000 600 78 1.000000 0.057000 0.057000 1.200000 0.046000 0.055000
1517158001864005471	1500 78 1.200000 0.505000 0.654000 1900 64 1.200000 3.336000 4.069000 600 82 1.000000 0.057000 0.057000 1.200000 0.056000 0.067000
1517158002398409679	1500 78 1.200000 0.475000 0.615000 1900 64 1.200000 3.712000 4.547000 600 84 1.000000 0.057000 0.057000 1.200000 0.049000 0.059000
1517158002910383096	1500 78 1.200000 0.479000 0.619000 1800 64 1.300000 5.249000 7.007000 600 83 1.000000 0.057000 0.057000 1.200000 0.044000 0.053000
1517158003419012596	1500 81 1.200000 0.509000 0.660000 2000 65 1.200000 3.558000 4.347000 600 87 1.000000 0.057000 0.057000 1.200000 0.057000 0.068000
1517158003924067263	1500 79 1.200000 0.575000 0.742000 1900 65 1.300000 4.973000 6.574000 600 83 1.000000 0.057000 0.057000 1.200000 0.049000 0.059000
1517158004432840388	1500 77 1.200000 0.471000 0.610000 1800 64 1.200000 3.904000 4.965000 600 82 1.000000 0.057000 0.057000 1.200000 0.051000 0.061000
1517158004980851096	1500 78 1.200000 0.558000 0.721000 1900 65 1.200000 4.124000 5.101000 600 85 1.000000 0.057000 0.057000 1.200000 0.043000 0.051000
1517158005486025638	1500 73 1.200000 0.485000 0.629000 1900 64 1.200000 3.974000 5.054000 600 80 1.000000 0.057000 0.057000 1.200000 0.056000 0.067000
1517158006005885638	1500 79 1.200000 0.480000 0.622000 1900 64 1.200000 3.905000 4.967000 600 84 1.000000 0.057000 0.057000 1.200000 0.051000 0.061000
1517158006511106596	1500 79 1.200000 0.455000 0.590000 1900 64 1.200000 4.204000 5.259000 600 85 1.000000 0.057000 0.057000 1.200000 0.048000 0.057000
1517158007021121305	1500 77 1.200000 0.491000 0.636000 1800 64 1.200000 3.879000 4.934000 600 80 1.000000 0.057000 0.057000 1.200000 0.050000 0.060000
1517158007528189721	1500 79 1.200000 0.479000 0.620000 1900 64 1.200000 4.295000 5.377000 600 84 1.000000 0.057000 0.057000 1.200000 0.045000 0.054000
1517158008070379222	1500 77 1.200000 0.569000 0.735000 1900 64 1.200000 3.704000 4.581000 600 83 1.000000 0.057000 0.057000 1.200000 0.050000 0.060000
1517158008577508263	1500 79 1.200000 0.475000 0.615000 1900 64 1.200000 3.765000 4.789000 600 83 1.000000 0.057000 0.057000 1.200000 0.048000 0.057000
1517158009095977722	1500 80 1.200000 0.546000 0.705000 1900 65 1.200000 4.015000 5.107000 600 85 1.000000 0.057000 0.057000 1.200000 0.049000 0.059000
1517158009605249263	1500 76 1.200000 0.509000 0.660000 1800 64 1.200000 4.037000 5.135000 600 82 1.000000 0.057000 0.057000 1.200000 0.050000 0.060000
1517158010137580638	1500 79 1.200000 0.560000 0.723000 1900 65 1.200000 4.093000 5.181000 600 84 1.000000 0.057000 0.057000 1.200000 0.049000 0.059000
1517158010642794013	1500 73 1.200000 0.486000 0.630000 1900 64 1.200000 3.524000 4.306000 600 79 1.000000 0.057000 0.057000 1.200000 0.051000 0.061000
1517158011147574347	1500 79 1.200000 0.549000 0.710000 1900 64 1.200000 4.161000 5.296000 600 84 1.000000 0.057000 0.057000 1.200000 0.047000 0.056000
1517158011667468222	1500 77 1.200000 0.483000 0.626000 1800 64 1.200000 3.889000 4.923000 600 84 1.000000 0.057000 0.057000 1.200000 0.052000 0.062000
1517158012192388264	1500 77 1.200000 0.559000 0.722000 1800 64 1.200000 4.196000 5.295000 600 81 1.000000 0.057000 0.057000 1.200000 0.047000 0.056000
1517158012740256139	1500 79 1.200000 0.499000 0.647000 1900 64 1.200000 3.866000 4.917000 600 83 1.000000 0.057000 0.057000 1.200000 0.052000 0.062000
1517158013248859347	1500 73 1.200000 0.590000 0.762000 1900 64 1.200000 4.088000 5.060000 600 79 1.000000 0.057000 0.057000 1.200000 0.042000 0.050000
1517158013796599139	1500 74 1.200000 0.493000 0.639000 1700 64 1.200000 3.556000 4.391000 600 80 1.000000 0.057000 0.057000 1.200000 0.053000 0.063000
1517158014329951972	1500 78 1.200000 0.551000 0.712000 1900 64 1.200000 3.498000 4.344000 600 83 1.000000 0.057000 0.057000 1.200000 0.052000 0.062000
1517158014834904222	1500 78 1.200000 0.491000 0.636000 1900 64 1.200000 4.400000 5.614000 600 80 1.000000 0.057000 0.057000 1.200000 0.050000 0.060000
1517158015346579722	1500 78 1.200000 0.553000 0.715000 1800 64 1.200000 4.008000 5.070000 600 84 1.000000 0.057000 0.057000 1.200000 0.051000 0.061000
1517158015850991431	1500 80 1.200000 0.460000 0.596000 1900 65 1.200000 3.990000 5.075000 600 85 1.000000 0.057000 0.057000 1.200000 0.045000 0.054000
1517158016356314556	1500 76 1.200000 0.472000 0.612000 1800 64 1.200000 3.821000 4.627000 600 81 1.000000 0.057000 0.057000 1.200000 0.056000 0.067000
1517158016879086056	1500 77 1.200000 0.483000 0.626000 1900 63 1.200000 3.300000 4.026000 600 82 1.000000 0.057000 0.057000 1.200000 0.047000 0.056000
1517158017427988556	1500 77 1.200000 0.454000 0.588000 1900 64 1.200000 4.474000 5.708000 600 83 1.000000 0.057000 0.057000 1.200000 0.053000 0.063000
1517158017932902723	1500 78 1.200000 0.563000 0.727000 2000 64 1.300000 4.734000 6.343000 600 81 1.000000 0.057000 0.057000 1.200000 0.052000 0.062000
1517158018462278806	1500 81 1.200000 0.500000 0.648000 2000 65 1.300000 4.736000 6.350000 600 88 1.000000 0.057000 0.057000 1.200000 0.050000 0.060000
1517158018966726348	1500 66 1.300000 0.429000 0.557000 2000 62 1.300000 3.287000 4.374000 600 72 1.000000 0.057000 0.057000 1.200000 0.054000 0.065000
1517158019471046848	1500 61 1.300000 0.108000 0.141000 2000 59 1.300000 0.509000 0.670000 600 66 1.000000 0.057000 0.057000 1.200000 0.024000 0.028000
