#Timestamp	CPU(0) Frequency(MHz)	CPU(0) Temperature(C)	A7 Voltage(V)	A7 Current(A)	A7 Power(W)	CPU(4) Frequency(MHz)	CPU(4) Temperature(C)	A15 Voltage(V)	A15 Current(A)	A15 Power(W)	GPU Frequency(MHz)	GPU Temperature(C)	GPU Voltage(V)	GPU Current(A)	GPU Power(W)	RAM Voltage(V)	RAM Current(A)	RAM Power(W)
1559810966229814809	600 33 1.000000 0.053000 0.053000 1700 32 1.100000 0.362000 0.424000 600 36 1.000000 0.050000 0.050000 1.200000 0.039000 0.047000
1559810966735078600	600 33 0.900000 0.066000 0.062000 1700 32 1.100000 0.244000 0.285000 600 36 1.000000 0.050000 0.050000 1.200000 0.035000 0.042000
1559810967240168309	600 32 0.900000 0.065000 0.061000 1700 31 1.100000 0.245000 0.287000 600 36 1.000000 0.051000 0.051000 1.200000 0.035000 0.042000
1559810967745538351	600 33 0.900000 0.068000 0.064000 1700 32 1.100000 0.677000 0.790000 600 37 1.000000 0.050000 0.050000 1.200000 0.034000 0.041000
1559810968250847684	600 32 0.900000 0.065000 0.061000 1700 31 1.100000 0.246000 0.287000 600 36 1.000000 0.050000 0.050000 1.200000 0.035000 0.042000
1559810968756036476	600 32 0.900000 0.065000 0.061000 1700 31 1.100000 0.242000 0.282000 600 36 1.000000 0.050000 0.050000 1.200000 0.035000 0.042000
1559810969261283392	600 32 0.900000 0.065000 0.061000 1700 31 1.100000 0.248000 0.289000 600 36 1.000000 0.051000 0.051000 1.200000 0.035000 0.042000
1559810969766561476	600 33 0.900000 0.068000 0.064000 1700 31 1.100000 0.247000 0.288000 600 37 1.000000 0.051000 0.051000 1.200000 0.035000 0.042000
1559810970271737643	600 32 0.900000 0.071000 0.067000 1700 31 1.100000 0.222000 0.258000 600 36 1.000000 0.051000 0.051000 1.200000 0.035000 0.042000
1559810970776933851	600 32 0.900000 0.069000 0.065000 1700 31 1.100000 0.225000 0.264000 600 36 1.000000 0.050000 0.050000 1.200000 0.025000 0.030000
1559810971282076309	600 32 0.900000 0.069000 0.065000 1700 31 1.100000 0.214000 0.249000 600 36 1.000000 0.050000 0.050000 1.200000 0.024000 0.028000
1559810971788011143	600 34 0.900000 0.069000 0.065000 1700 31 1.100000 0.212000 0.247000 600 36 1.000000 0.051000 0.051000 1.200000 0.024000 0.028000
1559810972293586101	600 32 0.900000 0.071000 0.067000 1700 31 1.100000 0.217000 0.253000 600 36 1.000000 0.050000 0.050000 1.200000 0.031000 0.037000
1559810972798738018	600 32 0.900000 0.068000 0.064000 1700 31 1.100000 0.220000 0.256000 600 35 1.000000 0.050000 0.050000 1.200000 0.025000 0.030000
1559810973303692101	600 32 0.900000 0.069000 0.065000 1700 31 1.100000 0.218000 0.254000 600 35 1.000000 0.050000 0.050000 1.200000 0.024000 0.029000
1559810973809669268	600 32 0.900000 0.068000 0.064000 1700 31 1.100000 0.227000 0.264000 600 36 1.000000 0.051000 0.051000 1.200000 0.025000 0.030000
1559810974315041268	600 32 0.900000 0.069000 0.065000 1700 31 1.100000 0.552000 0.644000 600 36 1.000000 0.051000 0.051000 1.200000 0.028000 0.033000
1559810974820279101	600 32 0.900000 0.069000 0.065000 1700 31 1.100000 0.240000 0.279000 600 35 1.000000 0.051000 0.051000 1.200000 0.024000 0.029000
1559810975325398476	600 32 0.900000 0.069000 0.065000 1700 31 1.100000 0.222000 0.258000 600 35 1.000000 0.050000 0.050000 1.200000 0.024000 0.029000
1559810975830661560	600 32 0.900000 0.068000 0.064000 1700 31 1.100000 0.250000 0.291000 600 35 1.000000 0.050000 0.050000 1.200000 0.024000 0.029000
1559810976335910518	600 32 0.900000 0.070000 0.066000 1700 31 1.100000 0.338000 0.395000 600 36 1.000000 0.050000 0.050000 1.200000 0.030000 0.036000
1559810976841078727	600 32 0.900000 0.069000 0.065000 1700 31 1.100000 0.247000 0.289000 600 35 1.000000 0.050000 0.050000 1.200000 0.024000 0.029000
1559810977346090977	600 32 0.900000 0.069000 0.065000 1700 31 1.100000 0.224000 0.261000 600 35 1.000000 0.050000 0.050000 1.200000 0.024000 0.028000
1559810977851382143	600 32 0.900000 0.068000 0.064000 1700 31 1.100000 0.240000 0.279000 600 36 1.000000 0.050000 0.050000 1.200000 0.024000 0.028000
1559810978356599893	600 32 0.900000 0.070000 0.066000 1700 31 1.100000 0.371000 0.432000 600 36 1.000000 0.050000 0.050000 1.200000 0.027000 0.032000
1559810978861708519	600 32 0.900000 0.068000 0.064000 1700 31 1.100000 0.222000 0.258000 600 35 1.000000 0.050000 0.050000 1.200000 0.024000 0.028000
1559810979366889144	600 31 0.900000 0.069000 0.065000 1700 30 1.100000 0.248000 0.290000 600 35 1.000000 0.050000 0.050000 1.200000 0.025000 0.030000
1559810979872233269	600 32 0.900000 0.069000 0.065000 1700 31 1.100000 0.219000 0.255000 600 36 1.000000 0.050000 0.050000 1.200000 0.025000 0.030000
1559810980377480977	600 32 0.900000 0.070000 0.066000 1700 31 1.100000 0.309000 0.361000 600 36 1.000000 0.051000 0.051000 1.200000 0.027000 0.032000
1559810980882768269	600 32 0.900000 0.069000 0.065000 1700 31 1.100000 0.487000 0.568000 600 35 1.000000 0.050000 0.050000 1.200000 0.026000 0.031000
1559810981387894019	600 31 0.900000 0.068000 0.064000 1700 30 1.100000 0.241000 0.281000 600 35 1.000000 0.051000 0.051000 1.200000 0.024000 0.028000
1559810981893151269	600 32 0.900000 0.068000 0.064000 1700 30 1.100000 0.231000 0.269000 600 35 1.000000 0.051000 0.051000 1.200000 0.025000 0.030000
1559810982398478561	600 32 0.900000 0.069000 0.065000 1700 31 1.100000 0.346000 0.403000 600 36 1.000000 0.050000 0.050000 1.200000 0.027000 0.032000
1559810982903609477	600 32 0.900000 0.071000 0.067000 1700 31 1.100000 0.450000 0.525000 600 35 1.000000 0.050000 0.050000 1.200000 0.026000 0.031000
1559810983408691186	600 32 0.900000 0.069000 0.065000 1700 31 1.100000 0.221000 0.257000 600 35 1.000000 0.050000 0.050000 1.200000 0.024000 0.028000
1559810983913930811	600 32 0.900000 0.069000 0.065000 1700 30 1.100000 0.246000 0.287000 600 35 1.000000 0.050000 0.050000 1.200000 0.025000 0.030000
1559810984419220644	600 33 0.900000 0.069000 0.065000 1700 31 1.100000 0.339000 0.395000 600 37 1.000000 0.051000 0.051000 1.200000 0.024000 0.029000
1559810984924403144	600 32 0.900000 0.069000 0.065000 1700 31 1.100000 0.359000 0.419000 600 35 1.000000 0.050000 0.050000 1.200000 0.024000 0.028000
1559810985429500894	600 31 0.900000 0.069000 0.065000 1700 30 1.100000 0.235000 0.274000 600 35 1.000000 0.051000 0.051000 1.200000 0.024000 0.028000
1559810985935030144	600 32 0.900000 0.068000 0.064000 1700 30 1.100000 0.217000 0.254000 600 35 1.000000 0.050000 0.050000 1.200000 0.024000 0.028000
1559810986441530769	600 32 0.900000 0.069000 0.065000 1700 30 1.100000 0.213000 0.248000 600 36 1.000000 0.050000 0.050000 1.200000 0.024000 0.028000
1559810986947109061	600 32 0.900000 0.071000 0.067000 1700 31 1.100000 0.497000 0.583000 600 35 1.000000 0.050000 0.050000 1.200000 0.029000 0.035000
1559810987452294603	600 31 0.900000 0.068000 0.064000 1700 30 1.100000 0.249000 0.290000 600 35 1.000000 0.050000 0.050000 1.200000 0.025000 0.030000
1559810987957883561	600 32 0.900000 0.069000 0.065000 1700 30 1.100000 0.221000 0.258000 600 35 1.000000 0.050000 0.050000 1.200000 0.024000 0.028000
1559810988463283186	600 31 0.900000 0.069000 0.065000 1700 30 1.100000 0.366000 0.427000 600 35 1.000000 0.050000 0.050000 1.200000 0.028000 0.033000
1559810988968502978	600 32 0.900000 0.070000 0.066000 1700 31 1.100000 0.552000 0.644000 600 35 1.000000 0.050000 0.050000 1.200000 0.029000 0.035000
1559810989473632728	600 32 0.900000 0.068000 0.064000 1700 30 1.100000 0.249000 0.290000 600 35 1.000000 0.051000 0.051000 1.200000 0.025000 0.030000
1559810989979213562	600 32 0.900000 0.068000 0.064000 1700 30 1.100000 0.227000 0.264000 600 35 1.000000 0.050000 0.050000 1.200000 0.024000 0.028000
1559810990484629062	600 31 0.900000 0.069000 0.065000 1700 30 1.100000 0.346000 0.403000 600 35 1.000000 0.050000 0.050000 1.200000 0.024000 0.028000
1559810990989962978	600 32 0.900000 0.070000 0.066000 1700 31 1.100000 0.539000 0.629000 600 35 1.000000 0.050000 0.050000 1.200000 0.028000 0.033000
1559810991495250603	600 31 0.900000 0.068000 0.064000 1700 30 1.100000 0.212000 0.247000 600 35 1.000000 0.050000 0.050000 1.200000 0.024000 0.028000
1559810992000345062	600 32 0.900000 0.069000 0.065000 1700 30 1.100000 0.215000 0.250000 600 35 1.000000 0.050000 0.050000 1.200000 0.024000 0.028000
1559810992505836270	600 31 0.900000 0.068000 0.064000 1700 30 1.100000 0.220000 0.256000 600 35 1.000000 0.050000 0.050000 1.200000 0.024000 0.029000
1559810993011231020	600 32 0.900000 0.069000 0.065000 1700 30 1.100000 0.253000 0.294000 600 35 1.000000 0.050000 0.050000 1.200000 0.025000 0.030000
1559810993516442520	600 31 0.900000 0.069000 0.065000 1700 30 1.100000 0.217000 0.253000 600 35 1.000000 0.050000 0.050000 1.200000 0.024000 0.029000
1559810994021497562	600 31 0.900000 0.068000 0.064000 1700 30 1.100000 0.243000 0.284000 600 35 1.000000 0.050000 0.050000 1.200000 0.025000 0.030000
1559810994526845812	600 31 0.900000 0.069000 0.065000 1700 30 1.100000 0.364000 0.425000 600 35 1.000000 0.050000 0.050000 1.200000 0.028000 0.033000
1559810995032082729	600 32 0.900000 0.069000 0.065000 1700 30 1.100000 0.234000 0.272000 600 36 1.000000 0.050000 0.050000 1.200000 0.025000 0.030000
1559810995537282437	600 31 0.900000 0.071000 0.067000 1700 30 1.100000 0.247000 0.288000 600 35 1.000000 0.050000 0.050000 1.200000 0.024000 0.029000
1559810996042275021	600 31 0.900000 0.069000 0.065000 1700 30 1.100000 0.215000 0.251000 600 35 1.000000 0.050000 0.050000 1.200000 0.024000 0.028000
1559810996547777271	600 31 0.900000 0.068000 0.064000 1700 30 1.100000 0.359000 0.419000 600 35 1.000000 0.050000 0.050000 1.200000 0.026000 0.031000
1559810997052995562	600 33 0.900000 0.068000 0.064000 1700 31 1.100000 0.217000 0.253000 600 36 1.000000 0.050000 0.050000 1.200000 0.024000 0.028000
1559810997558228896	600 31 0.900000 0.069000 0.065000 1700 30 1.100000 0.219000 0.255000 600 35 1.000000 0.050000 0.050000 1.200000 0.024000 0.028000
1559810998063256896	600 31 0.900000 0.069000 0.065000 1700 30 1.100000 0.217000 0.253000 600 35 1.000000 0.051000 0.051000 1.200000 0.025000 0.030000
1559810998568628313	600 31 0.900000 0.069000 0.065000 1700 30 1.100000 0.215000 0.251000 600 35 1.000000 0.050000 0.050000 1.200000 0.024000 0.029000
1559810999075191938	600 33 0.900000 0.069000 0.065000 1700 30 1.100000 0.240000 0.280000 600 35 1.000000 0.050000 0.050000 1.200000 0.025000 0.030000
1559810999581296104	600 31 0.900000 0.070000 0.066000 1700 30 1.100000 0.581000 0.678000 600 35 1.000000 0.050000 0.050000 1.200000 0.030000 0.036000
1559811000086503854	600 31 0.900000 0.068000 0.064000 1700 30 1.100000 0.245000 0.287000 600 35 1.000000 0.050000 0.050000 1.200000 0.024000 0.029000
1559811000591842021	600 31 0.900000 0.068000 0.064000 1700 30 1.100000 0.358000 0.417000 600 35 1.000000 0.050000 0.050000 1.200000 0.027000 0.032000
1559811001097120688	600 31 0.900000 0.068000 0.064000 1700 30 1.100000 0.247000 0.288000 600 35 1.000000 0.051000 0.051000 1.200000 0.024000 0.028000
1559811001602464105	600 32 0.900000 0.069000 0.065000 1700 30 1.100000 0.547000 0.638000 600 35 1.000000 0.050000 0.050000 1.200000 0.028000 0.033000
1559811002107607771	600 31 0.900000 0.068000 0.064000 1700 30 1.100000 0.218000 0.254000 600 35 1.000000 0.050000 0.050000 1.200000 0.024000 0.028000
1559811002613082521	600 31 0.900000 0.069000 0.065000 1700 30 1.100000 0.347000 0.405000 600 35 1.000000 0.050000 0.050000 1.200000 0.025000 0.030000
1559811003118395355	600 31 0.900000 0.068000 0.064000 1700 30 1.100000 0.217000 0.253000 600 35 1.000000 0.051000 0.051000 1.200000 0.024000 0.028000
1559811003623568563	600 32 0.900000 0.071000 0.067000 1700 30 1.100000 0.535000 0.624000 600 35 1.000000 0.050000 0.050000 1.200000 0.026000 0.031000
1559811004128733147	600 31 0.900000 0.069000 0.065000 1700 30 1.100000 0.214000 0.249000 600 35 1.000000 0.051000 0.051000 1.200000 0.024000 0.028000
1559811004634154688	600 31 0.900000 0.069000 0.065000 1700 30 1.100000 0.224000 0.262000 600 35 1.000000 0.050000 0.050000 1.200000 0.024000 0.028000
1559811005139361605	600 31 0.900000 0.069000 0.065000 1700 30 1.100000 0.222000 0.259000 600 35 1.000000 0.050000 0.050000 1.200000 0.025000 0.030000
1559811005644650480	600 32 0.900000 0.069000 0.065000 1700 30 1.100000 0.353000 0.411000 600 35 1.000000 0.050000 0.050000 1.200000 0.027000 0.032000
1559811006149826897	600 31 0.900000 0.068000 0.064000 1700 30 1.100000 0.216000 0.252000 600 35 1.000000 0.051000 0.051000 1.200000 0.024000 0.028000
1559811006655326189	600 31 0.900000 0.069000 0.065000 1700 30 1.100000 0.347000 0.405000 600 35 1.000000 0.050000 0.050000 1.200000 0.027000 0.032000
1559811007160689897	600 31 0.900000 0.069000 0.065000 1700 30 1.100000 0.217000 0.253000 600 35 1.000000 0.050000 0.050000 1.200000 0.024000 0.028000
1559811007666011605	600 32 0.900000 0.070000 0.066000 1700 31 1.100000 0.379000 0.444000 600 36 1.000000 0.050000 0.050000 1.200000 0.024000 0.028000
1559811008171166480	600 31 0.900000 0.069000 0.065000 1700 30 1.100000 0.214000 0.249000 600 35 1.000000 0.050000 0.050000 1.200000 0.025000 0.030000
1559811008676414022	600 31 0.900000 0.069000 0.065000 1700 30 1.100000 0.353000 0.412000 600 35 1.000000 0.051000 0.051000 1.200000 0.026000 0.031000
1559811009181656439	600 31 0.900000 0.069000 0.065000 1700 30 1.100000 0.216000 0.252000 600 35 1.000000 0.051000 0.051000 1.200000 0.024000 0.028000
1559811009687007981	600 32 0.900000 0.069000 0.065000 1700 30 1.100000 0.465000 0.544000 600 36 1.000000 0.050000 0.050000 1.200000 0.024000 0.028000
1559811010192149314	600 31 0.900000 0.069000 0.065000 1700 30 1.100000 0.216000 0.252000 600 35 1.000000 0.050000 0.050000 1.200000 0.024000 0.028000
1559811010697656439	600 31 0.900000 0.069000 0.065000 1700 30 1.100000 0.215000 0.250000 600 35 1.000000 0.051000 0.051000 1.200000 0.028000 0.033000
1559811011202853856	600 31 0.900000 0.069000 0.065000 1700 30 1.100000 0.242000 0.283000 600 35 1.000000 0.050000 0.050000 1.200000 0.024000 0.028000
1559811011708563522	600 33 0.900000 0.068000 0.064000 1700 30 1.100000 0.219000 0.255000 600 36 1.000000 0.050000 0.050000 1.200000 0.024000 0.028000
1559811012214076814	600 31 0.900000 0.070000 0.066000 1700 30 1.100000 0.230000 0.269000 600 35 1.000000 0.050000 0.050000 1.200000 0.030000 0.036000
1559811012719399356	600 31 0.900000 0.069000 0.065000 1700 30 1.100000 0.333000 0.388000 600 35 1.000000 0.050000 0.050000 1.200000 0.025000 0.030000
1559811013224739648	600 31 0.900000 0.068000 0.064000 1700 30 1.100000 0.220000 0.256000 600 35 1.000000 0.050000 0.050000 1.200000 0.025000 0.030000
1559811013729837273	600 31 0.900000 0.069000 0.065000 1700 30 1.100000 0.247000 0.288000 600 35 1.000000 0.050000 0.050000 1.200000 0.025000 0.030000
1559811014235004773	600 32 0.900000 0.069000 0.065000 1700 30 1.100000 0.538000 0.627000 600 35 1.000000 0.050000 0.050000 1.200000 0.029000 0.035000
1559811014740440273	600 31 0.900000 0.069000 0.065000 1700 31 1.100000 0.250000 0.291000 600 35 1.000000 0.050000 0.050000 1.200000 0.025000 0.030000
1559811015245745440	600 31 0.900000 0.068000 0.064000 1700 30 1.100000 0.230000 0.268000 600 35 1.000000 0.050000 0.050000 1.200000 0.025000 0.030000
1559811015750923898	600 31 0.900000 0.068000 0.064000 1700 30 1.100000 0.235000 0.274000 600 35 1.000000 0.051000 0.051000 1.200000 0.024000 0.028000
1559811016256113981	600 32 0.900000 0.070000 0.066000 1700 30 1.100000 0.575000 0.671000 600 35 1.000000 0.050000 0.050000 1.200000 0.028000 0.033000
1559811016761665315	600 31 0.900000 0.069000 0.065000 1700 30 1.100000 0.219000 0.256000 600 35 1.000000 0.050000 0.050000 1.200000 0.024000 0.028000
1559811017266856523	600 31 0.900000 0.068000 0.064000 1700 30 1.100000 0.253000 0.295000 600 35 1.000000 0.051000 0.051000 1.200000 0.025000 0.030000
1559811017772003190	600 31 0.900000 0.068000 0.064000 1700 30 1.100000 0.216000 0.251000 600 35 1.000000 0.050000 0.050000 1.200000 0.024000 0.028000
1559811018277197982	600 32 0.900000 0.069000 0.065000 1700 31 1.100000 0.248000 0.289000 600 35 1.000000 0.050000 0.050000 1.200000 0.024000 0.028000
1559811018782533565	600 31 0.900000 0.068000 0.064000 1700 30 1.100000 0.218000 0.254000 600 35 1.000000 0.050000 0.050000 1.200000 0.025000 0.030000
1559811019287622065	600 31 0.900000 0.069000 0.065000 1700 30 1.100000 0.245000 0.286000 600 35 1.000000 0.050000 0.050000 1.200000 0.024000 0.028000
1559811019792751690	600 31 0.900000 0.068000 0.064000 1700 30 1.100000 0.233000 0.271000 600 35 1.000000 0.050000 0.050000 1.200000 0.025000 0.030000
1559811020297922690	600 32 0.900000 0.070000 0.066000 1700 31 1.100000 0.225000 0.262000 600 35 1.000000 0.050000 0.050000 1.200000 0.024000 0.028000
1559811020803370565	600 32 0.900000 0.069000 0.065000 1700 30 1.100000 0.244000 0.284000 600 35 1.000000 0.050000 0.050000 1.200000 0.026000 0.031000
1559811021308577315	600 31 0.900000 0.069000 0.065000 1700 30 1.100000 0.220000 0.257000 600 35 1.000000 0.050000 0.050000 1.200000 0.024000 0.028000
1559811021813667607	600 32 0.900000 0.068000 0.064000 1700 30 1.100000 0.254000 0.296000 600 35 1.000000 0.050000 0.050000 1.200000 0.024000 0.028000
1559811022318909190	600 32 0.900000 0.068000 0.064000 1700 31 1.100000 0.217000 0.253000 600 36 1.000000 0.050000 0.050000 1.200000 0.024000 0.029000
1559811022824280190	600 32 0.900000 0.070000 0.066000 1700 30 1.100000 0.567000 0.663000 600 35 1.000000 0.050000 0.050000 1.200000 0.028000 0.033000
1559811023329656316	600 31 0.900000 0.068000 0.064000 1700 30 1.100000 0.228000 0.266000 600 35 1.000000 0.050000 0.050000 1.200000 0.025000 0.030000
1559811023834760982	600 31 0.900000 0.069000 0.065000 1700 30 1.100000 0.230000 0.268000 600 35 1.000000 0.050000 0.050000 1.200000 0.024000 0.029000
1559811024340808691	600 33 0.900000 0.068000 0.064000 1700 30 1.100000 0.246000 0.287000 600 36 1.000000 0.051000 0.051000 1.200000 0.025000 0.030000
1559811024846438607	600 32 0.900000 0.069000 0.065000 1700 31 1.100000 0.572000 0.669000 600 35 1.000000 0.050000 0.050000 1.200000 0.030000 0.036000
1559811025351607357	600 31 0.900000 0.068000 0.064000 1700 30 1.100000 0.254000 0.296000 600 35 1.000000 0.050000 0.050000 1.200000 0.025000 0.030000
1559811025856762441	600 31 0.900000 0.068000 0.064000 1700 30 1.100000 0.215000 0.251000 600 35 1.000000 0.050000 0.050000 1.200000 0.024000 0.029000
1559811026362490066	600 32 0.900000 0.068000 0.064000 1700 30 1.100000 0.250000 0.292000 600 35 1.000000 0.050000 0.050000 1.200000 0.024000 0.029000
1559811026868109608	600 32 0.900000 0.069000 0.065000 1700 30 1.100000 0.569000 0.665000 600 35 1.000000 0.050000 0.050000 1.200000 0.029000 0.035000
1559811027373431691	600 31 0.900000 0.069000 0.065000 1700 30 1.100000 0.221000 0.257000 600 35 1.000000 0.050000 0.050000 1.200000 0.024000 0.029000
1559811027878595983	600 31 0.900000 0.069000 0.065000 1700 30 1.100000 0.214000 0.250000 600 35 1.000000 0.050000 0.050000 1.200000 0.024000 0.029000
1559811028383619441	600 31 0.900000 0.068000 0.064000 1700 30 1.100000 0.214000 0.249000 600 35 1.000000 0.050000 0.050000 1.200000 0.024000 0.029000
1559811028889066441	600 32 0.900000 0.069000 0.065000 1700 30 1.100000 0.292000 0.340000 600 36 1.000000 0.051000 0.051000 1.200000 0.027000 0.032000
1559811029394391483	600 31 0.900000 0.069000 0.065000 1700 30 1.100000 0.230000 0.268000 600 35 1.000000 0.050000 0.050000 1.200000 0.024000 0.029000
1559811029899664900	600 31 0.900000 0.068000 0.064000 1700 30 1.100000 0.251000 0.292000 600 35 1.000000 0.050000 0.050000 1.200000 0.025000 0.030000
1559811030404680733	600 31 0.900000 0.068000 0.064000 1700 30 1.100000 0.217000 0.253000 600 35 1.000000 0.050000 0.050000 1.200000 0.024000 0.028000
1559811030910121316	600 32 0.900000 0.070000 0.066000 1700 31 1.100000 0.380000 0.444000 600 35 1.000000 0.051000 0.051000 1.200000 0.029000 0.035000
1559811031415330816	600 31 0.900000 0.069000 0.065000 1700 30 1.100000 0.227000 0.264000 600 35 1.000000 0.050000 0.050000 1.200000 0.024000 0.028000
1559811031920394400	600 31 0.900000 0.069000 0.065000 1700 30 1.100000 0.243000 0.283000 600 35 1.000000 0.050000 0.050000 1.200000 0.024000 0.028000
1559811032425597233	600 31 0.900000 0.068000 0.064000 1700 30 1.100000 0.215000 0.250000 600 35 1.000000 0.051000 0.051000 1.200000 0.024000 0.028000
1559811032930868400	600 32 0.900000 0.071000 0.067000 1700 30 1.100000 0.427000 0.499000 600 36 1.000000 0.051000 0.051000 1.200000 0.030000 0.036000
1559811033436124608	600 31 0.900000 0.068000 0.064000 1700 30 1.100000 0.215000 0.250000 600 35 1.000000 0.050000 0.050000 1.200000 0.024000 0.028000
1559811033941145025	600 31 0.900000 0.068000 0.064000 1700 30 1.100000 0.219000 0.256000 600 35 1.000000 0.051000 0.051000 1.200000 0.024000 0.028000
1559811034446392150	600 31 0.900000 0.068000 0.064000 1700 30 1.100000 0.220000 0.257000 600 35 1.000000 0.050000 0.050000 1.200000 0.024000 0.028000
1559811034951692442	600 32 0.900000 0.069000 0.065000 1700 31 1.100000 0.221000 0.258000 600 36 1.000000 0.050000 0.050000 1.200000 0.024000 0.028000
1559811035456913650	600 32 0.900000 0.071000 0.067000 1700 30 1.100000 0.306000 0.358000 600 35 1.000000 0.050000 0.050000 1.200000 0.025000 0.030000
1559811035962120025	600 31 0.900000 0.069000 0.065000 1700 30 1.100000 0.235000 0.274000 600 35 1.000000 0.050000 0.050000 1.200000 0.024000 0.028000
1559811036467241442	600 31 0.900000 0.068000 0.064000 1700 30 1.100000 0.230000 0.268000 600 35 1.000000 0.050000 0.050000 1.200000 0.024000 0.028000
1559811036972447650	600 33 0.900000 0.069000 0.065000 1700 30 1.100000 0.248000 0.289000 600 36 1.000000 0.050000 0.050000 1.200000 0.024000 0.028000
1559811037477688317	600 32 0.900000 0.069000 0.065000 1700 31 1.100000 0.226000 0.263000 600 35 1.000000 0.050000 0.050000 1.200000 0.024000 0.029000
1559811037982796609	600 31 0.900000 0.068000 0.064000 1700 30 1.100000 0.213000 0.248000 600 35 1.000000 0.050000 0.050000 1.200000 0.024000 0.028000
1559811038487935692	600 31 0.900000 0.069000 0.065000 1700 30 1.100000 0.215000 0.250000 600 35 1.000000 0.050000 0.050000 1.200000 0.024000 0.028000
1559811038994057609	600 32 0.900000 0.068000 0.064000 1700 30 1.100000 0.220000 0.256000 600 36 1.000000 0.050000 0.050000 1.200000 0.025000 0.030000
1559811039499418651	600 32 0.900000 0.069000 0.065000 1700 30 1.100000 0.220000 0.256000 600 35 1.000000 0.050000 0.050000 1.200000 0.024000 0.028000
1559811040004616567	600 31 0.900000 0.069000 0.065000 1700 30 1.100000 0.215000 0.251000 600 35 1.000000 0.050000 0.050000 1.200000 0.024000 0.028000
1559811040509726109	600 31 0.900000 0.068000 0.064000 1700 30 1.100000 0.213000 0.248000 600 35 1.000000 0.050000 0.050000 1.200000 0.024000 0.028000
1559811041014963859	600 31 0.900000 0.069000 0.065000 1700 30 1.100000 0.221000 0.258000 600 35 1.000000 0.050000 0.050000 1.200000 0.024000 0.028000
1559811041520357401	600 32 0.900000 0.070000 0.066000 1700 31 1.100000 0.587000 0.685000 600 35 1.000000 0.050000 0.050000 1.200000 0.031000 0.037000
1559811042025562068	600 32 0.900000 0.068000 0.064000 1700 30 1.100000 0.220000 0.256000 600 35 1.000000 0.050000 0.050000 1.200000 0.025000 0.030000
1559811042530713026	600 31 0.900000 0.068000 0.064000 1700 30 1.100000 0.248000 0.289000 600 35 1.000000 0.050000 0.050000 1.200000 0.024000 0.029000
1559811043036080568	600 32 0.900000 0.068000 0.064000 1700 30 1.100000 0.214000 0.249000 600 35 1.000000 0.050000 0.050000 1.200000 0.024000 0.029000
1559811043541438193	600 32 0.900000 0.070000 0.066000 1700 31 1.100000 0.544000 0.634000 600 35 1.000000 0.050000 0.050000 1.200000 0.030000 0.036000
1559811044046651026	600 31 0.900000 0.069000 0.065000 1700 30 1.100000 0.220000 0.256000 600 35 1.000000 0.051000 0.051000 1.200000 0.024000 0.028000
1559811044551697568	600 31 0.900000 0.068000 0.064000 1700 30 1.100000 0.218000 0.255000 600 35 1.000000 0.050000 0.050000 1.200000 0.024000 0.028000
1559811045057061735	600 32 0.900000 0.069000 0.065000 1700 30 1.100000 0.213000 0.248000 600 35 1.000000 0.050000 0.050000 1.200000 0.024000 0.028000
1559811045562355610	600 32 0.900000 0.070000 0.066000 1700 31 1.100000 0.557000 0.650000 600 36 1.000000 0.051000 0.051000 1.200000 0.030000 0.036000
1559811046067512652	600 32 0.900000 0.068000 0.064000 1700 30 1.100000 0.216000 0.251000 600 35 1.000000 0.050000 0.050000 1.200000 0.024000 0.028000
1559811046572785777	600 31 0.900000 0.069000 0.065000 1700 30 1.100000 0.221000 0.258000 600 35 1.000000 0.050000 0.050000 1.200000 0.024000 0.028000
1559811047078220443	600 32 0.900000 0.068000 0.064000 1700 30 1.100000 0.246000 0.286000 600 35 1.000000 0.050000 0.050000 1.200000 0.024000 0.028000
1559811047583605193	600 32 0.900000 0.069000 0.065000 1700 31 1.100000 0.229000 0.267000 600 36 1.000000 0.050000 0.050000 1.200000 0.024000 0.029000
1559811048088779693	600 32 0.900000 0.069000 0.065000 1700 30 1.100000 0.217000 0.253000 600 35 1.000000 0.050000 0.050000 1.200000 0.024000 0.029000
1559811048593897610	600 31 0.900000 0.069000 0.065000 1700 30 1.100000 0.220000 0.258000 600 35 1.000000 0.051000 0.051000 1.200000 0.024000 0.029000
1559811049099162194	600 32 0.900000 0.068000 0.064000 1700 30 1.100000 0.221000 0.259000 600 35 1.000000 0.050000 0.050000 1.200000 0.024000 0.028000
1559811049604395944	600 33 0.900000 0.068000 0.064000 1700 31 1.100000 0.217000 0.254000 600 36 1.000000 0.050000 0.050000 1.200000 0.028000 0.033000
1559811050109613569	600 31 0.900000 0.069000 0.065000 1700 30 1.100000 0.211000 0.246000 600 35 1.000000 0.050000 0.050000 1.200000 0.031000 0.037000
1559811050614834652	600 31 0.900000 0.069000 0.065000 1700 30 1.100000 0.215000 0.250000 600 35 1.000000 0.050000 0.050000 1.200000 0.024000 0.029000
1559811051120309860	600 32 0.900000 0.069000 0.065000 1700 30 1.100000 0.220000 0.256000 600 35 1.000000 0.050000 0.050000 1.200000 0.025000 0.030000
1559811051626199861	600 33 0.900000 0.068000 0.064000 1700 31 1.100000 0.218000 0.254000 600 35 1.000000 0.050000 0.050000 1.200000 0.028000 0.033000
1559811052131539277	600 32 0.900000 0.069000 0.065000 1700 31 1.100000 0.582000 0.679000 600 35 1.000000 0.050000 0.050000 1.200000 0.029000 0.035000
1559811052636891527	600 31 0.900000 0.069000 0.065000 1700 30 1.100000 0.217000 0.254000 600 35 1.000000 0.050000 0.050000 1.200000 0.024000 0.029000
1559811053142467319	600 32 0.900000 0.068000 0.064000 1700 30 1.100000 0.242000 0.282000 600 35 1.000000 0.050000 0.050000 1.200000 0.025000 0.030000
1559811053647836402	600 31 0.900000 0.069000 0.065000 1700 30 1.100000 0.356000 0.417000 600 35 1.000000 0.050000 0.050000 1.200000 0.028000 0.033000
1559811054153050736	600 32 0.900000 0.069000 0.065000 1700 31 1.100000 0.304000 0.355000 600 35 1.000000 0.050000 0.050000 1.200000 0.026000 0.031000
1559811054658371069	600 31 0.900000 0.068000 0.064000 1700 30 1.100000 0.217000 0.253000 600 35 1.000000 0.050000 0.050000 1.200000 0.025000 0.030000
1559811055163512444	600 31 0.900000 0.069000 0.065000 1700 30 1.100000 0.246000 0.286000 600 35 1.000000 0.050000 0.050000 1.200000 0.024000 0.028000
1559811055668796236	600 31 0.900000 0.069000 0.065000 1700 30 1.100000 0.342000 0.400000 600 35 1.000000 0.050000 0.050000 1.200000 0.028000 0.033000
1559811056174121319	600 32 0.900000 0.071000 0.067000 1700 30 1.100000 0.355000 0.414000 600 35 1.000000 0.050000 0.050000 1.200000 0.028000 0.033000
1559811056679228361	600 31 0.900000 0.069000 0.065000 1700 31 1.100000 0.240000 0.281000 600 35 1.000000 0.050000 0.050000 1.200000 0.024000 0.028000
1559811057184264403	600 31 0.900000 0.069000 0.065000 1700 31 1.100000 0.220000 0.256000 600 35 1.000000 0.050000 0.050000 1.200000 0.024000 0.028000
1559811057689565236	600 31 0.900000 0.069000 0.065000 1700 30 1.100000 0.359000 0.418000 600 35 1.000000 0.050000 0.050000 1.200000 0.028000 0.033000
1559811058194880528	600 32 0.900000 0.070000 0.066000 1700 31 1.100000 0.431000 0.502000 600 35 1.000000 0.050000 0.050000 1.200000 0.029000 0.035000
1559811058700018486	600 31 0.900000 0.068000 0.064000 1700 31 1.100000 0.386000 0.450000 600 35 1.000000 0.050000 0.050000 1.200000 0.025000 0.030000
1559811059205142945	600 31 0.900000 0.069000 0.065000 1700 30 1.100000 0.221000 0.257000 600 35 1.000000 0.050000 0.050000 1.200000 0.025000 0.030000
1559811059710578737	600 31 0.900000 0.069000 0.065000 1700 30 1.100000 0.368000 0.429000 600 35 1.000000 0.050000 0.050000 1.200000 0.027000 0.032000
1559811060215915070	600 32 0.900000 0.069000 0.065000 1700 31 1.100000 0.236000 0.275000 600 36 1.000000 0.050000 0.050000 1.200000 0.026000 0.031000
1559811060721061862	600 31 0.900000 0.069000 0.065000 1700 31 1.100000 0.286000 0.333000 600 35 1.000000 0.050000 0.050000 1.200000 0.024000 0.029000
1559811061226133028	600 31 0.900000 0.068000 0.064000 1700 30 1.100000 0.255000 0.297000 600 35 1.000000 0.050000 0.050000 1.200000 0.024000 0.028000
1559811061731544028	600 31 0.900000 0.069000 0.065000 1700 30 1.100000 0.347000 0.404000 600 35 1.000000 0.050000 0.050000 1.200000 0.027000 0.032000
1559811062236947195	600 32 0.900000 0.069000 0.065000 1700 31 1.100000 0.248000 0.290000 600 36 1.000000 0.051000 0.051000 1.200000 0.025000 0.030000
1559811062742158362	600 32 0.900000 0.069000 0.065000 1700 31 1.100000 0.223000 0.260000 600 35 1.000000 0.050000 0.050000 1.200000 0.025000 0.030000
1559811063247275945	600 31 0.900000 0.069000 0.065000 1700 30 1.100000 0.248000 0.289000 600 35 1.000000 0.050000 0.050000 1.200000 0.024000 0.028000
1559811063752693237	600 31 0.900000 0.069000 0.065000 1700 30 1.100000 0.335000 0.390000 600 35 1.000000 0.050000 0.050000 1.200000 0.027000 0.032000
1559811064258696320	600 33 0.900000 0.069000 0.065000 1700 30 1.100000 0.216000 0.251000 600 36 1.000000 0.051000 0.051000 1.200000 0.024000 0.028000
1559811064764071195	600 32 0.900000 0.070000 0.066000 1700 31 1.100000 0.568000 0.664000 600 35 1.000000 0.050000 0.050000 1.200000 0.031000 0.037000
1559811065269333487	600 31 0.900000 0.068000 0.064000 1700 30 1.100000 0.223000 0.260000 600 35 1.000000 0.050000 0.050000 1.200000 0.024000 0.028000
1559811065774692404	600 32 0.900000 0.069000 0.065000 1700 31 1.100000 0.378000 0.441000 600 35 1.000000 0.050000 0.050000 1.200000 0.029000 0.035000
1559811066279903196	600 31 0.900000 0.069000 0.065000 1700 30 1.100000 0.225000 0.263000 600 35 1.000000 0.050000 0.050000 1.200000 0.024000 0.028000
1559811066785200154	600 32 0.900000 0.071000 0.067000 1700 31 1.100000 0.576000 0.673000 600 35 1.000000 0.050000 0.050000 1.200000 0.030000 0.036000
1559811067290451446	600 31 0.900000 0.068000 0.064000 1700 31 1.100000 0.221000 0.258000 600 35 1.000000 0.051000 0.051000 1.200000 0.024000 0.029000
1559811067795818529	600 31 0.900000 0.069000 0.065000 1700 30 1.100000 0.377000 0.439000 600 35 1.000000 0.051000 0.051000 1.200000 0.029000 0.035000
1559811068300995696	600 31 0.900000 0.069000 0.065000 1700 30 1.100000 0.236000 0.276000 600 35 1.000000 0.050000 0.050000 1.200000 0.024000 0.028000
1559811068806480196	600 32 0.900000 0.070000 0.066000 1700 31 1.100000 0.564000 0.658000 600 35 1.000000 0.050000 0.050000 1.200000 0.031000 0.037000
1559811069311607071	600 31 0.900000 0.068000 0.064000 1700 30 1.100000 0.216000 0.251000 600 35 1.000000 0.050000 0.050000 1.200000 0.024000 0.028000
1559811069816977904	600 32 0.900000 0.068000 0.064000 1700 31 1.100000 0.326000 0.380000 600 35 1.000000 0.050000 0.050000 1.200000 0.027000 0.032000
1559811070322304071	600 31 0.900000 0.069000 0.065000 1700 30 1.100000 0.219000 0.256000 600 35 1.000000 0.050000 0.050000 1.200000 0.024000 0.028000
1559811070827586196	600 32 0.900000 0.069000 0.065000 1700 31 1.100000 0.218000 0.254000 600 36 1.000000 0.050000 0.050000 1.200000 0.024000 0.028000
1559811071332771196	600 31 0.900000 0.069000 0.065000 1700 30 1.100000 0.254000 0.296000 600 35 1.000000 0.050000 0.050000 1.200000 0.025000 0.030000
1559811071838271863	600 32 0.900000 0.069000 0.065000 1700 30 1.100000 0.337000 0.393000 600 35 1.000000 0.050000 0.050000 1.200000 0.026000 0.031000
1559811072343426071	600 31 0.900000 0.068000 0.064000 1700 30 1.100000 0.233000 0.271000 600 35 1.000000 0.050000 0.050000 1.200000 0.025000 0.030000
1559811072848723196	600 32 0.900000 0.069000 0.065000 1700 31 1.100000 0.239000 0.279000 600 36 1.000000 0.051000 0.051000 1.200000 0.024000 0.029000
1559811073353993905	600 32 0.900000 0.069000 0.065000 1700 30 1.100000 0.231000 0.269000 600 35 1.000000 0.050000 0.050000 1.200000 0.025000 0.030000
1559811073859333363	600 32 0.900000 0.068000 0.064000 1700 30 1.100000 0.357000 0.416000 600 35 1.000000 0.050000 0.050000 1.200000 0.028000 0.033000
1559811074364540655	600 32 0.900000 0.068000 0.064000 1700 30 1.100000 0.213000 0.248000 600 35 1.000000 0.050000 0.050000 1.200000 0.024000 0.029000
1559811074869769613	600 32 0.900000 0.069000 0.065000 1700 31 1.100000 0.212000 0.247000 600 36 1.000000 0.050000 0.050000 1.200000 0.024000 0.028000
1559811075374883530	600 32 0.900000 0.069000 0.065000 1700 30 1.100000 0.217000 0.253000 600 35 1.000000 0.051000 0.051000 1.200000 0.024000 0.028000
1559811075880368072	600 32 0.900000 0.068000 0.064000 1700 31 1.100000 0.345000 0.402000 600 35 1.000000 0.050000 0.050000 1.200000 0.028000 0.033000
1559811076385760905	600 32 0.900000 0.068000 0.064000 1700 31 1.100000 0.236000 0.275000 600 35 1.000000 0.050000 0.050000 1.200000 0.024000 0.028000
1559811076891554947	600 33 0.900000 0.069000 0.065000 1700 31 1.100000 0.227000 0.265000 600 36 1.000000 0.050000 0.050000 1.200000 0.025000 0.030000
1559811077397066239	600 32 0.900000 0.069000 0.065000 1700 31 1.100000 0.571000 0.668000 600 35 1.000000 0.050000 0.050000 1.200000 0.030000 0.036000
1559811077902490405	600 32 0.900000 0.069000 0.065000 1700 30 1.100000 0.334000 0.390000 600 35 1.000000 0.051000 0.051000 1.200000 0.028000 0.033000
1559811078407718489	600 31 0.900000 0.068000 0.064000 1700 31 1.100000 0.256000 0.299000 600 35 1.000000 0.051000 0.051000 1.200000 0.024000 0.028000
1559811078912860739	600 31 0.900000 0.068000 0.064000 1700 30 1.100000 0.220000 0.257000 600 35 1.000000 0.050000 0.050000 1.200000 0.024000 0.028000
1559811079418198864	600 32 0.900000 0.070000 0.066000 1700 31 1.100000 0.486000 0.567000 600 35 1.000000 0.050000 0.050000 1.200000 0.028000 0.033000
1559811079923568906	600 32 0.900000 0.069000 0.065000 1700 30 1.100000 0.347000 0.405000 600 35 1.000000 0.050000 0.050000 1.200000 0.026000 0.031000
1559811080428687864	600 31 0.900000 0.069000 0.065000 1700 30 1.100000 0.218000 0.254000 600 35 1.000000 0.051000 0.051000 1.200000 0.024000 0.029000
1559811080933728031	600 31 0.900000 0.068000 0.064000 1700 30 1.100000 0.219000 0.255000 600 35 1.000000 0.051000 0.051000 1.200000 0.024000 0.028000
1559811081439030156	600 32 0.900000 0.070000 0.066000 1700 31 1.100000 0.425000 0.496000 600 35 1.000000 0.050000 0.050000 1.200000 0.027000 0.032000
1559811081944481531	600 32 0.900000 0.069000 0.065000 1700 30 1.100000 0.352000 0.411000 600 35 1.000000 0.050000 0.050000 1.200000 0.027000 0.032000
1559811082449845198	600 31 0.900000 0.068000 0.064000 1700 31 1.100000 0.217000 0.253000 600 35 1.000000 0.050000 0.050000 1.200000 0.025000 0.030000
1559811082954985906	600 31 0.900000 0.068000 0.064000 1700 30 1.100000 0.253000 0.296000 600 35 1.000000 0.050000 0.050000 1.200000 0.024000 0.028000
1559811083460323906	600 32 0.900000 0.070000 0.066000 1700 31 1.100000 0.439000 0.514000 600 35 1.000000 0.050000 0.050000 1.200000 0.029000 0.035000
1559811083965752281	600 32 0.900000 0.068000 0.064000 1700 31 1.100000 0.355000 0.414000 600 35 1.000000 0.050000 0.050000 1.200000 0.028000 0.033000
1559811084471009031	600 31 0.900000 0.068000 0.064000 1700 31 1.100000 0.213000 0.248000 600 35 1.000000 0.050000 0.050000 1.200000 0.024000 0.028000
1559811084976186323	600 31 0.900000 0.068000 0.064000 1700 30 1.100000 0.216000 0.253000 600 35 1.000000 0.050000 0.050000 1.200000 0.024000 0.028000
1559811085481471406	600 32 0.900000 0.069000 0.065000 1700 31 1.100000 0.485000 0.566000 600 36 1.000000 0.051000 0.051000 1.200000 0.031000 0.037000
1559811085986825115	600 32 0.900000 0.069000 0.065000 1700 31 1.100000 0.332000 0.388000 600 35 1.000000 0.050000 0.050000 1.200000 0.028000 0.033000
1559811086492131115	600 31 0.900000 0.068000 0.064000 1700 31 1.100000 0.217000 0.254000 600 35 1.000000 0.050000 0.050000 1.200000 0.024000 0.028000
1559811086997320115	600 31 0.900000 0.069000 0.065000 1700 31 1.100000 0.211000 0.246000 600 35 1.000000 0.050000 0.050000 1.200000 0.024000 0.028000
1559811087502602990	600 32 0.900000 0.069000 0.065000 1700 31 1.100000 0.556000 0.648000 600 36 1.000000 0.050000 0.050000 1.200000 0.030000 0.036000
1559811088007966323	600 32 0.900000 0.069000 0.065000 1700 31 1.100000 0.358000 0.418000 600 35 1.000000 0.050000 0.050000 1.200000 0.027000 0.032000
1559811088513318823	600 31 0.900000 0.068000 0.064000 1700 31 1.100000 0.243000 0.283000 600 35 1.000000 0.051000 0.051000 1.200000 0.025000 0.030000
1559811089018438490	600 32 0.900000 0.068000 0.064000 1700 31 1.100000 0.234000 0.272000 600 35 1.000000 0.050000 0.050000 1.200000 0.024000 0.028000
1559811089524491240	600 33 0.900000 0.068000 0.064000 1700 31 1.100000 0.217000 0.255000 600 36 1.000000 0.050000 0.050000 1.200000 0.024000 0.028000
1559811090029817615	600 32 0.900000 0.068000 0.064000 1700 31 1.100000 0.325000 0.379000 600 35 1.000000 0.050000 0.050000 1.200000 0.027000 0.032000
1559811090534983240	600 32 0.900000 0.068000 0.064000 1700 31 1.100000 0.219000 0.255000 600 35 1.000000 0.050000 0.050000 1.200000 0.025000 0.030000
1559811091040101824	600 31 0.900000 0.068000 0.064000 1700 31 1.100000 0.218000 0.254000 600 35 1.000000 0.050000 0.050000 1.200000 0.024000 0.028000
1559811091545783699	600 32 0.900000 0.068000 0.064000 1700 31 1.100000 0.219000 0.255000 600 35 1.000000 0.050000 0.050000 1.200000 0.024000 0.028000
1559811092051178240	600 32 0.900000 0.070000 0.066000 1700 31 1.100000 0.561000 0.655000 600 35 1.000000 0.050000 0.050000 1.200000 0.032000 0.038000
1559811092556408532	600 31 0.900000 0.069000 0.065000 1700 31 1.100000 0.227000 0.265000 600 35 1.000000 0.050000 0.050000 1.200000 0.025000 0.030000
1559811093061446490	600 31 0.900000 0.069000 0.065000 1700 31 1.100000 0.240000 0.280000 600 35 1.000000 0.050000 0.050000 1.200000 0.024000 0.028000
1559811093566564532	600 31 0.900000 0.068000 0.064000 1700 30 1.100000 0.238000 0.278000 600 35 1.000000 0.050000 0.050000 1.200000 0.025000 0.030000
1559811094071909657	600 32 0.900000 0.070000 0.066000 1700 31 1.100000 0.561000 0.655000 600 36 1.000000 0.051000 0.051000 1.200000 0.030000 0.036000
1559811094577008282	600 32 0.900000 0.069000 0.065000 1700 31 1.100000 0.374000 0.436000 600 35 1.000000 0.050000 0.050000 1.200000 0.029000 0.035000
1559811095082390616	600 32 0.900000 0.069000 0.065000 1700 30 1.100000 0.216000 0.251000 600 35 1.000000 0.050000 0.050000 1.200000 0.025000 0.030000
1559811095587558991	600 31 0.900000 0.068000 0.064000 1700 30 1.100000 0.253000 0.295000 600 35 1.000000 0.050000 0.050000 1.200000 0.024000 0.028000
1559811096092956949	600 32 0.900000 0.071000 0.067000 1700 31 1.100000 0.221000 0.257000 600 36 1.000000 0.050000 0.050000 1.200000 0.024000 0.028000
1559811096598189116	600 32 0.900000 0.068000 0.064000 1700 31 1.100000 0.282000 0.328000 600 35 1.000000 0.050000 0.050000 1.200000 0.024000 0.028000
1559811097103366741	600 31 0.900000 0.068000 0.064000 1700 31 1.100000 0.232000 0.271000 600 35 1.000000 0.051000 0.051000 1.200000 0.025000 0.030000
1559811097608311033	600 31 0.900000 0.068000 0.064000 1700 31 1.100000 0.231000 0.270000 600 35 1.000000 0.050000 0.050000 1.200000 0.024000 0.028000
1559811098113797616	600 32 0.900000 0.068000 0.064000 1700 31 1.100000 0.252000 0.294000 600 36 1.000000 0.051000 0.051000 1.200000 0.024000 0.028000
1559811098619003699	600 32 0.900000 0.068000 0.064000 1700 31 1.100000 0.219000 0.255000 600 36 1.000000 0.051000 0.051000 1.200000 0.025000 0.030000
1559811099124220908	600 32 0.900000 0.069000 0.065000 1700 31 1.100000 0.251000 0.293000 600 35 1.000000 0.050000 0.050000 1.200000 0.024000 0.028000
1559811099629287533	600 32 0.900000 0.070000 0.066000 1700 31 1.100000 0.219000 0.255000 600 35 1.000000 0.050000 0.050000 1.200000 0.025000 0.030000
1559811100134661575	600 32 0.900000 0.069000 0.065000 1700 31 1.100000 0.218000 0.254000 600 36 1.000000 0.050000 0.050000 1.200000 0.024000 0.028000
1559811100639808450	600 32 0.900000 0.069000 0.065000 1700 31 1.100000 0.697000 0.814000 600 36 1.000000 0.050000 0.050000 1.200000 0.035000 0.042000
1559811101144801575	600 32 0.900000 0.068000 0.064000 1700 31 1.100000 0.229000 0.267000 600 35 1.000000 0.050000 0.050000 1.200000 0.024000 0.028000
1559811101649879075	600 31 0.900000 0.069000 0.065000 1700 31 1.100000 0.241000 0.281000 600 35 1.000000 0.050000 0.050000 1.200000 0.024000 0.028000
1559811102155540825	600 33 0.900000 0.069000 0.065000 1700 31 1.100000 0.222000 0.260000 600 36 1.000000 0.051000 0.051000 1.200000 0.024000 0.028000
1559811102660627575	600 32 0.900000 0.069000 0.065000 1700 31 1.100000 0.648000 0.756000 600 35 1.000000 0.051000 0.051000 1.200000 0.033000 0.039000
1559811103165755117	600 32 0.900000 0.069000 0.065000 1700 31 1.100000 0.224000 0.261000 600 35 1.000000 0.051000 0.051000 1.200000 0.025000 0.030000
1559811103670891200	600 32 0.900000 0.069000 0.065000 1700 31 1.100000 0.247000 0.288000 600 35 1.000000 0.050000 0.050000 1.200000 0.024000 0.028000
1559811104176833200	600 32 0.900000 0.069000 0.065000 1700 31 1.100000 0.225000 0.262000 600 36 1.000000 0.050000 0.050000 1.200000 0.025000 0.030000
1559811104682279325	600 32 0.900000 0.071000 0.067000 1700 31 1.100000 0.509000 0.596000 600 35 1.000000 0.051000 0.051000 1.200000 0.030000 0.036000
1559811105187500992	600 32 0.900000 0.068000 0.064000 1700 31 1.100000 0.222000 0.258000 600 35 1.000000 0.051000 0.051000 1.200000 0.024000 0.028000
1559811105692526450	600 32 0.900000 0.069000 0.065000 1700 31 1.100000 0.217000 0.253000 600 35 1.000000 0.050000 0.050000 1.200000 0.024000 0.028000
1559811106198050742	600 32 0.900000 0.069000 0.065000 1700 31 1.100000 0.248000 0.289000 600 36 1.000000 0.051000 0.051000 1.200000 0.024000 0.028000
1559811106703326950	600 32 0.900000 0.070000 0.066000 1700 31 1.100000 0.462000 0.539000 600 35 1.000000 0.050000 0.050000 1.200000 0.030000 0.036000
1559811107208472159	600 32 0.900000 0.069000 0.065000 1700 31 1.100000 0.252000 0.295000 600 35 1.000000 0.050000 0.050000 1.200000 0.025000 0.030000
1559811107713546367	600 32 0.900000 0.069000 0.065000 1700 31 1.100000 0.223000 0.260000 600 35 1.000000 0.050000 0.050000 1.200000 0.024000 0.028000
1559811108218845534	600 32 0.900000 0.068000 0.064000 1700 31 1.100000 0.245000 0.287000 600 36 1.000000 0.050000 0.050000 1.200000 0.024000 0.028000
1559811108724163701	600 32 0.900000 0.070000 0.066000 1700 31 1.100000 0.496000 0.579000 600 36 1.000000 0.050000 0.050000 1.200000 0.030000 0.036000
1559811109229316451	600 32 0.900000 0.069000 0.065000 1700 31 1.100000 0.229000 0.267000 600 35 1.000000 0.050000 0.050000 1.200000 0.024000 0.028000
1559811109734381284	600 32 0.900000 0.068000 0.064000 1700 31 1.100000 0.247000 0.288000 600 35 1.000000 0.050000 0.050000 1.200000 0.025000 0.030000
1559811110239809993	600 33 0.900000 0.059000 0.056000 1700 31 1.100000 0.355000 0.414000 600 36 1.000000 0.051000 0.051000 1.200000 0.062000 0.075000
1559811110745080951	600 33 0.900000 0.060000 0.057000 1700 31 1.100000 0.580000 0.677000 600 36 1.000000 0.050000 0.050000 1.200000 0.063000 0.076000
1559811111250373284	600 33 0.900000 0.204000 0.193000 1700 31 1.100000 0.303000 0.353000 600 36 1.000000 0.050000 0.050000 1.200000 0.053000 0.064000
1559811111755449701	600 33 0.900000 0.204000 0.193000 1700 32 1.100000 0.301000 0.350000 600 36 1.000000 0.050000 0.050000 1.200000 0.053000 0.064000
1559811112260760409	600 33 0.900000 0.203000 0.192000 1700 32 1.100000 0.317000 0.369000 600 36 1.000000 0.051000 0.051000 1.200000 0.053000 0.064000
1559811112766316868	600 34 0.900000 0.202000 0.191000 1700 32 1.100000 0.452000 0.527000 600 37 1.000000 0.051000 0.051000 1.200000 0.055000 0.066000
1559811113271589576	600 33 0.900000 0.202000 0.191000 1700 32 1.100000 0.336000 0.392000 600 36 1.000000 0.050000 0.050000 1.200000 0.053000 0.064000
1559811113776666910	600 33 0.900000 0.203000 0.192000 1700 32 1.100000 0.306000 0.357000 600 36 1.000000 0.050000 0.050000 1.200000 0.053000 0.064000
1559811114282249368	600 33 0.900000 0.202000 0.191000 1700 32 1.100000 0.331000 0.386000 600 36 1.000000 0.050000 0.050000 1.200000 0.053000 0.064000
1559811114787651285	600 35 0.900000 0.204000 0.193000 1700 32 1.100000 0.388000 0.452000 600 37 1.000000 0.051000 0.051000 1.200000 0.054000 0.065000
1559811115292912868	600 33 0.900000 0.203000 0.192000 1700 32 1.100000 0.320000 0.373000 600 37 1.000000 0.051000 0.051000 1.200000 0.053000 0.064000
1559811115798007202	600 33 0.900000 0.202000 0.191000 1700 32 1.100000 0.304000 0.354000 600 37 1.000000 0.051000 0.051000 1.200000 0.053000 0.064000
1559811116303477952	600 33 0.900000 0.204000 0.193000 1700 32 1.100000 0.301000 0.351000 600 36 1.000000 0.051000 0.051000 1.200000 0.053000 0.064000
1559811116809594785	600 34 0.900000 0.201000 0.190000 1700 32 1.100000 0.306000 0.357000 600 37 1.000000 0.051000 0.051000 1.200000 0.053000 0.064000
1559811117315163285	600 33 0.900000 0.200000 0.189000 1700 32 1.100000 0.309000 0.360000 600 37 1.000000 0.051000 0.051000 1.200000 0.053000 0.064000
1559811117820366118	600 34 0.900000 0.203000 0.192000 1700 32 1.100000 0.304000 0.354000 600 37 1.000000 0.050000 0.050000 1.200000 0.053000 0.064000
1559811118325511660	600 33 0.900000 0.203000 0.192000 1700 32 1.100000 0.308000 0.359000 600 37 1.000000 0.050000 0.050000 1.200000 0.053000 0.064000
1559811118830915660	600 34 0.900000 0.202000 0.191000 1700 32 1.100000 0.443000 0.516000 600 36 1.000000 0.051000 0.051000 1.200000 0.054000 0.065000
1559811119336714702	600 34 0.900000 0.200000 0.189000 1700 32 1.100000 0.602000 0.703000 600 37 1.000000 0.051000 0.051000 1.200000 0.055000 0.066000
1559811119841911410	600 33 0.900000 0.203000 0.192000 1700 32 1.100000 0.340000 0.396000 600 37 1.000000 0.051000 0.051000 1.200000 0.054000 0.065000
1559811120346906327	600 33 0.900000 0.203000 0.192000 1700 32 1.100000 0.308000 0.359000 600 37 1.000000 0.051000 0.051000 1.200000 0.053000 0.064000
1559811120852213619	600 34 0.900000 0.202000 0.191000 1700 32 1.100000 0.409000 0.477000 600 37 1.000000 0.050000 0.050000 1.200000 0.054000 0.065000
1559811121357535661	600 34 0.900000 0.200000 0.189000 1700 32 1.100000 0.620000 0.724000 600 37 1.000000 0.050000 0.050000 1.200000 0.055000 0.066000
1559811121862807077	600 34 0.900000 0.203000 0.192000 1700 32 1.100000 0.304000 0.354000 600 37 1.000000 0.051000 0.051000 1.200000 0.053000 0.064000
1559811122367857369	600 34 0.900000 0.203000 0.192000 1700 32 1.100000 0.306000 0.357000 600 37 1.000000 0.051000 0.051000 1.200000 0.053000 0.064000
1559811122873207869	600 34 0.900000 0.202000 0.191000 1700 32 1.100000 0.306000 0.357000 600 37 1.000000 0.051000 0.051000 1.200000 0.053000 0.064000
1559811123378653952	600 34 0.900000 0.202000 0.191000 1700 32 1.100000 0.604000 0.705000 600 37 1.000000 0.051000 0.051000 1.200000 0.055000 0.066000
1559811123883884327	600 34 0.900000 0.203000 0.192000 1700 32 1.100000 0.303000 0.353000 600 37 1.000000 0.051000 0.051000 1.200000 0.053000 0.064000
1559811124389059494	600 33 0.900000 0.203000 0.192000 1700 32 1.100000 0.330000 0.385000 600 37 1.000000 0.050000 0.050000 1.200000 0.053000 0.064000
1559811124894509661	600 34 0.900000 0.202000 0.191000 1700 32 1.100000 0.426000 0.497000 600 37 1.000000 0.051000 0.051000 1.200000 0.055000 0.066000
1559811125399847411	600 34 0.900000 0.202000 0.191000 1700 32 1.100000 0.321000 0.374000 600 37 1.000000 0.051000 0.051000 1.200000 0.053000 0.064000
1559811125904923786	600 34 0.900000 0.203000 0.192000 1700 32 1.100000 0.304000 0.354000 600 37 1.000000 0.050000 0.050000 1.200000 0.053000 0.064000
1559811126410020578	600 34 0.900000 0.203000 0.192000 1700 32 1.100000 0.304000 0.354000 600 37 1.000000 0.051000 0.051000 1.200000 0.053000 0.064000
1559811126915377245	600 34 0.900000 0.202000 0.191000 1700 32 1.100000 0.412000 0.480000 600 37 1.000000 0.050000 0.050000 1.200000 0.054000 0.065000
1559811127420635453	600 35 0.900000 0.203000 0.192000 1700 32 1.100000 0.307000 0.357000 600 38 1.000000 0.051000 0.051000 1.200000 0.053000 0.064000
1559811127925804953	600 34 0.900000 0.203000 0.192000 1700 33 1.100000 0.306000 0.357000 600 37 1.000000 0.051000 0.051000 1.200000 0.053000 0.064000
1559811128430829786	600 34 0.900000 0.203000 0.192000 1700 32 1.100000 0.304000 0.354000 600 37 1.000000 0.051000 0.051000 1.200000 0.053000 0.064000
1559811128936149078	600 34 0.900000 0.202000 0.191000 1700 32 1.100000 0.305000 0.355000 600 37 1.000000 0.051000 0.051000 1.200000 0.053000 0.064000
1559811129442103578	600 35 0.900000 0.203000 0.192000 1700 32 1.100000 0.355000 0.414000 600 37 1.000000 0.050000 0.050000 1.200000 0.053000 0.064000
1559811129947572120	600 34 0.900000 0.202000 0.191000 1700 33 1.100000 0.306000 0.357000 600 37 1.000000 0.051000 0.051000 1.200000 0.053000 0.064000
1559811130452683578	600 34 0.900000 0.203000 0.192000 1700 32 1.100000 0.306000 0.357000 600 37 1.000000 0.051000 0.051000 1.200000 0.053000 0.064000
1559811130958067828	600 34 0.900000 0.202000 0.191000 1700 32 1.100000 0.305000 0.355000 600 37 1.000000 0.051000 0.051000 1.200000 0.055000 0.066000
1559811131463257370	600 34 0.900000 0.203000 0.192000 1700 32 1.100000 0.336000 0.391000 600 37 1.000000 0.051000 0.051000 1.200000 0.053000 0.064000
1559811131968547162	600 34 0.900000 0.199000 0.188000 1700 33 1.100000 0.405000 0.472000 600 37 1.000000 0.051000 0.051000 1.200000 0.054000 0.065000
1559811132473693370	600 34 0.900000 0.203000 0.192000 1700 32 1.100000 0.332000 0.387000 600 37 1.000000 0.051000 0.051000 1.200000 0.053000 0.064000
1559811132979179579	600 34 0.900000 0.202000 0.191000 1700 32 1.100000 0.318000 0.371000 600 37 1.000000 0.051000 0.051000 1.200000 0.053000 0.064000
1559811133484352204	600 34 0.900000 0.203000 0.192000 1700 32 1.100000 0.318000 0.371000 600 37 1.000000 0.051000 0.051000 1.200000 0.053000 0.064000
1559811133989730079	600 34 0.900000 0.200000 0.189000 1700 33 1.100000 0.509000 0.594000 600 37 1.000000 0.051000 0.051000 1.200000 0.054000 0.065000
1559811134494833370	600 34 0.900000 0.203000 0.192000 1700 32 1.100000 0.311000 0.362000 600 37 1.000000 0.051000 0.051000 1.200000 0.053000 0.064000
1559811135000168204	600 34 0.900000 0.202000 0.191000 1700 32 1.100000 0.463000 0.540000 600 37 1.000000 0.050000 0.050000 1.200000 0.054000 0.065000
1559811135505498579	600 34 0.900000 0.202000 0.191000 1700 32 1.100000 0.306000 0.357000 600 37 1.000000 0.051000 0.051000 1.200000 0.054000 0.065000
1559811136010975621	600 34 0.900000 0.204000 0.193000 1700 33 1.100000 0.330000 0.385000 600 37 1.000000 0.051000 0.051000 1.200000 0.053000 0.064000
1559811136516188996	600 34 0.900000 0.202000 0.191000 1700 32 1.100000 0.374000 0.436000 600 37 1.000000 0.051000 0.051000 1.200000 0.054000 0.065000
1559811137021545954	600 34 0.900000 0.203000 0.192000 1700 33 1.100000 0.324000 0.377000 600 37 1.000000 0.050000 0.050000 1.200000 0.053000 0.064000
1559811137526757454	600 34 0.900000 0.203000 0.192000 1700 32 1.100000 0.326000 0.380000 600 37 1.000000 0.051000 0.051000 1.200000 0.053000 0.064000
1559811138032037621	600 34 0.900000 0.203000 0.192000 1700 33 1.100000 0.315000 0.367000 600 37 1.000000 0.051000 0.051000 1.200000 0.053000 0.064000
1559811138537125079	600 34 0.900000 0.204000 0.193000 1700 33 1.100000 0.343000 0.400000 600 37 1.000000 0.050000 0.050000 1.200000 0.053000 0.064000
1559811139042535829	600 34 0.900000 0.202000 0.191000 1700 32 1.100000 0.312000 0.364000 600 37 1.000000 0.051000 0.051000 1.200000 0.053000 0.064000
1559811139547691871	600 34 0.900000 0.204000 0.193000 1700 32 1.100000 0.340000 0.396000 600 37 1.000000 0.050000 0.050000 1.200000 0.053000 0.064000
1559811140053079288	600 35 0.900000 0.204000 0.193000 1700 33 1.100000 0.309000 0.360000 600 38 1.000000 0.050000 0.050000 1.200000 0.053000 0.064000
1559811140558312579	600 34 0.900000 0.203000 0.192000 1700 32 1.100000 0.334000 0.389000 600 37 1.000000 0.051000 0.051000 1.200000 0.053000 0.064000
1559811141063664371	600 34 0.900000 0.203000 0.192000 1700 33 1.100000 0.415000 0.484000 600 37 1.000000 0.051000 0.051000 1.200000 0.055000 0.066000
1559811141568821788	600 34 0.900000 0.202000 0.191000 1700 32 1.100000 0.308000 0.359000 600 37 1.000000 0.051000 0.051000 1.200000 0.053000 0.064000
1559811142074738871	600 35 0.900000 0.203000 0.192000 1700 33 1.100000 0.338000 0.394000 600 37 1.000000 0.051000 0.051000 1.200000 0.053000 0.064000
1559811142580198288	600 34 0.900000 0.201000 0.190000 1700 33 1.100000 0.611000 0.713000 600 37 1.000000 0.051000 0.051000 1.200000 0.054000 0.065000
1559811143085611663	600 34 0.900000 0.202000 0.191000 1700 32 1.100000 0.334000 0.389000 600 37 1.000000 0.051000 0.051000 1.200000 0.053000 0.064000
1559811143590852455	600 34 0.900000 0.203000 0.192000 1700 33 1.100000 0.307000 0.358000 600 37 1.000000 0.051000 0.051000 1.200000 0.053000 0.064000
1559811144096013080	600 34 0.900000 0.203000 0.192000 1700 33 1.100000 0.340000 0.396000 600 37 1.000000 0.050000 0.050000 1.200000 0.053000 0.064000
1559811144601429538	600 34 0.900000 0.199000 0.188000 1700 33 1.100000 0.608000 0.710000 600 37 1.000000 0.051000 0.051000 1.200000 0.055000 0.066000
1559811145106771997	600 34 0.900000 0.201000 0.190000 1700 33 1.100000 0.331000 0.386000 600 37 1.000000 0.050000 0.050000 1.200000 0.053000 0.064000
1559811145611942622	600 34 0.900000 0.203000 0.192000 1700 33 1.100000 0.319000 0.372000 600 37 1.000000 0.051000 0.051000 1.200000 0.053000 0.064000
1559811146117001955	600 34 0.900000 0.204000 0.193000 1700 33 1.100000 0.314000 0.366000 600 37 1.000000 0.051000 0.051000 1.200000 0.053000 0.064000
1559811146622276414	600 34 0.900000 0.202000 0.191000 1700 33 1.100000 0.629000 0.734000 600 37 1.000000 0.050000 0.050000 1.200000 0.055000 0.066000
1559811147127631122	600 34 0.900000 0.202000 0.191000 1700 33 1.100000 0.417000 0.486000 600 37 1.000000 0.051000 0.051000 1.200000 0.054000 0.065000
1559811147632709289	600 34 0.900000 0.203000 0.192000 1700 33 1.100000 0.302000 0.352000 600 37 1.000000 0.051000 0.051000 1.200000 0.053000 0.064000
1559811148137940664	600 34 0.900000 0.204000 0.193000 1700 33 1.100000 0.307000 0.358000 600 37 1.000000 0.051000 0.051000 1.200000 0.053000 0.064000
1559811148643052664	600 34 0.900000 0.203000 0.192000 1700 33 1.100000 0.327000 0.381000 600 37 1.000000 0.051000 0.051000 1.200000 0.053000 0.064000
1559811149148510039	600 34 0.900000 0.203000 0.192000 1700 33 1.100000 0.322000 0.375000 600 37 1.000000 0.051000 0.051000 1.200000 0.053000 0.064000
1559811149653715372	600 34 0.900000 0.203000 0.192000 1700 33 1.100000 0.319000 0.372000 600 37 1.000000 0.051000 0.051000 1.200000 0.053000 0.064000
1559811150158944914	600 34 0.900000 0.203000 0.192000 1700 33 1.100000 0.339000 0.395000 600 37 1.000000 0.051000 0.051000 1.200000 0.053000 0.064000
1559811150664185497	600 34 0.900000 0.203000 0.192000 1700 33 1.100000 0.305000 0.355000 600 37 1.000000 0.051000 0.051000 1.200000 0.053000 0.064000
1559811151169682039	600 34 0.900000 0.202000 0.191000 1700 33 1.100000 0.339000 0.395000 600 37 1.000000 0.050000 0.050000 1.200000 0.053000 0.064000
1559811151674987331	600 34 0.900000 0.203000 0.192000 1700 33 1.100000 0.308000 0.359000 600 37 1.000000 0.051000 0.051000 1.200000 0.053000 0.064000
1559811152180151331	600 34 0.900000 0.204000 0.193000 1700 33 1.100000 0.306000 0.357000 600 37 1.000000 0.051000 0.051000 1.200000 0.053000 0.064000
1559811152685222331	600 35 0.900000 0.201000 0.190000 1700 33 1.100000 0.303000 0.353000 600 38 1.000000 0.051000 0.051000 1.200000 0.053000 0.064000
1559811153190713581	600 34 0.900000 0.203000 0.192000 1700 33 1.100000 0.420000 0.490000 600 37 1.000000 0.051000 0.051000 1.200000 0.054000 0.065000
1559811153695915289	600 34 0.900000 0.203000 0.192000 1700 33 1.100000 0.305000 0.355000 600 37 1.000000 0.051000 0.051000 1.200000 0.053000 0.064000
1559811154200990706	600 34 0.900000 0.204000 0.193000 1700 33 1.100000 0.313000 0.365000 600 37 1.000000 0.051000 0.051000 1.200000 0.053000 0.064000
1559811154707441164	600 36 0.900000 0.203000 0.192000 1700 33 1.100000 0.339000 0.395000 600 38 1.000000 0.051000 0.051000 1.200000 0.053000 0.064000
1559811155213033540	600 34 0.900000 0.200000 0.189000 1700 33 1.100000 0.555000 0.648000 600 37 1.000000 0.051000 0.051000 1.200000 0.053000 0.064000
1559811155718317206	600 34 0.900000 0.202000 0.191000 1700 33 1.100000 0.340000 0.396000 600 37 1.000000 0.051000 0.051000 1.200000 0.054000 0.065000
1559811156223418373	600 34 0.900000 0.204000 0.193000 1700 33 1.100000 0.311000 0.362000 600 37 1.000000 0.051000 0.051000 1.200000 0.053000 0.064000
1559811156729377831	600 34 0.900000 0.203000 0.192000 1700 33 1.100000 0.310000 0.361000 600 37 1.000000 0.051000 0.051000 1.200000 0.053000 0.064000
1559811157234804665	600 34 0.900000 0.200000 0.189000 1700 33 1.100000 0.509000 0.594000 600 38 1.000000 0.051000 0.051000 1.200000 0.054000 0.065000
1559811157739954332	600 34 0.900000 0.203000 0.192000 1700 33 1.100000 0.301000 0.351000 600 37 1.000000 0.051000 0.051000 1.200000 0.053000 0.064000
1559811158244985248	600 34 0.900000 0.204000 0.193000 1700 33 1.100000 0.306000 0.357000 600 37 1.000000 0.051000 0.051000 1.200000 0.053000 0.064000
1559811158750123207	600 34 0.900000 0.203000 0.192000 1700 33 1.100000 0.307000 0.358000 600 37 1.000000 0.050000 0.050000 1.200000 0.053000 0.064000
1559811159255398915	600 34 0.900000 0.201000 0.190000 1700 33 1.100000 0.551000 0.643000 600 38 1.000000 0.051000 0.051000 1.200000 0.056000 0.067000
1559811159760665582	600 34 0.900000 0.204000 0.193000 1700 33 1.100000 0.304000 0.354000 600 37 1.000000 0.051000 0.051000 1.200000 0.053000 0.064000
1559811160265987790	600 34 0.900000 0.204000 0.193000 1700 33 1.100000 0.333000 0.388000 600 37 1.000000 0.051000 0.051000 1.200000 0.053000 0.064000
1559811160771007624	600 34 0.900000 0.203000 0.192000 1700 33 1.100000 0.312000 0.364000 600 37 1.000000 0.051000 0.051000 1.200000 0.053000 0.064000
1559811161276410207	600 35 0.900000 0.202000 0.191000 1700 33 1.100000 0.572000 0.668000 600 38 1.000000 0.051000 0.051000 1.200000 0.054000 0.065000
1559811161781697582	600 34 0.900000 0.201000 0.190000 1700 33 1.100000 0.308000 0.359000 600 37 1.000000 0.051000 0.051000 1.200000 0.053000 0.064000
1559811162286888999	600 34 0.900000 0.203000 0.192000 1700 33 1.100000 0.305000 0.355000 600 37 1.000000 0.050000 0.050000 1.200000 0.053000 0.064000
1559811162791947082	600 34 0.900000 0.202000 0.191000 1700 33 1.100000 0.304000 0.354000 600 37 1.000000 0.051000 0.051000 1.200000 0.053000 0.064000
1559811163297369874	600 35 0.900000 0.203000 0.192000 1700 33 1.100000 0.622000 0.726000 600 38 1.000000 0.050000 0.050000 1.200000 0.054000 0.065000
1559811163802574457	600 34 0.900000 0.203000 0.192000 1700 33 1.100000 0.311000 0.362000 600 37 1.000000 0.051000 0.051000 1.200000 0.053000 0.064000
1559811164307713374	600 34 0.900000 0.203000 0.192000 1700 33 1.100000 0.304000 0.354000 600 37 1.000000 0.050000 0.050000 1.200000 0.053000 0.064000
1559811164812852124	600 34 0.900000 0.204000 0.193000 1700 33 1.100000 0.301000 0.351000 600 37 1.000000 0.051000 0.051000 1.200000 0.053000 0.064000
1559811165318164332	600 35 0.900000 0.200000 0.189000 1700 33 1.100000 0.735000 0.858000 600 38 1.000000 0.051000 0.051000 1.200000 0.057000 0.068000
1559811165823464791	600 34 0.900000 0.202000 0.191000 1700 33 1.100000 0.319000 0.372000 600 38 1.000000 0.051000 0.051000 1.200000 0.054000 0.065000
1559811166328630416	600 34 0.900000 0.203000 0.192000 1700 33 1.100000 0.341000 0.397000 600 37 1.000000 0.051000 0.051000 1.200000 0.053000 0.064000
1559811166833651749	600 34 0.900000 0.203000 0.192000 1700 33 1.100000 0.308000 0.359000 600 37 1.000000 0.051000 0.051000 1.200000 0.053000 0.064000
1559811167339653958	600 36 0.900000 0.203000 0.192000 1700 33 1.100000 0.303000 0.353000 600 38 1.000000 0.051000 0.051000 1.200000 0.053000 0.064000
1559811167845077416	600 34 0.900000 0.199000 0.188000 1700 33 1.100000 0.310000 0.361000 600 38 1.000000 0.050000 0.050000 1.200000 0.053000 0.064000
1559811168350341916	600 34 0.900000 0.204000 0.193000 1700 33 1.100000 0.308000 0.359000 600 37 1.000000 0.051000 0.051000 1.200000 0.053000 0.064000
1559811168855427833	600 34 0.900000 0.203000 0.192000 1700 33 1.100000 0.308000 0.359000 600 37 1.000000 0.051000 0.051000 1.200000 0.053000 0.064000
1559811169361197916	600 35 0.900000 0.203000 0.192000 1700 33 1.100000 0.324000 0.378000 600 38 1.000000 0.051000 0.051000 1.200000 0.053000 0.064000
1559811169866893541	600 34 0.900000 0.201000 0.190000 1700 33 1.100000 0.767000 0.895000 600 38 1.000000 0.050000 0.050000 1.200000 0.053000 0.064000
1559811170372149958	600 34 0.900000 0.204000 0.193000 1700 33 1.100000 0.317000 0.369000 600 37 1.000000 0.050000 0.050000 1.200000 0.053000 0.064000
1559811170877371958	600 34 0.900000 0.204000 0.193000 1700 33 1.100000 0.341000 0.397000 600 37 1.000000 0.051000 0.051000 1.200000 0.053000 0.064000
1559811171382672500	600 34 0.900000 0.205000 0.194000 1700 33 1.100000 0.308000 0.359000 600 38 1.000000 0.051000 0.051000 1.200000 0.055000 0.066000
1559811171888135792	600 34 0.900000 0.199000 0.188000 1700 33 1.100000 0.417000 0.486000 600 38 1.000000 0.051000 0.051000 1.200000 0.055000 0.066000
1559811172393421000	600 34 0.900000 0.203000 0.192000 1700 33 1.100000 0.305000 0.355000 600 37 1.000000 0.051000 0.051000 1.200000 0.053000 0.064000
1559811172898515417	600 34 0.900000 0.204000 0.193000 1700 33 1.100000 0.330000 0.385000 600 37 1.000000 0.051000 0.051000 1.200000 0.053000 0.064000
1559811173403794042	600 34 0.900000 0.203000 0.192000 1700 33 1.100000 0.320000 0.373000 600 38 1.000000 0.051000 0.051000 1.200000 0.053000 0.064000
1559811173909214458	600 34 0.900000 0.203000 0.192000 1700 33 1.100000 0.427000 0.498000 600 38 1.000000 0.051000 0.051000 1.200000 0.055000 0.066000
1559811174414423417	600 34 0.900000 0.203000 0.192000 1700 33 1.100000 0.335000 0.390000 600 37 1.000000 0.051000 0.051000 1.200000 0.053000 0.064000
1559811174919428250	600 34 0.900000 0.203000 0.192000 1700 33 1.100000 0.305000 0.355000 600 37 1.000000 0.051000 0.051000 1.200000 0.053000 0.064000
1559811175424931750	600 34 0.900000 0.204000 0.193000 1700 33 1.100000 0.339000 0.395000 600 37 1.000000 0.051000 0.051000 1.200000 0.053000 0.064000
1559811175930374625	600 34 0.900000 0.202000 0.191000 1700 33 1.100000 0.441000 0.514000 600 38 1.000000 0.051000 0.051000 1.200000 0.055000 0.066000
1559811176435501500	600 34 0.900000 0.203000 0.192000 1700 33 1.100000 0.334000 0.389000 600 37 1.000000 0.050000 0.050000 1.200000 0.053000 0.064000
1559811176940571417	600 34 0.900000 0.204000 0.193000 1700 33 1.100000 0.315000 0.367000 600 37 1.000000 0.051000 0.051000 1.200000 0.053000 0.064000
1559811177446379167	600 34 0.900000 0.204000 0.193000 1700 33 1.100000 0.305000 0.355000 600 37 1.000000 0.051000 0.051000 1.200000 0.053000 0.064000
1559811177951743834	600 35 0.900000 0.202000 0.191000 1700 33 1.100000 0.449000 0.523000 600 38 1.000000 0.050000 0.050000 1.200000 0.054000 0.065000
1559811178457007792	600 34 0.900000 0.203000 0.192000 1700 33 1.100000 0.620000 0.724000 600 38 1.000000 0.051000 0.051000 1.200000 0.055000 0.066000
1559811178962254667	600 34 0.900000 0.203000 0.192000 1700 33 1.100000 0.342000 0.399000 600 37 1.000000 0.050000 0.050000 1.200000 0.053000 0.064000
1559811179467960042	600 34 0.900000 0.203000 0.192000 1700 33 1.100000 0.306000 0.357000 600 37 1.000000 0.050000 0.050000 1.200000 0.053000 0.064000
1559811179973396334	600 36 0.900000 0.203000 0.192000 1700 33 1.100000 0.451000 0.526000 600 38 1.000000 0.051000 0.051000 1.200000 0.054000 0.065000
1559811180478598793	600 34 0.900000 0.200000 0.189000 1700 33 1.100000 0.611000 0.713000 600 37 1.000000 0.051000 0.051000 1.200000 0.055000 0.066000
1559811180983751418	600 34 0.900000 0.204000 0.193000 1700 33 1.100000 0.334000 0.389000 600 37 1.000000 0.051000 0.051000 1.200000 0.053000 0.064000
1559811181488856709	600 34 0.900000 0.203000 0.192000 1700 33 1.100000 0.320000 0.373000 600 37 1.000000 0.051000 0.051000 1.200000 0.053000 0.064000
1559811181995051376	600 35 0.900000 0.203000 0.192000 1700 33 1.100000 0.422000 0.492000 600 37 1.000000 0.051000 0.051000 1.200000 0.055000 0.066000
1559811182500419834	600 34 0.900000 0.203000 0.192000 1700 33 1.100000 0.537000 0.627000 600 38 1.000000 0.051000 0.051000 1.200000 0.055000 0.066000
1559811183005641001	600 34 0.900000 0.203000 0.192000 1700 33 1.100000 0.315000 0.367000 600 37 1.000000 0.051000 0.051000 1.200000 0.053000 0.064000
1559811183510800126	600 34 0.900000 0.204000 0.193000 1700 33 1.100000 0.308000 0.359000 600 37 1.000000 0.050000 0.050000 1.200000 0.053000 0.064000
1559811184016169918	600 34 0.900000 0.203000 0.192000 1700 33 1.100000 0.419000 0.488000 600 37 1.000000 0.051000 0.051000 1.200000 0.055000 0.066000
1559811184521591168	600 34 0.900000 0.200000 0.189000 1700 33 1.100000 0.478000 0.557000 600 38 1.000000 0.051000 0.051000 1.200000 0.054000 0.065000
1559811185026710668	600 34 0.900000 0.203000 0.192000 1700 33 1.100000 0.314000 0.366000 600 37 1.000000 0.051000 0.051000 1.200000 0.053000 0.064000
1559811185531772835	600 34 0.900000 0.204000 0.193000 1700 33 1.100000 0.327000 0.381000 600 37 1.000000 0.051000 0.051000 1.200000 0.053000 0.064000
1559811186037193752	600 34 0.900000 0.202000 0.191000 1700 33 1.100000 0.457000 0.533000 600 37 1.000000 0.050000 0.050000 1.200000 0.055000 0.066000
1559811186542633043	600 34 0.900000 0.204000 0.193000 1700 33 1.100000 0.521000 0.608000 600 38 1.000000 0.051000 0.051000 1.200000 0.054000 0.065000
1559811187047827252	600 34 0.900000 0.203000 0.192000 1700 33 1.100000 0.337000 0.393000 600 38 1.000000 0.051000 0.051000 1.200000 0.053000 0.064000
1559811187553005877	600 34 0.900000 0.203000 0.192000 1700 33 1.100000 0.307000 0.358000 600 37 1.000000 0.051000 0.051000 1.200000 0.053000 0.064000
1559811188058605085	600 34 0.900000 0.202000 0.191000 1700 33 1.100000 0.425000 0.495000 600 37 1.000000 0.051000 0.051000 1.200000 0.054000 0.065000
1559811188563975127	600 34 0.900000 0.200000 0.189000 1700 33 1.100000 0.604000 0.705000 600 38 1.000000 0.050000 0.050000 1.200000 0.054000 0.065000
1559811189069310502	600 34 0.900000 0.204000 0.193000 1700 33 1.100000 0.307000 0.358000 600 38 1.000000 0.051000 0.051000 1.200000 0.053000 0.064000
1559811189574457044	600 34 0.900000 0.204000 0.193000 1700 33 1.100000 0.303000 0.353000 600 38 1.000000 0.051000 0.051000 1.200000 0.053000 0.064000
1559811190079910627	600 34 0.900000 0.203000 0.192000 1700 33 1.100000 0.419000 0.488000 600 37 1.000000 0.051000 0.051000 1.200000 0.054000 0.065000
1559811190585238002	600 35 0.900000 0.203000 0.192000 1700 33 1.100000 0.335000 0.390000 600 38 1.000000 0.051000 0.051000 1.200000 0.054000 0.065000
1559811191090527086	600 34 0.900000 0.203000 0.192000 1700 33 1.100000 0.315000 0.367000 600 38 1.000000 0.051000 0.051000 1.200000 0.053000 0.064000
1559811191595616461	600 34 0.900000 0.204000 0.193000 1700 33 1.100000 0.334000 0.389000 600 37 1.000000 0.051000 0.051000 1.200000 0.053000 0.064000
1559811192101076127	600 34 0.900000 0.203000 0.192000 1700 33 1.100000 0.437000 0.509000 600 38 1.000000 0.051000 0.051000 1.200000 0.055000 0.066000
1559811192606402544	600 35 0.900000 0.204000 0.193000 1700 33 1.100000 0.339000 0.395000 600 38 1.000000 0.051000 0.051000 1.200000 0.053000 0.064000
1559811193111508877	600 34 0.900000 0.200000 0.189000 1700 33 1.100000 0.313000 0.365000 600 38 1.000000 0.051000 0.051000 1.200000 0.054000 0.065000
1559811193616624544	600 34 0.900000 0.204000 0.193000 1700 33 1.100000 0.306000 0.357000 600 37 1.000000 0.051000 0.051000 1.200000 0.053000 0.064000
1559811194122044544	600 34 0.900000 0.202000 0.191000 1700 33 1.100000 0.431000 0.502000 600 38 1.000000 0.051000 0.051000 1.200000 0.055000 0.066000
1559811194628147628	600 35 0.900000 0.204000 0.193000 1700 33 1.100000 0.304000 0.354000 600 38 1.000000 0.051000 0.051000 1.200000 0.053000 0.064000
1559811195133771669	600 34 0.900000 0.203000 0.192000 1700 33 1.100000 0.312000 0.363000 600 38 1.000000 0.051000 0.051000 1.200000 0.053000 0.064000
1559811195639047753	600 34 0.900000 0.203000 0.192000 1700 33 1.100000 0.313000 0.364000 600 37 1.000000 0.051000 0.051000 1.200000 0.053000 0.064000
1559811196144500378	600 34 0.900000 0.204000 0.193000 1700 33 1.100000 0.438000 0.511000 600 37 1.000000 0.051000 0.051000 1.200000 0.054000 0.065000
1559811196649767628	600 34 0.900000 0.203000 0.192000 1700 33 1.100000 0.304000 0.354000 600 37 1.000000 0.051000 0.051000 1.200000 0.053000 0.064000
1559811197155152545	600 34 0.900000 0.200000 0.189000 1700 33 1.100000 0.631000 0.737000 600 38 1.000000 0.051000 0.051000 1.200000 0.055000 0.066000
1559811197660355253	600 34 0.900000 0.203000 0.192000 1700 33 1.100000 0.321000 0.374000 600 37 1.000000 0.051000 0.051000 1.200000 0.053000 0.064000
1559811198165806836	600 34 0.900000 0.203000 0.192000 1700 33 1.100000 0.426000 0.497000 600 38 1.000000 0.051000 0.051000 1.200000 0.054000 0.065000
1559811198670971545	600 34 0.900000 0.202000 0.191000 1700 33 1.100000 0.305000 0.355000 600 37 1.000000 0.051000 0.051000 1.200000 0.053000 0.064000
1559811199176353253	600 35 0.900000 0.202000 0.191000 1700 33 1.100000 0.621000 0.725000 600 38 1.000000 0.051000 0.051000 1.200000 0.054000 0.065000
1559811199681522128	600 34 0.900000 0.203000 0.192000 1700 33 1.100000 0.305000 0.355000 600 38 1.000000 0.051000 0.051000 1.200000 0.053000 0.064000
1559811200186885712	600 34 0.900000 0.203000 0.192000 1700 33 1.100000 0.442000 0.515000 600 38 1.000000 0.050000 0.050000 1.200000 0.055000 0.066000
1559811200692062212	600 34 0.900000 0.203000 0.192000 1700 33 1.100000 0.304000 0.354000 600 37 1.000000 0.051000 0.051000 1.200000 0.053000 0.064000
1559811201197418920	600 35 0.900000 0.200000 0.189000 1700 33 1.100000 0.626000 0.731000 600 38 1.000000 0.051000 0.051000 1.200000 0.055000 0.066000
1559811201702749837	600 34 0.900000 0.203000 0.192000 1700 33 1.100000 0.323000 0.376000 600 38 1.000000 0.051000 0.051000 1.200000 0.054000 0.065000
1559811202208141128	600 34 0.900000 0.203000 0.192000 1700 33 1.100000 0.441000 0.514000 600 38 1.000000 0.051000 0.051000 1.200000 0.054000 0.065000
1559811202713400212	600 34 0.900000 0.203000 0.192000 1700 33 1.100000 0.317000 0.369000 600 37 1.000000 0.051000 0.051000 1.200000 0.053000 0.064000
1559811203218762879	600 35 0.900000 0.204000 0.193000 1700 33 1.100000 0.308000 0.359000 600 38 1.000000 0.051000 0.051000 1.200000 0.053000 0.064000
1559811203724071129	600 34 0.900000 0.203000 0.192000 1700 33 1.100000 0.307000 0.358000 600 38 1.000000 0.051000 0.051000 1.200000 0.053000 0.064000
1559811204229492545	600 34 0.900000 0.203000 0.192000 1700 33 1.100000 0.417000 0.486000 600 37 1.000000 0.051000 0.051000 1.200000 0.055000 0.066000
1559811204734785004	600 34 0.900000 0.203000 0.192000 1700 33 1.100000 0.305000 0.355000 600 37 1.000000 0.051000 0.051000 1.200000 0.053000 0.064000
1559811205240019837	600 35 0.900000 0.203000 0.192000 1700 33 1.100000 0.309000 0.360000 600 38 1.000000 0.051000 0.051000 1.200000 0.053000 0.064000
1559811205745227087	600 34 0.900000 0.202000 0.191000 1700 33 1.100000 0.306000 0.356000 600 38 1.000000 0.051000 0.051000 1.200000 0.053000 0.064000
1559811206250733171	600 34 0.900000 0.203000 0.192000 1700 33 1.100000 0.423000 0.493000 600 38 1.000000 0.051000 0.051000 1.200000 0.054000 0.065000
1559811206755962337	600 34 0.900000 0.203000 0.192000 1700 33 1.100000 0.304000 0.354000 600 37 1.000000 0.051000 0.051000 1.200000 0.053000 0.064000
1559811207261808296	600 35 0.900000 0.204000 0.193000 1700 33 1.100000 0.385000 0.449000 600 38 1.000000 0.051000 0.051000 1.200000 0.053000 0.064000
1559811207767219337	600 34 0.900000 0.200000 0.189000 1700 33 1.100000 0.586000 0.683000 600 38 1.000000 0.051000 0.051000 1.200000 0.054000 0.065000
1559811208272594421	600 34 0.900000 0.203000 0.192000 1700 33 1.100000 0.306000 0.357000 600 38 1.000000 0.051000 0.051000 1.200000 0.054000 0.065000
1559811208777935838	600 34 0.900000 0.203000 0.192000 1700 33 1.100000 0.343000 0.400000 600 37 1.000000 0.051000 0.051000 1.200000 0.053000 0.064000
1559811209283005421	600 34 0.900000 0.204000 0.193000 1700 33 1.100000 0.308000 0.359000 600 37 1.000000 0.051000 0.051000 1.200000 0.053000 0.064000
1559811209788275921	600 34 0.900000 0.200000 0.189000 1700 33 1.100000 0.472000 0.551000 600 38 1.000000 0.051000 0.051000 1.200000 0.055000 0.066000
1559811210293757254	600 34 0.900000 0.203000 0.192000 1700 33 1.100000 0.327000 0.381000 600 38 1.000000 0.051000 0.051000 1.200000 0.055000 0.066000
1559811210798905630	600 34 0.900000 0.203000 0.192000 1700 33 1.100000 0.318000 0.371000 600 38 1.000000 0.051000 0.051000 1.200000 0.053000 0.064000
1559811211304116546	600 34 0.900000 0.203000 0.192000 1700 33 1.100000 0.331000 0.386000 600 37 1.000000 0.051000 0.051000 1.200000 0.053000 0.064000
1559811211809455880	600 34 0.900000 0.200000 0.189000 1700 33 1.100000 0.507000 0.591000 600 38 1.000000 0.051000 0.051000 1.200000 0.054000 0.065000
1559811212314880588	600 34 0.900000 0.203000 0.192000 1700 33 1.100000 0.341000 0.397000 600 38 1.000000 0.051000 0.051000 1.200000 0.055000 0.066000
1559811212820065796	600 34 0.900000 0.203000 0.192000 1700 33 1.100000 0.311000 0.362000 600 38 1.000000 0.050000 0.050000 1.200000 0.053000 0.064000
1559811213325181380	600 34 0.900000 0.204000 0.193000 1700 33 1.100000 0.332000 0.387000 600 38 1.000000 0.051000 0.051000 1.200000 0.053000 0.064000
1559811213830655297	600 35 0.900000 0.204000 0.193000 1700 33 1.100000 0.314000 0.366000 600 38 1.000000 0.051000 0.051000 1.200000 0.054000 0.065000
1559811214336006838	600 35 0.900000 0.203000 0.192000 1700 33 1.100000 0.377000 0.439000 600 38 1.000000 0.051000 0.051000 1.200000 0.054000 0.065000
1559811214841326172	600 34 0.900000 0.203000 0.192000 1700 33 1.100000 0.340000 0.396000 600 38 1.000000 0.051000 0.051000 1.200000 0.055000 0.066000
1559811215346544713	600 34 0.900000 0.203000 0.192000 1700 33 1.100000 0.316000 0.368000 600 38 1.000000 0.051000 0.051000 1.200000 0.054000 0.065000
1559811215851796088	600 35 0.900000 0.204000 0.193000 1700 33 1.100000 0.335000 0.390000 600 38 1.000000 0.051000 0.051000 1.200000 0.053000 0.064000
1559811216357163380	600 35 0.900000 0.203000 0.192000 1700 33 1.100000 0.314000 0.366000 600 38 1.000000 0.051000 0.051000 1.200000 0.054000 0.065000
1559811216862428755	600 34 0.900000 0.204000 0.193000 1700 33 1.100000 0.339000 0.395000 600 38 1.000000 0.051000 0.051000 1.200000 0.053000 0.064000
1559811217367514714	600 34 0.900000 0.203000 0.192000 1700 33 1.100000 0.317000 0.369000 600 37 1.000000 0.051000 0.051000 1.200000 0.053000 0.064000
1559811217872643422	600 35 0.900000 0.203000 0.192000 1700 33 1.100000 0.325000 0.378000 600 38 1.000000 0.050000 0.050000 1.200000 0.053000 0.064000
1559811218378126672	600 34 0.900000 0.203000 0.192000 1700 33 1.100000 0.328000 0.382000 600 38 1.000000 0.051000 0.051000 1.200000 0.054000 0.065000
1559811218883299880	600 34 0.900000 0.203000 0.192000 1700 33 1.100000 0.307000 0.358000 600 38 1.000000 0.051000 0.051000 1.200000 0.053000 0.064000
1559811219388443047	600 34 0.900000 0.204000 0.193000 1700 33 1.100000 0.309000 0.360000 600 38 1.000000 0.051000 0.051000 1.200000 0.053000 0.064000
1559811219894217839	600 35 0.900000 0.203000 0.192000 1700 33 1.100000 0.309000 0.360000 600 38 1.000000 0.051000 0.051000 1.200000 0.053000 0.064000
1559811220399707506	600 35 0.900000 0.200000 0.189000 1700 33 1.100000 0.643000 0.751000 600 38 1.000000 0.051000 0.051000 1.200000 0.055000 0.066000
1559811220904909256	600 34 0.900000 0.203000 0.192000 1700 33 1.100000 0.317000 0.369000 600 38 1.000000 0.051000 0.051000 1.200000 0.056000 0.067000
1559811221410087881	600 34 0.900000 0.203000 0.192000 1700 33 1.100000 0.336000 0.391000 600 37 1.000000 0.050000 0.050000 1.200000 0.053000 0.064000
1559811221915011506	600 34 0.900000 0.203000 0.192000 1700 33 1.100000 0.323000 0.376000 600 38 1.000000 0.051000 0.051000 1.200000 0.053000 0.064000
1559811222420286673	600 35 0.900000 0.200000 0.189000 1700 33 1.100000 0.633000 0.738000 600 38 1.000000 0.051000 0.051000 1.200000 0.054000 0.065000
1559811222925553589	600 34 0.900000 0.204000 0.193000 1700 33 1.100000 0.335000 0.390000 600 38 1.000000 0.051000 0.051000 1.200000 0.053000 0.064000
1559811223430574714	600 34 0.900000 0.203000 0.192000 1700 33 1.100000 0.305000 0.355000 600 38 1.000000 0.050000 0.050000 1.200000 0.053000 0.064000
1559811223935550589	600 34 0.900000 0.203000 0.192000 1700 33 1.100000 0.310000 0.361000 600 38 1.000000 0.051000 0.051000 1.200000 0.053000 0.064000
1559811224440858548	600 34 0.900000 0.122000 0.115000 1700 33 1.100000 0.576000 0.672000 600 38 1.000000 0.051000 0.051000 1.200000 0.046000 0.055000
1559811224946082090	600 33 0.900000 0.025000 0.023000 1700 32 1.100000 0.218000 0.254000 600 37 1.000000 0.051000 0.051000 1.200000 0.022000 0.026000
