#Timestamp	CPU(0) Frequency(MHz)	CPU(0) Temperature(C)	A7 Voltage(V)	A7 Current(A)	A7 Power(W)	CPU(4) Frequency(MHz)	CPU(4) Temperature(C)	A15 Voltage(V)	A15 Current(A)	A15 Power(W)	GPU Frequency(MHz)	GPU Temperature(C)	GPU Voltage(V)	GPU Current(A)	GPU Power(W)	RAM Voltage(V)	RAM Current(A)	RAM Power(W)
1517202664865950878	300 34 0.900000 0.045000 0.041000 1400 34 1.000000 0.229000 0.246000 600 38 1.000000 0.051000 0.051000 1.200000 0.053000 0.064000
1517202665391915628	300 39 0.900000 0.020000 0.018000 1400 35 1.000000 0.413000 0.442000 600 39 1.000000 0.051000 0.051000 1.200000 0.036000 0.043000
1517202665915186295	300 40 0.900000 0.015000 0.013000 1400 35 1.000000 0.866000 0.926000 600 40 1.000000 0.051000 0.051000 1.200000 0.034000 0.041000
1517202666438894670	300 41 0.900000 0.015000 0.013000 1400 36 1.000000 0.868000 0.927000 600 40 1.000000 0.051000 0.051000 1.200000 0.034000 0.041000
1517202666969786754	300 41 0.900000 0.023000 0.021000 1400 36 1.000000 0.878000 0.937000 600 40 1.000000 0.051000 0.051000 1.200000 0.042000 0.050000
1517202667495947545	300 41 0.900000 0.028000 0.025000 1400 36 1.000000 0.875000 0.934000 600 44 1.000000 0.051000 0.051000 1.200000 0.036000 0.043000
1517202668020899379	300 44 0.900000 0.056000 0.051000 1400 37 1.000000 2.511000 2.704000 600 49 1.000000 0.051000 0.051000 1.200000 0.040000 0.048000
1517202668545434795	300 45 0.900000 0.042000 0.038000 1400 38 1.000000 2.501000 2.693000 600 51 1.000000 0.051000 0.051000 1.200000 0.038000 0.045000
1517202669076963087	300 46 0.900000 0.042000 0.038000 1400 39 1.000000 2.516000 2.709000 600 52 1.000000 0.051000 0.051000 1.200000 0.036000 0.043000
1517202669601333921	300 46 0.900000 0.060000 0.054000 1400 40 1.000000 2.504000 2.696000 600 53 1.000000 0.051000 0.051000 1.200000 0.057000 0.068000
1517202670125855671	300 47 0.900000 0.056000 0.051000 1400 40 1.000000 2.508000 2.701000 600 53 1.000000 0.051000 0.051000 1.200000 0.049000 0.059000
1517202670650566587	300 47 0.900000 0.051000 0.046000 1400 41 1.000000 2.506000 2.698000 600 54 1.000000 0.052000 0.052000 1.200000 0.044000 0.053000
1517202671174827796	300 48 0.900000 0.041000 0.037000 1400 41 1.000000 2.501000 2.693000 600 54 1.000000 0.052000 0.052000 1.200000 0.039000 0.047000
1517202671700878879	300 48 0.900000 0.047000 0.043000 1400 41 1.000000 2.512000 2.705000 600 54 1.000000 0.052000 0.052000 1.200000 0.038000 0.045000
1517202672225582588	300 49 0.900000 0.067000 0.061000 1400 41 1.000000 2.512000 2.705000 600 55 1.000000 0.052000 0.052000 1.200000 0.060000 0.072000
1517202672749819171	300 49 0.900000 0.041000 0.037000 1400 42 1.000000 2.523000 2.717000 600 55 1.000000 0.052000 0.052000 1.200000 0.038000 0.045000
1517202673274437296	300 49 0.900000 0.043000 0.039000 1400 42 1.000000 2.515000 2.708000 600 55 1.000000 0.052000 0.052000 1.200000 0.040000 0.048000
1517202673798832504	300 49 0.900000 0.044000 0.040000 1400 42 1.000000 2.526000 2.720000 600 56 1.000000 0.052000 0.052000 1.200000 0.038000 0.045000
1517202674326549504	300 49 0.900000 0.048000 0.043000 1400 42 1.000000 2.510000 2.703000 600 56 1.000000 0.052000 0.052000 1.200000 0.051000 0.061000
1517202674851517505	300 49 0.900000 0.054000 0.049000 1400 43 1.000000 2.512000 2.705000 600 56 1.000000 0.052000 0.052000 1.200000 0.043000 0.052000
1517202675375727713	300 50 0.900000 0.041000 0.037000 1400 43 1.000000 2.528000 2.722000 600 56 1.000000 0.052000 0.052000 1.200000 0.038000 0.045000
1517202675900546463	300 50 0.900000 0.041000 0.037000 1400 43 1.000000 2.537000 2.732000 600 56 1.000000 0.052000 0.052000 1.200000 0.036000 0.043000
1517202676426117088	300 50 0.900000 0.041000 0.037000 1400 43 1.000000 2.543000 2.738000 600 57 1.000000 0.052000 0.052000 1.200000 0.034000 0.041000
1517202676951391880	300 50 0.900000 0.066000 0.060000 1400 43 1.000000 2.539000 2.734000 600 57 1.000000 0.052000 0.052000 1.200000 0.053000 0.064000
1517202677476284213	300 50 0.900000 0.042000 0.038000 1400 43 1.000000 2.533000 2.728000 600 57 1.000000 0.052000 0.052000 1.200000 0.033000 0.039000
1517202678000673797	300 50 0.900000 0.041000 0.037000 1400 43 1.000000 2.541000 2.736000 600 57 1.000000 0.052000 0.052000 1.200000 0.032000 0.038000
1517202678525675547	300 50 0.900000 0.041000 0.037000 1400 43 1.000000 2.543000 2.738000 600 57 1.000000 0.053000 0.053000 1.200000 0.034000 0.041000
1517202679052522880	300 50 0.900000 0.050000 0.045000 1400 43 1.000000 2.537000 2.732000 600 57 1.000000 0.052000 0.052000 1.200000 0.042000 0.050000
1517202679577457130	300 50 0.900000 0.063000 0.057000 1400 43 1.000000 2.547000 2.743000 600 57 1.000000 0.052000 0.052000 1.200000 0.053000 0.064000
1517202680102487880	300 50 0.900000 0.044000 0.040000 1400 43 1.000000 2.547000 2.743000 600 57 1.000000 0.052000 0.052000 1.200000 0.033000 0.039000
1517202680627022880	300 50 0.900000 0.043000 0.039000 1400 44 1.000000 2.535000 2.730000 600 57 1.000000 0.053000 0.053000 1.200000 0.033000 0.039000
1517202681151749839	300 51 0.900000 0.051000 0.046000 1400 44 1.000000 2.541000 2.736000 600 57 1.000000 0.053000 0.053000 1.200000 0.045000 0.054000
1517202681683653839	300 51 0.900000 0.045000 0.041000 1400 44 1.000000 2.546000 2.742000 600 57 1.000000 0.052000 0.052000 1.200000 0.043000 0.051000
1517202682208042797	300 51 0.900000 0.052000 0.047000 1400 44 1.000000 2.539000 2.734000 600 57 1.000000 0.052000 0.052000 1.200000 0.042000 0.050000
1517202682732211214	300 51 0.900000 0.041000 0.037000 1400 44 1.000000 2.510000 2.703000 600 57 1.000000 0.053000 0.053000 1.200000 0.038000 0.045000
1517202683257178256	300 51 0.900000 0.050000 0.045000 1400 44 1.000000 2.527000 2.721000 600 57 1.000000 0.053000 0.053000 1.200000 0.045000 0.054000
1517202683782845297	300 51 0.900000 0.040000 0.036000 1400 44 1.000000 2.529000 2.723000 600 58 1.000000 0.052000 0.052000 1.200000 0.039000 0.047000
1517202684312483756	300 51 0.900000 0.061000 0.055000 1400 44 1.000000 2.534000 2.729000 600 58 1.000000 0.052000 0.052000 1.200000 0.058000 0.070000
1517202684837768797	300 51 0.900000 0.041000 0.037000 1400 44 1.000000 2.584000 2.782000 600 58 1.000000 0.052000 0.052000 1.200000 0.040000 0.048000
1517202685363005339	300 51 0.900000 0.050000 0.045000 1400 44 1.000000 2.579000 2.777000 600 58 1.000000 0.052000 0.052000 1.200000 0.041000 0.049000
1517202685888690089	300 51 0.900000 0.051000 0.046000 1400 44 1.000000 2.574000 2.774000 600 58 1.000000 0.052000 0.052000 1.200000 0.038000 0.045000
1517202686419648214	300 51 0.900000 0.044000 0.040000 1400 44 1.000000 2.622000 2.823000 600 58 1.000000 0.052000 0.052000 1.200000 0.039000 0.047000
1517202686945619589	300 51 0.900000 0.063000 0.057000 1400 44 1.000000 2.611000 2.814000 600 58 1.000000 0.052000 0.052000 1.200000 0.053000 0.064000
1517202687471584214	300 51 0.900000 0.043000 0.039000 1400 44 1.000000 2.607000 2.810000 600 58 1.000000 0.053000 0.053000 1.200000 0.032000 0.038000
1517202687996287673	300 51 0.900000 0.053000 0.048000 1400 45 1.000000 2.609000 2.809000 600 58 1.000000 0.053000 0.053000 1.200000 0.034000 0.041000
1517202688520860798	300 51 0.900000 0.044000 0.040000 1400 44 1.000000 2.607000 2.807000 600 58 1.000000 0.053000 0.053000 1.200000 0.040000 0.048000
1517202689047718423	300 52 0.900000 0.045000 0.041000 1400 45 1.000000 2.589000 2.788000 600 58 1.000000 0.053000 0.053000 1.200000 0.041000 0.049000
1517202689572768798	300 52 0.900000 0.062000 0.056000 1400 45 1.000000 2.584000 2.785000 600 58 1.000000 0.053000 0.053000 1.200000 0.058000 0.070000
1517202690097769006	300 52 0.900000 0.049000 0.044000 1400 45 1.000000 2.615000 2.818000 600 58 1.000000 0.053000 0.053000 1.200000 0.047000 0.056000
1517202690622758173	300 52 0.900000 0.043000 0.039000 1400 45 1.000000 2.606000 2.806000 600 58 1.000000 0.053000 0.053000 1.200000 0.036000 0.043000
1517202691147512590	300 52 0.900000 0.045000 0.041000 1400 45 1.000000 2.604000 2.807000 600 58 1.000000 0.053000 0.053000 1.200000 0.036000 0.043000
1517202691676121298	300 52 0.900000 0.045000 0.041000 1400 45 1.000000 2.575000 2.773000 600 58 1.000000 0.053000 0.053000 1.200000 0.038000 0.045000
1517202692202528215	300 52 0.900000 0.063000 0.057000 1400 45 1.000000 2.618000 2.819000 600 58 1.000000 0.052000 0.052000 1.200000 0.051000 0.061000
1517202692727286715	300 52 0.900000 0.055000 0.050000 1400 45 1.000000 2.606000 2.806000 600 58 1.000000 0.052000 0.052000 1.200000 0.034000 0.041000
1517202693252361965	300 52 0.900000 0.044000 0.040000 1400 45 1.000000 2.573000 2.771000 600 58 1.000000 0.052000 0.052000 1.200000 0.035000 0.042000
1517202693777026423	300 52 0.900000 0.044000 0.040000 1400 45 1.000000 2.604000 2.804000 600 59 1.000000 0.053000 0.053000 1.200000 0.039000 0.047000
1517202694308713674	300 52 0.900000 0.045000 0.041000 1400 45 1.000000 2.601000 2.801000 600 59 1.000000 0.052000 0.052000 1.200000 0.053000 0.064000
1517202694834109924	300 52 0.900000 0.071000 0.064000 1400 45 1.000000 2.604000 2.804000 600 59 1.000000 0.053000 0.053000 1.200000 0.044000 0.053000
1517202695359317507	300 52 0.900000 0.044000 0.040000 1400 45 1.000000 2.604000 2.804000 600 59 1.000000 0.053000 0.053000 1.200000 0.041000 0.049000
1517202695884297507	300 52 0.900000 0.045000 0.041000 1400 45 1.000000 2.597000 2.796000 600 59 1.000000 0.053000 0.053000 1.200000 0.041000 0.049000
1517202696416791965	300 52 0.900000 0.045000 0.041000 1400 45 1.000000 2.593000 2.792000 600 59 1.000000 0.053000 0.053000 1.200000 0.039000 0.047000
1517202696941953882	300 52 0.900000 0.076000 0.069000 1400 45 1.000000 2.569000 2.766000 600 59 1.000000 0.053000 0.053000 1.200000 0.061000 0.073000
1517202697467199299	300 52 0.900000 0.043000 0.039000 1400 45 1.000000 2.582000 2.780000 600 59 1.000000 0.053000 0.053000 1.200000 0.045000 0.054000
1517202697993528132	300 52 0.900000 0.043000 0.039000 1400 45 1.000000 2.554000 2.750000 600 59 1.000000 0.053000 0.053000 1.200000 0.038000 0.045000
1517202698520005591	300 52 0.900000 0.043000 0.039000 1400 45 1.000000 2.552000 2.748000 600 59 1.000000 0.053000 0.053000 1.200000 0.040000 0.048000
1517202699048864216	300 52 0.900000 0.044000 0.040000 1400 45 1.000000 2.551000 2.747000 600 58 1.000000 0.053000 0.053000 1.200000 0.040000 0.048000
1517202699573686966	300 51 0.900000 0.065000 0.059000 1400 45 1.000000 2.577000 2.778000 600 58 1.000000 0.053000 0.053000 1.200000 0.056000 0.067000
1517202700098484133	300 52 0.900000 0.045000 0.041000 1400 45 1.000000 2.555000 2.751000 600 59 1.000000 0.053000 0.053000 1.200000 0.040000 0.048000
1517202700622953591	300 52 0.900000 0.045000 0.041000 1400 45 1.000000 2.562000 2.759000 600 59 1.000000 0.053000 0.053000 1.200000 0.041000 0.049000
1517202701147223591	300 52 0.900000 0.045000 0.041000 1400 45 1.000000 2.550000 2.746000 600 59 1.000000 0.053000 0.053000 1.200000 0.041000 0.049000
1517202701673483174	300 52 0.900000 0.048000 0.043000 1400 45 1.000000 2.597000 2.799000 600 59 1.000000 0.053000 0.053000 1.200000 0.045000 0.054000
1517202702201080966	300 52 0.900000 0.061000 0.055000 1400 45 1.000000 2.580000 2.778000 600 59 1.000000 0.053000 0.053000 1.200000 0.053000 0.064000
1517202702726540008	300 52 0.900000 0.043000 0.039000 1400 45 1.000000 2.576000 2.774000 600 59 1.000000 0.053000 0.053000 1.200000 0.037000 0.044000
1517202703250928758	300 52 0.900000 0.044000 0.040000 1400 45 1.000000 2.568000 2.765000 600 59 1.000000 0.053000 0.053000 1.200000 0.037000 0.044000
1517202703775908341	300 52 0.900000 0.051000 0.046000 1400 45 1.000000 2.578000 2.776000 600 59 1.000000 0.052000 0.052000 1.200000 0.044000 0.053000
1517202704300165258	300 52 0.900000 0.060000 0.054000 1400 45 1.000000 2.549000 2.745000 600 59 1.000000 0.053000 0.053000 1.200000 0.038000 0.045000
1517202704824655008	300 52 0.900000 0.041000 0.037000 1400 45 1.000000 2.528000 2.722000 600 59 1.000000 0.053000 0.053000 1.200000 0.051000 0.061000
1517202705349500008	300 52 0.900000 0.044000 0.040000 1400 45 1.000000 2.550000 2.748000 600 59 1.000000 0.053000 0.053000 1.200000 0.039000 0.047000
1517202705874351967	300 52 0.900000 0.052000 0.047000 1400 45 1.000000 2.546000 2.742000 600 59 1.000000 0.053000 0.053000 1.200000 0.047000 0.056000
1517202706400538300	300 52 0.900000 0.042000 0.038000 1400 45 1.000000 2.530000 2.724000 600 59 1.000000 0.052000 0.052000 1.200000 0.041000 0.049000
1517202706928232300	300 52 0.900000 0.060000 0.054000 1400 45 1.000000 2.543000 2.738000 600 59 1.000000 0.053000 0.053000 1.200000 0.054000 0.065000
1517202707452783175	300 52 0.900000 0.042000 0.038000 1400 45 1.000000 2.504000 2.696000 600 59 1.000000 0.053000 0.053000 1.200000 0.041000 0.049000
1517202707977602925	300 52 0.900000 0.052000 0.047000 1400 45 1.000000 2.549000 2.747000 600 59 1.000000 0.053000 0.053000 1.200000 0.043000 0.052000
1517202708502521550	300 52 0.900000 0.043000 0.039000 1400 45 1.000000 2.534000 2.729000 600 59 1.000000 0.053000 0.053000 1.200000 0.040000 0.048000
1517202709029874009	300 52 0.900000 0.043000 0.039000 1400 45 1.000000 2.526000 2.720000 600 59 1.000000 0.053000 0.053000 1.200000 0.038000 0.045000
1517202709555087884	300 52 0.900000 0.060000 0.054000 1400 45 1.000000 2.569000 2.769000 600 59 1.000000 0.053000 0.053000 1.200000 0.052000 0.062000
1517202710079883217	300 52 0.900000 0.050000 0.045000 1400 45 1.000000 2.572000 2.770000 600 59 1.000000 0.053000 0.053000 1.200000 0.034000 0.041000
1517202710604991175	300 52 0.900000 0.042000 0.038000 1400 45 1.000000 2.541000 2.736000 600 59 1.000000 0.053000 0.053000 1.200000 0.036000 0.043000
1517202711131687717	300 52 0.900000 0.043000 0.039000 1400 45 1.000000 2.540000 2.735000 600 59 1.000000 0.053000 0.053000 1.200000 0.036000 0.043000
1517202711658928051	300 52 0.900000 0.042000 0.038000 1400 45 1.000000 2.535000 2.730000 600 59 1.000000 0.053000 0.053000 1.200000 0.039000 0.047000
1517202712185668009	300 52 0.900000 0.061000 0.055000 1400 45 1.000000 2.521000 2.715000 600 58 1.000000 0.053000 0.053000 1.200000 0.049000 0.059000
1517202712709914176	300 51 0.900000 0.054000 0.049000 1400 45 1.000000 2.519000 2.712000 600 58 1.000000 0.053000 0.053000 1.200000 0.044000 0.053000
1517202713234056467	300 52 0.900000 0.043000 0.039000 1400 45 1.000000 2.513000 2.706000 600 59 1.000000 0.053000 0.053000 1.200000 0.041000 0.049000
1517202713760639926	300 52 0.900000 0.043000 0.039000 1400 45 1.000000 2.515000 2.708000 600 59 1.000000 0.053000 0.053000 1.200000 0.040000 0.048000
1517202714286472509	300 52 0.900000 0.058000 0.053000 1400 45 1.000000 2.504000 2.696000 600 59 1.000000 0.053000 0.053000 1.200000 0.054000 0.065000
1517202714810889551	300 52 0.900000 0.055000 0.050000 1400 45 1.000000 2.556000 2.752000 600 59 1.000000 0.053000 0.053000 1.200000 0.048000 0.057000
1517202715335598009	300 52 0.900000 0.043000 0.039000 1400 45 1.000000 2.527000 2.721000 600 59 1.000000 0.053000 0.053000 1.200000 0.042000 0.050000
1517202715860263843	300 52 0.900000 0.043000 0.039000 1400 45 1.000000 2.546000 2.742000 600 59 1.000000 0.053000 0.053000 1.200000 0.037000 0.044000
1517202716386667468	300 52 0.900000 0.041000 0.037000 1400 45 1.000000 2.526000 2.720000 600 59 1.000000 0.053000 0.053000 1.200000 0.036000 0.043000
1517202716911896426	300 52 0.900000 0.073000 0.066000 1400 45 1.000000 2.535000 2.730000 600 59 1.000000 0.053000 0.053000 1.200000 0.059000 0.071000
1517202717436112843	300 52 0.900000 0.044000 0.040000 1400 45 1.000000 2.552000 2.748000 600 59 1.000000 0.053000 0.053000 1.200000 0.036000 0.043000
1517202717960344801	300 52 0.900000 0.043000 0.039000 1400 45 1.000000 2.514000 2.707000 600 59 1.000000 0.053000 0.053000 1.200000 0.034000 0.041000
1517202718484914093	300 52 0.900000 0.042000 0.038000 1400 45 1.000000 2.516000 2.709000 600 59 1.000000 0.053000 0.053000 1.200000 0.035000 0.042000
1517202719010932885	300 52 0.900000 0.043000 0.039000 1400 45 1.000000 2.531000 2.725000 600 59 1.000000 0.053000 0.053000 1.200000 0.043000 0.052000
1517202719536352635	300 52 0.900000 0.063000 0.057000 1400 45 1.000000 2.516000 2.709000 600 59 1.000000 0.053000 0.053000 1.200000 0.053000 0.064000
1517202720060686552	300 52 0.900000 0.043000 0.039000 1400 45 1.000000 2.511000 2.704000 600 59 1.000000 0.053000 0.053000 1.200000 0.039000 0.047000
1517202720585058385	300 52 0.900000 0.043000 0.039000 1400 45 1.000000 2.518000 2.711000 600 59 1.000000 0.053000 0.053000 1.200000 0.041000 0.049000
1517202721109811052	300 52 0.900000 0.043000 0.039000 1400 45 1.000000 2.512000 2.705000 600 59 1.000000 0.053000 0.053000 1.200000 0.041000 0.049000
1517202721636885677	300 52 0.900000 0.057000 0.052000 1400 45 1.000000 2.541000 2.736000 600 59 1.000000 0.053000 0.053000 1.200000 0.053000 0.064000
1517202722161476969	300 52 0.900000 0.041000 0.037000 1400 45 1.000000 2.526000 2.720000 600 59 1.000000 0.053000 0.053000 1.200000 0.039000 0.047000
1517202722686123677	300 52 0.900000 0.041000 0.037000 1400 45 1.000000 2.533000 2.728000 600 59 1.000000 0.053000 0.053000 1.200000 0.039000 0.047000
1517202723211819635	300 52 0.900000 0.042000 0.038000 1400 45 1.000000 2.552000 2.748000 600 59 1.000000 0.053000 0.053000 1.200000 0.036000 0.043000
1517202723739929802	300 52 0.900000 0.056000 0.051000 1400 45 1.000000 2.547000 2.743000 600 59 1.000000 0.053000 0.053000 1.200000 0.038000 0.045000
1517202724266725427	300 52 0.900000 0.058000 0.053000 1400 45 1.000000 2.527000 2.721000 600 59 1.000000 0.053000 0.053000 1.200000 0.053000 0.064000
1517202724792925636	300 52 0.900000 0.045000 0.041000 1400 45 1.000000 2.529000 2.723000 600 59 1.000000 0.053000 0.053000 1.200000 0.035000 0.042000
1517202725317673094	300 52 0.900000 0.043000 0.039000 1400 46 1.000000 2.523000 2.717000 600 59 1.000000 0.053000 0.053000 1.200000 0.034000 0.041000
1517202725842332844	300 51 0.900000 0.056000 0.051000 1400 45 1.000000 2.515000 2.708000 600 59 1.000000 0.053000 0.053000 1.200000 0.043000 0.052000
1517202726368293177	300 52 0.900000 0.042000 0.038000 1400 46 1.000000 2.512000 2.705000 600 59 1.000000 0.053000 0.053000 1.200000 0.037000 0.044000
1517202726892951927	300 52 0.900000 0.063000 0.057000 1400 46 1.000000 2.523000 2.717000 600 59 1.000000 0.053000 0.053000 1.200000 0.054000 0.065000
1517202727417302219	300 52 0.900000 0.042000 0.038000 1400 45 1.000000 2.519000 2.712000 600 59 1.000000 0.053000 0.053000 1.200000 0.038000 0.045000
1517202727941938344	300 52 0.900000 0.053000 0.048000 1400 45 1.000000 2.520000 2.714000 600 59 1.000000 0.053000 0.053000 1.200000 0.047000 0.056000
1517202728466507886	300 52 0.900000 0.041000 0.037000 1400 45 1.000000 2.512000 2.705000 600 59 1.000000 0.053000 0.053000 1.200000 0.038000 0.045000
1517202728998270553	300 52 0.900000 0.055000 0.050000 1400 46 1.000000 2.528000 2.722000 600 59 1.000000 0.053000 0.053000 1.200000 0.052000 0.062000
1517202729523005886	300 52 0.900000 0.043000 0.039000 1400 46 1.000000 2.516000 2.709000 600 59 1.000000 0.053000 0.053000 1.200000 0.040000 0.048000
1517202730047415386	300 52 0.900000 0.043000 0.039000 1400 46 1.000000 2.514000 2.707000 600 59 1.000000 0.053000 0.053000 1.200000 0.040000 0.048000
1517202730585539095	300 53 0.900000 0.047000 0.043000 1400 46 1.000000 2.515000 2.708000 600 59 1.000000 0.053000 0.053000 1.200000 0.035000 0.042000
1517202731110849886	300 52 0.900000 0.068000 0.062000 1400 45 1.000000 2.546000 2.742000 600 59 1.000000 0.053000 0.053000 1.200000 0.035000 0.042000
1517202731635042803	300 53 0.900000 0.056000 0.051000 1400 46 1.000000 2.512000 2.705000 600 59 1.000000 0.053000 0.053000 1.200000 0.052000 0.062000
1517202732160039386	300 52 0.900000 0.046000 0.042000 1400 46 1.000000 2.518000 2.711000 600 59 1.000000 0.053000 0.053000 1.200000 0.034000 0.041000
1517202732684758511	300 52 0.900000 0.049000 0.044000 1400 46 1.000000 2.534000 2.729000 600 59 1.000000 0.053000 0.053000 1.200000 0.034000 0.041000
1517202733209577928	300 52 0.900000 0.042000 0.038000 1400 46 1.000000 2.532000 2.726000 600 59 1.000000 0.053000 0.053000 1.200000 0.038000 0.045000
1517202733736223512	300 53 0.900000 0.041000 0.037000 1400 46 1.000000 2.528000 2.722000 600 59 1.000000 0.053000 0.053000 1.200000 0.038000 0.045000
1517202734261684845	300 53 0.900000 0.061000 0.055000 1400 46 1.000000 2.524000 2.718000 600 59 1.000000 0.053000 0.053000 1.200000 0.054000 0.065000
1517202734786815595	300 53 0.900000 0.049000 0.044000 1400 46 1.000000 2.530000 2.724000 600 59 1.000000 0.053000 0.053000 1.200000 0.042000 0.050000
1517202735311730512	300 53 0.900000 0.040000 0.036000 1400 46 1.000000 2.542000 2.737000 600 59 1.000000 0.053000 0.053000 1.200000 0.040000 0.048000
1517202735837251845	300 52 0.900000 0.041000 0.037000 1400 46 1.000000 2.514000 2.707000 600 59 1.000000 0.053000 0.053000 1.200000 0.039000 0.047000
1517202736368287470	300 53 0.900000 0.044000 0.040000 1400 46 1.000000 2.512000 2.705000 600 59 1.000000 0.053000 0.053000 1.200000 0.035000 0.042000
1517202736892218887	300 46 0.900000 0.068000 0.062000 1400 44 1.000000 2.121000 2.282000 600 52 1.000000 0.053000 0.053000 1.200000 0.057000 0.068000
1517202737415850220	300 44 0.900000 0.018000 0.016000 1400 43 1.000000 0.187000 0.201000 600 49 1.000000 0.053000 0.053000 1.200000 0.025000 0.030000
