#Timestamp	CPU(0) Frequency(MHz)	CPU(0) Temperature(C)	A7 Voltage(V)	A7 Current(A)	A7 Power(W)	CPU(4) Frequency(MHz)	CPU(4) Temperature(C)	A15 Voltage(V)	A15 Current(A)	A15 Power(W)	GPU Frequency(MHz)	GPU Temperature(C)	GPU Voltage(V)	GPU Current(A)	GPU Power(W)	RAM Voltage(V)	RAM Current(A)	RAM Power(W)
1559791345102867261	400 43 1.000000 0.035000 0.035000 1100 39 1.000000 0.529000 0.549000 600 44 1.000000 0.052000 0.052000 1.200000 0.035000 0.042000
1559791345611109845	400 42 0.900000 0.020000 0.018000 1100 39 0.900000 0.664000 0.658000 600 44 1.000000 0.052000 0.052000 1.200000 0.051000 0.061000
1559791346119115178	400 42 0.900000 0.019000 0.017000 1100 38 0.900000 0.678000 0.671000 600 43 1.000000 0.051000 0.051000 1.200000 0.048000 0.057000
1559791346626916053	400 42 0.900000 0.022000 0.020000 1100 38 0.900000 0.829000 0.822000 600 42 1.000000 0.051000 0.051000 1.200000 0.033000 0.039000
1559791347134593928	400 42 0.900000 0.019000 0.017000 1100 38 0.900000 0.639000 0.633000 600 42 1.000000 0.051000 0.051000 1.200000 0.028000 0.033000
1559791347642570637	400 41 0.900000 0.018000 0.016000 1100 37 0.900000 0.637000 0.631000 600 42 1.000000 0.051000 0.051000 1.200000 0.028000 0.033000
1559791348150597095	400 41 0.900000 0.018000 0.016000 1100 37 0.900000 0.628000 0.622000 600 41 1.000000 0.051000 0.051000 1.200000 0.029000 0.035000
1559791348658409970	400 41 0.900000 0.022000 0.020000 1100 37 0.900000 0.828000 0.821000 600 41 1.000000 0.051000 0.051000 1.200000 0.032000 0.038000
1559791349166033012	400 41 0.900000 0.018000 0.016000 1100 37 0.900000 0.624000 0.618000 600 41 1.000000 0.051000 0.051000 1.200000 0.027000 0.032000
1559791349673813054	400 40 0.900000 0.018000 0.016000 1100 36 0.900000 0.623000 0.617000 600 41 1.000000 0.051000 0.051000 1.200000 0.026000 0.031000
1559791350181583179	400 40 0.900000 0.018000 0.016000 1100 36 0.900000 0.624000 0.618000 600 40 1.000000 0.051000 0.051000 1.200000 0.027000 0.032000
1559791350689759095	400 40 0.900000 0.018000 0.016000 1100 36 0.900000 0.635000 0.629000 600 40 1.000000 0.051000 0.051000 1.200000 0.030000 0.036000
1559791351197475387	400 40 0.900000 0.022000 0.020000 1100 36 0.900000 0.641000 0.635000 600 40 1.000000 0.051000 0.051000 1.200000 0.028000 0.033000
1559791351705333179	400 40 0.900000 0.018000 0.016000 1100 36 0.900000 0.653000 0.647000 600 40 1.000000 0.051000 0.051000 1.200000 0.031000 0.037000
1559791352213203054	400 40 0.900000 0.018000 0.016000 1100 36 0.900000 0.642000 0.636000 600 40 1.000000 0.051000 0.051000 1.200000 0.028000 0.033000
1559791352724941804	400 39 0.900000 0.018000 0.016000 1100 36 0.900000 0.629000 0.623000 600 40 1.000000 0.051000 0.051000 1.200000 0.027000 0.032000
1559791353232643512	400 39 0.900000 0.021000 0.019000 1100 36 0.900000 0.649000 0.643000 600 40 1.000000 0.051000 0.051000 1.200000 0.029000 0.035000
1559791353740461762	400 39 0.900000 0.018000 0.016000 1100 36 0.900000 0.624000 0.618000 600 39 1.000000 0.051000 0.051000 1.200000 0.027000 0.032000
1559791354248278721	400 39 0.900000 0.018000 0.016000 1100 35 0.900000 0.620000 0.614000 600 39 1.000000 0.051000 0.051000 1.200000 0.027000 0.032000
1559791354760683596	400 39 0.900000 0.017000 0.015000 1100 35 0.900000 0.621000 0.615000 600 39 1.000000 0.051000 0.051000 1.200000 0.027000 0.032000
1559791355272021179	400 39 0.900000 0.020000 0.018000 1100 35 0.900000 0.690000 0.683000 600 39 1.000000 0.051000 0.051000 1.200000 0.031000 0.037000
1559791355779861846	400 39 0.900000 0.018000 0.016000 1100 35 0.900000 0.622000 0.616000 600 39 1.000000 0.051000 0.051000 1.200000 0.028000 0.033000
1559791356287871929	400 39 0.900000 0.018000 0.016000 1100 35 0.900000 0.620000 0.614000 600 39 1.000000 0.051000 0.051000 1.200000 0.027000 0.032000
1559791356795595013	400 39 0.900000 0.018000 0.016000 1100 35 0.900000 0.619000 0.613000 600 39 1.000000 0.051000 0.051000 1.200000 0.027000 0.032000
1559791357303265804	400 39 0.900000 0.022000 0.020000 1100 35 0.900000 0.712000 0.705000 600 39 1.000000 0.051000 0.051000 1.200000 0.032000 0.038000
1559791357811325263	400 39 0.900000 0.019000 0.017000 1100 35 0.900000 0.718000 0.711000 600 39 1.000000 0.051000 0.051000 1.200000 0.032000 0.038000
1559791358319250971	400 39 0.900000 0.018000 0.016000 1100 35 0.900000 0.634000 0.628000 600 39 1.000000 0.051000 0.051000 1.200000 0.028000 0.033000
1559791358826981638	400 39 0.900000 0.017000 0.015000 1100 35 0.900000 0.626000 0.620000 600 39 1.000000 0.051000 0.051000 1.200000 0.029000 0.035000
1559791359353522138	400 39 0.900000 0.018000 0.016000 1100 35 0.900000 0.711000 0.705000 600 39 1.000000 0.051000 0.051000 1.200000 0.030000 0.036000
1559791359861402138	400 39 0.900000 0.018000 0.016000 1100 35 0.900000 0.636000 0.630000 600 39 1.000000 0.051000 0.051000 1.200000 0.031000 0.037000
1559791360369144221	400 38 0.900000 0.018000 0.016000 1100 35 0.900000 0.624000 0.618000 600 38 1.000000 0.051000 0.051000 1.200000 0.029000 0.035000
1559791360876948388	400 38 0.900000 0.018000 0.016000 1100 35 0.900000 0.620000 0.614000 600 38 1.000000 0.051000 0.051000 1.200000 0.029000 0.035000
1559791361400005680	400 38 0.900000 0.018000 0.016000 1100 35 0.900000 0.661000 0.655000 600 39 1.000000 0.051000 0.051000 1.200000 0.027000 0.032000
1559791361913042222	400 38 0.900000 0.018000 0.016000 1100 34 0.900000 0.619000 0.613000 600 38 1.000000 0.051000 0.051000 1.200000 0.029000 0.035000
1559791362420868513	400 38 0.900000 0.018000 0.016000 1100 34 0.900000 0.621000 0.615000 600 38 1.000000 0.051000 0.051000 1.200000 0.028000 0.033000
1559791362928700597	400 38 0.900000 0.018000 0.016000 1100 34 0.900000 0.621000 0.615000 600 38 1.000000 0.051000 0.051000 1.200000 0.029000 0.035000
1559791363462290139	400 38 0.900000 0.018000 0.016000 1100 34 0.900000 0.631000 0.625000 600 38 1.000000 0.051000 0.051000 1.200000 0.027000 0.032000
1559791363970193764	400 38 0.900000 0.022000 0.020000 1100 34 0.900000 0.618000 0.612000 600 38 1.000000 0.051000 0.051000 1.200000 0.026000 0.031000
1559791364477987055	400 38 0.900000 0.018000 0.016000 1100 34 0.900000 0.621000 0.615000 600 38 1.000000 0.051000 0.051000 1.200000 0.026000 0.031000
1559791364985911180	400 38 0.900000 0.017000 0.015000 1100 34 0.900000 0.621000 0.615000 600 38 1.000000 0.051000 0.051000 1.200000 0.027000 0.032000
1559791365493823139	400 38 0.900000 0.017000 0.015000 1100 34 0.900000 0.638000 0.632000 600 38 1.000000 0.051000 0.051000 1.200000 0.028000 0.033000
1559791366001625264	400 38 0.900000 0.022000 0.020000 1100 34 0.900000 0.902000 0.894000 600 38 1.000000 0.051000 0.051000 1.200000 0.027000 0.032000
1559791366509407806	400 38 0.900000 0.018000 0.016000 1100 34 0.900000 0.620000 0.614000 600 38 1.000000 0.051000 0.051000 1.200000 0.029000 0.035000
1559791367017212681	400 38 0.900000 0.017000 0.015000 1100 34 0.900000 0.626000 0.620000 600 38 1.000000 0.051000 0.051000 1.200000 0.027000 0.032000
1559791367525096264	400 38 0.900000 0.018000 0.016000 1100 34 0.900000 0.632000 0.626000 600 38 1.000000 0.051000 0.051000 1.200000 0.030000 0.036000
1559791368032922306	400 38 0.900000 0.018000 0.016000 1100 34 0.900000 0.635000 0.629000 600 38 1.000000 0.051000 0.051000 1.200000 0.033000 0.039000
1559791368540722931	400 38 0.900000 0.018000 0.016000 1100 34 0.900000 0.655000 0.649000 600 38 1.000000 0.050000 0.050000 1.200000 0.028000 0.033000
1559791369048642806	400 38 0.900000 0.017000 0.015000 1100 34 0.900000 0.640000 0.634000 600 38 1.000000 0.051000 0.051000 1.200000 0.028000 0.033000
1559791369556541973	400 38 0.900000 0.017000 0.015000 1100 34 0.900000 0.626000 0.620000 600 38 1.000000 0.051000 0.051000 1.200000 0.028000 0.033000
1559791370064212098	400 38 0.900000 0.018000 0.016000 1100 34 0.900000 0.734000 0.728000 600 38 1.000000 0.051000 0.051000 1.200000 0.033000 0.039000
1559791370571963514	400 38 0.900000 0.020000 0.018000 1100 34 0.900000 0.700000 0.694000 600 38 1.000000 0.051000 0.051000 1.200000 0.028000 0.033000
1559791371079764056	400 38 0.900000 0.017000 0.015000 1100 34 0.900000 0.626000 0.620000 600 38 1.000000 0.050000 0.050000 1.200000 0.028000 0.033000
1559791371587699598	400 38 0.900000 0.018000 0.016000 1100 34 0.900000 0.640000 0.634000 600 38 1.000000 0.051000 0.051000 1.200000 0.028000 0.033000
1559791372102974265	400 37 0.900000 0.018000 0.016000 1100 34 0.900000 0.702000 0.696000 600 38 1.000000 0.051000 0.051000 1.200000 0.029000 0.035000
1559791372614894765	400 38 0.900000 0.018000 0.016000 1100 34 0.900000 0.735000 0.729000 600 38 1.000000 0.051000 0.051000 1.200000 0.027000 0.032000
1559791373122674681	400 38 0.900000 0.018000 0.016000 1100 34 0.900000 0.618000 0.612000 600 38 1.000000 0.051000 0.051000 1.200000 0.027000 0.032000
1559791373630629890	400 37 0.900000 0.017000 0.015000 1100 34 0.900000 0.639000 0.633000 600 37 1.000000 0.051000 0.051000 1.200000 0.028000 0.033000
1559791374138573931	400 37 0.900000 0.018000 0.016000 1100 34 0.900000 0.624000 0.618000 600 37 1.000000 0.051000 0.051000 1.200000 0.029000 0.035000
1559791374646557932	400 38 0.900000 0.022000 0.020000 1100 34 0.900000 0.697000 0.690000 600 38 1.000000 0.051000 0.051000 1.200000 0.027000 0.032000
1559791375154338182	400 37 0.900000 0.018000 0.016000 1100 34 0.900000 0.633000 0.627000 600 38 1.000000 0.050000 0.050000 1.200000 0.029000 0.035000
1559791375662264515	400 37 0.900000 0.017000 0.015000 1100 33 0.900000 0.624000 0.618000 600 37 1.000000 0.051000 0.051000 1.200000 0.028000 0.033000
1559791376170081390	400 37 0.900000 0.018000 0.016000 1100 33 0.900000 0.651000 0.645000 600 37 1.000000 0.051000 0.051000 1.200000 0.028000 0.033000
1559791376677915723	400 38 0.900000 0.018000 0.016000 1100 33 0.900000 0.644000 0.638000 600 38 1.000000 0.051000 0.051000 1.200000 0.028000 0.033000
1559791377185723349	400 37 0.900000 0.018000 0.016000 1100 33 0.900000 0.638000 0.632000 600 37 1.000000 0.051000 0.051000 1.200000 0.028000 0.033000
1559791377693630599	400 37 0.900000 0.018000 0.016000 1100 33 0.900000 0.631000 0.625000 600 37 1.000000 0.051000 0.051000 1.200000 0.029000 0.035000
1559791378201514224	400 37 0.900000 0.018000 0.016000 1100 33 0.900000 0.711000 0.705000 600 37 1.000000 0.051000 0.051000 1.200000 0.030000 0.036000
1559791378709163474	400 37 0.900000 0.017000 0.015000 1100 33 0.900000 0.618000 0.612000 600 38 1.000000 0.051000 0.051000 1.200000 0.028000 0.033000
1559791379216985390	400 37 0.900000 0.017000 0.015000 1100 33 0.900000 0.620000 0.614000 600 37 1.000000 0.051000 0.051000 1.200000 0.029000 0.035000
1559791379724885557	400 37 0.900000 0.017000 0.015000 1100 33 0.900000 0.620000 0.614000 600 37 1.000000 0.051000 0.051000 1.200000 0.028000 0.033000
1559791380232681974	400 37 0.900000 0.017000 0.015000 1100 33 0.900000 0.629000 0.623000 600 37 1.000000 0.051000 0.051000 1.200000 0.029000 0.035000
1559791380750690266	400 37 0.900000 0.018000 0.016000 1100 33 0.900000 0.629000 0.623000 600 38 1.000000 0.050000 0.050000 1.200000 0.028000 0.033000
1559791381259556891	400 37 0.900000 0.020000 0.018000 1100 33 0.900000 0.818000 0.811000 600 37 1.000000 0.051000 0.051000 1.200000 0.034000 0.041000
1559791381767553182	400 37 0.900000 0.017000 0.015000 1100 33 0.900000 0.637000 0.631000 600 37 1.000000 0.050000 0.050000 1.200000 0.027000 0.032000
1559791382275508432	400 37 0.900000 0.018000 0.016000 1100 33 0.900000 0.630000 0.624000 600 37 1.000000 0.051000 0.051000 1.200000 0.028000 0.033000
1559791382783320891	400 37 0.900000 0.017000 0.015000 1100 33 0.900000 0.629000 0.623000 600 37 1.000000 0.051000 0.051000 1.200000 0.028000 0.033000
1559791383291063474	400 37 0.900000 0.020000 0.018000 1100 33 0.900000 0.834000 0.827000 600 37 1.000000 0.051000 0.051000 1.200000 0.033000 0.039000
1559791383798847683	400 37 0.900000 0.017000 0.015000 1100 33 0.900000 0.621000 0.615000 600 37 1.000000 0.050000 0.050000 1.200000 0.029000 0.035000
1559791384306742683	400 37 0.900000 0.018000 0.016000 1100 33 0.900000 0.686000 0.679000 600 37 1.000000 0.051000 0.051000 1.200000 0.028000 0.033000
1559791384814581141	400 37 0.900000 0.017000 0.015000 1100 33 0.900000 0.619000 0.613000 600 37 1.000000 0.050000 0.050000 1.200000 0.028000 0.033000
1559791385322383516	400 37 0.900000 0.021000 0.019000 1100 33 0.900000 0.818000 0.811000 600 37 1.000000 0.051000 0.051000 1.200000 0.032000 0.038000
1559791385830104975	400 37 0.900000 0.017000 0.015000 1100 33 0.900000 0.616000 0.610000 600 37 1.000000 0.050000 0.050000 1.200000 0.028000 0.033000
1559791386338011183	400 37 0.900000 0.018000 0.016000 1100 33 0.900000 0.700000 0.694000 600 37 1.000000 0.051000 0.051000 1.200000 0.030000 0.036000
1559791386845692641	400 37 0.900000 0.017000 0.015000 1100 33 0.900000 0.621000 0.615000 600 37 1.000000 0.051000 0.051000 1.200000 0.027000 0.032000
1559791387353404350	400 37 0.900000 0.017000 0.015000 1100 33 0.900000 0.624000 0.618000 600 37 1.000000 0.051000 0.051000 1.200000 0.029000 0.035000
1559791387861193475	400 37 0.900000 0.018000 0.016000 1100 33 0.900000 0.635000 0.629000 600 37 1.000000 0.050000 0.050000 1.200000 0.029000 0.035000
1559791388369127267	400 37 0.900000 0.017000 0.015000 1100 33 0.900000 0.626000 0.620000 600 37 1.000000 0.051000 0.051000 1.200000 0.028000 0.033000
1559791388877096308	400 37 0.900000 0.017000 0.015000 1100 33 0.900000 0.627000 0.621000 600 37 1.000000 0.050000 0.050000 1.200000 0.029000 0.035000
1559791389398721225	400 35 0.900000 0.017000 0.015000 1100 33 0.900000 0.633000 0.627000 600 38 1.000000 0.051000 0.051000 1.200000 0.028000 0.033000
1559791389913218225	400 38 0.900000 0.024000 0.021000 1100 34 0.900000 1.114000 1.106000 600 42 1.000000 0.051000 0.051000 1.200000 0.091000 0.110000
1559791390423001142	400 39 0.900000 0.131000 0.119000 1100 35 0.900000 1.636000 1.629000 600 44 1.000000 0.051000 0.051000 1.200000 0.091000 0.110000
1559791390932753475	400 40 0.900000 0.130000 0.118000 1100 35 0.900000 1.633000 1.626000 600 44 1.000000 0.051000 0.051000 1.200000 0.090000 0.109000
1559791391448492184	400 40 0.900000 0.130000 0.118000 1100 35 0.900000 1.633000 1.626000 600 45 1.000000 0.051000 0.051000 1.200000 0.089000 0.107000
1559791391959933309	400 41 0.900000 0.127000 0.115000 1100 36 0.900000 1.763000 1.757000 600 45 1.000000 0.051000 0.051000 1.200000 0.098000 0.118000
1559791392469770559	400 41 0.900000 0.131000 0.119000 1100 36 0.900000 1.666000 1.659000 600 45 1.000000 0.051000 0.051000 1.200000 0.089000 0.107000
1559791392979361600	400 41 0.900000 0.131000 0.119000 1100 36 0.900000 1.635000 1.628000 600 46 1.000000 0.051000 0.051000 1.200000 0.089000 0.107000
1559791393488983684	400 41 0.900000 0.132000 0.120000 1100 36 0.900000 1.634000 1.627000 600 46 1.000000 0.051000 0.051000 1.200000 0.089000 0.107000
1559791393998721892	400 42 0.900000 0.126000 0.114000 1100 37 0.900000 1.809000 1.803000 600 46 1.000000 0.051000 0.051000 1.200000 0.097000 0.117000
1559791394508108392	400 42 0.900000 0.131000 0.119000 1100 37 0.900000 1.704000 1.698000 600 46 1.000000 0.051000 0.051000 1.200000 0.090000 0.109000
1559791395018347226	400 42 0.900000 0.131000 0.119000 1100 37 0.900000 1.650000 1.643000 600 46 1.000000 0.051000 0.051000 1.200000 0.091000 0.110000
1559791395528042184	400 42 0.900000 0.131000 0.119000 1100 37 0.900000 1.645000 1.638000 600 47 1.000000 0.051000 0.051000 1.200000 0.090000 0.109000
1559791396037506976	400 42 0.900000 0.131000 0.119000 1100 37 0.900000 1.640000 1.635000 600 47 1.000000 0.051000 0.051000 1.200000 0.089000 0.107000
1559791396546908267	400 42 0.900000 0.127000 0.115000 1100 37 0.900000 1.662000 1.655000 600 47 1.000000 0.051000 0.051000 1.200000 0.093000 0.112000
1559791397056362893	400 42 0.900000 0.130000 0.118000 1100 37 0.900000 1.650000 1.643000 600 47 1.000000 0.051000 0.051000 1.200000 0.090000 0.109000
1559791397566122184	400 42 0.900000 0.131000 0.119000 1100 37 0.900000 1.637000 1.630000 600 47 1.000000 0.051000 0.051000 1.200000 0.090000 0.109000
1559791398087868143	400 42 0.900000 0.131000 0.119000 1100 37 0.900000 1.637000 1.630000 600 47 1.000000 0.051000 0.051000 1.200000 0.090000 0.109000
1559791398597239351	400 43 0.900000 0.126000 0.114000 1100 38 0.900000 1.711000 1.705000 600 47 1.000000 0.051000 0.051000 1.200000 0.096000 0.116000
1559791399106793476	400 42 0.900000 0.131000 0.119000 1100 38 0.900000 1.642000 1.635000 600 47 1.000000 0.051000 0.051000 1.200000 0.089000 0.107000
1559791399616519101	400 43 0.900000 0.131000 0.119000 1100 38 0.900000 1.637000 1.630000 600 47 1.000000 0.051000 0.051000 1.200000 0.089000 0.107000
1559791400126141518	400 43 0.900000 0.131000 0.119000 1100 38 0.900000 1.637000 1.630000 600 47 1.000000 0.051000 0.051000 1.200000 0.089000 0.107000
1559791400635686143	400 43 0.900000 0.127000 0.115000 1100 38 0.900000 1.773000 1.767000 600 48 1.000000 0.051000 0.051000 1.200000 0.097000 0.117000
1559791401145406393	400 43 0.900000 0.132000 0.120000 1100 38 0.900000 1.638000 1.631000 600 47 1.000000 0.051000 0.051000 1.200000 0.089000 0.107000
1559791401655022018	400 43 0.900000 0.131000 0.119000 1100 38 0.900000 1.638000 1.631000 600 47 1.000000 0.051000 0.051000 1.200000 0.089000 0.107000
1559791402164404060	400 43 0.900000 0.131000 0.119000 1100 38 0.900000 1.639000 1.632000 600 48 1.000000 0.051000 0.051000 1.200000 0.089000 0.107000
1559791402674418393	400 43 0.900000 0.130000 0.118000 1100 38 0.900000 1.849000 1.843000 600 48 1.000000 0.051000 0.051000 1.200000 0.096000 0.116000
1559791403183954685	400 43 0.900000 0.127000 0.115000 1100 38 0.900000 1.673000 1.666000 600 48 1.000000 0.051000 0.051000 1.200000 0.094000 0.113000
1559791403693691060	400 43 0.900000 0.132000 0.120000 1100 38 0.900000 1.644000 1.637000 600 48 1.000000 0.051000 0.051000 1.200000 0.090000 0.109000
1559791404203075643	400 43 0.900000 0.132000 0.120000 1100 38 0.900000 1.639000 1.632000 600 48 1.000000 0.051000 0.051000 1.200000 0.090000 0.109000
1559791404732542685	400 43 0.900000 0.131000 0.119000 1100 38 0.900000 1.654000 1.647000 600 48 1.000000 0.051000 0.051000 1.200000 0.090000 0.109000
1559791405246571810	400 43 0.900000 0.127000 0.115000 1100 38 0.900000 1.779000 1.773000 600 48 1.000000 0.051000 0.051000 1.200000 0.097000 0.117000
1559791405756216810	400 43 0.900000 0.132000 0.120000 1100 38 0.900000 1.649000 1.642000 600 48 1.000000 0.051000 0.051000 1.200000 0.090000 0.109000
1559791406265688227	400 43 0.900000 0.131000 0.119000 1100 38 0.900000 1.640000 1.633000 600 48 1.000000 0.052000 0.052000 1.200000 0.089000 0.107000
1559791406775394019	400 43 0.900000 0.132000 0.120000 1100 38 0.900000 1.647000 1.640000 600 48 1.000000 0.051000 0.051000 1.200000 0.089000 0.107000
1559791407284700227	400 43 0.900000 0.127000 0.115000 1100 38 0.900000 1.720000 1.713000 600 48 1.000000 0.051000 0.051000 1.200000 0.098000 0.118000
1559791407794369810	400 43 0.900000 0.132000 0.120000 1100 38 0.900000 1.643000 1.636000 600 48 1.000000 0.051000 0.051000 1.200000 0.089000 0.107000
1559791408303702477	400 43 0.900000 0.132000 0.120000 1100 38 0.900000 1.647000 1.640000 600 48 1.000000 0.051000 0.051000 1.200000 0.089000 0.107000
1559791408813369186	400 43 0.900000 0.132000 0.120000 1100 38 0.900000 1.657000 1.650000 600 48 1.000000 0.051000 0.051000 1.200000 0.089000 0.107000
1559791409322665936	400 43 0.900000 0.130000 0.118000 1100 38 0.900000 1.711000 1.705000 600 48 1.000000 0.051000 0.051000 1.200000 0.095000 0.115000
1559791409832156561	400 43 0.900000 0.132000 0.120000 1100 38 0.900000 1.646000 1.639000 600 48 1.000000 0.052000 0.052000 1.200000 0.089000 0.107000
1559791410341520894	400 43 0.900000 0.132000 0.120000 1100 38 0.900000 1.656000 1.649000 600 48 1.000000 0.051000 0.051000 1.200000 0.089000 0.107000
1559791410851391353	400 43 0.900000 0.132000 0.120000 1100 38 0.900000 1.639000 1.632000 600 48 1.000000 0.051000 0.051000 1.200000 0.090000 0.109000
1559791411372895853	400 43 0.900000 0.131000 0.119000 1100 38 0.900000 1.645000 1.638000 600 48 1.000000 0.051000 0.051000 1.200000 0.093000 0.112000
1559791411887325019	400 43 0.900000 0.127000 0.115000 1100 38 0.900000 1.754000 1.748000 600 48 1.000000 0.052000 0.052000 1.200000 0.095000 0.115000
1559791412396710103	400 43 0.900000 0.132000 0.120000 1100 38 0.900000 1.649000 1.642000 600 48 1.000000 0.051000 0.051000 1.200000 0.090000 0.109000
1559791412906517519	400 43 0.900000 0.132000 0.120000 1100 38 0.900000 1.642000 1.635000 600 48 1.000000 0.051000 0.051000 1.200000 0.089000 0.107000
1559791413415868186	400 43 0.900000 0.131000 0.119000 1100 38 0.900000 1.676000 1.669000 600 48 1.000000 0.051000 0.051000 1.200000 0.093000 0.112000
1559791413925582936	400 43 0.900000 0.127000 0.115000 1100 39 0.900000 1.705000 1.698000 600 48 1.000000 0.051000 0.051000 1.200000 0.098000 0.118000
1559791414434945520	400 43 0.900000 0.131000 0.119000 1100 39 0.900000 1.642000 1.635000 600 48 1.000000 0.051000 0.051000 1.200000 0.089000 0.107000
1559791414944655395	400 43 0.900000 0.132000 0.120000 1100 39 0.900000 1.648000 1.641000 600 48 1.000000 0.051000 0.051000 1.200000 0.090000 0.109000
1559791415454170478	400 43 0.900000 0.132000 0.120000 1100 38 0.900000 1.722000 1.715000 600 48 1.000000 0.051000 0.051000 1.200000 0.091000 0.110000
1559791415963657103	400 44 0.900000 0.132000 0.120000 1100 39 0.900000 1.644000 1.637000 600 48 1.000000 0.051000 0.051000 1.200000 0.090000 0.109000
1559791416473098187	400 43 0.900000 0.132000 0.120000 1100 39 0.900000 1.647000 1.640000 600 48 1.000000 0.051000 0.051000 1.200000 0.091000 0.110000
1559791416982795645	400 43 0.900000 0.132000 0.120000 1100 39 0.900000 1.653000 1.646000 600 48 1.000000 0.051000 0.051000 1.200000 0.091000 0.110000
1559791417492319437	400 43 0.900000 0.132000 0.120000 1100 38 0.900000 1.708000 1.701000 600 48 1.000000 0.051000 0.051000 1.200000 0.093000 0.112000
1559791418011369562	400 43 0.900000 0.132000 0.120000 1100 38 0.900000 1.640000 1.633000 600 48 1.000000 0.051000 0.051000 1.200000 0.090000 0.109000
1559791418522609478	400 43 0.900000 0.132000 0.120000 1100 39 0.900000 1.642000 1.635000 600 48 1.000000 0.051000 0.051000 1.200000 0.093000 0.112000
1559791419032180603	400 44 0.900000 0.132000 0.120000 1100 39 0.900000 1.638000 1.631000 600 48 1.000000 0.051000 0.051000 1.200000 0.090000 0.109000
1559791419541636437	400 44 0.900000 0.131000 0.119000 1100 39 0.900000 1.651000 1.644000 600 48 1.000000 0.051000 0.051000 1.200000 0.090000 0.109000
1559791420051354104	400 43 0.900000 0.132000 0.120000 1100 39 0.900000 1.647000 1.640000 600 48 1.000000 0.051000 0.051000 1.200000 0.090000 0.109000
1559791420561074604	400 44 0.900000 0.127000 0.115000 1100 39 0.900000 1.740000 1.734000 600 48 1.000000 0.051000 0.051000 1.200000 0.092000 0.111000
1559791421070757604	400 44 0.900000 0.132000 0.120000 1100 38 0.900000 1.650000 1.643000 600 48 1.000000 0.051000 0.051000 1.200000 0.090000 0.109000
1559791421580390937	400 44 0.900000 0.132000 0.120000 1100 39 0.900000 1.650000 1.643000 600 48 1.000000 0.051000 0.051000 1.200000 0.090000 0.109000
1559791422090023562	400 43 0.900000 0.132000 0.120000 1100 39 0.900000 1.641000 1.634000 600 48 1.000000 0.051000 0.051000 1.200000 0.090000 0.109000
1559791422599701062	400 44 0.900000 0.132000 0.120000 1100 39 0.900000 1.693000 1.686000 600 48 1.000000 0.051000 0.051000 1.200000 0.090000 0.109000
1559791423109462729	400 44 0.900000 0.132000 0.120000 1100 39 0.900000 1.656000 1.649000 600 48 1.000000 0.051000 0.051000 1.200000 0.090000 0.109000
1559791423619126104	400 44 0.900000 0.131000 0.119000 1100 39 0.900000 1.699000 1.692000 600 48 1.000000 0.051000 0.051000 1.200000 0.091000 0.110000
1559791424128727396	400 44 0.900000 0.132000 0.120000 1100 39 0.900000 1.639000 1.632000 600 48 1.000000 0.051000 0.051000 1.200000 0.091000 0.110000
1559791424642393062	400 44 0.900000 0.132000 0.120000 1100 39 0.900000 1.638000 1.631000 600 48 1.000000 0.051000 0.051000 1.200000 0.090000 0.109000
1559791425152037813	400 44 0.900000 0.132000 0.120000 1100 39 0.900000 1.640000 1.633000 600 48 1.000000 0.051000 0.051000 1.200000 0.091000 0.110000
1559791425661908979	400 44 0.900000 0.132000 0.120000 1100 39 0.900000 1.709000 1.703000 600 48 1.000000 0.051000 0.051000 1.200000 0.091000 0.110000
1559791426171579438	400 44 0.900000 0.132000 0.120000 1100 39 0.900000 1.638000 1.631000 600 48 1.000000 0.051000 0.051000 1.200000 0.090000 0.109000
1559791426691963813	400 43 0.900000 0.132000 0.120000 1100 39 0.900000 1.636000 1.629000 600 48 1.000000 0.051000 0.051000 1.200000 0.090000 0.109000
1559791427207026813	400 44 0.900000 0.132000 0.120000 1100 39 0.900000 1.797000 1.791000 600 48 1.000000 0.051000 0.051000 1.200000 0.094000 0.113000
1559791427716638605	400 44 0.900000 0.132000 0.120000 1100 39 0.900000 1.642000 1.635000 600 48 1.000000 0.052000 0.052000 1.200000 0.091000 0.110000
1559791428226252230	400 44 0.900000 0.132000 0.120000 1100 39 0.900000 1.650000 1.643000 600 48 1.000000 0.051000 0.051000 1.200000 0.091000 0.110000
1559791428735944480	400 44 0.900000 0.131000 0.119000 1100 39 0.900000 1.650000 1.643000 600 48 1.000000 0.052000 0.052000 1.200000 0.090000 0.109000
1559791429243978355	400 38 0.900000 0.102000 0.093000 1100 37 0.900000 0.915000 0.911000 600 43 1.000000 0.052000 0.052000 1.200000 0.072000 0.087000
1559791429751442230	400 37 0.900000 0.018000 0.016000 1100 36 1.000000 0.143000 0.143000 600 41 1.000000 0.051000 0.051000 1.200000 0.024000 0.028000
