#Timestamp	CPU(0) Frequency(MHz)	CPU(0) Temperature(C)	A7 Voltage(V)	A7 Current(A)	A7 Power(W)	CPU(4) Frequency(MHz)	CPU(4) Temperature(C)	A15 Voltage(V)	A15 Current(A)	A15 Power(W)	GPU Frequency(MHz)	GPU Temperature(C)	GPU Voltage(V)	GPU Current(A)	GPU Power(W)	RAM Voltage(V)	RAM Current(A)	RAM Power(W)
1553831461145722600	1300 43 1.200000 0.119000 0.145000 1400 40 1.000000 0.746000 0.798000 600 45 1.000000 0.053000 0.053000 1.200000 0.054000 0.065000
1553831461653569308	1300 43 1.200000 0.084000 0.102000 1400 40 1.000000 0.759000 0.812000 600 45 1.000000 0.053000 0.053000 1.200000 0.078000 0.094000
1553831462160995516	1300 43 1.200000 0.085000 0.103000 1400 40 1.000000 0.771000 0.824000 600 45 1.000000 0.053000 0.053000 1.200000 0.077000 0.093000
1553831462667504641	1300 43 1.200000 0.084000 0.102000 1400 40 1.000000 0.825000 0.882000 600 45 1.000000 0.053000 0.053000 1.200000 0.077000 0.093000
1553831463173326433	1300 43 1.200000 0.089000 0.108000 1400 40 1.000000 0.879000 0.940000 600 46 1.000000 0.053000 0.053000 1.200000 0.083000 0.100000
1553831463678949225	1300 42 1.200000 0.074000 0.090000 1400 40 1.000000 1.094000 1.170000 600 46 1.000000 0.053000 0.053000 1.200000 0.073000 0.088000
1553831464184662892	1300 42 1.200000 0.071000 0.086000 1400 40 1.000000 1.096000 1.172000 600 46 1.000000 0.053000 0.053000 1.200000 0.049000 0.059000
1553831464690230767	1300 42 1.200000 0.073000 0.089000 1400 40 1.000000 1.162000 1.243000 600 46 1.000000 0.053000 0.053000 1.200000 0.049000 0.059000
1553831465196005892	1300 42 1.200000 0.078000 0.095000 1400 40 1.000000 1.099000 1.173000 600 46 1.000000 0.053000 0.053000 1.200000 0.048000 0.057000
1553831465701659517	1300 42 1.200000 0.072000 0.088000 1400 40 1.000000 1.100000 1.174000 600 46 1.000000 0.053000 0.053000 1.200000 0.046000 0.055000
1553831466207358058	1300 42 1.200000 0.072000 0.088000 1400 40 1.000000 1.106000 1.183000 600 46 1.000000 0.053000 0.053000 1.200000 0.049000 0.059000
1553831466713061142	1300 42 1.200000 0.071000 0.086000 1400 40 1.000000 1.101000 1.175000 600 46 1.000000 0.053000 0.053000 1.200000 0.049000 0.059000
1553831467219489100	1300 43 1.200000 0.088000 0.107000 1400 40 1.000000 1.107000 1.182000 600 47 1.000000 0.053000 0.053000 1.200000 0.057000 0.068000
1553831467726433975	1300 49 1.200000 0.282000 0.342000 1400 42 1.000000 1.556000 1.666000 600 48 1.000000 0.053000 0.053000 1.200000 0.081000 0.098000
1553831468233199600	1300 50 1.200000 0.265000 0.321000 1400 43 1.000000 1.817000 1.947000 600 48 1.000000 0.053000 0.053000 1.200000 0.067000 0.081000
1553831468739809100	1300 48 1.200000 0.422000 0.509000 1400 44 1.000000 1.776000 1.903000 600 49 1.000000 0.053000 0.053000 1.200000 0.071000 0.085000
1553831469246201309	1300 51 1.200000 0.432000 0.521000 1400 44 1.000000 1.646000 1.762000 600 49 1.000000 0.053000 0.053000 1.200000 0.079000 0.095000
1553831469753845017	1300 49 1.200000 0.458000 0.552000 1400 44 1.000000 1.653000 1.770000 600 49 1.000000 0.053000 0.053000 1.200000 0.079000 0.095000
1553831470260085267	1300 52 1.200000 0.409000 0.494000 1400 45 1.000000 1.590000 1.702000 600 49 1.000000 0.053000 0.053000 1.200000 0.084000 0.101000
1553831470765689434	1300 48 1.200000 0.395000 0.477000 1400 44 1.000000 1.569000 1.680000 600 49 1.000000 0.053000 0.053000 1.200000 0.075000 0.090000
1553831471271697476	1300 47 1.200000 0.366000 0.442000 1400 43 1.000000 0.787000 0.844000 600 48 1.000000 0.053000 0.053000 1.200000 0.053000 0.064000
1553831471778671642	1300 48 1.200000 0.403000 0.486000 1400 43 1.000000 0.985000 1.054000 600 47 1.000000 0.053000 0.053000 1.200000 0.065000 0.078000
1553831472285334684	1300 51 1.200000 0.399000 0.481000 1400 44 1.000000 1.601000 1.716000 600 48 1.000000 0.053000 0.053000 1.200000 0.090000 0.108000
1553831472793024726	1300 51 1.200000 0.382000 0.461000 1400 45 1.000000 1.781000 1.909000 600 50 1.000000 0.053000 0.053000 1.200000 0.077000 0.093000
1553831473298966309	1300 52 1.200000 0.433000 0.522000 1400 45 1.000000 1.842000 1.974000 600 50 1.000000 0.053000 0.053000 1.200000 0.096000 0.116000
1553831473804775101	1300 52 1.200000 0.422000 0.509000 1400 45 1.000000 1.695000 1.815000 600 49 1.000000 0.053000 0.053000 1.200000 0.083000 0.100000
1553831474312666351	1300 52 1.200000 0.412000 0.497000 1400 45 1.000000 1.601000 1.714000 600 50 1.000000 0.053000 0.053000 1.200000 0.078000 0.094000
1553831474819561184	1300 53 1.200000 0.444000 0.535000 1400 46 1.000000 1.640000 1.756000 600 50 1.000000 0.053000 0.053000 1.200000 0.099000 0.119000
1553831475326023893	1300 49 1.200000 0.421000 0.508000 1400 45 1.000000 1.778000 1.904000 600 49 1.000000 0.053000 0.053000 1.200000 0.077000 0.093000
1553831475832470851	1300 46 1.200000 0.377000 0.455000 1400 44 1.000000 0.618000 0.662000 600 48 1.000000 0.053000 0.053000 1.200000 0.060000 0.072000
1553831476338611226	1300 46 1.200000 0.358000 0.432000 1400 43 1.000000 0.506000 0.542000 600 47 1.000000 0.053000 0.053000 1.200000 0.052000 0.062000
1553831476844721518	1300 46 1.200000 0.376000 0.454000 1400 43 1.000000 0.723000 0.775000 600 47 1.000000 0.053000 0.053000 1.200000 0.060000 0.072000
1553831477351439351	1300 50 1.200000 0.368000 0.444000 1400 44 1.000000 1.215000 1.301000 600 49 1.000000 0.053000 0.053000 1.200000 0.089000 0.107000
1553831477857858227	1300 50 1.200000 0.426000 0.514000 1400 44 1.000000 1.642000 1.758000 600 49 1.000000 0.053000 0.053000 1.200000 0.082000 0.099000
1553831478364058268	1300 52 1.200000 0.434000 0.523000 1400 45 1.000000 1.717000 1.840000 600 49 1.000000 0.053000 0.053000 1.200000 0.101000 0.122000
1553831478869750018	1300 52 1.200000 0.397000 0.479000 1400 45 1.000000 1.656000 1.775000 600 49 1.000000 0.053000 0.053000 1.200000 0.071000 0.085000
1553831479375728435	1300 46 1.200000 0.393000 0.474000 1400 44 1.000000 0.775000 0.830000 600 48 1.000000 0.053000 0.053000 1.200000 0.057000 0.068000
1553831479881309060	1300 46 1.200000 0.369000 0.445000 1400 43 1.000000 0.514000 0.551000 600 47 1.000000 0.053000 0.053000 1.200000 0.056000 0.067000
1553831480387053602	1300 46 1.200000 0.376000 0.454000 1400 43 1.000000 0.681000 0.730000 600 47 1.000000 0.053000 0.053000 1.200000 0.056000 0.067000
1553831480893013977	1300 50 1.200000 0.381000 0.460000 1400 43 1.000000 0.773000 0.827000 600 48 1.000000 0.053000 0.053000 1.200000 0.061000 0.073000
1553831481399174144	1300 51 1.200000 0.413000 0.498000 1400 44 1.000000 1.885000 2.020000 600 49 1.000000 0.053000 0.053000 1.200000 0.097000 0.117000
1553831481906374060	1300 50 1.200000 0.436000 0.526000 1400 44 1.000000 1.637000 1.753000 600 50 1.000000 0.053000 0.053000 1.200000 0.077000 0.093000
1553831482413771060	1300 52 1.200000 0.446000 0.538000 1400 45 1.000000 1.862000 1.996000 600 50 1.000000 0.053000 0.053000 1.200000 0.095000 0.115000
1553831482920239644	1300 53 1.200000 0.397000 0.479000 1400 45 1.000000 1.786000 1.914000 600 50 1.000000 0.053000 0.053000 1.200000 0.077000 0.093000
1553831483427404186	1300 52 1.200000 0.388000 0.469000 1400 45 1.000000 1.813000 1.943000 600 50 1.000000 0.053000 0.053000 1.200000 0.082000 0.099000
1553831483934257852	1300 53 1.200000 0.308000 0.372000 1400 46 1.000000 1.846000 1.978000 600 50 1.000000 0.053000 0.053000 1.200000 0.085000 0.102000
1553831484441664227	1300 53 1.200000 0.378000 0.456000 1400 46 1.000000 1.949000 2.089000 600 50 1.000000 0.053000 0.053000 1.200000 0.075000 0.090000
1553831484948898311	1300 53 1.200000 0.376000 0.454000 1400 46 1.000000 1.772000 1.899000 600 51 1.000000 0.053000 0.053000 1.200000 0.081000 0.098000
1553831485455722644	1300 53 1.200000 0.374000 0.451000 1400 46 1.000000 1.866000 2.000000 600 51 1.000000 0.053000 0.053000 1.200000 0.088000 0.106000
1553831485963267227	1300 52 1.200000 0.376000 0.454000 1400 46 1.000000 1.782000 1.910000 600 51 1.000000 0.053000 0.053000 1.200000 0.077000 0.093000
1553831486470407936	1300 53 1.200000 0.450000 0.543000 1400 46 1.000000 1.881000 2.016000 600 51 1.000000 0.053000 0.053000 1.200000 0.103000 0.124000
1553831486976725644	1300 54 1.200000 0.429000 0.517000 1400 46 1.000000 1.781000 1.909000 600 52 1.000000 0.053000 0.053000 1.200000 0.075000 0.090000
1553831487483279228	1300 53 1.200000 0.392000 0.473000 1400 46 1.000000 1.871000 2.005000 600 51 1.000000 0.053000 0.053000 1.200000 0.075000 0.090000
1553831487990863019	1300 53 1.200000 0.393000 0.474000 1400 46 1.000000 1.785000 1.913000 600 51 1.000000 0.053000 0.053000 1.200000 0.083000 0.100000
1553831488497485228	1300 54 1.200000 0.260000 0.315000 1400 46 1.000000 1.867000 2.001000 600 51 1.000000 0.054000 0.054000 1.200000 0.087000 0.105000
1553831489005125395	1300 53 1.200000 0.418000 0.504000 1400 46 1.000000 1.790000 1.918000 600 52 1.000000 0.053000 0.053000 1.200000 0.081000 0.098000
1553831489512673936	1300 54 1.200000 0.406000 0.490000 1400 47 1.000000 1.770000 1.895000 600 51 1.000000 0.054000 0.054000 1.200000 0.087000 0.105000
1553831490019356895	1300 50 1.200000 0.410000 0.495000 1400 46 1.000000 1.622000 1.737000 600 50 1.000000 0.054000 0.054000 1.200000 0.074000 0.089000
1553831490526057186	1300 50 1.200000 0.425000 0.512000 1400 46 1.000000 1.539000 1.648000 600 50 1.000000 0.054000 0.054000 1.200000 0.081000 0.098000
1553831491033570353	1300 54 1.200000 0.414000 0.499000 1400 46 1.000000 1.853000 1.986000 600 51 1.000000 0.053000 0.053000 1.200000 0.097000 0.117000
1553831491540246020	1300 48 1.200000 0.429000 0.517000 1400 46 1.000000 1.281000 1.370000 600 49 1.000000 0.053000 0.053000 1.200000 0.067000 0.081000
1553831492046803437	1300 48 1.200000 0.380000 0.459000 1400 44 1.000000 0.641000 0.687000 600 48 1.000000 0.053000 0.053000 1.200000 0.056000 0.067000
1553831492552569353	1300 47 1.200000 0.358000 0.432000 1400 44 1.000000 0.509000 0.546000 600 49 1.000000 0.053000 0.053000 1.200000 0.054000 0.065000
1553831493059150895	1300 47 1.200000 0.370000 0.446000 1400 44 1.000000 0.713000 0.763000 600 47 1.000000 0.053000 0.053000 1.200000 0.061000 0.073000
1553831493565800687	1300 51 1.200000 0.431000 0.520000 1400 45 1.000000 1.850000 1.983000 600 49 1.000000 0.053000 0.053000 1.200000 0.098000 0.118000
1553831494072500270	1300 50 1.200000 0.382000 0.461000 1400 45 1.000000 1.806000 1.936000 600 49 1.000000 0.053000 0.053000 1.200000 0.078000 0.094000
1553831494579750728	1300 52 1.200000 0.414000 0.499000 1400 45 1.000000 1.667000 1.785000 600 51 1.000000 0.053000 0.053000 1.200000 0.079000 0.095000
1553831495086321145	1300 53 1.200000 0.271000 0.328000 1400 45 1.000000 1.948000 2.088000 600 50 1.000000 0.053000 0.053000 1.200000 0.092000 0.111000
1553831495592929562	1300 53 1.200000 0.396000 0.478000 1400 46 1.000000 1.847000 1.979000 600 50 1.000000 0.053000 0.053000 1.200000 0.075000 0.090000
1553831496099685854	1300 53 1.200000 0.417000 0.503000 1400 46 1.000000 1.727000 1.849000 600 51 1.000000 0.054000 0.054000 1.200000 0.079000 0.095000
1553831496606221354	1300 54 1.200000 0.376000 0.454000 1400 46 1.000000 1.789000 1.917000 600 50 1.000000 0.053000 0.053000 1.200000 0.087000 0.105000
1553831497113573145	1300 51 1.200000 0.449000 0.541000 1400 46 1.000000 1.874000 2.008000 600 51 1.000000 0.054000 0.054000 1.200000 0.084000 0.101000
1553831497620240562	1300 54 1.200000 0.452000 0.545000 1400 46 1.000000 1.818000 1.948000 600 51 1.000000 0.053000 0.053000 1.200000 0.096000 0.116000
1553831498126304771	1300 53 1.200000 0.422000 0.509000 1400 46 1.000000 1.775000 1.902000 600 51 1.000000 0.054000 0.054000 1.200000 0.085000 0.102000
1553831498632012021	1300 54 1.200000 0.303000 0.366000 1400 46 1.000000 1.736000 1.860000 600 51 1.000000 0.053000 0.053000 1.200000 0.065000 0.078000
1553831499138080771	1300 54 1.200000 0.460000 0.555000 1400 47 1.000000 1.898000 2.034000 600 52 1.000000 0.053000 0.053000 1.200000 0.091000 0.110000
1553831499643855396	1300 51 1.200000 0.390000 0.471000 1400 46 1.000000 1.493000 1.597000 600 51 1.000000 0.054000 0.054000 1.200000 0.084000 0.101000
1553831500149832521	1300 50 1.200000 0.393000 0.474000 1400 46 1.000000 1.476000 1.580000 600 51 1.000000 0.053000 0.053000 1.200000 0.069000 0.083000
1553831500655817104	1300 54 1.200000 0.419000 0.506000 1400 46 1.000000 1.677000 1.796000 600 51 1.000000 0.053000 0.053000 1.200000 0.077000 0.093000
1553831501165430146	1300 53 1.200000 0.390000 0.471000 1400 47 1.000000 1.786000 1.912000 600 51 1.000000 0.053000 0.053000 1.200000 0.099000 0.119000
1553831501671732771	1300 54 1.200000 0.447000 0.539000 1400 46 1.000000 1.693000 1.814000 600 51 1.000000 0.053000 0.053000 1.200000 0.096000 0.116000
1553831502177591271	1300 54 1.200000 0.397000 0.479000 1400 47 1.000000 1.618000 1.732000 600 51 1.000000 0.053000 0.053000 1.200000 0.088000 0.106000
1553831502683570729	1300 54 1.200000 0.436000 0.526000 1400 47 1.000000 1.778000 1.906000 600 51 1.000000 0.053000 0.053000 1.200000 0.075000 0.090000
1553831503189473563	1300 54 1.200000 0.308000 0.372000 1400 47 1.000000 1.800000 1.929000 600 52 1.000000 0.054000 0.054000 1.200000 0.083000 0.100000
1553831503695424105	1300 54 1.200000 0.416000 0.502000 1400 47 1.000000 1.978000 2.122000 600 51 1.000000 0.054000 0.054000 1.200000 0.102000 0.123000
1553831504201284230	1300 54 1.200000 0.397000 0.479000 1400 47 1.000000 1.803000 1.931000 600 51 1.000000 0.054000 0.054000 1.200000 0.073000 0.088000
1553831504707634688	1300 54 1.200000 0.395000 0.477000 1400 47 1.000000 1.787000 1.915000 600 52 1.000000 0.053000 0.053000 1.200000 0.081000 0.098000
1553831505214859605	1300 54 1.200000 0.364000 0.439000 1400 47 1.000000 1.873000 2.007000 600 52 1.000000 0.053000 0.053000 1.200000 0.095000 0.115000
1553831505723476105	1300 54 1.200000 0.443000 0.534000 1400 47 1.000000 1.989000 2.134000 600 52 1.000000 0.054000 0.054000 1.200000 0.090000 0.108000
1553831506229620105	1300 55 1.200000 0.366000 0.442000 1400 47 1.000000 1.858000 1.991000 600 52 1.000000 0.053000 0.053000 1.200000 0.094000 0.113000
1553831506735724647	1300 54 1.200000 0.384000 0.463000 1400 47 1.000000 1.801000 1.930000 600 51 1.000000 0.053000 0.053000 1.200000 0.076000 0.091000
1553831507241830313	1300 54 1.200000 0.383000 0.462000 1400 47 1.000000 1.796000 1.925000 600 51 1.000000 0.054000 0.054000 1.200000 0.072000 0.087000
1553831507748657480	1300 54 1.200000 0.427000 0.515000 1400 47 1.000000 1.797000 1.926000 600 52 1.000000 0.054000 0.054000 1.200000 0.089000 0.107000
1553831508255363605	1300 54 1.200000 0.246000 0.298000 1400 47 1.000000 1.873000 2.007000 600 51 1.000000 0.054000 0.054000 1.200000 0.093000 0.112000
1553831508762641939	1300 54 1.200000 0.438000 0.528000 1400 47 1.000000 1.747000 1.872000 600 52 1.000000 0.054000 0.054000 1.200000 0.090000 0.108000
1553831509268662980	1300 54 1.200000 0.386000 0.466000 1400 47 1.000000 1.863000 1.997000 600 51 1.000000 0.054000 0.054000 1.200000 0.094000 0.113000
1553831509774558564	1300 54 1.200000 0.407000 0.491000 1400 47 1.000000 1.812000 1.942000 600 52 1.000000 0.053000 0.053000 1.200000 0.079000 0.095000
1553831510280585022	1300 54 1.200000 0.386000 0.466000 1400 47 1.000000 1.561000 1.671000 600 51 1.000000 0.053000 0.053000 1.200000 0.071000 0.085000
1553831510787363355	1300 55 1.200000 0.459000 0.554000 1400 47 1.000000 1.780000 1.908000 600 52 1.000000 0.054000 0.054000 1.200000 0.093000 0.112000
1553831511293671230	1300 54 1.200000 0.418000 0.504000 1400 47 1.000000 1.582000 1.694000 600 51 1.000000 0.054000 0.054000 1.200000 0.070000 0.084000
1553831511799878231	1300 54 1.200000 0.418000 0.504000 1400 47 1.000000 1.551000 1.661000 600 51 1.000000 0.053000 0.053000 1.200000 0.079000 0.095000
1553831512306112522	1300 54 1.200000 0.438000 0.528000 1400 47 1.000000 1.807000 1.937000 600 51 1.000000 0.053000 0.053000 1.200000 0.095000 0.115000
1553831512812742439	1300 54 1.200000 0.414000 0.499000 1400 47 1.000000 1.814000 1.944000 600 51 1.000000 0.054000 0.054000 1.200000 0.093000 0.112000
1553831513318762022	1300 54 1.200000 0.441000 0.532000 1400 47 1.000000 1.792000 1.921000 600 51 1.000000 0.053000 0.053000 1.200000 0.095000 0.115000
1553831513825153231	1300 53 1.200000 0.446000 0.538000 1400 47 1.000000 1.618000 1.732000 600 52 1.000000 0.054000 0.054000 1.200000 0.092000 0.111000
1553831514334655814	1300 51 1.200000 0.411000 0.496000 1400 47 1.000000 1.567000 1.679000 600 51 1.000000 0.053000 0.053000 1.200000 0.078000 0.094000
1553831514841774648	1300 53 1.200000 0.426000 0.514000 1400 47 1.000000 1.430000 1.530000 600 51 1.000000 0.054000 0.054000 1.200000 0.084000 0.101000
1553831515348091023	1300 51 1.200000 0.453000 0.546000 1400 47 1.000000 1.666000 1.784000 600 51 1.000000 0.053000 0.053000 1.200000 0.074000 0.089000
1553831515855294148	1300 48 1.200000 0.374000 0.451000 1400 45 1.000000 0.730000 0.781000 600 50 1.000000 0.053000 0.053000 1.200000 0.054000 0.065000
1553831516361880273	1300 48 1.200000 0.367000 0.443000 1400 45 1.000000 0.671000 0.719000 600 48 1.000000 0.053000 0.053000 1.200000 0.060000 0.072000
1553831516868037814	1300 47 1.200000 0.364000 0.439000 1400 44 1.000000 0.772000 0.826000 600 48 1.000000 0.053000 0.053000 1.200000 0.057000 0.068000
1553831517375262440	1300 52 1.200000 0.387000 0.467000 1400 45 1.000000 1.133000 1.213000 600 49 1.000000 0.053000 0.053000 1.200000 0.086000 0.104000
1553831517881826440	1300 50 1.200000 0.344000 0.416000 1400 45 1.000000 1.807000 1.937000 600 50 1.000000 0.053000 0.053000 1.200000 0.081000 0.098000
1553831518388661190	1300 52 1.200000 0.435000 0.525000 1400 46 1.000000 1.733000 1.857000 600 51 1.000000 0.053000 0.053000 1.200000 0.101000 0.122000
1553831518895069731	1300 53 1.200000 0.339000 0.410000 1400 46 1.000000 1.789000 1.917000 600 50 1.000000 0.053000 0.053000 1.200000 0.070000 0.084000
1553831519401411148	1300 54 1.200000 0.382000 0.461000 1400 46 1.000000 1.797000 1.926000 600 50 1.000000 0.053000 0.053000 1.200000 0.073000 0.088000
1553831519908956440	1300 53 1.200000 0.395000 0.477000 1400 46 1.000000 1.777000 1.904000 600 51 1.000000 0.054000 0.054000 1.200000 0.072000 0.087000
1553831520416636648	1300 53 1.200000 0.350000 0.423000 1400 46 1.000000 1.810000 1.940000 600 51 1.000000 0.054000 0.054000 1.200000 0.086000 0.104000
1553831520923396648	1300 54 1.200000 0.300000 0.363000 1400 46 1.000000 1.789000 1.917000 600 51 1.000000 0.053000 0.053000 1.200000 0.070000 0.084000
1553831521429814190	1300 54 1.200000 0.419000 0.506000 1400 46 1.000000 1.745000 1.870000 600 51 1.000000 0.054000 0.054000 1.200000 0.087000 0.105000
1553831521936477732	1300 54 1.200000 0.434000 0.523000 1400 47 1.000000 1.797000 1.926000 600 51 1.000000 0.053000 0.053000 1.200000 0.075000 0.090000
1553831522442917440	1300 54 1.200000 0.386000 0.466000 1400 47 1.000000 1.804000 1.933000 600 51 1.000000 0.053000 0.053000 1.200000 0.073000 0.088000
1553831522950151607	1300 54 1.200000 0.368000 0.444000 1400 47 1.000000 1.783000 1.911000 600 51 1.000000 0.053000 0.053000 1.200000 0.073000 0.088000
1553831523457834940	1300 54 1.200000 0.446000 0.538000 1400 47 1.000000 1.834000 1.966000 600 51 1.000000 0.053000 0.053000 1.200000 0.097000 0.117000
1553831523965731982	1300 55 1.200000 0.437000 0.527000 1400 47 1.000000 1.778000 1.906000 600 52 1.000000 0.053000 0.053000 1.200000 0.092000 0.111000
1553831524472348274	1300 54 1.200000 0.450000 0.543000 1400 47 1.000000 1.805000 1.934000 600 52 1.000000 0.054000 0.054000 1.200000 0.086000 0.104000
1553831524979114399	1300 54 1.200000 0.428000 0.516000 1400 47 1.000000 1.778000 1.906000 600 52 1.000000 0.054000 0.054000 1.200000 0.074000 0.089000
1553831525485194857	1300 49 1.200000 0.382000 0.461000 1400 46 1.000000 0.642000 0.688000 600 50 1.000000 0.054000 0.054000 1.200000 0.053000 0.064000
1553831525991581149	1300 49 1.200000 0.366000 0.442000 1400 45 1.000000 0.567000 0.607000 600 49 1.000000 0.053000 0.053000 1.200000 0.056000 0.067000
1553831526500511357	1300 52 1.200000 0.388000 0.468000 1400 45 1.000000 0.751000 0.804000 600 50 1.000000 0.053000 0.053000 1.200000 0.064000 0.077000
1553831527007377274	1300 53 1.200000 0.404000 0.487000 1400 46 1.000000 1.958000 2.100000 600 50 1.000000 0.053000 0.053000 1.200000 0.103000 0.124000
1553831527514012482	1300 53 1.200000 0.443000 0.534000 1400 46 1.000000 1.664000 1.782000 600 51 1.000000 0.054000 0.054000 1.200000 0.079000 0.095000
1553831528020239232	1300 51 1.200000 0.402000 0.485000 1400 46 1.000000 1.827000 1.958000 600 51 1.000000 0.053000 0.053000 1.200000 0.091000 0.110000
1553831528526225858	1300 53 1.200000 0.421000 0.508000 1400 46 1.000000 1.516000 1.623000 600 50 1.000000 0.054000 0.054000 1.200000 0.073000 0.088000
1553831529033605774	1300 53 1.200000 0.419000 0.505000 1400 46 1.000000 1.339000 1.432000 600 51 1.000000 0.053000 0.053000 1.200000 0.085000 0.102000
1553831529539638733	1300 51 1.200000 0.414000 0.499000 1400 46 1.000000 1.658000 1.775000 600 50 1.000000 0.053000 0.053000 1.200000 0.076000 0.091000
1553831530045259524	1300 48 1.200000 0.427000 0.515000 1400 45 1.000000 0.737000 0.790000 600 49 1.000000 0.053000 0.053000 1.200000 0.058000 0.070000
1553831530550827899	1300 47 1.200000 0.382000 0.461000 1400 44 1.000000 0.718000 0.768000 600 48 1.000000 0.053000 0.053000 1.200000 0.055000 0.066000
1553831531056555400	1300 46 1.200000 0.362000 0.437000 1400 44 1.000000 0.723000 0.774000 600 48 1.000000 0.053000 0.053000 1.200000 0.056000 0.067000
1553831531562008775	1300 47 1.200000 0.380000 0.459000 1400 44 1.000000 0.681000 0.729000 600 47 1.000000 0.053000 0.053000 1.200000 0.064000 0.077000
1553831532068082108	1300 52 1.200000 0.412000 0.497000 1400 45 1.000000 1.272000 1.363000 600 49 1.000000 0.053000 0.053000 1.200000 0.088000 0.106000
1553831532573948858	1300 51 1.200000 0.416000 0.502000 1400 45 1.000000 1.797000 1.926000 600 49 1.000000 0.053000 0.053000 1.200000 0.083000 0.100000
1553831533079825608	1300 53 1.200000 0.442000 0.533000 1400 46 1.000000 1.630000 1.745000 600 50 1.000000 0.053000 0.053000 1.200000 0.089000 0.107000
1553831533585728108	1300 53 1.200000 0.348000 0.420000 1400 46 1.000000 1.850000 1.983000 600 50 1.000000 0.053000 0.053000 1.200000 0.096000 0.116000
1553831534093236692	1300 53 1.200000 0.395000 0.477000 1400 46 1.000000 1.779000 1.907000 600 51 1.000000 0.053000 0.053000 1.200000 0.070000 0.084000
1553831534599488525	1300 53 1.200000 0.434000 0.523000 1400 46 1.000000 1.799000 1.928000 600 51 1.000000 0.053000 0.053000 1.200000 0.089000 0.107000
1553831535105279942	1300 54 1.200000 0.374000 0.451000 1400 46 1.000000 1.798000 1.927000 600 51 1.000000 0.054000 0.054000 1.200000 0.084000 0.101000
1553831535611248025	1300 53 1.200000 0.403000 0.486000 1400 46 1.000000 1.784000 1.912000 600 51 1.000000 0.054000 0.054000 1.200000 0.081000 0.098000
1553831536117038942	1300 53 1.200000 0.433000 0.522000 1400 46 1.000000 1.859000 1.992000 600 52 1.000000 0.053000 0.053000 1.200000 0.099000 0.119000
1553831536623083067	1300 54 1.200000 0.377000 0.455000 1400 47 1.000000 1.779000 1.907000 600 51 1.000000 0.053000 0.053000 1.200000 0.076000 0.092000
1553831537129158484	1300 54 1.200000 0.423000 0.510000 1400 47 1.000000 1.823000 1.954000 600 52 1.000000 0.053000 0.053000 1.200000 0.076000 0.092000
1553831537635159234	1300 53 1.200000 0.326000 0.394000 1400 46 1.000000 1.830000 1.961000 600 51 1.000000 0.053000 0.053000 1.200000 0.092000 0.111000
1553831538141470234	1300 54 1.200000 0.239000 0.290000 1400 47 1.000000 1.783000 1.911000 600 52 1.000000 0.053000 0.053000 1.200000 0.080000 0.096000
1553831538648110067	1300 54 1.200000 0.401000 0.484000 1400 47 1.000000 1.823000 1.954000 600 52 1.000000 0.053000 0.053000 1.200000 0.076000 0.091000
1553831539155373109	1300 54 1.200000 0.372000 0.449000 1400 47 1.000000 1.777000 1.904000 600 51 1.000000 0.054000 0.054000 1.200000 0.099000 0.119000
1553831539661954526	1300 54 1.200000 0.386000 0.466000 1400 47 1.000000 1.852000 1.985000 600 51 1.000000 0.053000 0.053000 1.200000 0.078000 0.094000
1553831540169979317	1300 54 1.200000 0.421000 0.508000 1400 47 1.000000 1.789000 1.917000 600 52 1.000000 0.053000 0.053000 1.200000 0.080000 0.096000
1553831540677673942	1300 54 1.200000 0.223000 0.271000 1400 47 1.000000 1.933000 2.074000 600 51 1.000000 0.053000 0.053000 1.200000 0.094000 0.113000
1553831541184313692	1300 54 1.200000 0.382000 0.461000 1400 47 1.000000 1.785000 1.913000 600 51 1.000000 0.054000 0.054000 1.200000 0.076000 0.091000
1553831541691421567	1300 54 1.200000 0.434000 0.524000 1400 47 1.000000 1.819000 1.949000 600 52 1.000000 0.054000 0.054000 1.200000 0.093000 0.112000
1553831542198212151	1300 54 1.200000 0.344000 0.415000 1400 47 1.000000 1.862000 1.996000 600 51 1.000000 0.054000 0.054000 1.200000 0.096000 0.116000
1553831542705797901	1300 54 1.200000 0.327000 0.395000 1400 47 1.000000 1.865000 1.999000 600 51 1.000000 0.054000 0.054000 1.200000 0.071000 0.085000
1553831543213612068	1300 54 1.200000 0.407000 0.491000 1400 47 1.000000 1.785000 1.913000 600 52 1.000000 0.054000 0.054000 1.200000 0.087000 0.105000
1553831543720467318	1300 54 1.200000 0.288000 0.349000 1400 47 1.000000 1.929000 2.067000 600 52 1.000000 0.053000 0.053000 1.200000 0.095000 0.115000
1553831544227081651	1300 55 1.200000 0.430000 0.519000 1400 47 1.000000 1.793000 1.922000 600 51 1.000000 0.054000 0.054000 1.200000 0.082000 0.099000
1553831544733647318	1300 54 1.200000 0.427000 0.515000 1400 47 1.000000 1.759000 1.885000 600 52 1.000000 0.053000 0.053000 1.200000 0.094000 0.113000
1553831545240080443	1300 55 1.200000 0.368000 0.444000 1400 47 1.000000 1.823000 1.954000 600 51 1.000000 0.053000 0.053000 1.200000 0.072000 0.087000
1553831545746589026	1300 55 1.200000 0.395000 0.477000 1400 47 1.000000 1.795000 1.924000 600 52 1.000000 0.053000 0.053000 1.200000 0.074000 0.089000
1553831546253279401	1300 55 1.200000 0.411000 0.496000 1400 47 1.000000 1.903000 2.040000 600 52 1.000000 0.054000 0.054000 1.200000 0.098000 0.118000
1553831546759918776	1300 54 1.200000 0.420000 0.506000 1400 47 1.000000 1.895000 2.031000 600 52 1.000000 0.054000 0.054000 1.200000 0.087000 0.105000
1553831547266725735	1300 54 1.200000 0.415000 0.500000 1400 47 1.000000 1.793000 1.922000 600 52 1.000000 0.054000 0.054000 1.200000 0.077000 0.093000
1553831547773970985	1300 55 1.200000 0.371000 0.447000 1400 47 1.000000 1.797000 1.926000 600 53 1.000000 0.054000 0.054000 1.200000 0.097000 0.117000
1553831548280692193	1300 55 1.200000 0.432000 0.521000 1400 47 1.000000 1.894000 2.030000 600 52 1.000000 0.053000 0.053000 1.200000 0.083000 0.100000
1553831548788160985	1300 55 1.200000 0.398000 0.480000 1400 47 1.000000 1.831000 1.962000 600 52 1.000000 0.054000 0.054000 1.200000 0.086000 0.104000
1553831549294533860	1300 55 1.200000 0.409000 0.494000 1400 47 1.000000 1.793000 1.922000 600 52 1.000000 0.054000 0.054000 1.200000 0.078000 0.094000
1553831549801142152	1300 54 1.200000 0.439000 0.529000 1400 47 1.000000 1.783000 1.911000 600 52 1.000000 0.054000 0.054000 1.200000 0.082000 0.099000
1553831550307447360	1300 54 1.200000 0.402000 0.485000 1400 47 1.000000 1.777000 1.904000 600 51 1.000000 0.054000 0.054000 1.200000 0.090000 0.108000
1553831550813746069	1300 53 1.200000 0.449000 0.541000 1400 47 1.000000 1.614000 1.728000 600 51 1.000000 0.054000 0.054000 1.200000 0.077000 0.093000
1553831551321392610	1300 52 1.200000 0.393000 0.474000 1400 47 1.000000 1.525000 1.633000 600 51 1.000000 0.054000 0.054000 1.200000 0.072000 0.087000
1553831551828275444	1300 54 1.200000 0.415000 0.500000 1400 47 1.000000 1.445000 1.547000 600 51 1.000000 0.054000 0.054000 1.200000 0.096000 0.116000
1553831552334842860	1300 51 1.200000 0.394000 0.475000 1400 46 1.000000 1.417000 1.516000 600 50 1.000000 0.053000 0.053000 1.200000 0.071000 0.085000
1553831552841251944	1300 49 1.200000 0.395000 0.477000 1400 45 1.000000 0.758000 0.811000 600 49 1.000000 0.054000 0.054000 1.200000 0.063000 0.076000
1553831553347714361	1300 47 1.200000 0.368000 0.444000 1400 45 1.000000 0.514000 0.551000 600 48 1.000000 0.053000 0.053000 1.200000 0.055000 0.066000
1553831553854104527	1300 48 1.200000 0.396000 0.478000 1400 44 1.000000 0.806000 0.863000 600 48 1.000000 0.053000 0.053000 1.200000 0.060000 0.072000
1553831554361325027	1300 52 1.200000 0.385000 0.465000 1400 45 1.000000 1.334000 1.428000 600 50 1.000000 0.053000 0.053000 1.200000 0.088000 0.106000
1553831554867936444	1300 52 1.200000 0.346000 0.417000 1400 46 1.000000 1.687000 1.808000 600 49 1.000000 0.053000 0.053000 1.200000 0.082000 0.099000
1553831555374588777	1300 53 1.200000 0.424000 0.512000 1400 46 1.000000 1.694000 1.814000 600 51 1.000000 0.053000 0.053000 1.200000 0.096000 0.116000
1553831555881156277	1300 53 1.200000 0.391000 0.472000 1400 46 1.000000 1.781000 1.909000 600 50 1.000000 0.053000 0.053000 1.200000 0.076000 0.091000
1553831556387631028	1300 54 1.200000 0.393000 0.474000 1400 46 1.000000 1.803000 1.932000 600 51 1.000000 0.053000 0.053000 1.200000 0.076000 0.092000
1553831556894261611	1300 54 1.200000 0.401000 0.484000 1400 47 1.000000 1.838000 1.970000 600 51 1.000000 0.053000 0.053000 1.200000 0.084000 0.101000
1553831557401803069	1300 53 1.200000 0.387000 0.467000 1400 46 1.000000 1.833000 1.964000 600 51 1.000000 0.054000 0.054000 1.200000 0.091000 0.110000
1553831557911442944	1300 54 1.200000 0.358000 0.432000 1400 47 1.000000 1.774000 1.901000 600 51 1.000000 0.053000 0.053000 1.200000 0.076000 0.091000
1553831558419137944	1300 53 1.200000 0.399000 0.481000 1400 46 1.000000 1.743000 1.866000 600 52 1.000000 0.054000 0.054000 1.200000 0.089000 0.107000
1553831558925799903	1300 54 1.200000 0.343000 0.415000 1400 47 1.000000 1.922000 2.060000 600 51 1.000000 0.053000 0.053000 1.200000 0.081000 0.098000
1553831559432363486	1300 54 1.200000 0.409000 0.494000 1400 47 1.000000 1.791000 1.918000 600 51 1.000000 0.054000 0.054000 1.200000 0.075000 0.090000
1553831559939687070	1300 54 1.200000 0.382000 0.461000 1400 46 1.000000 1.764000 1.889000 600 52 1.000000 0.054000 0.054000 1.200000 0.083000 0.100000
1553831560447308070	1300 54 1.200000 0.285000 0.345000 1400 47 1.000000 1.852000 1.985000 600 51 1.000000 0.053000 0.053000 1.200000 0.070000 0.084000
1553831560953495778	1300 54 1.200000 0.401000 0.484000 1400 47 1.000000 2.000000 2.144000 600 52 1.000000 0.053000 0.053000 1.200000 0.086000 0.104000
1553831561459481653	1300 54 1.200000 0.446000 0.538000 1400 47 1.000000 1.805000 1.933000 600 52 1.000000 0.053000 0.053000 1.200000 0.092000 0.111000
1553831561965386320	1300 54 1.200000 0.205000 0.249000 1400 47 1.000000 1.803000 1.931000 600 51 1.000000 0.054000 0.054000 1.200000 0.074000 0.089000
1553831562471403195	1300 54 1.200000 0.354000 0.428000 1400 47 1.000000 1.804000 1.933000 600 51 1.000000 0.054000 0.054000 1.200000 0.072000 0.086000
1553831562977342820	1300 54 1.200000 0.296000 0.358000 1400 47 1.000000 2.016000 2.161000 600 52 1.000000 0.053000 0.053000 1.200000 0.073000 0.088000
1553831563483350612	1300 54 1.200000 0.358000 0.433000 1400 47 1.000000 1.804000 1.933000 600 52 1.000000 0.054000 0.054000 1.200000 0.083000 0.100000
1553831563989324487	1300 54 1.200000 0.415000 0.500000 1400 47 1.000000 1.766000 1.891000 600 51 1.000000 0.054000 0.054000 1.200000 0.095000 0.115000
1553831564494943695	1300 54 1.200000 0.438000 0.528000 1400 47 1.000000 1.829000 1.960000 600 51 1.000000 0.054000 0.054000 1.200000 0.092000 0.111000
1553831565001320195	1300 54 1.200000 0.439000 0.529000 1400 47 1.000000 1.652000 1.769000 600 52 1.000000 0.053000 0.053000 1.200000 0.092000 0.111000
1553831565507220529	1300 55 1.200000 0.389000 0.469000 1400 47 1.000000 1.842000 1.974000 600 51 1.000000 0.054000 0.054000 1.200000 0.079000 0.095000
1553831566012985779	1300 52 1.200000 0.441000 0.532000 1400 47 1.000000 1.547000 1.655000 600 51 1.000000 0.054000 0.054000 1.200000 0.064000 0.077000
1553831566518480070	1300 49 1.200000 0.393000 0.474000 1400 45 1.000000 0.652000 0.698000 600 49 1.000000 0.054000 0.054000 1.200000 0.053000 0.064000
1553831567026440612	1300 50 1.200000 0.389000 0.469000 1400 45 1.000000 0.956000 1.023000 600 50 1.000000 0.053000 0.053000 1.200000 0.065000 0.078000
1553831567532675529	1300 53 1.200000 0.390000 0.471000 1400 46 1.000000 1.849000 1.982000 600 50 1.000000 0.053000 0.053000 1.200000 0.089000 0.107000
1553831568038387612	1300 53 1.200000 0.431000 0.520000 1400 46 1.000000 1.490000 1.595000 600 50 1.000000 0.053000 0.053000 1.200000 0.071000 0.085000
1553831568544425904	1300 53 1.200000 0.442000 0.533000 1400 46 1.000000 1.704000 1.824000 600 51 1.000000 0.053000 0.053000 1.200000 0.093000 0.112000
1553831569050075071	1300 53 1.200000 0.236000 0.286000 1400 46 1.000000 1.909000 2.046000 600 52 1.000000 0.053000 0.053000 1.200000 0.082000 0.099000
1553831569556045029	1300 54 1.200000 0.416000 0.502000 1400 47 1.000000 1.774000 1.901000 600 51 1.000000 0.053000 0.053000 1.200000 0.082000 0.099000
1553831570062104696	1300 54 1.200000 0.396000 0.477000 1400 47 1.000000 1.794000 1.923000 600 51 1.000000 0.053000 0.053000 1.200000 0.095000 0.115000
1553831570568026988	1300 52 1.200000 0.401000 0.485000 1400 47 1.000000 1.575000 1.686000 600 51 1.000000 0.054000 0.054000 1.200000 0.075000 0.090000
1553831571074035029	1300 51 1.200000 0.419000 0.505000 1400 46 1.000000 1.611000 1.725000 600 51 1.000000 0.053000 0.053000 1.200000 0.084000 0.101000
1553831571580460654	1300 51 1.200000 0.389000 0.469000 1400 46 1.000000 1.898000 2.034000 600 51 1.000000 0.054000 0.054000 1.200000 0.102000 0.123000
1553831572086647654	1300 49 1.200000 0.426000 0.514000 1400 46 1.000000 1.039000 1.111000 600 49 1.000000 0.053000 0.053000 1.200000 0.067000 0.080000
1553831572592870821	1300 47 1.200000 0.376000 0.454000 1400 45 1.000000 0.596000 0.639000 600 48 1.000000 0.053000 0.053000 1.200000 0.055000 0.066000
1553831573098970155	1300 48 1.200000 0.370000 0.446000 1400 44 1.000000 0.585000 0.627000 600 48 1.000000 0.053000 0.053000 1.200000 0.053000 0.064000
1553831573605465405	1300 48 1.200000 0.377000 0.455000 1400 44 1.000000 0.944000 1.011000 600 48 1.000000 0.053000 0.053000 1.200000 0.064000 0.077000
1553831574112468280	1300 51 1.200000 0.399000 0.481000 1400 45 1.000000 1.762000 1.888000 600 49 1.000000 0.053000 0.053000 1.200000 0.079000 0.095000
1553831574618841238	1300 50 1.200000 0.372000 0.449000 1400 45 1.000000 1.388000 1.485000 600 49 1.000000 0.053000 0.053000 1.200000 0.076000 0.092000
1553831575124899280	1300 52 1.200000 0.441000 0.532000 1400 45 1.000000 1.846000 1.978000 600 50 1.000000 0.053000 0.053000 1.200000 0.086000 0.104000
1553831575630884071	1300 53 1.200000 0.234000 0.284000 1400 46 1.000000 1.844000 1.978000 600 50 1.000000 0.053000 0.053000 1.200000 0.090000 0.108000
1553831576137107697	1300 53 1.200000 0.383000 0.462000 1400 46 1.000000 1.844000 1.976000 600 50 1.000000 0.053000 0.053000 1.200000 0.072000 0.087000
1553831576642923780	1300 54 1.200000 0.417000 0.503000 1400 46 1.000000 1.775000 1.902000 600 50 1.000000 0.053000 0.053000 1.200000 0.074000 0.089000
1553831577148830238	1300 53 1.200000 0.391000 0.471000 1400 46 1.000000 1.785000 1.911000 600 51 1.000000 0.053000 0.053000 1.200000 0.091000 0.110000
1553831577654837238	1300 53 1.200000 0.439000 0.529000 1400 46 1.000000 1.821000 1.952000 600 51 1.000000 0.053000 0.053000 1.200000 0.076000 0.091000
1553831578160613322	1300 53 1.200000 0.440000 0.531000 1400 46 1.000000 1.805000 1.934000 600 51 1.000000 0.053000 0.053000 1.200000 0.093000 0.112000
1553831578666127780	1300 49 1.200000 0.427000 0.515000 1400 46 1.000000 1.283000 1.372000 600 49 1.000000 0.053000 0.053000 1.200000 0.068000 0.082000
1553831579171844655	1300 47 1.200000 0.383000 0.462000 1400 45 1.000000 0.708000 0.758000 600 49 1.000000 0.053000 0.053000 1.200000 0.064000 0.077000
1553831579677543447	1300 47 1.200000 0.376000 0.454000 1400 44 1.000000 0.684000 0.733000 600 48 1.000000 0.053000 0.053000 1.200000 0.056000 0.067000
1553831580183228155	1300 48 1.200000 0.371000 0.448000 1400 44 1.000000 0.678000 0.726000 600 47 1.000000 0.053000 0.053000 1.200000 0.056000 0.067000
1553831580690717447	1300 51 1.200000 0.391000 0.472000 1400 45 1.000000 0.839000 0.899000 600 49 1.000000 0.053000 0.053000 1.200000 0.071000 0.085000
1553831581197217780	1300 50 1.200000 0.411000 0.496000 1400 45 1.000000 1.812000 1.942000 600 50 1.000000 0.053000 0.053000 1.200000 0.093000 0.112000
1553831581704207239	1300 52 1.200000 0.429000 0.517000 1400 45 1.000000 1.267000 1.355000 600 51 1.000000 0.053000 0.053000 1.200000 0.076000 0.091000
1553831582210746364	1300 53 1.200000 0.336000 0.405000 1400 45 1.000000 1.850000 1.983000 600 50 1.000000 0.053000 0.053000 1.200000 0.084000 0.101000
1553831582717673072	1300 53 1.200000 0.352000 0.425000 1400 46 1.000000 1.783000 1.911000 600 50 1.000000 0.053000 0.053000 1.200000 0.074000 0.089000
1553831583225060489	1300 52 1.200000 0.411000 0.496000 1400 46 1.000000 1.782000 1.910000 600 51 1.000000 0.053000 0.053000 1.200000 0.077000 0.093000
1553831583732627364	1300 54 1.200000 0.399000 0.481000 1400 46 1.000000 1.741000 1.866000 600 51 1.000000 0.053000 0.053000 1.200000 0.091000 0.110000
1553831584239499823	1300 54 1.200000 0.444000 0.535000 1400 46 1.000000 1.958000 2.098000 600 51 1.000000 0.053000 0.053000 1.200000 0.087000 0.105000
1553831584746105323	1300 53 1.200000 0.357000 0.431000 1400 46 1.000000 1.781000 1.909000 600 51 1.000000 0.053000 0.053000 1.200000 0.097000 0.117000
1553831585253264031	1300 54 1.200000 0.382000 0.461000 1400 46 1.000000 1.802000 1.931000 600 51 1.000000 0.053000 0.053000 1.200000 0.074000 0.089000
1553831585759889989	1300 54 1.200000 0.378000 0.456000 1400 47 1.000000 1.857000 1.990000 600 51 1.000000 0.053000 0.053000 1.200000 0.074000 0.089000
1553831586266418989	1300 54 1.200000 0.419000 0.506000 1400 47 1.000000 1.939000 2.078000 600 52 1.000000 0.054000 0.054000 1.200000 0.084000 0.101000
1553831586773333781	1300 54 1.200000 0.315000 0.381000 1400 47 1.000000 1.858000 1.991000 600 51 1.000000 0.054000 0.054000 1.200000 0.083000 0.100000
1553831587280219365	1300 54 1.200000 0.409000 0.493000 1400 47 1.000000 1.818000 1.948000 600 51 1.000000 0.054000 0.054000 1.200000 0.087000 0.105000
1553831587786949823	1300 54 1.200000 0.319000 0.386000 1400 47 1.000000 1.927000 2.065000 600 51 1.000000 0.053000 0.053000 1.200000 0.092000 0.111000
1553831588293495198	1300 54 1.200000 0.389000 0.469000 1400 47 1.000000 1.930000 2.070000 600 52 1.000000 0.054000 0.054000 1.200000 0.079000 0.095000
1553831588800228531	1300 54 1.200000 0.404000 0.488000 1400 47 1.000000 1.802000 1.931000 600 51 1.000000 0.054000 0.054000 1.200000 0.075000 0.090000
1553831589307353281	1300 55 1.200000 0.396000 0.478000 1400 47 1.000000 1.794000 1.923000 600 52 1.000000 0.054000 0.054000 1.200000 0.078000 0.094000
1553831589816200615	1300 54 1.200000 0.409000 0.494000 1400 47 1.000000 1.928000 2.068000 600 51 1.000000 0.054000 0.054000 1.200000 0.103000 0.124000
1553831590323235782	1300 54 1.200000 0.427000 0.515000 1400 47 1.000000 1.560000 1.670000 600 52 1.000000 0.054000 0.054000 1.200000 0.087000 0.105000
1553831590829571115	1300 54 1.200000 0.388000 0.468000 1400 47 1.000000 1.819000 1.949000 600 51 1.000000 0.054000 0.054000 1.200000 0.089000 0.107000
1553831591335996657	1300 53 1.200000 0.427000 0.515000 1400 47 1.000000 1.622000 1.737000 600 51 1.000000 0.053000 0.053000 1.200000 0.074000 0.089000
1553831591842141823	1300 51 1.200000 0.416000 0.503000 1400 46 1.000000 1.413000 1.511000 600 50 1.000000 0.053000 0.053000 1.200000 0.068000 0.082000
1553831592349199865	1300 53 1.200000 0.437000 0.527000 1400 46 1.000000 1.204000 1.289000 600 52 1.000000 0.053000 0.053000 1.200000 0.084000 0.101000
1553831592855876490	1300 51 1.200000 0.449000 0.541000 1400 46 1.000000 1.489000 1.593000 600 51 1.000000 0.054000 0.054000 1.200000 0.077000 0.093000
1553831593362445782	1300 51 1.200000 0.396000 0.478000 1400 46 1.000000 1.453000 1.554000 600 51 1.000000 0.053000 0.053000 1.200000 0.068000 0.082000
1553831593869243490	1300 54 1.200000 0.416000 0.502000 1400 46 1.000000 1.687000 1.806000 600 51 1.000000 0.053000 0.053000 1.200000 0.085000 0.102000
1553831594379605115	1300 54 1.200000 0.271000 0.328000 1400 46 1.000000 1.799000 1.928000 600 51 1.000000 0.053000 0.053000 1.200000 0.080000 0.096000
1553831594886721199	1300 54 1.200000 0.439000 0.529000 1400 47 1.000000 1.863000 1.997000 600 52 1.000000 0.054000 0.054000 1.200000 0.097000 0.117000
1553831595393222574	1300 54 1.200000 0.438000 0.528000 1400 47 1.000000 1.810000 1.940000 600 51 1.000000 0.054000 0.054000 1.200000 0.092000 0.111000
1553831595899639241	1300 50 1.200000 0.394000 0.475000 1400 46 1.000000 1.639000 1.755000 600 51 1.000000 0.053000 0.053000 1.200000 0.076000 0.091000
1553831596406333199	1300 53 1.200000 0.371000 0.448000 1400 46 1.000000 1.375000 1.471000 600 51 1.000000 0.053000 0.053000 1.200000 0.065000 0.078000
1553831596913275032	1300 54 1.200000 0.403000 0.486000 1400 47 1.000000 1.700000 1.820000 600 51 1.000000 0.054000 0.054000 1.200000 0.091000 0.110000
1553831597419705032	1300 52 1.200000 0.396000 0.478000 1400 46 1.000000 1.456000 1.557000 600 51 1.000000 0.053000 0.053000 1.200000 0.071000 0.085000
1553831597926222491	1300 52 1.200000 0.396000 0.478000 1400 46 1.000000 1.519000 1.626000 600 51 1.000000 0.053000 0.053000 1.200000 0.070000 0.084000
1553831598432847616	1300 53 1.200000 0.422000 0.509000 1400 46 1.000000 1.250000 1.337000 600 51 1.000000 0.053000 0.053000 1.200000 0.079000 0.095000
1553831598939075158	1300 53 1.200000 0.415000 0.500000 1400 46 1.000000 1.909000 2.046000 600 51 1.000000 0.054000 0.054000 1.200000 0.116000 0.140000
1553831599444725783	1300 51 1.200000 0.412000 0.497000 1400 46 1.000000 1.807000 1.935000 600 50 1.000000 0.053000 0.053000 1.200000 0.093000 0.112000
1553831599950200158	1300 49 1.200000 0.451000 0.544000 1400 45 1.000000 0.978000 1.047000 600 49 1.000000 0.054000 0.054000 1.200000 0.070000 0.084000
1553831600455595824	1300 47 1.200000 0.315000 0.382000 1400 44 1.000000 0.617000 0.660000 600 48 1.000000 0.053000 0.053000 1.200000 0.054000 0.065000
1553831600961000741	1300 46 1.200000 0.371000 0.448000 1400 44 1.000000 0.723000 0.774000 600 48 1.000000 0.053000 0.053000 1.200000 0.065000 0.078000
1553831601466837325	1300 46 1.200000 0.381000 0.460000 1400 43 1.000000 0.670000 0.718000 600 47 1.000000 0.053000 0.053000 1.200000 0.057000 0.068000
1553831601973542533	1300 46 1.200000 0.357000 0.431000 1400 43 1.000000 0.548000 0.587000 600 47 1.000000 0.053000 0.053000 1.200000 0.055000 0.066000
1553831602479742783	1300 48 1.200000 0.386000 0.466000 1400 43 1.000000 0.702000 0.751000 600 47 1.000000 0.053000 0.053000 1.200000 0.060000 0.072000
1553831602987250741	1300 51 1.200000 0.417000 0.503000 1400 44 1.000000 1.814000 1.944000 600 49 1.000000 0.053000 0.053000 1.200000 0.093000 0.112000
1553831603493397366	1300 52 1.200000 0.428000 0.516000 1400 45 1.000000 1.739000 1.862000 600 49 1.000000 0.053000 0.053000 1.200000 0.082000 0.099000
1553831603999321700	1300 52 1.200000 0.434000 0.523000 1400 45 1.000000 1.876000 2.011000 600 50 1.000000 0.053000 0.053000 1.200000 0.092000 0.111000
1553831604505261533	1300 53 1.200000 0.247000 0.300000 1400 45 1.000000 1.771000 1.898000 600 50 1.000000 0.053000 0.053000 1.200000 0.068000 0.082000
1553831605011386033	1300 53 1.200000 0.405000 0.489000 1400 46 1.000000 1.778000 1.906000 600 50 1.000000 0.053000 0.053000 1.200000 0.078000 0.094000
1553831605517404450	1300 52 1.200000 0.442000 0.533000 1400 46 1.000000 1.876000 2.011000 600 51 1.000000 0.053000 0.053000 1.200000 0.098000 0.118000
1553831606023276992	1300 53 1.200000 0.325000 0.393000 1400 46 1.000000 1.847000 1.979000 600 51 1.000000 0.053000 0.053000 1.200000 0.073000 0.088000
1553831606529151617	1300 53 1.200000 0.411000 0.496000 1400 46 1.000000 1.752000 1.878000 600 51 1.000000 0.053000 0.053000 1.200000 0.085000 0.102000
1553831607035226117	1300 53 1.200000 0.205000 0.249000 1400 46 1.000000 1.842000 1.974000 600 51 1.000000 0.053000 0.053000 1.200000 0.078000 0.094000
1553831607540998700	1300 54 1.200000 0.407000 0.491000 1400 46 1.000000 1.797000 1.926000 600 51 1.000000 0.053000 0.053000 1.200000 0.076000 0.091000
1553831608047146534	1300 54 1.200000 0.421000 0.508000 1400 46 1.000000 1.805000 1.934000 600 51 1.000000 0.053000 0.053000 1.200000 0.081000 0.098000
1553831608553715284	1300 54 1.200000 0.312000 0.377000 1400 46 1.000000 1.849000 1.983000 600 51 1.000000 0.054000 0.054000 1.200000 0.089000 0.107000
1553831609060316784	1300 54 1.200000 0.413000 0.498000 1400 47 1.000000 1.776000 1.903000 600 51 1.000000 0.054000 0.054000 1.200000 0.074000 0.089000
1553831609567114867	1300 54 1.200000 0.417000 0.503000 1400 47 1.000000 1.874000 2.008000 600 51 1.000000 0.053000 0.053000 1.200000 0.096000 0.116000
1553831610073640576	1300 54 1.200000 0.176000 0.214000 1400 46 1.000000 1.929000 2.069000 600 51 1.000000 0.053000 0.053000 1.200000 0.084000 0.101000
1553831610580200951	1300 54 1.200000 0.422000 0.509000 1400 47 1.000000 1.779000 1.907000 600 51 1.000000 0.053000 0.053000 1.200000 0.077000 0.093000
1553831611086837284	1300 54 1.200000 0.407000 0.491000 1400 47 1.000000 1.653000 1.770000 600 51 1.000000 0.054000 0.054000 1.200000 0.089000 0.107000
1553831611592802242	1300 54 1.200000 0.351000 0.424000 1400 47 1.000000 1.916000 2.053000 600 52 1.000000 0.054000 0.054000 1.200000 0.090000 0.108000
1553831612100231534	1300 54 1.200000 0.444000 0.535000 1400 47 1.000000 1.874000 2.008000 600 52 1.000000 0.053000 0.053000 1.200000 0.094000 0.113000
1553831612606718243	1300 54 1.200000 0.361000 0.436000 1400 47 1.000000 1.838000 1.970000 600 52 1.000000 0.054000 0.054000 1.200000 0.087000 0.105000
1553831613113742409	1300 54 1.200000 0.399000 0.481000 1400 47 1.000000 1.784000 1.912000 600 51 1.000000 0.054000 0.054000 1.200000 0.076000 0.091000
1553831613621524493	1300 54 1.200000 0.383000 0.462000 1400 47 1.000000 1.791000 1.919000 600 52 1.000000 0.054000 0.054000 1.200000 0.073000 0.088000
1553831614130604534	1300 55 1.200000 0.387000 0.467000 1400 47 1.000000 1.891000 2.027000 600 52 1.000000 0.054000 0.054000 1.200000 0.084000 0.101000
1553831614638283618	1300 54 1.200000 0.406000 0.490000 1400 47 1.000000 1.928000 2.066000 600 51 1.000000 0.054000 0.054000 1.200000 0.102000 0.123000
1553831615145955451	1300 55 1.200000 0.447000 0.539000 1400 47 1.000000 1.374000 1.470000 600 51 1.000000 0.054000 0.054000 1.200000 0.093000 0.112000
1553831615653171326	1300 55 1.200000 0.442000 0.533000 1400 47 1.000000 1.801000 1.930000 600 52 1.000000 0.054000 0.054000 1.200000 0.083000 0.100000
1553831616159634701	1300 54 1.200000 0.401000 0.484000 1400 47 1.000000 1.896000 2.032000 600 52 1.000000 0.054000 0.054000 1.200000 0.087000 0.105000
1553831616666055618	1300 54 1.200000 0.404000 0.488000 1400 47 1.000000 1.784000 1.912000 600 51 1.000000 0.054000 0.054000 1.200000 0.065000 0.078000
1553831617172731576	1300 54 1.200000 0.396000 0.478000 1400 47 1.000000 1.775000 1.902000 600 52 1.000000 0.053000 0.053000 1.200000 0.091000 0.110000
1553831617679496618	1300 54 1.200000 0.322000 0.389000 1400 47 1.000000 1.792000 1.921000 600 52 1.000000 0.054000 0.054000 1.200000 0.078000 0.094000
1553831618186051660	1300 55 1.200000 0.403000 0.486000 1400 47 1.000000 1.957000 2.097000 600 52 1.000000 0.054000 0.054000 1.200000 0.099000 0.119000
1553831618692461577	1300 55 1.200000 0.379000 0.457000 1400 47 1.000000 1.787000 1.915000 600 52 1.000000 0.054000 0.054000 1.200000 0.072000 0.087000
1553831619198905743	1300 55 1.200000 0.370000 0.446000 1400 47 1.000000 1.796000 1.925000 600 52 1.000000 0.054000 0.054000 1.200000 0.072000 0.087000
1553831619706309577	1300 54 1.200000 0.418000 0.504000 1400 47 1.000000 1.727000 1.851000 600 52 1.000000 0.053000 0.053000 1.200000 0.079000 0.095000
1553831620212775952	1300 55 1.200000 0.405000 0.489000 1400 47 1.000000 1.944000 2.085000 600 52 1.000000 0.054000 0.054000 1.200000 0.089000 0.107000
1553831620719727369	1300 54 1.200000 0.444000 0.535000 1400 47 1.000000 1.618000 1.732000 600 52 1.000000 0.054000 0.054000 1.200000 0.093000 0.112000
1553831621226172077	1300 54 1.200000 0.434000 0.523000 1400 47 1.000000 1.832000 1.963000 600 51 1.000000 0.053000 0.053000 1.200000 0.091000 0.110000
1553831621732765577	1300 54 1.200000 0.444000 0.535000 1400 47 1.000000 1.382000 1.478000 600 51 1.000000 0.053000 0.053000 1.200000 0.080000 0.096000
1553831622239237327	1300 54 1.200000 0.444000 0.535000 1400 47 1.000000 1.793000 1.922000 600 52 1.000000 0.054000 0.054000 1.200000 0.079000 0.095000
1553831622746664452	1300 54 1.200000 0.390000 0.471000 1400 47 1.000000 1.867000 2.001000 600 52 1.000000 0.053000 0.053000 1.200000 0.092000 0.111000
1553831623254111786	1300 55 1.200000 0.392000 0.473000 1400 47 1.000000 1.858000 1.991000 600 52 1.000000 0.054000 0.054000 1.200000 0.082000 0.099000
1553831623760756702	1300 54 1.200000 0.443000 0.534000 1400 47 1.000000 1.764000 1.891000 600 51 1.000000 0.054000 0.054000 1.200000 0.085000 0.102000
1553831624267732036	1300 54 1.200000 0.432000 0.521000 1400 47 1.000000 1.893000 2.029000 600 53 1.000000 0.054000 0.054000 1.200000 0.092000 0.111000
1553831624773836327	1300 55 1.200000 0.390000 0.471000 1400 47 1.000000 1.857000 1.990000 600 52 1.000000 0.054000 0.054000 1.200000 0.076000 0.091000
1553831625280245702	1300 55 1.200000 0.411000 0.496000 1400 47 1.000000 1.727000 1.849000 600 52 1.000000 0.054000 0.054000 1.200000 0.081000 0.098000
1553831625786282786	1300 54 1.200000 0.419000 0.505000 1400 47 1.000000 1.825000 1.956000 600 52 1.000000 0.054000 0.054000 1.200000 0.093000 0.112000
1553831626293243911	1300 55 1.200000 0.447000 0.539000 1400 48 1.000000 1.785000 1.911000 600 52 1.000000 0.054000 0.054000 1.200000 0.089000 0.107000
1553831626799249661	1300 55 1.200000 0.443000 0.534000 1400 48 1.000000 1.993000 2.138000 600 52 1.000000 0.053000 0.053000 1.200000 0.100000 0.121000
1553831627305058911	1300 54 1.200000 0.418000 0.504000 1400 47 1.000000 1.672000 1.792000 600 51 1.000000 0.053000 0.053000 1.200000 0.074000 0.089000
1553831627813088994	1300 53 1.200000 0.427000 0.515000 1400 47 1.000000 1.420000 1.520000 600 52 1.000000 0.053000 0.053000 1.200000 0.075000 0.090000
1553831628318945953	1300 54 1.200000 0.426000 0.514000 1400 47 1.000000 1.772000 1.899000 600 52 1.000000 0.054000 0.054000 1.200000 0.092000 0.111000
1553831628825821036	1300 50 1.200000 0.436000 0.526000 1400 46 1.000000 1.570000 1.681000 600 51 1.000000 0.054000 0.054000 1.200000 0.080000 0.096000
1553831629331886328	1300 50 1.200000 0.410000 0.494000 1400 46 1.000000 1.352000 1.446000 600 50 1.000000 0.054000 0.054000 1.200000 0.065000 0.078000
1553831629837745036	1300 52 1.200000 0.443000 0.534000 1400 46 1.000000 0.950000 1.017000 600 50 1.000000 0.054000 0.054000 1.200000 0.065000 0.078000
1553831630343894828	1300 50 1.200000 0.373000 0.450000 1400 46 1.000000 1.842000 1.974000 600 51 1.000000 0.053000 0.053000 1.200000 0.089000 0.107000
1553831630849792995	1300 52 1.200000 0.416000 0.502000 1400 46 1.000000 1.431000 1.531000 600 51 1.000000 0.053000 0.053000 1.200000 0.081000 0.098000
1553831631355886870	1300 54 1.200000 0.345000 0.416000 1400 46 1.000000 1.798000 1.927000 600 51 1.000000 0.053000 0.053000 1.200000 0.082000 0.099000
1553831631861774328	1300 54 1.200000 0.332000 0.401000 1400 46 1.000000 1.768000 1.893000 600 51 1.000000 0.054000 0.054000 1.200000 0.072000 0.087000
1553831632367914662	1300 54 1.200000 0.405000 0.489000 1400 47 1.000000 1.773000 1.900000 600 52 1.000000 0.054000 0.054000 1.200000 0.072000 0.087000
1553831632873969620	1300 54 1.200000 0.392000 0.473000 1400 47 1.000000 1.901000 2.037000 600 52 1.000000 0.053000 0.053000 1.200000 0.096000 0.116000
1553831633380110245	1300 54 1.200000 0.412000 0.497000 1400 47 1.000000 1.836000 1.968000 600 51 1.000000 0.053000 0.053000 1.200000 0.099000 0.119000
1553831633886795537	1300 54 1.200000 0.437000 0.527000 1400 47 1.000000 1.720000 1.842000 600 51 1.000000 0.054000 0.054000 1.200000 0.089000 0.107000
1553831634392922870	1300 50 1.200000 0.412000 0.497000 1400 46 1.000000 1.801000 1.930000 600 51 1.000000 0.054000 0.054000 1.200000 0.093000 0.112000
1553831634898751204	1300 48 1.200000 0.371000 0.449000 1400 45 1.000000 0.879000 0.940000 600 50 1.000000 0.053000 0.053000 1.200000 0.065000 0.078000
1553831635404847329	1300 47 1.200000 0.371000 0.448000 1400 45 1.000000 0.671000 0.719000 600 48 1.000000 0.053000 0.053000 1.200000 0.055000 0.066000
1553831635911206412	1300 46 1.200000 0.374000 0.451000 1400 44 1.000000 0.555000 0.595000 600 47 1.000000 0.053000 0.053000 1.200000 0.054000 0.065000
1553831636417713120	1300 46 1.200000 0.368000 0.444000 1400 44 1.000000 0.548000 0.588000 600 48 1.000000 0.053000 0.053000 1.200000 0.054000 0.065000
1553831636925244537	1300 49 1.200000 0.394000 0.475000 1400 44 1.000000 0.654000 0.701000 600 49 1.000000 0.053000 0.053000 1.200000 0.064000 0.077000
1553831637432032579	1300 52 1.200000 0.416000 0.502000 1400 45 1.000000 1.893000 2.029000 600 49 1.000000 0.053000 0.053000 1.200000 0.098000 0.118000
1553831637938050871	1300 52 1.200000 0.448000 0.540000 1400 45 1.000000 1.715000 1.838000 600 50 1.000000 0.053000 0.053000 1.200000 0.078000 0.094000
1553831638444980246	1300 53 1.200000 0.405000 0.488000 1400 46 1.000000 1.845000 1.977000 600 51 1.000000 0.053000 0.053000 1.200000 0.096000 0.116000
1553831638952457662	1300 53 1.200000 0.303000 0.367000 1400 46 1.000000 1.770000 1.897000 600 50 1.000000 0.053000 0.053000 1.200000 0.071000 0.085000
1553831639458624537	1300 53 1.200000 0.415000 0.500000 1400 46 1.000000 1.911000 2.048000 600 51 1.000000 0.053000 0.053000 1.200000 0.083000 0.100000
1553831639965634037	1300 54 1.200000 0.321000 0.388000 1400 46 1.000000 1.872000 2.006000 600 51 1.000000 0.054000 0.054000 1.200000 0.099000 0.119000
1553831640472023579	1300 54 1.200000 0.422000 0.509000 1400 46 1.000000 1.777000 1.904000 600 51 1.000000 0.053000 0.053000 1.200000 0.077000 0.093000
1553831640977988288	1300 54 1.200000 0.418000 0.504000 1400 47 1.000000 1.855000 1.988000 600 51 1.000000 0.053000 0.053000 1.200000 0.078000 0.094000
1553831641484638579	1300 54 1.200000 0.406000 0.490000 1400 47 1.000000 1.927000 2.065000 600 51 1.000000 0.054000 0.054000 1.200000 0.100000 0.121000
1553831641991135163	1300 54 1.200000 0.448000 0.540000 1400 47 1.000000 1.647000 1.765000 600 51 1.000000 0.054000 0.054000 1.200000 0.078000 0.094000
1553831642497682871	1300 51 1.200000 0.442000 0.533000 1400 46 1.000000 1.439000 1.539000 600 50 1.000000 0.053000 0.053000 1.200000 0.084000 0.101000
1553831643004179163	1300 48 1.200000 0.405000 0.488000 1400 45 1.000000 0.889000 0.952000 600 49 1.000000 0.053000 0.053000 1.200000 0.064000 0.077000
1553831643510227246	1300 46 1.200000 0.361000 0.436000 1400 45 1.000000 0.833000 0.892000 600 49 1.000000 0.054000 0.054000 1.200000 0.060000 0.072000
1553831644016354163	1300 45 1.200000 0.375000 0.453000 1400 44 1.000000 0.604000 0.647000 600 47 1.000000 0.053000 0.053000 1.200000 0.054000 0.065000
1553831644522704080	1300 46 1.200000 0.365000 0.440000 1400 43 1.000000 0.487000 0.522000 600 47 1.000000 0.053000 0.053000 1.200000 0.051000 0.061000
1553831645029020538	1300 46 1.200000 0.371000 0.448000 1400 43 1.000000 0.653000 0.700000 600 47 1.000000 0.053000 0.053000 1.200000 0.055000 0.066000
1553831645535675455	1300 50 1.200000 0.401000 0.484000 1400 44 1.000000 1.448000 1.552000 600 49 1.000000 0.053000 0.053000 1.200000 0.096000 0.116000
1553831646042123622	1300 52 1.200000 0.416000 0.502000 1400 45 1.000000 1.896000 2.032000 600 49 1.000000 0.053000 0.053000 1.200000 0.098000 0.118000
1553831646548121038	1300 52 1.200000 0.417000 0.503000 1400 45 1.000000 1.574000 1.685000 600 49 1.000000 0.053000 0.053000 1.200000 0.076000 0.091000
1553831647054029663	1300 53 1.200000 0.440000 0.531000 1400 45 1.000000 1.894000 2.030000 600 50 1.000000 0.053000 0.053000 1.200000 0.091000 0.110000
1553831647560645205	1300 53 1.200000 0.382000 0.461000 1400 46 1.000000 1.777000 1.904000 600 50 1.000000 0.053000 0.053000 1.200000 0.071000 0.085000
1553831648066665455	1300 53 1.200000 0.409000 0.494000 1400 46 1.000000 1.797000 1.926000 600 50 1.000000 0.054000 0.054000 1.200000 0.077000 0.093000
1553831648572644747	1300 53 1.200000 0.400000 0.483000 1400 46 1.000000 1.810000 1.940000 600 50 1.000000 0.053000 0.053000 1.200000 0.098000 0.118000
1553831649079554164	1300 53 1.200000 0.396000 0.478000 1400 46 1.000000 1.806000 1.936000 600 51 1.000000 0.053000 0.053000 1.200000 0.080000 0.096000
1553831649585974955	1300 54 1.200000 0.437000 0.527000 1400 47 1.000000 1.805000 1.933000 600 51 1.000000 0.054000 0.054000 1.200000 0.105000 0.127000
1553831650092574872	1300 54 1.200000 0.434000 0.524000 1400 47 1.000000 1.921000 2.059000 600 51 1.000000 0.053000 0.053000 1.200000 0.082000 0.099000
1553831650599227955	1300 54 1.200000 0.402000 0.485000 1400 47 1.000000 1.784000 1.912000 600 51 1.000000 0.054000 0.054000 1.200000 0.075000 0.090000
1553831651106544664	1300 54 1.200000 0.414000 0.499000 1400 47 1.000000 1.870000 2.004000 600 51 1.000000 0.054000 0.054000 1.200000 0.097000 0.117000
1553831651613384664	1300 53 1.200000 0.211000 0.256000 1400 46 1.000000 1.841000 1.973000 600 51 1.000000 0.054000 0.054000 1.200000 0.066000 0.079000
1553831652120609039	1300 54 1.200000 0.330000 0.399000 1400 47 1.000000 1.772000 1.899000 600 52 1.000000 0.053000 0.053000 1.200000 0.090000 0.108000
1553831652628386831	1300 54 1.200000 0.445000 0.537000 1400 47 1.000000 1.798000 1.927000 600 51 1.000000 0.054000 0.054000 1.200000 0.108000 0.130000
1553831653135134247	1300 54 1.200000 0.402000 0.485000 1400 47 1.000000 1.830000 1.961000 600 51 1.000000 0.053000 0.053000 1.200000 0.101000 0.122000
1553831653644362831	1300 54 1.200000 0.409000 0.494000 1400 47 1.000000 1.781000 1.909000 600 51 1.000000 0.053000 0.053000 1.200000 0.072000 0.087000
1553831654152724539	1300 53 1.200000 0.402000 0.485000 1400 46 1.000000 1.753000 1.879000 600 52 1.000000 0.053000 0.053000 1.200000 0.086000 0.104000
1553831654659486039	1300 54 1.200000 0.199000 0.241000 1400 46 1.000000 1.908000 2.045000 600 51 1.000000 0.054000 0.054000 1.200000 0.078000 0.094000
1553831655166321914	1300 54 1.200000 0.411000 0.496000 1400 47 1.000000 1.782000 1.910000 600 52 1.000000 0.053000 0.053000 1.200000 0.079000 0.095000
1553831655672892664	1300 54 1.200000 0.411000 0.496000 1400 47 1.000000 1.856000 1.989000 600 51 1.000000 0.053000 0.053000 1.200000 0.102000 0.123000
1553831656178952081	1300 54 1.200000 0.407000 0.491000 1400 47 1.000000 1.787000 1.915000 600 53 1.000000 0.053000 0.053000 1.200000 0.077000 0.093000
1553831656685483331	1300 54 1.200000 0.407000 0.491000 1400 47 1.000000 1.839000 1.971000 600 51 1.000000 0.053000 0.053000 1.200000 0.078000 0.094000
1553831657193345706	1300 54 1.200000 0.411000 0.496000 1400 47 1.000000 1.738000 1.863000 600 52 1.000000 0.054000 0.054000 1.200000 0.085000 0.102000
1553831657700094581	1300 54 1.200000 0.400000 0.482000 1400 47 1.000000 1.851000 1.984000 600 52 1.000000 0.054000 0.054000 1.200000 0.093000 0.112000
1553831658207077165	1300 53 1.200000 0.446000 0.538000 1400 47 1.000000 1.403000 1.501000 600 52 1.000000 0.054000 0.054000 1.200000 0.078000 0.094000
1553831658714790290	1300 54 1.200000 0.439000 0.529000 1400 47 1.000000 1.632000 1.747000 600 51 1.000000 0.053000 0.053000 1.200000 0.090000 0.108000
1553831659221696123	1300 54 1.200000 0.381000 0.460000 1400 47 1.000000 1.824000 1.955000 600 52 1.000000 0.053000 0.053000 1.200000 0.088000 0.106000
1553831659728359373	1300 54 1.200000 0.358000 0.432000 1400 47 1.000000 1.818000 1.948000 600 51 1.000000 0.053000 0.053000 1.200000 0.074000 0.089000
1553831660235093498	1300 54 1.200000 0.305000 0.369000 1400 47 1.000000 1.811000 1.941000 600 51 1.000000 0.053000 0.053000 1.200000 0.071000 0.085000
1553831660741855748	1300 55 1.200000 0.348000 0.421000 1400 47 1.000000 1.904000 2.041000 600 52 1.000000 0.053000 0.053000 1.200000 0.076000 0.091000
1553831661248288790	1300 52 1.200000 0.429000 0.517000 1400 47 1.000000 1.625000 1.740000 600 51 1.000000 0.054000 0.054000 1.200000 0.102000 0.123000
1553831661754588707	1300 49 1.200000 0.446000 0.538000 1400 46 1.000000 1.194000 1.277000 600 50 1.000000 0.054000 0.054000 1.200000 0.080000 0.096000
1553831662262600082	1300 49 1.200000 0.456000 0.550000 1400 46 1.000000 0.914000 0.978000 600 50 1.000000 0.053000 0.053000 1.200000 0.069000 0.083000
1553831662769486207	1300 51 1.200000 0.441000 0.532000 1400 46 1.000000 1.102000 1.180000 600 49 1.000000 0.054000 0.054000 1.200000 0.071000 0.085000
1553831663275924207	1300 49 1.200000 0.462000 0.557000 1400 45 1.000000 1.248000 1.336000 600 49 1.000000 0.053000 0.053000 1.200000 0.066000 0.079000
1553831663782123957	1300 48 1.200000 0.417000 0.503000 1400 45 1.000000 0.988000 1.058000 600 48 1.000000 0.053000 0.053000 1.200000 0.056000 0.067000
1553831664288629707	1300 51 1.200000 0.436000 0.526000 1400 45 1.000000 0.763000 0.817000 600 48 1.000000 0.053000 0.053000 1.200000 0.060000 0.072000
1553831664796524457	1300 50 1.200000 0.430000 0.519000 1400 45 1.000000 0.899000 0.962000 600 49 1.000000 0.053000 0.053000 1.200000 0.066000 0.079000
1553831665302731749	1300 52 1.200000 0.453000 0.546000 1400 45 1.000000 1.519000 1.626000 600 50 1.000000 0.053000 0.053000 1.200000 0.099000 0.119000
1553831665808775666	1300 49 1.200000 0.432000 0.521000 1400 45 1.000000 1.781000 1.909000 600 49 1.000000 0.054000 0.054000 1.200000 0.076000 0.092000
1553831666314771374	1300 53 1.200000 0.442000 0.533000 1400 46 1.000000 1.221000 1.306000 600 50 1.000000 0.053000 0.053000 1.200000 0.073000 0.088000
1553831666820476749	1300 53 1.200000 0.349000 0.422000 1400 46 1.000000 1.825000 1.956000 600 51 1.000000 0.053000 0.053000 1.200000 0.101000 0.122000
1553831667326448082	1300 53 1.200000 0.424000 0.511000 1400 46 1.000000 1.842000 1.974000 600 51 1.000000 0.053000 0.053000 1.200000 0.081000 0.098000
1553831667832590041	1300 53 1.200000 0.417000 0.503000 1400 46 1.000000 1.809000 1.937000 600 51 1.000000 0.053000 0.053000 1.200000 0.094000 0.113000
1553831668338513916	1300 53 1.200000 0.218000 0.265000 1400 46 1.000000 1.784000 1.912000 600 51 1.000000 0.054000 0.054000 1.200000 0.068000 0.082000
1553831668845149499	1300 53 1.200000 0.424000 0.511000 1400 46 1.000000 1.779000 1.907000 600 51 1.000000 0.053000 0.053000 1.200000 0.079000 0.095000
1553831669352572166	1300 53 1.200000 0.295000 0.357000 1400 46 1.000000 1.923000 2.061000 600 51 1.000000 0.054000 0.054000 1.200000 0.093000 0.112000
1553831669858431749	1300 54 1.200000 0.372000 0.449000 1400 46 1.000000 1.771000 1.898000 600 51 1.000000 0.054000 0.054000 1.200000 0.075000 0.090000
1553831670364988249	1300 54 1.200000 0.420000 0.507000 1400 47 1.000000 1.778000 1.906000 600 51 1.000000 0.053000 0.053000 1.200000 0.075000 0.090000
1553831670871261208	1300 53 1.200000 0.374000 0.451000 1400 46 1.000000 1.845000 1.977000 600 51 1.000000 0.053000 0.053000 1.200000 0.096000 0.116000
1553831671377171041	1300 54 1.200000 0.236000 0.286000 1400 47 1.000000 1.904000 2.041000 600 51 1.000000 0.053000 0.053000 1.200000 0.079000 0.095000
1553831671884651541	1300 54 1.200000 0.448000 0.540000 1400 47 1.000000 1.764000 1.891000 600 51 1.000000 0.054000 0.054000 1.200000 0.085000 0.102000
1553831672390556791	1300 54 1.200000 0.429000 0.517000 1400 47 1.000000 1.838000 1.970000 600 51 1.000000 0.053000 0.053000 1.200000 0.089000 0.107000
1553831672896561541	1300 54 1.200000 0.335000 0.404000 1400 47 1.000000 1.791000 1.919000 600 51 1.000000 0.053000 0.053000 1.200000 0.068000 0.082000
1553831673402445166	1300 54 1.200000 0.407000 0.491000 1400 47 1.000000 1.470000 1.574000 600 51 1.000000 0.054000 0.054000 1.200000 0.073000 0.088000
1553831673911127000	1300 54 1.200000 0.422000 0.509000 1400 47 1.000000 1.732000 1.856000 600 51 1.000000 0.054000 0.054000 1.200000 0.094000 0.113000
1553831674417436292	1300 54 1.200000 0.328000 0.397000 1400 47 1.000000 1.770000 1.897000 600 51 1.000000 0.054000 0.054000 1.200000 0.074000 0.089000
1553831674923684000	1300 53 1.200000 0.428000 0.516000 1400 47 1.000000 1.367000 1.462000 600 50 1.000000 0.054000 0.054000 1.200000 0.072000 0.087000
1553831675429746667	1300 53 1.200000 0.368000 0.444000 1400 46 1.000000 1.713000 1.836000 600 52 1.000000 0.054000 0.054000 1.200000 0.086000 0.104000
1553831675935941625	1300 54 1.200000 0.183000 0.222000 1400 46 1.000000 1.788000 1.916000 600 51 1.000000 0.053000 0.053000 1.200000 0.068000 0.082000
1553831676442662375	1300 54 1.200000 0.411000 0.496000 1400 46 1.000000 1.782000 1.910000 600 51 1.000000 0.053000 0.053000 1.200000 0.095000 0.115000
1553831676950051917	1300 54 1.200000 0.258000 0.312000 1400 47 1.000000 1.776000 1.903000 600 51 1.000000 0.054000 0.054000 1.200000 0.076000 0.092000
1553831677456354875	1300 54 1.200000 0.377000 0.455000 1400 47 1.000000 1.787000 1.915000 600 53 1.000000 0.053000 0.053000 1.200000 0.076000 0.091000
1553831677962783084	1300 54 1.200000 0.389000 0.469000 1400 47 1.000000 1.888000 2.023000 600 51 1.000000 0.054000 0.054000 1.200000 0.081000 0.098000
1553831678468991334	1300 54 1.200000 0.403000 0.486000 1400 47 1.000000 1.756000 1.882000 600 51 1.000000 0.054000 0.054000 1.200000 0.085000 0.102000
1553831678974929042	1300 53 1.200000 0.217000 0.263000 1400 46 1.000000 1.818000 1.948000 600 51 1.000000 0.053000 0.053000 1.200000 0.069000 0.083000
1553831679483719584	1300 53 1.200000 0.424000 0.511000 1400 47 1.000000 1.664000 1.782000 600 52 1.000000 0.054000 0.054000 1.200000 0.080000 0.096000
1553831679990455417	1300 52 1.200000 0.430000 0.519000 1400 47 1.000000 1.586000 1.698000 600 51 1.000000 0.054000 0.054000 1.200000 0.081000 0.098000
1553831680496392376	1300 53 1.200000 0.446000 0.538000 1400 46 1.000000 1.118000 1.194000 600 51 1.000000 0.054000 0.054000 1.200000 0.073000 0.088000
1553831681002131709	1300 54 1.200000 0.455000 0.549000 1400 47 1.000000 1.687000 1.806000 600 51 1.000000 0.053000 0.053000 1.200000 0.079000 0.095000
1553831681507793042	1300 50 1.200000 0.395000 0.477000 1400 46 1.000000 1.400000 1.498000 600 50 1.000000 0.053000 0.053000 1.200000 0.069000 0.083000
1553831682013326834	1300 48 1.200000 0.446000 0.538000 1400 45 1.000000 0.815000 0.872000 600 49 1.000000 0.053000 0.053000 1.200000 0.074000 0.089000
1553831682519074209	1300 48 1.200000 0.365000 0.440000 1400 44 1.000000 0.595000 0.637000 600 48 1.000000 0.053000 0.053000 1.200000 0.053000 0.064000
1553831683024935501	1300 46 1.200000 0.368000 0.444000 1400 44 1.000000 0.679000 0.727000 600 47 1.000000 0.053000 0.053000 1.200000 0.056000 0.067000
1553831683530871209	1300 50 1.200000 0.404000 0.487000 1400 44 1.000000 1.082000 1.159000 600 48 1.000000 0.053000 0.053000 1.200000 0.067000 0.081000
1553831684036945126	1300 52 1.200000 0.446000 0.538000 1400 45 1.000000 1.795000 1.924000 600 49 1.000000 0.053000 0.053000 1.200000 0.084000 0.101000
1553831684542832334	1300 52 1.200000 0.450000 0.543000 1400 45 1.000000 1.525000 1.633000 600 49 1.000000 0.053000 0.053000 1.200000 0.078000 0.094000
1553831685048948293	1300 53 1.200000 0.448000 0.540000 1400 46 1.000000 1.773000 1.900000 600 50 1.000000 0.053000 0.053000 1.200000 0.080000 0.096000
1553831685555876543	1300 53 1.200000 0.446000 0.538000 1400 46 1.000000 1.770000 1.897000 600 51 1.000000 0.053000 0.053000 1.200000 0.080000 0.096000
1553831686061916210	1300 54 1.200000 0.454000 0.547000 1400 46 1.000000 1.865000 1.999000 600 51 1.000000 0.053000 0.053000 1.200000 0.087000 0.105000
1553831686567805126	1300 54 1.200000 0.433000 0.522000 1400 47 1.000000 1.778000 1.906000 600 51 1.000000 0.054000 0.054000 1.200000 0.078000 0.094000
1553831687073716585	1300 54 1.200000 0.436000 0.526000 1400 47 1.000000 1.778000 1.906000 600 51 1.000000 0.053000 0.053000 1.200000 0.079000 0.095000
1553831687580335043	1300 53 1.200000 0.444000 0.535000 1400 46 1.000000 1.776000 1.903000 600 52 1.000000 0.053000 0.053000 1.200000 0.075000 0.090000
1553831688086362585	1300 54 1.200000 0.419000 0.505000 1400 47 1.000000 1.851000 1.984000 600 51 1.000000 0.054000 0.054000 1.200000 0.092000 0.111000
1553831688592346293	1300 54 1.200000 0.431000 0.520000 1400 47 1.000000 1.656000 1.773000 600 50 1.000000 0.053000 0.053000 1.200000 0.075000 0.090000
1553831689098302710	1300 54 1.200000 0.390000 0.471000 1400 47 1.000000 1.599000 1.712000 600 50 1.000000 0.053000 0.053000 1.200000 0.073000 0.088000
1553831689604405085	1300 54 1.200000 0.454000 0.548000 1400 47 1.000000 1.590000 1.702000 600 51 1.000000 0.053000 0.053000 1.200000 0.078000 0.094000
1553831690111525043	1300 50 1.200000 0.432000 0.521000 1400 46 1.000000 1.699000 1.819000 600 51 1.000000 0.053000 0.053000 1.200000 0.075000 0.090000
1553831690617480960	1300 50 1.200000 0.437000 0.527000 1400 46 1.000000 1.354000 1.448000 600 49 1.000000 0.053000 0.053000 1.200000 0.072000 0.087000
1553831691123096669	1300 46 1.200000 0.413000 0.498000 1400 44 1.000000 0.777000 0.832000 600 48 1.000000 0.053000 0.053000 1.200000 0.057000 0.068000
1553831691628756335	1300 47 1.200000 0.372000 0.450000 1400 44 1.000000 0.548000 0.588000 600 47 1.000000 0.053000 0.053000 1.200000 0.055000 0.066000
1553831692134725252	1300 49 1.200000 0.390000 0.471000 1400 44 1.000000 0.774000 0.828000 600 47 1.000000 0.053000 0.053000 1.200000 0.059000 0.071000
1553831692640762669	1300 47 1.200000 0.405000 0.488000 1400 44 1.000000 1.452000 1.555000 600 48 1.000000 0.053000 0.053000 1.200000 0.074000 0.089000
1553831693146913836	1300 50 1.200000 0.449000 0.541000 1400 44 1.000000 0.975000 1.044000 600 48 1.000000 0.053000 0.053000 1.200000 0.071000 0.085000
1553831693652647836	1300 49 1.200000 0.447000 0.539000 1400 45 1.000000 1.617000 1.731000 600 49 1.000000 0.053000 0.053000 1.200000 0.083000 0.100000
1553831694158341211	1300 46 1.200000 0.445000 0.537000 1400 44 1.000000 0.763000 0.817000 600 47 1.000000 0.053000 0.053000 1.200000 0.073000 0.088000
1553831694664238794	1300 48 1.200000 0.371000 0.448000 1400 44 1.000000 0.786000 0.842000 600 47 1.000000 0.053000 0.053000 1.200000 0.064000 0.077000
1553831695169905461	1300 45 1.200000 0.363000 0.438000 1400 43 1.000000 0.647000 0.694000 600 46 1.000000 0.053000 0.053000 1.200000 0.054000 0.065000
1553831695675572461	1300 46 1.200000 0.358000 0.432000 1400 43 1.000000 0.561000 0.601000 600 46 1.000000 0.053000 0.053000 1.200000 0.055000 0.066000
1553831696181411711	1300 48 1.200000 0.382000 0.461000 1400 43 1.000000 0.695000 0.745000 600 46 1.000000 0.053000 0.053000 1.200000 0.058000 0.070000
1553831696687498711	1300 50 1.200000 0.442000 0.533000 1400 44 1.000000 0.976000 1.045000 600 47 1.000000 0.053000 0.053000 1.200000 0.066000 0.079000
1553831697193459128	1300 51 1.200000 0.445000 0.537000 1400 44 1.000000 1.382000 1.478000 600 48 1.000000 0.053000 0.053000 1.200000 0.077000 0.093000
1553831697699520378	1300 52 1.200000 0.446000 0.538000 1400 45 1.000000 1.681000 1.802000 600 49 1.000000 0.053000 0.053000 1.200000 0.080000 0.096000
1553831698205491211	1300 52 1.200000 0.446000 0.538000 1400 45 1.000000 1.849000 1.982000 600 49 1.000000 0.053000 0.053000 1.200000 0.085000 0.102000
1553831698711553753	1300 52 1.200000 0.430000 0.519000 1400 45 1.000000 1.700000 1.822000 600 50 1.000000 0.054000 0.054000 1.200000 0.084000 0.101000
1553831699217498253	1300 52 1.200000 0.425000 0.512000 1400 46 1.000000 1.559000 1.669000 600 49 1.000000 0.053000 0.053000 1.200000 0.081000 0.098000
1553831699723230211	1300 49 1.200000 0.438000 0.528000 1400 45 1.000000 0.924000 0.988000 600 48 1.000000 0.053000 0.053000 1.200000 0.079000 0.095000
1553831700228825670	1300 46 1.200000 0.381000 0.460000 1400 44 1.000000 0.852000 0.912000 600 47 1.000000 0.053000 0.053000 1.200000 0.070000 0.084000
1553831700734241045	1300 45 1.200000 0.208000 0.253000 1400 43 1.000000 0.469000 0.503000 600 47 1.000000 0.053000 0.053000 1.200000 0.042000 0.050000
1553831701240726295	1300 46 1.200000 0.190000 0.231000 1400 42 1.000000 0.735000 0.787000 600 47 1.000000 0.053000 0.053000 1.200000 0.048000 0.057000
1553831701746589503	1300 42 1.200000 0.071000 0.086000 1400 41 1.000000 0.176000 0.189000 600 45 1.000000 0.053000 0.053000 1.200000 0.027000 0.032000
1553831702252310420	1300 41 1.200000 0.071000 0.086000 1400 40 1.000000 0.176000 0.189000 600 44 1.000000 0.053000 0.053000 1.200000 0.023000 0.027000
