#Timestamp	CPU(0) Frequency(MHz)	CPU(0) Temperature(C)	A7 Voltage(V)	A7 Current(A)	A7 Power(W)	CPU(4) Frequency(MHz)	CPU(4) Temperature(C)	A15 Voltage(V)	A15 Current(A)	A15 Power(W)	GPU Frequency(MHz)	GPU Temperature(C)	GPU Voltage(V)	GPU Current(A)	GPU Power(W)	RAM Voltage(V)	RAM Current(A)	RAM Power(W)
1566907690949804825	1000 40 1.000000 0.261000 0.283000 1500 32 1.000000 0.716000 0.735000 600 38 1.000000 0.050000 0.050000 1.200000 0.045000 0.054000
1566907691454985575	1000 41 1.000000 0.297000 0.322000 1500 34 1.000000 1.401000 1.535000 600 38 1.000000 0.050000 0.050000 1.200000 0.028000 0.033000
1566907691960159325	1000 42 1.000000 0.299000 0.324000 1500 34 1.000000 1.439000 1.577000 600 39 1.000000 0.051000 0.051000 1.200000 0.027000 0.032000
1566907692465450200	1000 43 1.000000 0.297000 0.322000 1500 35 1.000000 1.396000 1.530000 600 40 1.000000 0.051000 0.051000 1.200000 0.028000 0.033000
1566907692970451950	1000 43 1.000000 0.297000 0.322000 1500 35 1.000000 1.406000 1.540000 600 42 1.000000 0.051000 0.051000 1.200000 0.028000 0.033000
1566907693475640742	1000 44 1.000000 0.296000 0.321000 1500 36 1.000000 1.453000 1.592000 600 41 1.000000 0.051000 0.051000 1.200000 0.028000 0.033000
1566907693980759992	1000 44 1.000000 0.300000 0.325000 1500 36 1.000000 1.411000 1.546000 600 41 1.000000 0.051000 0.051000 1.200000 0.027000 0.032000
1566907694485863034	1000 44 1.000000 0.299000 0.324000 1500 37 1.000000 1.446000 1.584000 600 41 1.000000 0.051000 0.051000 1.200000 0.029000 0.035000
1566907694991371159	1000 44 1.000000 0.298000 0.323000 1500 37 1.000000 1.394000 1.527000 600 42 1.000000 0.051000 0.051000 1.200000 0.028000 0.033000
1566907695496717784	1000 45 1.000000 0.298000 0.323000 1500 37 1.000000 1.581000 1.734000 600 42 1.000000 0.051000 0.051000 1.200000 0.041000 0.049000
1566907696002350075	1000 45 1.000000 0.299000 0.324000 1500 37 1.000000 1.443000 1.581000 600 42 1.000000 0.051000 0.051000 1.200000 0.028000 0.033000
1566907696507461409	1000 45 1.000000 0.297000 0.322000 1500 37 1.000000 1.438000 1.576000 600 42 1.000000 0.051000 0.051000 1.200000 0.028000 0.033000
1566907697012449451	1000 45 1.000000 0.300000 0.325000 1500 38 1.000000 1.436000 1.573000 600 42 1.000000 0.051000 0.051000 1.200000 0.030000 0.036000
1566907697517585451	1000 45 1.000000 0.302000 0.327000 1500 38 1.000000 1.608000 1.763000 600 42 1.000000 0.051000 0.051000 1.200000 0.039000 0.047000
1566907698022524951	1000 45 1.000000 0.301000 0.326000 1500 38 1.000000 1.418000 1.554000 600 42 1.000000 0.051000 0.051000 1.200000 0.025000 0.030000
1566907698527588201	1000 45 1.000000 0.300000 0.325000 1500 38 1.000000 1.390000 1.523000 600 42 1.000000 0.051000 0.051000 1.200000 0.027000 0.032000
1566907699033043617	1000 45 1.000000 0.301000 0.326000 1500 38 1.000000 1.393000 1.526000 600 42 1.000000 0.051000 0.051000 1.200000 0.026000 0.031000
1566907699538413576	1000 46 1.000000 0.300000 0.325000 1500 38 1.000000 1.589000 1.743000 600 43 1.000000 0.051000 0.051000 1.200000 0.042000 0.050000
1566907700043612826	1000 46 1.000000 0.297000 0.322000 1500 38 1.000000 1.451000 1.590000 600 43 1.000000 0.051000 0.051000 1.200000 0.030000 0.036000
1566907700550525701	1000 46 1.000000 0.296000 0.321000 1500 39 1.000000 1.438000 1.576000 600 43 1.000000 0.051000 0.051000 1.200000 0.029000 0.035000
1566907701055697326	1000 46 1.000000 0.297000 0.322000 1500 38 1.000000 1.437000 1.574000 600 43 1.000000 0.051000 0.051000 1.200000 0.030000 0.036000
1566907701560747451	1000 46 1.000000 0.302000 0.327000 1500 39 1.000000 1.386000 1.519000 600 44 1.000000 0.051000 0.051000 1.200000 0.026000 0.031000
1566907702065920826	1000 46 1.000000 0.298000 0.323000 1500 39 1.000000 1.451000 1.590000 600 43 1.000000 0.051000 0.051000 1.200000 0.029000 0.035000
1566907702570994743	1000 46 1.000000 0.301000 0.326000 1500 39 1.000000 1.444000 1.582000 600 43 1.000000 0.052000 0.052000 1.200000 0.027000 0.032000
1566907703076119785	1000 46 1.000000 0.302000 0.327000 1500 39 1.000000 1.389000 1.522000 600 43 1.000000 0.052000 0.052000 1.200000 0.025000 0.030000
1566907703581092451	1000 46 1.000000 0.303000 0.328000 1500 39 1.000000 1.393000 1.526000 600 44 1.000000 0.051000 0.051000 1.200000 0.026000 0.031000
1566907704086219618	1000 46 1.000000 0.304000 0.329000 1500 39 1.000000 1.423000 1.559000 600 44 1.000000 0.051000 0.051000 1.200000 0.027000 0.032000
1566907704591389326	1000 46 1.000000 0.298000 0.323000 1500 39 1.000000 1.441000 1.579000 600 44 1.000000 0.051000 0.051000 1.200000 0.028000 0.033000
1566907705096589118	1000 46 1.000000 0.299000 0.324000 1500 39 1.000000 1.448000 1.587000 600 44 1.000000 0.051000 0.051000 1.200000 0.028000 0.033000
1566907705601994160	1000 46 1.000000 0.296000 0.321000 1500 39 1.000000 1.443000 1.581000 600 45 1.000000 0.051000 0.051000 1.200000 0.028000 0.033000
1566907706107567827	1000 47 1.000000 0.299000 0.324000 1500 39 1.000000 1.428000 1.565000 600 44 1.000000 0.051000 0.051000 1.200000 0.027000 0.032000
1566907706612797118	1000 46 1.000000 0.296000 0.321000 1500 39 1.000000 1.430000 1.567000 600 44 1.000000 0.052000 0.052000 1.200000 0.029000 0.035000
1566907707118118202	1000 47 1.000000 0.298000 0.323000 1500 39 1.000000 1.429000 1.566000 600 44 1.000000 0.051000 0.051000 1.200000 0.030000 0.036000
1566907707623442785	1000 47 1.000000 0.299000 0.324000 1500 39 1.000000 1.422000 1.558000 600 44 1.000000 0.051000 0.051000 1.200000 0.028000 0.033000
1566907708128738535	1000 47 1.000000 0.300000 0.325000 1500 39 1.000000 1.614000 1.770000 600 44 1.000000 0.051000 0.051000 1.200000 0.041000 0.049000
1566907708633869119	1000 47 1.000000 0.298000 0.323000 1500 39 1.000000 1.429000 1.566000 600 44 1.000000 0.051000 0.051000 1.200000 0.027000 0.032000
1566907709138928910	1000 47 1.000000 0.298000 0.323000 1500 39 1.000000 1.423000 1.559000 600 44 1.000000 0.051000 0.051000 1.200000 0.028000 0.033000
1566907709644126369	1000 47 1.000000 0.299000 0.324000 1500 39 1.000000 1.420000 1.556000 600 44 1.000000 0.051000 0.051000 1.200000 0.027000 0.032000
1566907710149405910	1000 47 1.000000 0.303000 0.328000 1500 39 1.000000 1.627000 1.784000 600 44 1.000000 0.052000 0.052000 1.200000 0.039000 0.047000
1566907710654553119	1000 47 1.000000 0.299000 0.324000 1500 40 1.000000 1.451000 1.590000 600 44 1.000000 0.052000 0.052000 1.200000 0.028000 0.033000
1566907711159686827	1000 47 1.000000 0.297000 0.322000 1500 40 1.000000 1.423000 1.559000 600 44 1.000000 0.051000 0.051000 1.200000 0.029000 0.035000
1566907711664828869	1000 47 1.000000 0.300000 0.325000 1500 40 1.000000 1.430000 1.567000 600 44 1.000000 0.051000 0.051000 1.200000 0.029000 0.035000
1566907712170455577	1000 47 1.000000 0.301000 0.326000 1500 40 1.000000 1.597000 1.751000 600 45 1.000000 0.052000 0.052000 1.200000 0.037000 0.044000
1566907712675617202	1000 47 1.000000 0.299000 0.324000 1500 40 1.000000 1.469000 1.610000 600 45 1.000000 0.052000 0.052000 1.200000 0.030000 0.036000
1566907713180699702	1000 47 1.000000 0.295000 0.320000 1500 40 1.000000 1.447000 1.585000 600 45 1.000000 0.052000 0.052000 1.200000 0.027000 0.032000
1566907713686004619	1000 47 1.000000 0.300000 0.325000 1500 40 1.000000 1.422000 1.558000 600 44 1.000000 0.051000 0.051000 1.200000 0.029000 0.035000
1566907714191017661	1000 47 1.000000 0.297000 0.322000 1500 40 1.000000 1.431000 1.568000 600 45 1.000000 0.051000 0.051000 1.200000 0.030000 0.036000
1566907714696144911	1000 47 1.000000 0.297000 0.322000 1500 40 1.000000 1.461000 1.601000 600 45 1.000000 0.052000 0.052000 1.200000 0.036000 0.043000
1566907715201168078	1000 47 1.000000 0.299000 0.324000 1500 40 1.000000 1.419000 1.555000 600 45 1.000000 0.051000 0.051000 1.200000 0.030000 0.036000
1566907715706311953	1000 47 1.000000 0.300000 0.325000 1500 40 1.000000 1.413000 1.548000 600 45 1.000000 0.051000 0.051000 1.200000 0.027000 0.032000
1566907716211200953	1000 47 1.000000 0.301000 0.326000 1500 40 1.000000 1.424000 1.560000 600 45 1.000000 0.052000 0.052000 1.200000 0.030000 0.036000
1566907716716280536	1000 47 1.000000 0.303000 0.328000 1500 40 1.000000 1.443000 1.581000 600 45 1.000000 0.051000 0.051000 1.200000 0.030000 0.036000
1566907717221465120	1000 47 1.000000 0.298000 0.323000 1500 40 1.000000 1.417000 1.553000 600 45 1.000000 0.052000 0.052000 1.200000 0.031000 0.037000
1566907717726668495	1000 47 1.000000 0.297000 0.322000 1500 40 1.000000 1.403000 1.537000 600 45 1.000000 0.052000 0.052000 1.200000 0.029000 0.035000
1566907718232100495	1000 47 1.000000 0.300000 0.325000 1500 40 1.000000 1.474000 1.615000 600 45 1.000000 0.051000 0.051000 1.200000 0.030000 0.036000
1566907718737840286	1000 48 1.000000 0.299000 0.324000 1500 40 1.000000 1.571000 1.723000 600 45 1.000000 0.052000 0.052000 1.200000 0.036000 0.043000
1566907719243192328	1000 47 1.000000 0.298000 0.323000 1500 40 1.000000 1.442000 1.580000 600 45 1.000000 0.051000 0.051000 1.200000 0.029000 0.035000
1566907719748397787	1000 48 1.000000 0.297000 0.322000 1500 40 1.000000 1.441000 1.579000 600 45 1.000000 0.052000 0.052000 1.200000 0.030000 0.036000
1566907720254024328	1000 47 1.000000 0.297000 0.322000 1500 40 1.000000 1.450000 1.589000 600 45 1.000000 0.051000 0.051000 1.200000 0.029000 0.035000
1566907720759363995	1000 48 1.000000 0.301000 0.326000 1500 40 1.000000 1.498000 1.643000 600 45 1.000000 0.051000 0.051000 1.200000 0.038000 0.045000
1566907721264487203	1000 48 1.000000 0.299000 0.324000 1500 40 1.000000 1.479000 1.620000 600 45 1.000000 0.051000 0.051000 1.200000 0.029000 0.035000
1566907721769730454	1000 48 1.000000 0.298000 0.323000 1500 40 1.000000 1.417000 1.553000 600 45 1.000000 0.052000 0.052000 1.200000 0.029000 0.035000
1566907722275404412	1000 48 1.000000 0.298000 0.323000 1500 40 1.000000 1.469000 1.610000 600 45 1.000000 0.051000 0.051000 1.200000 0.028000 0.033000
1566907722780790037	1000 48 1.000000 0.300000 0.325000 1500 40 1.000000 1.517000 1.664000 600 45 1.000000 0.052000 0.052000 1.200000 0.039000 0.047000
1566907723285892870	1000 48 1.000000 0.298000 0.323000 1500 40 1.000000 1.464000 1.604000 600 45 1.000000 0.051000 0.051000 1.200000 0.028000 0.033000
1566907723791106579	1000 48 1.000000 0.295000 0.320000 1500 40 1.000000 1.453000 1.592000 600 45 1.000000 0.052000 0.052000 1.200000 0.032000 0.038000
1566907724296231120	1000 48 1.000000 0.299000 0.324000 1500 40 1.000000 1.439000 1.577000 600 45 1.000000 0.052000 0.052000 1.200000 0.029000 0.035000
1566907724801393954	1000 48 1.000000 0.300000 0.325000 1500 40 1.000000 1.423000 1.559000 600 45 1.000000 0.052000 0.052000 1.200000 0.031000 0.037000
1566907725306563246	1000 48 1.000000 0.299000 0.324000 1500 41 1.000000 1.485000 1.627000 600 45 1.000000 0.052000 0.052000 1.200000 0.028000 0.033000
1566907725811970621	1000 48 1.000000 0.298000 0.323000 1500 40 1.000000 1.470000 1.611000 600 45 1.000000 0.052000 0.052000 1.200000 0.028000 0.033000
1566907726317186996	1000 48 1.000000 0.298000 0.323000 1500 41 1.000000 1.460000 1.600000 600 46 1.000000 0.052000 0.052000 1.200000 0.030000 0.036000
1566907726822436371	1000 48 1.000000 0.300000 0.325000 1500 41 1.000000 1.448000 1.587000 600 46 1.000000 0.052000 0.052000 1.200000 0.029000 0.035000
1566907727327575371	1000 48 1.000000 0.295000 0.320000 1500 41 1.000000 1.463000 1.603000 600 46 1.000000 0.051000 0.051000 1.200000 0.029000 0.035000
1566907727832650038	1000 48 1.000000 0.299000 0.324000 1500 41 1.000000 1.445000 1.583000 600 45 1.000000 0.052000 0.052000 1.200000 0.030000 0.036000
1566907728337810996	1000 48 1.000000 0.299000 0.324000 1500 41 1.000000 1.470000 1.611000 600 45 1.000000 0.051000 0.051000 1.200000 0.028000 0.033000
1566907728850175746	1000 48 1.000000 0.298000 0.323000 1500 41 1.000000 1.437000 1.574000 600 47 1.000000 0.052000 0.052000 1.200000 0.028000 0.033000
1566907729357082788	1000 48 1.000000 0.297000 0.322000 1500 41 1.000000 1.503000 1.647000 600 46 1.000000 0.052000 0.052000 1.200000 0.031000 0.037000
1566907729862905329	1000 48 1.000000 0.298000 0.323000 1500 41 1.000000 1.442000 1.580000 600 46 1.000000 0.052000 0.052000 1.200000 0.028000 0.033000
1566907730368600788	1000 48 1.000000 0.299000 0.324000 1500 41 1.000000 1.444000 1.582000 600 46 1.000000 0.052000 0.052000 1.200000 0.028000 0.033000
1566907730874672788	1000 48 1.000000 0.298000 0.323000 1500 41 1.000000 1.450000 1.589000 600 46 1.000000 0.052000 0.052000 1.200000 0.028000 0.033000
1566907731380590121	1000 48 1.000000 0.293000 0.317000 1500 41 1.000000 1.638000 1.796000 600 46 1.000000 0.051000 0.051000 1.200000 0.039000 0.047000
1566907731886236496	1000 48 1.000000 0.299000 0.324000 1500 41 1.000000 1.422000 1.558000 600 45 1.000000 0.051000 0.051000 1.200000 0.028000 0.033000
1566907732391877580	1000 48 1.000000 0.301000 0.326000 1500 41 1.000000 1.386000 1.517000 600 45 1.000000 0.052000 0.052000 1.200000 0.027000 0.032000
1566907732897593496	1000 48 1.000000 0.301000 0.326000 1500 41 1.000000 1.430000 1.567000 600 46 1.000000 0.052000 0.052000 1.200000 0.028000 0.033000
1566907733403748872	1000 48 1.000000 0.295000 0.320000 1500 41 1.000000 1.682000 1.845000 600 46 1.000000 0.051000 0.051000 1.200000 0.037000 0.044000
1566907733909715830	1000 48 1.000000 0.299000 0.324000 1500 41 1.000000 1.436000 1.573000 600 46 1.000000 0.051000 0.051000 1.200000 0.029000 0.035000
1566907734415544038	1000 48 1.000000 0.299000 0.324000 1500 41 1.000000 1.443000 1.581000 600 46 1.000000 0.052000 0.052000 1.200000 0.027000 0.032000
1566907734921253872	1000 48 1.000000 0.302000 0.327000 1500 41 1.000000 1.447000 1.585000 600 46 1.000000 0.052000 0.052000 1.200000 0.027000 0.032000
1566907735427202663	1000 48 1.000000 0.299000 0.324000 1500 41 1.000000 1.651000 1.811000 600 46 1.000000 0.052000 0.052000 1.200000 0.035000 0.042000
1566907735932900705	1000 48 1.000000 0.299000 0.324000 1500 41 1.000000 1.432000 1.569000 600 46 1.000000 0.052000 0.052000 1.200000 0.028000 0.033000
1566907736438845247	1000 48 1.000000 0.297000 0.322000 1500 41 1.000000 1.431000 1.568000 600 46 1.000000 0.052000 0.052000 1.200000 0.029000 0.035000
1566907736944546539	1000 48 1.000000 0.298000 0.323000 1500 41 1.000000 1.465000 1.605000 600 46 1.000000 0.052000 0.052000 1.200000 0.030000 0.036000
1566907737450298914	1000 49 1.000000 0.299000 0.324000 1500 41 1.000000 1.445000 1.583000 600 47 1.000000 0.052000 0.052000 1.200000 0.028000 0.033000
1566907737956084372	1000 49 1.000000 0.296000 0.321000 1500 41 1.000000 1.462000 1.602000 600 46 1.000000 0.051000 0.051000 1.200000 0.030000 0.036000
1566907738461918622	1000 48 1.000000 0.297000 0.322000 1500 41 1.000000 1.472000 1.613000 600 46 1.000000 0.052000 0.052000 1.200000 0.029000 0.035000
1566907738968108914	1000 49 1.000000 0.298000 0.323000 1500 41 1.000000 1.477000 1.618000 600 46 1.000000 0.052000 0.052000 1.200000 0.030000 0.036000
1566907739474222122	1000 49 1.000000 0.299000 0.324000 1500 41 1.000000 1.454000 1.593000 600 47 1.000000 0.052000 0.052000 1.200000 0.031000 0.037000
1566907739979943122	1000 48 1.000000 0.298000 0.323000 1500 41 1.000000 1.456000 1.595000 600 46 1.000000 0.052000 0.052000 1.200000 0.028000 0.033000
1566907740486072747	1000 48 1.000000 0.298000 0.323000 1500 41 1.000000 1.445000 1.583000 600 46 1.000000 0.052000 0.052000 1.200000 0.027000 0.032000
1566907740991770039	1000 49 1.000000 0.300000 0.325000 1500 41 1.000000 1.429000 1.564000 600 46 1.000000 0.052000 0.052000 1.200000 0.027000 0.032000
1566907741499517664	1000 49 1.000000 0.298000 0.323000 1500 41 1.000000 1.420000 1.556000 600 47 1.000000 0.052000 0.052000 1.200000 0.028000 0.033000
1566907742005621164	1000 49 1.000000 0.298000 0.323000 1500 41 1.000000 1.476000 1.617000 600 46 1.000000 0.052000 0.052000 1.200000 0.030000 0.036000
1566907742511401539	1000 49 1.000000 0.297000 0.322000 1500 41 1.000000 1.439000 1.577000 600 46 1.000000 0.051000 0.051000 1.200000 0.028000 0.033000
1566907743017215331	1000 49 1.000000 0.300000 0.325000 1500 41 1.000000 1.460000 1.600000 600 46 1.000000 0.052000 0.052000 1.200000 0.030000 0.036000
1566907743522883498	1000 49 1.000000 0.299000 0.324000 1500 41 1.000000 1.431000 1.568000 600 46 1.000000 0.052000 0.052000 1.200000 0.028000 0.033000
1566907744028620331	1000 49 1.000000 0.298000 0.323000 1500 41 1.000000 1.661000 1.822000 600 46 1.000000 0.052000 0.052000 1.200000 0.036000 0.043000
1566907744534743415	1000 49 1.000000 0.300000 0.325000 1500 41 1.000000 1.414000 1.549000 600 46 1.000000 0.052000 0.052000 1.200000 0.027000 0.032000
1566907745040553415	1000 49 1.000000 0.299000 0.324000 1500 41 1.000000 1.473000 1.614000 600 46 1.000000 0.051000 0.051000 1.200000 0.028000 0.033000
1566907745546325665	1000 49 1.000000 0.293000 0.317000 1500 41 1.000000 1.696000 1.860000 600 47 1.000000 0.052000 0.052000 1.200000 0.048000 0.057000
1566907746052477206	1000 49 1.000000 0.296000 0.321000 1500 41 1.000000 1.673000 1.835000 600 46 1.000000 0.052000 0.052000 1.200000 0.037000 0.044000
1566907746558249331	1000 49 1.000000 0.298000 0.323000 1500 41 1.000000 1.447000 1.585000 600 46 1.000000 0.052000 0.052000 1.200000 0.029000 0.035000
1566907747063949207	1000 49 1.000000 0.299000 0.324000 1500 41 1.000000 1.445000 1.583000 600 46 1.000000 0.052000 0.052000 1.200000 0.027000 0.032000
1566907747569755582	1000 49 1.000000 0.304000 0.329000 1500 41 1.000000 1.414000 1.549000 600 46 1.000000 0.052000 0.052000 1.200000 0.025000 0.030000
1566907748075867790	1000 49 1.000000 0.303000 0.328000 1500 41 1.000000 1.615000 1.770000 600 46 1.000000 0.052000 0.052000 1.200000 0.033000 0.039000
1566907748581543540	1000 49 1.000000 0.303000 0.328000 1500 41 1.000000 1.428000 1.565000 600 46 1.000000 0.052000 0.052000 1.200000 0.026000 0.031000
1566907749088989373	1000 49 1.000000 0.302000 0.327000 1500 41 1.000000 1.456000 1.595000 600 46 1.000000 0.052000 0.052000 1.200000 0.029000 0.035000
1566907749595415832	1000 49 1.000000 0.296000 0.321000 1500 41 1.000000 1.456000 1.595000 600 46 1.000000 0.052000 0.052000 1.200000 0.032000 0.038000
1566907750101350332	1000 49 1.000000 0.299000 0.324000 1500 41 1.000000 1.440000 1.578000 600 47 1.000000 0.052000 0.052000 1.200000 0.028000 0.033000
1566907750607102082	1000 49 1.000000 0.298000 0.323000 1500 42 1.000000 1.465000 1.605000 600 46 1.000000 0.052000 0.052000 1.200000 0.029000 0.035000
1566907751112991665	1000 49 1.000000 0.298000 0.323000 1500 42 1.000000 1.442000 1.580000 600 46 1.000000 0.052000 0.052000 1.200000 0.027000 0.032000
1566907751618763249	1000 49 1.000000 0.301000 0.326000 1500 41 1.000000 1.397000 1.531000 600 46 1.000000 0.052000 0.052000 1.200000 0.027000 0.032000
1566907752124541582	1000 49 1.000000 0.299000 0.324000 1500 42 1.000000 1.445000 1.583000 600 48 1.000000 0.052000 0.052000 1.200000 0.027000 0.032000
1566907752630262374	1000 49 1.000000 0.300000 0.325000 1500 42 1.000000 1.433000 1.570000 600 46 1.000000 0.052000 0.052000 1.200000 0.027000 0.032000
1566907753136119166	1000 49 1.000000 0.301000 0.326000 1500 42 1.000000 1.459000 1.599000 600 46 1.000000 0.052000 0.052000 1.200000 0.029000 0.035000
1566907753642091582	1000 49 1.000000 0.299000 0.324000 1500 41 1.000000 1.422000 1.558000 600 46 1.000000 0.052000 0.052000 1.200000 0.030000 0.036000
1566907754148410957	1000 49 1.000000 0.299000 0.324000 1500 42 1.000000 1.435000 1.572000 600 47 1.000000 0.052000 0.052000 1.200000 0.027000 0.032000
1566907754654307207	1000 49 1.000000 0.297000 0.322000 1500 42 1.000000 1.412000 1.547000 600 46 1.000000 0.052000 0.052000 1.200000 0.037000 0.044000
1566907755160506832	1000 49 1.000000 0.301000 0.326000 1500 42 1.000000 1.451000 1.590000 600 46 1.000000 0.052000 0.052000 1.200000 0.027000 0.032000
1566907755666337124	1000 49 1.000000 0.301000 0.326000 1500 42 1.000000 1.422000 1.558000 600 47 1.000000 0.052000 0.052000 1.200000 0.029000 0.035000
1566907756172043249	1000 49 1.000000 0.300000 0.325000 1500 42 1.000000 1.439000 1.577000 600 46 1.000000 0.052000 0.052000 1.200000 0.028000 0.033000
1566907756678307874	1000 49 1.000000 0.298000 0.323000 1500 42 1.000000 1.640000 1.799000 600 47 1.000000 0.051000 0.051000 1.200000 0.030000 0.036000
1566907757184000208	1000 49 1.000000 0.301000 0.326000 1500 42 1.000000 1.434000 1.571000 600 46 1.000000 0.052000 0.052000 1.200000 0.028000 0.033000
1566907757689721083	1000 49 1.000000 0.299000 0.324000 1500 42 1.000000 1.414000 1.549000 600 46 1.000000 0.052000 0.052000 1.200000 0.028000 0.033000
1566907758195393250	1000 49 1.000000 0.300000 0.325000 1500 42 1.000000 1.447000 1.585000 600 46 1.000000 0.052000 0.052000 1.200000 0.027000 0.032000
1566907758701086625	1000 49 1.000000 0.300000 0.325000 1500 42 1.000000 1.362000 1.492000 600 46 1.000000 0.052000 0.052000 1.200000 0.026000 0.031000
1566907759206824291	1000 49 1.000000 0.305000 0.330000 1500 42 1.000000 1.424000 1.559000 600 46 1.000000 0.052000 0.052000 1.200000 0.026000 0.031000
1566907759712391250	1000 49 1.000000 0.304000 0.329000 1500 42 1.000000 1.405000 1.539000 600 46 1.000000 0.052000 0.052000 1.200000 0.026000 0.031000
1566907760218209083	1000 49 1.000000 0.300000 0.325000 1500 42 1.000000 1.416000 1.551000 600 46 1.000000 0.052000 0.052000 1.200000 0.026000 0.031000
1566907760723927041	1000 49 1.000000 0.301000 0.326000 1500 42 1.000000 1.466000 1.606000 600 46 1.000000 0.052000 0.052000 1.200000 0.031000 0.037000
1566907761229826750	1000 49 1.000000 0.300000 0.325000 1500 42 1.000000 1.565000 1.716000 600 46 1.000000 0.052000 0.052000 1.200000 0.030000 0.036000
1566907761735359500	1000 49 1.000000 0.305000 0.330000 1500 42 1.000000 1.391000 1.523000 600 46 1.000000 0.052000 0.052000 1.200000 0.023000 0.027000
1566907762240682833	1000 49 1.000000 0.305000 0.330000 1500 42 1.000000 1.373000 1.503000 600 46 1.000000 0.052000 0.052000 1.200000 0.024000 0.028000
1566907762746256458	1000 49 1.000000 0.303000 0.328000 1500 42 1.000000 1.396000 1.530000 600 47 1.000000 0.052000 0.052000 1.200000 0.025000 0.030000
1566907763251783167	1000 49 1.000000 0.302000 0.327000 1500 42 1.000000 1.558000 1.707000 600 46 1.000000 0.052000 0.052000 1.200000 0.030000 0.036000
1566907763757411292	1000 49 1.000000 0.303000 0.328000 1500 42 1.000000 1.403000 1.537000 600 46 1.000000 0.052000 0.052000 1.200000 0.024000 0.028000
1566907764263136375	1000 49 1.000000 0.303000 0.328000 1500 42 1.000000 1.410000 1.545000 600 46 1.000000 0.052000 0.052000 1.200000 0.026000 0.031000
1566907764769277875	1000 49 1.000000 0.299000 0.324000 1500 42 1.000000 1.416000 1.551000 600 48 1.000000 0.052000 0.052000 1.200000 0.026000 0.031000
1566907765275162209	1000 49 1.000000 0.303000 0.328000 1500 42 1.000000 1.560000 1.709000 600 47 1.000000 0.051000 0.051000 1.200000 0.030000 0.036000
1566907765780777084	1000 42 1.000000 0.191000 0.208000 1500 40 1.000000 1.427000 1.563000 600 45 1.000000 0.052000 0.052000 1.200000 0.027000 0.032000
1566907766286405417	1000 40 1.100000 0.050000 0.055000 1500 38 1.100000 0.285000 0.313000 600 44 1.000000 0.052000 0.052000 1.200000 0.024000 0.028000
