#Timestamp	CPU(0) Frequency(MHz)	CPU(0) Temperature(C)	A7 Voltage(V)	A7 Current(A)	A7 Power(W)	CPU(4) Frequency(MHz)	CPU(4) Temperature(C)	A15 Voltage(V)	A15 Current(A)	A15 Power(W)	GPU Frequency(MHz)	GPU Temperature(C)	GPU Voltage(V)	GPU Current(A)	GPU Power(W)	RAM Voltage(V)	RAM Current(A)	RAM Power(W)
1517586158837689053	200 40 0.900000 0.024000 0.021000 1300 34 1.000000 0.867000 0.906000 600 43 1.000000 0.051000 0.051000 1.200000 0.049000 0.059000
1517586159363837178	200 41 0.900000 0.048000 0.043000 1300 35 1.000000 1.823000 1.908000 600 45 1.000000 0.051000 0.051000 1.200000 0.036000 0.043000
1517586159877866720	200 41 0.900000 0.049000 0.044000 1300 36 1.000000 1.634000 1.709000 600 46 1.000000 0.051000 0.051000 1.200000 0.056000 0.067000
1517586160390313220	200 42 0.900000 0.055000 0.050000 1300 36 1.000000 1.960000 2.052000 600 46 1.000000 0.051000 0.051000 1.200000 0.056000 0.067000
1517586160902997595	200 43 0.900000 0.039000 0.035000 1300 37 1.000000 1.431000 1.496000 600 47 1.000000 0.051000 0.051000 1.200000 0.036000 0.043000
1517586161415351136	200 43 0.900000 0.049000 0.044000 1300 37 1.000000 1.787000 1.870000 600 47 1.000000 0.051000 0.051000 1.200000 0.036000 0.043000
1517586161928870053	200 43 0.900000 0.049000 0.044000 1300 38 1.000000 1.923000 2.013000 600 48 1.000000 0.051000 0.051000 1.200000 0.047000 0.056000
1517586162444399137	200 43 0.900000 0.050000 0.045000 1300 38 1.000000 1.699000 1.778000 600 48 1.000000 0.051000 0.051000 1.200000 0.044000 0.053000
1517586162963289178	200 43 0.900000 0.049000 0.044000 1300 38 1.000000 1.885000 1.973000 600 46 1.000000 0.051000 0.051000 1.200000 0.042000 0.050000
1517586163477380595	200 44 0.900000 0.049000 0.044000 1300 38 1.000000 1.454000 1.520000 600 49 1.000000 0.051000 0.051000 1.200000 0.047000 0.056000
1517586163989903553	200 44 0.900000 0.040000 0.036000 1300 38 1.000000 1.800000 1.884000 600 48 1.000000 0.051000 0.051000 1.200000 0.036000 0.043000
1517586164504206887	200 44 0.900000 0.049000 0.044000 1300 38 1.000000 1.821000 1.906000 600 49 1.000000 0.051000 0.051000 1.200000 0.036000 0.043000
1517586165020049928	200 44 0.900000 0.050000 0.045000 1300 38 1.000000 1.568000 1.640000 600 49 1.000000 0.052000 0.052000 1.200000 0.059000 0.071000
1517586165532392054	200 44 0.900000 0.049000 0.044000 1300 39 1.000000 1.827000 1.912000 600 48 1.000000 0.051000 0.051000 1.200000 0.035000 0.042000
1517586166045005929	200 44 0.900000 0.050000 0.045000 1300 39 1.000000 1.771000 1.854000 600 49 1.000000 0.051000 0.051000 1.200000 0.040000 0.048000
1517586166554360887	200 44 0.900000 0.040000 0.036000 1300 39 1.000000 1.528000 1.596000 600 49 1.000000 0.051000 0.051000 1.200000 0.042000 0.050000
1517586167064386637	200 44 0.900000 0.051000 0.046000 1300 39 1.000000 1.796000 1.880000 600 47 1.000000 0.051000 0.051000 1.200000 0.037000 0.044000
1517586167577190012	200 44 0.900000 0.054000 0.049000 1300 39 1.000000 1.920000 2.010000 600 50 1.000000 0.051000 0.051000 1.200000 0.053000 0.064000
1517586168089604554	200 44 0.900000 0.040000 0.036000 1300 39 1.000000 1.559000 1.630000 600 49 1.000000 0.052000 0.052000 1.200000 0.032000 0.038000
1517586168598904179	200 45 0.900000 0.049000 0.044000 1300 39 1.000000 1.789000 1.873000 600 50 1.000000 0.052000 0.052000 1.200000 0.033000 0.039000
1517586169111844679	200 44 0.900000 0.050000 0.045000 1300 39 1.000000 1.581000 1.655000 600 49 1.000000 0.051000 0.051000 1.200000 0.052000 0.062000
1517586169644720429	200 44 0.900000 0.052000 0.047000 1300 39 1.000000 1.809000 1.894000 600 47 1.000000 0.051000 0.051000 1.200000 0.034000 0.041000
1517586170167460596	200 45 0.900000 0.049000 0.044000 1300 39 1.000000 1.799000 1.883000 600 50 1.000000 0.051000 0.051000 1.200000 0.033000 0.039000
1517586170680098637	200 45 0.900000 0.049000 0.044000 1300 39 1.000000 1.800000 1.884000 600 49 1.000000 0.051000 0.051000 1.200000 0.036000 0.043000
1517586171192103346	200 45 0.900000 0.048000 0.043000 1300 39 1.000000 1.884000 1.972000 600 50 1.000000 0.051000 0.051000 1.200000 0.038000 0.045000
1517586171704655221	200 45 0.900000 0.043000 0.039000 1300 39 1.000000 1.573000 1.645000 600 50 1.000000 0.051000 0.051000 1.200000 0.044000 0.053000
1517586172217104929	200 45 0.900000 0.053000 0.048000 1300 39 1.000000 1.847000 1.933000 600 49 1.000000 0.051000 0.051000 1.200000 0.047000 0.056000
1517586172729310763	200 45 0.900000 0.047000 0.043000 1300 39 1.000000 1.838000 1.924000 600 50 1.000000 0.052000 0.052000 1.200000 0.043000 0.052000
1517586173241800138	200 45 0.900000 0.044000 0.040000 1300 39 1.000000 1.373000 1.436000 600 50 1.000000 0.052000 0.052000 1.200000 0.039000 0.047000
1517586173760273513	200 44 0.900000 0.049000 0.044000 1300 39 1.000000 1.819000 1.904000 600 47 1.000000 0.051000 0.051000 1.200000 0.033000 0.039000
1517586174271471221	200 45 0.900000 0.046000 0.042000 1300 40 1.000000 1.947000 2.038000 600 50 1.000000 0.051000 0.051000 1.200000 0.046000 0.055000
1517586174784436471	200 45 0.900000 0.053000 0.048000 1300 39 1.000000 1.630000 1.704000 600 50 1.000000 0.052000 0.052000 1.200000 0.051000 0.061000
1517586175294038971	200 45 0.900000 0.048000 0.043000 1300 40 1.000000 1.807000 1.891000 600 50 1.000000 0.052000 0.052000 1.200000 0.035000 0.042000
1517586175820463555	200 45 0.900000 0.048000 0.043000 1300 39 1.000000 1.566000 1.639000 600 50 1.000000 0.051000 0.051000 1.200000 0.048000 0.058000
1517586176335121346	200 45 0.900000 0.040000 0.036000 1300 39 1.000000 1.682000 1.759000 600 50 1.000000 0.051000 0.051000 1.200000 0.034000 0.041000
1517586176852122638	200 45 0.900000 0.050000 0.045000 1300 40 1.000000 1.831000 1.917000 600 50 1.000000 0.052000 0.052000 1.200000 0.037000 0.044000
1517586177362392638	200 45 0.900000 0.049000 0.044000 1300 40 1.000000 1.693000 1.770000 600 50 1.000000 0.051000 0.051000 1.200000 0.057000 0.068000
1517586177875251597	200 45 0.900000 0.055000 0.050000 1300 40 1.000000 1.835000 1.921000 600 49 1.000000 0.051000 0.051000 1.200000 0.040000 0.048000
1517586178387661097	200 45 0.900000 0.049000 0.044000 1300 40 1.000000 1.757000 1.839000 600 50 1.000000 0.052000 0.052000 1.200000 0.036000 0.043000
1517586178900167263	200 45 0.900000 0.041000 0.037000 1300 40 1.000000 1.495000 1.563000 600 50 1.000000 0.052000 0.052000 1.200000 0.045000 0.054000
1517586179413813514	200 45 0.900000 0.055000 0.050000 1300 40 1.000000 1.802000 1.886000 600 48 1.000000 0.052000 0.052000 1.200000 0.052000 0.062000
1517586179940270139	200 45 0.900000 0.050000 0.045000 1300 40 1.000000 1.788000 1.872000 600 51 1.000000 0.052000 0.052000 1.200000 0.037000 0.044000
1517586180454862222	200 45 0.900000 0.041000 0.037000 1300 40 1.000000 1.612000 1.686000 600 50 1.000000 0.052000 0.052000 1.200000 0.044000 0.053000
1517586180967499014	200 45 0.900000 0.049000 0.044000 1300 40 1.000000 1.807000 1.891000 600 51 1.000000 0.051000 0.051000 1.200000 0.038000 0.045000
1517586181480254180	200 45 0.900000 0.041000 0.037000 1300 40 1.000000 1.427000 1.492000 600 50 1.000000 0.052000 0.052000 1.200000 0.048000 0.058000
1517586181992708139	200 45 0.900000 0.056000 0.051000 1300 40 1.000000 1.906000 1.995000 600 49 1.000000 0.052000 0.052000 1.200000 0.049000 0.059000
1517586182505254639	200 46 0.900000 0.049000 0.044000 1300 40 1.000000 1.856000 1.943000 600 51 1.000000 0.052000 0.052000 1.200000 0.042000 0.050000
1517586183017845639	200 45 0.900000 0.049000 0.044000 1300 40 1.000000 1.466000 1.531000 600 50 1.000000 0.051000 0.051000 1.200000 0.040000 0.048000
1517586183531044056	200 45 0.900000 0.049000 0.044000 1300 40 1.000000 1.842000 1.928000 600 48 1.000000 0.052000 0.052000 1.200000 0.034000 0.041000
1517586184043152014	200 44 0.900000 0.042000 0.038000 1300 40 1.000000 1.896000 1.985000 600 50 1.000000 0.052000 0.052000 1.200000 0.055000 0.066000
1517586184555755222	200 45 0.900000 0.056000 0.051000 1300 40 1.000000 1.622000 1.696000 600 50 1.000000 0.051000 0.051000 1.200000 0.051000 0.061000
1517586185068099306	200 45 0.900000 0.049000 0.044000 1300 40 1.000000 1.806000 1.890000 600 50 1.000000 0.052000 0.052000 1.200000 0.035000 0.042000
1517586185580624389	200 45 0.900000 0.041000 0.037000 1300 40 1.000000 1.649000 1.724000 600 49 1.000000 0.052000 0.052000 1.200000 0.047000 0.056000
1517586186093131389	200 45 0.900000 0.050000 0.045000 1300 40 1.000000 1.804000 1.888000 600 50 1.000000 0.052000 0.052000 1.200000 0.041000 0.049000
1517586186607957598	200 45 0.900000 0.049000 0.044000 1300 40 1.000000 1.594000 1.667000 600 51 1.000000 0.052000 0.052000 1.200000 0.037000 0.044000
1517586187120988806	200 45 0.900000 0.048000 0.043000 1300 40 1.000000 1.695000 1.774000 600 49 1.000000 0.052000 0.052000 1.200000 0.057000 0.068000
1517586187633265056	200 46 0.900000 0.049000 0.044000 1300 40 1.000000 1.822000 1.907000 600 51 1.000000 0.052000 0.052000 1.200000 0.034000 0.041000
1517586188162576931	200 46 0.900000 0.051000 0.046000 1300 40 1.000000 1.569000 1.641000 600 51 1.000000 0.052000 0.052000 1.200000 0.038000 0.045000
1517586188677555681	200 45 0.900000 0.041000 0.037000 1300 40 1.000000 1.869000 1.956000 600 50 1.000000 0.052000 0.052000 1.200000 0.041000 0.049000
1517586189186844056	200 46 0.900000 0.049000 0.044000 1300 40 1.000000 1.826000 1.911000 600 50 1.000000 0.052000 0.052000 1.200000 0.050000 0.060000
1517586189699348765	200 46 0.900000 0.047000 0.043000 1300 40 1.000000 1.634000 1.709000 600 51 1.000000 0.052000 0.052000 1.200000 0.042000 0.050000
1517586190209909723	200 44 0.900000 0.049000 0.044000 1300 40 1.000000 1.773000 1.856000 600 48 1.000000 0.052000 0.052000 1.200000 0.036000 0.043000
1517586190722383348	200 46 0.900000 0.043000 0.039000 1300 40 1.000000 1.466000 1.533000 600 51 1.000000 0.051000 0.051000 1.200000 0.053000 0.064000
1517586191234731473	200 44 0.900000 0.049000 0.044000 1300 40 1.000000 1.801000 1.885000 600 49 1.000000 0.051000 0.051000 1.200000 0.036000 0.043000
1517586191769335682	200 46 0.900000 0.050000 0.045000 1300 40 1.000000 1.888000 1.974000 600 51 1.000000 0.052000 0.052000 1.200000 0.048000 0.057000
1517586192283982557	200 46 0.900000 0.045000 0.041000 1300 40 1.000000 1.744000 1.825000 600 51 1.000000 0.052000 0.052000 1.200000 0.049000 0.059000
1517586192796733140	200 46 0.900000 0.052000 0.047000 1300 40 1.000000 1.786000 1.869000 600 50 1.000000 0.052000 0.052000 1.200000 0.043000 0.051000
1517586193309168182	200 46 0.900000 0.050000 0.045000 1300 40 1.000000 1.620000 1.692000 600 50 1.000000 0.052000 0.052000 1.200000 0.035000 0.042000
1517586193819655974	200 46 0.900000 0.041000 0.037000 1300 40 1.000000 1.844000 1.930000 600 51 1.000000 0.051000 0.051000 1.200000 0.047000 0.056000
1517586194332387640	200 45 0.900000 0.059000 0.053000 1300 40 1.000000 1.785000 1.868000 600 48 1.000000 0.052000 0.052000 1.200000 0.053000 0.064000
1517586194845296307	200 46 0.900000 0.054000 0.049000 1300 40 1.000000 1.517000 1.586000 600 51 1.000000 0.052000 0.052000 1.200000 0.041000 0.049000
1517586195357915849	200 46 0.900000 0.040000 0.036000 1300 40 1.000000 1.828000 1.913000 600 51 1.000000 0.052000 0.052000 1.200000 0.038000 0.045000
1517586195870936015	200 46 0.900000 0.050000 0.045000 1300 40 1.000000 1.824000 1.909000 600 51 1.000000 0.051000 0.051000 1.200000 0.038000 0.045000
1517586196380282057	200 46 0.900000 0.041000 0.037000 1300 40 1.000000 1.428000 1.493000 600 51 1.000000 0.052000 0.052000 1.200000 0.042000 0.050000
1517586196897958599	200 46 0.900000 0.058000 0.052000 1300 40 1.000000 1.835000 1.921000 600 50 1.000000 0.052000 0.052000 1.200000 0.054000 0.065000
1517586197410640266	200 46 0.900000 0.050000 0.045000 1300 40 1.000000 1.907000 1.996000 600 51 1.000000 0.052000 0.052000 1.200000 0.049000 0.059000
1517586197923348474	200 46 0.900000 0.040000 0.036000 1300 40 1.000000 1.453000 1.519000 600 51 1.000000 0.052000 0.052000 1.200000 0.035000 0.042000
1517586198436231474	200 45 0.900000 0.049000 0.044000 1300 40 1.000000 1.808000 1.892000 600 48 1.000000 0.052000 0.052000 1.200000 0.034000 0.041000
1517586198976932974	200 45 0.900000 0.053000 0.048000 1300 40 1.000000 1.776000 1.859000 600 50 1.000000 0.052000 0.052000 1.200000 0.049000 0.059000
1517586199489423058	200 46 0.900000 0.043000 0.039000 1300 40 1.000000 1.644000 1.719000 600 51 1.000000 0.051000 0.051000 1.200000 0.053000 0.064000
1517586200001719266	200 46 0.900000 0.049000 0.044000 1300 40 1.000000 1.790000 1.874000 600 51 1.000000 0.052000 0.052000 1.200000 0.035000 0.042000
1517586200514190474	200 46 0.900000 0.050000 0.045000 1300 40 1.000000 1.605000 1.678000 600 51 1.000000 0.052000 0.052000 1.200000 0.049000 0.059000
1517586201024447933	200 46 0.900000 0.050000 0.045000 1300 40 1.000000 1.794000 1.878000 600 50 1.000000 0.052000 0.052000 1.200000 0.033000 0.039000
1517586201533640933	200 46 0.900000 0.059000 0.053000 1300 40 1.000000 1.624000 1.698000 600 51 1.000000 0.052000 0.052000 1.200000 0.053000 0.064000
1517586202045685266	200 46 0.900000 0.059000 0.053000 1300 40 1.000000 1.805000 1.889000 600 51 1.000000 0.051000 0.051000 1.200000 0.052000 0.062000
1517586202558668516	200 45 0.900000 0.049000 0.044000 1300 40 1.000000 1.835000 1.921000 600 49 1.000000 0.052000 0.052000 1.200000 0.036000 0.043000
1517586203071446516	200 46 0.900000 0.040000 0.036000 1300 40 1.000000 1.408000 1.472000 600 51 1.000000 0.052000 0.052000 1.200000 0.048000 0.058000
1517586203582547225	200 46 0.900000 0.049000 0.044000 1300 40 1.000000 1.789000 1.873000 600 51 1.000000 0.052000 0.052000 1.200000 0.032000 0.038000
1517586204095088558	200 46 0.900000 0.055000 0.050000 1300 40 1.000000 1.873000 1.961000 600 51 1.000000 0.052000 0.052000 1.200000 0.048000 0.057000
1517586204607492975	200 46 0.900000 0.041000 0.037000 1300 40 1.000000 1.438000 1.504000 600 51 1.000000 0.052000 0.052000 1.200000 0.049000 0.059000
1517586205120182558	200 46 0.900000 0.050000 0.045000 1300 40 1.000000 1.790000 1.874000 600 51 1.000000 0.052000 0.052000 1.200000 0.034000 0.041000
1517586205632550100	200 46 0.900000 0.049000 0.044000 1300 40 1.000000 1.782000 1.865000 600 50 1.000000 0.052000 0.052000 1.200000 0.038000 0.045000
1517586206152825683	200 46 0.900000 0.041000 0.037000 1300 40 1.000000 1.563000 1.634000 600 51 1.000000 0.052000 0.052000 1.200000 0.046000 0.055000
1517586206668698433	200 46 0.900000 0.057000 0.052000 1300 40 1.000000 1.817000 1.902000 600 49 1.000000 0.052000 0.052000 1.200000 0.053000 0.064000
1517586207181021475	200 46 0.900000 0.049000 0.044000 1300 40 1.000000 1.806000 1.890000 600 51 1.000000 0.052000 0.052000 1.200000 0.041000 0.049000
1517586207690371100	200 46 0.900000 0.041000 0.037000 1300 40 1.000000 1.348000 1.410000 600 51 1.000000 0.052000 0.052000 1.200000 0.040000 0.048000
1517586208203381434	200 45 0.900000 0.056000 0.051000 1300 40 1.000000 1.827000 1.912000 600 49 1.000000 0.052000 0.052000 1.200000 0.038000 0.045000
1517586208713103892	200 46 0.900000 0.042000 0.038000 1300 40 1.000000 1.904000 1.993000 600 51 1.000000 0.052000 0.052000 1.200000 0.048000 0.057000
1517586209225307767	200 46 0.900000 0.055000 0.050000 1300 40 1.000000 1.528000 1.596000 600 51 1.000000 0.052000 0.052000 1.200000 0.044000 0.053000
1517586209737477517	200 46 0.900000 0.041000 0.037000 1300 40 1.000000 1.794000 1.878000 600 51 1.000000 0.051000 0.051000 1.200000 0.034000 0.041000
1517586210249661059	200 46 0.900000 0.046000 0.041000 1300 41 1.000000 1.379000 1.442000 600 51 1.000000 0.052000 0.052000 1.200000 0.042000 0.050000
1517586210762031184	200 46 0.900000 0.050000 0.045000 1300 41 1.000000 1.747000 1.829000 600 51 1.000000 0.052000 0.052000 1.200000 0.036000 0.043000
1517586211275581184	200 46 0.900000 0.050000 0.045000 1300 41 1.000000 1.804000 1.888000 600 51 1.000000 0.052000 0.052000 1.200000 0.042000 0.050000
1517586211791344809	200 46 0.900000 0.046000 0.042000 1300 41 1.000000 1.641000 1.714000 600 51 1.000000 0.052000 0.052000 1.200000 0.051000 0.061000
1517586212303713726	200 46 0.900000 0.051000 0.046000 1300 41 1.000000 1.818000 1.903000 600 51 1.000000 0.052000 0.052000 1.200000 0.034000 0.041000
1517586212816554476	200 46 0.900000 0.049000 0.044000 1300 41 1.000000 1.790000 1.874000 600 51 1.000000 0.052000 0.052000 1.200000 0.041000 0.049000
1517586213364421184	200 46 0.900000 0.041000 0.037000 1300 41 1.000000 1.627000 1.700000 600 51 1.000000 0.052000 0.052000 1.200000 0.043000 0.052000
1517586213880584059	200 46 0.900000 0.059000 0.053000 1300 41 1.000000 1.812000 1.897000 600 51 1.000000 0.052000 0.052000 1.200000 0.049000 0.059000
1517586214392401976	200 46 0.900000 0.051000 0.046000 1300 41 1.000000 1.784000 1.867000 600 51 1.000000 0.052000 0.052000 1.200000 0.039000 0.047000
1517586214904909643	200 46 0.900000 0.055000 0.050000 1300 41 1.000000 1.651000 1.725000 600 51 1.000000 0.052000 0.052000 1.200000 0.039000 0.047000
1517586215418633559	200 45 0.900000 0.050000 0.045000 1300 41 1.000000 1.883000 1.971000 600 48 1.000000 0.052000 0.052000 1.200000 0.034000 0.041000
1517586215931321643	200 46 0.900000 0.042000 0.038000 1300 41 1.000000 1.858000 1.945000 600 51 1.000000 0.052000 0.052000 1.200000 0.045000 0.054000
1517586216444303935	200 46 0.900000 0.059000 0.053000 1300 41 1.000000 1.515000 1.583000 600 51 1.000000 0.052000 0.052000 1.200000 0.051000 0.061000
1517586216957012685	200 46 0.900000 0.052000 0.047000 1300 41 1.000000 1.833000 1.919000 600 51 1.000000 0.052000 0.052000 1.200000 0.037000 0.044000
1517586217469502018	200 46 0.900000 0.040000 0.036000 1300 41 1.000000 1.594000 1.668000 600 50 1.000000 0.052000 0.052000 1.200000 0.045000 0.054000
1517586217982453226	200 46 0.900000 0.049000 0.044000 1300 41 1.000000 1.804000 1.888000 600 50 1.000000 0.052000 0.052000 1.200000 0.034000 0.041000
1517586218492644477	200 46 0.900000 0.054000 0.049000 1300 41 1.000000 1.884000 1.972000 600 52 1.000000 0.052000 0.052000 1.200000 0.045000 0.054000
1517586219005532102	200 46 0.900000 0.043000 0.039000 1300 41 1.000000 1.710000 1.788000 600 51 1.000000 0.052000 0.052000 1.200000 0.051000 0.061000
1517586219517728018	200 46 0.900000 0.049000 0.044000 1300 41 1.000000 1.805000 1.889000 600 52 1.000000 0.052000 0.052000 1.200000 0.033000 0.039000
1517586220030101643	200 46 0.900000 0.049000 0.044000 1300 41 1.000000 1.795000 1.879000 600 52 1.000000 0.052000 0.052000 1.200000 0.037000 0.044000
1517586220542379935	200 46 0.900000 0.050000 0.045000 1300 41 1.000000 1.803000 1.887000 600 51 1.000000 0.051000 0.051000 1.200000 0.034000 0.041000
1517586221054207643	200 46 0.900000 0.041000 0.037000 1300 41 1.000000 1.913000 2.002000 600 52 1.000000 0.052000 0.052000 1.200000 0.053000 0.064000
1517586221566920185	200 46 0.900000 0.056000 0.051000 1300 41 1.000000 1.450000 1.516000 600 52 1.000000 0.052000 0.052000 1.200000 0.042000 0.050000
1517586222079979644	200 46 0.900000 0.050000 0.045000 1300 41 1.000000 1.812000 1.897000 600 49 1.000000 0.052000 0.052000 1.200000 0.036000 0.043000
1517586222592431977	200 46 0.900000 0.041000 0.037000 1300 41 1.000000 1.881000 1.969000 600 51 1.000000 0.052000 0.052000 1.200000 0.045000 0.054000
1517586223101622019	200 46 0.900000 0.050000 0.045000 1300 41 1.000000 1.517000 1.586000 600 51 1.000000 0.052000 0.052000 1.200000 0.042000 0.050000
1517586223613864102	200 46 0.900000 0.059000 0.053000 1300 41 1.000000 1.868000 1.955000 600 51 1.000000 0.052000 0.052000 1.200000 0.053000 0.064000
1517586224125983227	200 46 0.900000 0.041000 0.037000 1300 41 1.000000 1.754000 1.836000 600 51 1.000000 0.052000 0.052000 1.200000 0.045000 0.054000
1517586224638483686	200 46 0.900000 0.049000 0.044000 1300 41 1.000000 1.824000 1.909000 600 50 1.000000 0.052000 0.052000 1.200000 0.032000 0.038000
1517586225150753102	200 46 0.900000 0.050000 0.045000 1300 41 1.000000 1.664000 1.740000 600 52 1.000000 0.052000 0.052000 1.200000 0.035000 0.042000
1517586225661535144	200 46 0.900000 0.041000 0.037000 1300 41 1.000000 1.841000 1.927000 600 51 1.000000 0.052000 0.052000 1.200000 0.046000 0.055000
1517586226173651561	200 46 0.900000 0.055000 0.050000 1300 41 1.000000 1.872000 1.959000 600 52 1.000000 0.052000 0.052000 1.200000 0.045000 0.054000
1517586226686086394	200 46 0.900000 0.050000 0.045000 1300 41 1.000000 1.634000 1.709000 600 52 1.000000 0.052000 0.052000 1.200000 0.038000 0.045000
1517586227195493603	200 46 0.900000 0.049000 0.044000 1300 41 1.000000 1.822000 1.907000 600 51 1.000000 0.052000 0.052000 1.200000 0.037000 0.044000
1517586227708169644	200 47 0.900000 0.057000 0.052000 1300 41 1.000000 1.858000 1.945000 600 52 1.000000 0.052000 0.052000 1.200000 0.035000 0.042000
1517586228222217519	200 46 0.900000 0.043000 0.039000 1300 41 1.000000 1.455000 1.520000 600 52 1.000000 0.052000 0.052000 1.200000 0.059000 0.071000
1517586228734891561	200 46 0.900000 0.053000 0.048000 1300 41 1.000000 1.727000 1.808000 600 50 1.000000 0.052000 0.052000 1.200000 0.033000 0.039000
1517586229247778978	200 46 0.900000 0.040000 0.036000 1300 41 1.000000 1.640000 1.715000 600 51 1.000000 0.052000 0.052000 1.200000 0.047000 0.056000
1517586229760326895	200 46 0.900000 0.051000 0.046000 1300 41 1.000000 1.855000 1.942000 600 51 1.000000 0.052000 0.052000 1.200000 0.044000 0.053000
1517586230272631186	200 47 0.900000 0.050000 0.045000 1300 41 1.000000 1.589000 1.663000 600 52 1.000000 0.051000 0.051000 1.200000 0.034000 0.041000
1517586230782437020	200 46 0.900000 0.045000 0.041000 1300 41 1.000000 1.851000 1.937000 600 51 1.000000 0.052000 0.052000 1.200000 0.057000 0.068000
1517586231295175228	200 46 0.900000 0.052000 0.047000 1300 41 1.000000 1.851000 1.937000 600 50 1.000000 0.052000 0.052000 1.200000 0.036000 0.043000
1517586231808059770	200 46 0.900000 0.052000 0.047000 1300 41 1.000000 1.558000 1.629000 600 51 1.000000 0.052000 0.052000 1.200000 0.043000 0.051000
1517586232320357187	200 46 0.900000 0.040000 0.036000 1300 41 1.000000 1.796000 1.880000 600 51 1.000000 0.052000 0.052000 1.200000 0.041000 0.049000
1517586232830911103	200 46 0.900000 0.049000 0.044000 1300 41 1.000000 1.814000 1.899000 600 52 1.000000 0.052000 0.052000 1.200000 0.031000 0.037000
1517586233343181312	200 46 0.900000 0.058000 0.053000 1300 41 1.000000 1.608000 1.680000 600 52 1.000000 0.052000 0.052000 1.200000 0.060000 0.072000
1517586233855255937	200 46 0.900000 0.051000 0.046000 1300 41 1.000000 1.805000 1.889000 600 51 1.000000 0.052000 0.052000 1.200000 0.037000 0.044000
1517586234367995770	200 46 0.900000 0.051000 0.046000 1300 41 1.000000 1.953000 2.044000 600 52 1.000000 0.052000 0.052000 1.200000 0.031000 0.037000
1517586234880546353	200 46 0.900000 0.040000 0.036000 1300 41 1.000000 1.540000 1.610000 600 52 1.000000 0.052000 0.052000 1.200000 0.042000 0.050000
1517586235390572187	200 46 0.900000 0.050000 0.045000 1300 41 1.000000 1.816000 1.901000 600 50 1.000000 0.052000 0.052000 1.200000 0.033000 0.039000
1517586235900372270	200 46 0.900000 0.060000 0.054000 1300 41 1.000000 1.977000 2.069000 600 52 1.000000 0.052000 0.052000 1.200000 0.061000 0.073000
1517586236413224104	200 46 0.900000 0.045000 0.041000 1300 41 1.000000 1.358000 1.420000 600 51 1.000000 0.052000 0.052000 1.200000 0.045000 0.054000
1517586236926079520	200 46 0.900000 0.049000 0.044000 1300 41 1.000000 1.864000 1.951000 600 50 1.000000 0.052000 0.052000 1.200000 0.035000 0.042000
1517586237452554354	200 46 0.900000 0.041000 0.037000 1300 41 1.000000 1.473000 1.540000 600 52 1.000000 0.052000 0.052000 1.200000 0.040000 0.048000
1517586237964688771	200 46 0.900000 0.043000 0.039000 1300 41 1.000000 1.499000 1.567000 600 50 1.000000 0.052000 0.052000 1.200000 0.033000 0.039000
1517586238480280021	200 46 0.900000 0.058000 0.052000 1300 41 1.000000 1.866000 1.953000 600 50 1.000000 0.052000 0.052000 1.200000 0.053000 0.064000
1517586238993139187	200 46 0.900000 0.050000 0.045000 1300 41 1.000000 1.481000 1.549000 600 52 1.000000 0.052000 0.052000 1.200000 0.046000 0.055000
1517586239505388562	200 46 0.900000 0.041000 0.037000 1300 41 1.000000 1.841000 1.927000 600 51 1.000000 0.052000 0.052000 1.200000 0.032000 0.038000
1517586240017959479	200 46 0.900000 0.050000 0.045000 1300 41 1.000000 1.774000 1.857000 600 50 1.000000 0.052000 0.052000 1.200000 0.036000 0.043000
1517586240527857896	200 46 0.900000 0.041000 0.037000 1300 41 1.000000 1.559000 1.630000 600 52 1.000000 0.052000 0.052000 1.200000 0.046000 0.055000
1517586241040455646	200 46 0.900000 0.056000 0.051000 1300 41 1.000000 1.829000 1.914000 600 51 1.000000 0.052000 0.052000 1.200000 0.049000 0.059000
1517586241553018354	200 46 0.900000 0.049000 0.044000 1300 41 1.000000 1.798000 1.882000 600 51 1.000000 0.052000 0.052000 1.200000 0.037000 0.044000
1517586242065321521	200 46 0.900000 0.040000 0.036000 1300 41 1.000000 1.599000 1.672000 600 52 1.000000 0.052000 0.052000 1.200000 0.046000 0.055000
1517586242593406813	200 46 0.900000 0.050000 0.045000 1300 41 1.000000 1.809000 1.894000 600 51 1.000000 0.052000 0.052000 1.200000 0.032000 0.038000
1517586243109267854	200 46 0.900000 0.058000 0.052000 1300 41 1.000000 1.897000 1.988000 600 51 1.000000 0.051000 0.051000 1.200000 0.051000 0.061000
1517586243621629230	200 46 0.900000 0.041000 0.037000 1300 41 1.000000 1.448000 1.514000 600 51 1.000000 0.052000 0.052000 1.200000 0.042000 0.050000
1517586244134423230	200 46 0.900000 0.049000 0.044000 1300 41 1.000000 1.865000 1.952000 600 50 1.000000 0.052000 0.052000 1.200000 0.035000 0.042000
1517586244644463688	200 46 0.900000 0.049000 0.044000 1300 41 1.000000 1.813000 1.898000 600 52 1.000000 0.052000 0.052000 1.200000 0.043000 0.051000
1517586245155149688	200 46 0.900000 0.043000 0.039000 1300 41 1.000000 1.502000 1.571000 600 51 1.000000 0.052000 0.052000 1.200000 0.038000 0.045000
1517586245667445230	200 47 0.900000 0.053000 0.048000 1300 41 1.000000 1.808000 1.892000 600 52 1.000000 0.052000 0.052000 1.200000 0.052000 0.062000
1517586246180008855	200 47 0.900000 0.041000 0.037000 1300 41 1.000000 1.754000 1.838000 600 52 1.000000 0.052000 0.052000 1.200000 0.047000 0.056000
1517586246702635147	200 46 0.900000 0.050000 0.045000 1300 41 1.000000 1.560000 1.631000 600 51 1.000000 0.052000 0.052000 1.200000 0.034000 0.041000
1517586247217181730	200 47 0.900000 0.058000 0.052000 1300 41 1.000000 1.835000 1.921000 600 51 1.000000 0.051000 0.051000 1.200000 0.042000 0.050000
1517586247729834272	200 47 0.900000 0.049000 0.044000 1300 41 1.000000 1.758000 1.838000 600 52 1.000000 0.052000 0.052000 1.200000 0.051000 0.061000
1517586248243060272	200 46 0.900000 0.059000 0.053000 1300 41 1.000000 1.903000 1.994000 600 49 1.000000 0.052000 0.052000 1.200000 0.053000 0.064000
1517586248755354605	200 47 0.900000 0.041000 0.037000 1300 41 1.000000 1.612000 1.686000 600 52 1.000000 0.052000 0.052000 1.200000 0.046000 0.055000
1517586249267763230	200 46 0.900000 0.050000 0.045000 1300 41 1.000000 1.808000 1.892000 600 51 1.000000 0.052000 0.052000 1.200000 0.036000 0.043000
1517586249780195522	200 47 0.900000 0.050000 0.045000 1300 41 1.000000 1.761000 1.843000 600 52 1.000000 0.052000 0.052000 1.200000 0.038000 0.045000
1517586250294315980	200 46 0.900000 0.045000 0.041000 1300 41 1.000000 1.562000 1.633000 600 51 1.000000 0.052000 0.052000 1.200000 0.044000 0.053000
1517586250806964147	200 47 0.900000 0.050000 0.045000 1300 41 1.000000 1.858000 1.945000 600 51 1.000000 0.052000 0.052000 1.200000 0.044000 0.053000
1517586251318989105	200 47 0.900000 0.051000 0.046000 1300 41 1.000000 1.831000 1.917000 600 52 1.000000 0.052000 0.052000 1.200000 0.044000 0.053000
1517586251831309522	200 47 0.900000 0.041000 0.037000 1300 41 1.000000 1.391000 1.454000 600 52 1.000000 0.052000 0.052000 1.200000 0.038000 0.045000
1517586252343600022	200 46 0.900000 0.050000 0.045000 1300 41 1.000000 1.835000 1.921000 600 50 1.000000 0.052000 0.052000 1.200000 0.034000 0.041000
1517586252855957772	200 47 0.900000 0.046000 0.042000 1300 41 1.000000 1.980000 2.073000 600 52 1.000000 0.052000 0.052000 1.200000 0.061000 0.073000
1517586253367529647	200 47 0.900000 0.051000 0.046000 1300 41 1.000000 1.734000 1.813000 600 51 1.000000 0.052000 0.052000 1.200000 0.035000 0.042000
1517586253880280522	200 47 0.900000 0.054000 0.049000 1300 41 1.000000 1.822000 1.907000 600 51 1.000000 0.052000 0.052000 1.200000 0.037000 0.044000
1517586254393029314	200 47 0.900000 0.041000 0.037000 1300 41 1.000000 1.610000 1.684000 600 52 1.000000 0.052000 0.052000 1.200000 0.045000 0.054000
1517586254903542523	200 46 0.900000 0.049000 0.044000 1300 41 1.000000 1.801000 1.885000 600 49 1.000000 0.052000 0.052000 1.200000 0.034000 0.041000
1517586255415719398	200 46 0.900000 0.059000 0.053000 1300 41 1.000000 1.857000 1.944000 600 51 1.000000 0.052000 0.052000 1.200000 0.055000 0.066000
1517586255928794148	200 47 0.900000 0.046000 0.042000 1300 41 1.000000 1.528000 1.598000 600 52 1.000000 0.052000 0.052000 1.200000 0.044000 0.053000
1517586256441042273	200 47 0.900000 0.049000 0.044000 1300 41 1.000000 1.803000 1.887000 600 52 1.000000 0.052000 0.052000 1.200000 0.033000 0.039000
1517586256953569689	200 47 0.900000 0.040000 0.036000 1300 41 1.000000 1.477000 1.544000 600 51 1.000000 0.052000 0.052000 1.200000 0.036000 0.043000
1517586257465754439	200 46 0.900000 0.050000 0.045000 1300 41 1.000000 1.816000 1.901000 600 50 1.000000 0.052000 0.052000 1.200000 0.036000 0.043000
1517586257985724356	200 47 0.900000 0.058000 0.052000 1300 41 1.000000 1.935000 2.027000 600 52 1.000000 0.052000 0.052000 1.200000 0.063000 0.076000
1517586258512204815	200 46 0.900000 0.043000 0.039000 1300 41 1.000000 1.650000 1.725000 600 51 1.000000 0.052000 0.052000 1.200000 0.035000 0.042000
1517586259026931606	200 47 0.900000 0.048000 0.043000 1300 41 1.000000 1.808000 1.892000 600 52 1.000000 0.052000 0.052000 1.200000 0.036000 0.043000
1517586259539703231	200 47 0.900000 0.045000 0.041000 1300 41 1.000000 1.619000 1.693000 600 52 1.000000 0.052000 0.052000 1.200000 0.046000 0.055000
1517586260049831731	200 47 0.900000 0.049000 0.044000 1300 41 1.000000 1.877000 1.965000 600 51 1.000000 0.052000 0.052000 1.200000 0.039000 0.047000
1517586260575536023	200 47 0.900000 0.049000 0.044000 1300 41 1.000000 1.794000 1.878000 600 52 1.000000 0.052000 0.052000 1.200000 0.039000 0.047000
1517586261090104065	200 47 0.900000 0.049000 0.044000 1300 41 1.000000 1.405000 1.471000 600 52 1.000000 0.052000 0.052000 1.200000 0.042000 0.050000
1517586261602591648	200 46 0.900000 0.049000 0.044000 1300 41 1.000000 1.819000 1.906000 600 49 1.000000 0.052000 0.052000 1.200000 0.035000 0.042000
1517586262124619398	200 46 0.900000 0.043000 0.039000 1300 41 1.000000 1.647000 1.722000 600 51 1.000000 0.052000 0.052000 1.200000 0.042000 0.050000
1517586262637915065	200 47 0.900000 0.057000 0.052000 1300 41 1.000000 1.987000 2.082000 600 52 1.000000 0.052000 0.052000 1.200000 0.052000 0.062000
1517586263150007940	200 47 0.900000 0.049000 0.044000 1300 41 1.000000 1.864000 1.951000 600 52 1.000000 0.052000 0.052000 1.200000 0.032000 0.038000
1517586263662651815	200 47 0.900000 0.049000 0.044000 1300 41 1.000000 1.439000 1.505000 600 52 1.000000 0.052000 0.052000 1.200000 0.043000 0.052000
1517586264212464190	200 46 0.900000 0.041000 0.037000 1300 41 1.000000 1.834000 1.920000 600 51 1.000000 0.052000 0.052000 1.200000 0.039000 0.047000
1517586264753337190	200 46 0.900000 0.054000 0.049000 1300 41 1.000000 1.839000 1.925000 600 49 1.000000 0.052000 0.052000 1.200000 0.039000 0.047000
1517586265268601940	200 47 0.900000 0.051000 0.046000 1300 41 1.000000 1.585000 1.657000 600 52 1.000000 0.052000 0.052000 1.200000 0.044000 0.053000
1517586265780893024	200 46 0.900000 0.049000 0.044000 1300 41 1.000000 1.827000 1.912000 600 51 1.000000 0.052000 0.052000 1.200000 0.044000 0.053000
1517586266290849066	200 46 0.900000 0.049000 0.044000 1300 41 1.000000 1.796000 1.880000 600 50 1.000000 0.052000 0.052000 1.200000 0.032000 0.038000
1517586266803379816	200 47 0.900000 0.052000 0.047000 1300 41 1.000000 1.744000 1.824000 600 52 1.000000 0.052000 0.052000 1.200000 0.033000 0.039000
1517586267316643149	200 47 0.900000 0.048000 0.043000 1300 41 1.000000 1.525000 1.595000 600 52 1.000000 0.052000 0.052000 1.200000 0.061000 0.073000
1517586267829198816	200 46 0.900000 0.049000 0.044000 1300 41 1.000000 1.823000 1.908000 600 50 1.000000 0.052000 0.052000 1.200000 0.035000 0.042000
1517586268341749441	200 47 0.900000 0.049000 0.044000 1300 41 1.000000 1.850000 1.936000 600 52 1.000000 0.052000 0.052000 1.200000 0.032000 0.038000
1517586268854117608	200 46 0.900000 0.047000 0.043000 1300 41 1.000000 1.449000 1.515000 600 52 1.000000 0.052000 0.052000 1.200000 0.043000 0.052000
1517586269368260608	200 46 0.900000 0.047000 0.043000 1300 41 1.000000 1.797000 1.881000 600 50 1.000000 0.052000 0.052000 1.200000 0.035000 0.042000
1517586269881403899	200 47 0.900000 0.051000 0.046000 1300 41 1.000000 1.604000 1.677000 600 52 1.000000 0.052000 0.052000 1.200000 0.060000 0.072000
1517586270393838483	200 46 0.900000 0.043000 0.039000 1300 41 1.000000 1.802000 1.886000 600 52 1.000000 0.052000 0.052000 1.200000 0.039000 0.047000
1517586270906565691	200 46 0.900000 0.054000 0.049000 1300 41 1.000000 1.772000 1.855000 600 49 1.000000 0.052000 0.052000 1.200000 0.038000 0.045000
1517586271419108899	200 46 0.900000 0.043000 0.039000 1300 41 1.000000 1.447000 1.513000 600 51 1.000000 0.052000 0.052000 1.200000 0.044000 0.053000
1517586271928456816	200 47 0.900000 0.050000 0.045000 1300 41 1.000000 1.822000 1.907000 600 52 1.000000 0.052000 0.052000 1.200000 0.035000 0.042000
1517586272440884608	200 47 0.900000 0.058000 0.052000 1300 41 1.000000 1.904000 1.995000 600 52 1.000000 0.052000 0.052000 1.200000 0.052000 0.062000
1517586272952841566	200 47 0.900000 0.040000 0.036000 1300 41 1.000000 1.463000 1.530000 600 51 1.000000 0.052000 0.052000 1.200000 0.049000 0.059000
1517586273465275316	200 46 0.900000 0.053000 0.048000 1300 41 1.000000 1.799000 1.883000 600 50 1.000000 0.052000 0.052000 1.200000 0.033000 0.039000
1517586273977585816	200 47 0.900000 0.050000 0.045000 1300 41 1.000000 1.934000 2.024000 600 52 1.000000 0.052000 0.052000 1.200000 0.032000 0.038000
1517586274491714692	200 46 0.900000 0.040000 0.036000 1300 41 1.000000 1.627000 1.701000 600 51 1.000000 0.052000 0.052000 1.200000 0.054000 0.065000
1517586275001598733	200 46 0.900000 0.055000 0.050000 1300 41 1.000000 1.841000 1.929000 600 51 1.000000 0.052000 0.052000 1.200000 0.035000 0.042000
1517586275514310650	200 47 0.900000 0.048000 0.043000 1300 41 1.000000 1.701000 1.779000 600 52 1.000000 0.052000 0.052000 1.200000 0.053000 0.064000
1517586276040652025	200 47 0.900000 0.043000 0.039000 1300 41 1.000000 1.819000 1.904000 600 51 1.000000 0.052000 0.052000 1.200000 0.032000 0.038000
1517586276554909025	200 47 0.900000 0.049000 0.044000 1300 41 1.000000 1.785000 1.868000 600 52 1.000000 0.052000 0.052000 1.200000 0.038000 0.045000
1517586277064254109	200 47 0.900000 0.058000 0.052000 1300 41 1.000000 1.585000 1.657000 600 52 1.000000 0.052000 0.052000 1.200000 0.044000 0.053000
1517586277577417650	200 46 0.900000 0.053000 0.048000 1300 41 1.000000 1.850000 1.936000 600 49 1.000000 0.052000 0.052000 1.200000 0.046000 0.055000
1517586278089981900	200 47 0.900000 0.044000 0.040000 1300 41 1.000000 1.896000 1.985000 600 52 1.000000 0.052000 0.052000 1.200000 0.044000 0.053000
1517586278616097734	200 47 0.900000 0.047000 0.043000 1300 41 1.000000 1.565000 1.636000 600 52 1.000000 0.052000 0.052000 1.200000 0.033000 0.039000
1517586279130682900	200 47 0.900000 0.050000 0.045000 1300 41 1.000000 1.783000 1.868000 600 52 1.000000 0.052000 0.052000 1.200000 0.036000 0.043000
1517586279643021525	200 47 0.900000 0.051000 0.046000 1300 41 1.000000 1.615000 1.690000 600 51 1.000000 0.052000 0.052000 1.200000 0.033000 0.039000
1517586280155670651	200 46 0.900000 0.055000 0.050000 1300 41 1.000000 1.832000 1.918000 600 51 1.000000 0.052000 0.052000 1.200000 0.050000 0.060000
1517586280668239026	200 47 0.900000 0.041000 0.037000 1300 41 1.000000 1.512000 1.583000 600 52 1.000000 0.052000 0.052000 1.200000 0.046000 0.055000
1517586281181160651	200 46 0.900000 0.050000 0.045000 1300 41 1.000000 1.810000 1.895000 600 51 1.000000 0.052000 0.052000 1.200000 0.033000 0.039000
1517586281691501276	200 47 0.900000 0.056000 0.051000 1300 41 1.000000 1.735000 1.816000 600 52 1.000000 0.052000 0.052000 1.200000 0.038000 0.045000
1517586282204115692	200 47 0.900000 0.050000 0.045000 1300 41 1.000000 1.568000 1.640000 600 52 1.000000 0.052000 0.052000 1.200000 0.054000 0.065000
1517586282716580568	200 47 0.900000 0.049000 0.044000 1300 41 1.000000 1.833000 1.919000 600 51 1.000000 0.052000 0.052000 1.200000 0.036000 0.043000
1517586283228948568	200 47 0.900000 0.049000 0.044000 1300 41 1.000000 1.807000 1.891000 600 52 1.000000 0.052000 0.052000 1.200000 0.045000 0.054000
1517586283741066901	200 47 0.900000 0.047000 0.042000 1300 41 1.000000 1.429000 1.494000 600 52 1.000000 0.052000 0.052000 1.200000 0.034000 0.041000
1517586284255005943	200 46 0.900000 0.050000 0.045000 1300 41 1.000000 1.782000 1.865000 600 50 1.000000 0.052000 0.052000 1.200000 0.035000 0.042000
1517586284770854151	200 47 0.900000 0.051000 0.046000 1300 41 1.000000 1.758000 1.840000 600 52 1.000000 0.052000 0.052000 1.200000 0.065000 0.078000
1517586285283526526	200 47 0.900000 0.049000 0.044000 1300 41 1.000000 1.784000 1.866000 600 52 1.000000 0.052000 0.052000 1.200000 0.035000 0.042000
1517586285796194485	200 46 0.900000 0.050000 0.045000 1300 41 1.000000 1.884000 1.972000 600 51 1.000000 0.052000 0.052000 1.200000 0.035000 0.042000
1517586286308458610	200 47 0.900000 0.041000 0.037000 1300 41 1.000000 1.654000 1.728000 600 52 1.000000 0.052000 0.052000 1.200000 0.044000 0.053000
1517586286821384401	200 46 0.900000 0.054000 0.049000 1300 41 1.000000 1.891000 1.979000 600 49 1.000000 0.052000 0.052000 1.200000 0.038000 0.045000
1517586287334085776	200 47 0.900000 0.051000 0.046000 1300 41 1.000000 1.802000 1.886000 600 51 1.000000 0.052000 0.052000 1.200000 0.047000 0.056000
1517586287843265276	200 47 0.900000 0.041000 0.037000 1300 41 1.000000 1.432000 1.497000 600 52 1.000000 0.052000 0.052000 1.200000 0.037000 0.044000
1517586288355957818	200 47 0.900000 0.058000 0.052000 1300 41 1.000000 1.872000 1.959000 600 52 1.000000 0.052000 0.052000 1.200000 0.049000 0.059000
1517586288868335235	200 47 0.900000 0.042000 0.038000 1300 41 1.000000 1.407000 1.471000 600 51 1.000000 0.052000 0.052000 1.200000 0.033000 0.039000
1517586289378691735	200 46 0.900000 0.055000 0.050000 1300 41 1.000000 1.809000 1.894000 600 50 1.000000 0.052000 0.052000 1.200000 0.036000 0.043000
1517586289891285443	200 47 0.900000 0.050000 0.045000 1300 41 1.000000 1.786000 1.869000 600 52 1.000000 0.052000 0.052000 1.200000 0.057000 0.068000
1517586290403868443	200 46 0.900000 0.050000 0.045000 1300 41 1.000000 1.656000 1.732000 600 51 1.000000 0.052000 0.052000 1.200000 0.039000 0.047000
1517586290916876610	200 46 0.900000 0.050000 0.045000 1300 41 1.000000 1.799000 1.883000 600 51 1.000000 0.052000 0.052000 1.200000 0.036000 0.043000
1517586291427761069	200 47 0.900000 0.041000 0.037000 1300 41 1.000000 1.748000 1.828000 600 52 1.000000 0.052000 0.052000 1.200000 0.046000 0.055000
1517586291940140402	200 47 0.900000 0.055000 0.050000 1300 41 1.000000 1.865000 1.952000 600 51 1.000000 0.052000 0.052000 1.200000 0.049000 0.059000
1517586292452683069	200 47 0.900000 0.050000 0.045000 1300 41 1.000000 1.872000 1.959000 600 52 1.000000 0.052000 0.052000 1.200000 0.036000 0.043000
1517586292965388694	200 46 0.900000 0.042000 0.038000 1300 41 1.000000 1.645000 1.719000 600 51 1.000000 0.052000 0.052000 1.200000 0.047000 0.056000
1517586293477765694	200 47 0.900000 0.049000 0.044000 1300 41 1.000000 1.712000 1.792000 600 51 1.000000 0.052000 0.052000 1.200000 0.035000 0.042000
1517586293989184527	200 46 0.900000 0.049000 0.044000 1300 41 1.000000 1.796000 1.880000 600 51 1.000000 0.052000 0.052000 1.200000 0.033000 0.039000
1517586294514262569	200 46 0.900000 0.051000 0.046000 1300 41 1.000000 1.621000 1.697000 600 50 1.000000 0.052000 0.052000 1.200000 0.061000 0.073000
1517586295028971944	200 47 0.900000 0.048000 0.043000 1300 41 1.000000 1.547000 1.618000 600 51 1.000000 0.052000 0.052000 1.200000 0.033000 0.039000
1517586295541351444	200 46 0.900000 0.049000 0.044000 1300 41 1.000000 1.799000 1.883000 600 51 1.000000 0.052000 0.052000 1.200000 0.033000 0.039000
1517586296053842652	200 47 0.900000 0.050000 0.045000 1300 41 1.000000 1.838000 1.924000 600 52 1.000000 0.052000 0.052000 1.200000 0.044000 0.053000
1517586296572865152	200 46 0.900000 0.050000 0.045000 1300 41 1.000000 1.525000 1.595000 600 51 1.000000 0.052000 0.052000 1.200000 0.043000 0.051000
1517586297095392194	200 47 0.900000 0.056000 0.051000 1300 41 1.000000 1.822000 1.907000 600 52 1.000000 0.052000 0.052000 1.200000 0.043000 0.051000
1517586297607680153	200 47 0.900000 0.041000 0.037000 1300 41 1.000000 1.769000 1.852000 600 52 1.000000 0.052000 0.052000 1.200000 0.042000 0.050000
1517586298120174236	200 47 0.900000 0.049000 0.044000 1300 41 1.000000 1.774000 1.857000 600 51 1.000000 0.052000 0.052000 1.200000 0.033000 0.039000
1517586298630014069	200 46 0.900000 0.041000 0.037000 1300 41 1.000000 1.832000 1.916000 600 51 1.000000 0.052000 0.052000 1.200000 0.042000 0.050000
1517586299140928236	200 46 0.900000 0.050000 0.045000 1300 41 1.000000 1.798000 1.882000 600 51 1.000000 0.052000 0.052000 1.200000 0.048000 0.058000
1517586299653516861	200 46 0.900000 0.057000 0.052000 1300 41 1.000000 1.837000 1.923000 600 50 1.000000 0.052000 0.052000 1.200000 0.047000 0.056000
1517586300165913361	200 47 0.900000 0.046000 0.041000 1300 41 1.000000 1.625000 1.699000 600 52 1.000000 0.051000 0.051000 1.200000 0.044000 0.053000
1517586300678636736	200 47 0.900000 0.043000 0.039000 1300 41 1.000000 1.824000 1.909000 600 52 1.000000 0.052000 0.052000 1.200000 0.038000 0.045000
1517586301191633570	200 46 0.900000 0.055000 0.050000 1300 41 1.000000 1.784000 1.867000 600 50 1.000000 0.052000 0.052000 1.200000 0.042000 0.050000
1517586301703982611	200 47 0.900000 0.055000 0.050000 1300 41 1.000000 1.570000 1.642000 600 52 1.000000 0.052000 0.052000 1.200000 0.057000 0.068000
1517586302216787237	200 47 0.900000 0.047000 0.043000 1300 41 1.000000 1.901000 1.990000 600 51 1.000000 0.052000 0.052000 1.200000 0.033000 0.039000
1517586302729041945	200 47 0.900000 0.044000 0.040000 1300 41 1.000000 1.945000 2.036000 600 51 1.000000 0.052000 0.052000 1.200000 0.033000 0.039000
1517586303241198695	200 47 0.900000 0.047000 0.043000 1300 41 1.000000 1.682000 1.759000 600 52 1.000000 0.052000 0.052000 1.200000 0.048000 0.058000
1517586303752799112	200 46 0.900000 0.050000 0.045000 1300 41 1.000000 1.816000 1.901000 600 49 1.000000 0.052000 0.052000 1.200000 0.033000 0.039000
1517586304265996195	200 46 0.900000 0.052000 0.047000 1300 41 1.000000 1.686000 1.763000 600 52 1.000000 0.052000 0.052000 1.200000 0.053000 0.064000
1517586304778921445	200 47 0.900000 0.050000 0.045000 1300 41 1.000000 1.841000 1.927000 600 52 1.000000 0.052000 0.052000 1.200000 0.042000 0.050000
1517586305291447279	200 47 0.900000 0.050000 0.045000 1300 41 1.000000 1.816000 1.901000 600 52 1.000000 0.052000 0.052000 1.200000 0.034000 0.041000
1517586305804506237	200 47 0.900000 0.041000 0.037000 1300 41 1.000000 1.561000 1.632000 600 51 1.000000 0.052000 0.052000 1.200000 0.042000 0.050000
1517586306320970904	200 46 0.900000 0.050000 0.045000 1300 41 1.000000 1.804000 1.888000 600 50 1.000000 0.052000 0.052000 1.200000 0.040000 0.048000
1517586306833378904	200 47 0.900000 0.055000 0.050000 1300 41 1.000000 1.882000 1.970000 600 52 1.000000 0.052000 0.052000 1.200000 0.041000 0.049000
1517586307343602779	200 46 0.900000 0.049000 0.044000 1300 41 1.000000 1.900000 1.989000 600 51 1.000000 0.052000 0.052000 1.200000 0.035000 0.042000
1517586307856337321	200 47 0.900000 0.060000 0.054000 1300 41 1.000000 1.757000 1.841000 600 52 1.000000 0.052000 0.052000 1.200000 0.045000 0.054000
1517586308368909779	200 47 0.900000 0.041000 0.037000 1300 41 1.000000 1.655000 1.731000 600 52 1.000000 0.052000 0.052000 1.200000 0.046000 0.055000
1517586308880650946	200 47 0.900000 0.051000 0.046000 1300 41 1.000000 1.835000 1.921000 600 51 1.000000 0.052000 0.052000 1.200000 0.036000 0.043000
1517586309393245529	200 47 0.900000 0.050000 0.045000 1300 41 1.000000 1.725000 1.804000 600 52 1.000000 0.052000 0.052000 1.200000 0.045000 0.054000
1517586309905817946	200 47 0.900000 0.050000 0.045000 1300 41 1.000000 1.804000 1.888000 600 52 1.000000 0.052000 0.052000 1.200000 0.050000 0.060000
1517586310418343362	200 47 0.900000 0.050000 0.045000 1300 41 1.000000 1.799000 1.883000 600 51 1.000000 0.052000 0.052000 1.200000 0.032000 0.038000
1517586310930924529	200 47 0.900000 0.041000 0.037000 1300 41 1.000000 1.499000 1.567000 600 52 1.000000 0.052000 0.052000 1.200000 0.040000 0.048000
1517586311440138779	200 47 0.900000 0.053000 0.048000 1300 41 1.000000 1.830000 1.916000 600 52 1.000000 0.052000 0.052000 1.200000 0.054000 0.065000
1517586311953503321	200 47 0.900000 0.052000 0.047000 1300 41 1.000000 1.843000 1.929000 600 51 1.000000 0.052000 0.052000 1.200000 0.038000 0.045000
1517586312466118029	200 47 0.900000 0.040000 0.036000 1300 41 1.000000 1.510000 1.577000 600 52 1.000000 0.052000 0.052000 1.200000 0.045000 0.054000
1517586312979094821	200 46 0.900000 0.049000 0.044000 1300 41 1.000000 1.868000 1.955000 600 49 1.000000 0.052000 0.052000 1.200000 0.032000 0.038000
1517586313491679155	200 47 0.900000 0.049000 0.044000 1300 41 1.000000 1.779000 1.862000 600 52 1.000000 0.052000 0.052000 1.200000 0.032000 0.038000
1517586314000841821	200 47 0.900000 0.051000 0.046000 1300 41 1.000000 1.679000 1.756000 600 52 1.000000 0.052000 0.052000 1.200000 0.063000 0.076000
1517586314513073946	200 47 0.900000 0.050000 0.045000 1300 42 1.000000 1.853000 1.940000 600 52 1.000000 0.052000 0.052000 1.200000 0.031000 0.037000
1517586315025576113	200 47 0.900000 0.050000 0.045000 1300 41 1.000000 1.600000 1.673000 600 52 1.000000 0.052000 0.052000 1.200000 0.032000 0.038000
1517586315538342655	200 47 0.900000 0.049000 0.044000 1300 41 1.000000 1.811000 1.896000 600 51 1.000000 0.052000 0.052000 1.200000 0.035000 0.042000
1517586316047799488	200 47 0.900000 0.041000 0.037000 1300 41 1.000000 1.605000 1.678000 600 52 1.000000 0.052000 0.052000 1.200000 0.043000 0.052000
1517586316560077822	200 47 0.900000 0.054000 0.049000 1300 41 1.000000 1.916000 2.006000 600 51 1.000000 0.052000 0.052000 1.200000 0.042000 0.050000
1517586317072399447	200 47 0.900000 0.053000 0.048000 1300 41 1.000000 1.778000 1.861000 600 52 1.000000 0.052000 0.052000 1.200000 0.048000 0.058000
1517586317585261155	200 47 0.900000 0.041000 0.037000 1300 41 1.000000 1.534000 1.604000 600 52 1.000000 0.052000 0.052000 1.200000 0.038000 0.045000
1517586318098091738	200 47 0.900000 0.050000 0.045000 1300 41 1.000000 1.814000 1.899000 600 52 1.000000 0.052000 0.052000 1.200000 0.035000 0.042000
1517586318611350363	200 47 0.900000 0.053000 0.048000 1300 41 1.000000 1.843000 1.929000 600 51 1.000000 0.052000 0.052000 1.200000 0.047000 0.056000
1517586319126650530	200 47 0.900000 0.050000 0.045000 1300 41 1.000000 1.500000 1.569000 600 52 1.000000 0.052000 0.052000 1.200000 0.053000 0.064000
1517586319641371530	200 46 0.900000 0.050000 0.045000 1300 41 1.000000 1.801000 1.885000 600 50 1.000000 0.052000 0.052000 1.200000 0.034000 0.041000
1517586320154120447	200 47 0.900000 0.050000 0.045000 1300 41 1.000000 1.929000 2.019000 600 52 1.000000 0.052000 0.052000 1.200000 0.047000 0.056000
1517586320680153655	200 47 0.900000 0.045000 0.041000 1300 41 1.000000 1.384000 1.447000 600 52 1.000000 0.052000 0.052000 1.200000 0.036000 0.043000
1517586321198991739	200 46 0.900000 0.055000 0.050000 1300 41 1.000000 1.808000 1.892000 600 49 1.000000 0.052000 0.052000 1.200000 0.038000 0.045000
1517586321711970780	200 47 0.900000 0.051000 0.046000 1300 41 1.000000 1.900000 1.989000 600 52 1.000000 0.052000 0.052000 1.200000 0.060000 0.072000
1517586322224910281	200 47 0.900000 0.050000 0.045000 1300 41 1.000000 1.556000 1.626000 600 52 1.000000 0.052000 0.052000 1.200000 0.037000 0.044000
1517586322734789489	200 47 0.900000 0.050000 0.045000 1300 41 1.000000 1.773000 1.856000 600 51 1.000000 0.052000 0.052000 1.200000 0.033000 0.039000
1517586323247366739	200 47 0.900000 0.053000 0.048000 1300 41 1.000000 1.756000 1.838000 600 52 1.000000 0.052000 0.052000 1.200000 0.043000 0.051000
1517586323760844281	200 47 0.900000 0.048000 0.043000 1300 41 1.000000 1.579000 1.651000 600 52 1.000000 0.052000 0.052000 1.200000 0.056000 0.067000
1517586324276070406	200 47 0.900000 0.049000 0.044000 1300 41 1.000000 1.678000 1.756000 600 51 1.000000 0.052000 0.052000 1.200000 0.036000 0.043000
1517586324785540364	200 47 0.900000 0.049000 0.044000 1300 41 1.000000 1.787000 1.870000 600 52 1.000000 0.052000 0.052000 1.200000 0.035000 0.042000
1517586325298375948	200 47 0.900000 0.050000 0.045000 1300 41 1.000000 1.757000 1.839000 600 52 1.000000 0.052000 0.052000 1.200000 0.052000 0.062000
1517586325815672989	200 46 0.900000 0.049000 0.044000 1300 41 1.000000 1.836000 1.922000 600 52 1.000000 0.052000 0.052000 1.200000 0.035000 0.042000
1517586326334332614	200 47 0.900000 0.058000 0.052000 1300 41 1.000000 1.787000 1.870000 600 52 1.000000 0.051000 0.051000 1.200000 0.053000 0.064000
1517586326846431823	200 47 0.900000 0.041000 0.037000 1300 41 1.000000 1.656000 1.732000 600 52 1.000000 0.052000 0.052000 1.200000 0.043000 0.052000
1517586327359120198	200 46 0.900000 0.055000 0.050000 1300 41 1.000000 1.811000 1.896000 600 51 1.000000 0.052000 0.052000 1.200000 0.036000 0.043000
1517586327871781990	200 46 0.900000 0.049000 0.044000 1300 41 1.000000 1.760000 1.842000 600 50 1.000000 0.052000 0.052000 1.200000 0.039000 0.047000
1517586328381199073	200 46 0.900000 0.041000 0.037000 1300 41 1.000000 1.619000 1.695000 600 51 1.000000 0.052000 0.052000 1.200000 0.046000 0.055000
1517586328893930448	200 47 0.900000 0.059000 0.053000 1300 41 1.000000 1.550000 1.621000 600 51 1.000000 0.052000 0.052000 1.200000 0.052000 0.062000
1517586329406278365	200 46 0.900000 0.049000 0.044000 1300 41 1.000000 1.791000 1.875000 600 50 1.000000 0.052000 0.052000 1.200000 0.036000 0.043000
1517586329918741906	200 47 0.900000 0.042000 0.038000 1300 41 1.000000 1.807000 1.891000 600 51 1.000000 0.052000 0.052000 1.200000 0.048000 0.058000
1517586330431171948	200 46 0.900000 0.049000 0.044000 1300 41 1.000000 1.327000 1.388000 600 51 1.000000 0.052000 0.052000 1.200000 0.035000 0.042000
1517586330940319990	200 47 0.900000 0.050000 0.045000 1300 41 1.000000 1.789000 1.873000 600 52 1.000000 0.052000 0.052000 1.200000 0.035000 0.042000
1517586331449999740	200 47 0.900000 0.046000 0.042000 1300 41 1.000000 1.994000 2.087000 600 52 1.000000 0.052000 0.052000 1.200000 0.058000 0.070000
1517586331962175282	200 46 0.900000 0.048000 0.043000 1300 41 1.000000 1.444000 1.510000 600 51 1.000000 0.052000 0.052000 1.200000 0.036000 0.043000
1517586332488509073	200 47 0.900000 0.049000 0.044000 1300 41 1.000000 1.756000 1.840000 600 51 1.000000 0.052000 0.052000 1.200000 0.034000 0.041000
1517586333002855657	200 46 0.900000 0.046000 0.042000 1300 41 1.000000 1.945000 2.036000 600 51 1.000000 0.052000 0.052000 1.200000 0.047000 0.056000
1517586333571166324	200 47 0.900000 0.055000 0.050000 1300 41 1.000000 1.647000 1.722000 600 51 1.000000 0.052000 0.052000 1.200000 0.048000 0.057000
1517586334084054407	200 47 0.900000 0.049000 0.044000 1300 41 1.000000 1.727000 1.808000 600 52 1.000000 0.052000 0.052000 1.200000 0.036000 0.043000
1517586334596531657	200 47 0.900000 0.048000 0.043000 1300 41 1.000000 1.484000 1.552000 600 52 1.000000 0.052000 0.052000 1.200000 0.043000 0.051000
1517586335109565449	200 46 0.900000 0.049000 0.044000 1300 41 1.000000 1.755000 1.837000 600 49 1.000000 0.052000 0.052000 1.200000 0.034000 0.041000
1517586335623772990	200 46 0.900000 0.045000 0.041000 1300 41 1.000000 1.775000 1.856000 600 51 1.000000 0.051000 0.051000 1.200000 0.037000 0.044000
1517586336136442032	200 47 0.900000 0.054000 0.049000 1300 41 1.000000 1.998000 2.093000 600 52 1.000000 0.052000 0.052000 1.200000 0.058000 0.070000
1517586336649109282	200 47 0.900000 0.049000 0.044000 1300 41 1.000000 1.841000 1.927000 600 52 1.000000 0.052000 0.052000 1.200000 0.034000 0.041000
1517586337161926032	200 47 0.900000 0.043000 0.039000 1300 41 1.000000 1.798000 1.882000 600 52 1.000000 0.052000 0.052000 1.200000 0.040000 0.048000
1517586337674830907	200 46 0.900000 0.049000 0.044000 1300 41 1.000000 1.776000 1.859000 600 51 1.000000 0.052000 0.052000 1.200000 0.033000 0.039000
1517586338186294532	200 47 0.900000 0.048000 0.043000 1300 41 1.000000 1.578000 1.650000 600 52 1.000000 0.052000 0.052000 1.200000 0.045000 0.054000
1517586338698677783	200 47 0.900000 0.052000 0.047000 1300 41 1.000000 1.868000 1.957000 600 52 1.000000 0.052000 0.052000 1.200000 0.051000 0.061000
1517586339211591491	200 46 0.900000 0.050000 0.045000 1300 41 1.000000 1.860000 1.947000 600 50 1.000000 0.052000 0.052000 1.200000 0.035000 0.042000
1517586339724005616	200 47 0.900000 0.045000 0.041000 1300 41 1.000000 1.499000 1.567000 600 52 1.000000 0.052000 0.052000 1.200000 0.046000 0.055000
1517586340235743074	200 47 0.900000 0.045000 0.041000 1300 41 1.000000 1.817000 1.902000 600 52 1.000000 0.052000 0.052000 1.200000 0.036000 0.043000
1517586340747414074	200 47 0.900000 0.054000 0.049000 1300 41 1.000000 1.849000 1.937000 600 52 1.000000 0.052000 0.052000 1.200000 0.048000 0.057000
1517586341259983783	200 46 0.900000 0.053000 0.048000 1300 41 1.000000 1.673000 1.751000 600 52 1.000000 0.052000 0.052000 1.200000 0.045000 0.054000
1517586341772867908	200 47 0.900000 0.050000 0.045000 1300 41 1.000000 1.832000 1.918000 600 50 1.000000 0.052000 0.052000 1.200000 0.031000 0.037000
1517586342282238450	200 47 0.900000 0.046000 0.042000 1300 41 1.000000 1.600000 1.675000 600 52 1.000000 0.052000 0.052000 1.200000 0.034000 0.041000
1517586342791956116	200 46 0.900000 0.049000 0.044000 1300 41 1.000000 1.886000 1.976000 600 51 1.000000 0.052000 0.052000 1.200000 0.046000 0.055000
1517586343304095200	200 47 0.900000 0.059000 0.053000 1300 41 1.000000 1.785000 1.870000 600 52 1.000000 0.052000 0.052000 1.200000 0.052000 0.062000
1517586343816533325	200 47 0.900000 0.042000 0.038000 1300 41 1.000000 1.678000 1.755000 600 52 1.000000 0.052000 0.052000 1.200000 0.039000 0.047000
1517586344343771492	200 47 0.900000 0.047000 0.043000 1300 41 1.000000 1.795000 1.879000 600 51 1.000000 0.052000 0.052000 1.200000 0.034000 0.041000
1517586344858402283	200 47 0.900000 0.055000 0.050000 1300 41 1.000000 1.803000 1.889000 600 51 1.000000 0.052000 0.052000 1.200000 0.038000 0.045000
1517586345368733617	200 47 0.900000 0.045000 0.041000 1300 41 1.000000 1.648000 1.723000 600 52 1.000000 0.052000 0.052000 1.200000 0.046000 0.055000
1517586345882172950	200 46 0.900000 0.053000 0.048000 1300 41 1.000000 1.936000 2.028000 600 49 1.000000 0.052000 0.052000 1.200000 0.044000 0.053000
1517586346394847783	200 47 0.900000 0.041000 0.037000 1300 41 1.000000 1.512000 1.581000 600 51 1.000000 0.052000 0.052000 1.200000 0.045000 0.054000
1517586346907450533	200 47 0.900000 0.053000 0.048000 1300 41 1.000000 1.809000 1.894000 600 52 1.000000 0.052000 0.052000 1.200000 0.035000 0.042000
1517586347419805950	200 47 0.900000 0.045000 0.041000 1300 41 1.000000 1.774000 1.859000 600 52 1.000000 0.052000 0.052000 1.200000 0.034000 0.041000
1517586347929131784	200 47 0.900000 0.047000 0.043000 1300 41 1.000000 1.560000 1.631000 600 52 1.000000 0.052000 0.052000 1.200000 0.048000 0.058000
1517586348441242909	200 47 0.900000 0.058000 0.052000 1300 41 1.000000 1.827000 1.912000 600 51 1.000000 0.052000 0.052000 1.200000 0.048000 0.057000
1517586348954678492	200 47 0.900000 0.042000 0.038000 1300 41 1.000000 1.736000 1.815000 600 52 1.000000 0.052000 0.052000 1.200000 0.032000 0.038000
1517586349469020825	200 47 0.900000 0.051000 0.046000 1300 41 1.000000 1.707000 1.787000 600 52 1.000000 0.052000 0.052000 1.200000 0.047000 0.056000
1517586349981801076	200 46 0.900000 0.050000 0.045000 1300 41 1.000000 1.778000 1.861000 600 50 1.000000 0.052000 0.052000 1.200000 0.034000 0.041000
1517586350496365451	200 47 0.900000 0.054000 0.049000 1300 41 1.000000 1.593000 1.667000 600 52 1.000000 0.052000 0.052000 1.200000 0.047000 0.056000
1517586351006000951	200 46 0.900000 0.043000 0.039000 1300 41 1.000000 1.777000 1.860000 600 51 1.000000 0.052000 0.052000 1.200000 0.043000 0.051000
1517586351518687492	200 46 0.900000 0.051000 0.046000 1300 41 1.000000 1.833000 1.920000 600 49 1.000000 0.052000 0.052000 1.200000 0.033000 0.039000
1517586352031117951	200 47 0.900000 0.049000 0.044000 1300 41 1.000000 1.807000 1.890000 600 51 1.000000 0.052000 0.052000 1.200000 0.033000 0.039000
1517586352543349159	200 46 0.900000 0.041000 0.037000 1300 41 1.000000 1.439000 1.505000 600 52 1.000000 0.052000 0.052000 1.200000 0.047000 0.056000
1517586353071599784	200 46 0.900000 0.060000 0.054000 1300 41 1.000000 1.881000 1.971000 600 49 1.000000 0.052000 0.052000 1.200000 0.052000 0.062000
1517586353599719701	200 47 0.900000 0.049000 0.044000 1300 41 1.000000 1.845000 1.931000 600 52 1.000000 0.052000 0.052000 1.200000 0.038000 0.045000
1517586354128047576	200 46 0.900000 0.042000 0.038000 1300 41 1.000000 1.580000 1.652000 600 51 1.000000 0.052000 0.052000 1.200000 0.043000 0.051000
1517586354642500618	200 47 0.900000 0.051000 0.046000 1300 41 1.000000 1.796000 1.880000 600 51 1.000000 0.052000 0.052000 1.200000 0.042000 0.050000
1517586355151876701	200 47 0.900000 0.049000 0.044000 1300 41 1.000000 1.755000 1.837000 600 52 1.000000 0.052000 0.052000 1.200000 0.038000 0.045000
1517586355669679535	200 47 0.900000 0.051000 0.046000 1300 41 1.000000 1.785000 1.868000 600 52 1.000000 0.052000 0.052000 1.200000 0.062000 0.075000
1517586356181850576	200 47 0.900000 0.042000 0.038000 1300 41 1.000000 1.482000 1.550000 600 52 1.000000 0.052000 0.052000 1.200000 0.034000 0.041000
1517586356707103243	200 47 0.900000 0.048000 0.043000 1300 41 1.000000 1.765000 1.847000 600 52 1.000000 0.052000 0.052000 1.200000 0.046000 0.055000
1517586357221940285	200 46 0.900000 0.043000 0.039000 1300 41 1.000000 1.796000 1.880000 600 51 1.000000 0.052000 0.052000 1.200000 0.046000 0.055000
1517586357735617743	200 46 0.900000 0.050000 0.045000 1300 41 1.000000 1.816000 1.901000 600 51 1.000000 0.052000 0.052000 1.200000 0.034000 0.041000
1517586358248407077	200 46 0.900000 0.059000 0.053000 1300 41 1.000000 1.762000 1.846000 600 50 1.000000 0.052000 0.052000 1.200000 0.061000 0.073000
1517586358761330493	200 46 0.900000 0.043000 0.039000 1300 41 1.000000 1.631000 1.706000 600 52 1.000000 0.052000 0.052000 1.200000 0.037000 0.044000
1517586359273554993	200 47 0.900000 0.045000 0.041000 1300 41 1.000000 1.881000 1.969000 600 52 1.000000 0.052000 0.052000 1.200000 0.034000 0.041000
1517586359783066368	200 47 0.900000 0.045000 0.041000 1300 41 1.000000 1.821000 1.906000 600 52 1.000000 0.052000 0.052000 1.200000 0.042000 0.050000
1517586360299975952	200 47 0.900000 0.051000 0.046000 1300 41 1.000000 1.469000 1.536000 600 52 1.000000 0.052000 0.052000 1.200000 0.047000 0.056000
1517586360813118202	200 47 0.900000 0.058000 0.052000 1300 41 1.000000 1.826000 1.911000 600 51 1.000000 0.052000 0.052000 1.200000 0.053000 0.064000
1517586361326109785	200 46 0.900000 0.049000 0.044000 1300 41 1.000000 1.746000 1.828000 600 51 1.000000 0.052000 0.052000 1.200000 0.047000 0.056000
1517586361835411327	200 47 0.900000 0.041000 0.037000 1300 41 1.000000 1.664000 1.740000 600 52 1.000000 0.052000 0.052000 1.200000 0.034000 0.041000
1517586362348597785	200 46 0.900000 0.056000 0.051000 1300 41 1.000000 1.821000 1.906000 600 50 1.000000 0.052000 0.052000 1.200000 0.044000 0.053000
1517586362860675660	200 47 0.900000 0.058000 0.052000 1300 41 1.000000 1.835000 1.923000 600 52 1.000000 0.052000 0.052000 1.200000 0.057000 0.068000
1517586363373318535	200 47 0.900000 0.041000 0.037000 1300 41 1.000000 1.365000 1.427000 600 51 1.000000 0.052000 0.052000 1.200000 0.038000 0.045000
1517586363886173786	200 47 0.900000 0.050000 0.045000 1300 41 1.000000 1.848000 1.934000 600 50 1.000000 0.052000 0.052000 1.200000 0.035000 0.042000
1517586364398257661	200 47 0.900000 0.057000 0.052000 1300 41 1.000000 1.799000 1.883000 600 52 1.000000 0.052000 0.052000 1.200000 0.054000 0.065000
1517586364907708036	200 47 0.900000 0.041000 0.037000 1300 41 1.000000 1.378000 1.441000 600 52 1.000000 0.052000 0.052000 1.200000 0.033000 0.039000
1517586365425715786	200 47 0.900000 0.055000 0.050000 1300 41 1.000000 1.841000 1.927000 600 52 1.000000 0.052000 0.052000 1.200000 0.053000 0.064000
1517586365938023702	200 47 0.900000 0.041000 0.037000 1300 41 1.000000 1.910000 1.999000 600 52 1.000000 0.052000 0.052000 1.200000 0.045000 0.054000
1517586366450797369	200 47 0.900000 0.049000 0.044000 1300 41 1.000000 1.838000 1.926000 600 51 1.000000 0.052000 0.052000 1.200000 0.034000 0.041000
1517586366963053744	200 47 0.900000 0.041000 0.037000 1300 41 1.000000 1.908000 1.997000 600 52 1.000000 0.052000 0.052000 1.200000 0.048000 0.057000
1517586367476411703	200 47 0.900000 0.049000 0.044000 1300 41 1.000000 1.457000 1.524000 600 52 1.000000 0.052000 0.052000 1.200000 0.035000 0.042000
1517586367992919119	200 46 0.900000 0.058000 0.052000 1300 41 1.000000 1.863000 1.952000 600 49 1.000000 0.052000 0.052000 1.200000 0.053000 0.064000
1517586368505431203	200 47 0.900000 0.040000 0.036000 1300 41 1.000000 1.858000 1.945000 600 51 1.000000 0.052000 0.052000 1.200000 0.046000 0.055000
1517586369018144036	200 46 0.900000 0.050000 0.045000 1300 41 1.000000 1.600000 1.673000 600 51 1.000000 0.052000 0.052000 1.200000 0.039000 0.047000
1517586369544837411	200 47 0.900000 0.049000 0.044000 1300 41 1.000000 1.788000 1.872000 600 52 1.000000 0.052000 0.052000 1.200000 0.035000 0.042000
1517586370060110036	200 47 0.900000 0.045000 0.041000 1300 41 1.000000 1.728000 1.807000 600 52 1.000000 0.052000 0.052000 1.200000 0.048000 0.057000
1517586370572960036	200 47 0.900000 0.054000 0.049000 1300 41 1.000000 1.867000 1.954000 600 51 1.000000 0.052000 0.052000 1.200000 0.049000 0.059000
1517586371085769620	200 47 0.900000 0.049000 0.044000 1300 41 1.000000 1.827000 1.914000 600 52 1.000000 0.052000 0.052000 1.200000 0.042000 0.050000
1517586371597632245	200 41 0.900000 0.022000 0.020000 1300 40 1.000000 0.463000 0.484000 600 46 1.000000 0.052000 0.052000 1.200000 0.040000 0.048000
1517586372109148578	200 40 0.900000 0.012000 0.010000 1300 39 1.000000 0.155000 0.162000 600 44 1.000000 0.052000 0.052000 1.200000 0.023000 0.027000
