#Timestamp	CPU(0) Frequency(MHz)	CPU(0) Temperature(C)	A7 Voltage(V)	A7 Current(A)	A7 Power(W)	CPU(4) Frequency(MHz)	CPU(4) Temperature(C)	A15 Voltage(V)	A15 Current(A)	A15 Power(W)	GPU Frequency(MHz)	GPU Temperature(C)	GPU Voltage(V)	GPU Current(A)	GPU Power(W)	RAM Voltage(V)	RAM Current(A)	RAM Power(W)
1559816543598318015	400 36 0.900000 0.020000 0.018000 600 34 0.900000 0.306000 0.279000 600 39 1.000000 0.051000 0.051000 1.200000 0.042000 0.050000
1559816544110743974	400 36 0.900000 0.018000 0.016000 600 34 0.900000 0.409000 0.372000 600 38 1.000000 0.051000 0.051000 1.200000 0.040000 0.048000
1559816544623030307	400 36 0.900000 0.018000 0.016000 600 34 0.900000 0.408000 0.371000 600 39 1.000000 0.051000 0.051000 1.200000 0.042000 0.050000
1559816545135071890	400 36 0.900000 0.018000 0.016000 600 34 0.900000 0.349000 0.317000 600 39 1.000000 0.051000 0.051000 1.200000 0.040000 0.048000
1559816545648573349	400 36 0.900000 0.018000 0.016000 600 34 0.900000 0.351000 0.319000 600 38 1.000000 0.051000 0.051000 1.200000 0.039000 0.047000
1559816546160309599	400 36 0.900000 0.022000 0.020000 600 34 0.900000 0.479000 0.433000 600 38 1.000000 0.051000 0.051000 1.200000 0.029000 0.035000
1559816546672097182	400 36 0.900000 0.018000 0.016000 600 34 0.900000 0.388000 0.353000 600 38 1.000000 0.051000 0.051000 1.200000 0.027000 0.032000
1559816547183768932	400 36 0.900000 0.017000 0.015000 600 34 0.900000 0.318000 0.290000 600 38 1.000000 0.051000 0.051000 1.200000 0.026000 0.031000
1559816547695351641	400 36 0.900000 0.017000 0.015000 600 34 0.900000 0.316000 0.287000 600 38 1.000000 0.051000 0.051000 1.200000 0.025000 0.030000
1559816548206908724	400 36 0.900000 0.021000 0.019000 600 34 0.900000 0.463000 0.419000 600 38 1.000000 0.051000 0.051000 1.200000 0.033000 0.039000
1559816548718715849	400 36 0.900000 0.017000 0.015000 600 34 0.900000 0.359000 0.327000 600 38 1.000000 0.050000 0.050000 1.200000 0.032000 0.038000
1559816549230432599	400 36 0.900000 0.017000 0.015000 600 34 0.900000 0.330000 0.300000 600 38 1.000000 0.051000 0.051000 1.200000 0.027000 0.032000
1559816549742028683	400 36 0.900000 0.018000 0.016000 600 34 0.900000 0.325000 0.296000 600 38 1.000000 0.051000 0.051000 1.200000 0.026000 0.031000
1559816550254120516	400 36 0.900000 0.017000 0.015000 600 34 0.900000 0.322000 0.293000 600 39 1.000000 0.051000 0.051000 1.200000 0.026000 0.031000
1559816550765884391	400 36 0.900000 0.020000 0.018000 600 34 0.900000 0.433000 0.393000 600 38 1.000000 0.051000 0.051000 1.200000 0.030000 0.036000
1559816551277794141	400 36 0.900000 0.017000 0.015000 600 34 0.900000 0.332000 0.302000 600 38 1.000000 0.051000 0.051000 1.200000 0.026000 0.031000
1559816551789531683	400 36 0.900000 0.017000 0.015000 600 34 0.900000 0.333000 0.303000 600 38 1.000000 0.051000 0.051000 1.200000 0.026000 0.031000
1559816552301870433	400 36 0.900000 0.017000 0.015000 600 34 0.900000 0.327000 0.297000 600 38 1.000000 0.051000 0.051000 1.200000 0.026000 0.031000
1559816552813774933	400 36 0.900000 0.021000 0.019000 600 34 0.900000 0.529000 0.479000 600 38 1.000000 0.051000 0.051000 1.200000 0.034000 0.041000
1559816553325471933	400 36 0.900000 0.017000 0.015000 600 34 0.900000 0.322000 0.293000 600 38 1.000000 0.051000 0.051000 1.200000 0.026000 0.031000
1559816553837211475	400 36 0.900000 0.018000 0.016000 600 34 0.900000 0.317000 0.288000 600 38 1.000000 0.051000 0.051000 1.200000 0.026000 0.031000
1559816554349128058	400 36 0.900000 0.017000 0.015000 600 34 0.900000 0.316000 0.287000 600 38 1.000000 0.051000 0.051000 1.200000 0.027000 0.032000
1559816554860792850	400 36 0.900000 0.020000 0.018000 600 34 0.900000 0.499000 0.452000 600 38 1.000000 0.051000 0.051000 1.200000 0.029000 0.035000
1559816555372630017	400 36 0.900000 0.017000 0.015000 600 34 0.900000 0.317000 0.288000 600 38 1.000000 0.051000 0.051000 1.200000 0.027000 0.032000
1559816555884199767	400 35 0.900000 0.017000 0.015000 600 34 0.900000 0.318000 0.289000 600 38 1.000000 0.051000 0.051000 1.200000 0.027000 0.032000
1559816556395970517	400 36 0.900000 0.017000 0.015000 600 34 0.900000 0.317000 0.288000 600 38 1.000000 0.051000 0.051000 1.200000 0.026000 0.031000
1559816556908212892	400 36 0.900000 0.020000 0.018000 600 34 0.900000 0.433000 0.393000 600 39 1.000000 0.051000 0.051000 1.200000 0.026000 0.031000
1559816557419982892	400 36 0.900000 0.019000 0.017000 600 34 0.900000 0.449000 0.406000 600 38 1.000000 0.051000 0.051000 1.200000 0.039000 0.047000
1559816557931770434	400 36 0.900000 0.017000 0.015000 600 34 0.900000 0.328000 0.298000 600 38 1.000000 0.051000 0.051000 1.200000 0.027000 0.032000
1559816558443390559	400 36 0.900000 0.017000 0.015000 600 34 0.900000 0.327000 0.297000 600 38 1.000000 0.050000 0.050000 1.200000 0.026000 0.031000
1559816558955088684	400 36 0.900000 0.017000 0.015000 600 34 0.900000 0.323000 0.294000 600 38 1.000000 0.051000 0.051000 1.200000 0.027000 0.032000
1559816559467017600	400 36 0.900000 0.020000 0.018000 600 34 0.900000 0.488000 0.440000 600 38 1.000000 0.050000 0.050000 1.200000 0.034000 0.041000
1559816559978695226	400 36 0.900000 0.017000 0.015000 600 34 0.900000 0.326000 0.296000 600 38 1.000000 0.051000 0.051000 1.200000 0.026000 0.031000
1559816560490401226	400 35 0.900000 0.017000 0.015000 600 33 0.900000 0.317000 0.288000 600 38 1.000000 0.051000 0.051000 1.200000 0.026000 0.031000
1559816561001808059	400 35 0.900000 0.017000 0.015000 600 34 0.900000 0.317000 0.288000 600 38 1.000000 0.051000 0.051000 1.200000 0.027000 0.032000
1559816561513747434	400 36 0.900000 0.019000 0.017000 600 33 0.900000 0.422000 0.382000 600 38 1.000000 0.051000 0.051000 1.200000 0.029000 0.035000
1559816562025416809	400 35 0.900000 0.017000 0.015000 600 34 0.900000 0.315000 0.286000 600 38 1.000000 0.051000 0.051000 1.200000 0.026000 0.031000
1559816562537018601	400 35 0.900000 0.017000 0.015000 600 33 0.900000 0.317000 0.288000 600 38 1.000000 0.050000 0.050000 1.200000 0.026000 0.031000
1559816563048567934	400 35 0.900000 0.017000 0.015000 600 33 0.900000 0.318000 0.289000 600 38 1.000000 0.051000 0.051000 1.200000 0.026000 0.031000
1559816563560974059	400 35 0.900000 0.018000 0.016000 600 33 0.900000 0.355000 0.323000 600 38 1.000000 0.051000 0.051000 1.200000 0.026000 0.031000
1559816564072968934	400 35 0.900000 0.017000 0.015000 600 34 0.900000 0.315000 0.286000 600 38 1.000000 0.051000 0.051000 1.200000 0.028000 0.033000
1559816564584572559	400 35 0.900000 0.017000 0.015000 600 34 0.900000 0.315000 0.286000 600 38 1.000000 0.051000 0.051000 1.200000 0.026000 0.031000
1559816565096394976	400 35 0.900000 0.017000 0.015000 600 34 0.900000 0.323000 0.294000 600 39 1.000000 0.051000 0.051000 1.200000 0.025000 0.030000
1559816565608207060	400 35 0.900000 0.018000 0.016000 600 34 0.900000 0.394000 0.358000 600 38 1.000000 0.051000 0.051000 1.200000 0.031000 0.037000
1559816566119880268	400 36 0.900000 0.018000 0.016000 600 33 0.900000 0.495000 0.448000 600 38 1.000000 0.051000 0.051000 1.200000 0.029000 0.035000
1559816566631506310	400 35 0.900000 0.017000 0.015000 600 33 0.900000 0.328000 0.298000 600 38 1.000000 0.051000 0.051000 1.200000 0.027000 0.032000
1559816567143406935	400 35 0.900000 0.018000 0.016000 600 34 0.900000 0.325000 0.296000 600 38 1.000000 0.051000 0.051000 1.200000 0.026000 0.031000
1559816567655291018	400 35 0.900000 0.018000 0.016000 600 33 0.900000 0.355000 0.323000 600 38 1.000000 0.051000 0.051000 1.200000 0.031000 0.037000
1559816568166733685	400 35 0.900000 0.018000 0.016000 600 33 0.900000 0.416000 0.378000 600 38 1.000000 0.051000 0.051000 1.200000 0.027000 0.032000
1559816568678439893	400 35 0.900000 0.017000 0.015000 600 33 0.900000 0.317000 0.288000 600 38 1.000000 0.050000 0.050000 1.200000 0.026000 0.031000
1559816569190119893	400 35 0.900000 0.017000 0.015000 600 33 0.900000 0.315000 0.286000 600 38 1.000000 0.050000 0.050000 1.200000 0.026000 0.031000
1559816569702037227	400 35 0.900000 0.017000 0.015000 600 34 0.900000 0.317000 0.288000 600 38 1.000000 0.051000 0.051000 1.200000 0.032000 0.038000
1559816570215251768	400 35 0.900000 0.017000 0.015000 600 33 0.900000 0.343000 0.312000 600 38 1.000000 0.051000 0.051000 1.200000 0.026000 0.031000
1559816570727191310	400 35 0.900000 0.017000 0.015000 600 33 0.900000 0.318000 0.287000 600 38 1.000000 0.051000 0.051000 1.200000 0.028000 0.033000
1559816571238917685	400 35 0.900000 0.017000 0.015000 600 33 0.900000 0.323000 0.294000 600 38 1.000000 0.051000 0.051000 1.200000 0.025000 0.030000
1559816571750649102	400 35 0.900000 0.018000 0.016000 600 33 0.900000 0.398000 0.361000 600 38 1.000000 0.051000 0.051000 1.200000 0.031000 0.037000
1559816572262547602	400 35 0.900000 0.017000 0.015000 600 33 0.900000 0.330000 0.300000 600 37 1.000000 0.051000 0.051000 1.200000 0.026000 0.031000
1559816572774308102	400 35 0.900000 0.022000 0.020000 600 34 0.900000 0.481000 0.436000 600 38 1.000000 0.051000 0.051000 1.200000 0.031000 0.037000
1559816573285994394	400 35 0.900000 0.017000 0.015000 600 33 0.900000 0.325000 0.296000 600 38 1.000000 0.051000 0.051000 1.200000 0.025000 0.030000
1559816573797949102	400 35 0.900000 0.018000 0.016000 600 34 0.900000 0.398000 0.362000 600 38 1.000000 0.051000 0.051000 1.200000 0.029000 0.035000
1559816574309868519	400 35 0.900000 0.017000 0.015000 600 33 0.900000 0.322000 0.293000 600 38 1.000000 0.051000 0.051000 1.200000 0.027000 0.032000
1559816574824369061	400 35 0.900000 0.017000 0.015000 600 33 0.900000 0.327000 0.297000 600 38 1.000000 0.051000 0.051000 1.200000 0.027000 0.032000
1559816575336090436	400 35 0.900000 0.019000 0.017000 600 34 0.900000 0.413000 0.374000 600 37 1.000000 0.051000 0.051000 1.200000 0.027000 0.032000
1559816575847764269	400 35 0.900000 0.018000 0.016000 600 33 0.900000 0.329000 0.299000 600 38 1.000000 0.051000 0.051000 1.200000 0.030000 0.036000
1559816576359364519	400 35 0.900000 0.017000 0.015000 600 33 0.900000 0.326000 0.296000 600 38 1.000000 0.051000 0.051000 1.200000 0.026000 0.031000
1559816576872295311	400 35 0.900000 0.017000 0.015000 600 33 0.900000 0.322000 0.293000 600 38 1.000000 0.050000 0.050000 1.200000 0.026000 0.031000
1559816577384072103	400 35 0.900000 0.022000 0.020000 600 33 0.900000 0.488000 0.443000 600 38 1.000000 0.051000 0.051000 1.200000 0.029000 0.035000
1559816577895591436	400 35 0.900000 0.017000 0.015000 600 33 0.900000 0.324000 0.295000 600 38 1.000000 0.051000 0.051000 1.200000 0.032000 0.038000
1559816578407157019	400 35 0.900000 0.018000 0.016000 600 33 0.900000 0.327000 0.297000 600 38 1.000000 0.051000 0.051000 1.200000 0.025000 0.030000
1559816578918832603	400 35 0.900000 0.017000 0.015000 600 33 0.900000 0.327000 0.297000 600 38 1.000000 0.051000 0.051000 1.200000 0.026000 0.031000
1559816579430562311	400 35 0.900000 0.022000 0.020000 600 33 0.900000 0.468000 0.425000 600 38 1.000000 0.051000 0.051000 1.200000 0.033000 0.039000
1559816579942291770	400 35 0.900000 0.018000 0.016000 600 33 0.900000 0.334000 0.304000 600 38 1.000000 0.051000 0.051000 1.200000 0.030000 0.036000
1559816580454069770	400 35 0.900000 0.017000 0.015000 600 33 0.900000 0.322000 0.293000 600 37 1.000000 0.051000 0.051000 1.200000 0.025000 0.030000
1559816580965966103	400 35 0.900000 0.017000 0.015000 600 33 0.900000 0.325000 0.296000 600 37 1.000000 0.051000 0.051000 1.200000 0.026000 0.031000
1559816581477540186	400 35 0.900000 0.025000 0.022000 600 33 0.900000 0.372000 0.338000 600 38 1.000000 0.051000 0.051000 1.200000 0.037000 0.044000
1559816581989153811	400 35 0.900000 0.018000 0.016000 600 33 0.900000 0.358000 0.326000 600 38 1.000000 0.051000 0.051000 1.200000 0.031000 0.037000
1559816582500976353	400 35 0.900000 0.017000 0.015000 600 33 0.900000 0.317000 0.288000 600 38 1.000000 0.050000 0.050000 1.200000 0.026000 0.031000
1559816583012771395	400 35 0.900000 0.017000 0.015000 600 33 0.900000 0.323000 0.294000 600 37 1.000000 0.051000 0.051000 1.200000 0.026000 0.031000
1559816583525089728	400 35 0.900000 0.017000 0.015000 600 33 0.900000 0.325000 0.296000 600 38 1.000000 0.051000 0.051000 1.200000 0.027000 0.032000
1559816584036910895	400 35 0.900000 0.025000 0.022000 600 33 0.900000 0.476000 0.433000 600 38 1.000000 0.051000 0.051000 1.200000 0.034000 0.041000
1559816584548448437	400 35 0.900000 0.018000 0.016000 600 33 0.900000 0.330000 0.300000 600 38 1.000000 0.051000 0.051000 1.200000 0.028000 0.033000
1559816585060211437	400 35 0.900000 0.017000 0.015000 600 33 0.900000 0.330000 0.300000 600 37 1.000000 0.051000 0.051000 1.200000 0.026000 0.031000
1559816585571853895	400 35 0.900000 0.017000 0.015000 600 33 0.900000 0.323000 0.294000 600 37 1.000000 0.050000 0.050000 1.200000 0.026000 0.031000
1559816586083389479	400 35 0.900000 0.023000 0.021000 600 33 0.900000 0.405000 0.368000 600 38 1.000000 0.050000 0.050000 1.200000 0.039000 0.047000
1559816586594983395	400 35 0.900000 0.017000 0.015000 600 33 0.900000 0.325000 0.296000 600 37 1.000000 0.051000 0.051000 1.200000 0.026000 0.031000
1559816587106523604	400 35 0.900000 0.017000 0.015000 600 33 0.900000 0.330000 0.300000 600 37 1.000000 0.051000 0.051000 1.200000 0.026000 0.031000
1559816587618015895	400 35 0.900000 0.017000 0.015000 600 33 0.900000 0.329000 0.299000 600 37 1.000000 0.051000 0.051000 1.200000 0.026000 0.031000
1559816588129509562	400 35 0.900000 0.021000 0.019000 600 33 0.900000 0.338000 0.307000 600 38 1.000000 0.050000 0.050000 1.200000 0.034000 0.041000
1559816588641169896	400 35 0.900000 0.017000 0.015000 600 33 0.900000 0.315000 0.286000 600 37 1.000000 0.051000 0.051000 1.200000 0.025000 0.030000
1559816589152921312	400 35 0.900000 0.017000 0.015000 600 33 0.900000 0.317000 0.289000 600 38 1.000000 0.051000 0.051000 1.200000 0.024000 0.028000
1559816589664561562	400 35 0.900000 0.017000 0.015000 600 33 0.900000 0.318000 0.289000 600 37 1.000000 0.051000 0.051000 1.200000 0.025000 0.030000
1559816590176722146	400 35 0.900000 0.017000 0.015000 600 33 0.900000 0.316000 0.287000 600 38 1.000000 0.051000 0.051000 1.200000 0.030000 0.036000
1559816590688649854	400 35 0.900000 0.025000 0.022000 600 33 0.900000 0.358000 0.326000 600 38 1.000000 0.051000 0.051000 1.200000 0.026000 0.031000
1559816591200411979	400 35 0.900000 0.017000 0.015000 600 33 0.900000 0.324000 0.295000 600 37 1.000000 0.051000 0.051000 1.200000 0.026000 0.031000
1559816591712044813	400 35 0.900000 0.017000 0.015000 600 33 0.900000 0.322000 0.293000 600 37 1.000000 0.051000 0.051000 1.200000 0.026000 0.031000
1559816592223680521	400 35 0.900000 0.017000 0.015000 600 33 0.900000 0.326000 0.296000 600 38 1.000000 0.050000 0.050000 1.200000 0.026000 0.031000
1559816592735293688	400 35 0.900000 0.019000 0.017000 600 33 0.900000 0.434000 0.394000 600 38 1.000000 0.051000 0.051000 1.200000 0.036000 0.043000
1559816593246976438	400 35 0.900000 0.017000 0.015000 600 33 0.900000 0.328000 0.298000 600 38 1.000000 0.050000 0.050000 1.200000 0.030000 0.036000
1559816593758690771	400 35 0.900000 0.017000 0.015000 600 33 0.900000 0.325000 0.296000 600 37 1.000000 0.050000 0.050000 1.200000 0.027000 0.032000
1559816594270505063	400 35 0.900000 0.017000 0.015000 600 33 0.900000 0.324000 0.295000 600 37 1.000000 0.051000 0.051000 1.200000 0.025000 0.030000
1559816594782683855	400 35 0.900000 0.018000 0.016000 600 33 0.900000 0.391000 0.355000 600 38 1.000000 0.051000 0.051000 1.200000 0.030000 0.036000
1559816595294612771	400 35 0.900000 0.017000 0.015000 600 33 0.900000 0.329000 0.299000 600 37 1.000000 0.050000 0.050000 1.200000 0.036000 0.043000
1559816595806207355	400 35 0.900000 0.017000 0.015000 600 33 0.900000 0.315000 0.286000 600 37 1.000000 0.051000 0.051000 1.200000 0.028000 0.033000
1559816596317850438	400 35 0.900000 0.017000 0.015000 600 33 0.900000 0.317000 0.288000 600 37 1.000000 0.051000 0.051000 1.200000 0.027000 0.032000
1559816596830140563	400 35 0.900000 0.018000 0.016000 600 33 0.900000 0.361000 0.328000 600 38 1.000000 0.050000 0.050000 1.200000 0.032000 0.038000
1559816597341898522	400 35 0.900000 0.027000 0.024000 600 33 0.900000 0.401000 0.365000 600 38 1.000000 0.050000 0.050000 1.200000 0.038000 0.045000
1559816597853453105	400 35 0.900000 0.017000 0.015000 600 33 0.900000 0.315000 0.286000 600 37 1.000000 0.051000 0.051000 1.200000 0.026000 0.031000
1559816598365040563	400 35 0.900000 0.017000 0.015000 600 33 0.900000 0.315000 0.286000 600 37 1.000000 0.051000 0.051000 1.200000 0.027000 0.032000
1559816598876759522	400 35 0.900000 0.018000 0.016000 600 33 0.900000 0.322000 0.293000 600 37 1.000000 0.050000 0.050000 1.200000 0.032000 0.038000
1559816599388179939	400 35 0.900000 0.025000 0.022000 600 33 0.900000 0.465000 0.423000 600 38 1.000000 0.051000 0.051000 1.200000 0.031000 0.037000
1559816599900040147	400 35 0.900000 0.019000 0.017000 600 33 0.900000 0.323000 0.294000 600 37 1.000000 0.050000 0.050000 1.200000 0.034000 0.041000
1559816600411973147	400 35 0.900000 0.017000 0.015000 600 33 0.900000 0.322000 0.293000 600 37 1.000000 0.051000 0.051000 1.200000 0.027000 0.032000
1559816600923818980	400 35 0.900000 0.018000 0.016000 600 33 0.900000 0.395000 0.359000 600 37 1.000000 0.050000 0.050000 1.200000 0.026000 0.031000
1559816601436096439	400 35 0.900000 0.018000 0.016000 600 33 0.900000 0.330000 0.300000 600 38 1.000000 0.051000 0.051000 1.200000 0.026000 0.031000
1559816601947966272	400 35 0.900000 0.020000 0.018000 600 33 0.900000 0.379000 0.345000 600 37 1.000000 0.051000 0.051000 1.200000 0.040000 0.048000
1559816602459582606	400 35 0.900000 0.017000 0.015000 600 33 0.900000 0.316000 0.287000 600 37 1.000000 0.051000 0.051000 1.200000 0.027000 0.032000
1559816602971287314	400 35 0.900000 0.017000 0.015000 600 33 0.900000 0.391000 0.356000 600 37 1.000000 0.050000 0.050000 1.200000 0.027000 0.032000
1559816603482825022	400 35 0.900000 0.018000 0.016000 600 33 0.900000 0.316000 0.287000 600 37 1.000000 0.050000 0.050000 1.200000 0.027000 0.032000
1559816603994504564	400 35 0.900000 0.023000 0.021000 600 33 0.900000 0.443000 0.403000 600 37 1.000000 0.051000 0.051000 1.200000 0.035000 0.042000
1559816604506315481	400 35 0.900000 0.017000 0.015000 600 33 0.900000 0.316000 0.287000 600 37 1.000000 0.051000 0.051000 1.200000 0.026000 0.031000
1559816605018356189	400 35 0.900000 0.018000 0.016000 600 33 0.900000 0.389000 0.354000 600 37 1.000000 0.051000 0.051000 1.200000 0.030000 0.036000
1559816605530079398	400 35 0.900000 0.017000 0.015000 600 33 0.900000 0.315000 0.286000 600 37 1.000000 0.051000 0.051000 1.200000 0.027000 0.032000
1559816606041682731	400 35 0.900000 0.021000 0.019000 600 33 0.900000 0.440000 0.400000 600 38 1.000000 0.051000 0.051000 1.200000 0.029000 0.035000
1559816606553423898	400 35 0.900000 0.017000 0.015000 600 33 0.900000 0.318000 0.289000 600 37 1.000000 0.050000 0.050000 1.200000 0.025000 0.030000
1559816607065091064	400 35 0.900000 0.018000 0.016000 600 33 0.900000 0.388000 0.353000 600 37 1.000000 0.051000 0.051000 1.200000 0.030000 0.036000
1559816607576958773	400 35 0.900000 0.017000 0.015000 600 33 0.900000 0.315000 0.286000 600 37 1.000000 0.051000 0.051000 1.200000 0.025000 0.030000
1559816608089116148	400 35 0.900000 0.017000 0.015000 600 33 0.900000 0.325000 0.296000 600 38 1.000000 0.051000 0.051000 1.200000 0.026000 0.031000
1559816608601123523	400 35 0.900000 0.025000 0.022000 600 33 0.900000 0.419000 0.381000 600 37 1.000000 0.051000 0.051000 1.200000 0.036000 0.043000
1559816609112851815	400 35 0.900000 0.017000 0.015000 600 33 0.900000 0.328000 0.298000 600 37 1.000000 0.051000 0.051000 1.200000 0.027000 0.032000
1559816609624418606	400 35 0.900000 0.018000 0.016000 600 33 0.900000 0.391000 0.355000 600 37 1.000000 0.050000 0.050000 1.200000 0.027000 0.032000
1559816610136201357	400 35 0.900000 0.017000 0.015000 600 33 0.900000 0.330000 0.300000 600 37 1.000000 0.051000 0.051000 1.200000 0.026000 0.031000
1559816610647932190	400 35 0.900000 0.018000 0.016000 600 33 0.900000 0.329000 0.299000 600 37 1.000000 0.050000 0.050000 1.200000 0.033000 0.039000
1559816611159637690	400 35 0.900000 0.017000 0.015000 600 33 0.900000 0.328000 0.299000 600 37 1.000000 0.051000 0.051000 1.200000 0.027000 0.032000
1559816611671215023	400 35 0.900000 0.017000 0.015000 600 33 0.900000 0.357000 0.325000 600 37 1.000000 0.051000 0.051000 1.200000 0.026000 0.031000
1559816612182903523	400 35 0.900000 0.017000 0.015000 600 33 0.900000 0.323000 0.294000 600 37 1.000000 0.051000 0.051000 1.200000 0.028000 0.033000
1559816612695032690	400 35 0.900000 0.017000 0.015000 600 33 0.900000 0.325000 0.296000 600 38 1.000000 0.051000 0.051000 1.200000 0.026000 0.031000
1559816613206995565	400 35 0.900000 0.017000 0.015000 600 33 0.900000 0.402000 0.366000 600 37 1.000000 0.051000 0.051000 1.200000 0.026000 0.031000
1559816613718692482	400 35 0.900000 0.017000 0.015000 600 33 0.900000 0.331000 0.301000 600 37 1.000000 0.051000 0.051000 1.200000 0.025000 0.030000
1559816614230386065	400 35 0.900000 0.017000 0.015000 600 33 0.900000 0.324000 0.295000 600 37 1.000000 0.051000 0.051000 1.200000 0.025000 0.030000
1559816614742785440	400 35 0.900000 0.017000 0.015000 600 33 0.900000 0.321000 0.292000 600 38 1.000000 0.051000 0.051000 1.200000 0.025000 0.030000
1559816615254256190	400 35 0.900000 0.027000 0.024000 600 33 0.900000 0.463000 0.421000 600 38 1.000000 0.051000 0.051000 1.200000 0.033000 0.039000
1559816615765870107	400 35 0.900000 0.017000 0.015000 600 33 0.900000 0.329000 0.300000 600 37 1.000000 0.051000 0.051000 1.200000 0.024000 0.028000
1559816616277457107	400 35 0.900000 0.017000 0.015000 600 33 0.900000 0.318000 0.290000 600 37 1.000000 0.051000 0.051000 1.200000 0.024000 0.028000
1559816616789063482	400 35 0.900000 0.017000 0.015000 600 33 0.900000 0.326000 0.296000 600 37 1.000000 0.051000 0.051000 1.200000 0.028000 0.033000
1559816617300534566	400 35 0.900000 0.017000 0.015000 600 33 0.900000 0.321000 0.292000 600 38 1.000000 0.051000 0.051000 1.200000 0.027000 0.032000
1559816617812109732	400 35 0.900000 0.019000 0.017000 600 33 0.900000 0.436000 0.397000 600 37 1.000000 0.051000 0.051000 1.200000 0.031000 0.037000
1559816618323720107	400 35 0.900000 0.017000 0.015000 600 33 0.900000 0.327000 0.297000 600 37 1.000000 0.050000 0.050000 1.200000 0.026000 0.031000
1559816618835112858	400 35 0.900000 0.017000 0.015000 600 33 0.900000 0.330000 0.300000 600 37 1.000000 0.051000 0.051000 1.200000 0.026000 0.031000
1559816619348120941	400 35 0.900000 0.017000 0.015000 600 33 0.900000 0.329000 0.299000 600 38 1.000000 0.050000 0.050000 1.200000 0.025000 0.030000
1559816619859933274	400 35 0.900000 0.019000 0.017000 600 33 0.900000 0.493000 0.447000 600 37 1.000000 0.051000 0.051000 1.200000 0.033000 0.039000
1559816620371511983	400 35 0.900000 0.017000 0.015000 600 33 0.900000 0.322000 0.293000 600 37 1.000000 0.050000 0.050000 1.200000 0.026000 0.031000
1559816620883078816	400 35 0.900000 0.017000 0.015000 600 33 0.900000 0.323000 0.294000 600 37 1.000000 0.050000 0.050000 1.200000 0.026000 0.031000
1559816621395273400	400 35 0.900000 0.017000 0.015000 600 33 0.900000 0.327000 0.297000 600 37 1.000000 0.051000 0.051000 1.200000 0.024000 0.028000
1559816621907168608	400 35 0.900000 0.020000 0.018000 600 33 0.900000 0.547000 0.493000 600 37 1.000000 0.051000 0.051000 1.200000 0.035000 0.042000
1559816622418813900	400 35 0.900000 0.017000 0.015000 600 33 0.900000 0.328000 0.299000 600 37 1.000000 0.050000 0.050000 1.200000 0.026000 0.031000
1559816622930416400	400 35 0.900000 0.017000 0.015000 600 33 0.900000 0.324000 0.295000 600 37 1.000000 0.050000 0.050000 1.200000 0.024000 0.028000
1559816623441968650	400 35 0.900000 0.017000 0.015000 600 33 0.900000 0.318000 0.289000 600 37 1.000000 0.051000 0.051000 1.200000 0.025000 0.030000
1559816623955502358	400 35 0.900000 0.020000 0.018000 600 33 0.900000 0.477000 0.432000 600 38 1.000000 0.051000 0.051000 1.200000 0.041000 0.049000
1559816624469377483	400 35 0.900000 0.019000 0.017000 600 33 0.900000 0.318000 0.289000 600 38 1.000000 0.050000 0.050000 1.200000 0.070000 0.084000
1559816624982318067	400 36 0.900000 0.101000 0.092000 600 34 0.900000 0.387000 0.352000 600 38 1.000000 0.050000 0.050000 1.200000 0.067000 0.081000
1559816625494987442	400 36 0.900000 0.101000 0.092000 600 34 0.900000 0.400000 0.364000 600 38 1.000000 0.051000 0.051000 1.200000 0.068000 0.082000
1559816626009781817	400 36 0.900000 0.101000 0.092000 600 34 0.900000 0.421000 0.383000 600 38 1.000000 0.051000 0.051000 1.200000 0.070000 0.084000
1559816626522411108	400 36 0.900000 0.100000 0.091000 600 34 0.900000 0.544000 0.492000 600 38 1.000000 0.051000 0.051000 1.200000 0.070000 0.084000
1559816627034954775	400 36 0.900000 0.101000 0.092000 600 34 0.900000 0.396000 0.360000 600 38 1.000000 0.051000 0.051000 1.200000 0.067000 0.081000
1559816627547484900	400 36 0.900000 0.102000 0.093000 600 34 0.900000 0.393000 0.358000 600 38 1.000000 0.051000 0.051000 1.200000 0.067000 0.081000
1559816628059983484	400 36 0.900000 0.102000 0.093000 600 34 0.900000 0.438000 0.399000 600 38 1.000000 0.051000 0.051000 1.200000 0.069000 0.083000
1559816628572533734	400 36 0.900000 0.101000 0.092000 600 34 0.900000 0.491000 0.445000 600 38 1.000000 0.050000 0.050000 1.200000 0.072000 0.087000
1559816629085543150	400 36 0.900000 0.102000 0.093000 600 34 0.900000 0.396000 0.360000 600 38 1.000000 0.050000 0.050000 1.200000 0.066000 0.079000
1559816629598118775	400 36 0.900000 0.102000 0.093000 600 34 0.900000 0.397000 0.361000 600 38 1.000000 0.051000 0.051000 1.200000 0.066000 0.079000
1559816630110605109	400 36 0.900000 0.102000 0.093000 600 34 0.900000 0.456000 0.414000 600 38 1.000000 0.050000 0.050000 1.200000 0.069000 0.083000
1559816630622919567	400 36 0.900000 0.102000 0.093000 600 34 0.900000 0.412000 0.375000 600 39 1.000000 0.050000 0.050000 1.200000 0.070000 0.084000
1559816631135396817	400 36 0.900000 0.102000 0.093000 600 34 0.900000 0.389000 0.354000 600 38 1.000000 0.051000 0.051000 1.200000 0.066000 0.079000
1559816631647887817	400 36 0.900000 0.102000 0.093000 600 34 0.900000 0.387000 0.352000 600 38 1.000000 0.051000 0.051000 1.200000 0.066000 0.079000
1559816632160372734	400 36 0.900000 0.101000 0.092000 600 34 0.900000 0.447000 0.407000 600 38 1.000000 0.051000 0.051000 1.200000 0.068000 0.082000
1559816632679262026	400 36 0.900000 0.103000 0.094000 600 34 0.900000 0.387000 0.352000 600 39 1.000000 0.051000 0.051000 1.200000 0.067000 0.081000
1559816633192107734	400 36 0.900000 0.102000 0.093000 600 34 0.900000 0.425000 0.386000 600 38 1.000000 0.051000 0.051000 1.200000 0.066000 0.079000
1559816633704464359	400 36 0.900000 0.102000 0.093000 600 34 0.900000 0.388000 0.353000 600 38 1.000000 0.051000 0.051000 1.200000 0.066000 0.079000
1559816634216965193	400 36 0.900000 0.102000 0.093000 600 34 0.900000 0.447000 0.407000 600 38 1.000000 0.051000 0.051000 1.200000 0.067000 0.081000
1559816634729801859	400 36 0.900000 0.101000 0.092000 600 34 0.900000 0.396000 0.360000 600 38 1.000000 0.051000 0.051000 1.200000 0.069000 0.083000
1559816635242279776	400 36 0.900000 0.102000 0.093000 600 34 0.900000 0.443000 0.403000 600 38 1.000000 0.050000 0.050000 1.200000 0.067000 0.081000
1559816635754923485	400 36 0.900000 0.101000 0.092000 600 34 0.900000 0.400000 0.364000 600 38 1.000000 0.050000 0.050000 1.200000 0.069000 0.083000
1559816636267476610	400 36 0.900000 0.102000 0.093000 600 34 0.900000 0.398000 0.362000 600 38 1.000000 0.051000 0.051000 1.200000 0.067000 0.081000
1559816636780164443	400 36 0.900000 0.102000 0.093000 600 34 0.900000 0.395000 0.359000 600 38 1.000000 0.051000 0.051000 1.200000 0.068000 0.082000
1559816637293572610	400 37 0.900000 0.102000 0.093000 600 34 0.900000 0.392000 0.357000 600 39 1.000000 0.051000 0.051000 1.200000 0.067000 0.081000
1559816637806254985	400 36 0.900000 0.101000 0.092000 600 34 0.900000 0.407000 0.370000 600 38 1.000000 0.051000 0.051000 1.200000 0.072000 0.087000
1559816638318626860	400 36 0.900000 0.102000 0.093000 600 34 0.900000 0.388000 0.353000 600 38 1.000000 0.051000 0.051000 1.200000 0.067000 0.081000
1559816638831313485	400 36 0.900000 0.101000 0.092000 600 34 0.900000 0.388000 0.353000 600 38 1.000000 0.051000 0.051000 1.200000 0.068000 0.082000
1559816639349746485	400 36 0.900000 0.103000 0.093000 600 34 0.900000 0.386000 0.351000 600 38 1.000000 0.051000 0.051000 1.200000 0.067000 0.081000
1559816639862467193	400 37 0.900000 0.101000 0.092000 600 34 0.900000 0.482000 0.437000 600 39 1.000000 0.051000 0.051000 1.200000 0.072000 0.087000
1559816640374904985	400 36 0.900000 0.101000 0.092000 600 34 0.900000 0.389000 0.354000 600 39 1.000000 0.051000 0.051000 1.200000 0.067000 0.081000
1559816640887383819	400 36 0.900000 0.102000 0.093000 600 34 0.900000 0.387000 0.352000 600 38 1.000000 0.051000 0.051000 1.200000 0.067000 0.081000
1559816641399881485	400 36 0.900000 0.102000 0.093000 600 34 0.900000 0.387000 0.352000 600 38 1.000000 0.051000 0.051000 1.200000 0.067000 0.081000
1559816641912377485	400 37 0.900000 0.101000 0.092000 600 34 0.900000 0.541000 0.489000 600 39 1.000000 0.051000 0.051000 1.200000 0.069000 0.083000
1559816642425684027	400 36 0.900000 0.102000 0.093000 600 34 0.900000 0.388000 0.353000 600 39 1.000000 0.051000 0.051000 1.200000 0.067000 0.081000
1559816642938456277	400 36 0.900000 0.102000 0.093000 600 34 0.900000 0.388000 0.353000 600 38 1.000000 0.051000 0.051000 1.200000 0.067000 0.081000
1559816643451145652	400 37 0.900000 0.102000 0.093000 600 34 0.900000 0.387000 0.352000 600 38 1.000000 0.051000 0.051000 1.200000 0.066000 0.079000
1559816643964594402	400 36 0.900000 0.102000 0.093000 600 34 0.900000 0.393000 0.358000 600 39 1.000000 0.051000 0.051000 1.200000 0.067000 0.081000
1559816644477960569	400 36 0.900000 0.100000 0.091000 600 34 0.900000 0.467000 0.423000 600 39 1.000000 0.051000 0.051000 1.200000 0.072000 0.087000
1559816644990440319	400 37 0.900000 0.102000 0.093000 600 34 0.900000 0.442000 0.401000 600 38 1.000000 0.051000 0.051000 1.200000 0.069000 0.083000
1559816645503176194	400 36 0.900000 0.102000 0.093000 600 34 0.900000 0.389000 0.354000 600 39 1.000000 0.051000 0.051000 1.200000 0.067000 0.081000
1559816646015606652	400 36 0.900000 0.102000 0.093000 600 34 0.900000 0.387000 0.352000 600 38 1.000000 0.051000 0.051000 1.200000 0.067000 0.081000
1559816646528083403	400 37 0.900000 0.100000 0.091000 600 34 0.900000 0.532000 0.480000 600 39 1.000000 0.051000 0.051000 1.200000 0.069000 0.083000
1559816647040699194	400 36 0.900000 0.101000 0.092000 600 35 0.900000 0.413000 0.375000 600 38 1.000000 0.051000 0.051000 1.200000 0.070000 0.084000
1559816647553230361	400 36 0.900000 0.102000 0.093000 600 35 0.900000 0.389000 0.354000 600 39 1.000000 0.051000 0.051000 1.200000 0.067000 0.081000
1559816648065971361	400 37 0.900000 0.102000 0.093000 600 34 0.900000 0.388000 0.353000 600 38 1.000000 0.051000 0.051000 1.200000 0.067000 0.081000
1559816648578470903	400 37 0.900000 0.102000 0.093000 600 34 0.900000 0.394000 0.358000 600 39 1.000000 0.051000 0.051000 1.200000 0.067000 0.081000
1559816649091066444	400 37 0.900000 0.101000 0.092000 600 35 0.900000 0.506000 0.459000 600 39 1.000000 0.051000 0.051000 1.200000 0.070000 0.084000
1559816649603721278	400 36 0.900000 0.102000 0.093000 600 35 0.900000 0.399000 0.363000 600 38 1.000000 0.051000 0.051000 1.200000 0.067000 0.081000
1559816650116234528	400 37 0.900000 0.102000 0.093000 600 35 0.900000 0.400000 0.364000 600 38 1.000000 0.051000 0.051000 1.200000 0.067000 0.081000
1559816650629571195	400 37 0.900000 0.102000 0.093000 600 34 0.900000 0.399000 0.363000 600 39 1.000000 0.051000 0.051000 1.200000 0.066000 0.079000
1559816651142415820	400 37 0.900000 0.103000 0.094000 600 34 0.900000 0.571000 0.516000 600 39 1.000000 0.051000 0.051000 1.200000 0.072000 0.087000
1559816651655160320	400 37 0.900000 0.103000 0.094000 600 35 0.900000 0.397000 0.361000 600 39 1.000000 0.051000 0.051000 1.200000 0.066000 0.079000
1559816652167782612	400 36 0.900000 0.102000 0.093000 600 35 0.900000 0.396000 0.360000 600 38 1.000000 0.051000 0.051000 1.200000 0.066000 0.079000
1559816652680306112	400 36 0.900000 0.102000 0.093000 600 34 0.900000 0.393000 0.358000 600 38 1.000000 0.051000 0.051000 1.200000 0.067000 0.081000
1559816653193070653	400 37 0.900000 0.102000 0.093000 600 34 0.900000 0.395000 0.359000 600 39 1.000000 0.051000 0.051000 1.200000 0.067000 0.081000
1559816653705971653	400 37 0.900000 0.100000 0.091000 600 35 0.900000 0.454000 0.412000 600 39 1.000000 0.051000 0.051000 1.200000 0.067000 0.081000
1559816654218355945	400 37 0.900000 0.102000 0.093000 600 35 0.900000 0.398000 0.362000 600 39 1.000000 0.051000 0.051000 1.200000 0.066000 0.079000
1559816654731018945	400 36 0.900000 0.102000 0.093000 600 35 0.900000 0.399000 0.363000 600 39 1.000000 0.051000 0.051000 1.200000 0.067000 0.081000
1559816655244445195	400 37 0.900000 0.102000 0.093000 600 35 0.900000 0.397000 0.361000 600 39 1.000000 0.051000 0.051000 1.200000 0.067000 0.081000
1559816655757584070	400 37 0.900000 0.101000 0.092000 600 34 0.900000 0.524000 0.474000 600 39 1.000000 0.051000 0.051000 1.200000 0.070000 0.084000
1559816656270333695	400 37 0.900000 0.102000 0.093000 600 34 0.900000 0.393000 0.358000 600 39 1.000000 0.051000 0.051000 1.200000 0.067000 0.081000
1559816656782936695	400 37 0.900000 0.102000 0.093000 600 35 0.900000 0.395000 0.359000 600 38 1.000000 0.051000 0.051000 1.200000 0.067000 0.081000
1559816657296220487	400 37 0.900000 0.102000 0.093000 600 35 0.900000 0.395000 0.359000 600 39 1.000000 0.051000 0.051000 1.200000 0.068000 0.082000
1559816657809038862	400 37 0.900000 0.100000 0.091000 600 35 0.900000 0.516000 0.468000 600 39 1.000000 0.051000 0.051000 1.200000 0.072000 0.087000
1559816658321768529	400 37 0.900000 0.102000 0.093000 600 35 0.900000 0.399000 0.363000 600 39 1.000000 0.051000 0.051000 1.200000 0.066000 0.079000
1559816658834198446	400 37 0.900000 0.102000 0.093000 600 35 0.900000 0.399000 0.363000 600 38 1.000000 0.051000 0.051000 1.200000 0.066000 0.079000
1559816659346799571	400 37 0.900000 0.102000 0.093000 600 35 0.900000 0.400000 0.364000 600 39 1.000000 0.051000 0.051000 1.200000 0.068000 0.082000
1559816659859397071	400 37 0.900000 0.101000 0.092000 600 35 0.900000 0.441000 0.401000 600 39 1.000000 0.051000 0.051000 1.200000 0.070000 0.084000
1559816660372090987	400 37 0.900000 0.102000 0.093000 600 35 0.900000 0.389000 0.354000 600 39 1.000000 0.051000 0.051000 1.200000 0.066000 0.079000
1559816660885065613	400 37 0.900000 0.102000 0.093000 600 35 0.900000 0.387000 0.352000 600 39 1.000000 0.051000 0.051000 1.200000 0.066000 0.079000
1559816661397794446	400 37 0.900000 0.102000 0.093000 600 35 0.900000 0.391000 0.356000 600 39 1.000000 0.051000 0.051000 1.200000 0.069000 0.083000
1559816661915586821	400 37 0.900000 0.102000 0.093000 600 35 0.900000 0.455000 0.414000 600 39 1.000000 0.051000 0.051000 1.200000 0.067000 0.081000
1559816662428052238	400 37 0.900000 0.101000 0.092000 600 35 0.900000 0.524000 0.477000 600 39 1.000000 0.051000 0.051000 1.200000 0.072000 0.087000
1559816662940782113	400 37 0.900000 0.102000 0.093000 600 35 0.900000 0.395000 0.359000 600 39 1.000000 0.051000 0.051000 1.200000 0.067000 0.081000
1559816663453537738	400 37 0.900000 0.101000 0.092000 600 35 0.900000 0.397000 0.361000 600 39 1.000000 0.051000 0.051000 1.200000 0.067000 0.081000
1559816663966236988	400 37 0.900000 0.102000 0.093000 600 34 0.900000 0.433000 0.394000 600 39 1.000000 0.051000 0.051000 1.200000 0.067000 0.081000
1559816664479006738	400 37 0.900000 0.100000 0.091000 600 35 0.900000 0.461000 0.419000 600 39 1.000000 0.051000 0.051000 1.200000 0.072000 0.087000
1559816664991578530	400 37 0.900000 0.102000 0.093000 600 35 0.900000 0.400000 0.364000 600 39 1.000000 0.051000 0.051000 1.200000 0.067000 0.081000
1559816665504093696	400 37 0.900000 0.102000 0.093000 600 35 0.900000 0.395000 0.359000 600 39 1.000000 0.051000 0.051000 1.200000 0.066000 0.079000
1559816666016737780	400 37 0.900000 0.102000 0.093000 600 35 0.900000 0.407000 0.370000 600 39 1.000000 0.051000 0.051000 1.200000 0.066000 0.079000
1559816666529092988	400 37 0.900000 0.102000 0.093000 600 34 0.900000 0.395000 0.359000 600 39 1.000000 0.051000 0.051000 1.200000 0.068000 0.082000
1559816667041739697	400 37 0.900000 0.101000 0.092000 600 35 0.900000 0.398000 0.362000 600 39 1.000000 0.051000 0.051000 1.200000 0.066000 0.079000
1559816667558169488	400 37 0.900000 0.102000 0.093000 600 35 0.900000 0.389000 0.354000 600 39 1.000000 0.051000 0.051000 1.200000 0.066000 0.079000
1559816668070965572	400 37 0.900000 0.102000 0.093000 600 35 0.900000 0.390000 0.355000 600 39 1.000000 0.051000 0.051000 1.200000 0.066000 0.079000
1559816668585718530	400 37 0.900000 0.102000 0.093000 600 35 0.900000 0.387000 0.352000 600 39 1.000000 0.051000 0.051000 1.200000 0.066000 0.079000
1559816669098680864	400 37 0.900000 0.101000 0.092000 600 35 0.900000 0.465000 0.421000 600 39 1.000000 0.051000 0.051000 1.200000 0.067000 0.081000
1559816669611970989	400 37 0.900000 0.102000 0.093000 600 35 0.900000 0.389000 0.354000 600 39 1.000000 0.051000 0.051000 1.200000 0.066000 0.079000
1559816670124675572	400 37 0.900000 0.102000 0.093000 600 35 0.900000 0.388000 0.353000 600 39 1.000000 0.051000 0.051000 1.200000 0.066000 0.079000
1559816670637371739	400 36 0.900000 0.103000 0.093000 600 35 0.900000 0.387000 0.352000 600 39 1.000000 0.051000 0.051000 1.200000 0.066000 0.079000
1559816671150168280	400 37 0.900000 0.101000 0.092000 600 35 0.900000 0.538000 0.486000 600 39 1.000000 0.051000 0.051000 1.200000 0.069000 0.083000
1559816671663175572	400 37 0.900000 0.102000 0.093000 600 35 0.900000 0.396000 0.360000 600 39 1.000000 0.051000 0.051000 1.200000 0.067000 0.081000
1559816672175991364	400 37 0.900000 0.102000 0.093000 600 35 0.900000 0.457000 0.414000 600 39 1.000000 0.051000 0.051000 1.200000 0.069000 0.083000
1559816672688602281	400 37 0.900000 0.102000 0.093000 600 35 0.900000 0.394000 0.358000 600 39 1.000000 0.051000 0.051000 1.200000 0.067000 0.081000
1559816673202215947	400 37 0.900000 0.102000 0.093000 600 35 0.900000 0.395000 0.360000 600 39 1.000000 0.051000 0.051000 1.200000 0.066000 0.079000
1559816673715064364	400 37 0.900000 0.100000 0.091000 600 35 0.900000 0.451000 0.409000 600 39 1.000000 0.051000 0.051000 1.200000 0.066000 0.079000
1559816674227927114	400 37 0.900000 0.102000 0.093000 600 35 0.900000 0.464000 0.421000 600 39 1.000000 0.051000 0.051000 1.200000 0.069000 0.083000
1559816674740507489	400 37 0.900000 0.102000 0.093000 600 35 0.900000 0.399000 0.363000 600 39 1.000000 0.051000 0.051000 1.200000 0.066000 0.079000
1559816675254362573	400 37 0.900000 0.102000 0.093000 600 35 0.900000 0.388000 0.353000 600 39 1.000000 0.051000 0.051000 1.200000 0.066000 0.079000
1559816675767371864	400 37 0.900000 0.100000 0.091000 600 35 0.900000 0.520000 0.471000 600 39 1.000000 0.050000 0.050000 1.200000 0.069000 0.083000
1559816676279871406	400 37 0.900000 0.101000 0.092000 600 35 0.900000 0.454000 0.413000 600 39 1.000000 0.051000 0.051000 1.200000 0.068000 0.082000
1559816676792556031	400 37 0.900000 0.102000 0.093000 600 35 0.900000 0.389000 0.354000 600 39 1.000000 0.051000 0.051000 1.200000 0.067000 0.081000
1559816677305132865	400 37 0.900000 0.102000 0.093000 600 35 0.900000 0.387000 0.352000 600 39 1.000000 0.051000 0.051000 1.200000 0.067000 0.081000
1559816677817603823	400 37 0.900000 0.101000 0.092000 600 35 0.900000 0.504000 0.459000 600 39 1.000000 0.051000 0.051000 1.200000 0.067000 0.081000
1559816678330504990	400 37 0.900000 0.102000 0.093000 600 35 0.900000 0.454000 0.413000 600 39 1.000000 0.051000 0.051000 1.200000 0.069000 0.083000
1559816678843175740	400 37 0.900000 0.102000 0.093000 600 35 0.900000 0.388000 0.353000 600 39 1.000000 0.051000 0.051000 1.200000 0.067000 0.081000
1559816679355923365	400 37 0.900000 0.102000 0.093000 600 35 0.900000 0.389000 0.354000 600 39 1.000000 0.051000 0.051000 1.200000 0.067000 0.081000
1559816679869433031	400 37 0.900000 0.102000 0.093000 600 35 0.900000 0.430000 0.390000 600 39 1.000000 0.051000 0.051000 1.200000 0.067000 0.081000
1559816680383601073	400 37 0.900000 0.101000 0.092000 600 35 0.900000 0.534000 0.483000 600 39 1.000000 0.050000 0.050000 1.200000 0.070000 0.084000
1559816680895896740	400 37 0.900000 0.102000 0.093000 600 35 0.900000 0.397000 0.361000 600 39 1.000000 0.051000 0.051000 1.200000 0.067000 0.081000
1559816681408494323	400 37 0.900000 0.102000 0.093000 600 35 0.900000 0.395000 0.359000 600 39 1.000000 0.051000 0.051000 1.200000 0.067000 0.081000
1559816681921385448	400 37 0.900000 0.102000 0.093000 600 35 0.900000 0.396000 0.360000 600 38 1.000000 0.051000 0.051000 1.200000 0.067000 0.081000
1559816682434034573	400 37 0.900000 0.101000 0.092000 600 35 0.900000 0.563000 0.510000 600 39 1.000000 0.051000 0.051000 1.200000 0.068000 0.082000
1559816682946768949	400 37 0.900000 0.102000 0.093000 600 35 0.900000 0.388000 0.353000 600 39 1.000000 0.051000 0.051000 1.200000 0.067000 0.081000
1559816683459470324	400 37 0.900000 0.102000 0.093000 600 35 0.900000 0.388000 0.353000 600 39 1.000000 0.051000 0.051000 1.200000 0.067000 0.081000
1559816683972064407	400 37 0.900000 0.102000 0.093000 600 35 0.900000 0.389000 0.354000 600 39 1.000000 0.051000 0.051000 1.200000 0.067000 0.081000
1559816684485810115	400 37 0.900000 0.102000 0.093000 600 35 0.900000 0.484000 0.439000 600 39 1.000000 0.051000 0.051000 1.200000 0.067000 0.081000
1559816684998844365	400 37 0.900000 0.105000 0.095000 600 35 0.900000 0.387000 0.352000 600 39 1.000000 0.051000 0.051000 1.200000 0.070000 0.084000
1559816685511545907	400 37 0.900000 0.102000 0.093000 600 35 0.900000 0.387000 0.352000 600 39 1.000000 0.051000 0.051000 1.200000 0.067000 0.081000
1559816686024026449	400 37 0.900000 0.102000 0.093000 600 35 0.900000 0.387000 0.352000 600 39 1.000000 0.051000 0.051000 1.200000 0.067000 0.081000
1559816686537139782	400 37 0.900000 0.102000 0.093000 600 35 0.900000 0.456000 0.415000 600 39 1.000000 0.051000 0.051000 1.200000 0.067000 0.081000
1559816687050019241	400 37 0.900000 0.105000 0.095000 600 35 0.900000 0.503000 0.457000 600 39 1.000000 0.051000 0.051000 1.200000 0.075000 0.090000
1559816687562377782	400 37 0.900000 0.102000 0.093000 600 35 0.900000 0.396000 0.360000 600 39 1.000000 0.051000 0.051000 1.200000 0.067000 0.081000
1559816688074806532	400 37 0.900000 0.102000 0.093000 600 35 0.900000 0.399000 0.363000 600 39 1.000000 0.051000 0.051000 1.200000 0.066000 0.079000
1559816688587291824	400 37 0.900000 0.102000 0.093000 600 35 0.900000 0.400000 0.364000 600 39 1.000000 0.051000 0.051000 1.200000 0.067000 0.081000
1559816689099570366	400 37 0.900000 0.106000 0.096000 600 35 0.900000 0.434000 0.395000 600 39 1.000000 0.051000 0.051000 1.200000 0.072000 0.087000
1559816689612342283	400 37 0.900000 0.102000 0.093000 600 35 0.900000 0.485000 0.440000 600 39 1.000000 0.051000 0.051000 1.200000 0.071000 0.085000
1559816690125033449	400 37 0.900000 0.102000 0.093000 600 35 0.900000 0.393000 0.358000 600 39 1.000000 0.051000 0.051000 1.200000 0.067000 0.081000
1559816690638008783	400 37 0.900000 0.102000 0.093000 600 35 0.900000 0.393000 0.358000 600 39 1.000000 0.051000 0.051000 1.200000 0.067000 0.081000
1559816691151412783	400 37 0.900000 0.102000 0.093000 600 35 0.900000 0.463000 0.421000 600 39 1.000000 0.051000 0.051000 1.200000 0.069000 0.083000
1559816691664234783	400 37 0.900000 0.105000 0.095000 600 35 0.900000 0.496000 0.451000 600 39 1.000000 0.051000 0.051000 1.200000 0.076000 0.092000
1559816692176862866	400 37 0.900000 0.102000 0.093000 600 35 0.900000 0.398000 0.362000 600 39 1.000000 0.051000 0.051000 1.200000 0.067000 0.081000
1559816692689659325	400 37 0.900000 0.102000 0.093000 600 35 0.900000 0.398000 0.362000 600 39 1.000000 0.051000 0.051000 1.200000 0.067000 0.081000
1559816693202578325	400 37 0.900000 0.102000 0.093000 600 35 0.900000 0.466000 0.424000 600 39 1.000000 0.051000 0.051000 1.200000 0.069000 0.083000
1559816693715130200	400 37 0.900000 0.103000 0.093000 600 35 0.900000 0.427000 0.388000 600 39 1.000000 0.051000 0.051000 1.200000 0.072000 0.087000
1559816694227655033	400 37 0.900000 0.102000 0.093000 600 35 0.900000 0.395000 0.359000 600 39 1.000000 0.051000 0.051000 1.200000 0.067000 0.081000
1559816694740329533	400 37 0.900000 0.102000 0.093000 600 35 0.900000 0.393000 0.358000 600 39 1.000000 0.051000 0.051000 1.200000 0.067000 0.081000
1559816695252983825	400 37 0.900000 0.102000 0.093000 600 35 0.900000 0.460000 0.417000 600 39 1.000000 0.051000 0.051000 1.200000 0.068000 0.082000
1559816695766216492	400 37 0.900000 0.104000 0.094000 600 35 0.900000 0.397000 0.361000 600 39 1.000000 0.051000 0.051000 1.200000 0.067000 0.081000
1559816696278857117	400 37 0.900000 0.102000 0.093000 600 35 0.900000 0.442000 0.402000 600 39 1.000000 0.051000 0.051000 1.200000 0.067000 0.081000
1559816696791217283	400 37 0.900000 0.103000 0.094000 600 35 0.900000 0.399000 0.363000 600 39 1.000000 0.051000 0.051000 1.200000 0.067000 0.081000
1559816697303783825	400 37 0.900000 0.102000 0.093000 600 35 0.900000 0.453000 0.412000 600 39 1.000000 0.051000 0.051000 1.200000 0.067000 0.081000
1559816697816398117	400 37 0.900000 0.102000 0.093000 600 35 0.900000 0.388000 0.353000 600 39 1.000000 0.051000 0.051000 1.200000 0.066000 0.079000
1559816698329044742	400 37 0.900000 0.106000 0.096000 600 35 0.900000 0.503000 0.457000 600 39 1.000000 0.051000 0.051000 1.200000 0.072000 0.087000
1559816698841683409	400 37 0.900000 0.102000 0.093000 600 35 0.900000 0.396000 0.360000 600 39 1.000000 0.051000 0.051000 1.200000 0.067000 0.081000
1559816699354512367	400 37 0.900000 0.103000 0.093000 600 35 0.900000 0.415000 0.378000 600 39 1.000000 0.051000 0.051000 1.200000 0.070000 0.084000
1559816699867179117	400 37 0.900000 0.102000 0.093000 600 35 0.900000 0.394000 0.358000 600 39 1.000000 0.051000 0.051000 1.200000 0.067000 0.081000
1559816700379710242	400 37 0.900000 0.103000 0.093000 600 35 0.900000 0.397000 0.361000 600 39 1.000000 0.051000 0.051000 1.200000 0.067000 0.081000
1559816700892358576	400 37 0.900000 0.104000 0.094000 600 35 0.900000 0.451000 0.410000 600 39 1.000000 0.051000 0.051000 1.200000 0.068000 0.082000
1559816701404974951	400 37 0.900000 0.102000 0.093000 600 35 0.900000 0.442000 0.402000 600 39 1.000000 0.051000 0.051000 1.200000 0.069000 0.083000
1559816701917717867	400 37 0.900000 0.102000 0.093000 600 35 0.900000 0.398000 0.362000 600 39 1.000000 0.051000 0.051000 1.200000 0.067000 0.081000
1559816702431439243	400 37 0.900000 0.103000 0.093000 600 35 0.900000 0.394000 0.358000 600 39 1.000000 0.051000 0.051000 1.200000 0.067000 0.081000
1559816702944258326	400 37 0.900000 0.104000 0.094000 600 35 0.900000 0.516000 0.468000 600 39 1.000000 0.051000 0.051000 1.200000 0.073000 0.088000
1559816703456922951	400 37 0.900000 0.102000 0.093000 600 35 0.900000 0.461000 0.419000 600 39 1.000000 0.051000 0.051000 1.200000 0.069000 0.083000
1559816703969534534	400 37 0.900000 0.102000 0.093000 600 35 0.900000 0.395000 0.359000 600 39 1.000000 0.051000 0.051000 1.200000 0.066000 0.079000
1559816704482095118	400 37 0.900000 0.102000 0.093000 600 35 0.900000 0.387000 0.352000 600 39 1.000000 0.051000 0.051000 1.200000 0.067000 0.081000
1559816704994641034	400 37 0.900000 0.104000 0.094000 600 35 0.900000 0.463000 0.421000 600 39 1.000000 0.051000 0.051000 1.200000 0.075000 0.090000
1559816705507186493	400 37 0.900000 0.102000 0.093000 600 35 0.900000 0.456000 0.415000 600 39 1.000000 0.051000 0.051000 1.200000 0.070000 0.084000
1559816706019741076	400 37 0.900000 0.102000 0.093000 600 35 0.900000 0.389000 0.354000 600 39 1.000000 0.051000 0.051000 1.200000 0.067000 0.081000
1559816706532210701	400 37 0.900000 0.103000 0.094000 600 35 0.900000 0.387000 0.352000 600 39 1.000000 0.051000 0.051000 1.200000 0.067000 0.081000
1559816707045685618	400 37 0.900000 0.103000 0.094000 600 35 0.900000 0.388000 0.353000 600 39 1.000000 0.051000 0.051000 1.200000 0.069000 0.083000
1559816707558739951	400 37 0.900000 0.106000 0.096000 600 35 0.900000 0.526000 0.479000 600 39 1.000000 0.051000 0.051000 1.200000 0.074000 0.089000
1559816708071301660	400 37 0.900000 0.102000 0.093000 600 35 0.900000 0.395000 0.359000 600 39 1.000000 0.051000 0.051000 1.200000 0.067000 0.081000
1559816708583781035	400 37 0.900000 0.103000 0.094000 600 35 0.900000 0.395000 0.359000 600 39 1.000000 0.051000 0.051000 1.200000 0.067000 0.081000
1559816709096376035	400 37 0.900000 0.102000 0.093000 600 35 0.900000 0.398000 0.362000 600 39 1.000000 0.051000 0.051000 1.200000 0.068000 0.082000
1559816709609389202	400 37 0.900000 0.105000 0.095000 600 35 0.900000 0.464000 0.422000 600 39 1.000000 0.051000 0.051000 1.200000 0.074000 0.089000
1559816710122033202	400 37 0.900000 0.103000 0.093000 600 35 0.900000 0.400000 0.364000 600 39 1.000000 0.051000 0.051000 1.200000 0.067000 0.081000
1559816710634612785	400 37 0.900000 0.103000 0.094000 600 35 0.900000 0.399000 0.363000 600 39 1.000000 0.050000 0.050000 1.200000 0.067000 0.081000
1559816711147167160	400 37 0.900000 0.103000 0.093000 600 35 0.900000 0.396000 0.360000 600 39 1.000000 0.051000 0.051000 1.200000 0.067000 0.081000
1559816711660707327	400 37 0.900000 0.103000 0.094000 600 35 0.900000 0.392000 0.357000 600 40 1.000000 0.051000 0.051000 1.200000 0.069000 0.083000
1559816712173647744	400 37 0.900000 0.104000 0.094000 600 35 0.900000 0.407000 0.370000 600 39 1.000000 0.051000 0.051000 1.200000 0.067000 0.081000
1559816712686531410	400 37 0.900000 0.103000 0.094000 600 35 0.900000 0.389000 0.354000 600 39 1.000000 0.051000 0.051000 1.200000 0.067000 0.081000
1559816713199127160	400 37 0.900000 0.103000 0.094000 600 35 0.900000 0.391000 0.356000 600 39 1.000000 0.051000 0.051000 1.200000 0.067000 0.081000
1559816713712730161	400 37 0.900000 0.102000 0.093000 600 35 0.900000 0.388000 0.353000 600 39 1.000000 0.051000 0.051000 1.200000 0.068000 0.082000
1559816714225563452	400 37 0.900000 0.106000 0.096000 600 35 0.900000 0.472000 0.429000 600 39 1.000000 0.051000 0.051000 1.200000 0.071000 0.085000
1559816714738270702	400 37 0.900000 0.103000 0.093000 600 35 0.900000 0.387000 0.352000 600 39 1.000000 0.051000 0.051000 1.200000 0.067000 0.081000
1559816715250879369	400 37 0.900000 0.103000 0.094000 600 35 0.900000 0.389000 0.354000 600 39 1.000000 0.051000 0.051000 1.200000 0.067000 0.081000
1559816715763184202	400 37 0.900000 0.103000 0.094000 600 35 0.900000 0.398000 0.362000 600 39 1.000000 0.051000 0.051000 1.200000 0.069000 0.083000
1559816716275690286	400 37 0.900000 0.102000 0.093000 600 35 0.900000 0.497000 0.452000 600 39 1.000000 0.051000 0.051000 1.200000 0.076000 0.091000
1559816716788321619	400 37 0.900000 0.106000 0.096000 600 35 0.900000 0.419000 0.381000 600 39 1.000000 0.051000 0.051000 1.200000 0.076000 0.092000
1559816717300848411	400 37 0.900000 0.103000 0.094000 600 35 0.900000 0.395000 0.359000 600 39 1.000000 0.051000 0.051000 1.200000 0.067000 0.081000
1559816717814096911	400 37 0.900000 0.103000 0.094000 600 35 0.900000 0.399000 0.363000 600 39 1.000000 0.051000 0.051000 1.200000 0.067000 0.081000
1559816718327782911	400 37 0.900000 0.103000 0.093000 600 35 0.900000 0.433000 0.394000 600 39 1.000000 0.051000 0.051000 1.200000 0.070000 0.084000
1559816718840558369	400 37 0.900000 0.106000 0.096000 600 35 0.900000 0.495000 0.450000 600 39 1.000000 0.051000 0.051000 1.200000 0.072000 0.087000
1559816719353464328	400 37 0.900000 0.102000 0.093000 600 35 0.900000 0.389000 0.354000 600 39 1.000000 0.051000 0.051000 1.200000 0.067000 0.081000
1559816719866235661	400 37 0.900000 0.102000 0.093000 600 35 0.900000 0.389000 0.354000 600 39 1.000000 0.051000 0.051000 1.200000 0.067000 0.081000
1559816720378879245	400 37 0.900000 0.102000 0.093000 600 35 0.900000 0.401000 0.365000 600 39 1.000000 0.051000 0.051000 1.200000 0.070000 0.084000
1559816720891486745	400 37 0.900000 0.105000 0.095000 600 35 0.900000 0.488000 0.444000 600 39 1.000000 0.051000 0.051000 1.200000 0.067000 0.081000
1559816721403975328	400 37 0.900000 0.102000 0.093000 600 35 0.900000 0.389000 0.354000 600 39 1.000000 0.051000 0.051000 1.200000 0.067000 0.081000
1559816721916635995	400 37 0.900000 0.103000 0.094000 600 35 0.900000 0.387000 0.352000 600 39 1.000000 0.051000 0.051000 1.200000 0.067000 0.081000
1559816722429660578	400 37 0.900000 0.102000 0.093000 600 35 0.900000 0.390000 0.355000 600 39 1.000000 0.051000 0.051000 1.200000 0.069000 0.083000
1559816722943208870	400 37 0.900000 0.103000 0.094000 600 35 0.900000 0.417000 0.379000 600 39 1.000000 0.051000 0.051000 1.200000 0.067000 0.081000
1559816723456131662	400 37 0.900000 0.104000 0.094000 600 35 0.900000 0.389000 0.354000 600 39 1.000000 0.051000 0.051000 1.200000 0.073000 0.088000
1559816723968838787	400 37 0.900000 0.103000 0.094000 600 35 0.900000 0.386000 0.351000 600 39 1.000000 0.051000 0.051000 1.200000 0.067000 0.081000
1559816724481585162	400 37 0.900000 0.102000 0.093000 600 35 0.900000 0.388000 0.353000 600 39 1.000000 0.051000 0.051000 1.200000 0.069000 0.083000
1559816724994147162	400 37 0.900000 0.103000 0.094000 600 35 0.900000 0.389000 0.354000 600 39 1.000000 0.051000 0.051000 1.200000 0.067000 0.081000
1559816725506864870	400 37 0.900000 0.106000 0.096000 600 35 0.900000 0.432000 0.393000 600 39 1.000000 0.051000 0.051000 1.200000 0.075000 0.090000
1559816726019494537	400 37 0.900000 0.103000 0.094000 600 35 0.900000 0.432000 0.393000 600 39 1.000000 0.051000 0.051000 1.200000 0.069000 0.083000
1559816726532066329	400 37 0.900000 0.102000 0.093000 600 35 0.900000 0.394000 0.358000 600 39 1.000000 0.051000 0.051000 1.200000 0.067000 0.081000
1559816727044508245	400 37 0.900000 0.102000 0.093000 600 35 0.900000 0.398000 0.362000 600 39 1.000000 0.051000 0.051000 1.200000 0.067000 0.081000
1559816727559493079	400 37 0.900000 0.102000 0.093000 600 35 0.900000 0.399000 0.363000 600 39 1.000000 0.051000 0.051000 1.200000 0.067000 0.081000
1559816728071982121	400 37 0.900000 0.103000 0.094000 600 35 0.900000 0.537000 0.489000 600 39 1.000000 0.051000 0.051000 1.200000 0.071000 0.085000
1559816728584894662	400 37 0.900000 0.102000 0.093000 600 35 0.900000 0.398000 0.362000 600 39 1.000000 0.051000 0.051000 1.200000 0.068000 0.082000
1559816729097594037	400 37 0.900000 0.102000 0.093000 600 35 0.900000 0.398000 0.362000 600 39 1.000000 0.051000 0.051000 1.200000 0.067000 0.081000
1559816729612891287	400 37 0.900000 0.103000 0.094000 600 35 0.900000 0.396000 0.360000 600 39 1.000000 0.051000 0.051000 1.200000 0.067000 0.081000
1559816730125766287	400 37 0.900000 0.101000 0.092000 600 35 0.900000 0.512000 0.464000 600 39 1.000000 0.051000 0.051000 1.200000 0.073000 0.088000
1559816730638641954	400 37 0.900000 0.102000 0.093000 600 35 0.900000 0.394000 0.359000 600 39 1.000000 0.051000 0.051000 1.200000 0.068000 0.082000
1559816731151383788	400 37 0.900000 0.102000 0.093000 600 35 0.900000 0.397000 0.361000 600 39 1.000000 0.051000 0.051000 1.200000 0.067000 0.081000
1559816731663966663	400 37 0.900000 0.103000 0.094000 600 35 0.900000 0.395000 0.360000 600 39 1.000000 0.051000 0.051000 1.200000 0.067000 0.081000
1559816732176507038	400 37 0.900000 0.101000 0.092000 600 35 0.900000 0.433000 0.394000 600 39 1.000000 0.051000 0.051000 1.200000 0.070000 0.084000
1559816732689393288	400 37 0.900000 0.102000 0.093000 600 35 0.900000 0.407000 0.371000 600 39 1.000000 0.051000 0.051000 1.200000 0.068000 0.082000
1559816733201870163	400 37 0.900000 0.103000 0.093000 600 35 0.900000 0.399000 0.363000 600 39 1.000000 0.051000 0.051000 1.200000 0.067000 0.081000
1559816733714467871	400 37 0.900000 0.104000 0.094000 600 35 0.900000 0.398000 0.362000 600 39 1.000000 0.051000 0.051000 1.200000 0.067000 0.081000
1559816734229159746	400 37 0.900000 0.102000 0.093000 600 35 0.900000 0.389000 0.354000 600 39 1.000000 0.051000 0.051000 1.200000 0.067000 0.081000
1559816734742005413	400 37 0.900000 0.102000 0.093000 600 35 0.900000 0.444000 0.404000 600 39 1.000000 0.051000 0.051000 1.200000 0.070000 0.084000
1559816735253487455	400 35 0.900000 0.103000 0.093000 600 34 0.900000 0.433000 0.394000 600 39 1.000000 0.051000 0.051000 1.200000 0.068000 0.082000
1559816735764733663	400 34 0.900000 0.051000 0.046000 600 34 0.900000 0.157000 0.143000 600 38 1.000000 0.051000 0.051000 1.200000 0.030000 0.036000
