#Timestamp	CPU(0) Frequency(MHz)	CPU(0) Temperature(C)	A7 Voltage(V)	A7 Current(A)	A7 Power(W)	CPU(4) Frequency(MHz)	CPU(4) Temperature(C)	A15 Voltage(V)	A15 Current(A)	A15 Power(W)	GPU Frequency(MHz)	GPU Temperature(C)	GPU Voltage(V)	GPU Current(A)	GPU Power(W)	RAM Voltage(V)	RAM Current(A)	RAM Power(W)
1553304592124488674	800 32 1.000000 0.038000 0.039000 400 31 0.900000 0.226000 0.216000 600 35 1.000000 0.050000 0.050000 1.200000 0.038000 0.045000
1553304592641876174	800 32 1.000000 0.104000 0.106000 400 31 0.900000 0.070000 0.063000 600 35 1.000000 0.051000 0.051000 1.200000 0.039000 0.047000
1553304593156913424	800 32 1.000000 0.109000 0.111000 400 31 0.900000 0.206000 0.187000 600 35 1.000000 0.050000 0.050000 1.200000 0.048000 0.058000
1553304593672146924	800 32 1.000000 0.106000 0.108000 400 31 0.900000 0.148000 0.134000 600 35 1.000000 0.050000 0.050000 1.200000 0.042000 0.050000
1553304594186848716	800 32 1.000000 0.106000 0.108000 400 31 0.900000 0.070000 0.063000 600 35 1.000000 0.050000 0.050000 1.200000 0.039000 0.047000
1553304594701607424	800 32 1.000000 0.092000 0.094000 400 31 0.900000 0.063000 0.057000 600 35 1.000000 0.050000 0.050000 1.200000 0.025000 0.030000
1553304595216602549	800 32 1.000000 0.093000 0.095000 400 31 0.900000 0.108000 0.098000 600 35 1.000000 0.050000 0.050000 1.200000 0.033000 0.039000
1553304595731401050	800 32 1.000000 0.092000 0.094000 400 31 0.900000 0.140000 0.127000 600 35 1.000000 0.050000 0.050000 1.200000 0.029000 0.035000
1553304596246062466	800 31 1.000000 0.092000 0.094000 400 31 0.900000 0.063000 0.057000 600 35 1.000000 0.050000 0.050000 1.200000 0.024000 0.028000
1553304596760879383	800 31 1.000000 0.092000 0.094000 400 31 0.900000 0.063000 0.057000 600 35 1.000000 0.050000 0.050000 1.200000 0.024000 0.028000
1553304597276404008	800 32 1.000000 0.092000 0.094000 400 31 0.900000 0.052000 0.047000 600 35 1.000000 0.050000 0.050000 1.200000 0.025000 0.030000
1553304597791405425	800 31 1.000000 0.093000 0.095000 400 31 0.900000 0.165000 0.150000 600 35 1.000000 0.050000 0.050000 1.200000 0.030000 0.036000
1553304598306035133	800 31 1.000000 0.091000 0.093000 400 31 0.900000 0.053000 0.048000 600 35 1.000000 0.050000 0.050000 1.200000 0.024000 0.028000
1553304598820654467	800 31 1.000000 0.091000 0.093000 400 31 0.900000 0.053000 0.048000 600 35 1.000000 0.050000 0.050000 1.200000 0.024000 0.028000
1553304599335176425	800 31 1.000000 0.092000 0.094000 400 31 0.900000 0.052000 0.047000 600 35 1.000000 0.050000 0.050000 1.200000 0.024000 0.028000
1553304599850118383	800 32 1.000000 0.099000 0.101000 400 31 0.900000 0.234000 0.213000 600 35 1.000000 0.050000 0.050000 1.200000 0.037000 0.044000
1553304600364590633	800 31 1.000000 0.092000 0.094000 400 31 0.900000 0.052000 0.047000 600 35 1.000000 0.051000 0.051000 1.200000 0.024000 0.028000
1553304600879052092	800 31 1.000000 0.091000 0.093000 400 31 0.900000 0.055000 0.050000 600 35 1.000000 0.050000 0.050000 1.200000 0.025000 0.030000
1553304601393607592	800 31 1.000000 0.092000 0.094000 400 31 0.900000 0.053000 0.048000 600 35 1.000000 0.050000 0.050000 1.200000 0.025000 0.030000
1553304601909089800	800 32 1.000000 0.096000 0.098000 400 31 0.900000 0.206000 0.187000 600 35 1.000000 0.050000 0.050000 1.200000 0.042000 0.050000
1553304602424068842	800 31 1.000000 0.099000 0.101000 400 31 0.900000 0.117000 0.106000 600 35 1.000000 0.050000 0.050000 1.200000 0.027000 0.032000
1553304602938267759	800 31 1.000000 0.092000 0.094000 400 31 0.900000 0.060000 0.054000 600 35 1.000000 0.051000 0.051000 1.200000 0.025000 0.030000
1553304603452559384	800 31 1.000000 0.092000 0.094000 400 31 0.900000 0.061000 0.055000 600 35 1.000000 0.050000 0.050000 1.200000 0.024000 0.028000
1553304603967847384	800 32 1.000000 0.092000 0.094000 400 31 0.900000 0.061000 0.055000 600 35 1.000000 0.050000 0.050000 1.200000 0.024000 0.028000
1553304604482433592	800 31 1.000000 0.102000 0.104000 400 31 0.900000 0.197000 0.179000 600 35 1.000000 0.050000 0.050000 1.200000 0.033000 0.039000
1553304604996812801	800 31 1.000000 0.091000 0.093000 400 31 0.900000 0.060000 0.054000 600 35 1.000000 0.050000 0.050000 1.200000 0.025000 0.030000
1553304605511047301	800 31 1.000000 0.092000 0.094000 400 31 0.900000 0.054000 0.049000 600 35 1.000000 0.050000 0.050000 1.200000 0.025000 0.030000
1553304606025875801	800 31 1.000000 0.091000 0.093000 400 31 0.900000 0.055000 0.050000 600 35 1.000000 0.050000 0.050000 1.200000 0.025000 0.030000
1553304606540564217	800 31 1.000000 0.092000 0.094000 400 31 0.900000 0.138000 0.125000 600 35 1.000000 0.050000 0.050000 1.200000 0.031000 0.037000
1553304607055025718	800 31 1.000000 0.093000 0.095000 400 31 0.900000 0.052000 0.047000 600 35 1.000000 0.050000 0.050000 1.200000 0.027000 0.032000
1553304607569326384	800 31 1.000000 0.091000 0.093000 400 30 0.900000 0.051000 0.046000 600 35 1.000000 0.050000 0.050000 1.200000 0.025000 0.030000
1553304608084178926	800 31 1.000000 0.092000 0.094000 400 31 0.900000 0.052000 0.047000 600 35 1.000000 0.051000 0.051000 1.200000 0.025000 0.030000
1553304608599968426	800 32 1.000000 0.092000 0.094000 400 31 0.900000 0.053000 0.048000 600 35 1.000000 0.050000 0.050000 1.200000 0.031000 0.037000
1553304609114953676	800 31 1.000000 0.096000 0.098000 400 31 0.900000 0.054000 0.049000 600 35 1.000000 0.050000 0.050000 1.200000 0.035000 0.042000
1553304609629247218	800 31 1.000000 0.091000 0.093000 400 31 0.900000 0.051000 0.046000 600 35 1.000000 0.050000 0.050000 1.200000 0.025000 0.030000
1553304610143728051	800 31 1.000000 0.092000 0.094000 400 31 0.900000 0.053000 0.048000 600 35 1.000000 0.050000 0.050000 1.200000 0.025000 0.030000
1553304610658325135	800 31 1.000000 0.091000 0.093000 400 31 0.900000 0.053000 0.048000 600 35 1.000000 0.050000 0.050000 1.200000 0.030000 0.036000
1553304611173134176	800 31 1.000000 0.098000 0.100000 400 31 0.900000 0.130000 0.118000 600 35 1.000000 0.050000 0.050000 1.200000 0.036000 0.043000
1553304611687663010	800 31 1.000000 0.092000 0.094000 400 31 0.900000 0.054000 0.049000 600 35 1.000000 0.050000 0.050000 1.200000 0.026000 0.031000
1553304612202029551	800 31 1.000000 0.091000 0.093000 400 31 0.900000 0.052000 0.047000 600 35 1.000000 0.050000 0.050000 1.200000 0.024000 0.028000
1553304612716828843	800 31 1.000000 0.091000 0.093000 400 31 0.900000 0.138000 0.125000 600 35 1.000000 0.050000 0.050000 1.200000 0.025000 0.030000
1553304613232008677	800 32 1.000000 0.091000 0.093000 400 31 0.900000 0.061000 0.055000 600 35 1.000000 0.050000 0.050000 1.200000 0.025000 0.030000
1553304613746624385	800 31 1.000000 0.101000 0.103000 400 31 0.900000 0.066000 0.060000 600 35 1.000000 0.050000 0.050000 1.200000 0.036000 0.043000
1553304614261001302	800 31 1.000000 0.092000 0.094000 400 31 0.900000 0.052000 0.047000 600 35 1.000000 0.050000 0.050000 1.200000 0.025000 0.030000
1553304614775636718	800 31 1.000000 0.092000 0.094000 400 31 0.900000 0.061000 0.055000 600 35 1.000000 0.050000 0.050000 1.200000 0.025000 0.030000
1553304615291105344	800 31 1.000000 0.092000 0.094000 400 31 0.900000 0.061000 0.055000 600 35 1.000000 0.050000 0.050000 1.200000 0.025000 0.030000
1553304615805920302	800 31 1.000000 0.103000 0.105000 400 31 0.900000 0.124000 0.113000 600 35 1.000000 0.050000 0.050000 1.200000 0.034000 0.041000
1553304616320357635	800 31 1.000000 0.092000 0.094000 400 31 0.900000 0.063000 0.057000 600 35 1.000000 0.050000 0.050000 1.200000 0.025000 0.030000
1553304616834918010	800 31 1.000000 0.092000 0.094000 400 31 0.900000 0.061000 0.055000 600 35 1.000000 0.050000 0.050000 1.200000 0.025000 0.030000
1553304617349294469	800 31 1.000000 0.092000 0.094000 400 31 0.900000 0.060000 0.054000 600 35 1.000000 0.050000 0.050000 1.200000 0.026000 0.031000
1553304617864066677	800 31 1.000000 0.100000 0.102000 400 31 0.900000 0.060000 0.054000 600 35 1.000000 0.050000 0.050000 1.200000 0.027000 0.032000
1553304618378457844	800 31 1.000000 0.095000 0.097000 400 31 0.900000 0.082000 0.074000 600 35 1.000000 0.050000 0.050000 1.200000 0.025000 0.030000
1553304618893300636	800 31 1.000000 0.092000 0.094000 400 31 0.900000 0.061000 0.055000 600 35 1.000000 0.050000 0.050000 1.200000 0.025000 0.030000
1553304619408009011	800 31 1.000000 0.092000 0.094000 400 31 0.900000 0.062000 0.056000 600 35 1.000000 0.050000 0.050000 1.200000 0.026000 0.031000
1553304619923227219	800 31 1.000000 0.091000 0.093000 400 31 0.900000 0.060000 0.054000 600 35 1.000000 0.050000 0.050000 1.200000 0.025000 0.030000
1553304620438065594	800 31 1.000000 0.098000 0.100000 400 30 0.900000 0.157000 0.143000 600 35 1.000000 0.050000 0.050000 1.200000 0.031000 0.037000
1553304620952642178	800 31 1.000000 0.091000 0.093000 400 31 0.900000 0.062000 0.056000 600 35 1.000000 0.050000 0.050000 1.200000 0.024000 0.028000
1553304621467032178	800 31 1.000000 0.092000 0.094000 400 31 0.900000 0.062000 0.056000 600 35 1.000000 0.050000 0.050000 1.200000 0.025000 0.030000
1553304621981367428	800 31 1.000000 0.091000 0.093000 400 30 0.900000 0.059000 0.053000 600 35 1.000000 0.050000 0.050000 1.200000 0.026000 0.031000
1553304622496059178	800 31 1.000000 0.100000 0.102000 400 31 0.900000 0.173000 0.157000 600 35 1.000000 0.050000 0.050000 1.200000 0.037000 0.044000
1553304623011661136	800 32 1.000000 0.092000 0.094000 400 31 0.900000 0.091000 0.082000 600 35 1.000000 0.050000 0.050000 1.200000 0.025000 0.030000
1553304623526199803	800 31 1.000000 0.093000 0.095000 400 31 0.900000 0.140000 0.127000 600 35 1.000000 0.050000 0.050000 1.200000 0.031000 0.037000
1553304624040702678	800 31 1.000000 0.092000 0.094000 400 31 0.900000 0.064000 0.058000 600 35 1.000000 0.050000 0.050000 1.200000 0.026000 0.031000
1553304624555980595	800 31 1.000000 0.092000 0.094000 400 31 0.900000 0.062000 0.056000 600 35 1.000000 0.050000 0.050000 1.200000 0.025000 0.030000
1553304625070931678	800 32 1.000000 0.104000 0.106000 400 31 0.900000 0.164000 0.149000 600 35 1.000000 0.050000 0.050000 1.200000 0.032000 0.038000
1553304625585631845	800 31 1.000000 0.092000 0.094000 400 31 0.900000 0.134000 0.122000 600 35 1.000000 0.050000 0.050000 1.200000 0.032000 0.038000
1553304626100024386	800 31 1.000000 0.092000 0.094000 400 31 0.900000 0.062000 0.056000 600 35 1.000000 0.051000 0.051000 1.200000 0.025000 0.030000
1553304626615227720	800 31 1.000000 0.091000 0.093000 400 30 0.900000 0.061000 0.055000 600 35 1.000000 0.050000 0.050000 1.200000 0.025000 0.030000
1553304627130000970	800 31 1.000000 0.101000 0.103000 400 31 0.900000 0.170000 0.154000 600 35 1.000000 0.050000 0.050000 1.200000 0.038000 0.045000
1553304627644673345	800 31 1.000000 0.093000 0.095000 400 31 0.900000 0.135000 0.123000 600 35 1.000000 0.050000 0.050000 1.200000 0.032000 0.038000
1553304628158951053	800 31 1.000000 0.092000 0.094000 400 31 0.900000 0.064000 0.058000 600 35 1.000000 0.050000 0.050000 1.200000 0.025000 0.030000
1553304628673306803	800 31 1.000000 0.091000 0.093000 400 30 0.900000 0.063000 0.057000 600 35 1.000000 0.050000 0.050000 1.200000 0.024000 0.028000
1553304629187880720	800 31 1.000000 0.098000 0.100000 400 31 0.900000 0.091000 0.082000 600 35 1.000000 0.050000 0.050000 1.200000 0.031000 0.037000
1553304629702422054	800 31 1.000000 0.093000 0.095000 400 31 0.900000 0.139000 0.126000 600 35 1.000000 0.050000 0.050000 1.200000 0.030000 0.036000
1553304630216816470	800 31 1.000000 0.092000 0.094000 400 31 0.900000 0.058000 0.052000 600 35 1.000000 0.050000 0.050000 1.200000 0.025000 0.030000
1553304630731223637	800 31 1.000000 0.091000 0.093000 400 31 0.900000 0.054000 0.049000 600 34 1.000000 0.050000 0.050000 1.200000 0.025000 0.030000
1553304631246777054	800 31 1.000000 0.091000 0.093000 400 30 0.900000 0.053000 0.048000 600 35 1.000000 0.050000 0.050000 1.200000 0.024000 0.028000
1553304631761452554	800 31 1.000000 0.101000 0.103000 400 31 0.900000 0.178000 0.162000 600 35 1.000000 0.050000 0.050000 1.200000 0.031000 0.037000
1553304632275880512	800 31 1.000000 0.092000 0.094000 400 31 0.900000 0.052000 0.047000 600 35 1.000000 0.050000 0.050000 1.200000 0.025000 0.030000
1553304632790146137	800 31 1.000000 0.091000 0.093000 400 30 0.900000 0.053000 0.048000 600 35 1.000000 0.050000 0.050000 1.200000 0.024000 0.028000
1553304633304610554	800 31 1.000000 0.092000 0.094000 400 31 0.900000 0.053000 0.048000 600 35 1.000000 0.050000 0.050000 1.200000 0.024000 0.028000
1553304633819243137	800 31 1.000000 0.093000 0.095000 400 31 0.900000 0.082000 0.074000 600 35 1.000000 0.050000 0.050000 1.200000 0.030000 0.036000
1553304634333583554	800 31 1.000000 0.092000 0.094000 400 31 0.900000 0.061000 0.055000 600 34 1.000000 0.050000 0.050000 1.200000 0.024000 0.028000
1553304634847873054	800 31 1.000000 0.092000 0.094000 400 30 0.900000 0.059000 0.053000 600 35 1.000000 0.050000 0.050000 1.200000 0.025000 0.030000
1553304635362142054	800 31 1.000000 0.092000 0.094000 400 31 0.900000 0.061000 0.055000 600 35 1.000000 0.050000 0.050000 1.200000 0.026000 0.031000
1553304635877172888	800 31 1.000000 0.091000 0.093000 400 30 0.900000 0.063000 0.057000 600 35 1.000000 0.050000 0.050000 1.200000 0.025000 0.030000
1553304636391963138	800 31 1.000000 0.094000 0.096000 400 31 0.900000 0.126000 0.114000 600 35 1.000000 0.050000 0.050000 1.200000 0.028000 0.033000
1553304636906341513	800 31 1.000000 0.092000 0.094000 400 31 0.900000 0.061000 0.055000 600 35 1.000000 0.051000 0.051000 1.200000 0.024000 0.028000
1553304637420635013	800 31 1.000000 0.092000 0.094000 400 31 0.900000 0.061000 0.055000 600 35 1.000000 0.050000 0.050000 1.200000 0.024000 0.028000
1553304637936356721	800 31 1.000000 0.091000 0.093000 400 30 0.900000 0.061000 0.055000 600 35 1.000000 0.050000 0.050000 1.200000 0.024000 0.028000
1553304638450736180	800 31 1.000000 0.099000 0.101000 400 31 0.900000 0.199000 0.181000 600 35 1.000000 0.050000 0.050000 1.200000 0.035000 0.042000
1553304638965297805	800 31 1.000000 0.092000 0.094000 400 31 0.900000 0.053000 0.048000 600 35 1.000000 0.050000 0.050000 1.200000 0.024000 0.028000
1553304639479496638	800 31 1.000000 0.092000 0.094000 400 30 0.900000 0.050000 0.045000 600 35 1.000000 0.050000 0.050000 1.200000 0.024000 0.028000
1553304639994573305	800 31 1.000000 0.092000 0.094000 400 31 0.900000 0.052000 0.047000 600 35 1.000000 0.050000 0.050000 1.200000 0.024000 0.028000
1553304640509158263	800 31 1.000000 0.095000 0.097000 400 31 0.900000 0.127000 0.115000 600 35 1.000000 0.050000 0.050000 1.200000 0.034000 0.041000
1553304641023431680	800 31 1.000000 0.092000 0.094000 400 31 0.900000 0.053000 0.048000 600 35 1.000000 0.050000 0.050000 1.200000 0.025000 0.030000
1553304641538089930	800 31 1.000000 0.092000 0.094000 400 31 0.900000 0.051000 0.046000 600 34 1.000000 0.050000 0.050000 1.200000 0.024000 0.028000
1553304642052773388	800 31 1.000000 0.092000 0.094000 400 30 0.900000 0.052000 0.047000 600 35 1.000000 0.050000 0.050000 1.200000 0.025000 0.030000
1553304642567402680	800 31 1.000000 0.093000 0.095000 400 31 0.900000 0.052000 0.047000 600 35 1.000000 0.050000 0.050000 1.200000 0.027000 0.032000
1553304643081994972	800 31 1.000000 0.091000 0.093000 400 31 0.900000 0.061000 0.055000 600 35 1.000000 0.050000 0.050000 1.200000 0.024000 0.028000
1553304643596255764	800 31 1.000000 0.092000 0.094000 400 30 0.900000 0.052000 0.047000 600 35 1.000000 0.050000 0.050000 1.200000 0.024000 0.028000
1553304644110771639	800 31 1.000000 0.091000 0.093000 400 30 0.900000 0.060000 0.054000 600 34 1.000000 0.051000 0.051000 1.200000 0.026000 0.031000
1553304644625491722	800 31 1.000000 0.092000 0.094000 400 30 0.900000 0.139000 0.126000 600 34 1.000000 0.051000 0.051000 1.200000 0.031000 0.037000
1553304645140176930	800 31 1.000000 0.092000 0.094000 400 31 0.900000 0.126000 0.114000 600 35 1.000000 0.051000 0.051000 1.200000 0.033000 0.039000
1553304645654472722	800 31 1.000000 0.093000 0.095000 400 30 0.900000 0.061000 0.055000 600 34 1.000000 0.050000 0.050000 1.200000 0.025000 0.030000
1553304646168880347	800 31 1.000000 0.091000 0.093000 400 30 0.900000 0.061000 0.055000 600 35 1.000000 0.051000 0.051000 1.200000 0.025000 0.030000
1553304646683514931	800 31 1.000000 0.092000 0.094000 400 31 0.900000 0.132000 0.120000 600 35 1.000000 0.050000 0.050000 1.200000 0.025000 0.030000
1553304647200652556	800 31 1.000000 0.091000 0.093000 400 30 0.900000 0.061000 0.055000 600 35 1.000000 0.050000 0.050000 1.200000 0.026000 0.031000
1553304647716958972	800 31 1.000000 0.109000 0.111000 400 31 0.900000 0.102000 0.093000 600 35 1.000000 0.050000 0.050000 1.200000 0.055000 0.066000
1553304648232973681	800 31 1.000000 0.106000 0.108000 400 31 0.900000 0.067000 0.061000 600 35 1.000000 0.050000 0.050000 1.200000 0.045000 0.054000
1553304648749010514	800 31 1.000000 0.106000 0.108000 400 31 0.900000 0.138000 0.125000 600 35 1.000000 0.050000 0.050000 1.200000 0.045000 0.054000
1553304649264950098	800 31 1.000000 0.105000 0.107000 400 31 0.900000 0.064000 0.058000 600 35 1.000000 0.050000 0.050000 1.200000 0.045000 0.054000
1553304649780987056	800 31 1.000000 0.111000 0.113000 400 31 0.900000 0.192000 0.175000 600 35 1.000000 0.050000 0.050000 1.200000 0.049000 0.059000
1553304650296918973	800 31 1.000000 0.105000 0.107000 400 31 0.900000 0.066000 0.060000 600 35 1.000000 0.050000 0.050000 1.200000 0.045000 0.054000
1553304650812948348	800 31 1.000000 0.106000 0.108000 400 31 0.900000 0.139000 0.126000 600 35 1.000000 0.050000 0.050000 1.200000 0.045000 0.054000
1553304651328870223	800 31 1.000000 0.106000 0.108000 400 31 0.900000 0.065000 0.059000 600 35 1.000000 0.050000 0.050000 1.200000 0.045000 0.054000
1553304651845810515	800 32 1.000000 0.106000 0.108000 400 31 0.900000 0.138000 0.125000 600 35 1.000000 0.050000 0.050000 1.200000 0.045000 0.054000
1553304652361736223	800 31 1.000000 0.107000 0.109000 400 31 0.900000 0.066000 0.060000 600 35 1.000000 0.050000 0.050000 1.200000 0.050000 0.060000
1553304652877851390	800 31 1.000000 0.105000 0.107000 400 31 0.900000 0.149000 0.135000 600 35 1.000000 0.050000 0.050000 1.200000 0.050000 0.060000
1553304653393765098	800 31 1.000000 0.106000 0.108000 400 31 0.900000 0.066000 0.060000 600 35 1.000000 0.050000 0.050000 1.200000 0.046000 0.055000
1553304653909555348	800 31 1.000000 0.106000 0.108000 400 31 0.900000 0.076000 0.069000 600 35 1.000000 0.050000 0.050000 1.200000 0.045000 0.054000
1553304654425818598	800 31 1.000000 0.110000 0.112000 400 31 0.900000 0.188000 0.171000 600 35 1.000000 0.050000 0.050000 1.200000 0.055000 0.066000
1553304654940940182	800 32 1.000000 0.106000 0.108000 400 31 0.900000 0.075000 0.068000 600 35 1.000000 0.050000 0.050000 1.200000 0.045000 0.054000
1553304655455770848	800 31 1.000000 0.106000 0.108000 400 31 0.900000 0.140000 0.127000 600 35 1.000000 0.050000 0.050000 1.200000 0.047000 0.056000
1553304655970450598	800 31 1.000000 0.106000 0.108000 400 31 0.900000 0.076000 0.069000 600 35 1.000000 0.050000 0.050000 1.200000 0.045000 0.054000
1553304656486058765	800 32 1.000000 0.106000 0.108000 400 31 0.900000 0.074000 0.067000 600 35 1.000000 0.050000 0.050000 1.200000 0.045000 0.054000
1553304657001288807	800 32 1.000000 0.112000 0.114000 400 31 0.900000 0.189000 0.172000 600 35 1.000000 0.050000 0.050000 1.200000 0.051000 0.061000
1553304657516105057	800 31 1.000000 0.108000 0.110000 400 31 0.900000 0.143000 0.130000 600 35 1.000000 0.050000 0.050000 1.200000 0.044000 0.053000
1553304658030690224	800 31 1.000000 0.107000 0.109000 400 31 0.900000 0.076000 0.069000 600 35 1.000000 0.050000 0.050000 1.200000 0.041000 0.049000
1553304658546192974	800 32 1.000000 0.107000 0.109000 400 31 0.900000 0.076000 0.069000 600 35 1.000000 0.050000 0.050000 1.200000 0.043000 0.051000
1553304659062059890	800 31 1.000000 0.114000 0.116000 400 31 0.900000 0.149000 0.135000 600 35 1.000000 0.050000 0.050000 1.200000 0.053000 0.064000
1553304659576958640	800 31 1.000000 0.107000 0.109000 400 31 0.900000 0.143000 0.130000 600 35 1.000000 0.050000 0.050000 1.200000 0.046000 0.055000
1553304660091400641	800 31 1.000000 0.107000 0.109000 400 31 0.900000 0.075000 0.068000 600 35 1.000000 0.050000 0.050000 1.200000 0.045000 0.054000
1553304660606138307	800 31 1.000000 0.106000 0.108000 400 31 0.900000 0.075000 0.068000 600 35 1.000000 0.050000 0.050000 1.200000 0.044000 0.053000
1553304661122760432	800 31 1.000000 0.040000 0.041000 400 31 0.900000 0.090000 0.082000 600 35 1.000000 0.050000 0.050000 1.200000 0.040000 0.048000
1553304661638685141	800 31 1.000000 0.033000 0.033000 400 30 0.900000 0.118000 0.107000 600 35 1.000000 0.050000 0.050000 1.200000 0.027000 0.032000
