#Timestamp	CPU(0) Frequency(MHz)	CPU(0) Temperature(C)	A7 Voltage(V)	A7 Current(A)	A7 Power(W)	CPU(4) Frequency(MHz)	CPU(4) Temperature(C)	A15 Voltage(V)	A15 Current(A)	A15 Power(W)	GPU Frequency(MHz)	GPU Temperature(C)	GPU Voltage(V)	GPU Current(A)	GPU Power(W)	RAM Voltage(V)	RAM Current(A)	RAM Power(W)
1517162481943390297	500 39 1.000000 0.051000 0.052000 600 39 0.900000 0.437000 0.398000 600 43 1.000000 0.052000 0.052000 1.200000 0.054000 0.065000
1517162482455217172	500 40 0.900000 0.022000 0.020000 600 39 0.900000 0.313000 0.285000 600 43 1.000000 0.051000 0.051000 1.200000 0.052000 0.063000
1517162482967049338	500 40 0.900000 0.022000 0.020000 600 38 0.900000 0.312000 0.284000 600 43 1.000000 0.051000 0.051000 1.200000 0.028000 0.033000
1517162483478666088	500 40 0.900000 0.021000 0.019000 600 38 0.900000 0.321000 0.292000 600 42 1.000000 0.051000 0.051000 1.200000 0.030000 0.036000
1517162483989976172	500 40 0.900000 0.022000 0.020000 600 38 0.900000 0.474000 0.431000 600 43 1.000000 0.051000 0.051000 1.200000 0.035000 0.042000
1517162484501760880	500 40 0.900000 0.021000 0.019000 600 38 0.900000 0.311000 0.283000 600 42 1.000000 0.051000 0.051000 1.200000 0.030000 0.036000
1517162485013277922	500 40 0.900000 0.020000 0.018000 600 38 0.900000 0.313000 0.285000 600 42 1.000000 0.051000 0.051000 1.200000 0.028000 0.033000
1517162485525166214	500 39 0.900000 0.020000 0.018000 600 38 0.900000 0.322000 0.293000 600 42 1.000000 0.051000 0.051000 1.200000 0.028000 0.033000
1517162486037241089	500 39 0.900000 0.022000 0.020000 600 38 0.900000 0.316000 0.287000 600 42 1.000000 0.051000 0.051000 1.200000 0.033000 0.039000
1517162486548944380	500 39 0.900000 0.021000 0.019000 600 38 0.900000 0.444000 0.404000 600 42 1.000000 0.051000 0.051000 1.200000 0.030000 0.036000
1517162487062448172	500 39 0.900000 0.021000 0.019000 600 38 0.900000 0.311000 0.283000 600 42 1.000000 0.051000 0.051000 1.200000 0.029000 0.035000
1517162487574589714	500 39 0.900000 0.021000 0.019000 600 38 0.900000 0.322000 0.293000 600 42 1.000000 0.051000 0.051000 1.200000 0.031000 0.037000
1517162488086654464	500 39 0.900000 0.022000 0.020000 600 38 0.900000 0.527000 0.480000 600 42 1.000000 0.051000 0.051000 1.200000 0.024000 0.029000
1517162488597938464	500 40 0.900000 0.022000 0.020000 600 38 0.900000 0.589000 0.531000 600 43 1.000000 0.051000 0.051000 1.200000 0.038000 0.045000
1517162489109684589	500 40 0.900000 0.022000 0.020000 600 38 0.900000 0.542000 0.488000 600 43 1.000000 0.051000 0.051000 1.200000 0.025000 0.030000
1517162489621199464	500 40 0.900000 0.022000 0.020000 600 38 0.900000 0.524000 0.472000 600 42 1.000000 0.051000 0.051000 1.200000 0.025000 0.030000
1517162490132543797	500 40 0.900000 0.022000 0.020000 600 38 0.900000 0.536000 0.483000 600 43 1.000000 0.051000 0.051000 1.200000 0.031000 0.037000
1517162490644737714	500 40 0.900000 0.022000 0.020000 600 38 0.900000 0.565000 0.509000 600 43 1.000000 0.051000 0.051000 1.200000 0.029000 0.035000
1517162491156457714	500 40 0.900000 0.024000 0.021000 600 38 0.900000 0.593000 0.535000 600 43 1.000000 0.051000 0.051000 1.200000 0.024000 0.028000
1517162491668589048	500 40 0.900000 0.022000 0.020000 600 38 0.900000 0.531000 0.478000 600 42 1.000000 0.051000 0.051000 1.200000 0.024000 0.029000
1517162492180069839	500 40 0.900000 0.022000 0.020000 600 38 0.900000 0.528000 0.476000 600 43 1.000000 0.051000 0.051000 1.200000 0.029000 0.035000
1517162492692297173	500 40 0.900000 0.022000 0.020000 600 38 0.900000 0.531000 0.478000 600 43 1.000000 0.051000 0.051000 1.200000 0.024000 0.029000
1517162493203875131	500 40 0.900000 0.024000 0.021000 600 38 0.900000 0.653000 0.589000 600 43 1.000000 0.051000 0.051000 1.200000 0.029000 0.035000
1517162493715731840	500 40 0.900000 0.022000 0.020000 600 38 0.900000 0.530000 0.478000 600 42 1.000000 0.051000 0.051000 1.200000 0.026000 0.031000
1517162494227188840	500 40 0.900000 0.022000 0.020000 600 38 0.900000 0.523000 0.471000 600 43 1.000000 0.051000 0.051000 1.200000 0.025000 0.030000
1517162494738827048	500 39 0.900000 0.022000 0.020000 600 38 0.900000 0.527000 0.475000 600 42 1.000000 0.051000 0.051000 1.200000 0.025000 0.030000
1517162495251334465	500 39 0.900000 0.028000 0.025000 600 38 0.900000 0.592000 0.534000 600 43 1.000000 0.051000 0.051000 1.200000 0.039000 0.047000
1517162495763229673	500 39 0.900000 0.025000 0.022000 600 38 0.900000 0.581000 0.524000 600 42 1.000000 0.051000 0.051000 1.200000 0.028000 0.033000
1517162496275364173	500 39 0.900000 0.022000 0.020000 600 38 0.900000 0.532000 0.479000 600 43 1.000000 0.051000 0.051000 1.200000 0.024000 0.029000
1517162496787491965	500 39 0.900000 0.023000 0.021000 600 38 0.900000 0.585000 0.528000 600 43 1.000000 0.051000 0.051000 1.200000 0.026000 0.031000
1517162497300566173	500 40 0.900000 0.022000 0.020000 600 38 0.900000 0.532000 0.479000 600 43 1.000000 0.051000 0.051000 1.200000 0.028000 0.033000
1517162497812446507	500 39 0.900000 0.027000 0.024000 600 38 0.900000 0.628000 0.567000 600 42 1.000000 0.051000 0.051000 1.200000 0.031000 0.037000
1517162498325246965	500 39 0.900000 0.022000 0.020000 600 38 0.900000 0.521000 0.469000 600 42 1.000000 0.051000 0.051000 1.200000 0.024000 0.028000
1517162498837166340	500 39 0.900000 0.022000 0.020000 600 38 0.900000 0.591000 0.533000 600 42 1.000000 0.051000 0.051000 1.200000 0.028000 0.033000
1517162499349002507	500 39 0.900000 0.022000 0.020000 600 38 0.900000 0.531000 0.478000 600 42 1.000000 0.051000 0.051000 1.200000 0.026000 0.031000
1517162499860691382	500 39 0.900000 0.025000 0.022000 600 38 0.900000 0.633000 0.571000 600 42 1.000000 0.051000 0.051000 1.200000 0.035000 0.042000
1517162500372452049	500 39 0.900000 0.022000 0.020000 600 38 0.900000 0.535000 0.482000 600 42 1.000000 0.051000 0.051000 1.200000 0.026000 0.031000
1517162500884436132	500 39 0.900000 0.023000 0.021000 600 38 0.900000 0.590000 0.532000 600 42 1.000000 0.051000 0.051000 1.200000 0.031000 0.037000
1517162501395897632	500 39 0.900000 0.022000 0.020000 600 38 0.900000 0.518000 0.467000 600 42 1.000000 0.051000 0.051000 1.200000 0.031000 0.037000
1517162501907116507	500 39 0.900000 0.024000 0.021000 600 38 0.900000 0.581000 0.524000 600 43 1.000000 0.051000 0.051000 1.200000 0.025000 0.030000
1517162502418474216	500 39 0.900000 0.022000 0.020000 600 38 0.900000 0.516000 0.465000 600 42 1.000000 0.051000 0.051000 1.200000 0.025000 0.030000
1517162502930256174	500 39 0.900000 0.022000 0.020000 600 38 0.900000 0.584000 0.526000 600 42 1.000000 0.051000 0.051000 1.200000 0.036000 0.043000
1517162503442705341	500 39 0.900000 0.022000 0.020000 600 38 0.900000 0.522000 0.470000 600 42 1.000000 0.051000 0.051000 1.200000 0.024000 0.029000
1517162503956673591	500 39 0.900000 0.023000 0.021000 600 37 0.900000 0.515000 0.464000 600 43 1.000000 0.051000 0.051000 1.200000 0.024000 0.029000
1517162504468734966	500 39 0.900000 0.032000 0.029000 600 38 0.900000 0.643000 0.580000 600 42 1.000000 0.051000 0.051000 1.200000 0.034000 0.041000
1517162504980583091	500 39 0.900000 0.024000 0.021000 600 38 0.900000 0.533000 0.480000 600 42 1.000000 0.051000 0.051000 1.200000 0.024000 0.028000
1517162505492309091	500 39 0.900000 0.022000 0.020000 600 37 0.900000 0.535000 0.482000 600 42 1.000000 0.051000 0.051000 1.200000 0.029000 0.035000
1517162506004170799	500 39 0.900000 0.022000 0.020000 600 38 0.900000 0.530000 0.478000 600 42 1.000000 0.051000 0.051000 1.200000 0.025000 0.030000
1517162506516057383	500 39 0.900000 0.022000 0.020000 600 38 0.900000 0.594000 0.535000 600 42 1.000000 0.051000 0.051000 1.200000 0.030000 0.036000
1517162507029703300	500 39 0.900000 0.022000 0.020000 600 37 0.900000 0.559000 0.504000 600 42 1.000000 0.051000 0.051000 1.200000 0.030000 0.036000
1517162507541537758	500 39 0.900000 0.022000 0.020000 600 38 0.900000 0.525000 0.473000 600 42 1.000000 0.051000 0.051000 1.200000 0.025000 0.030000
1517162508052946425	500 39 0.900000 0.022000 0.020000 600 37 0.900000 0.523000 0.471000 600 42 1.000000 0.051000 0.051000 1.200000 0.024000 0.028000
1517162508564267591	500 39 0.900000 0.022000 0.020000 600 38 0.900000 0.540000 0.487000 600 42 1.000000 0.051000 0.051000 1.200000 0.031000 0.037000
1517162509076103883	500 39 0.900000 0.023000 0.021000 600 38 0.900000 0.578000 0.521000 600 42 1.000000 0.051000 0.051000 1.200000 0.027000 0.032000
1517162509587674383	500 39 0.900000 0.022000 0.020000 600 38 0.900000 0.516000 0.465000 600 42 1.000000 0.051000 0.051000 1.200000 0.027000 0.032000
1517162510099623717	500 39 0.900000 0.022000 0.020000 600 37 0.900000 0.523000 0.471000 600 42 1.000000 0.051000 0.051000 1.200000 0.029000 0.035000
1517162510612505383	500 39 0.900000 0.021000 0.019000 600 37 0.900000 0.522000 0.470000 600 42 1.000000 0.051000 0.051000 1.200000 0.025000 0.030000
1517162511124218300	500 39 0.900000 0.022000 0.020000 600 38 0.900000 0.600000 0.541000 600 42 1.000000 0.051000 0.051000 1.200000 0.031000 0.037000
1517162511635955425	500 39 0.900000 0.022000 0.020000 600 37 0.900000 0.523000 0.471000 600 42 1.000000 0.051000 0.051000 1.200000 0.031000 0.037000
1517162512148032633	500 39 0.900000 0.022000 0.020000 600 37 0.900000 0.519000 0.468000 600 42 1.000000 0.051000 0.051000 1.200000 0.024000 0.029000
1517162512659960800	500 39 0.900000 0.022000 0.020000 600 37 0.900000 0.517000 0.466000 600 42 1.000000 0.051000 0.051000 1.200000 0.032000 0.038000
1517162513171568967	500 39 0.900000 0.022000 0.020000 600 38 0.900000 0.593000 0.534000 600 42 1.000000 0.051000 0.051000 1.200000 0.024000 0.029000
1517162513683538925	500 39 0.900000 0.030000 0.027000 600 38 0.900000 0.523000 0.471000 600 42 1.000000 0.051000 0.051000 1.200000 0.028000 0.033000
1517162514195330759	500 39 0.900000 0.022000 0.020000 600 37 0.900000 0.530000 0.478000 600 42 1.000000 0.051000 0.051000 1.200000 0.030000 0.036000
1517162514707243134	500 39 0.900000 0.022000 0.020000 600 37 0.900000 0.532000 0.479000 600 42 1.000000 0.051000 0.051000 1.200000 0.025000 0.030000
1517162515218902175	500 39 0.900000 0.022000 0.020000 600 38 0.900000 0.527000 0.475000 600 43 1.000000 0.051000 0.051000 1.200000 0.025000 0.030000
1517162515730436967	500 39 0.900000 0.029000 0.026000 600 38 0.900000 0.520000 0.469000 600 42 1.000000 0.051000 0.051000 1.200000 0.037000 0.044000
1517162516242335009	500 39 0.900000 0.022000 0.020000 600 37 0.900000 0.518000 0.467000 600 42 1.000000 0.051000 0.051000 1.200000 0.024000 0.028000
1517162516753673551	500 39 0.900000 0.022000 0.020000 600 37 0.900000 0.515000 0.464000 600 42 1.000000 0.051000 0.051000 1.200000 0.024000 0.028000
1517162517267106634	500 39 0.900000 0.021000 0.019000 600 37 0.900000 0.523000 0.471000 600 42 1.000000 0.051000 0.051000 1.200000 0.031000 0.037000
1517162517779690551	500 39 0.900000 0.025000 0.022000 600 37 0.900000 0.568000 0.512000 600 42 1.000000 0.051000 0.051000 1.200000 0.038000 0.045000
1517162518291441634	500 39 0.900000 0.022000 0.020000 600 37 0.900000 0.512000 0.461000 600 42 1.000000 0.051000 0.051000 1.200000 0.025000 0.030000
1517162518803283634	500 39 0.900000 0.022000 0.020000 600 37 0.900000 0.522000 0.470000 600 42 1.000000 0.051000 0.051000 1.200000 0.029000 0.035000
1517162519314831134	500 39 0.900000 0.022000 0.020000 600 37 0.900000 0.522000 0.470000 600 42 1.000000 0.051000 0.051000 1.200000 0.023000 0.027000
1517162519826143134	500 39 0.900000 0.028000 0.025000 600 37 0.900000 0.609000 0.549000 600 42 1.000000 0.051000 0.051000 1.200000 0.041000 0.049000
1517162520337955343	500 39 0.900000 0.021000 0.019000 600 37 0.900000 0.526000 0.474000 600 42 1.000000 0.051000 0.051000 1.200000 0.027000 0.032000
1517162520851050343	500 39 0.900000 0.022000 0.020000 600 37 0.900000 0.519000 0.468000 600 42 1.000000 0.051000 0.051000 1.200000 0.024000 0.028000
1517162521363494551	500 39 0.900000 0.023000 0.021000 600 37 0.900000 0.527000 0.475000 600 42 1.000000 0.051000 0.051000 1.200000 0.028000 0.033000
1517162521875667926	500 39 0.900000 0.022000 0.020000 600 37 0.900000 0.584000 0.526000 600 42 1.000000 0.051000 0.051000 1.200000 0.031000 0.037000
1517162522387495801	500 39 0.900000 0.029000 0.026000 600 37 0.900000 0.534000 0.481000 600 42 1.000000 0.051000 0.051000 1.200000 0.037000 0.044000
1517162522899356718	500 39 0.900000 0.022000 0.020000 600 37 0.900000 0.524000 0.472000 600 42 1.000000 0.051000 0.051000 1.200000 0.027000 0.032000
1517162523411182301	500 39 0.900000 0.022000 0.020000 600 37 0.900000 0.525000 0.473000 600 42 1.000000 0.051000 0.051000 1.200000 0.024000 0.028000
1517162523923841135	500 39 0.900000 0.023000 0.021000 600 37 0.900000 0.538000 0.485000 600 42 1.000000 0.051000 0.051000 1.200000 0.037000 0.044000
1517162524435882885	500 39 0.900000 0.025000 0.022000 600 37 0.900000 0.585000 0.527000 600 42 1.000000 0.051000 0.051000 1.200000 0.033000 0.039000
1517162524947400427	500 39 0.900000 0.022000 0.020000 600 37 0.900000 0.518000 0.467000 600 42 1.000000 0.051000 0.051000 1.200000 0.025000 0.030000
1517162525459314427	500 39 0.900000 0.022000 0.020000 600 37 0.900000 0.527000 0.475000 600 42 1.000000 0.051000 0.051000 1.200000 0.030000 0.036000
1517162525971335843	500 39 0.900000 0.022000 0.020000 600 37 0.900000 0.523000 0.471000 600 42 1.000000 0.051000 0.051000 1.200000 0.030000 0.036000
1517162526484338343	500 39 0.900000 0.022000 0.020000 600 37 0.900000 0.526000 0.474000 600 42 1.000000 0.051000 0.051000 1.200000 0.030000 0.036000
1517162526996516594	500 39 0.900000 0.023000 0.021000 600 37 0.900000 0.533000 0.480000 600 42 1.000000 0.051000 0.051000 1.200000 0.030000 0.036000
1517162527508238469	500 39 0.900000 0.022000 0.020000 600 37 0.900000 0.532000 0.479000 600 42 1.000000 0.051000 0.051000 1.200000 0.023000 0.027000
1517162528019811385	500 39 0.900000 0.023000 0.021000 600 37 0.900000 0.541000 0.487000 600 42 1.000000 0.051000 0.051000 1.200000 0.030000 0.036000
1517162528532152385	500 39 0.900000 0.022000 0.020000 600 37 0.900000 0.530000 0.478000 600 43 1.000000 0.051000 0.051000 1.200000 0.034000 0.041000
1517162529044588677	500 39 0.900000 0.022000 0.020000 600 37 0.900000 0.557000 0.502000 600 42 1.000000 0.051000 0.051000 1.200000 0.023000 0.027000
1517162529556331052	500 39 0.900000 0.021000 0.019000 600 37 0.900000 0.515000 0.464000 600 42 1.000000 0.051000 0.051000 1.200000 0.023000 0.027000
1517162530068092094	500 39 0.900000 0.022000 0.020000 600 37 0.900000 0.530000 0.478000 600 42 1.000000 0.051000 0.051000 1.200000 0.024000 0.028000
1517162530581903761	500 39 0.900000 0.022000 0.020000 600 37 0.900000 0.546000 0.492000 600 42 1.000000 0.051000 0.051000 1.200000 0.024000 0.028000
1517162531093819844	500 39 0.900000 0.026000 0.023000 600 37 0.900000 0.564000 0.508000 600 42 1.000000 0.051000 0.051000 1.200000 0.042000 0.050000
1517162531606597886	500 39 0.900000 0.022000 0.020000 600 37 0.900000 0.521000 0.469000 600 42 1.000000 0.051000 0.051000 1.200000 0.025000 0.030000
1517162532118269344	500 39 0.900000 0.022000 0.020000 600 37 0.900000 0.532000 0.479000 600 42 1.000000 0.051000 0.051000 1.200000 0.026000 0.031000
1517162532630125928	500 39 0.900000 0.022000 0.020000 600 37 0.900000 0.530000 0.478000 600 42 1.000000 0.051000 0.051000 1.200000 0.023000 0.027000
1517162533141302136	500 39 0.900000 0.022000 0.020000 600 37 0.900000 0.521000 0.469000 600 42 1.000000 0.051000 0.051000 1.200000 0.029000 0.035000
1517162533653213303	500 39 0.900000 0.022000 0.020000 600 37 0.900000 0.536000 0.483000 600 42 1.000000 0.051000 0.051000 1.200000 0.031000 0.037000
1517162534164898469	500 39 0.900000 0.022000 0.020000 600 37 0.900000 0.529000 0.477000 600 42 1.000000 0.051000 0.051000 1.200000 0.026000 0.031000
1517162534676385636	500 39 0.900000 0.022000 0.020000 600 37 0.900000 0.521000 0.469000 600 42 1.000000 0.051000 0.051000 1.200000 0.023000 0.027000
1517162535188460886	500 39 0.900000 0.022000 0.020000 600 37 0.900000 0.524000 0.472000 600 42 1.000000 0.051000 0.051000 1.200000 0.032000 0.038000
1517162535700155178	500 39 0.900000 0.022000 0.020000 600 37 0.900000 0.568000 0.512000 600 42 1.000000 0.051000 0.051000 1.200000 0.023000 0.027000
1517162536211598803	500 39 0.900000 0.022000 0.020000 600 37 0.900000 0.535000 0.482000 600 42 1.000000 0.051000 0.051000 1.200000 0.029000 0.035000
1517162536723919595	500 39 0.900000 0.022000 0.020000 600 37 0.900000 0.523000 0.471000 600 42 1.000000 0.051000 0.051000 1.200000 0.023000 0.027000
1517162537235769345	500 39 0.900000 0.022000 0.020000 600 37 0.900000 0.514000 0.463000 600 42 1.000000 0.051000 0.051000 1.200000 0.023000 0.027000
1517162537747679512	500 39 0.900000 0.025000 0.022000 600 37 0.900000 0.641000 0.578000 600 42 1.000000 0.051000 0.051000 1.200000 0.031000 0.037000
1517162538259244137	500 39 0.900000 0.022000 0.020000 600 37 0.900000 0.520000 0.469000 600 42 1.000000 0.051000 0.051000 1.200000 0.030000 0.036000
1517162538771186178	500 39 0.900000 0.022000 0.020000 600 37 0.900000 0.597000 0.538000 600 42 1.000000 0.051000 0.051000 1.200000 0.032000 0.038000
1517162539283116762	500 39 0.900000 0.022000 0.020000 600 37 0.900000 0.533000 0.480000 600 42 1.000000 0.051000 0.051000 1.200000 0.024000 0.028000
1517162539794505095	500 39 0.900000 0.022000 0.020000 600 37 0.900000 0.523000 0.471000 600 42 1.000000 0.051000 0.051000 1.200000 0.031000 0.037000
1517162540306944762	500 39 0.900000 0.023000 0.021000 600 37 0.900000 0.537000 0.484000 600 42 1.000000 0.051000 0.051000 1.200000 0.031000 0.037000
1517162540818607637	500 39 0.900000 0.023000 0.021000 600 37 0.900000 0.585000 0.527000 600 42 1.000000 0.051000 0.051000 1.200000 0.031000 0.037000
1517162541330137720	500 39 0.900000 0.022000 0.020000 600 37 0.900000 0.528000 0.476000 600 42 1.000000 0.051000 0.051000 1.200000 0.032000 0.038000
1517162541842269929	500 39 0.900000 0.022000 0.020000 600 37 0.900000 0.538000 0.485000 600 42 1.000000 0.051000 0.051000 1.200000 0.025000 0.030000
1517162542355305095	500 39 0.900000 0.024000 0.021000 600 37 0.900000 0.586000 0.528000 600 42 1.000000 0.051000 0.051000 1.200000 0.039000 0.047000
1517162542867167845	500 39 0.900000 0.022000 0.020000 600 37 0.900000 0.577000 0.520000 600 42 1.000000 0.051000 0.051000 1.200000 0.036000 0.043000
1517162543378804971	500 39 0.900000 0.022000 0.020000 600 37 0.900000 0.529000 0.477000 600 42 1.000000 0.051000 0.051000 1.200000 0.024000 0.028000
1517162543890325929	500 39 0.900000 0.022000 0.020000 600 37 0.900000 0.517000 0.466000 600 42 1.000000 0.051000 0.051000 1.200000 0.024000 0.029000
1517162544401782887	500 39 0.900000 0.027000 0.024000 600 37 0.900000 0.637000 0.575000 600 42 1.000000 0.051000 0.051000 1.200000 0.041000 0.049000
1517162544913579804	500 39 0.900000 0.022000 0.020000 600 37 0.900000 0.563000 0.507000 600 42 1.000000 0.051000 0.051000 1.200000 0.031000 0.037000
1517162545425103054	500 39 0.900000 0.022000 0.020000 600 37 0.900000 0.522000 0.470000 600 42 1.000000 0.051000 0.051000 1.200000 0.025000 0.030000
1517162545937009221	500 39 0.900000 0.022000 0.020000 600 37 0.900000 0.513000 0.462000 600 42 1.000000 0.051000 0.051000 1.200000 0.031000 0.037000
1517162546448487429	500 39 0.900000 0.026000 0.023000 600 37 0.900000 0.612000 0.552000 600 42 1.000000 0.051000 0.051000 1.200000 0.027000 0.032000
1517162546960049138	500 39 0.900000 0.022000 0.020000 600 37 0.900000 0.524000 0.472000 600 42 1.000000 0.051000 0.051000 1.200000 0.030000 0.036000
1517162547472016179	500 39 0.900000 0.022000 0.020000 600 37 0.900000 0.527000 0.475000 600 42 1.000000 0.051000 0.051000 1.200000 0.025000 0.030000
1517162547984049804	500 39 0.900000 0.022000 0.020000 600 37 0.900000 0.524000 0.472000 600 42 1.000000 0.051000 0.051000 1.200000 0.025000 0.030000
1517162548496378596	500 39 0.900000 0.022000 0.020000 600 37 0.900000 0.530000 0.478000 600 42 1.000000 0.051000 0.051000 1.200000 0.031000 0.037000
1517162549008820638	500 39 0.900000 0.027000 0.024000 600 37 0.900000 0.683000 0.616000 600 42 1.000000 0.051000 0.051000 1.200000 0.035000 0.042000
1517162549520386888	500 39 0.900000 0.022000 0.020000 600 37 0.900000 0.552000 0.498000 600 42 1.000000 0.051000 0.051000 1.200000 0.028000 0.033000
1517162550032109971	500 39 0.900000 0.022000 0.020000 600 37 0.900000 0.532000 0.479000 600 42 1.000000 0.051000 0.051000 1.200000 0.029000 0.035000
1517162550543870388	500 39 0.900000 0.022000 0.020000 600 37 0.900000 0.524000 0.472000 600 42 1.000000 0.051000 0.051000 1.200000 0.025000 0.030000
1517162551055546971	500 39 0.900000 0.023000 0.021000 600 37 0.900000 0.660000 0.595000 600 42 1.000000 0.051000 0.051000 1.200000 0.032000 0.038000
1517162551567493805	500 39 0.900000 0.022000 0.020000 600 37 0.900000 0.521000 0.469000 600 42 1.000000 0.051000 0.051000 1.200000 0.031000 0.037000
1517162552079163847	500 39 0.900000 0.022000 0.020000 600 37 0.900000 0.526000 0.474000 600 42 1.000000 0.051000 0.051000 1.200000 0.024000 0.029000
1517162552592471930	500 39 0.900000 0.022000 0.020000 600 37 0.900000 0.518000 0.467000 600 42 1.000000 0.051000 0.051000 1.200000 0.024000 0.028000
1517162553103565097	500 39 0.900000 0.024000 0.021000 600 37 0.900000 0.609000 0.549000 600 43 1.000000 0.051000 0.051000 1.200000 0.032000 0.038000
1517162553615516555	500 39 0.900000 0.022000 0.020000 600 37 0.900000 0.526000 0.474000 600 42 1.000000 0.051000 0.051000 1.200000 0.024000 0.029000
1517162554127173805	500 39 0.900000 0.022000 0.020000 600 37 0.900000 0.520000 0.469000 600 42 1.000000 0.051000 0.051000 1.200000 0.023000 0.027000
1517162554639162805	500 39 0.900000 0.022000 0.020000 600 37 0.900000 0.520000 0.469000 600 42 1.000000 0.051000 0.051000 1.200000 0.030000 0.036000
1517162555151578222	500 39 0.900000 0.022000 0.020000 600 37 0.900000 0.575000 0.518000 600 42 1.000000 0.051000 0.051000 1.200000 0.027000 0.032000
1517162555663384305	500 39 0.900000 0.032000 0.029000 600 37 0.900000 0.652000 0.588000 600 42 1.000000 0.051000 0.051000 1.200000 0.039000 0.047000
1517162556175153389	500 39 0.900000 0.022000 0.020000 600 37 0.900000 0.530000 0.478000 600 42 1.000000 0.051000 0.051000 1.200000 0.024000 0.028000
1517162556686593222	500 39 0.900000 0.022000 0.020000 600 37 0.900000 0.527000 0.475000 600 42 1.000000 0.051000 0.051000 1.200000 0.026000 0.031000
1517162557198062264	500 39 0.900000 0.022000 0.020000 600 37 0.900000 0.530000 0.478000 600 42 1.000000 0.051000 0.051000 1.200000 0.031000 0.037000
1517162557709863014	500 39 0.900000 0.023000 0.021000 600 37 0.900000 0.603000 0.543000 600 42 1.000000 0.051000 0.051000 1.200000 0.028000 0.033000
1517162558223087847	500 39 0.900000 0.022000 0.020000 600 37 0.900000 0.515000 0.464000 600 42 1.000000 0.051000 0.051000 1.200000 0.025000 0.030000
1517162558735227847	500 39 0.900000 0.022000 0.020000 600 37 0.900000 0.523000 0.471000 600 42 1.000000 0.051000 0.051000 1.200000 0.031000 0.037000
1517162559246984931	500 39 0.900000 0.022000 0.020000 600 37 0.900000 0.517000 0.466000 600 42 1.000000 0.051000 0.051000 1.200000 0.024000 0.028000
1517162559759238056	500 39 0.900000 0.022000 0.020000 600 37 0.900000 0.543000 0.489000 600 42 1.000000 0.051000 0.051000 1.200000 0.026000 0.031000
1517162560271297556	500 39 0.900000 0.023000 0.021000 600 37 0.900000 0.526000 0.474000 600 42 1.000000 0.051000 0.051000 1.200000 0.029000 0.035000
1517162560783464139	500 39 0.900000 0.022000 0.020000 600 37 0.900000 0.518000 0.467000 600 42 1.000000 0.051000 0.051000 1.200000 0.024000 0.029000
1517162561294862473	500 39 0.900000 0.022000 0.020000 600 37 0.900000 0.527000 0.475000 600 42 1.000000 0.051000 0.051000 1.200000 0.026000 0.031000
1517162561807138931	500 39 0.900000 0.022000 0.020000 600 37 0.900000 0.584000 0.526000 600 42 1.000000 0.051000 0.051000 1.200000 0.028000 0.033000
1517162562318890639	500 39 0.900000 0.025000 0.022000 600 37 0.900000 0.626000 0.565000 600 42 1.000000 0.051000 0.051000 1.200000 0.033000 0.039000
1517162562832348098	500 39 0.900000 0.022000 0.020000 600 37 0.900000 0.536000 0.483000 600 42 1.000000 0.051000 0.051000 1.200000 0.025000 0.030000
1517162563344676806	500 39 0.900000 0.022000 0.020000 600 37 0.900000 0.529000 0.477000 600 42 1.000000 0.051000 0.051000 1.200000 0.023000 0.027000
1517162563856114390	500 39 0.900000 0.022000 0.020000 600 37 0.900000 0.551000 0.497000 600 42 1.000000 0.051000 0.051000 1.200000 0.024000 0.028000
1517162564367722265	500 39 0.900000 0.022000 0.020000 600 37 0.900000 0.523000 0.471000 600 42 1.000000 0.051000 0.051000 1.200000 0.025000 0.030000
1517162564879998598	500 39 0.900000 0.026000 0.023000 600 37 0.900000 0.590000 0.532000 600 42 1.000000 0.051000 0.051000 1.200000 0.025000 0.030000
1517162565392777723	500 39 0.900000 0.022000 0.020000 600 37 0.900000 0.536000 0.483000 600 42 1.000000 0.051000 0.051000 1.200000 0.032000 0.038000
1517162565904814557	500 39 0.900000 0.023000 0.021000 600 37 0.900000 0.577000 0.520000 600 42 1.000000 0.051000 0.051000 1.200000 0.031000 0.037000
1517162566417059932	500 39 0.900000 0.022000 0.020000 600 37 0.900000 0.534000 0.481000 600 42 1.000000 0.051000 0.051000 1.200000 0.025000 0.030000
1517162566928860598	500 39 0.900000 0.027000 0.024000 600 37 0.900000 0.660000 0.595000 600 42 1.000000 0.051000 0.051000 1.200000 0.037000 0.044000
1517162567440782348	500 39 0.900000 0.022000 0.020000 600 37 0.900000 0.541000 0.487000 600 42 1.000000 0.051000 0.051000 1.200000 0.025000 0.030000
1517162567952392848	500 39 0.900000 0.023000 0.021000 600 37 0.900000 0.586000 0.528000 600 42 1.000000 0.051000 0.051000 1.200000 0.030000 0.036000
1517162568464356307	500 39 0.900000 0.022000 0.020000 600 37 0.900000 0.543000 0.489000 600 42 1.000000 0.051000 0.051000 1.200000 0.031000 0.037000
1517162568976537682	500 39 0.900000 0.028000 0.025000 600 37 0.900000 0.618000 0.557000 600 42 1.000000 0.051000 0.051000 1.200000 0.037000 0.044000
1517162569488010224	500 39 0.900000 0.022000 0.020000 600 37 0.900000 0.536000 0.483000 600 42 1.000000 0.051000 0.051000 1.200000 0.024000 0.029000
1517162569999814182	500 39 0.900000 0.023000 0.021000 600 37 0.900000 0.603000 0.543000 600 42 1.000000 0.051000 0.051000 1.200000 0.034000 0.041000
1517162570511574599	500 39 0.900000 0.022000 0.020000 600 37 0.900000 0.539000 0.486000 600 42 1.000000 0.051000 0.051000 1.200000 0.024000 0.029000
1517162571022848265	500 39 0.900000 0.024000 0.021000 600 37 0.900000 0.549000 0.495000 600 42 1.000000 0.051000 0.051000 1.200000 0.036000 0.043000
1517162571536355516	500 39 0.900000 0.022000 0.020000 600 37 0.900000 0.537000 0.484000 600 42 1.000000 0.051000 0.051000 1.200000 0.031000 0.037000
1517162572048389349	500 39 0.900000 0.023000 0.021000 600 37 0.900000 0.592000 0.533000 600 42 1.000000 0.051000 0.051000 1.200000 0.026000 0.031000
1517162572560125474	500 39 0.900000 0.022000 0.020000 600 37 0.900000 0.525000 0.473000 600 42 1.000000 0.051000 0.051000 1.200000 0.024000 0.029000
1517162573073362932	500 39 0.900000 0.022000 0.020000 600 37 0.900000 0.541000 0.487000 600 42 1.000000 0.051000 0.051000 1.200000 0.024000 0.029000
1517162573585085932	500 39 0.900000 0.040000 0.036000 600 37 0.900000 0.629000 0.567000 600 42 1.000000 0.051000 0.051000 1.200000 0.040000 0.048000
1517162574096591933	500 39 0.900000 0.022000 0.020000 600 37 0.900000 0.538000 0.485000 600 42 1.000000 0.051000 0.051000 1.200000 0.038000 0.045000
1517162574608154724	500 39 0.900000 0.022000 0.020000 600 37 0.900000 0.542000 0.488000 600 42 1.000000 0.051000 0.051000 1.200000 0.025000 0.030000
1517162575119701641	500 39 0.900000 0.022000 0.020000 600 37 0.900000 0.537000 0.484000 600 42 1.000000 0.051000 0.051000 1.200000 0.024000 0.028000
1517162575631129349	500 39 0.900000 0.022000 0.020000 600 37 0.900000 0.596000 0.538000 600 42 1.000000 0.051000 0.051000 1.200000 0.044000 0.053000
1517162576142837308	500 39 0.900000 0.022000 0.020000 600 37 0.900000 0.532000 0.479000 600 42 1.000000 0.051000 0.051000 1.200000 0.030000 0.036000
1517162576654337558	500 39 0.900000 0.022000 0.020000 600 37 0.900000 0.531000 0.478000 600 42 1.000000 0.051000 0.051000 1.200000 0.024000 0.028000
1517162577165953475	500 39 0.900000 0.022000 0.020000 600 37 0.900000 0.547000 0.493000 600 42 1.000000 0.051000 0.051000 1.200000 0.030000 0.036000
1517162577678676850	500 39 0.900000 0.022000 0.020000 600 37 0.900000 0.547000 0.493000 600 42 1.000000 0.051000 0.051000 1.200000 0.030000 0.036000
1517162578190369600	500 39 0.900000 0.023000 0.021000 600 37 0.900000 0.537000 0.484000 600 42 1.000000 0.051000 0.051000 1.200000 0.030000 0.036000
1517162578702370100	500 39 0.900000 0.022000 0.020000 600 37 0.900000 0.537000 0.484000 600 42 1.000000 0.051000 0.051000 1.200000 0.030000 0.036000
1517162579214346891	500 39 0.900000 0.022000 0.020000 600 37 0.900000 0.533000 0.480000 600 42 1.000000 0.051000 0.051000 1.200000 0.023000 0.027000
1517162579726407600	500 39 0.900000 0.022000 0.020000 600 37 0.900000 0.522000 0.470000 600 42 1.000000 0.051000 0.051000 1.200000 0.031000 0.037000
1517162580237994350	500 39 0.900000 0.023000 0.021000 600 37 0.900000 0.609000 0.549000 600 42 1.000000 0.051000 0.051000 1.200000 0.034000 0.041000
1517162580751004142	500 39 0.900000 0.022000 0.020000 600 37 0.900000 0.534000 0.481000 600 42 1.000000 0.051000 0.051000 1.200000 0.025000 0.030000
1517162581263115142	500 39 0.900000 0.022000 0.020000 600 37 0.900000 0.527000 0.475000 600 42 1.000000 0.051000 0.051000 1.200000 0.031000 0.037000
1517162581774788267	500 39 0.900000 0.022000 0.020000 600 37 0.900000 0.539000 0.486000 600 42 1.000000 0.051000 0.051000 1.200000 0.024000 0.028000
1517162582288134183	500 39 0.900000 0.022000 0.020000 600 37 0.900000 0.563000 0.507000 600 42 1.000000 0.051000 0.051000 1.200000 0.031000 0.037000
1517162582799891975	500 39 0.900000 0.023000 0.021000 600 37 0.900000 0.546000 0.492000 600 42 1.000000 0.051000 0.051000 1.200000 0.032000 0.038000
1517162583311704434	500 39 0.900000 0.022000 0.020000 600 37 0.900000 0.541000 0.487000 600 42 1.000000 0.051000 0.051000 1.200000 0.025000 0.030000
1517162583823193517	500 39 0.900000 0.022000 0.020000 600 37 0.900000 0.535000 0.482000 600 42 1.000000 0.051000 0.051000 1.200000 0.032000 0.038000
1517162584334517267	500 39 0.900000 0.022000 0.020000 600 37 0.900000 0.547000 0.493000 600 42 1.000000 0.051000 0.051000 1.200000 0.025000 0.030000
1517162584846373725	500 39 0.900000 0.029000 0.026000 600 37 0.900000 0.545000 0.491000 600 42 1.000000 0.051000 0.051000 1.200000 0.036000 0.043000
1517162585357801976	500 39 0.900000 0.022000 0.020000 600 37 0.900000 0.527000 0.475000 600 42 1.000000 0.051000 0.051000 1.200000 0.030000 0.036000
1517162585871137309	500 39 0.900000 0.022000 0.020000 600 37 0.900000 0.536000 0.483000 600 42 1.000000 0.051000 0.051000 1.200000 0.025000 0.030000
1517162586385180059	500 39 0.900000 0.021000 0.019000 600 37 0.900000 0.535000 0.482000 600 42 1.000000 0.051000 0.051000 1.200000 0.026000 0.031000
1517162586899607226	500 39 0.900000 0.025000 0.022000 600 37 0.900000 0.590000 0.532000 600 42 1.000000 0.051000 0.051000 1.200000 0.049000 0.059000
1517162587411589892	500 39 0.900000 0.022000 0.020000 600 37 0.900000 0.535000 0.482000 600 42 1.000000 0.051000 0.051000 1.200000 0.025000 0.030000
1517162587923119642	500 39 0.900000 0.022000 0.020000 600 37 0.900000 0.531000 0.478000 600 42 1.000000 0.051000 0.051000 1.200000 0.026000 0.031000
1517162588436500684	500 39 0.900000 0.022000 0.020000 600 37 0.900000 0.527000 0.475000 600 42 1.000000 0.051000 0.051000 1.200000 0.031000 0.037000
1517162588948722726	500 39 0.900000 0.031000 0.028000 600 37 0.900000 0.647000 0.584000 600 42 1.000000 0.051000 0.051000 1.200000 0.041000 0.049000
1517162589460225768	500 39 0.900000 0.022000 0.020000 600 37 0.900000 0.527000 0.475000 600 42 1.000000 0.051000 0.051000 1.200000 0.024000 0.029000
1517162589971757726	500 39 0.900000 0.022000 0.020000 600 37 0.900000 0.522000 0.470000 600 42 1.000000 0.051000 0.051000 1.200000 0.030000 0.036000
1517162590483492101	500 39 0.900000 0.022000 0.020000 600 37 0.900000 0.541000 0.487000 600 42 1.000000 0.051000 0.051000 1.200000 0.025000 0.030000
1517162590996426935	500 39 0.900000 0.022000 0.020000 600 37 0.900000 0.594000 0.535000 600 42 1.000000 0.051000 0.051000 1.200000 0.031000 0.037000
1517162591508236851	500 39 0.900000 0.028000 0.025000 600 37 0.900000 0.572000 0.515000 600 42 1.000000 0.051000 0.051000 1.200000 0.036000 0.043000
1517162592020034185	500 39 0.900000 0.022000 0.020000 600 37 0.900000 0.540000 0.487000 600 42 1.000000 0.051000 0.051000 1.200000 0.025000 0.030000
1517162592531478476	500 39 0.900000 0.022000 0.020000 600 37 0.900000 0.526000 0.474000 600 42 1.000000 0.051000 0.051000 1.200000 0.031000 0.037000
1517162593044439393	500 39 0.900000 0.023000 0.021000 600 37 0.900000 0.595000 0.536000 600 42 1.000000 0.051000 0.051000 1.200000 0.026000 0.031000
1517162593556606518	500 39 0.900000 0.029000 0.026000 600 37 0.900000 0.624000 0.563000 600 42 1.000000 0.051000 0.051000 1.200000 0.037000 0.044000
1517162594068329310	500 39 0.900000 0.022000 0.020000 600 37 0.900000 0.527000 0.475000 600 42 1.000000 0.051000 0.051000 1.200000 0.031000 0.037000
1517162594580153685	500 39 0.900000 0.022000 0.020000 600 37 0.900000 0.534000 0.481000 600 42 1.000000 0.051000 0.051000 1.200000 0.025000 0.030000
1517162595091744102	500 39 0.900000 0.022000 0.020000 600 37 0.900000 0.594000 0.535000 600 42 1.000000 0.051000 0.051000 1.200000 0.029000 0.035000
1517162595603169393	500 39 0.900000 0.023000 0.021000 600 37 0.900000 0.647000 0.584000 600 42 1.000000 0.051000 0.051000 1.200000 0.037000 0.044000
1517162596114945435	500 39 0.900000 0.022000 0.020000 600 37 0.900000 0.533000 0.480000 600 42 1.000000 0.051000 0.051000 1.200000 0.024000 0.029000
1517162596628428269	500 39 0.900000 0.022000 0.020000 600 37 0.900000 0.527000 0.475000 600 42 1.000000 0.051000 0.051000 1.200000 0.024000 0.029000
1517162597139999852	500 39 0.900000 0.023000 0.021000 600 37 0.900000 0.586000 0.529000 600 42 1.000000 0.051000 0.051000 1.200000 0.036000 0.043000
1517162597652420685	500 39 0.900000 0.022000 0.020000 600 37 0.900000 0.597000 0.538000 600 42 1.000000 0.051000 0.051000 1.200000 0.024000 0.028000
1517162598164118602	500 39 0.900000 0.022000 0.020000 600 37 0.900000 0.527000 0.475000 600 42 1.000000 0.051000 0.051000 1.200000 0.024000 0.028000
1517162598675938852	500 39 0.900000 0.021000 0.019000 600 37 0.900000 0.539000 0.486000 600 42 1.000000 0.051000 0.051000 1.200000 0.030000 0.036000
1517162599188342269	500 39 0.900000 0.022000 0.020000 600 37 0.900000 0.522000 0.470000 600 42 1.000000 0.051000 0.051000 1.200000 0.024000 0.028000
1517162599700018936	500 39 0.900000 0.022000 0.020000 600 37 0.900000 0.600000 0.541000 600 42 1.000000 0.051000 0.051000 1.200000 0.031000 0.037000
1517162600211802977	500 39 0.900000 0.025000 0.022000 600 37 0.900000 0.549000 0.495000 600 42 1.000000 0.051000 0.051000 1.200000 0.031000 0.037000
1517162600723784311	500 39 0.900000 0.022000 0.020000 600 37 0.900000 0.535000 0.482000 600 42 1.000000 0.051000 0.051000 1.200000 0.025000 0.030000
1517162601236038311	500 39 0.900000 0.022000 0.020000 600 37 0.900000 0.539000 0.486000 600 42 1.000000 0.051000 0.051000 1.200000 0.031000 0.037000
1517162601747945602	500 39 0.900000 0.022000 0.020000 600 37 0.900000 0.573000 0.516000 600 42 1.000000 0.051000 0.051000 1.200000 0.025000 0.030000
1517162602259400603	500 39 0.900000 0.022000 0.020000 600 37 0.900000 0.530000 0.478000 600 42 1.000000 0.051000 0.051000 1.200000 0.027000 0.032000
1517162602771124144	500 39 0.900000 0.022000 0.020000 600 37 0.900000 0.568000 0.512000 600 42 1.000000 0.051000 0.051000 1.200000 0.031000 0.037000
1517162603282668269	500 39 0.900000 0.022000 0.020000 600 37 0.900000 0.541000 0.487000 600 42 1.000000 0.051000 0.051000 1.200000 0.024000 0.028000
1517162603794062811	500 39 0.900000 0.022000 0.020000 600 37 0.900000 0.549000 0.495000 600 42 1.000000 0.051000 0.051000 1.200000 0.024000 0.028000
1517162604306559478	500 39 0.900000 0.022000 0.020000 600 37 0.900000 0.539000 0.486000 600 42 1.000000 0.051000 0.051000 1.200000 0.030000 0.036000
1517162604818623728	500 39 0.900000 0.022000 0.020000 600 37 0.900000 0.615000 0.555000 600 42 1.000000 0.051000 0.051000 1.200000 0.024000 0.028000
1517162605329994228	500 39 0.900000 0.022000 0.020000 600 37 0.900000 0.530000 0.478000 600 42 1.000000 0.051000 0.051000 1.200000 0.024000 0.029000
1517162605841902311	500 39 0.900000 0.022000 0.020000 600 37 0.900000 0.545000 0.491000 600 42 1.000000 0.051000 0.051000 1.200000 0.030000 0.036000
1517162606354455145	500 39 0.900000 0.022000 0.020000 600 37 0.900000 0.543000 0.489000 600 42 1.000000 0.051000 0.051000 1.200000 0.024000 0.029000
1517162606865766395	500 39 0.900000 0.025000 0.022000 600 37 0.900000 0.665000 0.600000 600 42 1.000000 0.051000 0.051000 1.200000 0.027000 0.032000
1517162607379700478	500 39 0.900000 0.022000 0.020000 600 37 0.900000 0.537000 0.484000 600 42 1.000000 0.051000 0.051000 1.200000 0.025000 0.030000
1517162607892199395	500 39 0.900000 0.023000 0.021000 600 37 0.900000 0.586000 0.528000 600 42 1.000000 0.051000 0.051000 1.200000 0.032000 0.038000
1517162608404326395	500 39 0.900000 0.022000 0.020000 600 37 0.900000 0.539000 0.486000 600 42 1.000000 0.051000 0.051000 1.200000 0.031000 0.037000
1517162608915793770	500 39 0.900000 0.022000 0.020000 600 37 0.900000 0.538000 0.485000 600 42 1.000000 0.051000 0.051000 1.200000 0.026000 0.031000
1517162609428207478	500 39 0.900000 0.023000 0.021000 600 37 0.900000 0.582000 0.524000 600 42 1.000000 0.051000 0.051000 1.200000 0.024000 0.028000
1517162609940367687	500 39 0.900000 0.023000 0.021000 600 37 0.900000 0.599000 0.540000 600 42 1.000000 0.051000 0.051000 1.200000 0.034000 0.041000
1517162610452211520	500 39 0.900000 0.022000 0.020000 600 37 0.900000 0.532000 0.479000 600 42 1.000000 0.051000 0.051000 1.200000 0.024000 0.028000
1517162610965946562	500 39 0.900000 0.022000 0.020000 600 37 0.900000 0.528000 0.476000 600 42 1.000000 0.051000 0.051000 1.200000 0.024000 0.028000
1517162611479256979	500 39 0.900000 0.022000 0.020000 600 37 0.900000 0.642000 0.579000 600 42 1.000000 0.051000 0.051000 1.200000 0.031000 0.037000
1517162611991214979	500 39 0.900000 0.022000 0.020000 600 37 0.900000 0.593000 0.535000 600 42 1.000000 0.051000 0.051000 1.200000 0.026000 0.031000
1517162612502832895	500 39 0.900000 0.022000 0.020000 600 37 0.900000 0.529000 0.477000 600 42 1.000000 0.051000 0.051000 1.200000 0.024000 0.029000
1517162613016534520	500 39 0.900000 0.022000 0.020000 600 37 0.900000 0.539000 0.486000 600 42 1.000000 0.051000 0.051000 1.200000 0.030000 0.036000
1517162613529020437	500 39 0.900000 0.025000 0.022000 600 37 0.900000 0.683000 0.616000 600 42 1.000000 0.051000 0.051000 1.200000 0.029000 0.035000
1517162614040770187	500 39 0.900000 0.023000 0.021000 600 37 0.900000 0.581000 0.524000 600 42 1.000000 0.051000 0.051000 1.200000 0.024000 0.028000
1517162614552468646	500 39 0.900000 0.022000 0.020000 600 37 0.900000 0.536000 0.483000 600 42 1.000000 0.051000 0.051000 1.200000 0.030000 0.036000
1517162615064605271	500 39 0.900000 0.022000 0.020000 600 37 0.900000 0.533000 0.480000 600 42 1.000000 0.051000 0.051000 1.200000 0.023000 0.027000
1517162615576453937	500 39 0.900000 0.024000 0.021000 600 37 0.900000 0.611000 0.551000 600 42 1.000000 0.051000 0.051000 1.200000 0.033000 0.039000
1517162616088357271	500 39 0.900000 0.022000 0.020000 600 37 0.900000 0.588000 0.530000 600 42 1.000000 0.051000 0.051000 1.200000 0.030000 0.036000
1517162616599932854	500 39 0.900000 0.022000 0.020000 600 37 0.900000 0.532000 0.479000 600 42 1.000000 0.051000 0.051000 1.200000 0.025000 0.030000
1517162617111958229	500 39 0.900000 0.022000 0.020000 600 37 0.900000 0.540000 0.487000 600 42 1.000000 0.051000 0.051000 1.200000 0.031000 0.037000
1517162617624900479	500 39 0.900000 0.022000 0.020000 600 37 0.900000 0.535000 0.482000 600 42 1.000000 0.051000 0.051000 1.200000 0.023000 0.027000
1517162618136650104	500 39 0.900000 0.027000 0.024000 600 37 0.900000 0.661000 0.596000 600 42 1.000000 0.051000 0.051000 1.200000 0.033000 0.039000
1517162618648396104	500 39 0.900000 0.022000 0.020000 600 37 0.900000 0.537000 0.484000 600 42 1.000000 0.051000 0.051000 1.200000 0.030000 0.036000
1517162619160159021	500 39 0.900000 0.021000 0.019000 600 37 0.900000 0.533000 0.480000 600 42 1.000000 0.051000 0.051000 1.200000 0.024000 0.028000
1517162619671621021	500 39 0.900000 0.022000 0.020000 600 37 0.900000 0.534000 0.481000 600 42 1.000000 0.051000 0.051000 1.200000 0.024000 0.028000
1517162620183215480	500 39 0.900000 0.022000 0.020000 600 37 0.900000 0.661000 0.596000 600 42 1.000000 0.051000 0.051000 1.200000 0.027000 0.032000
1517162620696011730	500 39 0.900000 0.022000 0.020000 600 37 0.900000 0.529000 0.477000 600 42 1.000000 0.051000 0.051000 1.200000 0.025000 0.030000
1517162621207950563	500 39 0.900000 0.022000 0.020000 600 37 0.900000 0.525000 0.473000 600 42 1.000000 0.052000 0.052000 1.200000 0.032000 0.038000
1517162621719796313	500 39 0.900000 0.022000 0.020000 600 37 0.900000 0.537000 0.484000 600 42 1.000000 0.051000 0.051000 1.200000 0.025000 0.030000
1517162622231339980	500 39 0.900000 0.023000 0.021000 600 37 0.900000 0.586000 0.528000 600 42 1.000000 0.051000 0.051000 1.200000 0.025000 0.030000
1517162622743078022	500 39 0.900000 0.022000 0.020000 600 37 0.900000 0.519000 0.468000 600 42 1.000000 0.051000 0.051000 1.200000 0.033000 0.039000
1517162623254742855	500 39 0.900000 0.022000 0.020000 600 37 0.900000 0.533000 0.480000 600 42 1.000000 0.051000 0.051000 1.200000 0.024000 0.029000
1517162623766091438	500 39 0.900000 0.021000 0.019000 600 37 0.900000 0.522000 0.470000 600 42 1.000000 0.051000 0.051000 1.200000 0.025000 0.030000
1517162624278592813	500 39 0.900000 0.023000 0.021000 600 37 0.900000 0.543000 0.489000 600 42 1.000000 0.051000 0.051000 1.200000 0.031000 0.037000
1517162624790485772	500 39 0.900000 0.036000 0.032000 600 37 0.900000 0.681000 0.614000 600 42 1.000000 0.051000 0.051000 1.200000 0.036000 0.043000
1517162625301890480	500 39 0.900000 0.022000 0.020000 600 37 0.900000 0.530000 0.478000 600 42 1.000000 0.051000 0.051000 1.200000 0.032000 0.038000
1517162625813860397	500 39 0.900000 0.022000 0.020000 600 37 0.900000 0.541000 0.487000 600 42 1.000000 0.051000 0.051000 1.200000 0.024000 0.028000
1517162626325330189	500 39 0.900000 0.022000 0.020000 600 37 0.900000 0.530000 0.478000 600 42 1.000000 0.051000 0.051000 1.200000 0.024000 0.028000
1517162626836750355	500 39 0.900000 0.022000 0.020000 600 37 0.900000 0.615000 0.554000 600 42 1.000000 0.051000 0.051000 1.200000 0.035000 0.042000
1517162627348470772	500 39 0.900000 0.022000 0.020000 600 37 0.900000 0.543000 0.489000 600 42 1.000000 0.051000 0.051000 1.200000 0.025000 0.030000
1517162627860648439	500 39 0.900000 0.022000 0.020000 600 37 0.900000 0.524000 0.472000 600 42 1.000000 0.051000 0.051000 1.200000 0.025000 0.030000
1517162628373161147	500 39 0.900000 0.021000 0.019000 600 37 0.900000 0.517000 0.466000 600 42 1.000000 0.051000 0.051000 1.200000 0.031000 0.037000
1517162628885052856	500 39 0.900000 0.022000 0.020000 600 37 0.900000 0.544000 0.490000 600 42 1.000000 0.051000 0.051000 1.200000 0.030000 0.036000
1517162629397003314	500 39 0.900000 0.024000 0.021000 600 37 0.900000 0.527000 0.475000 600 42 1.000000 0.051000 0.051000 1.200000 0.030000 0.036000
1517162629908723064	500 39 0.900000 0.022000 0.020000 600 37 0.900000 0.515000 0.464000 600 42 1.000000 0.051000 0.051000 1.200000 0.031000 0.037000
1517162630421589106	500 39 0.900000 0.021000 0.019000 600 37 0.900000 0.531000 0.478000 600 42 1.000000 0.051000 0.051000 1.200000 0.025000 0.030000
1517162630933958523	500 39 0.900000 0.022000 0.020000 600 37 0.900000 0.527000 0.475000 600 42 1.000000 0.051000 0.051000 1.200000 0.031000 0.037000
1517162631445951231	500 39 0.900000 0.024000 0.021000 600 37 0.900000 0.556000 0.501000 600 42 1.000000 0.051000 0.051000 1.200000 0.044000 0.053000
1517162631957952273	500 39 0.900000 0.022000 0.020000 600 37 0.900000 0.534000 0.481000 600 42 1.000000 0.051000 0.051000 1.200000 0.024000 0.028000
1517162632471128023	500 39 0.900000 0.022000 0.020000 600 37 0.900000 0.521000 0.469000 600 42 1.000000 0.051000 0.051000 1.200000 0.024000 0.028000
1517162632983372731	500 39 0.900000 0.023000 0.021000 600 37 0.900000 0.516000 0.465000 600 42 1.000000 0.051000 0.051000 1.200000 0.034000 0.041000
1517162633495556815	500 39 0.900000 0.022000 0.020000 600 37 0.900000 0.566000 0.510000 600 42 1.000000 0.051000 0.051000 1.200000 0.024000 0.028000
1517162634007073356	500 39 0.900000 0.026000 0.023000 600 37 0.900000 0.527000 0.475000 600 42 1.000000 0.051000 0.051000 1.200000 0.034000 0.041000
1517162634518661815	500 39 0.900000 0.022000 0.020000 600 37 0.900000 0.541000 0.487000 600 42 1.000000 0.051000 0.051000 1.200000 0.024000 0.029000
1517162635032773356	500 39 0.900000 0.022000 0.020000 600 37 0.900000 0.579000 0.522000 600 42 1.000000 0.051000 0.051000 1.200000 0.029000 0.035000
1517162635545939440	500 39 0.900000 0.023000 0.021000 600 37 0.900000 0.520000 0.469000 600 42 1.000000 0.051000 0.051000 1.200000 0.031000 0.037000
1517162636058393690	500 39 0.900000 0.027000 0.024000 600 37 0.900000 0.534000 0.481000 600 42 1.000000 0.051000 0.051000 1.200000 0.033000 0.039000
1517162636570048648	500 39 0.900000 0.022000 0.020000 600 37 0.900000 0.528000 0.476000 600 42 1.000000 0.051000 0.051000 1.200000 0.025000 0.030000
1517162637083221898	500 39 0.900000 0.023000 0.021000 600 37 0.900000 0.540000 0.487000 600 42 1.000000 0.051000 0.051000 1.200000 0.036000 0.043000
1517162637596404398	500 39 0.900000 0.022000 0.020000 600 37 0.900000 0.538000 0.485000 600 42 1.000000 0.051000 0.051000 1.200000 0.025000 0.030000
1517162638108116523	500 39 0.900000 0.028000 0.025000 600 37 0.900000 0.586000 0.528000 600 42 1.000000 0.051000 0.051000 1.200000 0.040000 0.048000
1517162638620063940	500 39 0.900000 0.022000 0.020000 600 37 0.900000 0.539000 0.486000 600 42 1.000000 0.051000 0.051000 1.200000 0.031000 0.037000
1517162639131845315	500 39 0.900000 0.022000 0.020000 600 37 0.900000 0.535000 0.482000 600 42 1.000000 0.051000 0.051000 1.200000 0.029000 0.035000
1517162639643387399	500 39 0.900000 0.022000 0.020000 600 37 0.900000 0.521000 0.469000 600 42 1.000000 0.051000 0.051000 1.200000 0.024000 0.029000
1517162640154902440	500 39 0.900000 0.024000 0.021000 600 37 0.900000 0.544000 0.490000 600 42 1.000000 0.051000 0.051000 1.200000 0.038000 0.045000
1517162640668540357	500 39 0.900000 0.022000 0.020000 600 37 0.900000 0.534000 0.481000 600 42 1.000000 0.051000 0.051000 1.200000 0.024000 0.029000
1517162641179999566	500 39 0.900000 0.023000 0.021000 600 37 0.900000 0.548000 0.494000 600 42 1.000000 0.051000 0.051000 1.200000 0.029000 0.035000
1517162641691731107	500 39 0.900000 0.022000 0.020000 600 37 0.900000 0.541000 0.487000 600 42 1.000000 0.051000 0.051000 1.200000 0.030000 0.036000
1517162642204733941	500 39 0.900000 0.022000 0.020000 600 37 0.900000 0.523000 0.471000 600 42 1.000000 0.051000 0.051000 1.200000 0.025000 0.030000
1517162642717003857	500 39 0.900000 0.033000 0.030000 600 37 0.900000 0.629000 0.567000 600 42 1.000000 0.051000 0.051000 1.200000 0.043000 0.052000
1517162643228632274	500 39 0.900000 0.022000 0.020000 600 37 0.900000 0.533000 0.480000 600 42 1.000000 0.051000 0.051000 1.200000 0.025000 0.030000
1517162643739989441	500 39 0.900000 0.022000 0.020000 600 37 0.900000 0.534000 0.481000 600 42 1.000000 0.051000 0.051000 1.200000 0.025000 0.030000
1517162644252041858	500 39 0.900000 0.022000 0.020000 600 37 0.900000 0.541000 0.487000 600 42 1.000000 0.051000 0.051000 1.200000 0.031000 0.037000
1517162644763940358	500 39 0.900000 0.022000 0.020000 600 37 0.900000 0.574000 0.517000 600 42 1.000000 0.051000 0.051000 1.200000 0.035000 0.042000
1517162645275683816	500 39 0.900000 0.022000 0.020000 600 37 0.900000 0.524000 0.472000 600 42 1.000000 0.051000 0.051000 1.200000 0.025000 0.030000
1517162645787635024	500 39 0.900000 0.022000 0.020000 600 37 0.900000 0.539000 0.486000 600 42 1.000000 0.051000 0.051000 1.200000 0.031000 0.037000
1517162646299469441	500 39 0.900000 0.022000 0.020000 600 37 0.900000 0.531000 0.478000 600 42 1.000000 0.051000 0.051000 1.200000 0.024000 0.028000
1517162646810947358	500 39 0.900000 0.022000 0.020000 600 37 0.900000 0.525000 0.473000 600 42 1.000000 0.051000 0.051000 1.200000 0.028000 0.033000
1517162647322711066	500 39 0.900000 0.022000 0.020000 600 37 0.900000 0.544000 0.490000 600 42 1.000000 0.051000 0.051000 1.200000 0.030000 0.036000
1517162647834440691	500 39 0.900000 0.021000 0.019000 600 37 0.900000 0.532000 0.479000 600 41 1.000000 0.051000 0.051000 1.200000 0.024000 0.029000
1517162648345861608	500 39 0.900000 0.022000 0.020000 600 37 0.900000 0.521000 0.469000 600 42 1.000000 0.051000 0.051000 1.200000 0.024000 0.028000
1517162648858081775	500 39 0.900000 0.022000 0.020000 600 37 0.900000 0.531000 0.478000 600 42 1.000000 0.051000 0.051000 1.200000 0.030000 0.036000
1517162649370396900	500 39 0.900000 0.022000 0.020000 600 37 0.900000 0.600000 0.541000 600 42 1.000000 0.051000 0.051000 1.200000 0.026000 0.031000
1517162649882387900	500 39 0.900000 0.021000 0.019000 600 37 0.900000 0.520000 0.469000 600 42 1.000000 0.051000 0.051000 1.200000 0.024000 0.028000
1517162650395892900	500 39 0.900000 0.021000 0.019000 600 37 0.900000 0.535000 0.482000 600 42 1.000000 0.051000 0.051000 1.200000 0.030000 0.036000
1517162650907550192	500 39 0.900000 0.023000 0.021000 600 37 0.900000 0.524000 0.472000 600 42 1.000000 0.051000 0.051000 1.200000 0.025000 0.030000
1517162651419026025	500 39 0.900000 0.021000 0.019000 600 37 0.900000 0.546000 0.493000 600 42 1.000000 0.051000 0.051000 1.200000 0.036000 0.043000
1517162651930737567	500 39 0.900000 0.023000 0.021000 600 37 0.900000 0.587000 0.530000 600 42 1.000000 0.051000 0.051000 1.200000 0.026000 0.031000
1517162652442273609	500 39 0.900000 0.022000 0.020000 600 37 0.900000 0.523000 0.471000 600 42 1.000000 0.051000 0.051000 1.200000 0.025000 0.030000
1517162652953972567	500 39 0.900000 0.022000 0.020000 600 37 0.900000 0.541000 0.487000 600 42 1.000000 0.051000 0.051000 1.200000 0.030000 0.036000
1517162653466535484	500 39 0.900000 0.022000 0.020000 600 37 0.900000 0.536000 0.483000 600 42 1.000000 0.051000 0.051000 1.200000 0.025000 0.030000
1517162653978094150	500 39 0.900000 0.027000 0.024000 600 37 0.900000 0.597000 0.538000 600 42 1.000000 0.051000 0.051000 1.200000 0.024000 0.029000
1517162654489922109	500 39 0.900000 0.022000 0.020000 600 37 0.900000 0.538000 0.485000 600 42 1.000000 0.051000 0.051000 1.200000 0.030000 0.036000
1517162655002693400	500 39 0.900000 0.022000 0.020000 600 37 0.900000 0.530000 0.478000 600 41 1.000000 0.051000 0.051000 1.200000 0.024000 0.028000
1517162655515960442	500 39 0.900000 0.022000 0.020000 600 37 0.900000 0.523000 0.471000 600 42 1.000000 0.051000 0.051000 1.200000 0.024000 0.028000
1517162656028361734	500 39 0.900000 0.031000 0.028000 600 37 0.900000 0.635000 0.573000 600 42 1.000000 0.051000 0.051000 1.200000 0.034000 0.041000
1517162656540259526	500 39 0.900000 0.022000 0.020000 600 37 0.900000 0.522000 0.470000 600 42 1.000000 0.051000 0.051000 1.200000 0.023000 0.027000
1517162657052051151	500 39 0.900000 0.022000 0.020000 600 37 0.900000 0.517000 0.466000 600 42 1.000000 0.051000 0.051000 1.200000 0.024000 0.029000
1517162657563880734	500 39 0.900000 0.022000 0.020000 600 37 0.900000 0.536000 0.483000 600 42 1.000000 0.051000 0.051000 1.200000 0.029000 0.035000
1517162658075298818	500 39 0.900000 0.032000 0.029000 600 37 0.900000 0.680000 0.614000 600 42 1.000000 0.051000 0.051000 1.200000 0.034000 0.041000
1517162658587304109	500 39 0.900000 0.022000 0.020000 600 37 0.900000 0.513000 0.462000 600 42 1.000000 0.051000 0.051000 1.200000 0.024000 0.029000
1517162659099273234	500 39 0.900000 0.021000 0.019000 600 37 0.900000 0.530000 0.478000 600 42 1.000000 0.051000 0.051000 1.200000 0.029000 0.035000
1517162659612944901	500 39 0.900000 0.022000 0.020000 600 37 0.900000 0.524000 0.472000 600 42 1.000000 0.051000 0.051000 1.200000 0.025000 0.030000
1517162660127157526	500 39 0.900000 0.022000 0.020000 600 37 0.900000 0.544000 0.490000 600 42 1.000000 0.051000 0.051000 1.200000 0.023000 0.027000
1517162660639789651	500 39 0.900000 0.029000 0.026000 600 37 0.900000 0.584000 0.527000 600 42 1.000000 0.051000 0.051000 1.200000 0.037000 0.044000
1517162661151381651	500 39 0.900000 0.022000 0.020000 600 37 0.900000 0.519000 0.468000 600 41 1.000000 0.051000 0.051000 1.200000 0.031000 0.037000
1517162661663400943	500 39 0.900000 0.022000 0.020000 600 37 0.900000 0.535000 0.482000 600 42 1.000000 0.051000 0.051000 1.200000 0.024000 0.028000
1517162662175611943	500 38 0.900000 0.022000 0.020000 600 37 0.900000 0.563000 0.508000 600 42 1.000000 0.051000 0.051000 1.200000 0.025000 0.030000
1517162662687453651	500 39 0.900000 0.025000 0.022000 600 37 0.900000 0.661000 0.596000 600 42 1.000000 0.051000 0.051000 1.200000 0.036000 0.043000
1517162663199365276	500 39 0.900000 0.021000 0.019000 600 37 0.900000 0.529000 0.477000 600 41 1.000000 0.051000 0.051000 1.200000 0.025000 0.030000
1517162663711329985	500 39 0.900000 0.022000 0.020000 600 37 0.900000 0.520000 0.469000 600 41 1.000000 0.051000 0.051000 1.200000 0.025000 0.030000
1517162664223082943	500 39 0.900000 0.022000 0.020000 600 37 0.900000 0.575000 0.518000 600 41 1.000000 0.051000 0.051000 1.200000 0.031000 0.037000
1517162664734405860	500 39 0.900000 0.022000 0.020000 600 37 0.900000 0.650000 0.586000 600 42 1.000000 0.051000 0.051000 1.200000 0.026000 0.031000
1517162665245727277	500 39 0.900000 0.022000 0.020000 600 37 0.900000 0.523000 0.471000 600 41 1.000000 0.051000 0.051000 1.200000 0.024000 0.028000
1517162665757231235	500 39 0.900000 0.022000 0.020000 600 37 0.900000 0.512000 0.461000 600 42 1.000000 0.051000 0.051000 1.200000 0.031000 0.037000
1517162666268917818	500 39 0.900000 0.022000 0.020000 600 37 0.900000 0.591000 0.533000 600 41 1.000000 0.051000 0.051000 1.200000 0.025000 0.030000
1517162666781698985	500 39 0.900000 0.022000 0.020000 600 37 0.900000 0.576000 0.519000 600 42 1.000000 0.051000 0.051000 1.200000 0.025000 0.030000
1517162667293524902	500 39 0.900000 0.022000 0.020000 600 37 0.900000 0.514000 0.463000 600 42 1.000000 0.051000 0.051000 1.200000 0.034000 0.041000
1517162667805158985	500 39 0.900000 0.022000 0.020000 600 37 0.900000 0.530000 0.478000 600 42 1.000000 0.051000 0.051000 1.200000 0.024000 0.028000
1517162668317236360	500 39 0.900000 0.022000 0.020000 600 37 0.900000 0.522000 0.470000 600 42 1.000000 0.051000 0.051000 1.200000 0.031000 0.037000
1517162668829601777	500 39 0.900000 0.022000 0.020000 600 37 0.900000 0.538000 0.485000 600 41 1.000000 0.051000 0.051000 1.200000 0.031000 0.037000
1517162669342412902	500 39 0.900000 0.032000 0.029000 600 37 0.900000 0.652000 0.588000 600 42 1.000000 0.051000 0.051000 1.200000 0.030000 0.036000
1517162669853996986	500 38 0.900000 0.021000 0.019000 600 37 0.900000 0.522000 0.470000 600 42 1.000000 0.051000 0.051000 1.200000 0.031000 0.037000
1517162670365526652	500 39 0.900000 0.022000 0.020000 600 37 0.900000 0.529000 0.477000 600 42 1.000000 0.051000 0.051000 1.200000 0.024000 0.029000
1517162670876957569	500 39 0.900000 0.023000 0.021000 600 37 0.900000 0.523000 0.471000 600 41 1.000000 0.051000 0.051000 1.200000 0.029000 0.035000
1517162671388286194	500 39 0.900000 0.022000 0.020000 600 37 0.900000 0.596000 0.538000 600 42 1.000000 0.051000 0.051000 1.200000 0.031000 0.037000
1517162671900146944	500 39 0.900000 0.022000 0.020000 600 37 0.900000 0.529000 0.477000 600 42 1.000000 0.051000 0.051000 1.200000 0.025000 0.030000
1517162672411621361	500 39 0.900000 0.022000 0.020000 600 37 0.900000 0.519000 0.468000 600 42 1.000000 0.051000 0.051000 1.200000 0.025000 0.030000
1517162672923434278	500 38 0.900000 0.022000 0.020000 600 37 0.900000 0.520000 0.469000 600 42 1.000000 0.051000 0.051000 1.200000 0.033000 0.039000
1517162673435888278	500 39 0.900000 0.022000 0.020000 600 37 0.900000 0.557000 0.502000 600 42 1.000000 0.051000 0.051000 1.200000 0.025000 0.030000
1517162673947689778	500 39 0.900000 0.022000 0.020000 600 37 0.900000 0.524000 0.472000 600 41 1.000000 0.051000 0.051000 1.200000 0.029000 0.035000
1517162674459965653	500 39 0.900000 0.021000 0.019000 600 37 0.900000 0.541000 0.487000 600 41 1.000000 0.051000 0.051000 1.200000 0.030000 0.036000
1517162674971668403	500 39 0.900000 0.022000 0.020000 600 37 0.900000 0.590000 0.532000 600 41 1.000000 0.051000 0.051000 1.200000 0.024000 0.028000
1517162675483205320	500 39 0.900000 0.022000 0.020000 600 37 0.900000 0.522000 0.470000 600 41 1.000000 0.051000 0.051000 1.200000 0.024000 0.028000
1517162675995118945	500 39 0.900000 0.023000 0.021000 600 37 0.900000 0.662000 0.597000 600 42 1.000000 0.051000 0.051000 1.200000 0.040000 0.048000
1517162676508015695	500 39 0.900000 0.022000 0.020000 600 37 0.900000 0.527000 0.475000 600 41 1.000000 0.051000 0.051000 1.200000 0.024000 0.029000
1517162677019897028	500 39 0.900000 0.022000 0.020000 600 37 0.900000 0.557000 0.502000 600 41 1.000000 0.051000 0.051000 1.200000 0.036000 0.043000
1517162677532090903	500 39 0.900000 0.022000 0.020000 600 37 0.900000 0.529000 0.477000 600 41 1.000000 0.051000 0.051000 1.200000 0.025000 0.030000
1517162678043918653	500 39 0.900000 0.022000 0.020000 600 37 0.900000 0.525000 0.473000 600 41 1.000000 0.051000 0.051000 1.200000 0.025000 0.030000
1517162678555685528	500 39 0.900000 0.025000 0.022000 600 37 0.900000 0.608000 0.549000 600 41 1.000000 0.051000 0.051000 1.200000 0.033000 0.039000
1517162679067433778	500 39 0.900000 0.023000 0.021000 600 37 0.900000 0.569000 0.513000 600 41 1.000000 0.051000 0.051000 1.200000 0.031000 0.037000
1517162679578959612	500 39 0.900000 0.022000 0.020000 600 37 0.900000 0.517000 0.466000 600 41 1.000000 0.051000 0.051000 1.200000 0.025000 0.030000
1517162680091444362	500 39 0.900000 0.022000 0.020000 600 37 0.900000 0.537000 0.484000 600 42 1.000000 0.051000 0.051000 1.200000 0.030000 0.036000
1517162680603529612	500 39 0.900000 0.024000 0.021000 600 37 0.900000 0.658000 0.594000 600 41 1.000000 0.051000 0.051000 1.200000 0.031000 0.037000
1517162681115041362	500 39 0.900000 0.022000 0.020000 600 37 0.900000 0.581000 0.524000 600 41 1.000000 0.051000 0.051000 1.200000 0.031000 0.037000
1517162681626771695	500 39 0.900000 0.022000 0.020000 600 37 0.900000 0.534000 0.481000 600 42 1.000000 0.051000 0.051000 1.200000 0.030000 0.036000
1517162682138316029	500 39 0.900000 0.022000 0.020000 600 37 0.900000 0.524000 0.472000 600 41 1.000000 0.051000 0.051000 1.200000 0.024000 0.029000
1517162682649683820	500 39 0.900000 0.023000 0.021000 600 37 0.900000 0.631000 0.569000 600 42 1.000000 0.051000 0.051000 1.200000 0.033000 0.039000
1517162683163167362	500 39 0.900000 0.023000 0.021000 600 37 0.900000 0.600000 0.541000 600 42 1.000000 0.051000 0.051000 1.200000 0.036000 0.043000
1517162683675564612	500 39 0.900000 0.023000 0.021000 600 37 0.900000 0.530000 0.478000 600 41 1.000000 0.051000 0.051000 1.200000 0.024000 0.029000
1517162684187324904	500 39 0.900000 0.022000 0.020000 600 37 0.900000 0.513000 0.462000 600 41 1.000000 0.051000 0.051000 1.200000 0.024000 0.028000
1517162684698588946	500 39 0.900000 0.023000 0.021000 600 37 0.900000 0.572000 0.515000 600 42 1.000000 0.051000 0.051000 1.200000 0.037000 0.044000
1517162685212815154	500 39 0.900000 0.023000 0.021000 600 37 0.900000 0.619000 0.558000 600 42 1.000000 0.051000 0.051000 1.200000 0.027000 0.032000
1517162685724754696	500 39 0.900000 0.023000 0.021000 600 37 0.900000 0.534000 0.481000 600 42 1.000000 0.051000 0.051000 1.200000 0.032000 0.038000
1517162686236529946	500 39 0.900000 0.022000 0.020000 600 37 0.900000 0.526000 0.474000 600 41 1.000000 0.051000 0.051000 1.200000 0.025000 0.030000
1517162686748455446	500 38 0.900000 0.022000 0.020000 600 37 0.900000 0.524000 0.472000 600 42 1.000000 0.051000 0.051000 1.200000 0.025000 0.030000
1517162687260270696	500 39 0.900000 0.025000 0.022000 600 37 0.900000 0.671000 0.605000 600 42 1.000000 0.051000 0.051000 1.200000 0.039000 0.047000
1517162687772010071	500 39 0.900000 0.022000 0.020000 600 37 0.900000 0.530000 0.478000 600 41 1.000000 0.051000 0.051000 1.200000 0.024000 0.028000
1517162688283549529	500 38 0.900000 0.022000 0.020000 600 37 0.900000 0.523000 0.471000 600 41 1.000000 0.051000 0.051000 1.200000 0.025000 0.030000
1517162688795450155	500 38 0.900000 0.022000 0.020000 600 37 0.900000 0.532000 0.479000 600 41 1.000000 0.051000 0.051000 1.200000 0.030000 0.036000
1517162689307921238	500 39 0.900000 0.023000 0.021000 600 37 0.900000 0.615000 0.555000 600 41 1.000000 0.051000 0.051000 1.200000 0.038000 0.045000
1517162689819455488	500 39 0.900000 0.022000 0.020000 600 37 0.900000 0.529000 0.477000 600 41 1.000000 0.051000 0.051000 1.200000 0.024000 0.028000
1517162690331263780	500 38 0.900000 0.022000 0.020000 600 37 0.900000 0.541000 0.487000 600 41 1.000000 0.051000 0.051000 1.200000 0.030000 0.036000
1517162690843162613	500 38 0.900000 0.022000 0.020000 600 37 0.900000 0.526000 0.474000 600 41 1.000000 0.051000 0.051000 1.200000 0.023000 0.027000
1517162691354436655	500 39 0.900000 0.023000 0.021000 600 37 0.900000 0.534000 0.481000 600 42 1.000000 0.051000 0.051000 1.200000 0.034000 0.041000
1517162691866135322	500 39 0.900000 0.022000 0.020000 600 37 0.900000 0.526000 0.474000 600 42 1.000000 0.051000 0.051000 1.200000 0.029000 0.035000
1517162692377697947	500 39 0.900000 0.022000 0.020000 600 37 0.900000 0.523000 0.471000 600 41 1.000000 0.051000 0.051000 1.200000 0.024000 0.029000
1517162692889507822	500 39 0.900000 0.021000 0.019000 600 37 0.900000 0.517000 0.466000 600 41 1.000000 0.051000 0.051000 1.200000 0.023000 0.027000
1517162693401891863	500 39 0.900000 0.022000 0.020000 600 37 0.900000 0.530000 0.478000 600 42 1.000000 0.051000 0.051000 1.200000 0.035000 0.042000
1517162693913961738	500 39 0.900000 0.032000 0.029000 600 37 0.900000 0.671000 0.605000 600 42 1.000000 0.051000 0.051000 1.200000 0.037000 0.044000
1517162694425723614	500 39 0.900000 0.022000 0.020000 600 37 0.900000 0.560000 0.505000 600 41 1.000000 0.051000 0.051000 1.200000 0.031000 0.037000
1517162694937717280	500 39 0.900000 0.022000 0.020000 600 37 0.900000 0.534000 0.481000 600 41 1.000000 0.051000 0.051000 1.200000 0.025000 0.030000
1517162695450477530	500 39 0.900000 0.022000 0.020000 600 37 0.900000 0.529000 0.477000 600 42 1.000000 0.051000 0.051000 1.200000 0.025000 0.030000
1517162695962106947	500 39 0.900000 0.023000 0.021000 600 37 0.900000 0.648000 0.585000 600 42 1.000000 0.051000 0.051000 1.200000 0.038000 0.045000
1517162696474660489	500 39 0.900000 0.022000 0.020000 600 37 0.900000 0.527000 0.475000 600 42 1.000000 0.051000 0.051000 1.200000 0.024000 0.028000
1517162696986119322	500 39 0.900000 0.021000 0.019000 600 37 0.900000 0.524000 0.472000 600 41 1.000000 0.051000 0.051000 1.200000 0.024000 0.028000
1517162697498571156	500 39 0.900000 0.022000 0.020000 600 37 0.900000 0.532000 0.479000 600 41 1.000000 0.051000 0.051000 1.200000 0.030000 0.036000
1517162698011518406	500 39 0.900000 0.023000 0.021000 600 37 0.900000 0.558000 0.503000 600 42 1.000000 0.051000 0.051000 1.200000 0.028000 0.033000
1517162698523496281	500 38 0.900000 0.023000 0.021000 600 37 0.900000 0.519000 0.468000 600 41 1.000000 0.051000 0.051000 1.200000 0.023000 0.027000
1517162699035333447	500 38 0.900000 0.022000 0.020000 600 37 0.900000 0.523000 0.471000 600 41 1.000000 0.051000 0.051000 1.200000 0.029000 0.035000
1517162699546787656	500 38 0.900000 0.022000 0.020000 600 37 0.900000 0.518000 0.467000 600 41 1.000000 0.051000 0.051000 1.200000 0.024000 0.028000
1517162700059372906	500 38 0.900000 0.022000 0.020000 600 37 0.900000 0.541000 0.487000 600 42 1.000000 0.051000 0.051000 1.200000 0.024000 0.029000
1517162700573115948	500 39 0.900000 0.024000 0.021000 600 37 0.900000 0.574000 0.518000 600 41 1.000000 0.051000 0.051000 1.200000 0.039000 0.047000
1517162701084595239	500 38 0.900000 0.022000 0.020000 600 37 0.900000 0.520000 0.469000 600 41 1.000000 0.051000 0.051000 1.200000 0.026000 0.031000
1517162701596229781	500 38 0.900000 0.022000 0.020000 600 37 0.900000 0.523000 0.472000 600 41 1.000000 0.051000 0.051000 1.200000 0.031000 0.037000
1517162702108130573	500 39 0.900000 0.023000 0.021000 600 37 0.900000 0.524000 0.473000 600 41 1.000000 0.051000 0.051000 1.200000 0.031000 0.037000
1517162702620439114	500 39 0.900000 0.022000 0.020000 600 37 0.900000 0.552000 0.498000 600 42 1.000000 0.051000 0.051000 1.200000 0.030000 0.036000
1517162703132276448	500 38 0.900000 0.025000 0.022000 600 37 0.900000 0.533000 0.481000 600 41 1.000000 0.051000 0.051000 1.200000 0.031000 0.037000
1517162703644544073	500 39 0.900000 0.022000 0.020000 600 37 0.900000 0.524000 0.473000 600 41 1.000000 0.051000 0.051000 1.200000 0.024000 0.029000
1517162704156152531	500 38 0.900000 0.022000 0.020000 600 37 0.900000 0.585000 0.528000 600 41 1.000000 0.051000 0.051000 1.200000 0.030000 0.036000
1517162704668425448	500 38 0.900000 0.022000 0.020000 600 37 0.900000 0.532000 0.480000 600 42 1.000000 0.051000 0.051000 1.200000 0.025000 0.030000
1517162705180057615	500 38 0.900000 0.027000 0.024000 600 37 0.900000 0.539000 0.486000 600 41 1.000000 0.051000 0.051000 1.200000 0.038000 0.045000
1517162705691846073	500 39 0.900000 0.022000 0.020000 600 37 0.900000 0.521000 0.469000 600 41 1.000000 0.051000 0.051000 1.200000 0.031000 0.037000
1517162706203682948	500 38 0.900000 0.023000 0.021000 600 37 0.900000 0.584000 0.527000 600 41 1.000000 0.051000 0.051000 1.200000 0.025000 0.030000
1517162706715989115	500 38 0.900000 0.022000 0.020000 600 37 0.900000 0.519000 0.468000 600 41 1.000000 0.051000 0.051000 1.200000 0.025000 0.030000
1517162707227809740	500 38 0.900000 0.027000 0.024000 600 37 0.900000 0.603000 0.544000 600 41 1.000000 0.051000 0.051000 1.200000 0.040000 0.048000
1517162707739631407	500 39 0.900000 0.022000 0.020000 600 37 0.900000 0.525000 0.474000 600 41 1.000000 0.051000 0.051000 1.200000 0.025000 0.030000
1517162708251127782	500 39 0.900000 0.022000 0.020000 600 37 0.900000 0.576000 0.520000 600 41 1.000000 0.051000 0.051000 1.200000 0.027000 0.032000
1517162708763006074	500 38 0.900000 0.022000 0.020000 600 37 0.900000 0.524000 0.473000 600 41 1.000000 0.051000 0.051000 1.200000 0.031000 0.037000
1517162709275421199	500 38 0.900000 0.024000 0.021000 600 37 0.900000 0.645000 0.582000 600 42 1.000000 0.051000 0.051000 1.200000 0.029000 0.035000
1517162709787098074	500 39 0.900000 0.022000 0.020000 600 37 0.900000 0.518000 0.467000 600 41 1.000000 0.051000 0.051000 1.200000 0.025000 0.030000
1517162710298909532	500 39 0.900000 0.022000 0.020000 600 37 0.900000 0.581000 0.524000 600 41 1.000000 0.051000 0.051000 1.200000 0.033000 0.039000
1517162710812510449	500 39 0.900000 0.022000 0.020000 600 37 0.900000 0.527000 0.475000 600 41 1.000000 0.051000 0.051000 1.200000 0.023000 0.027000
1517162711325108449	500 39 0.900000 0.022000 0.020000 600 37 0.900000 0.526000 0.474000 600 42 1.000000 0.051000 0.051000 1.200000 0.030000 0.036000
1517162711837091032	500 38 0.900000 0.032000 0.029000 600 37 0.900000 0.581000 0.524000 600 42 1.000000 0.051000 0.051000 1.200000 0.038000 0.045000
1517162712348692532	500 38 0.900000 0.022000 0.020000 600 37 0.900000 0.531000 0.478000 600 41 1.000000 0.051000 0.051000 1.200000 0.026000 0.031000
1517162712860571032	500 39 0.900000 0.022000 0.020000 600 37 0.900000 0.584000 0.527000 600 41 1.000000 0.051000 0.051000 1.200000 0.032000 0.038000
1517162713372375699	500 38 0.900000 0.022000 0.020000 600 37 0.900000 0.526000 0.474000 600 41 1.000000 0.051000 0.051000 1.200000 0.024000 0.029000
1517162713884000491	500 39 0.900000 0.031000 0.028000 600 37 0.900000 0.549000 0.495000 600 41 1.000000 0.051000 0.051000 1.200000 0.032000 0.038000
1517162714395488116	500 39 0.900000 0.022000 0.020000 600 37 0.900000 0.538000 0.485000 600 41 1.000000 0.051000 0.051000 1.200000 0.030000 0.036000
1517162714907278908	500 38 0.900000 0.022000 0.020000 600 37 0.900000 0.565000 0.509000 600 41 1.000000 0.051000 0.051000 1.200000 0.025000 0.030000
1517162715418711241	500 38 0.900000 0.022000 0.020000 600 37 0.900000 0.528000 0.476000 600 41 1.000000 0.051000 0.051000 1.200000 0.025000 0.030000
1517162715930039449	500 39 0.900000 0.022000 0.020000 600 37 0.900000 0.531000 0.478000 600 42 1.000000 0.051000 0.051000 1.200000 0.031000 0.037000
1517162716441896908	500 38 0.900000 0.022000 0.020000 600 37 0.900000 0.551000 0.497000 600 41 1.000000 0.051000 0.051000 1.200000 0.025000 0.030000
1517162716954867741	500 38 0.900000 0.022000 0.020000 600 37 0.900000 0.546000 0.492000 600 41 1.000000 0.051000 0.051000 1.200000 0.025000 0.030000
1517162717467055325	500 38 0.900000 0.022000 0.020000 600 37 0.900000 0.531000 0.478000 600 41 1.000000 0.051000 0.051000 1.200000 0.029000 0.035000
1517162717981435283	500 38 0.900000 0.022000 0.020000 600 37 0.900000 0.525000 0.473000 600 42 1.000000 0.051000 0.051000 1.200000 0.024000 0.029000
1517162718493342408	500 38 0.900000 0.022000 0.020000 600 37 0.900000 0.622000 0.561000 600 42 1.000000 0.051000 0.051000 1.200000 0.028000 0.033000
1517162719005131450	500 38 0.900000 0.021000 0.019000 600 37 0.900000 0.527000 0.475000 600 41 1.000000 0.051000 0.051000 1.200000 0.030000 0.036000
1517162719516640533	500 38 0.900000 0.022000 0.020000 600 37 0.900000 0.516000 0.465000 600 41 1.000000 0.051000 0.051000 1.200000 0.024000 0.028000
1517162720028505992	500 38 0.900000 0.022000 0.020000 600 37 0.900000 0.527000 0.475000 600 41 1.000000 0.051000 0.051000 1.200000 0.029000 0.035000
1517162720540940700	500 39 0.900000 0.022000 0.020000 600 37 0.900000 0.528000 0.476000 600 42 1.000000 0.051000 0.051000 1.200000 0.027000 0.032000
1517162721052372450	500 38 0.900000 0.026000 0.023000 600 37 0.900000 0.595000 0.537000 600 41 1.000000 0.051000 0.051000 1.200000 0.032000 0.038000
1517162721564169367	500 38 0.900000 0.022000 0.020000 600 37 0.900000 0.528000 0.476000 600 41 1.000000 0.051000 0.051000 1.200000 0.030000 0.036000
1517162722075937742	500 38 0.900000 0.022000 0.020000 600 37 0.900000 0.523000 0.472000 600 41 1.000000 0.051000 0.051000 1.200000 0.025000 0.030000
1517162722588499784	500 38 0.900000 0.022000 0.020000 600 37 0.900000 0.530000 0.478000 600 42 1.000000 0.051000 0.051000 1.200000 0.026000 0.031000
1517162723100498034	500 38 0.900000 0.025000 0.022000 600 37 0.900000 0.642000 0.579000 600 41 1.000000 0.051000 0.051000 1.200000 0.037000 0.044000
1517162723612866159	500 38 0.900000 0.021000 0.019000 600 36 0.900000 0.529000 0.477000 600 41 1.000000 0.051000 0.051000 1.200000 0.024000 0.029000
1517162724124579117	500 38 0.900000 0.022000 0.020000 600 37 0.900000 0.536000 0.483000 600 41 1.000000 0.051000 0.051000 1.200000 0.025000 0.030000
1517162724637449784	500 38 0.900000 0.022000 0.020000 600 36 0.900000 0.527000 0.475000 600 42 1.000000 0.051000 0.051000 1.200000 0.028000 0.033000
1517162725149485992	500 39 0.900000 0.026000 0.023000 600 37 0.900000 0.682000 0.615000 600 41 1.000000 0.051000 0.051000 1.200000 0.036000 0.043000
1517162725661337367	500 38 0.900000 0.022000 0.020000 600 37 0.900000 0.533000 0.481000 600 41 1.000000 0.051000 0.051000 1.200000 0.025000 0.030000
1517162726173242117	500 38 0.900000 0.022000 0.020000 600 37 0.900000 0.525000 0.474000 600 41 1.000000 0.051000 0.051000 1.200000 0.029000 0.035000
1517162726684904034	500 38 0.900000 0.022000 0.020000 600 37 0.900000 0.520000 0.469000 600 41 1.000000 0.051000 0.051000 1.200000 0.024000 0.028000
1517162727196369867	500 38 0.900000 0.028000 0.025000 600 37 0.900000 0.692000 0.624000 600 42 1.000000 0.051000 0.051000 1.200000 0.038000 0.045000
1517162727708096076	500 39 0.900000 0.021000 0.019000 600 37 0.900000 0.522000 0.470000 600 41 1.000000 0.051000 0.051000 1.200000 0.029000 0.035000
1517162728219569618	500 38 0.900000 0.022000 0.020000 600 37 0.900000 0.519000 0.468000 600 41 1.000000 0.051000 0.051000 1.200000 0.024000 0.028000
1517162728731416034	500 38 0.900000 0.022000 0.020000 600 37 0.900000 0.529000 0.477000 600 41 1.000000 0.051000 0.051000 1.200000 0.029000 0.035000
1517162729244578743	500 39 0.900000 0.022000 0.020000 600 37 0.900000 0.527000 0.475000 600 42 1.000000 0.051000 0.051000 1.200000 0.029000 0.035000
1517162729756348326	500 38 0.900000 0.025000 0.022000 600 37 0.900000 0.624000 0.563000 600 41 1.000000 0.051000 0.051000 1.200000 0.030000 0.036000
1517162730268143534	500 38 0.900000 0.022000 0.020000 600 37 0.900000 0.534000 0.481000 600 41 1.000000 0.051000 0.051000 1.200000 0.030000 0.036000
1517162730780579535	500 38 0.900000 0.022000 0.020000 600 36 0.900000 0.527000 0.475000 600 41 1.000000 0.051000 0.051000 1.200000 0.025000 0.030000
1517162731293632243	500 38 0.900000 0.022000 0.020000 600 37 0.900000 0.552000 0.497000 600 42 1.000000 0.051000 0.051000 1.200000 0.030000 0.036000
1517162731805707951	500 39 0.900000 0.029000 0.026000 600 37 0.900000 0.651000 0.587000 600 41 1.000000 0.051000 0.051000 1.200000 0.041000 0.049000
1517162732319409618	500 38 0.900000 0.022000 0.020000 600 37 0.900000 0.525000 0.473000 600 41 1.000000 0.051000 0.051000 1.200000 0.024000 0.028000
1517162732831632201	500 38 0.900000 0.022000 0.020000 600 36 0.900000 0.536000 0.483000 600 41 1.000000 0.051000 0.051000 1.200000 0.024000 0.028000
1517162733343418410	500 38 0.900000 0.022000 0.020000 600 37 0.900000 0.568000 0.512000 600 41 1.000000 0.051000 0.051000 1.200000 0.034000 0.041000
1517162733854777160	500 38 0.900000 0.022000 0.020000 600 37 0.900000 0.592000 0.534000 600 42 1.000000 0.051000 0.051000 1.200000 0.037000 0.044000
1517162734370460952	500 38 0.900000 0.022000 0.020000 600 37 0.900000 0.524000 0.472000 600 41 1.000000 0.051000 0.051000 1.200000 0.025000 0.030000
1517162734882389827	500 38 0.900000 0.023000 0.021000 600 37 0.900000 0.521000 0.469000 600 41 1.000000 0.051000 0.051000 1.200000 0.029000 0.035000
1517162735393807702	500 38 0.900000 0.022000 0.020000 600 37 0.900000 0.578000 0.521000 600 41 1.000000 0.051000 0.051000 1.200000 0.029000 0.035000
1517162735906605035	500 38 0.900000 0.021000 0.019000 600 37 0.900000 0.542000 0.488000 600 42 1.000000 0.051000 0.051000 1.200000 0.031000 0.037000
1517162736420356244	500 39 0.900000 0.022000 0.020000 600 37 0.900000 0.518000 0.467000 600 41 1.000000 0.051000 0.051000 1.200000 0.029000 0.035000
1517162736931870535	500 38 0.900000 0.022000 0.020000 600 37 0.900000 0.516000 0.465000 600 41 1.000000 0.051000 0.051000 1.200000 0.024000 0.028000
1517162737443572452	500 38 0.900000 0.022000 0.020000 600 37 0.900000 0.531000 0.478000 600 41 1.000000 0.051000 0.051000 1.200000 0.029000 0.035000
1517162737956118202	500 38 0.900000 0.022000 0.020000 600 37 0.900000 0.527000 0.475000 600 41 1.000000 0.051000 0.051000 1.200000 0.025000 0.030000
1517162738468076744	500 39 0.900000 0.031000 0.028000 600 37 0.900000 0.635000 0.573000 600 41 1.000000 0.051000 0.051000 1.200000 0.039000 0.047000
1517162738979904035	500 38 0.900000 0.022000 0.020000 600 37 0.900000 0.524000 0.472000 600 41 1.000000 0.051000 0.051000 1.200000 0.027000 0.032000
1517162739491641952	500 38 0.900000 0.022000 0.020000 600 36 0.900000 0.526000 0.474000 600 41 1.000000 0.051000 0.051000 1.200000 0.023000 0.027000
1517162740003484702	500 38 0.900000 0.022000 0.020000 600 36 0.900000 0.535000 0.482000 600 41 1.000000 0.051000 0.051000 1.200000 0.026000 0.031000
1517162740514971161	500 39 0.900000 0.022000 0.020000 600 37 0.900000 0.569000 0.513000 600 41 1.000000 0.051000 0.051000 1.200000 0.036000 0.043000
1517162741028278327	500 38 0.900000 0.023000 0.021000 600 37 0.900000 0.518000 0.467000 600 41 1.000000 0.051000 0.051000 1.200000 0.032000 0.038000
1517162741539828661	500 39 0.900000 0.023000 0.021000 600 37 0.900000 0.526000 0.474000 600 41 1.000000 0.051000 0.051000 1.200000 0.029000 0.035000
1517162742051479619	500 38 0.900000 0.022000 0.020000 600 37 0.900000 0.520000 0.469000 600 41 1.000000 0.051000 0.051000 1.200000 0.030000 0.036000
1517162742563388619	500 38 0.900000 0.022000 0.020000 600 37 0.900000 0.517000 0.466000 600 42 1.000000 0.051000 0.051000 1.200000 0.027000 0.032000
1517162743076391619	500 38 0.900000 0.022000 0.020000 600 37 0.900000 0.525000 0.473000 600 41 1.000000 0.051000 0.051000 1.200000 0.036000 0.043000
1517162743588774203	500 39 0.900000 0.022000 0.020000 600 37 0.900000 0.524000 0.473000 600 41 1.000000 0.051000 0.051000 1.200000 0.025000 0.030000
1517162744100299994	500 38 0.900000 0.022000 0.020000 600 37 0.900000 0.517000 0.466000 600 41 1.000000 0.051000 0.051000 1.200000 0.031000 0.037000
1517162744611997953	500 38 0.900000 0.022000 0.020000 600 37 0.900000 0.526000 0.474000 600 41 1.000000 0.051000 0.051000 1.200000 0.027000 0.032000
1517162745123991661	500 38 0.900000 0.025000 0.022000 600 37 0.900000 0.564000 0.508000 600 41 1.000000 0.051000 0.051000 1.200000 0.036000 0.043000
1517162745637454661	500 38 0.900000 0.022000 0.020000 600 37 0.900000 0.517000 0.466000 600 41 1.000000 0.051000 0.051000 1.200000 0.028000 0.033000
1517162746149537203	500 38 0.900000 0.022000 0.020000 600 36 0.900000 0.587000 0.529000 600 41 1.000000 0.051000 0.051000 1.200000 0.028000 0.033000
1517162746661233745	500 38 0.900000 0.022000 0.020000 600 37 0.900000 0.527000 0.475000 600 41 1.000000 0.051000 0.051000 1.200000 0.029000 0.035000
1517162747172631661	500 39 0.900000 0.022000 0.020000 600 37 0.900000 0.558000 0.503000 600 42 1.000000 0.051000 0.051000 1.200000 0.027000 0.032000
1517162747685207620	500 38 0.900000 0.026000 0.023000 600 36 0.900000 0.524000 0.472000 600 41 1.000000 0.051000 0.051000 1.200000 0.032000 0.038000
1517162748196782537	500 38 0.900000 0.030000 0.027000 600 37 0.900000 0.550000 0.496000 600 41 1.000000 0.051000 0.051000 1.200000 0.035000 0.042000
1517162748708802287	500 38 0.900000 0.022000 0.020000 600 37 0.900000 0.525000 0.473000 600 41 1.000000 0.051000 0.051000 1.200000 0.026000 0.031000
1517162749220937745	500 39 0.900000 0.022000 0.020000 600 37 0.900000 0.521000 0.469000 600 42 1.000000 0.051000 0.051000 1.200000 0.024000 0.028000
1517162749732542495	500 38 0.900000 0.025000 0.022000 600 37 0.900000 0.539000 0.486000 600 41 1.000000 0.051000 0.051000 1.200000 0.041000 0.049000
1517162750244431870	500 38 0.900000 0.022000 0.020000 600 37 0.900000 0.565000 0.510000 600 41 1.000000 0.051000 0.051000 1.200000 0.033000 0.039000
1517162750756982537	500 38 0.900000 0.022000 0.020000 600 37 0.900000 0.521000 0.469000 600 41 1.000000 0.051000 0.051000 1.200000 0.025000 0.030000
1517162751268594954	500 38 0.900000 0.022000 0.020000 600 37 0.900000 0.531000 0.478000 600 41 1.000000 0.051000 0.051000 1.200000 0.030000 0.036000
1517162751780189162	500 38 0.900000 0.024000 0.021000 600 37 0.900000 0.594000 0.536000 600 41 1.000000 0.051000 0.051000 1.200000 0.031000 0.037000
1517162752291858829	500 38 0.900000 0.023000 0.021000 600 37 0.900000 0.581000 0.524000 600 41 1.000000 0.051000 0.051000 1.200000 0.031000 0.037000
1517162752803749120	500 38 0.900000 0.022000 0.020000 600 36 0.900000 0.534000 0.481000 600 41 1.000000 0.051000 0.051000 1.200000 0.030000 0.036000
1517162753315647496	500 38 0.900000 0.021000 0.019000 600 36 0.900000 0.531000 0.478000 600 41 1.000000 0.051000 0.051000 1.200000 0.024000 0.028000
1517162753826848246	500 39 0.900000 0.023000 0.021000 600 37 0.900000 0.524000 0.472000 600 42 1.000000 0.051000 0.051000 1.200000 0.028000 0.033000
1517162754340271787	500 38 0.900000 0.025000 0.022000 600 37 0.900000 0.586000 0.529000 600 41 1.000000 0.051000 0.051000 1.200000 0.036000 0.043000
1517162754852263079	500 38 0.900000 0.022000 0.020000 600 37 0.900000 0.522000 0.470000 600 41 1.000000 0.051000 0.051000 1.200000 0.025000 0.030000
1517162755363886371	500 38 0.900000 0.022000 0.020000 600 37 0.900000 0.535000 0.482000 600 41 1.000000 0.051000 0.051000 1.200000 0.029000 0.035000
1517162755878570663	500 38 0.900000 0.022000 0.020000 600 37 0.900000 0.534000 0.481000 600 42 1.000000 0.051000 0.051000 1.200000 0.026000 0.031000
1517162756392627913	500 39 0.900000 0.028000 0.025000 600 37 0.900000 0.620000 0.559000 600 41 1.000000 0.051000 0.051000 1.200000 0.035000 0.042000
1517162756904179288	500 38 0.900000 0.022000 0.020000 600 36 0.900000 0.537000 0.484000 600 41 1.000000 0.051000 0.051000 1.200000 0.030000 0.036000
1517162757416225913	500 38 0.900000 0.022000 0.020000 600 36 0.900000 0.531000 0.478000 600 41 1.000000 0.051000 0.051000 1.200000 0.027000 0.032000
1517162757928296579	500 38 0.900000 0.022000 0.020000 600 36 0.900000 0.522000 0.470000 600 41 1.000000 0.051000 0.051000 1.200000 0.025000 0.030000
1517162758439764663	500 38 0.900000 0.022000 0.020000 600 37 0.900000 0.575000 0.518000 600 41 1.000000 0.051000 0.051000 1.200000 0.035000 0.042000
1517162758951807038	500 38 0.900000 0.022000 0.020000 600 37 0.900000 0.533000 0.480000 600 41 1.000000 0.051000 0.051000 1.200000 0.027000 0.032000
1517162759463975538	500 38 0.900000 0.022000 0.020000 600 37 0.900000 0.530000 0.478000 600 41 1.000000 0.051000 0.051000 1.200000 0.025000 0.030000
1517162759975824913	500 38 0.900000 0.021000 0.019000 600 37 0.900000 0.536000 0.483000 600 41 1.000000 0.051000 0.051000 1.200000 0.028000 0.033000
1517162760489254705	500 39 0.900000 0.021000 0.019000 600 37 0.900000 0.530000 0.478000 600 42 1.000000 0.051000 0.051000 1.200000 0.028000 0.033000
1517162761000775538	500 38 0.900000 0.022000 0.020000 600 37 0.900000 0.538000 0.485000 600 41 1.000000 0.051000 0.051000 1.200000 0.024000 0.028000
1517162761512537413	500 38 0.900000 0.022000 0.020000 600 36 0.900000 0.527000 0.475000 600 41 1.000000 0.051000 0.051000 1.200000 0.027000 0.032000
1517162762024342955	500 38 0.900000 0.022000 0.020000 600 36 0.900000 0.521000 0.469000 600 41 1.000000 0.051000 0.051000 1.200000 0.027000 0.032000
1517162762537201163	500 38 0.900000 0.022000 0.020000 600 36 0.900000 0.520000 0.469000 600 42 1.000000 0.051000 0.051000 1.200000 0.024000 0.028000
1517162763048782705	500 38 0.900000 0.022000 0.020000 600 37 0.900000 0.594000 0.535000 600 42 1.000000 0.051000 0.051000 1.200000 0.030000 0.036000
1517162763560841080	500 38 0.900000 0.022000 0.020000 600 37 0.900000 0.528000 0.476000 600 41 1.000000 0.051000 0.051000 1.200000 0.024000 0.028000
1517162764072595372	500 38 0.900000 0.022000 0.020000 600 36 0.900000 0.530000 0.478000 600 41 1.000000 0.051000 0.051000 1.200000 0.028000 0.033000
1517162764584108664	500 38 0.900000 0.021000 0.019000 600 37 0.900000 0.523000 0.471000 600 41 1.000000 0.051000 0.051000 1.200000 0.028000 0.033000
1517162765095908205	500 38 0.900000 0.023000 0.021000 600 37 0.900000 0.586000 0.528000 600 42 1.000000 0.051000 0.051000 1.200000 0.032000 0.038000
1517162765607466539	500 38 0.900000 0.025000 0.022000 600 37 0.900000 0.538000 0.485000 600 41 1.000000 0.051000 0.051000 1.200000 0.028000 0.033000
1517162766119301539	500 38 0.900000 0.022000 0.020000 600 37 0.900000 0.532000 0.479000 600 41 1.000000 0.051000 0.051000 1.200000 0.027000 0.032000
1517162766632102872	500 39 0.900000 0.022000 0.020000 600 36 0.900000 0.527000 0.475000 600 41 1.000000 0.051000 0.051000 1.200000 0.025000 0.030000
1517162767144652289	500 39 0.900000 0.023000 0.021000 600 36 0.900000 0.587000 0.530000 600 42 1.000000 0.051000 0.051000 1.200000 0.028000 0.033000
1517162767656654622	500 38 0.900000 0.025000 0.022000 600 36 0.900000 0.566000 0.512000 600 41 1.000000 0.051000 0.051000 1.200000 0.029000 0.035000
1517162768167865497	500 38 0.900000 0.022000 0.020000 600 36 0.900000 0.534000 0.485000 600 41 1.000000 0.051000 0.051000 1.200000 0.024000 0.028000
1517162768680487247	500 39 0.900000 0.022000 0.020000 600 36 0.900000 0.533000 0.485000 600 41 1.000000 0.051000 0.051000 1.200000 0.026000 0.031000
1517162769193353081	500 38 0.900000 0.022000 0.020000 600 37 0.900000 0.560000 0.505000 600 41 1.000000 0.051000 0.051000 1.200000 0.028000 0.033000
1517162769705017497	500 38 0.900000 0.025000 0.022000 600 37 0.900000 0.614000 0.553000 600 41 1.000000 0.051000 0.051000 1.200000 0.031000 0.037000
1517162770216764998	500 39 0.900000 0.021000 0.019000 600 37 0.900000 0.524000 0.472000 600 41 1.000000 0.051000 0.051000 1.200000 0.026000 0.031000
1517162770728536206	500 38 0.900000 0.022000 0.020000 600 37 0.900000 0.520000 0.469000 600 41 1.000000 0.051000 0.051000 1.200000 0.027000 0.032000
1517162771239958039	500 38 0.900000 0.023000 0.021000 600 37 0.900000 0.534000 0.481000 600 41 1.000000 0.051000 0.051000 1.200000 0.024000 0.029000
1517162771751262581	500 39 0.900000 0.022000 0.020000 600 36 0.900000 0.640000 0.577000 600 42 1.000000 0.051000 0.051000 1.200000 0.028000 0.033000
1517162772263252748	500 38 0.900000 0.027000 0.024000 600 37 0.900000 0.535000 0.482000 600 41 1.000000 0.051000 0.051000 1.200000 0.025000 0.030000
1517162772775039206	500 38 0.900000 0.022000 0.020000 600 36 0.900000 0.533000 0.480000 600 41 1.000000 0.051000 0.051000 1.200000 0.028000 0.033000
1517162773286792456	500 38 0.900000 0.022000 0.020000 600 36 0.900000 0.582000 0.524000 600 41 1.000000 0.051000 0.051000 1.200000 0.033000 0.039000
1517162773799277706	500 38 0.900000 0.022000 0.020000 600 37 0.900000 0.526000 0.474000 600 42 1.000000 0.051000 0.051000 1.200000 0.025000 0.030000
1517162774311154790	500 38 0.900000 0.027000 0.024000 600 37 0.900000 0.606000 0.546000 600 41 1.000000 0.051000 0.051000 1.200000 0.031000 0.037000
1517162774822849831	500 38 0.900000 0.022000 0.020000 600 37 0.900000 0.533000 0.480000 600 41 1.000000 0.051000 0.051000 1.200000 0.026000 0.031000
1517162775336207373	500 38 0.900000 0.023000 0.021000 600 37 0.900000 0.587000 0.529000 600 41 1.000000 0.051000 0.051000 1.200000 0.030000 0.036000
1517162775848224040	500 39 0.900000 0.022000 0.020000 600 37 0.900000 0.527000 0.475000 600 41 1.000000 0.051000 0.051000 1.200000 0.026000 0.031000
1517162776360212540	500 39 0.900000 0.025000 0.022000 600 36 0.900000 0.660000 0.595000 600 42 1.000000 0.051000 0.051000 1.200000 0.032000 0.038000
1517162776871816165	500 38 0.900000 0.021000 0.019000 600 36 0.900000 0.514000 0.463000 600 41 1.000000 0.051000 0.051000 1.200000 0.024000 0.028000
1517162777383266498	500 39 0.900000 0.022000 0.020000 600 37 0.900000 0.586000 0.528000 600 41 1.000000 0.051000 0.051000 1.200000 0.034000 0.041000
1517162777895244582	500 39 0.900000 0.021000 0.019000 600 37 0.900000 0.525000 0.473000 600 41 1.000000 0.051000 0.051000 1.200000 0.026000 0.031000
1517162778407051915	500 39 0.900000 0.022000 0.020000 600 37 0.900000 0.630000 0.568000 600 42 1.000000 0.051000 0.051000 1.200000 0.032000 0.038000
1517162778918868124	500 38 0.900000 0.022000 0.020000 600 37 0.900000 0.524000 0.472000 600 41 1.000000 0.051000 0.051000 1.200000 0.028000 0.033000
1517162779431718790	500 38 0.900000 0.023000 0.021000 600 37 0.900000 0.580000 0.523000 600 41 1.000000 0.051000 0.051000 1.200000 0.032000 0.038000
1517162779943529249	500 38 0.900000 0.022000 0.020000 600 37 0.900000 0.519000 0.468000 600 41 1.000000 0.051000 0.051000 1.200000 0.024000 0.029000
1517162780456599124	500 39 0.900000 0.022000 0.020000 600 37 0.900000 0.530000 0.478000 600 42 1.000000 0.051000 0.051000 1.200000 0.026000 0.031000
1517162780968172457	500 38 0.900000 0.027000 0.024000 600 37 0.900000 0.617000 0.557000 600 41 1.000000 0.051000 0.051000 1.200000 0.035000 0.042000
1517162781481696249	500 39 0.900000 0.022000 0.020000 600 36 0.900000 0.534000 0.481000 600 42 1.000000 0.051000 0.051000 1.200000 0.025000 0.030000
1517162781993640291	500 38 0.900000 0.022000 0.020000 600 37 0.900000 0.532000 0.479000 600 41 1.000000 0.051000 0.051000 1.200000 0.029000 0.035000
1517162782505392249	500 38 0.900000 0.022000 0.020000 600 37 0.900000 0.523000 0.471000 600 41 1.000000 0.051000 0.051000 1.200000 0.030000 0.036000
1517162783016929041	500 38 0.900000 0.025000 0.022000 600 37 0.900000 0.678000 0.612000 600 41 1.000000 0.051000 0.051000 1.200000 0.026000 0.031000
1517162783528566541	500 39 0.900000 0.022000 0.020000 600 37 0.900000 0.529000 0.477000 600 42 1.000000 0.051000 0.051000 1.200000 0.024000 0.028000
1517162784040055374	500 38 0.900000 0.030000 0.027000 600 37 0.900000 0.517000 0.466000 600 41 1.000000 0.051000 0.051000 1.200000 0.033000 0.039000
1517162784551829749	500 38 0.900000 0.021000 0.019000 600 37 0.900000 0.527000 0.475000 600 41 1.000000 0.051000 0.051000 1.200000 0.026000 0.031000
1517162785063563374	500 39 0.900000 0.022000 0.020000 600 37 0.900000 0.621000 0.560000 600 42 1.000000 0.051000 0.051000 1.200000 0.025000 0.030000
1517162785575097999	500 39 0.900000 0.022000 0.020000 600 37 0.900000 0.529000 0.477000 600 41 1.000000 0.051000 0.051000 1.200000 0.031000 0.037000
1517162786088869791	500 38 0.900000 0.022000 0.020000 600 37 0.900000 0.524000 0.472000 600 41 1.000000 0.051000 0.051000 1.200000 0.026000 0.031000
1517162786601157708	500 38 0.900000 0.022000 0.020000 600 37 0.900000 0.523000 0.471000 600 41 1.000000 0.051000 0.051000 1.200000 0.025000 0.030000
1517162787115176041	500 39 0.900000 0.021000 0.019000 600 37 0.900000 0.550000 0.496000 600 42 1.000000 0.051000 0.051000 1.200000 0.031000 0.037000
1517162787627354750	500 39 0.900000 0.022000 0.020000 600 37 0.900000 0.559000 0.504000 600 42 1.000000 0.051000 0.051000 1.200000 0.031000 0.037000
1517162788139115583	500 38 0.900000 0.022000 0.020000 600 37 0.900000 0.551000 0.497000 600 41 1.000000 0.051000 0.051000 1.200000 0.025000 0.030000
1517162788650891583	500 38 0.900000 0.022000 0.020000 600 37 0.900000 0.534000 0.481000 600 41 1.000000 0.051000 0.051000 1.200000 0.029000 0.035000
1517162789162746375	500 39 0.900000 0.022000 0.020000 600 37 0.900000 0.517000 0.466000 600 41 1.000000 0.051000 0.051000 1.200000 0.024000 0.029000
1517162789675129792	500 39 0.900000 0.034000 0.031000 600 37 0.900000 0.532000 0.479000 600 42 1.000000 0.051000 0.051000 1.200000 0.030000 0.036000
1517162790186975208	500 39 0.900000 0.024000 0.021000 600 37 0.900000 0.595000 0.536000 600 41 1.000000 0.051000 0.051000 1.200000 0.030000 0.036000
1517162790698614417	500 38 0.900000 0.022000 0.020000 600 37 0.900000 0.529000 0.477000 600 41 1.000000 0.051000 0.051000 1.200000 0.025000 0.030000
1517162791210264542	500 38 0.900000 0.022000 0.020000 600 37 0.900000 0.537000 0.484000 600 41 1.000000 0.051000 0.051000 1.200000 0.031000 0.037000
1517162791722605875	500 39 0.900000 0.022000 0.020000 600 37 0.900000 0.531000 0.478000 600 42 1.000000 0.051000 0.051000 1.200000 0.025000 0.030000
1517162792234513709	500 39 0.900000 0.024000 0.021000 600 37 0.900000 0.651000 0.587000 600 41 1.000000 0.051000 0.051000 1.200000 0.033000 0.039000
1517162792746218792	500 38 0.900000 0.022000 0.020000 600 37 0.900000 0.533000 0.480000 600 41 1.000000 0.051000 0.051000 1.200000 0.030000 0.036000
1517162793257908084	500 38 0.900000 0.022000 0.020000 600 36 0.900000 0.532000 0.479000 600 41 1.000000 0.051000 0.051000 1.200000 0.025000 0.030000
1517162793771229834	500 39 0.900000 0.022000 0.020000 600 37 0.900000 0.533000 0.481000 600 42 1.000000 0.051000 0.051000 1.200000 0.025000 0.030000
1517162794283402584	500 38 0.900000 0.039000 0.035000 600 37 0.900000 0.651000 0.587000 600 41 1.000000 0.051000 0.051000 1.200000 0.047000 0.056000
1517162794795073250	500 39 0.900000 0.022000 0.020000 600 37 0.900000 0.528000 0.476000 600 41 1.000000 0.051000 0.051000 1.200000 0.026000 0.031000
1517162795308522709	500 38 0.900000 0.022000 0.020000 600 37 0.900000 0.524000 0.472000 600 41 1.000000 0.051000 0.051000 1.200000 0.025000 0.030000
1517162795820092584	500 38 0.900000 0.022000 0.020000 600 37 0.900000 0.533000 0.480000 600 41 1.000000 0.051000 0.051000 1.200000 0.030000 0.036000
1517162796331812459	500 39 0.900000 0.035000 0.032000 600 37 0.900000 0.626000 0.565000 600 42 1.000000 0.051000 0.051000 1.200000 0.043000 0.052000
1517162796843200209	500 38 0.900000 0.022000 0.020000 600 37 0.900000 0.516000 0.465000 600 41 1.000000 0.051000 0.051000 1.200000 0.024000 0.028000
1517162797355116459	500 38 0.900000 0.022000 0.020000 600 37 0.900000 0.526000 0.474000 600 41 1.000000 0.051000 0.051000 1.200000 0.030000 0.036000
1517162797868546376	500 38 0.900000 0.022000 0.020000 600 37 0.900000 0.521000 0.469000 600 41 1.000000 0.051000 0.051000 1.200000 0.025000 0.030000
1517162798380291168	500 39 0.900000 0.022000 0.020000 600 37 0.900000 0.532000 0.479000 600 42 1.000000 0.051000 0.051000 1.200000 0.032000 0.038000
1517162798892104001	500 38 0.900000 0.028000 0.025000 600 37 0.900000 0.626000 0.565000 600 42 1.000000 0.051000 0.051000 1.200000 0.033000 0.039000
1517162799403852876	500 39 0.900000 0.022000 0.020000 600 37 0.900000 0.523000 0.471000 600 41 1.000000 0.051000 0.051000 1.200000 0.024000 0.028000
1517162799915199918	500 38 0.900000 0.022000 0.020000 600 37 0.900000 0.537000 0.484000 600 41 1.000000 0.051000 0.051000 1.200000 0.031000 0.037000
1517162800429143376	500 38 0.900000 0.022000 0.020000 600 37 0.900000 0.532000 0.479000 600 42 1.000000 0.051000 0.051000 1.200000 0.024000 0.028000
1517162800945472168	500 38 0.900000 0.030000 0.027000 600 37 0.900000 0.638000 0.576000 600 41 1.000000 0.051000 0.051000 1.200000 0.039000 0.047000
1517162801457314793	500 38 0.900000 0.022000 0.020000 600 37 0.900000 0.539000 0.486000 600 41 1.000000 0.051000 0.051000 1.200000 0.031000 0.037000
1517162801968937501	500 38 0.900000 0.022000 0.020000 600 37 0.900000 0.533000 0.480000 600 41 1.000000 0.051000 0.051000 1.200000 0.025000 0.030000
1517162802480389085	500 39 0.900000 0.022000 0.020000 600 37 0.900000 0.523000 0.471000 600 41 1.000000 0.051000 0.051000 1.200000 0.025000 0.030000
1517162802991724085	500 38 0.900000 0.022000 0.020000 600 37 0.900000 0.586000 0.529000 600 42 1.000000 0.051000 0.051000 1.200000 0.040000 0.048000
1517162803503507502	500 38 0.900000 0.021000 0.019000 600 37 0.900000 0.529000 0.477000 600 41 1.000000 0.051000 0.051000 1.200000 0.024000 0.028000
1517162804014899043	500 38 0.900000 0.022000 0.020000 600 36 0.900000 0.522000 0.470000 600 41 1.000000 0.051000 0.051000 1.200000 0.023000 0.027000
1517162804526275085	500 38 0.900000 0.022000 0.020000 600 37 0.900000 0.527000 0.475000 600 41 1.000000 0.051000 0.051000 1.200000 0.032000 0.038000
1517162805039637502	500 39 0.900000 0.022000 0.020000 600 37 0.900000 0.532000 0.479000 600 42 1.000000 0.051000 0.051000 1.200000 0.026000 0.031000
1517162805553377793	500 38 0.900000 0.022000 0.020000 600 36 0.900000 0.516000 0.465000 600 41 1.000000 0.051000 0.051000 1.200000 0.024000 0.028000
1517162806064892752	500 38 0.900000 0.022000 0.020000 600 37 0.900000 0.526000 0.474000 600 41 1.000000 0.051000 0.051000 1.200000 0.030000 0.036000
1517162806576260252	500 37 0.900000 0.022000 0.020000 600 36 0.900000 0.525000 0.473000 600 41 1.000000 0.051000 0.051000 1.200000 0.025000 0.030000
1517162807089366502	500 37 0.900000 0.022000 0.020000 600 36 0.900000 0.249000 0.226000 600 41 1.000000 0.051000 0.051000 1.200000 0.027000 0.032000
