#Timestamp	CPU(0) Frequency(MHz)	CPU(0) Temperature(C)	A7 Voltage(V)	A7 Current(A)	A7 Power(W)	CPU(4) Frequency(MHz)	CPU(4) Temperature(C)	A15 Voltage(V)	A15 Current(A)	A15 Power(W)	GPU Frequency(MHz)	GPU Temperature(C)	GPU Voltage(V)	GPU Current(A)	GPU Power(W)	RAM Voltage(V)	RAM Current(A)	RAM Power(W)
1517188893481384903	700 60 0.900000 0.038000 0.035000 1400 53 1.100000 0.313000 0.346000 600 65 1.000000 0.055000 0.055000 1.200000 0.041000 0.049000
1517188893988075528	700 61 0.900000 0.038000 0.037000 1400 53 1.000000 3.030000 3.266000 600 68 1.000000 0.055000 0.055000 1.200000 0.027000 0.032000
1517188894494575028	700 62 0.900000 0.038000 0.037000 1400 54 1.000000 3.012000 3.252000 600 69 1.000000 0.055000 0.055000 1.200000 0.025000 0.030000
1517188895000956029	700 62 0.900000 0.037000 0.036000 1400 54 1.000000 3.024000 3.259000 600 69 1.000000 0.055000 0.055000 1.200000 0.024000 0.028000
1517188895507320279	700 62 0.900000 0.037000 0.036000 1400 54 1.000000 3.041000 3.278000 600 70 1.000000 0.055000 0.055000 1.200000 0.024000 0.028000
1517188896013710195	700 62 0.900000 0.037000 0.036000 1400 54 1.000000 3.035000 3.271000 600 70 1.000000 0.055000 0.055000 1.200000 0.024000 0.028000
1517188896520313070	700 62 0.900000 0.038000 0.037000 1400 54 1.000000 3.063000 3.301000 600 70 1.000000 0.055000 0.055000 1.200000 0.026000 0.031000
1517188897026725737	700 62 0.900000 0.036000 0.035000 1400 54 1.000000 3.032000 3.268000 600 70 1.000000 0.055000 0.055000 1.200000 0.025000 0.030000
1517188897533098071	700 62 0.900000 0.036000 0.035000 1400 54 1.000000 3.024000 3.259000 600 70 1.000000 0.054000 0.054000 1.200000 0.023000 0.027000
1517188898039368946	700 62 0.900000 0.036000 0.035000 1400 54 1.000000 2.991000 3.224000 600 69 1.000000 0.055000 0.055000 1.200000 0.023000 0.027000
1517188898547461654	700 62 0.900000 0.037000 0.036000 1400 54 1.000000 3.051000 3.288000 600 69 1.000000 0.055000 0.055000 1.200000 0.024000 0.028000
1517188899056020946	700 62 0.900000 0.039000 0.038000 1400 54 1.000000 3.036000 3.272000 600 69 1.000000 0.055000 0.055000 1.200000 0.026000 0.031000
1517188899562870821	700 62 0.900000 0.037000 0.036000 1400 53 1.000000 3.046000 3.283000 600 69 1.000000 0.054000 0.054000 1.200000 0.024000 0.028000
1517188900069381487	700 62 0.900000 0.039000 0.038000 1400 53 1.000000 3.052000 3.296000 600 69 1.000000 0.055000 0.055000 1.200000 0.026000 0.031000
1517188900575699238	700 62 0.900000 0.037000 0.036000 1400 53 1.000000 3.047000 3.284000 600 69 1.000000 0.055000 0.055000 1.200000 0.024000 0.028000
1517188901082253696	700 62 0.900000 0.037000 0.036000 1400 53 1.000000 3.069000 3.308000 600 69 1.000000 0.055000 0.055000 1.200000 0.024000 0.028000
1517188901588688738	700 62 0.900000 0.037000 0.036000 1400 53 1.000000 2.988000 3.221000 600 69 1.000000 0.055000 0.055000 1.200000 0.024000 0.028000
1517188902095062654	700 62 0.900000 0.037000 0.036000 1400 53 1.000000 3.014000 3.249000 600 69 1.000000 0.055000 0.055000 1.200000 0.024000 0.028000
1517188902601542821	700 62 0.900000 0.037000 0.036000 1400 53 1.000000 2.994000 3.227000 600 69 1.000000 0.055000 0.055000 1.200000 0.024000 0.028000
1517188903107819738	700 62 0.900000 0.035000 0.034000 1400 53 1.000000 3.026000 3.262000 600 69 1.000000 0.055000 0.055000 1.200000 0.023000 0.027000
1517188903614127113	700 62 0.900000 0.035000 0.034000 1400 53 1.000000 2.997000 3.230000 600 69 1.000000 0.055000 0.055000 1.200000 0.023000 0.027000
1517188904120494446	700 62 0.900000 0.035000 0.034000 1400 53 1.000000 3.024000 3.259000 600 69 1.000000 0.054000 0.054000 1.200000 0.023000 0.027000
1517188904626949530	700 61 0.900000 0.035000 0.034000 1400 53 1.000000 3.018000 3.253000 600 69 1.000000 0.054000 0.054000 1.200000 0.023000 0.027000
1517188905133282155	700 61 0.900000 0.037000 0.036000 1400 53 1.000000 3.047000 3.284000 600 69 1.000000 0.055000 0.055000 1.200000 0.024000 0.028000
1517188905639650863	700 61 0.900000 0.037000 0.036000 1400 53 1.000000 3.015000 3.256000 600 68 1.000000 0.055000 0.055000 1.200000 0.024000 0.028000
1517188906145961697	700 61 0.900000 0.036000 0.035000 1400 52 1.000000 3.045000 3.282000 600 69 1.000000 0.054000 0.054000 1.200000 0.024000 0.028000
1517188906652350905	700 61 0.900000 0.037000 0.036000 1400 52 1.000000 3.025000 3.260000 600 68 1.000000 0.055000 0.055000 1.200000 0.024000 0.028000
1517188907158744988	700 61 0.900000 0.037000 0.036000 1400 52 1.000000 2.999000 3.232000 600 68 1.000000 0.055000 0.055000 1.200000 0.024000 0.028000
1517188907664997988	700 61 0.900000 0.037000 0.036000 1400 52 1.000000 3.009000 3.243000 600 68 1.000000 0.055000 0.055000 1.200000 0.024000 0.028000
1517188908171388905	700 61 0.900000 0.036000 0.035000 1400 52 1.000000 3.027000 3.269000 600 68 1.000000 0.055000 0.055000 1.200000 0.024000 0.028000
1517188908677804322	700 61 0.900000 0.037000 0.036000 1400 52 1.000000 3.006000 3.240000 600 68 1.000000 0.055000 0.055000 1.200000 0.023000 0.027000
1517188909184095530	700 61 0.900000 0.035000 0.034000 1400 52 1.000000 3.001000 3.235000 600 68 1.000000 0.054000 0.054000 1.200000 0.023000 0.027000
1517188909691877822	700 61 0.900000 0.035000 0.034000 1400 52 1.000000 2.993000 3.226000 600 68 1.000000 0.054000 0.054000 1.200000 0.023000 0.027000
1517188910198878072	700 61 0.900000 0.035000 0.034000 1400 52 1.000000 3.052000 3.296000 600 68 1.000000 0.054000 0.054000 1.200000 0.023000 0.027000
1517188910705311197	700 61 0.900000 0.035000 0.034000 1400 52 1.000000 3.015000 3.250000 600 68 1.000000 0.054000 0.054000 1.200000 0.023000 0.027000
1517188911214938114	700 61 0.900000 0.037000 0.036000 1400 52 1.000000 2.994000 3.233000 600 68 1.000000 0.054000 0.054000 1.200000 0.025000 0.030000
1517188911721931989	700 61 0.900000 0.037000 0.036000 1400 52 1.000000 3.043000 3.286000 600 68 1.000000 0.055000 0.055000 1.200000 0.025000 0.030000
1517188912228303781	700 61 0.900000 0.036000 0.035000 1400 52 1.000000 3.000000 3.240000 600 68 1.000000 0.054000 0.054000 1.200000 0.024000 0.028000
1517188912734693156	700 61 0.900000 0.038000 0.037000 1400 52 1.000000 3.029000 3.265000 600 68 1.000000 0.054000 0.054000 1.200000 0.025000 0.030000
1517188913241351822	700 61 0.900000 0.038000 0.037000 1400 52 1.000000 3.035000 3.271000 600 68 1.000000 0.054000 0.054000 1.200000 0.025000 0.030000
1517188913747725322	700 60 0.900000 0.036000 0.035000 1400 52 1.000000 3.060000 3.298000 600 68 1.000000 0.054000 0.054000 1.200000 0.024000 0.028000
1517188914254077822	700 61 0.900000 0.036000 0.035000 1400 52 1.000000 3.017000 3.252000 600 68 1.000000 0.054000 0.054000 1.200000 0.023000 0.027000
1517188914760489948	700 61 0.900000 0.036000 0.035000 1400 52 1.000000 3.026000 3.262000 600 68 1.000000 0.054000 0.054000 1.200000 0.023000 0.027000
1517188915266830864	700 60 0.900000 0.036000 0.035000 1400 52 1.000000 2.985000 3.217000 600 67 1.000000 0.054000 0.054000 1.200000 0.023000 0.027000
1517188915773075281	700 60 0.900000 0.035000 0.034000 1400 52 1.000000 3.006000 3.240000 600 67 1.000000 0.054000 0.054000 1.200000 0.023000 0.027000
1517188916279344073	700 60 0.900000 0.035000 0.034000 1400 52 1.000000 3.012000 3.246000 600 67 1.000000 0.054000 0.054000 1.200000 0.023000 0.027000
1517188916785727614	700 60 0.900000 0.035000 0.034000 1400 52 1.000000 3.033000 3.269000 600 67 1.000000 0.054000 0.054000 1.200000 0.023000 0.027000
1517188917292150323	700 60 0.900000 0.035000 0.034000 1400 52 1.000000 3.018000 3.253000 600 67 1.000000 0.054000 0.054000 1.200000 0.023000 0.027000
1517188917798414115	700 60 0.900000 0.036000 0.035000 1400 52 1.000000 3.035000 3.271000 600 67 1.000000 0.054000 0.054000 1.200000 0.024000 0.028000
1517188918304881865	700 60 0.900000 0.036000 0.035000 1400 51 1.000000 3.005000 3.239000 600 67 1.000000 0.054000 0.054000 1.200000 0.024000 0.028000
1517188918811311531	700 60 0.900000 0.036000 0.035000 1400 52 1.000000 3.049000 3.286000 600 67 1.000000 0.054000 0.054000 1.200000 0.024000 0.028000
1517188919317579198	700 60 0.900000 0.037000 0.036000 1400 51 1.000000 3.040000 3.277000 600 67 1.000000 0.054000 0.054000 1.200000 0.023000 0.027000
1517188919823988615	700 60 0.900000 0.036000 0.035000 1400 51 1.000000 3.047000 3.284000 600 67 1.000000 0.054000 0.054000 1.200000 0.023000 0.027000
1517188920330322698	700 60 0.900000 0.036000 0.035000 1400 51 1.000000 3.012000 3.246000 600 67 1.000000 0.054000 0.054000 1.200000 0.023000 0.027000
1517188920836550448	700 60 0.900000 0.037000 0.036000 1400 51 1.000000 3.045000 3.282000 600 67 1.000000 0.054000 0.054000 1.200000 0.023000 0.027000
1517188921342904240	700 60 0.900000 0.035000 0.034000 1400 51 1.000000 3.004000 3.238000 600 67 1.000000 0.054000 0.054000 1.200000 0.023000 0.027000
1517188921849318365	700 60 0.900000 0.035000 0.034000 1400 51 1.000000 3.029000 3.265000 600 67 1.000000 0.054000 0.054000 1.200000 0.023000 0.027000
1517188922355537823	700 60 0.900000 0.035000 0.034000 1400 51 1.000000 3.007000 3.241000 600 67 1.000000 0.054000 0.054000 1.200000 0.023000 0.027000
1517188922861953324	700 60 0.900000 0.035000 0.034000 1400 51 1.000000 2.987000 3.219000 600 67 1.000000 0.054000 0.054000 1.200000 0.023000 0.027000
1517188923368312782	700 60 0.900000 0.035000 0.034000 1400 51 1.000000 3.000000 3.234000 600 67 1.000000 0.053000 0.053000 1.200000 0.024000 0.028000
1517188923874932949	700 60 0.900000 0.036000 0.035000 1400 51 1.000000 3.027000 3.263000 600 67 1.000000 0.054000 0.054000 1.200000 0.023000 0.027000
1517188924381402657	700 60 0.900000 0.037000 0.036000 1400 51 1.000000 2.990000 3.223000 600 67 1.000000 0.054000 0.054000 1.200000 0.023000 0.027000
1517188924887888199	700 60 0.900000 0.035000 0.034000 1400 51 1.000000 3.052000 3.290000 600 67 1.000000 0.054000 0.054000 1.200000 0.024000 0.028000
1517188925394223282	700 60 0.900000 0.036000 0.035000 1400 51 1.000000 3.020000 3.255000 600 67 1.000000 0.054000 0.054000 1.200000 0.024000 0.028000
1517188925900601032	700 60 0.900000 0.036000 0.035000 1400 51 1.000000 3.030000 3.266000 600 67 1.000000 0.054000 0.054000 1.200000 0.024000 0.028000
1517188926406990199	700 60 0.900000 0.036000 0.035000 1400 51 1.000000 3.030000 3.266000 600 67 1.000000 0.054000 0.054000 1.200000 0.024000 0.028000
1517188926913350157	700 60 0.900000 0.035000 0.034000 1400 51 1.000000 3.034000 3.270000 600 67 1.000000 0.054000 0.054000 1.200000 0.024000 0.028000
1517188927419569366	700 60 0.900000 0.037000 0.036000 1400 51 1.000000 3.034000 3.270000 600 67 1.000000 0.054000 0.054000 1.200000 0.024000 0.028000
1517188927926011407	700 60 0.900000 0.035000 0.034000 1400 51 1.000000 3.006000 3.240000 600 67 1.000000 0.054000 0.054000 1.200000 0.024000 0.028000
1517188928432284949	700 60 0.900000 0.035000 0.034000 1400 51 1.000000 3.025000 3.260000 600 67 1.000000 0.054000 0.054000 1.200000 0.024000 0.028000
1517188928938675366	700 60 0.900000 0.035000 0.034000 1400 51 1.000000 2.992000 3.225000 600 67 1.000000 0.054000 0.054000 1.200000 0.024000 0.028000
1517188929445051491	700 60 0.900000 0.035000 0.034000 1400 51 1.000000 2.992000 3.225000 600 67 1.000000 0.054000 0.054000 1.200000 0.024000 0.028000
1517188929951322699	700 60 0.900000 0.035000 0.034000 1400 51 1.000000 3.001000 3.235000 600 67 1.000000 0.054000 0.054000 1.200000 0.024000 0.028000
1517188930457578491	700 60 0.900000 0.036000 0.035000 1400 51 1.000000 3.020000 3.255000 600 67 1.000000 0.054000 0.054000 1.200000 0.024000 0.028000
1517188930963854949	700 60 0.900000 0.035000 0.034000 1400 51 1.000000 3.035000 3.271000 600 66 1.000000 0.054000 0.054000 1.200000 0.024000 0.028000
1517188931470317575	700 60 0.900000 0.037000 0.036000 1400 51 1.000000 3.008000 3.242000 600 67 1.000000 0.054000 0.054000 1.200000 0.024000 0.028000
1517188931976653158	700 60 0.900000 0.035000 0.034000 1400 51 1.000000 3.054000 3.292000 600 67 1.000000 0.054000 0.054000 1.200000 0.024000 0.028000
1517188932483018200	700 60 0.900000 0.036000 0.035000 1400 51 1.000000 3.052000 3.290000 600 67 1.000000 0.054000 0.054000 1.200000 0.024000 0.028000
1517188932989381116	700 60 0.900000 0.036000 0.035000 1400 51 1.000000 3.015000 3.250000 600 66 1.000000 0.054000 0.054000 1.200000 0.024000 0.028000
1517188933495739075	700 60 0.900000 0.036000 0.035000 1400 51 1.000000 2.983000 3.215000 600 67 1.000000 0.054000 0.054000 1.200000 0.024000 0.028000
1517188934002327450	700 60 0.900000 0.037000 0.036000 1400 51 1.000000 2.970000 3.201000 600 66 1.000000 0.054000 0.054000 1.200000 0.025000 0.030000
1517188934508721408	700 59 0.900000 0.035000 0.034000 1400 51 1.000000 2.967000 3.198000 600 66 1.000000 0.054000 0.054000 1.200000 0.024000 0.028000
1517188935015278950	700 60 0.900000 0.034000 0.033000 1400 51 1.000000 2.975000 3.207000 600 66 1.000000 0.054000 0.054000 1.200000 0.024000 0.028000
1517188935521601700	700 59 0.900000 0.035000 0.034000 1400 51 1.000000 3.019000 3.254000 600 66 1.000000 0.054000 0.054000 1.200000 0.023000 0.027000
1517188936027889158	700 59 0.900000 0.035000 0.034000 1400 51 1.000000 3.000000 3.234000 600 66 1.000000 0.054000 0.054000 1.200000 0.023000 0.027000
1517188936534207867	700 59 0.900000 0.035000 0.034000 1400 51 1.000000 3.017000 3.252000 600 66 1.000000 0.054000 0.054000 1.200000 0.024000 0.028000
1517188937040816867	700 59 0.900000 0.036000 0.035000 1400 51 1.000000 3.016000 3.251000 600 66 1.000000 0.054000 0.054000 1.200000 0.024000 0.028000
1517188937547165575	700 59 0.900000 0.035000 0.034000 1400 51 1.000000 3.022000 3.257000 600 66 1.000000 0.054000 0.054000 1.200000 0.024000 0.028000
1517188938053586409	700 59 0.900000 0.036000 0.035000 1400 51 1.000000 3.015000 3.250000 600 66 1.000000 0.054000 0.054000 1.200000 0.024000 0.028000
1517188938559864700	700 59 0.900000 0.036000 0.035000 1400 51 1.000000 3.050000 3.287000 600 66 1.000000 0.054000 0.054000 1.200000 0.024000 0.028000
1517188939066216075	700 59 0.900000 0.035000 0.034000 1400 51 1.000000 3.023000 3.258000 600 66 1.000000 0.054000 0.054000 1.200000 0.024000 0.028000
1517188939572688201	700 59 0.900000 0.036000 0.035000 1400 51 1.000000 2.969000 3.200000 600 66 1.000000 0.054000 0.054000 1.200000 0.024000 0.028000
1517188940079133701	700 59 0.900000 0.035000 0.034000 1400 51 1.000000 2.998000 3.231000 600 66 1.000000 0.054000 0.054000 1.200000 0.024000 0.028000
1517188940585597242	700 59 0.900000 0.035000 0.034000 1400 51 1.000000 3.021000 3.256000 600 66 1.000000 0.054000 0.054000 1.200000 0.023000 0.027000
1517188941091892951	700 59 0.900000 0.035000 0.034000 1400 51 1.000000 3.023000 3.258000 600 66 1.000000 0.054000 0.054000 1.200000 0.023000 0.027000
1517188941598234117	700 59 0.900000 0.035000 0.034000 1400 50 1.000000 2.981000 3.213000 600 66 1.000000 0.054000 0.054000 1.200000 0.023000 0.027000
1517188942104617451	700 59 0.900000 0.034000 0.033000 1400 51 1.000000 2.967000 3.198000 600 66 1.000000 0.054000 0.054000 1.200000 0.023000 0.027000
1517188942611214284	700 59 0.900000 0.035000 0.034000 1400 51 1.000000 3.034000 3.270000 600 66 1.000000 0.054000 0.054000 1.200000 0.024000 0.028000
1517188943117622326	700 59 0.900000 0.036000 0.035000 1400 50 1.000000 3.021000 3.256000 600 66 1.000000 0.054000 0.054000 1.200000 0.024000 0.028000
1517188943623920409	700 59 0.900000 0.035000 0.034000 1400 50 1.000000 3.041000 3.278000 600 66 1.000000 0.054000 0.054000 1.200000 0.024000 0.028000
1517188944130338951	700 59 0.900000 0.035000 0.034000 1400 50 1.000000 2.962000 3.193000 600 66 1.000000 0.054000 0.054000 1.200000 0.024000 0.028000
1517188944636721909	700 59 0.900000 0.036000 0.035000 1400 50 1.000000 3.009000 3.243000 600 66 1.000000 0.054000 0.054000 1.200000 0.024000 0.028000
1517188945143216201	700 59 0.900000 0.035000 0.034000 1400 50 1.000000 3.000000 3.234000 600 66 1.000000 0.053000 0.053000 1.200000 0.024000 0.028000
1517188945649601535	700 59 0.900000 0.036000 0.035000 1400 50 1.000000 2.993000 3.226000 600 66 1.000000 0.053000 0.053000 1.200000 0.024000 0.028000
1517188946155923701	700 59 0.900000 0.035000 0.034000 1400 50 1.000000 3.013000 3.248000 600 66 1.000000 0.054000 0.054000 1.200000 0.024000 0.028000
1517188946662287326	700 59 0.900000 0.035000 0.034000 1400 50 1.000000 2.967000 3.198000 600 66 1.000000 0.054000 0.054000 1.200000 0.023000 0.027000
1517188947168606451	700 59 0.900000 0.035000 0.034000 1400 50 1.000000 3.014000 3.255000 600 66 1.000000 0.054000 0.054000 1.200000 0.023000 0.027000
1517188947675055660	700 59 0.900000 0.034000 0.033000 1400 50 1.000000 3.032000 3.274000 600 66 1.000000 0.054000 0.054000 1.200000 0.023000 0.027000
1517188948181472660	700 59 0.900000 0.035000 0.034000 1400 50 1.000000 3.015000 3.256000 600 66 1.000000 0.054000 0.054000 1.200000 0.023000 0.027000
1517188948687751868	700 59 0.900000 0.035000 0.034000 1400 50 1.000000 3.025000 3.267000 600 66 1.000000 0.054000 0.054000 1.200000 0.023000 0.027000
1517188949194165493	700 59 0.900000 0.036000 0.035000 1400 50 1.000000 2.998000 3.237000 600 66 1.000000 0.054000 0.054000 1.200000 0.024000 0.028000
1517188949700582452	700 59 0.900000 0.036000 0.035000 1400 50 1.000000 3.020000 3.255000 600 66 1.000000 0.054000 0.054000 1.200000 0.024000 0.028000
1517188950206992493	700 59 0.900000 0.036000 0.035000 1400 50 1.000000 2.993000 3.226000 600 66 1.000000 0.054000 0.054000 1.200000 0.024000 0.028000
1517188950713464494	700 59 0.900000 0.036000 0.035000 1400 50 1.000000 3.033000 3.269000 600 66 1.000000 0.054000 0.054000 1.200000 0.024000 0.028000
1517188951219846119	700 59 0.900000 0.035000 0.034000 1400 50 1.000000 3.029000 3.265000 600 66 1.000000 0.054000 0.054000 1.200000 0.024000 0.028000
1517188951726129327	700 59 0.900000 0.036000 0.035000 1400 50 1.000000 2.993000 3.226000 600 66 1.000000 0.054000 0.054000 1.200000 0.023000 0.027000
1517188952232347952	700 59 0.900000 0.035000 0.034000 1400 50 1.000000 3.012000 3.246000 600 66 1.000000 0.054000 0.054000 1.200000 0.023000 0.027000
1517188952738857702	700 59 0.900000 0.035000 0.034000 1400 50 1.000000 3.026000 3.262000 600 66 1.000000 0.053000 0.053000 1.200000 0.023000 0.027000
1517188953245315410	700 59 0.900000 0.035000 0.034000 1400 50 1.000000 3.024000 3.259000 600 66 1.000000 0.054000 0.054000 1.200000 0.023000 0.027000
1517188953751575619	700 59 0.900000 0.034000 0.033000 1400 50 1.000000 2.991000 3.224000 600 66 1.000000 0.054000 0.054000 1.200000 0.023000 0.027000
1517188954257894494	700 59 0.900000 0.034000 0.033000 1400 50 1.000000 3.036000 3.272000 600 66 1.000000 0.054000 0.054000 1.200000 0.023000 0.027000
1517188954764175702	700 59 0.900000 0.035000 0.034000 1400 50 1.000000 3.002000 3.242000 600 66 1.000000 0.054000 0.054000 1.200000 0.023000 0.027000
1517188955270798202	700 59 0.900000 0.035000 0.034000 1400 50 1.000000 3.029000 3.265000 600 66 1.000000 0.054000 0.054000 1.200000 0.024000 0.028000
1517188955777132119	700 59 0.900000 0.036000 0.035000 1400 50 1.000000 3.039000 3.276000 600 66 1.000000 0.054000 0.054000 1.200000 0.024000 0.028000
1517188956283569703	700 59 0.900000 0.035000 0.034000 1400 50 1.000000 3.015000 3.250000 600 66 1.000000 0.054000 0.054000 1.200000 0.024000 0.028000
1517188956790250578	700 59 0.900000 0.035000 0.034000 1400 50 1.000000 3.015000 3.250000 600 66 1.000000 0.053000 0.053000 1.200000 0.023000 0.027000
1517188957296860244	700 59 0.900000 0.036000 0.035000 1400 50 1.000000 3.052000 3.290000 600 66 1.000000 0.054000 0.054000 1.200000 0.023000 0.027000
1517188957803337911	700 59 0.900000 0.035000 0.034000 1400 50 1.000000 2.997000 3.230000 600 66 1.000000 0.054000 0.054000 1.200000 0.023000 0.027000
1517188958309811078	700 59 0.900000 0.035000 0.034000 1400 50 1.000000 2.966000 3.197000 600 66 1.000000 0.054000 0.054000 1.200000 0.023000 0.027000
1517188958816067453	700 59 0.900000 0.035000 0.034000 1400 50 1.000000 3.019000 3.254000 600 66 1.000000 0.054000 0.054000 1.200000 0.023000 0.027000
1517188959322378870	700 59 0.900000 0.035000 0.034000 1400 50 1.000000 3.018000 3.253000 600 66 1.000000 0.054000 0.054000 1.200000 0.023000 0.027000
1517188959828948328	700 59 0.900000 0.035000 0.034000 1400 50 1.000000 3.034000 3.270000 600 66 1.000000 0.054000 0.054000 1.200000 0.023000 0.027000
1517188960335279578	700 59 0.900000 0.035000 0.034000 1400 50 1.000000 2.996000 3.229000 600 66 1.000000 0.054000 0.054000 1.200000 0.023000 0.027000
1517188960841693911	700 59 0.900000 0.034000 0.033000 1400 50 1.000000 2.997000 3.230000 600 66 1.000000 0.054000 0.054000 1.200000 0.023000 0.027000
1517188961348081620	700 59 0.900000 0.034000 0.033000 1400 50 1.000000 3.023000 3.258000 600 66 1.000000 0.054000 0.054000 1.200000 0.024000 0.028000
1517188961854770037	700 59 0.900000 0.036000 0.035000 1400 50 1.000000 3.025000 3.267000 600 66 1.000000 0.053000 0.053000 1.200000 0.023000 0.027000
1517188962361193912	700 59 0.900000 0.035000 0.034000 1400 50 1.000000 2.995000 3.228000 600 66 1.000000 0.054000 0.054000 1.200000 0.024000 0.028000
1517188962867516287	700 59 0.900000 0.037000 0.036000 1400 50 1.000000 3.018000 3.253000 600 65 1.000000 0.054000 0.054000 1.200000 0.024000 0.028000
1517188963374094495	700 59 0.900000 0.035000 0.034000 1400 50 1.000000 3.021000 3.256000 600 65 1.000000 0.054000 0.054000 1.200000 0.024000 0.028000
1517188963880397662	700 59 0.900000 0.036000 0.035000 1400 50 1.000000 3.012000 3.246000 600 66 1.000000 0.054000 0.054000 1.200000 0.024000 0.028000
1517188964386764578	700 59 0.900000 0.036000 0.035000 1400 50 1.000000 3.015000 3.250000 600 65 1.000000 0.054000 0.054000 1.200000 0.024000 0.028000
1517188964893172704	700 59 0.900000 0.035000 0.034000 1400 50 1.000000 3.047000 3.284000 600 66 1.000000 0.053000 0.053000 1.200000 0.024000 0.028000
1517188965399702704	700 59 0.900000 0.037000 0.036000 1400 50 1.000000 3.009000 3.243000 600 65 1.000000 0.053000 0.053000 1.200000 0.024000 0.028000
1517188965906112454	700 59 0.900000 0.034000 0.033000 1400 50 1.000000 2.966000 3.197000 600 66 1.000000 0.054000 0.054000 1.200000 0.024000 0.028000
1517188966412570912	700 59 0.900000 0.035000 0.034000 1400 50 1.000000 3.028000 3.264000 600 66 1.000000 0.054000 0.054000 1.200000 0.025000 0.030000
1517188966919105620	700 59 0.900000 0.035000 0.034000 1400 50 1.000000 3.012000 3.246000 600 66 1.000000 0.053000 0.053000 1.200000 0.024000 0.028000
1517188967425544246	700 59 0.900000 0.035000 0.034000 1400 50 1.000000 3.013000 3.248000 600 66 1.000000 0.054000 0.054000 1.200000 0.024000 0.028000
1517188967932057579	700 59 0.900000 0.037000 0.036000 1400 50 1.000000 3.035000 3.271000 600 66 1.000000 0.054000 0.054000 1.200000 0.025000 0.030000
1517188968438367454	700 52 0.900000 0.035000 0.034000 1400 49 1.000000 2.986000 3.218000 600 58 1.000000 0.054000 0.054000 1.200000 0.024000 0.028000
1517188968944461996	700 48 0.900000 0.037000 0.036000 1400 47 1.000000 0.233000 0.250000 600 53 1.000000 0.053000 0.053000 1.200000 0.025000 0.030000
