#Timestamp	CPU(0) Frequency(MHz)	CPU(0) Temperature(C)	A7 Voltage(V)	A7 Current(A)	A7 Power(W)	CPU(4) Frequency(MHz)	CPU(4) Temperature(C)	A15 Voltage(V)	A15 Current(A)	A15 Power(W)	GPU Frequency(MHz)	GPU Temperature(C)	GPU Voltage(V)	GPU Current(A)	GPU Power(W)	RAM Voltage(V)	RAM Current(A)	RAM Power(W)
1517419813594085473	900 34 1.000000 0.093000 0.097000 1100 30 1.000000 0.166000 0.166000 600 37 1.000000 0.050000 0.050000 1.200000 0.048000 0.058000
1517419814104171390	900 36 1.000000 0.234000 0.247000 1100 31 0.900000 1.829000 1.823000 600 40 1.000000 0.050000 0.050000 1.200000 0.031000 0.037000
1517419814614087681	900 37 1.000000 0.233000 0.246000 1100 32 0.900000 1.831000 1.825000 600 41 1.000000 0.050000 0.050000 1.200000 0.025000 0.030000
1517419815124007348	900 38 1.000000 0.233000 0.246000 1100 33 0.900000 1.835000 1.827000 600 42 1.000000 0.050000 0.050000 1.200000 0.025000 0.030000
1517419815633926890	900 39 1.000000 0.269000 0.282000 1100 34 0.900000 1.834000 1.826000 600 43 1.000000 0.051000 0.051000 1.200000 0.030000 0.036000
1517419816143795890	900 39 1.000000 0.239000 0.251000 1100 34 0.900000 1.834000 1.826000 600 44 1.000000 0.051000 0.051000 1.200000 0.041000 0.049000
1517419816653737265	900 40 1.000000 0.242000 0.255000 1100 35 0.900000 1.841000 1.835000 600 44 1.000000 0.051000 0.051000 1.200000 0.031000 0.037000
1517419817163784390	900 40 1.000000 0.236000 0.249000 1100 35 0.900000 1.838000 1.832000 600 44 1.000000 0.051000 0.051000 1.200000 0.025000 0.030000
1517419817684657390	900 40 1.000000 0.235000 0.247000 1100 35 0.900000 1.838000 1.832000 600 45 1.000000 0.051000 0.051000 1.200000 0.024000 0.028000
1517419818199491432	900 41 1.000000 0.238000 0.251000 1100 35 0.900000 1.838000 1.830000 600 45 1.000000 0.051000 0.051000 1.200000 0.047000 0.056000
1517419818709476432	900 41 1.000000 0.256000 0.269000 1100 36 0.900000 1.841000 1.835000 600 45 1.000000 0.051000 0.051000 1.200000 0.033000 0.039000
1517419819219501224	900 41 1.000000 0.234000 0.246000 1100 36 0.900000 1.842000 1.836000 600 45 1.000000 0.051000 0.051000 1.200000 0.025000 0.030000
1517419819740514182	900 41 1.000000 0.236000 0.249000 1100 36 0.900000 1.841000 1.835000 600 46 1.000000 0.051000 0.051000 1.200000 0.024000 0.028000
1517419820253696057	900 42 1.000000 0.268000 0.281000 1100 36 0.900000 1.839000 1.833000 600 46 1.000000 0.051000 0.051000 1.200000 0.041000 0.049000
1517419820763737307	900 42 1.000000 0.249000 0.260000 1100 36 0.900000 1.843000 1.837000 600 46 1.000000 0.051000 0.051000 1.200000 0.032000 0.038000
1517419821273833474	900 42 1.000000 0.238000 0.251000 1100 36 0.900000 1.839000 1.831000 600 46 1.000000 0.051000 0.051000 1.200000 0.024000 0.028000
1517419821783719849	900 42 1.000000 0.235000 0.248000 1100 37 0.900000 1.844000 1.838000 600 46 1.000000 0.051000 0.051000 1.200000 0.024000 0.028000
1517419822315274349	900 42 1.000000 0.267000 0.280000 1100 37 0.900000 1.839000 1.833000 600 46 1.000000 0.051000 0.051000 1.200000 0.033000 0.039000
1517419822827558599	900 42 1.000000 0.235000 0.248000 1100 37 0.900000 1.844000 1.836000 600 47 1.000000 0.051000 0.051000 1.200000 0.028000 0.033000
1517419823337645307	900 42 1.000000 0.234000 0.247000 1100 37 0.900000 1.842000 1.836000 600 47 1.000000 0.051000 0.051000 1.200000 0.025000 0.030000
1517419823847788641	900 42 1.000000 0.234000 0.247000 1100 37 0.900000 1.841000 1.835000 600 47 1.000000 0.051000 0.051000 1.200000 0.024000 0.028000
1517419824375494766	900 42 1.000000 0.267000 0.280000 1100 37 0.900000 1.844000 1.836000 600 47 1.000000 0.051000 0.051000 1.200000 0.023000 0.027000
1517419824893802683	900 42 1.000000 0.259000 0.271000 1100 37 0.900000 1.840000 1.834000 600 47 1.000000 0.051000 0.051000 1.200000 0.027000 0.032000
1517419825403835391	900 43 1.000000 0.237000 0.249000 1100 37 0.900000 1.845000 1.839000 600 47 1.000000 0.051000 0.051000 1.200000 0.023000 0.027000
1517419825914111349	900 42 1.000000 0.236000 0.249000 1100 37 0.900000 1.843000 1.837000 600 47 1.000000 0.051000 0.051000 1.200000 0.023000 0.027000
1517419826450720766	900 42 1.000000 0.236000 0.249000 1100 37 0.900000 1.838000 1.832000 600 47 1.000000 0.051000 0.051000 1.200000 0.025000 0.030000
1517419826961000724	900 43 1.000000 0.267000 0.280000 1100 38 0.900000 1.842000 1.836000 600 47 1.000000 0.051000 0.051000 1.200000 0.042000 0.050000
1517419827470775558	900 43 1.000000 0.237000 0.250000 1100 38 0.900000 1.842000 1.834000 600 47 1.000000 0.051000 0.051000 1.200000 0.025000 0.030000
1517419827980743808	900 43 1.000000 0.237000 0.250000 1100 38 0.900000 1.839000 1.831000 600 47 1.000000 0.051000 0.051000 1.200000 0.024000 0.028000
1517419828490663183	900 43 1.000000 0.235000 0.247000 1100 38 0.900000 1.845000 1.837000 600 47 1.000000 0.051000 0.051000 1.200000 0.024000 0.028000
1517419829000781308	900 43 1.000000 0.266000 0.279000 1100 38 0.900000 1.839000 1.831000 600 47 1.000000 0.051000 0.051000 1.200000 0.029000 0.035000
1517419829510662725	900 43 1.000000 0.237000 0.250000 1100 38 0.900000 1.845000 1.837000 600 48 1.000000 0.052000 0.052000 1.200000 0.025000 0.030000
1517419830020762475	900 43 1.000000 0.234000 0.246000 1100 38 0.900000 1.843000 1.835000 600 47 1.000000 0.051000 0.051000 1.200000 0.024000 0.028000
1517419830530836558	900 43 1.000000 0.234000 0.247000 1100 38 0.900000 1.837000 1.831000 600 48 1.000000 0.051000 0.051000 1.200000 0.024000 0.028000
1517419831053076433	900 43 1.000000 0.262000 0.275000 1100 38 0.900000 1.847000 1.839000 600 48 1.000000 0.051000 0.051000 1.200000 0.032000 0.038000
1517419831568366350	900 43 1.000000 0.265000 0.278000 1100 38 0.900000 1.835000 1.829000 600 48 1.000000 0.051000 0.051000 1.200000 0.029000 0.035000
1517419832078440142	900 43 1.000000 0.240000 0.253000 1100 38 0.900000 1.846000 1.840000 600 48 1.000000 0.051000 0.051000 1.200000 0.026000 0.031000
1517419832588435558	900 43 1.000000 0.235000 0.247000 1100 38 0.900000 1.845000 1.839000 600 48 1.000000 0.051000 0.051000 1.200000 0.023000 0.027000
1517419833108154142	900 43 1.000000 0.254000 0.267000 1100 38 0.900000 1.830000 1.824000 600 48 1.000000 0.051000 0.051000 1.200000 0.031000 0.037000
1517419833623324392	900 43 1.000000 0.266000 0.279000 1100 38 0.900000 1.845000 1.839000 600 48 1.000000 0.051000 0.051000 1.200000 0.039000 0.047000
1517419834133734559	900 43 1.000000 0.234000 0.247000 1100 38 0.900000 1.842000 1.836000 600 48 1.000000 0.051000 0.051000 1.200000 0.024000 0.028000
1517419834643757517	900 43 1.000000 0.233000 0.245000 1100 38 0.900000 1.835000 1.829000 600 48 1.000000 0.051000 0.051000 1.200000 0.023000 0.027000
1517419835153916017	900 43 1.000000 0.252000 0.265000 1100 38 0.900000 1.847000 1.839000 600 48 1.000000 0.051000 0.051000 1.200000 0.030000 0.036000
1517419835664362934	900 43 1.000000 0.243000 0.256000 1100 38 0.900000 1.844000 1.836000 600 48 1.000000 0.051000 0.051000 1.200000 0.024000 0.028000
1517419836174341601	900 43 1.000000 0.237000 0.250000 1100 38 0.900000 1.822000 1.814000 600 48 1.000000 0.051000 0.051000 1.200000 0.024000 0.028000
1517419836684427726	900 43 1.000000 0.235000 0.248000 1100 38 0.900000 1.846000 1.838000 600 48 1.000000 0.052000 0.052000 1.200000 0.025000 0.030000
1517419837194416184	900 43 1.000000 0.245000 0.258000 1100 38 0.900000 1.840000 1.834000 600 48 1.000000 0.051000 0.051000 1.200000 0.025000 0.030000
1517419837704219601	900 44 1.000000 0.243000 0.256000 1100 38 0.900000 1.828000 1.822000 600 48 1.000000 0.051000 0.051000 1.200000 0.024000 0.028000
1517419838214233684	900 43 1.000000 0.268000 0.281000 1100 38 0.900000 1.847000 1.841000 600 48 1.000000 0.051000 0.051000 1.200000 0.028000 0.033000
1517419838724436601	900 43 1.000000 0.238000 0.251000 1100 38 0.900000 1.836000 1.830000 600 48 1.000000 0.051000 0.051000 1.200000 0.025000 0.030000
1517419839234458268	900 44 1.000000 0.237000 0.250000 1100 39 0.900000 1.834000 1.828000 600 48 1.000000 0.052000 0.052000 1.200000 0.025000 0.030000
1517419839755120518	900 44 1.000000 0.233000 0.244000 1100 39 0.900000 1.848000 1.842000 600 48 1.000000 0.051000 0.051000 1.200000 0.023000 0.027000
1517419840266904893	900 44 1.000000 0.268000 0.280000 1100 39 0.900000 1.830000 1.822000 600 48 1.000000 0.051000 0.051000 1.200000 0.037000 0.044000
1517419840777147518	900 44 1.000000 0.234000 0.247000 1100 39 0.900000 1.834000 1.828000 600 48 1.000000 0.052000 0.052000 1.200000 0.023000 0.027000
1517419841287121809	900 44 1.000000 0.239000 0.252000 1100 39 0.900000 1.849000 1.843000 600 48 1.000000 0.051000 0.051000 1.200000 0.026000 0.031000
1517419841797375435	900 44 1.000000 0.235000 0.248000 1100 39 0.900000 1.827000 1.819000 600 48 1.000000 0.051000 0.051000 1.200000 0.023000 0.027000
1517419842307430185	900 44 1.000000 0.270000 0.283000 1100 39 0.900000 1.836000 1.830000 600 48 1.000000 0.052000 0.052000 1.200000 0.046000 0.055000
1517419842817508643	900 44 1.000000 0.235000 0.248000 1100 39 0.900000 1.848000 1.842000 600 48 1.000000 0.051000 0.051000 1.200000 0.023000 0.027000
1517419843327614518	900 44 1.000000 0.251000 0.264000 1100 39 0.900000 1.828000 1.822000 600 48 1.000000 0.051000 0.051000 1.200000 0.030000 0.036000
1517419843837679851	900 44 1.000000 0.236000 0.249000 1100 39 0.900000 1.816000 1.808000 600 48 1.000000 0.052000 0.052000 1.200000 0.025000 0.030000
1517419844347689643	900 44 1.000000 0.237000 0.250000 1100 39 0.900000 1.836000 1.828000 600 49 1.000000 0.051000 0.051000 1.200000 0.025000 0.030000
1517419844857737685	900 44 1.000000 0.271000 0.284000 1100 39 0.900000 1.845000 1.837000 600 48 1.000000 0.051000 0.051000 1.200000 0.026000 0.031000
1517419845367656435	900 44 1.000000 0.236000 0.248000 1100 39 0.900000 1.824000 1.816000 600 49 1.000000 0.052000 0.052000 1.200000 0.024000 0.028000
1517419845877817893	900 44 1.000000 0.255000 0.268000 1100 39 0.900000 1.835000 1.827000 600 49 1.000000 0.052000 0.052000 1.200000 0.025000 0.030000
1517419846398476518	900 44 1.000000 0.235000 0.247000 1100 39 0.900000 1.848000 1.840000 600 49 1.000000 0.052000 0.052000 1.200000 0.023000 0.027000
1517419846913468560	900 44 1.000000 0.272000 0.285000 1100 39 0.900000 1.829000 1.823000 600 49 1.000000 0.052000 0.052000 1.200000 0.035000 0.042000
1517419847423427727	900 44 1.000000 0.236000 0.249000 1100 39 0.900000 1.832000 1.826000 600 49 1.000000 0.052000 0.052000 1.200000 0.023000 0.027000
1517419847933470102	900 44 1.000000 0.233000 0.246000 1100 39 0.900000 1.849000 1.841000 600 49 1.000000 0.051000 0.051000 1.200000 0.023000 0.027000
1517419848443674310	900 44 1.000000 0.235000 0.248000 1100 39 0.900000 1.828000 1.820000 600 49 1.000000 0.052000 0.052000 1.200000 0.023000 0.027000
1517419848953774060	900 44 1.000000 0.272000 0.285000 1100 39 0.900000 1.828000 1.822000 600 49 1.000000 0.052000 0.052000 1.200000 0.045000 0.054000
1517419849479390477	900 44 1.000000 0.236000 0.249000 1100 39 0.900000 1.849000 1.843000 600 49 1.000000 0.051000 0.051000 1.200000 0.023000 0.027000
1517419849992073519	900 44 1.000000 0.235000 0.246000 1100 39 0.900000 1.834000 1.826000 600 49 1.000000 0.051000 0.051000 1.200000 0.023000 0.027000
1517419850501993186	900 44 1.000000 0.236000 0.249000 1100 39 0.900000 1.826000 1.820000 600 49 1.000000 0.052000 0.052000 1.200000 0.023000 0.027000
1517419851011797352	900 44 1.000000 0.237000 0.250000 1100 39 0.900000 1.848000 1.840000 600 49 1.000000 0.051000 0.051000 1.200000 0.047000 0.056000
1517419851543345144	900 44 1.000000 0.236000 0.248000 1100 39 0.900000 1.838000 1.830000 600 49 1.000000 0.051000 0.051000 1.200000 0.023000 0.027000
1517419852053741394	900 44 1.000000 0.239000 0.252000 1100 39 0.900000 1.820000 1.812000 600 49 1.000000 0.051000 0.051000 1.200000 0.023000 0.027000
1517419852563795977	900 44 1.000000 0.236000 0.249000 1100 39 0.900000 1.849000 1.841000 600 49 1.000000 0.052000 0.052000 1.200000 0.023000 0.027000
1517419853083278436	900 44 1.000000 0.238000 0.250000 1100 39 0.900000 1.849000 1.841000 600 49 1.000000 0.051000 0.051000 1.200000 0.024000 0.028000
1517419853617629394	900 44 1.000000 0.274000 0.287000 1100 39 0.900000 1.823000 1.817000 600 49 1.000000 0.052000 0.052000 1.200000 0.033000 0.039000
1517419854128050353	900 44 1.000000 0.256000 0.269000 1100 39 0.900000 1.840000 1.834000 600 49 1.000000 0.051000 0.051000 1.200000 0.031000 0.037000
1517419854638059353	900 44 1.000000 0.236000 0.248000 1100 39 0.900000 1.848000 1.842000 600 49 1.000000 0.052000 0.052000 1.200000 0.025000 0.030000
1517419855159318769	900 44 1.000000 0.234000 0.247000 1100 39 0.900000 1.824000 1.818000 600 49 1.000000 0.051000 0.051000 1.200000 0.023000 0.027000
1517419855687359061	900 44 1.000000 0.275000 0.288000 1100 39 0.900000 1.829000 1.823000 600 49 1.000000 0.051000 0.051000 1.200000 0.028000 0.033000
1517419856201733686	900 44 1.000000 0.251000 0.264000 1100 39 0.900000 1.851000 1.843000 600 49 1.000000 0.051000 0.051000 1.200000 0.028000 0.033000
1517419856711792728	900 44 1.000000 0.236000 0.249000 1100 39 0.900000 1.831000 1.825000 600 49 1.000000 0.051000 0.051000 1.200000 0.025000 0.030000
1517419857222085103	900 44 1.000000 0.238000 0.251000 1100 39 0.900000 1.825000 1.819000 600 49 1.000000 0.052000 0.052000 1.200000 0.024000 0.028000
1517419857732209061	900 45 1.000000 0.236000 0.248000 1100 39 0.900000 1.849000 1.843000 600 49 1.000000 0.052000 0.052000 1.200000 0.024000 0.028000
1517419858242325811	900 44 1.000000 0.253000 0.266000 1100 40 0.900000 1.840000 1.834000 600 49 1.000000 0.051000 0.051000 1.200000 0.032000 0.038000
1517419858752387020	900 45 1.000000 0.237000 0.250000 1100 39 0.900000 1.821000 1.815000 600 49 1.000000 0.052000 0.052000 1.200000 0.025000 0.030000
1517419859262275645	900 44 1.000000 0.236000 0.249000 1100 39 0.900000 1.849000 1.843000 600 49 1.000000 0.051000 0.051000 1.200000 0.024000 0.028000
1517419859772345937	900 45 1.000000 0.235000 0.248000 1100 39 0.900000 1.849000 1.843000 600 49 1.000000 0.052000 0.052000 1.200000 0.024000 0.028000
1517419860282288978	900 45 1.000000 0.252000 0.265000 1100 39 0.900000 1.823000 1.815000 600 49 1.000000 0.052000 0.052000 1.200000 0.040000 0.048000
1517419860792489603	900 45 1.000000 0.233000 0.244000 1100 39 0.900000 1.847000 1.841000 600 49 1.000000 0.052000 0.052000 1.200000 0.025000 0.030000
1517419861302473104	900 45 1.000000 0.235000 0.248000 1100 39 0.900000 1.850000 1.844000 600 49 1.000000 0.052000 0.052000 1.200000 0.024000 0.028000
1517419861825322437	900 44 1.000000 0.234000 0.246000 1100 39 0.900000 1.821000 1.815000 600 49 1.000000 0.052000 0.052000 1.200000 0.024000 0.028000
1517419862337712729	900 45 1.000000 0.241000 0.254000 1100 40 0.900000 1.847000 1.841000 600 49 1.000000 0.051000 0.051000 1.200000 0.048000 0.057000
1517419862848078687	900 45 1.000000 0.236000 0.248000 1100 40 0.900000 1.849000 1.843000 600 49 1.000000 0.052000 0.052000 1.200000 0.024000 0.028000
1517419863358027187	900 45 1.000000 0.234000 0.247000 1100 40 0.900000 1.843000 1.837000 600 49 1.000000 0.052000 0.052000 1.200000 0.024000 0.028000
1517419863868099271	900 45 1.000000 0.236000 0.249000 1100 40 0.900000 1.821000 1.815000 600 49 1.000000 0.052000 0.052000 1.200000 0.025000 0.030000
1517419864377976479	900 45 1.000000 0.238000 0.251000 1100 40 0.900000 1.849000 1.843000 600 49 1.000000 0.051000 0.051000 1.200000 0.025000 0.030000
1517419864888109729	900 45 1.000000 0.259000 0.272000 1100 40 0.900000 1.849000 1.843000 600 49 1.000000 0.052000 0.052000 1.200000 0.040000 0.048000
1517419865397994437	900 45 1.000000 0.237000 0.250000 1100 39 0.900000 1.822000 1.816000 600 49 1.000000 0.052000 0.052000 1.200000 0.024000 0.028000
1517419865908187396	900 45 1.000000 0.238000 0.251000 1100 40 0.900000 1.846000 1.840000 600 49 1.000000 0.052000 0.052000 1.200000 0.025000 0.030000
1517419866431273479	900 45 1.000000 0.233000 0.244000 1100 40 0.900000 1.851000 1.845000 600 49 1.000000 0.052000 0.052000 1.200000 0.024000 0.028000
1517419866941625979	900 45 1.000000 0.259000 0.272000 1100 40 0.900000 1.825000 1.819000 600 49 1.000000 0.052000 0.052000 1.200000 0.048000 0.057000
1517419867451825021	900 45 1.000000 0.233000 0.244000 1100 40 0.900000 1.839000 1.833000 600 49 1.000000 0.052000 0.052000 1.200000 0.025000 0.030000
1517419867961981563	900 45 1.000000 0.236000 0.249000 1100 40 0.900000 1.851000 1.845000 600 49 1.000000 0.052000 0.052000 1.200000 0.024000 0.028000
1517419868472266729	900 45 1.000000 0.251000 0.264000 1100 40 0.900000 1.824000 1.818000 600 49 1.000000 0.052000 0.052000 1.200000 0.024000 0.028000
1517419868982241188	900 45 1.000000 0.259000 0.272000 1100 40 0.900000 1.834000 1.828000 600 50 1.000000 0.051000 0.051000 1.200000 0.044000 0.053000
1517419869492670563	900 45 1.000000 0.237000 0.249000 1100 40 0.900000 1.852000 1.846000 600 49 1.000000 0.052000 0.052000 1.200000 0.023000 0.027000
1517419870002726063	900 45 1.000000 0.235000 0.246000 1100 40 0.900000 1.836000 1.830000 600 49 1.000000 0.052000 0.052000 1.200000 0.023000 0.027000
1517419870512803855	900 45 1.000000 0.235000 0.248000 1100 40 0.900000 1.825000 1.819000 600 50 1.000000 0.052000 0.052000 1.200000 0.023000 0.027000
1517419871022902105	900 45 1.000000 0.254000 0.267000 1100 40 0.900000 1.849000 1.843000 600 50 1.000000 0.052000 0.052000 1.200000 0.034000 0.041000
1517419871532993771	900 45 1.000000 0.260000 0.272000 1100 40 0.900000 1.850000 1.844000 600 50 1.000000 0.052000 0.052000 1.200000 0.038000 0.045000
1517419872043063021	900 45 1.000000 0.236000 0.248000 1100 40 0.900000 1.824000 1.818000 600 50 1.000000 0.052000 0.052000 1.200000 0.024000 0.028000
1517419872553178105	900 45 1.000000 0.238000 0.251000 1100 40 0.900000 1.831000 1.825000 600 50 1.000000 0.052000 0.052000 1.200000 0.024000 0.028000
1517419873075268522	900 45 1.000000 0.245000 0.257000 1100 40 0.900000 1.849000 1.843000 600 49 1.000000 0.052000 0.052000 1.200000 0.033000 0.039000
1517419873586852313	900 45 1.000000 0.261000 0.274000 1100 40 0.900000 1.834000 1.828000 600 50 1.000000 0.052000 0.052000 1.200000 0.046000 0.055000
1517419874096935188	900 45 1.000000 0.236000 0.249000 1100 40 0.900000 1.823000 1.817000 600 50 1.000000 0.052000 0.052000 1.200000 0.024000 0.028000
1517419874607308480	900 45 1.000000 0.235000 0.248000 1100 40 0.900000 1.852000 1.846000 600 50 1.000000 0.052000 0.052000 1.200000 0.025000 0.030000
1517419875117461480	900 45 1.000000 0.235000 0.248000 1100 40 0.900000 1.844000 1.838000 600 50 1.000000 0.051000 0.051000 1.200000 0.027000 0.032000
1517419875627452480	900 45 1.000000 0.247000 0.258000 1100 40 0.900000 1.826000 1.818000 600 50 1.000000 0.052000 0.052000 1.200000 0.046000 0.055000
1517419876137663855	900 45 1.000000 0.236000 0.248000 1100 40 0.900000 1.849000 1.843000 600 50 1.000000 0.052000 0.052000 1.200000 0.023000 0.027000
1517419876671406730	900 45 1.000000 0.239000 0.252000 1100 40 0.900000 1.847000 1.841000 600 50 1.000000 0.052000 0.052000 1.200000 0.023000 0.027000
1517419877185725022	900 45 1.000000 0.252000 0.264000 1100 40 0.900000 1.824000 1.818000 600 50 1.000000 0.052000 0.052000 1.200000 0.023000 0.027000
1517419877695744147	900 45 1.000000 0.249000 0.261000 1100 40 0.900000 1.841000 1.835000 600 50 1.000000 0.051000 0.051000 1.200000 0.037000 0.044000
1517419878205798814	900 45 1.000000 0.235000 0.248000 1100 40 0.900000 1.850000 1.844000 600 50 1.000000 0.052000 0.052000 1.200000 0.023000 0.027000
1517419878736468814	900 45 1.000000 0.235000 0.248000 1100 40 0.900000 1.824000 1.818000 600 50 1.000000 0.052000 0.052000 1.200000 0.023000 0.027000
1517419879246475231	900 45 1.000000 0.235000 0.248000 1100 40 0.900000 1.833000 1.827000 600 50 1.000000 0.052000 0.052000 1.200000 0.023000 0.027000
1517419879769300356	900 45 1.000000 0.247000 0.260000 1100 40 0.900000 1.850000 1.844000 600 50 1.000000 0.052000 0.052000 1.200000 0.028000 0.033000
1517419880281800689	900 45 1.000000 0.234000 0.245000 1100 40 0.900000 1.836000 1.830000 600 50 1.000000 0.052000 0.052000 1.200000 0.023000 0.027000
1517419880807485814	900 45 1.000000 0.236000 0.249000 1100 40 0.900000 1.824000 1.818000 600 50 1.000000 0.052000 0.052000 1.200000 0.023000 0.027000
1517419881321824731	900 45 1.000000 0.235000 0.248000 1100 40 0.900000 1.852000 1.846000 600 50 1.000000 0.051000 0.051000 1.200000 0.023000 0.027000
1517419881844986564	900 45 1.000000 0.235000 0.248000 1100 40 0.900000 1.849000 1.843000 600 50 1.000000 0.051000 0.051000 1.200000 0.024000 0.028000
1517419882360236148	900 45 1.000000 0.245000 0.258000 1100 40 0.900000 1.827000 1.821000 600 50 1.000000 0.052000 0.052000 1.200000 0.048000 0.057000
1517419882870356981	900 45 1.000000 0.235000 0.248000 1100 40 0.900000 1.822000 1.816000 600 50 1.000000 0.052000 0.052000 1.200000 0.025000 0.030000
1517419883380476898	900 45 1.000000 0.252000 0.265000 1100 40 0.900000 1.849000 1.843000 600 50 1.000000 0.052000 0.052000 1.200000 0.031000 0.037000
1517419883890373731	900 45 1.000000 0.236000 0.248000 1100 40 0.900000 1.848000 1.842000 600 50 1.000000 0.052000 0.052000 1.200000 0.024000 0.028000
1517419884400289940	900 45 1.000000 0.243000 0.256000 1100 40 0.900000 1.822000 1.816000 600 50 1.000000 0.051000 0.051000 1.200000 0.039000 0.047000
1517419884910393106	900 45 1.000000 0.238000 0.251000 1100 40 0.900000 1.846000 1.840000 600 50 1.000000 0.052000 0.052000 1.200000 0.025000 0.030000
1517419885420467731	900 45 1.000000 0.256000 0.269000 1100 40 0.900000 1.852000 1.846000 600 50 1.000000 0.052000 0.052000 1.200000 0.031000 0.037000
1517419885930356190	900 45 1.000000 0.234000 0.246000 1100 40 0.900000 1.821000 1.815000 600 50 1.000000 0.052000 0.052000 1.200000 0.023000 0.027000
1517419886440323357	900 45 1.000000 0.242000 0.255000 1100 40 0.900000 1.839000 1.831000 600 50 1.000000 0.052000 0.052000 1.200000 0.028000 0.033000
1517419886950146023	900 45 1.000000 0.235000 0.248000 1100 40 0.900000 1.849000 1.843000 600 50 1.000000 0.051000 0.051000 1.200000 0.023000 0.027000
1517419887460386523	900 45 1.000000 0.246000 0.259000 1100 40 0.900000 1.828000 1.820000 600 50 1.000000 0.052000 0.052000 1.200000 0.029000 0.035000
1517419887970348065	900 45 1.000000 0.239000 0.252000 1100 40 0.900000 1.835000 1.829000 600 50 1.000000 0.052000 0.052000 1.200000 0.023000 0.027000
1517419888491646773	900 45 1.000000 0.236000 0.249000 1100 40 0.900000 1.850000 1.844000 600 50 1.000000 0.052000 0.052000 1.200000 0.023000 0.027000
1517419889006765024	900 45 1.000000 0.267000 0.279000 1100 40 0.900000 1.833000 1.827000 600 50 1.000000 0.051000 0.051000 1.200000 0.023000 0.027000
1517419889516843190	900 45 1.000000 0.255000 0.268000 1100 40 0.900000 1.831000 1.825000 600 50 1.000000 0.052000 0.052000 1.200000 0.026000 0.031000
1517419890026799274	900 45 1.000000 0.234000 0.247000 1100 40 0.900000 1.851000 1.845000 600 50 1.000000 0.051000 0.051000 1.200000 0.023000 0.027000
1517419890536922857	900 45 1.000000 0.237000 0.250000 1100 40 0.900000 1.851000 1.845000 600 50 1.000000 0.052000 0.052000 1.200000 0.025000 0.030000
1517419891046902815	900 45 1.000000 0.242000 0.255000 1100 40 0.900000 1.822000 1.816000 600 50 1.000000 0.052000 0.052000 1.200000 0.040000 0.048000
1517419891556974732	900 45 1.000000 0.236000 0.248000 1100 40 0.900000 1.848000 1.842000 600 50 1.000000 0.052000 0.052000 1.200000 0.031000 0.037000
1517419892066910816	900 45 1.000000 0.237000 0.249000 1100 40 0.900000 1.851000 1.845000 600 50 1.000000 0.052000 0.052000 1.200000 0.023000 0.027000
1517419892577176232	900 45 1.000000 0.236000 0.249000 1100 40 0.900000 1.824000 1.818000 600 50 1.000000 0.052000 0.052000 1.200000 0.023000 0.027000
1517419893087085316	900 45 1.000000 0.239000 0.251000 1100 40 0.900000 1.844000 1.838000 600 50 1.000000 0.051000 0.051000 1.200000 0.031000 0.037000
1517419893597511066	900 45 1.000000 0.251000 0.263000 1100 40 0.900000 1.850000 1.844000 600 50 1.000000 0.052000 0.052000 1.200000 0.030000 0.036000
1517419894107793482	900 45 1.000000 0.235000 0.248000 1100 40 0.900000 1.828000 1.822000 600 50 1.000000 0.052000 0.052000 1.200000 0.023000 0.027000
1517419894618092024	900 45 1.000000 0.238000 0.251000 1100 40 0.900000 1.841000 1.835000 600 50 1.000000 0.052000 0.052000 1.200000 0.024000 0.028000
1517419895139474733	900 45 1.000000 0.237000 0.249000 1100 40 0.900000 1.851000 1.845000 600 50 1.000000 0.052000 0.052000 1.200000 0.023000 0.027000
1517419895654989983	900 45 1.000000 0.271000 0.284000 1100 40 0.900000 1.833000 1.827000 600 50 1.000000 0.052000 0.052000 1.200000 0.031000 0.037000
1517419896165190358	900 45 1.000000 0.238000 0.251000 1100 40 0.900000 1.839000 1.833000 600 50 1.000000 0.052000 0.052000 1.200000 0.025000 0.030000
1517419896675539233	900 45 1.000000 0.237000 0.250000 1100 40 0.900000 1.852000 1.846000 600 50 1.000000 0.052000 0.052000 1.200000 0.024000 0.028000
1517419897185717358	900 45 1.000000 0.233000 0.245000 1100 40 0.900000 1.833000 1.827000 600 50 1.000000 0.052000 0.052000 1.200000 0.024000 0.028000
1517419897696072900	900 45 1.000000 0.288000 0.301000 1100 40 0.900000 1.842000 1.836000 600 50 1.000000 0.052000 0.052000 1.200000 0.043000 0.051000
1517419898206031400	900 45 1.000000 0.236000 0.249000 1100 40 0.900000 1.853000 1.847000 600 50 1.000000 0.052000 0.052000 1.200000 0.025000 0.030000
1517419898716198858	900 45 1.000000 0.237000 0.250000 1100 40 0.900000 1.852000 1.846000 600 50 1.000000 0.052000 0.052000 1.200000 0.023000 0.027000
1517419899226174316	900 45 1.000000 0.237000 0.248000 1100 40 0.900000 1.820000 1.814000 600 50 1.000000 0.052000 0.052000 1.200000 0.024000 0.028000
1517419899744823525	900 45 1.000000 0.240000 0.253000 1100 40 0.900000 1.850000 1.844000 600 50 1.000000 0.052000 0.052000 1.200000 0.025000 0.030000
1517419900254740275	900 45 1.000000 0.236000 0.248000 1100 40 0.900000 1.849000 1.843000 600 50 1.000000 0.052000 0.052000 1.200000 0.047000 0.056000
1517419900764990817	900 45 1.000000 0.236000 0.248000 1100 40 0.900000 1.823000 1.817000 600 50 1.000000 0.052000 0.052000 1.200000 0.025000 0.030000
1517419901275035442	900 45 1.000000 0.237000 0.250000 1100 40 0.900000 1.852000 1.846000 600 50 1.000000 0.052000 0.052000 1.200000 0.025000 0.030000
1517419901798296525	900 45 1.000000 0.236000 0.249000 1100 40 0.900000 1.851000 1.845000 600 50 1.000000 0.052000 0.052000 1.200000 0.024000 0.028000
1517419902309592358	900 45 1.000000 0.289000 0.302000 1100 40 0.900000 1.836000 1.830000 600 50 1.000000 0.052000 0.052000 1.200000 0.050000 0.060000
1517419902819821817	900 45 1.000000 0.237000 0.250000 1100 40 0.900000 1.852000 1.846000 600 50 1.000000 0.052000 0.052000 1.200000 0.025000 0.030000
1517419903329895900	900 45 1.000000 0.236000 0.248000 1100 40 0.900000 1.852000 1.846000 600 50 1.000000 0.052000 0.052000 1.200000 0.024000 0.028000
1517419903845085234	900 45 1.000000 0.239000 0.252000 1100 40 0.900000 1.845000 1.839000 600 50 1.000000 0.052000 0.052000 1.200000 0.024000 0.028000
1517419904355140775	900 45 1.000000 0.269000 0.282000 1100 40 0.900000 1.849000 1.843000 600 50 1.000000 0.052000 0.052000 1.200000 0.039000 0.047000
1517419904865177692	900 46 1.000000 0.233000 0.245000 1100 40 0.900000 1.844000 1.838000 600 50 1.000000 0.052000 0.052000 1.200000 0.025000 0.030000
1517419905375429859	900 46 1.000000 0.236000 0.249000 1100 40 0.900000 1.849000 1.843000 600 50 1.000000 0.052000 0.052000 1.200000 0.025000 0.030000
1517419905911360359	900 45 1.000000 0.234000 0.245000 1100 40 0.900000 1.853000 1.847000 600 50 1.000000 0.052000 0.052000 1.200000 0.024000 0.028000
1517419906421338651	900 46 1.000000 0.269000 0.282000 1100 41 0.900000 1.836000 1.830000 600 50 1.000000 0.052000 0.052000 1.200000 0.026000 0.031000
1517419906931431359	900 46 1.000000 0.241000 0.254000 1100 41 0.900000 1.853000 1.847000 600 50 1.000000 0.052000 0.052000 1.200000 0.023000 0.027000
1517419907441572317	900 46 1.000000 0.236000 0.248000 1100 40 0.900000 1.854000 1.848000 600 50 1.000000 0.052000 0.052000 1.200000 0.023000 0.027000
1517419907975073067	900 45 1.000000 0.239000 0.252000 1100 40 0.900000 1.854000 1.848000 600 50 1.000000 0.052000 0.052000 1.200000 0.025000 0.030000
1517419908497695901	900 46 1.000000 0.249000 0.262000 1100 41 0.900000 1.855000 1.849000 600 50 1.000000 0.052000 0.052000 1.200000 0.031000 0.037000
1517419909013105943	900 46 1.000000 0.269000 0.282000 1100 40 0.900000 1.850000 1.844000 600 50 1.000000 0.052000 0.052000 1.200000 0.045000 0.054000
1517419909523064026	900 45 1.000000 0.237000 0.250000 1100 41 0.900000 1.850000 1.844000 600 50 1.000000 0.052000 0.052000 1.200000 0.024000 0.028000
1517419910047404193	900 46 1.000000 0.238000 0.251000 1100 41 0.900000 1.855000 1.849000 600 50 1.000000 0.052000 0.052000 1.200000 0.023000 0.027000
1517419910561818818	900 46 1.000000 0.254000 0.267000 1100 41 0.900000 1.854000 1.848000 600 50 1.000000 0.052000 0.052000 1.200000 0.032000 0.038000
1517419911072192068	900 46 1.000000 0.269000 0.282000 1100 41 0.900000 1.849000 1.843000 600 50 1.000000 0.052000 0.052000 1.200000 0.037000 0.044000
1517419911582071526	900 46 1.000000 0.238000 0.251000 1100 41 0.900000 1.854000 1.848000 600 50 1.000000 0.052000 0.052000 1.200000 0.024000 0.028000
1517419912092250651	900 46 1.000000 0.235000 0.246000 1100 41 0.900000 1.850000 1.844000 600 51 1.000000 0.052000 0.052000 1.200000 0.023000 0.027000
1517419912602157068	900 46 1.000000 0.251000 0.264000 1100 41 0.900000 1.856000 1.850000 600 50 1.000000 0.052000 0.052000 1.200000 0.031000 0.037000
1517419913112351610	900 46 1.000000 0.267000 0.280000 1100 41 0.900000 1.850000 1.844000 600 50 1.000000 0.052000 0.052000 1.200000 0.027000 0.032000
1517419913622362401	900 46 1.000000 0.241000 0.253000 1100 41 0.900000 1.852000 1.846000 600 50 1.000000 0.052000 0.052000 1.200000 0.024000 0.028000
1517419914132352026	900 46 1.000000 0.239000 0.252000 1100 41 0.900000 1.853000 1.847000 600 50 1.000000 0.052000 0.052000 1.200000 0.024000 0.028000
1517419914642378027	900 46 1.000000 0.256000 0.269000 1100 41 0.900000 1.853000 1.847000 600 50 1.000000 0.052000 0.052000 1.200000 0.031000 0.037000
1517419915165634527	900 46 1.000000 0.236000 0.248000 1100 41 0.900000 1.854000 1.848000 600 50 1.000000 0.052000 0.052000 1.200000 0.023000 0.027000
1517419915677763902	900 46 1.000000 0.245000 0.257000 1100 40 0.900000 1.852000 1.846000 600 50 1.000000 0.052000 0.052000 1.200000 0.024000 0.028000
1517419916187791943	900 46 1.000000 0.234000 0.246000 1100 41 0.900000 1.854000 1.848000 600 50 1.000000 0.052000 0.052000 1.200000 0.023000 0.027000
1517419916697956193	900 46 1.000000 0.254000 0.267000 1100 41 0.900000 1.852000 1.846000 600 50 1.000000 0.052000 0.052000 1.200000 0.030000 0.036000
1517419917209978735	900 46 1.000000 0.236000 0.248000 1100 41 0.900000 1.851000 1.845000 600 50 1.000000 0.052000 0.052000 1.200000 0.023000 0.027000
1517419917720378860	900 46 1.000000 0.265000 0.278000 1100 41 0.900000 1.851000 1.845000 600 50 1.000000 0.052000 0.052000 1.200000 0.037000 0.044000
1517419918230256194	900 46 1.000000 0.237000 0.249000 1100 41 0.900000 1.852000 1.844000 600 50 1.000000 0.052000 0.052000 1.200000 0.024000 0.028000
1517419918740502152	900 46 1.000000 0.257000 0.270000 1100 41 0.900000 1.852000 1.846000 600 50 1.000000 0.052000 0.052000 1.200000 0.027000 0.032000
1517419919250505235	900 46 1.000000 0.235000 0.247000 1100 41 0.900000 1.854000 1.848000 600 51 1.000000 0.052000 0.052000 1.200000 0.025000 0.030000
1517419919760515110	900 46 1.000000 0.237000 0.250000 1100 41 0.900000 1.849000 1.843000 600 50 1.000000 0.052000 0.052000 1.200000 0.028000 0.033000
1517419920270588902	900 46 1.000000 0.246000 0.257000 1100 41 0.900000 1.850000 1.844000 600 51 1.000000 0.052000 0.052000 1.200000 0.024000 0.028000
1517419920780723069	900 46 1.000000 0.236000 0.248000 1100 41 0.900000 1.854000 1.848000 600 51 1.000000 0.052000 0.052000 1.200000 0.031000 0.037000
1517419921290765861	900 46 1.000000 0.239000 0.252000 1100 41 0.900000 1.851000 1.845000 600 51 1.000000 0.052000 0.052000 1.200000 0.025000 0.030000
1517419921812393611	900 46 1.000000 0.237000 0.250000 1100 41 0.900000 1.853000 1.847000 600 50 1.000000 0.052000 0.052000 1.200000 0.023000 0.027000
1517419922325594861	900 46 1.000000 0.247000 0.259000 1100 41 0.900000 1.850000 1.844000 600 50 1.000000 0.052000 0.052000 1.200000 0.023000 0.027000
1517419922835782903	900 46 1.000000 0.252000 0.264000 1100 41 0.900000 1.853000 1.847000 600 51 1.000000 0.052000 0.052000 1.200000 0.031000 0.037000
1517419923345906069	900 46 1.000000 0.235000 0.247000 1100 41 0.900000 1.853000 1.847000 600 51 1.000000 0.052000 0.052000 1.200000 0.023000 0.027000
1517419923871083194	900 46 1.000000 0.236000 0.249000 1100 41 0.900000 1.850000 1.844000 600 51 1.000000 0.052000 0.052000 1.200000 0.023000 0.027000
1517419924385798861	900 46 1.000000 0.250000 0.262000 1100 41 0.900000 1.851000 1.845000 600 51 1.000000 0.052000 0.052000 1.200000 0.033000 0.039000
1517419924895792361	900 46 1.000000 0.253000 0.266000 1100 41 0.900000 1.854000 1.848000 600 51 1.000000 0.052000 0.052000 1.200000 0.031000 0.037000
1517419925405856570	900 46 1.000000 0.234000 0.245000 1100 41 0.900000 1.853000 1.845000 600 51 1.000000 0.052000 0.052000 1.200000 0.023000 0.027000
1517419925916027778	900 46 1.000000 0.236000 0.247000 1100 41 0.900000 1.853000 1.847000 600 51 1.000000 0.052000 0.052000 1.200000 0.023000 0.027000
1517419926426042611	900 46 1.000000 0.236000 0.249000 1100 41 0.900000 1.853000 1.847000 600 51 1.000000 0.052000 0.052000 1.200000 0.029000 0.035000
1517419926936284528	900 46 1.000000 0.254000 0.267000 1100 41 0.900000 1.851000 1.845000 600 51 1.000000 0.052000 0.052000 1.200000 0.025000 0.030000
1517419927446318361	900 46 1.000000 0.247000 0.259000 1100 41 0.900000 1.853000 1.847000 600 51 1.000000 0.052000 0.052000 1.200000 0.024000 0.028000
1517419927956340778	900 46 1.000000 0.235000 0.246000 1100 41 0.900000 1.851000 1.845000 600 51 1.000000 0.051000 0.051000 1.200000 0.024000 0.028000
1517419928466157487	900 46 1.000000 0.239000 0.252000 1100 41 0.900000 1.855000 1.849000 600 51 1.000000 0.052000 0.052000 1.200000 0.025000 0.030000
1517419928976357278	900 46 1.000000 0.253000 0.266000 1100 41 0.900000 1.851000 1.845000 600 51 1.000000 0.052000 0.052000 1.200000 0.023000 0.027000
1517419929486270903	900 46 1.000000 0.238000 0.251000 1100 41 0.900000 1.852000 1.846000 600 51 1.000000 0.052000 0.052000 1.200000 0.023000 0.027000
1517419929996312612	900 46 1.000000 0.239000 0.252000 1100 41 0.900000 1.853000 1.847000 600 51 1.000000 0.052000 0.052000 1.200000 0.023000 0.027000
1517419930518218903	900 46 1.000000 0.235000 0.247000 1100 41 0.900000 1.853000 1.847000 600 51 1.000000 0.052000 0.052000 1.200000 0.023000 0.027000
1517419931033460445	900 46 1.000000 0.253000 0.266000 1100 41 0.900000 1.850000 1.844000 600 51 1.000000 0.052000 0.052000 1.200000 0.033000 0.039000
1517419931543534195	900 46 1.000000 0.234000 0.245000 1100 41 0.900000 1.852000 1.844000 600 51 1.000000 0.052000 0.052000 1.200000 0.023000 0.027000
1517419932053656529	900 46 1.000000 0.234000 0.247000 1100 41 0.900000 1.853000 1.845000 600 51 1.000000 0.052000 0.052000 1.200000 0.023000 0.027000
1517419932563653820	900 46 1.000000 0.237000 0.249000 1100 41 0.900000 1.853000 1.847000 600 51 1.000000 0.052000 0.052000 1.200000 0.023000 0.027000
1517419933073710445	900 46 1.000000 0.257000 0.269000 1100 41 0.900000 1.849000 1.843000 600 51 1.000000 0.052000 0.052000 1.200000 0.047000 0.056000
1517419933583718279	900 46 1.000000 0.237000 0.250000 1100 41 0.900000 1.854000 1.848000 600 51 1.000000 0.052000 0.052000 1.200000 0.023000 0.027000
1517419934093716446	900 46 1.000000 0.236000 0.249000 1100 41 0.900000 1.851000 1.845000 600 51 1.000000 0.052000 0.052000 1.200000 0.023000 0.027000
1517419934603865362	900 46 1.000000 0.237000 0.250000 1100 41 0.900000 1.852000 1.846000 600 51 1.000000 0.052000 0.052000 1.200000 0.024000 0.028000
1517419935143299987	900 46 1.000000 0.237000 0.250000 1100 41 0.900000 1.854000 1.848000 600 51 1.000000 0.052000 0.052000 1.200000 0.024000 0.028000
1517419935657905237	900 46 1.000000 0.273000 0.286000 1100 41 0.900000 1.850000 1.844000 600 51 1.000000 0.052000 0.052000 1.200000 0.029000 0.035000
1517419936168056362	900 46 1.000000 0.236000 0.249000 1100 41 0.900000 1.855000 1.849000 600 51 1.000000 0.052000 0.052000 1.200000 0.025000 0.030000
1517419936678011654	900 46 1.000000 0.238000 0.250000 1100 41 0.900000 1.854000 1.848000 600 51 1.000000 0.052000 0.052000 1.200000 0.024000 0.028000
1517419937215314571	900 46 1.000000 0.238000 0.251000 1100 41 0.900000 1.853000 1.847000 600 51 1.000000 0.052000 0.052000 1.200000 0.024000 0.028000
1517419937729696988	900 46 1.000000 0.289000 0.302000 1100 41 0.900000 1.851000 1.843000 600 51 1.000000 0.052000 0.052000 1.200000 0.032000 0.038000
1517419938239836446	900 46 1.000000 0.234000 0.245000 1100 41 0.900000 1.851000 1.843000 600 51 1.000000 0.052000 0.052000 1.200000 0.025000 0.030000
1517419938750047904	900 46 1.000000 0.236000 0.248000 1100 41 0.900000 1.854000 1.848000 600 51 1.000000 0.052000 0.052000 1.200000 0.024000 0.028000
1517419939260128446	900 46 1.000000 0.237000 0.250000 1100 41 0.900000 1.853000 1.847000 600 51 1.000000 0.052000 0.052000 1.200000 0.025000 0.030000
1517419939770010488	900 46 1.000000 0.255000 0.268000 1100 41 0.900000 1.852000 1.844000 600 51 1.000000 0.052000 0.052000 1.200000 0.031000 0.037000
1517419940280276363	900 46 1.000000 0.235000 0.246000 1100 41 0.900000 1.853000 1.847000 600 51 1.000000 0.052000 0.052000 1.200000 0.029000 0.035000
1517419940790352530	900 46 1.000000 0.237000 0.249000 1100 41 0.900000 1.852000 1.846000 600 51 1.000000 0.052000 0.052000 1.200000 0.024000 0.028000
1517419941300345405	900 46 1.000000 0.237000 0.249000 1100 41 0.900000 1.855000 1.849000 600 51 1.000000 0.052000 0.052000 1.200000 0.024000 0.028000
1517419941823222905	900 46 1.000000 0.253000 0.265000 1100 41 0.900000 1.855000 1.849000 600 51 1.000000 0.052000 0.052000 1.200000 0.033000 0.039000
1517419942334920738	900 46 1.000000 0.236000 0.248000 1100 41 0.900000 1.853000 1.847000 600 51 1.000000 0.052000 0.052000 1.200000 0.037000 0.044000
1517419942845038072	900 46 1.000000 0.234000 0.246000 1100 41 0.900000 1.854000 1.848000 600 51 1.000000 0.052000 0.052000 1.200000 0.024000 0.028000
1517419943355009905	900 46 1.000000 0.236000 0.248000 1100 41 0.900000 1.853000 1.847000 600 51 1.000000 0.052000 0.052000 1.200000 0.025000 0.030000
1517419943865283572	900 46 1.000000 0.240000 0.253000 1100 41 0.900000 1.856000 1.850000 600 51 1.000000 0.052000 0.052000 1.200000 0.031000 0.037000
1517419944375255072	900 46 1.000000 0.236000 0.248000 1100 41 0.900000 1.853000 1.847000 600 51 1.000000 0.052000 0.052000 1.200000 0.046000 0.055000
1517419944885312155	900 46 1.000000 0.236000 0.248000 1100 41 0.900000 1.854000 1.848000 600 51 1.000000 0.052000 0.052000 1.200000 0.024000 0.028000
1517419945395668114	900 46 1.000000 0.236000 0.248000 1100 41 0.900000 1.855000 1.849000 600 51 1.000000 0.052000 0.052000 1.200000 0.025000 0.030000
1517419945905820697	900 46 1.000000 0.237000 0.250000 1100 41 0.900000 1.854000 1.848000 600 51 1.000000 0.052000 0.052000 1.200000 0.024000 0.028000
1517419946416118739	900 46 1.000000 0.239000 0.252000 1100 41 0.900000 1.853000 1.847000 600 51 1.000000 0.052000 0.052000 1.200000 0.024000 0.028000
1517419946926205864	900 46 1.000000 0.237000 0.249000 1100 41 0.900000 1.854000 1.848000 600 51 1.000000 0.052000 0.052000 1.200000 0.026000 0.031000
1517419947436436322	900 46 1.000000 0.237000 0.250000 1100 41 0.900000 1.853000 1.847000 600 51 1.000000 0.052000 0.052000 1.200000 0.025000 0.030000
1517419947946450739	900 46 1.000000 0.246000 0.258000 1100 41 0.900000 1.855000 1.849000 600 51 1.000000 0.052000 0.052000 1.200000 0.024000 0.028000
1517419948467114531	900 46 1.000000 0.235000 0.246000 1100 41 0.900000 1.853000 1.847000 600 51 1.000000 0.052000 0.052000 1.200000 0.024000 0.028000
1517419948982182031	900 46 1.000000 0.238000 0.250000 1100 41 0.900000 1.855000 1.849000 600 51 1.000000 0.052000 0.052000 1.200000 0.035000 0.042000
1517419949492352406	900 46 1.000000 0.236000 0.249000 1100 41 0.900000 1.854000 1.848000 600 51 1.000000 0.052000 0.052000 1.200000 0.024000 0.028000
1517419950002416156	900 46 1.000000 0.253000 0.265000 1100 41 0.900000 1.854000 1.848000 600 51 1.000000 0.052000 0.052000 1.200000 0.026000 0.031000
1517419950523361364	900 46 1.000000 0.235000 0.247000 1100 41 0.900000 1.854000 1.848000 600 51 1.000000 0.052000 0.052000 1.200000 0.024000 0.028000
1517419951037776406	900 46 1.000000 0.270000 0.282000 1100 41 0.900000 1.852000 1.846000 600 51 1.000000 0.052000 0.052000 1.200000 0.046000 0.055000
1517419951547829989	900 46 1.000000 0.238000 0.251000 1100 41 0.900000 1.855000 1.849000 600 51 1.000000 0.052000 0.052000 1.200000 0.023000 0.027000
1517419952057956073	900 46 1.000000 0.238000 0.251000 1100 41 0.900000 1.854000 1.846000 600 51 1.000000 0.052000 0.052000 1.200000 0.029000 0.035000
1517419952568193739	900 46 1.000000 0.235000 0.247000 1100 41 0.900000 1.854000 1.848000 600 51 1.000000 0.052000 0.052000 1.200000 0.023000 0.027000
1517419953078345739	900 46 1.000000 0.268000 0.281000 1100 41 0.900000 1.850000 1.844000 600 51 1.000000 0.052000 0.052000 1.200000 0.047000 0.056000
1517419953588353448	900 46 1.000000 0.244000 0.256000 1100 41 0.900000 1.853000 1.847000 600 51 1.000000 0.052000 0.052000 1.200000 0.024000 0.028000
1517419954098413906	900 46 1.000000 0.236000 0.248000 1100 41 0.900000 1.852000 1.846000 600 51 1.000000 0.052000 0.052000 1.200000 0.024000 0.028000
1517419954608475365	900 46 1.000000 0.237000 0.248000 1100 41 0.900000 1.853000 1.847000 600 51 1.000000 0.052000 0.052000 1.200000 0.025000 0.030000
1517419955125341406	900 46 1.000000 0.237000 0.250000 1100 41 0.900000 1.853000 1.847000 600 51 1.000000 0.051000 0.051000 1.200000 0.024000 0.028000
1517419955635518156	900 46 1.000000 0.244000 0.257000 1100 41 0.900000 1.854000 1.848000 600 51 1.000000 0.052000 0.052000 1.200000 0.035000 0.042000
1517419956145676490	900 46 1.000000 0.234000 0.246000 1100 41 0.900000 1.854000 1.846000 600 51 1.000000 0.052000 0.052000 1.200000 0.024000 0.028000
1517419956656090323	900 46 1.000000 0.234000 0.245000 1100 41 0.900000 1.854000 1.848000 600 51 1.000000 0.052000 0.052000 1.200000 0.024000 0.028000
1517419957178757198	900 46 1.000000 0.234000 0.245000 1100 41 0.900000 1.854000 1.848000 600 51 1.000000 0.052000 0.052000 1.200000 0.026000 0.031000
1517419957690513782	900 46 1.000000 0.267000 0.279000 1100 41 0.900000 1.849000 1.843000 600 51 1.000000 0.052000 0.052000 1.200000 0.044000 0.053000
1517419958200781990	900 46 1.000000 0.237000 0.249000 1100 41 0.900000 1.853000 1.847000 600 51 1.000000 0.052000 0.052000 1.200000 0.023000 0.027000
1517419958710796990	900 46 1.000000 0.235000 0.246000 1100 41 0.900000 1.855000 1.849000 600 51 1.000000 0.052000 0.052000 1.200000 0.023000 0.027000
1517419959220882907	900 46 1.000000 0.237000 0.249000 1100 41 0.900000 1.853000 1.847000 600 51 1.000000 0.052000 0.052000 1.200000 0.023000 0.027000
1517419959730914199	900 46 1.000000 0.266000 0.279000 1100 41 0.900000 1.852000 1.846000 600 51 1.000000 0.052000 0.052000 1.200000 0.046000 0.055000
1517419960241152365	900 46 1.000000 0.234000 0.246000 1100 41 0.900000 1.853000 1.847000 600 51 1.000000 0.052000 0.052000 1.200000 0.023000 0.027000
1517419960751136740	900 46 1.000000 0.235000 0.247000 1100 41 0.900000 1.855000 1.849000 600 51 1.000000 0.052000 0.052000 1.200000 0.023000 0.027000
1517419961261299949	900 46 1.000000 0.234000 0.246000 1100 41 0.900000 1.854000 1.848000 600 51 1.000000 0.052000 0.052000 1.200000 0.023000 0.027000
1517419961771393657	900 46 1.000000 0.237000 0.250000 1100 41 0.900000 1.854000 1.848000 600 51 1.000000 0.052000 0.052000 1.200000 0.024000 0.028000
1517419962281536074	900 46 1.000000 0.247000 0.259000 1100 41 0.900000 1.849000 1.843000 600 51 1.000000 0.052000 0.052000 1.200000 0.032000 0.038000
1517419962791573616	900 46 1.000000 0.241000 0.254000 1100 41 0.900000 1.857000 1.851000 600 51 1.000000 0.052000 0.052000 1.200000 0.031000 0.037000
1517419963301805532	900 46 1.000000 0.234000 0.246000 1100 41 0.900000 1.853000 1.847000 600 51 1.000000 0.052000 0.052000 1.200000 0.025000 0.030000
1517419963822401074	900 46 1.000000 0.238000 0.250000 1100 41 0.900000 1.854000 1.848000 600 51 1.000000 0.052000 0.052000 1.200000 0.024000 0.028000
1517419964352812366	900 46 1.000000 0.264000 0.276000 1100 41 0.900000 1.848000 1.842000 600 51 1.000000 0.052000 0.052000 1.200000 0.042000 0.050000
1517419964862929074	900 46 1.000000 0.254000 0.266000 1100 41 0.900000 1.858000 1.852000 600 51 1.000000 0.052000 0.052000 1.200000 0.027000 0.032000
1517419965373066699	900 46 1.000000 0.237000 0.250000 1100 41 0.900000 1.853000 1.847000 600 51 1.000000 0.052000 0.052000 1.200000 0.024000 0.028000
1517419965883001658	900 46 1.000000 0.238000 0.251000 1100 41 0.900000 1.854000 1.848000 600 51 1.000000 0.052000 0.052000 1.200000 0.023000 0.027000
1517419966415489366	900 46 1.000000 0.264000 0.277000 1100 41 0.900000 1.851000 1.843000 600 51 1.000000 0.052000 0.052000 1.200000 0.047000 0.056000
1517419966926096741	900 46 1.000000 0.252000 0.265000 1100 41 0.900000 1.855000 1.849000 600 51 1.000000 0.052000 0.052000 1.200000 0.023000 0.027000
1517419967436317575	900 46 1.000000 0.234000 0.245000 1100 41 0.900000 1.855000 1.849000 600 51 1.000000 0.052000 0.052000 1.200000 0.023000 0.027000
1517419967946422658	900 46 1.000000 0.236000 0.249000 1100 41 0.900000 1.853000 1.847000 600 51 1.000000 0.052000 0.052000 1.200000 0.023000 0.027000
1517419968463291825	900 46 1.000000 0.262000 0.275000 1100 41 0.900000 1.855000 1.849000 600 51 1.000000 0.052000 0.052000 1.200000 0.041000 0.049000
1517419968977868700	900 46 1.000000 0.234000 0.245000 1100 41 0.900000 1.857000 1.851000 600 51 1.000000 0.052000 0.052000 1.200000 0.023000 0.027000
1517419969488110700	900 46 1.000000 0.234000 0.245000 1100 41 0.900000 1.854000 1.848000 600 51 1.000000 0.052000 0.052000 1.200000 0.023000 0.027000
1517419969998143533	900 46 1.000000 0.236000 0.248000 1100 41 0.900000 1.855000 1.849000 600 51 1.000000 0.052000 0.052000 1.200000 0.023000 0.027000
1517419970522240242	900 46 1.000000 0.239000 0.252000 1100 41 0.900000 1.854000 1.848000 600 51 1.000000 0.052000 0.052000 1.200000 0.032000 0.038000
1517419971032557617	900 46 1.000000 0.266000 0.279000 1100 41 0.900000 1.853000 1.845000 600 51 1.000000 0.052000 0.052000 1.200000 0.023000 0.027000
1517419971542774908	900 46 1.000000 0.239000 0.252000 1100 41 0.900000 1.855000 1.849000 600 51 1.000000 0.052000 0.052000 1.200000 0.025000 0.030000
1517419972052913950	900 46 1.000000 0.237000 0.250000 1100 41 0.900000 1.853000 1.847000 600 51 1.000000 0.052000 0.052000 1.200000 0.025000 0.030000
1517419972562927033	900 46 1.000000 0.237000 0.250000 1100 41 0.900000 1.854000 1.848000 600 51 1.000000 0.052000 0.052000 1.200000 0.024000 0.028000
1517419973072986159	900 46 1.000000 0.255000 0.268000 1100 41 0.900000 1.854000 1.848000 600 51 1.000000 0.052000 0.052000 1.200000 0.045000 0.054000
1517419973583124617	900 46 1.000000 0.235000 0.246000 1100 41 0.900000 1.853000 1.847000 600 51 1.000000 0.052000 0.052000 1.200000 0.023000 0.027000
1517419974093359659	900 46 1.000000 0.238000 0.251000 1100 41 0.900000 1.854000 1.848000 600 51 1.000000 0.052000 0.052000 1.200000 0.023000 0.027000
1517419974603413617	900 46 1.000000 0.237000 0.249000 1100 41 0.900000 1.853000 1.847000 600 51 1.000000 0.052000 0.052000 1.200000 0.023000 0.027000
1517419975122886325	900 46 1.000000 0.253000 0.266000 1100 41 0.900000 1.854000 1.848000 600 51 1.000000 0.052000 0.052000 1.200000 0.035000 0.042000
1517419975633205242	900 46 1.000000 0.235000 0.247000 1100 41 0.900000 1.854000 1.846000 600 51 1.000000 0.052000 0.052000 1.200000 0.023000 0.027000
1517419976143470409	900 46 1.000000 0.234000 0.245000 1100 41 0.900000 1.853000 1.845000 600 51 1.000000 0.052000 0.052000 1.200000 0.023000 0.027000
1517419976653651367	900 46 1.000000 0.238000 0.250000 1100 41 0.900000 1.854000 1.848000 600 51 1.000000 0.052000 0.052000 1.200000 0.025000 0.030000
1517419977175447576	900 46 1.000000 0.236000 0.248000 1100 41 0.900000 1.854000 1.848000 600 51 1.000000 0.052000 0.052000 1.200000 0.025000 0.030000
1517419977689831284	900 46 1.000000 0.277000 0.290000 1100 41 0.900000 1.852000 1.844000 600 51 1.000000 0.052000 0.052000 1.200000 0.048000 0.057000
1517419978200075909	900 46 1.000000 0.236000 0.247000 1100 41 0.900000 1.853000 1.847000 600 51 1.000000 0.052000 0.052000 1.200000 0.024000 0.028000
1517419978710061284	900 46 1.000000 0.236000 0.249000 1100 41 0.900000 1.854000 1.846000 600 51 1.000000 0.052000 0.052000 1.200000 0.025000 0.030000
1517419979220348951	900 46 1.000000 0.254000 0.267000 1100 41 0.900000 1.854000 1.846000 600 51 1.000000 0.052000 0.052000 1.200000 0.024000 0.028000
1517419979730234076	900 46 1.000000 0.274000 0.287000 1100 41 0.900000 1.850000 1.844000 600 51 1.000000 0.052000 0.052000 1.200000 0.039000 0.047000
1517419980240238493	900 46 1.000000 0.235000 0.247000 1100 41 0.900000 1.853000 1.847000 600 51 1.000000 0.052000 0.052000 1.200000 0.032000 0.038000
1517419980750361243	900 46 1.000000 0.238000 0.250000 1100 41 0.900000 1.852000 1.844000 600 51 1.000000 0.052000 0.052000 1.200000 0.025000 0.030000
1517419981260478701	900 46 1.000000 0.236000 0.247000 1100 41 0.900000 1.852000 1.844000 600 51 1.000000 0.052000 0.052000 1.200000 0.024000 0.028000
1517419981770451285	900 46 1.000000 0.237000 0.250000 1100 42 0.900000 1.853000 1.847000 600 51 1.000000 0.052000 0.052000 1.200000 0.030000 0.036000
1517419982280645535	900 46 1.000000 0.236000 0.249000 1100 41 0.900000 1.852000 1.844000 600 51 1.000000 0.052000 0.052000 1.200000 0.042000 0.050000
1517419982790619993	900 46 1.000000 0.235000 0.246000 1100 41 0.900000 1.852000 1.846000 600 51 1.000000 0.052000 0.052000 1.200000 0.025000 0.030000
1517419983300746743	900 46 1.000000 0.238000 0.251000 1100 41 0.900000 1.852000 1.846000 600 51 1.000000 0.052000 0.052000 1.200000 0.024000 0.028000
1517419983821261993	900 46 1.000000 0.245000 0.257000 1100 41 0.900000 1.852000 1.846000 600 51 1.000000 0.052000 0.052000 1.200000 0.026000 0.031000
1517419984336567660	900 46 1.000000 0.276000 0.289000 1100 41 0.900000 1.849000 1.841000 600 51 1.000000 0.052000 0.052000 1.200000 0.048000 0.057000
1517419984846622993	900 46 1.000000 0.239000 0.252000 1100 41 0.900000 1.851000 1.845000 600 51 1.000000 0.052000 0.052000 1.200000 0.024000 0.028000
1517419985356746702	900 46 1.000000 0.237000 0.250000 1100 41 0.900000 1.851000 1.845000 600 51 1.000000 0.052000 0.052000 1.200000 0.024000 0.028000
1517419985866749535	900 46 1.000000 0.235000 0.247000 1100 41 0.900000 1.852000 1.846000 600 51 1.000000 0.052000 0.052000 1.200000 0.026000 0.031000
1517419986376967660	900 46 1.000000 0.273000 0.286000 1100 41 0.900000 1.850000 1.844000 600 51 1.000000 0.052000 0.052000 1.200000 0.042000 0.050000
1517419986886893160	900 46 1.000000 0.235000 0.247000 1100 41 0.900000 1.851000 1.845000 600 51 1.000000 0.052000 0.052000 1.200000 0.024000 0.028000
1517419987396973160	900 46 1.000000 0.239000 0.252000 1100 41 0.900000 1.853000 1.847000 600 51 1.000000 0.052000 0.052000 1.200000 0.023000 0.027000
1517419987907057994	900 46 1.000000 0.236000 0.249000 1100 41 0.900000 1.852000 1.846000 600 51 1.000000 0.052000 0.052000 1.200000 0.024000 0.028000
1517419988417157785	900 47 1.000000 0.236000 0.249000 1100 41 0.900000 1.851000 1.845000 600 51 1.000000 0.052000 0.052000 1.200000 0.025000 0.030000
1517419988927212577	900 46 1.000000 0.238000 0.249000 1100 41 0.900000 1.852000 1.846000 600 51 1.000000 0.052000 0.052000 1.200000 0.040000 0.048000
1517419989453629702	900 46 1.000000 0.238000 0.251000 1100 41 0.900000 1.852000 1.846000 600 51 1.000000 0.052000 0.052000 1.200000 0.024000 0.028000
1517419989963816327	900 46 1.000000 0.254000 0.267000 1100 41 0.900000 1.851000 1.843000 600 51 1.000000 0.052000 0.052000 1.200000 0.033000 0.039000
1517419990487350619	900 46 1.000000 0.238000 0.250000 1100 41 0.900000 1.852000 1.846000 600 51 1.000000 0.052000 0.052000 1.200000 0.024000 0.028000
1517419990999437786	900 46 1.000000 0.274000 0.287000 1100 41 0.900000 1.850000 1.844000 600 51 1.000000 0.052000 0.052000 1.200000 0.049000 0.059000
1517419991531420327	900 46 1.000000 0.237000 0.249000 1100 41 0.900000 1.852000 1.844000 600 51 1.000000 0.052000 0.052000 1.200000 0.025000 0.030000
1517419992044494827	900 46 1.000000 0.256000 0.269000 1100 41 0.900000 1.851000 1.843000 600 51 1.000000 0.052000 0.052000 1.200000 0.032000 0.038000
1517419992554419286	900 46 1.000000 0.238000 0.250000 1100 41 0.900000 1.850000 1.844000 600 51 1.000000 0.052000 0.052000 1.200000 0.025000 0.030000
1517419993064627119	900 46 1.000000 0.274000 0.287000 1100 42 0.900000 1.848000 1.842000 600 51 1.000000 0.052000 0.052000 1.200000 0.044000 0.053000
1517419993591381661	900 46 1.000000 0.234000 0.246000 1100 42 0.900000 1.850000 1.844000 600 51 1.000000 0.052000 0.052000 1.200000 0.024000 0.028000
1517419994105826244	900 46 1.000000 0.235000 0.247000 1100 41 0.900000 1.853000 1.847000 600 51 1.000000 0.052000 0.052000 1.200000 0.033000 0.039000
1517419994616174161	900 46 1.000000 0.236000 0.249000 1100 41 0.900000 1.851000 1.845000 600 51 1.000000 0.052000 0.052000 1.200000 0.024000 0.028000
1517419995126319203	900 46 1.000000 0.273000 0.288000 1100 42 0.900000 1.849000 1.843000 600 51 1.000000 0.052000 0.052000 1.200000 0.036000 0.043000
1517419995638037120	900 46 1.000000 0.237000 0.249000 1100 41 0.900000 1.852000 1.846000 600 51 1.000000 0.052000 0.052000 1.200000 0.024000 0.028000
1517419996148464745	900 46 1.000000 0.254000 0.266000 1100 41 0.900000 1.854000 1.848000 600 51 1.000000 0.052000 0.052000 1.200000 0.027000 0.032000
1517419996658452120	900 46 1.000000 0.234000 0.245000 1100 42 0.900000 1.852000 1.846000 600 51 1.000000 0.052000 0.052000 1.200000 0.023000 0.027000
1517419997181880953	900 46 1.000000 0.235000 0.247000 1100 42 0.900000 1.852000 1.846000 600 51 1.000000 0.052000 0.052000 1.200000 0.025000 0.030000
1517419997697366370	900 47 1.000000 0.235000 0.247000 1100 41 0.900000 1.850000 1.844000 600 51 1.000000 0.052000 0.052000 1.200000 0.024000 0.028000
1517419998207577370	900 47 1.000000 0.242000 0.254000 1100 41 0.900000 1.853000 1.847000 600 51 1.000000 0.052000 0.052000 1.200000 0.024000 0.028000
1517419998717828287	900 46 1.000000 0.237000 0.248000 1100 41 0.900000 1.852000 1.846000 600 51 1.000000 0.052000 0.052000 1.200000 0.024000 0.028000
1517419999237177453	900 46 1.000000 0.236000 0.248000 1100 41 0.900000 1.851000 1.845000 600 51 1.000000 0.052000 0.052000 1.200000 0.025000 0.030000
1517419999752374412	900 46 1.000000 0.275000 0.288000 1100 41 0.900000 1.851000 1.845000 600 51 1.000000 0.052000 0.052000 1.200000 0.045000 0.054000
1517420000262353203	900 46 1.000000 0.256000 0.269000 1100 41 0.900000 1.850000 1.844000 600 51 1.000000 0.052000 0.052000 1.200000 0.032000 0.038000
1517420000772516078	900 46 1.000000 0.236000 0.248000 1100 41 0.900000 1.852000 1.846000 600 51 1.000000 0.052000 0.052000 1.200000 0.025000 0.030000
1517420001282670787	900 47 1.000000 0.234000 0.245000 1100 41 0.900000 1.852000 1.846000 600 51 1.000000 0.052000 0.052000 1.200000 0.025000 0.030000
1517420001792797079	900 46 1.000000 0.236000 0.248000 1100 42 0.900000 1.852000 1.846000 600 51 1.000000 0.052000 0.052000 1.200000 0.036000 0.043000
1517420002303046495	900 46 1.000000 0.239000 0.251000 1100 42 0.900000 1.853000 1.847000 600 51 1.000000 0.052000 0.052000 1.200000 0.031000 0.037000
1517420002813143287	900 47 1.000000 0.239000 0.252000 1100 42 0.900000 1.852000 1.846000 600 51 1.000000 0.052000 0.052000 1.200000 0.023000 0.027000
1517420003323290745	900 46 1.000000 0.236000 0.248000 1100 42 0.900000 1.853000 1.847000 600 51 1.000000 0.052000 0.052000 1.200000 0.023000 0.027000
1517420003833288579	900 47 1.000000 0.235000 0.246000 1100 42 0.900000 1.853000 1.847000 600 51 1.000000 0.052000 0.052000 1.200000 0.026000 0.031000
1517420004343532746	900 46 1.000000 0.256000 0.269000 1100 42 0.900000 1.853000 1.847000 600 51 1.000000 0.052000 0.052000 1.200000 0.031000 0.037000
1517420004853596162	900 46 1.000000 0.235000 0.247000 1100 41 0.900000 1.852000 1.846000 600 51 1.000000 0.052000 0.052000 1.200000 0.023000 0.027000
1517420005363628329	900 46 1.000000 0.235000 0.247000 1100 42 0.900000 1.851000 1.845000 600 51 1.000000 0.052000 0.052000 1.200000 0.023000 0.027000
1517420005887484121	900 46 1.000000 0.235000 0.248000 1100 42 0.900000 1.853000 1.847000 600 51 1.000000 0.052000 0.052000 1.200000 0.023000 0.027000
1517420006397738746	900 47 1.000000 0.253000 0.265000 1100 42 0.900000 1.853000 1.847000 600 51 1.000000 0.052000 0.052000 1.200000 0.031000 0.037000
1517420006907707621	900 46 1.000000 0.235000 0.248000 1100 42 0.900000 1.854000 1.848000 600 51 1.000000 0.052000 0.052000 1.200000 0.023000 0.027000
1517420007417785163	900 47 1.000000 0.234000 0.245000 1100 42 0.900000 1.852000 1.846000 600 51 1.000000 0.052000 0.052000 1.200000 0.024000 0.028000
1517420007927793204	900 47 1.000000 0.235000 0.247000 1100 42 0.900000 1.853000 1.847000 600 51 1.000000 0.052000 0.052000 1.200000 0.024000 0.028000
1517420008437779746	900 47 1.000000 0.237000 0.250000 1100 42 0.900000 1.852000 1.846000 600 51 1.000000 0.052000 0.052000 1.200000 0.039000 0.047000
1517420008948067496	900 46 1.000000 0.252000 0.264000 1100 42 0.900000 1.852000 1.846000 600 51 1.000000 0.052000 0.052000 1.200000 0.025000 0.030000
1517420009458110955	900 47 1.000000 0.237000 0.250000 1100 41 0.900000 1.853000 1.847000 600 51 1.000000 0.052000 0.052000 1.200000 0.023000 0.027000
1517420009968413371	900 46 1.000000 0.238000 0.251000 1100 42 0.900000 1.852000 1.846000 600 51 1.000000 0.052000 0.052000 1.200000 0.023000 0.027000
1517420010491215246	900 47 1.000000 0.236000 0.248000 1100 42 0.900000 1.852000 1.846000 600 51 1.000000 0.052000 0.052000 1.200000 0.024000 0.028000
1517420011002841705	900 46 1.000000 0.259000 0.271000 1100 42 0.900000 1.849000 1.843000 600 51 1.000000 0.052000 0.052000 1.200000 0.026000 0.031000
1517420011513102496	900 46 1.000000 0.235000 0.246000 1100 42 0.900000 1.852000 1.846000 600 51 1.000000 0.052000 0.052000 1.200000 0.023000 0.027000
1517420012023129913	900 47 1.000000 0.234000 0.245000 1100 42 0.900000 1.852000 1.846000 600 51 1.000000 0.052000 0.052000 1.200000 0.023000 0.027000
1517420012533075080	900 47 1.000000 0.236000 0.249000 1100 42 0.900000 1.852000 1.846000 600 51 1.000000 0.052000 0.052000 1.200000 0.026000 0.031000
1517420013043304955	900 47 1.000000 0.260000 0.273000 1100 42 0.900000 1.849000 1.843000 600 51 1.000000 0.052000 0.052000 1.200000 0.035000 0.042000
1517420013553337705	900 47 1.000000 0.235000 0.247000 1100 42 0.900000 1.853000 1.847000 600 51 1.000000 0.052000 0.052000 1.200000 0.023000 0.027000
1517420014063632580	900 47 1.000000 0.236000 0.248000 1100 42 0.900000 1.852000 1.846000 600 51 1.000000 0.052000 0.052000 1.200000 0.023000 0.027000
1517420014573702830	900 47 1.000000 0.235000 0.246000 1100 42 0.900000 1.848000 1.840000 600 51 1.000000 0.052000 0.052000 1.200000 0.030000 0.036000
1517420015083872580	900 47 1.000000 0.252000 0.265000 1100 42 0.900000 1.845000 1.839000 600 51 1.000000 0.052000 0.052000 1.200000 0.044000 0.053000
1517420015593853622	900 43 1.000000 0.255000 0.267000 1100 41 0.900000 1.830000 1.824000 600 47 1.000000 0.052000 0.052000 1.200000 0.025000 0.030000
1517420016103850080	900 41 1.000000 0.173000 0.183000 1100 40 0.900000 0.543000 0.538000 600 45 1.000000 0.052000 0.052000 1.200000 0.024000 0.028000
1517420016615344872	900 40 1.000000 0.175000 0.185000 1100 39 1.000000 0.155000 0.155000 600 43 1.000000 0.052000 0.052000 1.200000 0.023000 0.027000
1517420017138817914	900 39 1.000000 0.192000 0.202000 1100 38 1.000000 0.133000 0.133000 600 43 1.000000 0.052000 0.052000 1.200000 0.030000 0.036000
1517420017650393497	900 42 1.000000 0.124000 0.131000 1100 38 0.900000 0.318000 0.317000 600 42 1.000000 0.051000 0.051000 1.200000 0.048000 0.057000
1517420018160109372	900 41 1.000000 0.043000 0.045000 1100 38 0.900000 0.697000 0.690000 600 42 1.000000 0.051000 0.051000 1.200000 0.032000 0.038000
1517420018691816206	900 41 1.000000 0.042000 0.044000 1100 38 0.900000 0.695000 0.688000 600 42 1.000000 0.051000 0.051000 1.200000 0.033000 0.039000
1517420019215684581	900 38 1.000000 0.051000 0.054000 1100 37 0.900000 0.524000 0.521000 600 41 1.000000 0.051000 0.051000 1.200000 0.039000 0.047000
1517420019730604789	900 37 1.000000 0.074000 0.078000 1100 36 1.000000 0.167000 0.167000 600 41 1.000000 0.051000 0.051000 1.200000 0.038000 0.045000
