#Timestamp	CPU(0) Frequency(MHz)	CPU(0) Temperature(C)	A7 Voltage(V)	A7 Current(A)	A7 Power(W)	CPU(4) Frequency(MHz)	CPU(4) Temperature(C)	A15 Voltage(V)	A15 Current(A)	A15 Power(W)	GPU Frequency(MHz)	GPU Temperature(C)	GPU Voltage(V)	GPU Current(A)	GPU Power(W)	RAM Voltage(V)	RAM Current(A)	RAM Power(W)
1553303827852384291	200 34 0.900000 0.014000 0.012000 400 32 0.900000 0.295000 0.268000 600 37 1.000000 0.050000 0.050000 1.200000 0.040000 0.048000
1553303828371126333	200 34 0.900000 0.011000 0.010000 400 32 0.900000 0.250000 0.227000 600 37 1.000000 0.050000 0.050000 1.200000 0.030000 0.036000
1553303828888798000	200 34 0.900000 0.011000 0.010000 400 32 0.900000 0.249000 0.226000 600 37 1.000000 0.051000 0.051000 1.200000 0.030000 0.036000
1553303829409155250	200 34 0.900000 0.011000 0.010000 400 32 0.900000 0.249000 0.226000 600 37 1.000000 0.051000 0.051000 1.200000 0.030000 0.036000
1553303829926086958	200 34 0.900000 0.014000 0.012000 400 32 0.900000 0.396000 0.360000 600 37 1.000000 0.050000 0.050000 1.200000 0.045000 0.054000
1553303830442977750	200 34 0.900000 0.034000 0.031000 400 32 0.900000 0.251000 0.228000 600 37 1.000000 0.051000 0.051000 1.200000 0.029000 0.035000
1553303830959183917	200 34 0.900000 0.063000 0.057000 400 32 0.900000 0.225000 0.204000 600 37 1.000000 0.050000 0.050000 1.200000 0.025000 0.030000
1553303831475497625	200 34 0.900000 0.063000 0.057000 400 32 0.900000 0.224000 0.204000 600 36 1.000000 0.051000 0.051000 1.200000 0.026000 0.031000
1553303831993626208	200 34 0.900000 0.063000 0.057000 400 32 0.900000 0.232000 0.211000 600 37 1.000000 0.051000 0.051000 1.200000 0.032000 0.038000
1553303832511785667	200 34 0.900000 0.063000 0.057000 400 32 0.900000 0.361000 0.328000 600 37 1.000000 0.050000 0.050000 1.200000 0.034000 0.041000
1553303833028029459	200 34 0.900000 0.063000 0.057000 400 32 0.900000 0.225000 0.205000 600 36 1.000000 0.051000 0.051000 1.200000 0.026000 0.031000
1553303833544586875	200 34 0.900000 0.063000 0.057000 400 32 0.900000 0.226000 0.206000 600 36 1.000000 0.051000 0.051000 1.200000 0.027000 0.032000
1553303834061680709	200 34 0.900000 0.063000 0.057000 400 32 0.900000 0.233000 0.212000 600 37 1.000000 0.051000 0.051000 1.200000 0.032000 0.038000
1553303834578304375	200 34 0.900000 0.063000 0.057000 400 32 0.900000 0.275000 0.250000 600 37 1.000000 0.051000 0.051000 1.200000 0.034000 0.041000
1553303835094634625	200 34 0.900000 0.063000 0.057000 400 32 0.900000 0.226000 0.205000 600 36 1.000000 0.051000 0.051000 1.200000 0.027000 0.032000
1553303835610762542	200 34 0.900000 0.063000 0.057000 400 32 0.900000 0.227000 0.206000 600 36 1.000000 0.050000 0.050000 1.200000 0.027000 0.032000
1553303836127142334	200 34 0.900000 0.063000 0.057000 400 32 0.900000 0.230000 0.209000 600 36 1.000000 0.051000 0.051000 1.200000 0.033000 0.039000
1553303836644318959	200 34 0.900000 0.063000 0.057000 400 32 0.900000 0.226000 0.206000 600 37 1.000000 0.050000 0.050000 1.200000 0.028000 0.033000
1553303837161152959	200 34 0.900000 0.063000 0.057000 400 32 0.900000 0.292000 0.266000 600 37 1.000000 0.051000 0.051000 1.200000 0.027000 0.032000
1553303837677457751	200 34 0.900000 0.063000 0.057000 400 32 0.900000 0.226000 0.205000 600 36 1.000000 0.050000 0.050000 1.200000 0.025000 0.030000
1553303838193718209	200 34 0.900000 0.063000 0.057000 400 32 0.900000 0.231000 0.210000 600 36 1.000000 0.051000 0.051000 1.200000 0.033000 0.039000
1553303838713391209	200 34 0.900000 0.063000 0.057000 400 32 0.900000 0.226000 0.205000 600 36 1.000000 0.050000 0.050000 1.200000 0.026000 0.031000
1553303839231488793	200 34 0.900000 0.063000 0.057000 400 32 0.900000 0.361000 0.328000 600 36 1.000000 0.051000 0.051000 1.200000 0.034000 0.041000
1553303839747806751	200 34 0.900000 0.063000 0.057000 400 32 0.900000 0.225000 0.205000 600 36 1.000000 0.051000 0.051000 1.200000 0.026000 0.031000
1553303840264137293	200 34 0.900000 0.063000 0.057000 400 32 0.900000 0.226000 0.205000 600 36 1.000000 0.050000 0.050000 1.200000 0.031000 0.037000
1553303840780632543	200 34 0.900000 0.063000 0.057000 400 32 0.900000 0.218000 0.198000 600 36 1.000000 0.050000 0.050000 1.200000 0.026000 0.031000
1553303841297897418	200 34 0.900000 0.063000 0.057000 400 32 0.900000 0.259000 0.235000 600 37 1.000000 0.050000 0.050000 1.200000 0.032000 0.038000
1553303841814002960	200 34 0.900000 0.063000 0.057000 400 32 0.900000 0.216000 0.196000 600 36 1.000000 0.050000 0.050000 1.200000 0.026000 0.031000
1553303842330542710	200 34 0.900000 0.063000 0.057000 400 32 0.900000 0.216000 0.196000 600 37 1.000000 0.050000 0.050000 1.200000 0.031000 0.037000
1553303842846498793	200 33 0.900000 0.063000 0.057000 400 32 0.900000 0.058000 0.052000 600 36 1.000000 0.051000 0.051000 1.200000 0.025000 0.030000
1553303843364070210	200 32 0.900000 0.063000 0.057000 400 32 0.900000 0.057000 0.051000 600 36 1.000000 0.050000 0.050000 1.200000 0.025000 0.030000
1553303843881000460	200 32 0.900000 0.063000 0.057000 400 32 0.900000 0.157000 0.143000 600 36 1.000000 0.050000 0.050000 1.200000 0.035000 0.042000
1553303844397256668	200 32 0.900000 0.063000 0.057000 400 32 0.900000 0.067000 0.061000 600 36 1.000000 0.051000 0.051000 1.200000 0.025000 0.030000
1553303844912953335	200 32 0.900000 0.063000 0.057000 400 32 0.900000 0.148000 0.134000 600 36 1.000000 0.051000 0.051000 1.200000 0.027000 0.032000
1553303845429044793	200 32 0.900000 0.063000 0.057000 400 32 0.900000 0.067000 0.061000 600 36 1.000000 0.050000 0.050000 1.200000 0.026000 0.031000
1553303845945092835	200 32 0.900000 0.063000 0.057000 400 32 0.900000 0.067000 0.061000 600 36 1.000000 0.050000 0.050000 1.200000 0.028000 0.033000
1553303846461763169	200 32 0.900000 0.063000 0.057000 400 32 0.900000 0.109000 0.099000 600 36 1.000000 0.050000 0.050000 1.200000 0.025000 0.030000
1553303846978446877	200 32 0.900000 0.063000 0.057000 400 32 0.900000 0.141000 0.128000 600 36 1.000000 0.050000 0.050000 1.200000 0.026000 0.031000
1553303847494119252	200 32 0.900000 0.063000 0.057000 400 31 0.900000 0.067000 0.061000 600 35 1.000000 0.050000 0.050000 1.200000 0.025000 0.030000
1553303848012305460	200 32 0.900000 0.063000 0.057000 400 31 0.900000 0.066000 0.060000 600 36 1.000000 0.050000 0.050000 1.200000 0.025000 0.030000
1553303848529696502	200 32 0.900000 0.063000 0.057000 400 31 0.900000 0.216000 0.196000 600 36 1.000000 0.050000 0.050000 1.200000 0.028000 0.033000
1553303849045816585	200 32 0.900000 0.063000 0.057000 400 31 0.900000 0.140000 0.127000 600 35 1.000000 0.051000 0.051000 1.200000 0.027000 0.032000
1553303849561712169	200 32 0.900000 0.063000 0.057000 400 31 0.900000 0.065000 0.059000 600 35 1.000000 0.051000 0.051000 1.200000 0.024000 0.028000
1553303850077426419	200 32 0.900000 0.063000 0.057000 400 31 0.900000 0.058000 0.052000 600 35 1.000000 0.050000 0.050000 1.200000 0.025000 0.030000
1553303850593124002	200 32 0.900000 0.063000 0.057000 400 31 0.900000 0.143000 0.130000 600 36 1.000000 0.050000 0.050000 1.200000 0.032000 0.038000
1553303851109499752	200 32 0.900000 0.063000 0.057000 400 31 0.900000 0.139000 0.126000 600 36 1.000000 0.051000 0.051000 1.200000 0.027000 0.032000
1553303851625211586	200 32 0.900000 0.063000 0.057000 400 31 0.900000 0.055000 0.050000 600 35 1.000000 0.050000 0.050000 1.200000 0.025000 0.030000
1553303852140949586	200 32 0.900000 0.063000 0.057000 400 31 0.900000 0.055000 0.050000 600 35 1.000000 0.050000 0.050000 1.200000 0.025000 0.030000
1553303852658123419	200 32 0.900000 0.063000 0.057000 400 31 0.900000 0.056000 0.051000 600 36 1.000000 0.050000 0.050000 1.200000 0.025000 0.030000
1553303853174552878	200 32 0.900000 0.063000 0.057000 400 31 0.900000 0.180000 0.164000 600 35 1.000000 0.051000 0.051000 1.200000 0.037000 0.044000
1553303853690387794	200 32 0.900000 0.063000 0.057000 400 31 0.900000 0.057000 0.051000 600 35 1.000000 0.051000 0.051000 1.200000 0.026000 0.031000
1553303854206103419	200 32 0.900000 0.063000 0.057000 400 31 0.900000 0.054000 0.049000 600 35 1.000000 0.050000 0.050000 1.200000 0.025000 0.030000
1553303854721733211	200 32 0.900000 0.063000 0.057000 400 31 0.900000 0.056000 0.051000 600 35 1.000000 0.051000 0.051000 1.200000 0.025000 0.030000
1553303855237772336	200 32 0.900000 0.063000 0.057000 400 31 0.900000 0.279000 0.254000 600 35 1.000000 0.050000 0.050000 1.200000 0.032000 0.038000
1553303855753627711	200 32 0.900000 0.063000 0.057000 400 31 0.900000 0.082000 0.074000 600 35 1.000000 0.051000 0.051000 1.200000 0.036000 0.043000
1553303856269370336	200 32 0.900000 0.063000 0.057000 400 31 0.900000 0.067000 0.061000 600 35 1.000000 0.051000 0.051000 1.200000 0.026000 0.031000
1553303856785112086	200 32 0.900000 0.063000 0.057000 400 31 0.900000 0.064000 0.058000 600 35 1.000000 0.050000 0.050000 1.200000 0.025000 0.030000
1553303857302189336	200 32 0.900000 0.063000 0.057000 400 31 0.900000 0.066000 0.060000 600 36 1.000000 0.050000 0.050000 1.200000 0.025000 0.030000
1553303857818223795	200 32 0.900000 0.063000 0.057000 400 31 0.900000 0.188000 0.171000 600 35 1.000000 0.050000 0.050000 1.200000 0.038000 0.045000
1553303858334222337	200 32 0.900000 0.063000 0.057000 400 31 0.900000 0.067000 0.061000 600 35 1.000000 0.051000 0.051000 1.200000 0.025000 0.030000
1553303858850104295	200 32 0.900000 0.063000 0.057000 400 31 0.900000 0.064000 0.058000 600 35 1.000000 0.050000 0.050000 1.200000 0.026000 0.031000
1553303859366061503	200 32 0.900000 0.063000 0.057000 400 31 0.900000 0.056000 0.051000 600 36 1.000000 0.050000 0.050000 1.200000 0.025000 0.030000
1553303859882374420	200 32 0.900000 0.063000 0.057000 400 31 0.900000 0.174000 0.158000 600 35 1.000000 0.050000 0.050000 1.200000 0.030000 0.036000
1553303860398219712	200 32 0.900000 0.063000 0.057000 400 31 0.900000 0.057000 0.051000 600 35 1.000000 0.051000 0.051000 1.200000 0.026000 0.031000
1553303860913827379	200 32 0.900000 0.063000 0.057000 400 31 0.900000 0.057000 0.051000 600 35 1.000000 0.051000 0.051000 1.200000 0.025000 0.030000
1553303861430263045	200 32 0.900000 0.063000 0.057000 400 31 0.900000 0.055000 0.050000 600 36 1.000000 0.051000 0.051000 1.200000 0.026000 0.031000
1553303861952024379	200 32 0.900000 0.063000 0.057000 400 31 0.900000 0.063000 0.057000 600 36 1.000000 0.050000 0.050000 1.200000 0.030000 0.036000
1553303862468083879	200 32 0.900000 0.063000 0.057000 400 31 0.900000 0.078000 0.071000 600 35 1.000000 0.050000 0.050000 1.200000 0.030000 0.036000
1553303862984103670	200 32 0.900000 0.063000 0.057000 400 31 0.900000 0.057000 0.051000 600 35 1.000000 0.051000 0.051000 1.200000 0.026000 0.031000
1553303863503456504	200 31 0.900000 0.063000 0.057000 400 31 0.900000 0.057000 0.051000 600 36 1.000000 0.050000 0.050000 1.200000 0.026000 0.031000
1553303864019946004	200 32 0.900000 0.063000 0.057000 400 31 0.900000 0.054000 0.049000 600 35 1.000000 0.050000 0.050000 1.200000 0.031000 0.037000
1553303864536221171	200 32 0.900000 0.063000 0.057000 400 31 0.900000 0.189000 0.172000 600 35 1.000000 0.050000 0.050000 1.200000 0.031000 0.037000
1553303865052113796	200 31 0.900000 0.063000 0.057000 400 31 0.900000 0.057000 0.051000 600 35 1.000000 0.050000 0.050000 1.200000 0.025000 0.030000
1553303865567978129	200 31 0.900000 0.063000 0.057000 400 31 0.900000 0.056000 0.051000 600 35 1.000000 0.050000 0.050000 1.200000 0.025000 0.030000
1553303866084235004	200 31 0.900000 0.063000 0.057000 400 31 0.900000 0.148000 0.134000 600 35 1.000000 0.051000 0.051000 1.200000 0.029000 0.035000
1553303866601873004	200 32 0.900000 0.063000 0.057000 400 31 0.900000 0.066000 0.060000 600 35 1.000000 0.050000 0.050000 1.200000 0.025000 0.030000
1553303867118116129	200 31 0.900000 0.063000 0.057000 400 31 0.900000 0.147000 0.134000 600 35 1.000000 0.050000 0.050000 1.200000 0.026000 0.031000
1553303867634018338	200 31 0.900000 0.063000 0.057000 400 31 0.900000 0.067000 0.061000 600 35 1.000000 0.051000 0.051000 1.200000 0.024000 0.028000
1553303868150247421	200 31 0.900000 0.063000 0.057000 400 31 0.900000 0.058000 0.052000 600 35 1.000000 0.050000 0.050000 1.200000 0.027000 0.032000
1553303868666356421	200 31 0.900000 0.063000 0.057000 400 31 0.900000 0.064000 0.058000 600 35 1.000000 0.050000 0.050000 1.200000 0.025000 0.030000
1553303869182726296	200 31 0.900000 0.063000 0.057000 400 31 0.900000 0.068000 0.062000 600 35 1.000000 0.050000 0.050000 1.200000 0.029000 0.035000
1553303869698690088	200 31 0.900000 0.063000 0.057000 400 31 0.900000 0.099000 0.090000 600 35 1.000000 0.050000 0.050000 1.200000 0.026000 0.031000
1553303870214766046	200 31 0.900000 0.063000 0.057000 400 31 0.900000 0.067000 0.061000 600 35 1.000000 0.050000 0.050000 1.200000 0.026000 0.031000
1553303870730721046	200 31 0.900000 0.063000 0.057000 400 31 0.900000 0.067000 0.061000 600 35 1.000000 0.050000 0.050000 1.200000 0.026000 0.031000
1553303871248240046	200 31 0.900000 0.063000 0.057000 400 31 0.900000 0.066000 0.060000 600 35 1.000000 0.050000 0.050000 1.200000 0.026000 0.031000
1553303871764806838	200 31 0.900000 0.063000 0.057000 400 31 0.900000 0.206000 0.187000 600 35 1.000000 0.050000 0.050000 1.200000 0.030000 0.036000
1553303872281222713	200 31 0.900000 0.063000 0.057000 400 31 0.900000 0.067000 0.061000 600 35 1.000000 0.050000 0.050000 1.200000 0.027000 0.032000
1553303872797175713	200 31 0.900000 0.063000 0.057000 400 31 0.900000 0.068000 0.062000 600 35 1.000000 0.050000 0.050000 1.200000 0.026000 0.031000
1553303873313789630	200 31 0.900000 0.063000 0.057000 400 31 0.900000 0.066000 0.060000 600 35 1.000000 0.051000 0.051000 1.200000 0.025000 0.030000
1553303873829810922	200 31 0.900000 0.056000 0.051000 400 31 0.900000 0.160000 0.145000 600 35 1.000000 0.050000 0.050000 1.200000 0.031000 0.037000
1553303874347640380	200 32 0.900000 0.017000 0.015000 400 31 0.900000 0.124000 0.113000 600 35 1.000000 0.050000 0.050000 1.200000 0.028000 0.033000
1553303874866077755	200 32 0.900000 0.011000 0.010000 400 31 0.900000 0.263000 0.239000 600 35 1.000000 0.050000 0.050000 1.200000 0.025000 0.030000
1553303875384680339	200 32 0.900000 0.011000 0.010000 400 31 0.900000 0.266000 0.242000 600 35 1.000000 0.050000 0.050000 1.200000 0.026000 0.031000
1553303875906354464	200 33 0.900000 0.012000 0.010000 400 31 0.900000 0.266000 0.242000 600 36 1.000000 0.050000 0.050000 1.200000 0.030000 0.036000
1553303876424875380	200 33 0.900000 0.012000 0.010000 400 31 0.900000 0.312000 0.284000 600 36 1.000000 0.050000 0.050000 1.200000 0.027000 0.032000
1553303876942938839	200 33 0.900000 0.011000 0.010000 400 31 0.900000 0.264000 0.240000 600 35 1.000000 0.050000 0.050000 1.200000 0.025000 0.030000
1553303877461364589	200 33 0.900000 0.011000 0.010000 400 31 0.900000 0.268000 0.244000 600 35 1.000000 0.051000 0.051000 1.200000 0.025000 0.030000
1553303877981435631	200 33 0.900000 0.011000 0.010000 400 31 0.900000 0.265000 0.241000 600 35 1.000000 0.050000 0.050000 1.200000 0.025000 0.030000
1553303878503552672	200 33 0.900000 0.014000 0.012000 400 31 0.900000 0.372000 0.338000 600 36 1.000000 0.050000 0.050000 1.200000 0.041000 0.049000
1553303879021851922	200 33 0.900000 0.010000 0.009000 400 31 0.900000 0.267000 0.243000 600 36 1.000000 0.050000 0.050000 1.200000 0.030000 0.036000
1553303879540078547	200 33 0.900000 0.010000 0.009000 400 31 0.900000 0.257000 0.234000 600 35 1.000000 0.051000 0.051000 1.200000 0.025000 0.030000
1553303880058411339	200 33 0.900000 0.011000 0.010000 400 31 0.900000 0.259000 0.235000 600 36 1.000000 0.050000 0.050000 1.200000 0.025000 0.030000
1553303880589925464	200 33 0.900000 0.012000 0.010000 400 31 0.900000 0.280000 0.255000 600 36 1.000000 0.050000 0.050000 1.200000 0.035000 0.042000
1553303881109036006	200 33 0.900000 0.011000 0.010000 400 31 0.900000 0.288000 0.262000 600 36 1.000000 0.051000 0.051000 1.200000 0.025000 0.030000
1553303881627332048	200 33 0.900000 0.011000 0.010000 400 31 0.900000 0.258000 0.235000 600 36 1.000000 0.050000 0.050000 1.200000 0.026000 0.031000
1553303882145599131	200 33 0.900000 0.011000 0.010000 400 31 0.900000 0.259000 0.235000 600 35 1.000000 0.051000 0.051000 1.200000 0.025000 0.030000
1553303882666584381	200 33 0.900000 0.011000 0.010000 400 31 0.900000 0.266000 0.242000 600 35 1.000000 0.051000 0.051000 1.200000 0.027000 0.032000
1553303883185491298	200 33 0.900000 0.014000 0.012000 400 31 0.900000 0.339000 0.308000 600 36 1.000000 0.050000 0.050000 1.200000 0.045000 0.054000
1553303883703893840	200 33 0.900000 0.013000 0.011000 400 31 0.900000 0.275000 0.250000 600 36 1.000000 0.050000 0.050000 1.200000 0.027000 0.032000
1553303884222145798	200 33 0.900000 0.011000 0.010000 400 31 0.900000 0.265000 0.241000 600 35 1.000000 0.050000 0.050000 1.200000 0.027000 0.032000
1553303884739022215	200 33 0.900000 0.011000 0.010000 400 31 0.900000 0.265000 0.241000 600 36 1.000000 0.050000 0.050000 1.200000 0.027000 0.032000
1553303885258952131	200 33 0.900000 0.011000 0.010000 400 31 0.900000 0.303000 0.276000 600 36 1.000000 0.050000 0.050000 1.200000 0.037000 0.044000
1553303885776257048	200 33 0.900000 0.015000 0.013000 400 31 0.900000 0.365000 0.332000 600 35 1.000000 0.050000 0.050000 1.200000 0.035000 0.042000
1553303886293344673	200 33 0.900000 0.011000 0.010000 400 31 0.900000 0.266000 0.242000 600 36 1.000000 0.050000 0.050000 1.200000 0.026000 0.031000
1553303886809892340	200 33 0.900000 0.011000 0.010000 400 31 0.900000 0.267000 0.243000 600 35 1.000000 0.050000 0.050000 1.200000 0.025000 0.030000
1553303887326921882	200 33 0.900000 0.012000 0.010000 400 31 0.900000 0.301000 0.274000 600 36 1.000000 0.050000 0.050000 1.200000 0.036000 0.043000
1553303887844192132	200 33 0.900000 0.014000 0.012000 400 31 0.900000 0.350000 0.318000 600 36 1.000000 0.050000 0.050000 1.200000 0.043000 0.051000
1553303888360991424	200 33 0.900000 0.010000 0.009000 400 31 0.900000 0.268000 0.244000 600 35 1.000000 0.050000 0.050000 1.200000 0.024000 0.028000
1553303888877794007	200 33 0.900000 0.010000 0.009000 400 31 0.900000 0.266000 0.242000 600 35 1.000000 0.050000 0.050000 1.200000 0.025000 0.030000
1553303889394647632	200 33 0.900000 0.011000 0.010000 400 31 0.900000 0.295000 0.268000 600 36 1.000000 0.051000 0.051000 1.200000 0.035000 0.042000
1553303889915039507	200 33 0.900000 0.011000 0.010000 400 31 0.900000 0.260000 0.236000 600 36 1.000000 0.051000 0.051000 1.200000 0.030000 0.036000
1553303890432474090	200 33 0.900000 0.013000 0.011000 400 31 0.900000 0.292000 0.266000 600 35 1.000000 0.050000 0.050000 1.200000 0.025000 0.030000
1553303890949281549	200 33 0.900000 0.011000 0.010000 400 31 0.900000 0.258000 0.235000 600 36 1.000000 0.050000 0.050000 1.200000 0.025000 0.030000
1553303891466625716	200 33 0.900000 0.011000 0.010000 400 31 0.900000 0.289000 0.263000 600 36 1.000000 0.050000 0.050000 1.200000 0.036000 0.043000
1553303891983354216	200 33 0.900000 0.011000 0.010000 400 31 0.900000 0.260000 0.236000 600 36 1.000000 0.050000 0.050000 1.200000 0.025000 0.030000
1553303892501307841	200 32 0.900000 0.014000 0.012000 400 31 0.900000 0.354000 0.322000 600 36 1.000000 0.050000 0.050000 1.200000 0.045000 0.054000
1553303893018704091	200 31 0.900000 0.010000 0.009000 400 31 0.900000 0.052000 0.047000 600 35 1.000000 0.050000 0.050000 1.200000 0.029000 0.035000
