#Timestamp	CPU(0) Frequency(MHz)	CPU(0) Temperature(C)	A7 Voltage(V)	A7 Current(A)	A7 Power(W)	CPU(4) Frequency(MHz)	CPU(4) Temperature(C)	A15 Voltage(V)	A15 Current(A)	A15 Power(W)	GPU Frequency(MHz)	GPU Temperature(C)	GPU Voltage(V)	GPU Current(A)	GPU Power(W)	RAM Voltage(V)	RAM Current(A)	RAM Power(W)
1553302817714265796	1100 34 1.100000 0.051000 0.057000 500 32 0.900000 0.206000 0.198000 600 36 1.000000 0.050000 0.050000 1.200000 0.029000 0.035000
1553302818228137921	1100 34 1.100000 0.052000 0.059000 500 32 0.900000 0.299000 0.272000 600 36 1.000000 0.050000 0.050000 1.200000 0.031000 0.037000
1553302818740916379	1100 34 1.100000 0.056000 0.063000 500 32 0.900000 0.311000 0.283000 600 36 1.000000 0.050000 0.050000 1.200000 0.033000 0.039000
1553302819253776004	1100 34 1.100000 0.053000 0.060000 500 32 0.900000 0.306000 0.278000 600 36 1.000000 0.050000 0.050000 1.200000 0.031000 0.037000
1553302819766412879	1100 35 1.100000 0.051000 0.057000 500 33 0.900000 0.304000 0.276000 600 38 1.000000 0.050000 0.050000 1.200000 0.031000 0.037000
1553302820278963338	1100 36 1.100000 0.408000 0.457000 500 33 0.900000 0.624000 0.567000 600 38 1.000000 0.050000 0.050000 1.200000 0.033000 0.039000
1553302820791110921	1100 36 1.100000 0.408000 0.457000 500 34 0.900000 0.624000 0.567000 600 39 1.000000 0.051000 0.051000 1.200000 0.034000 0.041000
1553302821303496713	1100 36 1.100000 0.409000 0.458000 500 34 0.900000 0.670000 0.609000 600 39 1.000000 0.050000 0.050000 1.200000 0.035000 0.042000
1553302821816171338	1100 37 1.100000 0.408000 0.457000 500 34 0.900000 0.624000 0.567000 600 39 1.000000 0.051000 0.051000 1.200000 0.033000 0.039000
1553302822328596546	1100 37 1.100000 0.408000 0.457000 500 34 0.900000 0.624000 0.567000 600 39 1.000000 0.051000 0.051000 1.200000 0.033000 0.039000
1553302822849750088	1100 37 1.100000 0.408000 0.457000 500 35 0.900000 0.625000 0.568000 600 39 1.000000 0.051000 0.051000 1.200000 0.033000 0.039000
1553302823368197713	1100 37 1.100000 0.410000 0.459000 500 35 0.900000 0.738000 0.671000 600 40 1.000000 0.051000 0.051000 1.200000 0.038000 0.045000
1553302823880659338	1100 37 1.100000 0.408000 0.457000 500 35 0.900000 0.628000 0.571000 600 40 1.000000 0.051000 0.051000 1.200000 0.033000 0.039000
1553302824393457255	1100 37 1.100000 0.408000 0.457000 500 35 0.900000 0.620000 0.564000 600 40 1.000000 0.051000 0.051000 1.200000 0.033000 0.039000
1553302824906304505	1100 37 1.100000 0.408000 0.457000 500 35 0.900000 0.620000 0.564000 600 40 1.000000 0.051000 0.051000 1.200000 0.033000 0.039000
1553302825418502755	1100 36 1.100000 0.165000 0.186000 500 34 0.900000 0.624000 0.567000 600 40 1.000000 0.051000 0.051000 1.200000 0.033000 0.039000
1553302825930821297	1100 36 1.100000 0.053000 0.060000 500 34 0.900000 0.707000 0.643000 600 40 1.000000 0.051000 0.051000 1.200000 0.034000 0.041000
1553302826444928089	1100 35 1.100000 0.053000 0.060000 500 33 0.900000 0.626000 0.569000 600 39 1.000000 0.051000 0.051000 1.200000 0.027000 0.032000
1553302826958759380	1100 35 1.100000 0.053000 0.060000 500 33 0.900000 0.403000 0.367000 600 38 1.000000 0.051000 0.051000 1.200000 0.030000 0.036000
1553302827510921464	1100 35 1.100000 0.052000 0.059000 500 33 0.900000 0.320000 0.291000 600 38 1.000000 0.051000 0.051000 1.200000 0.026000 0.031000
1553302828024976589	1100 35 1.100000 0.057000 0.064000 500 33 0.900000 0.455000 0.414000 600 37 1.000000 0.051000 0.051000 1.200000 0.043000 0.051000
1553302828538978214	1100 35 1.100000 0.052000 0.059000 500 33 0.900000 0.318000 0.289000 600 37 1.000000 0.051000 0.051000 1.200000 0.026000 0.031000
1553302829052863797	1100 34 1.100000 0.052000 0.059000 500 33 0.900000 0.318000 0.289000 600 37 1.000000 0.051000 0.051000 1.200000 0.027000 0.032000
1553302829592483047	1100 34 1.100000 0.052000 0.059000 500 32 0.900000 0.321000 0.292000 600 37 1.000000 0.051000 0.051000 1.200000 0.027000 0.032000
1553302830109018589	1100 34 1.100000 0.055000 0.062000 500 33 0.900000 0.379000 0.344000 600 37 1.000000 0.051000 0.051000 1.200000 0.034000 0.041000
1553302830622921131	1100 34 1.100000 0.052000 0.059000 500 33 0.900000 0.321000 0.292000 600 37 1.000000 0.051000 0.051000 1.200000 0.028000 0.033000
1553302831136884922	1100 34 1.100000 0.052000 0.059000 500 32 0.900000 0.320000 0.291000 600 37 1.000000 0.051000 0.051000 1.200000 0.026000 0.031000
1553302831672367423	1100 34 1.100000 0.051000 0.057000 500 32 0.900000 0.321000 0.292000 600 37 1.000000 0.051000 0.051000 1.200000 0.027000 0.032000
1553302832205983089	1100 34 1.100000 0.051000 0.057000 500 32 0.900000 0.379000 0.344000 600 37 1.000000 0.051000 0.051000 1.200000 0.035000 0.042000
1553302832719826214	1100 34 1.100000 0.057000 0.064000 500 32 0.900000 0.395000 0.359000 600 37 1.000000 0.050000 0.050000 1.200000 0.035000 0.042000
1553302833233848214	1100 34 1.100000 0.053000 0.060000 500 32 0.900000 0.318000 0.289000 600 37 1.000000 0.051000 0.051000 1.200000 0.026000 0.031000
1553302833747451798	1100 34 1.100000 0.051000 0.057000 500 32 0.900000 0.320000 0.291000 600 36 1.000000 0.051000 0.051000 1.200000 0.026000 0.031000
1553302834261546715	1100 34 1.100000 0.052000 0.059000 500 32 0.900000 0.386000 0.351000 600 36 1.000000 0.051000 0.051000 1.200000 0.034000 0.041000
1553302834775178381	1100 34 1.100000 0.056000 0.063000 500 32 0.900000 0.445000 0.404000 600 37 1.000000 0.051000 0.051000 1.200000 0.038000 0.045000
1553302835288242506	1100 34 1.100000 0.051000 0.057000 500 32 0.900000 0.312000 0.283000 600 36 1.000000 0.050000 0.050000 1.200000 0.026000 0.031000
1553302835801159131	1100 34 1.100000 0.051000 0.057000 500 32 0.900000 0.312000 0.283000 600 36 1.000000 0.051000 0.051000 1.200000 0.025000 0.030000
1553302836313846215	1100 34 1.100000 0.052000 0.059000 500 32 0.900000 0.379000 0.345000 600 36 1.000000 0.051000 0.051000 1.200000 0.033000 0.039000
1553302836826244840	1100 34 1.100000 0.054000 0.061000 500 32 0.900000 0.360000 0.327000 600 37 1.000000 0.050000 0.050000 1.200000 0.030000 0.036000
1553302837338961423	1100 34 1.100000 0.051000 0.057000 500 32 0.900000 0.314000 0.285000 600 36 1.000000 0.051000 0.051000 1.200000 0.025000 0.030000
1553302837851946465	1100 34 1.100000 0.051000 0.057000 500 32 0.900000 0.317000 0.288000 600 36 1.000000 0.051000 0.051000 1.200000 0.024000 0.028000
1553302838364560840	1100 34 1.100000 0.052000 0.059000 500 32 0.900000 0.380000 0.345000 600 36 1.000000 0.051000 0.051000 1.200000 0.032000 0.038000
1553302838889121007	1100 34 1.100000 0.052000 0.059000 500 32 0.900000 0.332000 0.302000 600 36 1.000000 0.051000 0.051000 1.200000 0.026000 0.031000
1553302839404125757	1100 34 1.100000 0.053000 0.060000 500 32 0.900000 0.434000 0.394000 600 36 1.000000 0.051000 0.051000 1.200000 0.038000 0.045000
1553302839916868757	1100 34 1.100000 0.052000 0.059000 500 32 0.900000 0.325000 0.295000 600 36 1.000000 0.051000 0.051000 1.200000 0.026000 0.031000
1553302840429694049	1100 34 1.100000 0.052000 0.059000 500 32 0.900000 0.328000 0.298000 600 36 1.000000 0.051000 0.051000 1.200000 0.027000 0.032000
1553302840954405007	1100 33 1.100000 0.052000 0.059000 500 32 0.900000 0.322000 0.293000 600 36 1.000000 0.051000 0.051000 1.200000 0.026000 0.031000
1553302841467559132	1100 32 1.100000 0.055000 0.062000 500 32 0.900000 0.201000 0.183000 600 36 1.000000 0.051000 0.051000 1.200000 0.040000 0.048000
