#Timestamp	CPU(0) Frequency(MHz)	CPU(0) Temperature(C)	A7 Voltage(V)	A7 Current(A)	A7 Power(W)	CPU(4) Frequency(MHz)	CPU(4) Temperature(C)	A15 Voltage(V)	A15 Current(A)	A15 Power(W)	GPU Frequency(MHz)	GPU Temperature(C)	GPU Voltage(V)	GPU Current(A)	GPU Power(W)	RAM Voltage(V)	RAM Current(A)	RAM Power(W)
1559820032047562014	1500 66 1.300000 0.117000 0.153000 2000 54 1.300000 1.432000 1.894000 600 59 1.000000 0.054000 0.054000 1.200000 0.057000 0.069000
1559820032552702473	1500 66 1.300000 0.102000 0.133000 2000 54 1.300000 1.773000 2.349000 600 59 1.000000 0.054000 0.054000 1.200000 0.034000 0.041000
1559820033057778931	1500 66 1.300000 0.101000 0.132000 2000 54 1.300000 1.751000 2.320000 600 58 1.000000 0.054000 0.054000 1.200000 0.033000 0.039000
1559820033610785848	1500 68 1.300000 0.120000 0.156000 2000 55 1.300000 1.773000 2.349000 600 70 1.000000 0.054000 0.054000 1.200000 0.034000 0.041000
1559820034174549306	1500 73 1.200000 0.765000 0.987000 2000 59 1.300000 4.742000 6.354000 600 78 1.000000 0.055000 0.055000 1.200000 0.053000 0.063000
1559820034723432181	1500 78 1.200000 0.783000 1.010000 2000 61 1.300000 5.038000 6.755000 600 83 1.000000 0.055000 0.055000 1.200000 0.056000 0.067000
1559820035282616598	1500 79 1.200000 0.816000 1.052000 2000 63 1.300000 5.111000 6.853000 600 86 1.000000 0.055000 0.055000 1.200000 0.050000 0.060000
1559820035839255598	1500 79 1.200000 0.797000 1.028000 1800 64 1.300000 5.180000 6.951000 600 85 1.000000 0.056000 0.056000 1.200000 0.058000 0.070000
1559820036402719307	1500 80 1.200000 0.791000 1.020000 1900 64 1.200000 4.171000 5.213000 600 85 1.000000 0.056000 0.056000 1.200000 0.057000 0.068000
1559820036947464265	1500 79 1.200000 0.823000 1.061000 1900 64 1.200000 3.931000 4.842000 600 84 1.000000 0.057000 0.057000 1.200000 0.052000 0.062000
1559820037506854640	1500 78 1.200000 0.783000 1.010000 1800 64 1.200000 4.374000 5.576000 600 83 1.000000 0.057000 0.057000 1.200000 0.058000 0.070000
1559820038074673723	1500 80 1.200000 0.803000 1.035000 1900 65 1.200000 4.425000 5.628000 600 85 1.000000 0.057000 0.057000 1.200000 0.056000 0.067000
1559820038634673474	1500 79 1.200000 0.797000 1.028000 1900 65 1.200000 4.371000 5.533000 600 84 1.000000 0.057000 0.057000 1.200000 0.053000 0.063000
1559820039199236265	1500 78 1.200000 0.811000 1.046000 1900 65 1.200000 4.376000 5.522000 600 84 1.000000 0.057000 0.057000 1.200000 0.056000 0.067000
1559820039750600890	1500 78 1.200000 0.775000 0.999000 1900 65 1.200000 4.355000 5.478000 600 84 1.000000 0.057000 0.057000 1.200000 0.058000 0.070000
1559820040314679515	1500 80 1.200000 0.808000 1.042000 1900 65 1.200000 4.275000 5.395000 600 85 1.000000 0.057000 0.057000 1.200000 0.058000 0.070000
1559820040862637349	1500 80 1.200000 0.816000 1.052000 1900 65 1.200000 4.340000 5.468000 600 84 1.000000 0.057000 0.057000 1.200000 0.055000 0.066000
1559820041418721349	1500 79 1.200000 0.802000 1.034000 1800 65 1.200000 4.353000 5.476000 600 84 1.000000 0.057000 0.057000 1.200000 0.056000 0.067000
1559820041978662599	1500 78 1.200000 0.806000 1.039000 1800 66 1.200000 4.216000 5.295000 600 84 1.000000 0.057000 0.057000 1.200000 0.054000 0.065000
1559820042534663599	1500 79 1.200000 0.801000 1.033000 1800 66 1.200000 4.174000 5.250000 600 84 1.000000 0.057000 0.057000 1.200000 0.061000 0.073000
1559820043094746599	1500 79 1.200000 0.821000 1.059000 1700 66 1.200000 4.382000 5.530000 600 83 1.000000 0.057000 0.057000 1.200000 0.058000 0.070000
1559820043658769391	1500 78 1.200000 0.821000 1.059000 1800 66 1.200000 3.908000 4.716000 600 83 1.000000 0.057000 0.057000 1.200000 0.053000 0.063000
1559820044223164058	1500 79 1.200000 0.827000 1.066000 1800 65 1.200000 4.059000 4.964000 600 83 1.000000 0.057000 0.057000 1.200000 0.055000 0.066000
1559820044778729849	1500 78 1.200000 0.776000 1.001000 1800 65 1.200000 3.928000 4.796000 600 83 1.000000 0.057000 0.057000 1.200000 0.056000 0.067000
1559820045338707558	1500 77 1.200000 0.819000 1.056000 1800 65 1.200000 4.036000 4.931000 600 82 1.000000 0.057000 0.057000 1.200000 0.053000 0.063000
1559820045902648766	1500 79 1.200000 0.825000 1.064000 1900 65 1.200000 3.949000 4.825000 600 83 1.000000 0.057000 0.057000 1.200000 0.059000 0.071000
1559820046454370058	1500 81 1.200000 0.817000 1.053000 1900 66 1.200000 4.088000 5.007000 600 85 1.000000 0.057000 0.057000 1.200000 0.052000 0.062000
1559820047011667975	1500 81 1.200000 0.818000 1.055000 1900 66 1.200000 4.085000 5.016000 600 86 1.000000 0.057000 0.057000 1.200000 0.053000 0.063000
1559820047559175225	1500 79 1.200000 0.819000 1.056000 1800 66 1.100000 3.688000 4.381000 600 83 1.000000 0.057000 0.057000 1.200000 0.047000 0.056000
1559820048106649850	1500 78 1.200000 0.820000 1.057000 1800 65 1.200000 4.024000 4.917000 600 83 1.000000 0.057000 0.057000 1.200000 0.054000 0.065000
1559820048646691016	1500 80 1.200000 0.808000 1.042000 1900 65 1.200000 3.968000 4.848000 600 84 1.000000 0.057000 0.057000 1.200000 0.058000 0.070000
1559820049202712308	1500 80 1.200000 0.783000 1.010000 1800 66 1.200000 4.299000 5.365000 600 84 1.000000 0.057000 0.057000 1.200000 0.052000 0.062000
1559820049774693475	1500 79 1.200000 0.819000 1.056000 1800 66 1.200000 4.226000 5.261000 600 84 1.000000 0.057000 0.057000 1.200000 0.053000 0.063000
1559820050314617975	1500 81 1.200000 0.820000 1.057000 1900 66 1.200000 4.149000 5.115000 600 85 1.000000 0.057000 0.057000 1.200000 0.054000 0.065000
1559820050878746392	1500 78 1.200000 0.805000 1.038000 1800 66 1.200000 4.012000 4.886000 600 83 1.000000 0.057000 0.057000 1.200000 0.052000 0.062000
1559820051426795767	1500 79 1.200000 0.755000 0.973000 1800 66 1.200000 3.911000 4.779000 600 83 1.000000 0.057000 0.057000 1.200000 0.049000 0.059000
1559820051982713975	1500 79 1.200000 0.809000 1.043000 1800 66 1.200000 4.003000 4.891000 600 83 1.000000 0.057000 0.057000 1.200000 0.054000 0.065000
1559820052542766767	1500 78 1.200000 0.813000 1.048000 1800 66 1.200000 4.033000 4.928000 600 83 1.000000 0.057000 0.057000 1.200000 0.052000 0.062000
1559820053106659434	1500 80 1.200000 0.770000 0.993000 1900 66 1.200000 3.896000 4.757000 600 84 1.000000 0.057000 0.057000 1.200000 0.050000 0.060000
1559820053666744184	1500 79 1.200000 0.803000 1.035000 1900 66 1.200000 4.057000 4.981000 600 84 1.000000 0.057000 0.057000 1.200000 0.055000 0.066000
1559820054218725725	1500 79 1.200000 0.780000 1.006000 1800 65 1.100000 3.541000 4.196000 600 83 1.000000 0.057000 0.057000 1.200000 0.058000 0.070000
1559820054774685767	1500 78 1.200000 0.802000 1.034000 1800 65 1.200000 3.977000 4.859000 600 83 1.000000 0.057000 0.057000 1.200000 0.053000 0.063000
1559820055330704726	1500 79 1.200000 0.785000 1.012000 1800 65 1.200000 3.749000 4.581000 600 83 1.000000 0.057000 0.057000 1.200000 0.055000 0.066000
1559820055878739434	1500 78 1.200000 0.795000 1.025000 1800 65 1.200000 3.954000 4.831000 600 83 1.000000 0.057000 0.057000 1.200000 0.052000 0.062000
1559820056416660101	1500 79 1.200000 0.804000 1.037000 1800 65 1.200000 3.998000 4.885000 600 83 1.000000 0.057000 0.057000 1.200000 0.053000 0.063000
1559820056968557517	1500 78 1.200000 0.807000 1.041000 1800 65 1.200000 3.874000 4.734000 600 83 1.000000 0.057000 0.057000 1.200000 0.055000 0.066000
1559820057514733726	1500 78 1.200000 0.798000 1.029000 1800 65 1.200000 3.752000 4.581000 600 82 1.000000 0.057000 0.057000 1.200000 0.062000 0.074000
1559820058079381476	1500 78 1.200000 0.796000 1.026000 1800 65 1.200000 3.924000 4.795000 600 82 1.000000 0.057000 0.057000 1.200000 0.052000 0.062000
1559820058631732351	1500 78 1.200000 0.797000 1.028000 1800 65 1.200000 3.934000 4.807000 600 83 1.000000 0.057000 0.057000 1.200000 0.050000 0.060000
1559820059182118559	1500 78 1.200000 0.792000 1.021000 1800 65 1.200000 3.931000 4.803000 600 82 1.000000 0.057000 0.057000 1.200000 0.054000 0.065000
1559820059722662101	1500 78 1.200000 0.788000 1.016000 1800 65 1.200000 3.919000 4.785000 600 82 1.000000 0.057000 0.057000 1.200000 0.055000 0.066000
1559820060282676559	1500 78 1.200000 0.790000 1.019000 1800 65 1.200000 3.920000 4.790000 600 82 1.000000 0.057000 0.057000 1.200000 0.050000 0.060000
1559820060842694226	1500 78 1.200000 0.786000 1.013000 1800 65 1.200000 3.910000 4.778000 600 82 1.000000 0.057000 0.057000 1.200000 0.054000 0.065000
1559820061382603018	1500 76 1.200000 0.793000 1.022000 1800 65 1.200000 3.977000 4.855000 600 82 1.000000 0.057000 0.057000 1.200000 0.054000 0.065000
1559820061955187476	1500 77 1.200000 0.746000 0.963000 1800 65 1.200000 3.780000 4.615000 600 83 1.000000 0.057000 0.057000 1.200000 0.053000 0.063000
1559820062523328643	1500 78 1.200000 0.795000 1.025000 1800 65 1.200000 4.014000 4.917000 600 83 1.000000 0.057000 0.057000 1.200000 0.056000 0.067000
1559820063078932643	1500 80 1.200000 0.788000 1.016000 1900 66 1.200000 4.398000 5.589000 600 84 1.000000 0.057000 0.057000 1.200000 0.054000 0.065000
1559820063635352768	1500 78 1.200000 0.785000 1.012000 1800 65 1.200000 4.319000 5.446000 600 83 1.000000 0.057000 0.057000 1.200000 0.052000 0.062000
1559820064198897727	1500 79 1.200000 0.782000 1.008000 1800 65 1.200000 3.953000 4.830000 600 83 1.000000 0.057000 0.057000 1.200000 0.053000 0.063000
1559820064758766518	1500 79 1.200000 0.787000 1.015000 1800 65 1.200000 3.919000 4.789000 600 83 1.000000 0.057000 0.057000 1.200000 0.052000 0.062000
1559820065301535018	1500 78 1.200000 0.786000 1.013000 1800 65 1.200000 3.892000 4.756000 600 83 1.000000 0.057000 0.057000 1.200000 0.057000 0.068000
1559820065854693893	1500 78 1.200000 0.780000 1.006000 1800 65 1.200000 3.910000 4.774000 600 82 1.000000 0.057000 0.057000 1.200000 0.060000 0.072000
1559820066411483560	1500 78 1.200000 0.794000 1.024000 1800 65 1.200000 3.930000 4.802000 600 83 1.000000 0.057000 0.057000 1.200000 0.050000 0.060000
1559820066975374644	1500 78 1.200000 0.781000 1.007000 1800 65 1.200000 3.919000 4.789000 600 83 1.000000 0.057000 0.057000 1.200000 0.053000 0.063000
1559820067534902519	1500 79 1.200000 0.795000 1.025000 1800 65 1.200000 3.908000 4.775000 600 83 1.000000 0.057000 0.057000 1.200000 0.054000 0.065000
1559820068095582894	1500 78 1.200000 0.768000 0.990000 1800 65 1.200000 3.872000 4.727000 600 82 1.000000 0.057000 0.057000 1.200000 0.056000 0.067000
1559820068659811435	1500 78 1.200000 0.778000 1.003000 1800 65 1.200000 3.880000 4.737000 600 82 1.000000 0.057000 0.057000 1.200000 0.056000 0.067000
1559820069218913019	1500 78 1.200000 0.782000 1.008000 1800 65 1.200000 3.957000 4.835000 600 83 1.000000 0.057000 0.057000 1.200000 0.053000 0.063000
1559820069767023894	1500 78 1.200000 0.785000 1.012000 1800 65 1.200000 3.955000 4.833000 600 83 1.000000 0.057000 0.057000 1.200000 0.052000 0.062000
1559820070272146519	1500 72 1.200000 0.786000 1.014000 1800 64 1.200000 3.858000 4.710000 600 77 1.000000 0.057000 0.057000 1.200000 0.050000 0.060000
1559820070776849477	1500 63 1.300000 0.111000 0.145000 2000 59 1.200000 0.565000 0.686000 600 68 1.000000 0.057000 0.057000 1.200000 0.034000 0.041000
