1576099933,5.004,0.791,3.962,0.000
1576099934,5.025,1.135,5.706,0.000
1576099935,5.026,1.203,6.050,0.000
1576099936,5.026,1.204,6.057,0.000
1576099937,5.027,1.195,6.012,0.000
1576099938,5.026,1.199,6.027,0.000
1576099939,5.026,1.210,6.084,0.000
1576099940,5.026,1.198,6.023,0.000
1576099941,5.026,1.198,6.023,0.000
1576099942,5.026,1.208,6.073,0.000
1576099943,5.026,1.219,6.130,0.000
1576099944,5.026,1.206,6.061,0.000
1576099945,5.026,1.206,6.065,0.000
1576099946,5.026,1.213,6.099,0.000
1576099947,5.026,1.212,6.092,0.000
1576099948,5.026,1.205,6.061,0.000
1576099949,5.026,1.217,6.122,0.000
1576099950,5.026,1.215,6.115,0.000
1576099951,5.026,1.206,6.065,0.000
1576099952,5.026,1.216,6.115,0.000
1576099953,5.026,1.221,6.141,0.000
1576099954,5.026,1.207,6.069,0.000
1576099955,5.026,1.210,6.084,0.000
1576099956,5.026,1.216,6.115,0.000
1576099957,5.026,1.204,6.057,0.000
1576099958,5.026,1.202,6.046,0.000
1576099959,5.026,1.218,6.126,0.000
1576099960,5.026,1.205,6.057,0.000
1576099961,5.026,1.206,6.065,0.000
1576099962,5.026,1.208,6.073,0.000
1576099963,5.026,1.210,6.084,0.000
1576099964,5.026,1.212,6.092,0.000
1576099965,5.026,1.212,6.096,0.000
1576099966,5.026,1.209,6.080,0.000
1576099967,5.025,1.219,6.126,0.000
1576099968,5.026,1.208,6.076,0.000
1576099969,5.026,1.210,6.084,0.000
1576099970,5.026,1.207,6.069,0.000
1576099971,5.026,1.208,6.076,0.000
1576099972,5.026,1.204,6.057,0.000
1576099973,5.026,1.211,6.092,0.000
1576099974,5.026,1.208,6.076,0.000
1576099975,5.010,1.037,5.202,0.000
1576099976,4.999,0.644,3.221,0.000
1576099977,4.999,0.654,3.271,0.000
1576099978,4.997,0.629,3.145,0.000
1576099979,4.999,0.655,3.275,0.000
1576099980,4.997,0.636,3.183,0.000
1576099981,4.997,0.630,3.149,0.000
1576099982,4.997,0.636,3.183,0.000
1576099983,4.997,0.650,3.252,0.000
1576099984,4.997,0.633,3.164,0.000
1576099985,4.996,0.633,3.168,0.000
1576099986,4.997,0.647,3.237,0.000
1576099987,5.005,0.802,4.019,0.000
1576099988,4.999,0.639,3.195,0.000
1576099989,4.999,0.659,3.294,0.000
1576099990,4.997,0.639,3.195,0.000
1576099991,4.999,0.650,3.252,0.000
1576099992,5.006,0.802,4.015,0.000
1576099993,4.999,0.660,3.302,0.000
1576099994,4.999,0.648,3.241,0.000
1576099995,4.999,0.661,3.305,0.000
1576099996,5.006,0.794,3.973,0.000
1576099997,4.997,0.641,3.206,0.000
1576099998,4.999,0.655,3.275,0.000
1576099999,4.999,0.657,3.286,0.000
1576100000,5.005,0.797,3.989,0.000
1576100001,4.999,0.648,3.241,0.000
1576100002,4.999,0.643,3.218,0.000
1576100003,4.999,0.658,3.294,0.000
1576100004,5.000,0.684,3.424,0.000
1576100005,5.006,0.867,4.344,0.000
1576100006,4.999,0.656,3.283,0.000
1576100007,4.999,0.654,3.271,0.000
1576100008,4.999,0.659,3.298,0.000
1576100009,4.999,0.657,3.286,0.000
1576100010,5.000,0.663,3.317,0.000
1576100011,4.999,0.660,3.298,0.000
1576100012,5.004,0.777,3.889,0.000
1576100013,4.999,0.661,3.305,0.000
1576100014,5.000,0.663,3.317,0.000
1576100015,5.000,0.703,3.519,0.000
1576100016,4.999,0.656,3.283,0.000
1576100017,4.999,0.656,3.283,0.000
1576100018,4.999,0.656,3.283,0.000
1576100019,4.999,0.654,3.271,0.000
1576100020,5.003,0.760,3.805,0.000
1576100021,5.000,0.655,3.279,0.000
1576100022,4.999,0.658,3.290,0.000
1576100023,4.999,0.644,3.221,0.000
1576100024,5.000,0.664,3.321,0.000
1576100025,5.003,0.763,3.821,0.000
1576100026,5.000,0.667,3.336,0.000
1576100027,4.999,0.659,3.298,0.000
1576100028,5.003,0.733,3.668,0.000
1576100029,5.004,0.767,3.840,0.000
1576100030,5.004,0.858,4.298,0.000
1576100031,5.007,0.810,4.057,0.000
1576100032,5.006,0.810,4.057,0.000
1576100033,5.006,0.809,4.054,0.000
1576100034,5.007,0.810,4.057,0.000
1576100035,5.006,0.813,4.073,0.000
1576100036,5.007,0.811,4.065,0.000
1576100037,5.007,0.811,4.065,0.000
1576100038,5.007,0.815,4.080,0.000
1576100039,4.997,0.644,3.221,0.000
1576100040,4.999,0.660,3.302,0.000
1576100041,4.999,0.656,3.283,0.000
1576100042,4.999,0.659,3.294,0.000
1576100043,4.999,0.657,3.286,0.000
1576100044,5.004,0.723,3.622,0.000
1576100045,5.006,0.810,4.057,0.000
1576100046,5.006,0.813,4.073,0.000
1576100047,5.007,0.813,4.076,0.000
1576100048,4.999,0.649,3.244,0.000
1576100049,4.999,0.657,3.286,0.000
1576100050,5.000,0.658,3.290,0.000
1576100051,5.001,0.655,3.279,0.000
1576100052,4.999,0.656,3.279,0.000
1576100053,5.007,0.805,4.034,0.000
1576100054,5.006,0.805,4.034,0.000
1576100055,5.006,0.810,4.057,0.000
1576100056,5.007,0.813,4.073,0.000
1576100057,5.006,0.814,4.076,0.000
1576100058,5.007,0.815,4.080,0.000
1576100059,5.006,0.814,4.080,0.000
1576100060,5.006,0.815,4.080,0.000
1576100061,5.006,0.812,4.069,0.000
1576100062,5.007,0.813,4.076,0.000
1576100063,5.006,0.813,4.073,0.000
1576100064,5.007,0.809,4.054,0.000
1576100065,5.006,0.813,4.073,0.000
1576100066,5.006,0.812,4.069,0.000
1576100067,5.006,0.813,4.073,0.000
1576100068,5.007,0.809,4.054,0.000
1576100069,5.007,0.813,4.073,0.000
1576100070,5.007,0.813,4.073,0.000
1576100071,5.007,0.812,4.065,0.000
1576100072,5.006,0.814,4.080,0.000
1576100073,5.006,0.814,4.076,0.000
1576100074,5.007,0.812,4.069,0.000
1576100075,5.006,0.812,4.065,0.000
1576100076,5.006,0.814,4.080,0.000
1576100077,5.006,0.809,4.054,0.000
1576100078,5.007,0.814,4.080,0.000
1576100079,5.007,0.814,4.076,0.000
1576100080,5.007,0.814,4.076,0.000
1576100081,5.006,0.812,4.065,0.000
1576100082,5.007,0.813,4.073,0.000
1576100083,5.006,0.812,4.069,0.000
1576100084,5.007,0.815,4.080,0.000
1576100085,5.007,0.815,4.084,0.000
1576100086,5.007,0.812,4.069,0.000
1576100087,5.006,0.810,4.057,0.000
1576100088,5.006,0.811,4.065,0.000
1576100089,5.007,0.812,4.069,0.000
1576100090,5.007,0.816,4.088,0.000
1576100091,5.006,0.812,4.065,0.000
1576100092,5.007,0.813,4.073,0.000
1576100093,5.006,0.811,4.065,0.000
1576100094,5.007,0.812,4.065,0.000
1576100095,5.006,0.812,4.065,0.000
1576100096,5.007,0.814,4.076,0.000
1576100097,5.006,0.810,4.057,0.000
1576100098,5.007,0.813,4.073,0.000
1576100099,5.006,0.814,4.080,0.000
1576100100,5.007,0.815,4.080,0.000
1576100101,5.007,0.812,4.065,0.000
1576100102,5.007,0.813,4.073,0.000
1576100103,5.007,0.814,4.076,0.000
1576100104,5.007,0.814,4.076,0.000
1576100105,5.006,0.811,4.061,0.000
1576100106,5.007,0.814,4.080,0.000
1576100107,5.006,0.814,4.076,0.000
1576100108,5.006,0.814,4.076,0.000
1576100109,5.006,0.811,4.065,0.000
1576100110,5.007,0.811,4.065,0.000
1576100111,5.006,0.811,4.061,0.000
1576100112,5.007,0.811,4.061,0.000
1576100113,5.006,0.814,4.076,0.000
1576100114,5.007,0.810,4.057,0.000
1576100115,5.006,0.813,4.076,0.000
1576100116,5.007,0.812,4.065,0.000
1576100117,5.007,0.815,4.084,0.000
1576100118,5.007,0.813,4.073,0.000
1576100119,5.006,0.814,4.080,0.000
1576100120,5.007,0.812,4.069,0.000
1576100121,5.006,0.813,4.069,0.000
1576100122,5.006,0.812,4.069,0.000
1576100123,5.006,0.811,4.061,0.000
1576100124,5.007,0.810,4.057,0.000
1576100125,5.006,0.811,4.065,0.000
1576100126,5.006,0.817,4.096,0.000
1576100127,5.006,0.813,4.073,0.000
1576100128,5.007,0.811,4.061,0.000
1576100129,5.007,0.813,4.073,0.000
1576100130,5.007,0.815,4.080,0.000
1576100131,5.006,0.812,4.065,0.000
1576100132,5.007,0.812,4.069,0.000
1576100133,5.006,0.815,4.084,0.000
1576100134,5.007,0.812,4.069,0.000
1576100135,5.006,0.812,4.069,0.000
1576100136,5.007,0.812,4.065,0.000
1576100137,5.006,0.814,4.076,0.000
1576100138,5.007,0.813,4.073,0.000
1576100139,5.007,0.811,4.065,0.000
1576100140,5.007,0.812,4.069,0.000
1576100141,5.006,0.813,4.073,0.000
1576100142,5.006,0.812,4.065,0.000
1576100143,5.006,0.815,4.080,0.000
1576100144,5.006,0.811,4.065,0.000
1576100145,5.006,0.811,4.065,0.000
1576100146,5.007,0.810,4.057,0.000
1576100147,5.007,0.814,4.076,0.000
1576100148,5.006,0.814,4.076,0.000
1576100149,5.007,0.810,4.057,0.000
1576100150,5.006,0.811,4.061,0.000
1576100151,5.006,0.810,4.057,0.000
1576100152,5.006,0.815,4.084,0.000
1576100153,5.006,0.814,4.080,0.000
1576100154,5.006,0.814,4.080,0.000
1576100155,5.007,0.813,4.073,0.000
1576100156,5.007,0.812,4.069,0.000
1576100157,5.006,0.812,4.069,0.000
1576100158,5.007,0.816,4.088,0.000
1576100159,5.006,0.814,4.076,0.000
1576100160,5.007,0.815,4.084,0.000
1576100161,5.006,0.814,4.076,0.000
1576100162,5.007,0.815,4.084,0.000
1576100163,5.007,0.812,4.065,0.000
1576100164,5.007,0.811,4.065,0.000
1576100165,5.007,0.812,4.084,0.000
1576100166,5.007,0.813,4.073,0.000
1576100167,5.006,0.813,4.073,0.000
1576100168,5.006,0.810,4.057,0.000
1576100169,5.007,0.810,4.061,0.000
1576100170,5.006,0.811,4.065,0.000
1576100171,5.007,0.812,4.069,0.000
1576100172,5.007,0.811,4.065,0.000
1576100173,5.007,0.810,4.057,0.000
1576100174,5.006,0.812,4.069,0.000
1576100175,5.006,0.814,4.076,0.000
1576100176,5.006,0.813,4.073,0.000
1576100177,5.007,0.813,4.073,0.000
1576100178,5.007,0.813,4.073,0.000
1576100179,5.007,0.813,4.073,0.000
1576100180,5.007,0.811,4.061,0.000
1576100181,5.007,0.810,4.061,0.000
1576100182,5.000,0.667,3.336,0.000
1576100183,5.026,1.158,5.825,0.000
1576100184,5.026,1.171,5.886,0.000
1576100185,5.026,1.167,5.870,0.000
1576100186,5.026,1.173,5.901,0.000
1576100187,5.024,1.342,6.744,0.000
1576100188,5.026,1.235,6.210,0.000
1576100189,5.026,1.185,5.958,0.000
1576100190,5.026,1.206,6.065,0.000
1576100191,5.025,1.289,6.481,0.000
1576100192,5.024,1.320,6.638,0.000
1576100193,5.026,1.177,5.920,0.000
1576100194,5.024,1.326,6.668,0.000
1576100195,5.024,1.328,6.676,0.000
1576100196,5.026,1.181,5.943,0.000
1576100197,5.024,1.348,6.779,0.000
1576100198,5.024,1.335,6.710,0.000
1576100199,5.024,1.186,5.962,0.000
