1576515633,5.007,0.825,4.134,0.000
1576515634,5.017,1.016,5.103,0.000
1576515635,5.025,1.204,6.054,0.000
1576515636,5.025,1.196,6.012,0.000
1576515637,5.025,1.199,6.027,0.000
1576515638,5.025,1.212,6.096,0.000
1576515639,5.025,1.202,6.042,0.000
1576515640,5.025,1.196,6.012,0.000
1576515641,5.025,1.207,6.069,0.000
1576515642,5.025,1.205,6.061,0.000
1576515643,5.025,1.199,6.027,0.000
1576515644,5.025,1.209,6.076,0.000
1576515645,5.025,1.195,6.008,0.000
1576515646,5.024,1.199,6.031,0.000
1576515647,5.025,1.207,6.065,0.000
1576515648,5.025,1.200,6.031,0.000
1576515649,5.025,1.199,6.027,0.000
1576515650,5.025,1.202,6.046,0.000
1576515651,5.025,1.200,6.034,0.000
1576515652,5.025,1.199,6.027,0.000
1576515653,5.025,1.201,6.038,0.000
1576515654,5.025,1.198,6.023,0.000
1576515655,5.025,1.201,6.038,0.000
1576515656,5.025,1.207,6.069,0.000
1576515657,5.025,1.204,6.054,0.000
1576515658,5.025,1.202,6.046,0.000
1576515659,5.025,1.201,6.034,0.000
1576515660,5.025,1.201,6.034,0.000
1576515661,5.025,1.198,6.023,0.000
1576515662,5.025,1.201,6.038,0.000
1576515663,5.025,1.202,6.042,0.000
1576515664,5.025,1.206,6.065,0.000
1576515665,5.025,1.202,6.042,0.000
1576515666,5.025,1.201,6.038,0.000
1576515667,5.025,1.211,6.088,0.000
1576515668,5.025,1.202,6.042,0.000
1576515669,5.025,1.201,6.038,0.000
1576515670,5.025,1.211,6.088,0.000
1576515671,5.025,1.199,6.031,0.000
1576515672,5.025,1.203,6.050,0.000
1576515673,5.025,1.215,6.107,0.000
1576515674,5.025,1.201,6.034,0.000
1576515675,5.025,1.205,6.057,0.000
1576515676,5.011,0.871,4.366,0.000
1576515677,5.003,0.720,3.603,0.000
1576515678,4.999,0.689,3.447,0.000
1576515679,4.999,0.670,3.347,0.000
1576515680,5.001,0.688,3.439,0.000
1576515681,5.000,0.677,3.389,0.000
1576515682,5.004,0.730,3.657,0.000
1576515683,5.009,0.831,4.164,0.000
1576515684,5.001,0.686,3.431,0.000
1576515685,5.000,0.684,3.424,0.000
1576515686,5.010,0.858,4.302,0.000
1576515687,5.010,0.834,4.183,0.000
1576515688,5.004,0.730,3.653,0.000
1576515689,5.014,0.892,4.473,0.000
1576515690,5.003,0.712,3.565,0.000
1576515691,5.004,0.720,3.603,0.000
1576515692,5.003,0.712,3.565,0.000
1576515693,5.001,0.709,3.550,0.000
1576515694,5.003,0.707,3.538,0.000
1576515695,5.011,0.856,4.290,0.000
1576515696,5.011,0.874,4.382,0.000
1576515697,5.003,0.709,3.546,0.000
1576515698,5.010,0.857,4.298,0.000
1576515699,5.000,0.688,3.439,0.000
1576515700,5.006,0.786,3.939,0.000
1576515701,5.001,0.707,3.534,0.000
1576515702,5.001,0.711,3.557,0.000
1576515703,5.010,0.856,4.290,0.000
1576515704,5.010,0.855,4.286,0.000
1576515705,5.011,0.858,4.305,0.000
1576515706,5.011,0.859,4.305,0.000
1576515707,5.001,0.685,3.428,0.000
1576515708,5.000,0.693,3.470,0.000
1576515709,5.011,0.860,4.309,0.000
1576515710,5.011,0.859,4.305,0.000
1576515711,5.000,0.687,3.435,0.000
1576515712,5.001,0.707,3.538,0.000
1576515713,5.011,0.857,4.298,0.000
1576515714,5.010,0.858,4.302,0.000
1576515715,5.010,0.856,4.290,0.000
1576515716,5.011,0.856,4.294,0.000
1576515717,5.010,0.856,4.290,0.000
1576515718,5.000,0.687,3.439,0.000
1576515719,5.007,0.807,4.042,0.000
1576515720,5.001,0.704,3.519,0.000
1576515721,5.001,0.706,3.531,0.000
1576515722,5.011,0.857,4.298,0.000
1576515723,5.010,0.857,4.298,0.000
1576515724,5.010,0.855,4.290,0.000
1576515725,5.010,0.856,4.294,0.000
1576515726,5.010,0.858,4.302,0.000
1576515727,5.000,0.686,3.431,0.000
1576515728,5.001,0.707,3.542,0.000
1576515729,5.003,0.707,3.538,0.000
1576515730,5.001,0.706,3.531,0.000
1576515731,5.010,0.856,4.294,0.000
1576515732,5.010,0.858,4.302,0.000
1576515733,5.011,0.852,4.275,0.000
1576515734,5.009,0.828,4.149,0.000
1576515735,5.009,0.838,4.199,0.000
1576515736,5.001,0.706,3.534,0.000
1576515737,5.007,0.799,4.004,0.000
1576515738,5.010,0.856,4.290,0.000
1576515739,5.010,0.857,4.294,0.000
1576515740,5.010,0.854,4.283,0.000
1576515741,5.001,0.687,3.435,0.000
1576515742,5.000,0.695,3.477,0.000
1576515743,5.011,0.856,4.290,0.000
1576515744,5.000,0.686,3.428,0.000
1576515745,5.001,0.704,3.523,0.000
1576515746,5.001,0.706,3.531,0.000
1576515747,5.001,0.706,3.531,0.000
1576515748,5.010,0.855,4.283,0.000
1576515749,5.011,0.855,4.290,0.000
1576515750,5.011,0.856,4.290,0.000
1576515751,5.010,0.855,4.286,0.000
1576515752,5.010,0.857,4.294,0.000
1576515753,5.010,0.857,4.298,0.000
1576515754,5.010,0.856,4.290,0.000
1576515755,5.000,0.685,3.428,0.000
1576515756,5.010,0.856,4.286,0.000
1576515757,5.010,0.853,4.275,0.000
1576515758,5.010,0.859,4.305,0.000
1576515759,5.010,0.855,4.286,0.000
1576515760,5.010,0.855,4.286,0.000
1576515761,5.011,0.856,4.290,0.000
1576515762,5.010,0.857,4.294,0.000
1576515763,5.010,0.857,4.294,0.000
1576515764,5.011,0.857,4.298,0.000
1576515765,5.010,0.857,4.298,0.000
1576515766,5.010,0.858,4.302,0.000
1576515767,5.010,0.854,4.279,0.000
1576515768,5.010,0.856,4.290,0.000
1576515769,5.010,0.856,4.290,0.000
1576515770,5.011,0.855,4.286,0.000
1576515771,5.010,0.857,4.298,0.000
1576515772,5.010,0.856,4.290,0.000
1576515773,5.010,0.858,4.302,0.000
1576515774,5.010,0.857,4.294,0.000
1576515775,5.011,0.857,4.298,0.000
1576515776,5.010,0.860,4.309,0.000
1576515777,5.011,0.858,4.302,0.000
1576515778,5.010,0.858,4.302,0.000
1576515779,5.010,0.858,4.302,0.000
1576515780,5.010,0.858,4.298,0.000
1576515781,5.010,0.855,4.286,0.000
1576515782,5.010,0.859,4.305,0.000
1576515783,5.010,0.860,4.313,0.000
1576515784,5.010,0.854,4.283,0.000
1576515785,5.010,0.862,4.321,0.000
1576515786,5.011,0.857,4.294,0.000
1576515787,5.010,0.857,4.298,0.000
1576515788,5.010,0.861,4.317,0.000
1576515789,5.011,0.856,4.294,0.000
1576515790,5.010,0.856,4.294,0.000
1576515791,5.010,0.861,4.313,0.000
1576515792,5.010,0.855,4.290,0.000
1576515793,5.010,0.855,4.286,0.000
1576515794,5.010,0.855,4.283,0.000
1576515795,5.011,0.855,4.290,0.000
1576515796,5.010,0.856,4.290,0.000
1576515797,5.010,0.859,4.309,0.000
1576515798,5.010,0.855,4.283,0.000
1576515799,5.010,0.856,4.290,0.000
1576515800,5.010,0.860,4.309,0.000
1576515801,5.010,0.856,4.294,0.000
1576515802,5.010,0.856,4.294,0.000
1576515803,5.010,0.860,4.309,0.000
1576515804,5.010,0.859,4.305,0.000
1576515805,5.010,0.859,4.309,0.000
1576515806,5.010,0.860,4.309,0.000
1576515807,5.010,0.860,4.309,0.000
1576515808,5.010,0.853,4.279,0.000
1576515809,5.010,0.859,4.305,0.000
1576515810,5.010,0.859,4.305,0.000
1576515811,5.010,0.859,4.305,0.000
1576515812,5.010,0.859,4.305,0.000
1576515813,5.010,0.856,4.290,0.000
1576515814,5.010,0.858,4.298,0.000
1576515815,5.010,0.854,4.283,0.000
1576515816,5.010,0.855,4.286,0.000
1576515817,5.010,0.857,4.294,0.000
1576515818,5.010,0.858,4.302,0.000
1576515819,5.011,0.856,4.290,0.000
1576515820,5.010,0.861,4.321,0.000
1576515821,5.011,0.856,4.290,0.000
1576515822,5.010,0.856,4.290,0.000
1576515823,5.010,0.855,4.286,0.000
1576515824,5.010,0.857,4.294,0.000
1576515825,5.010,0.854,4.279,0.000
1576515826,5.010,0.856,4.294,0.000
1576515827,5.011,0.859,4.305,0.000
1576515828,5.010,0.855,4.286,0.000
1576515829,5.010,0.854,4.283,0.000
1576515830,5.011,0.857,4.302,0.000
1576515831,5.010,0.856,4.294,0.000
1576515832,5.010,0.859,4.305,0.000
1576515833,5.011,0.858,4.302,0.000
1576515834,5.010,0.856,4.290,0.000
1576515835,5.011,0.857,4.298,0.000
1576515836,5.010,0.857,4.298,0.000
1576515837,5.010,0.856,4.290,0.000
1576515838,5.010,0.856,4.294,0.000
1576515839,5.010,0.857,4.294,0.000
1576515840,5.010,0.857,4.298,0.000
1576515841,4.997,0.640,3.199,0.000
1576515842,5.003,0.716,3.580,0.000
1576515843,5.007,0.815,4.084,0.000
1576515844,5.007,0.827,4.141,0.000
1576515845,5.016,0.966,4.847,0.000
1576515846,5.007,0.815,4.084,0.000
1576515847,5.007,0.817,4.096,0.000
1576515848,5.009,0.825,4.134,0.000
1576515849,5.007,0.815,4.080,0.000
1576515850,5.007,0.823,4.122,0.000
1576515851,5.007,0.813,4.076,0.000
1576515852,5.007,0.819,4.103,0.000
1576515853,5.007,0.825,4.134,0.000
1576515854,5.010,0.862,4.321,0.000
1576515855,5.007,0.824,4.126,0.000
1576515856,5.007,0.817,4.096,0.000
1576515857,5.017,0.972,4.878,0.000
1576515858,5.007,0.819,4.103,0.000
1576515859,5.007,0.813,4.076,0.000
1576515860,5.007,0.814,4.080,0.000
1576515861,5.007,0.814,4.080,0.000
1576515862,5.007,0.816,4.088,0.000
1576515863,5.007,0.814,4.076,0.000
1576515864,5.007,0.827,4.141,0.000
1576515865,5.015,0.940,4.718,0.000
1576515866,5.007,0.814,4.076,0.000
1576515867,5.007,0.820,4.111,0.000
1576515868,5.010,0.983,4.928,0.000
1576515869,5.023,1.308,6.576,0.000
1576515870,5.025,1.167,5.870,0.000
1576515871,5.017,1.061,5.325,0.000
