#Timestamp	CPU(0) Frequency(MHz)	CPU(0) Temperature(C)	A7 Voltage(V)	A7 Current(A)	A7 Power(W)	CPU(4) Frequency(MHz)	CPU(4) Temperature(C)	A15 Voltage(V)	A15 Current(A)	A15 Power(W)	GPU Frequency(MHz)	GPU Temperature(C)	GPU Voltage(V)	GPU Current(A)	GPU Power(W)	RAM Voltage(V)	RAM Current(A)	RAM Power(W)
1517196639763825785	300 30 0.900000 0.037000 0.033000 1700 29 1.000000 0.269000 0.288000 600 34 1.000000 0.051000 0.051000 1.200000 0.043000 0.052000
1517196640272647910	300 37 0.900000 0.017000 0.015000 1700 30 1.100000 0.387000 0.451000 600 35 1.000000 0.050000 0.050000 1.200000 0.036000 0.043000
1517196640781335494	300 38 0.900000 0.015000 0.013000 1700 31 1.100000 1.140000 1.333000 600 35 1.000000 0.050000 0.050000 1.200000 0.033000 0.039000
1517196641290817660	300 39 0.900000 0.015000 0.013000 1700 32 1.100000 1.129000 1.322000 600 36 1.000000 0.050000 0.050000 1.200000 0.041000 0.049000
1517196641800819285	300 39 0.900000 0.028000 0.025000 1700 32 1.100000 1.203000 1.408000 600 36 1.000000 0.050000 0.050000 1.200000 0.035000 0.042000
1517196642320299910	300 41 0.900000 0.015000 0.013000 1700 33 1.100000 2.099000 2.466000 600 46 1.000000 0.050000 0.050000 1.200000 0.030000 0.036000
1517196642830651660	300 43 0.900000 0.017000 0.015000 1700 34 1.100000 2.648000 3.116000 600 48 1.000000 0.051000 0.051000 1.200000 0.028000 0.033000
1517196643339424911	300 44 0.900000 0.022000 0.020000 1700 35 1.100000 2.684000 3.161000 600 50 1.000000 0.051000 0.051000 1.200000 0.035000 0.042000
1517196643849750411	300 44 0.900000 0.036000 0.032000 1700 36 1.100000 2.732000 3.215000 600 50 1.000000 0.051000 0.051000 1.200000 0.051000 0.061000
1517196644358647827	300 45 0.900000 0.016000 0.014000 1700 36 1.100000 2.643000 3.110000 600 51 1.000000 0.051000 0.051000 1.200000 0.032000 0.038000
1517196644867321536	300 46 0.900000 0.016000 0.014000 1700 37 1.100000 2.686000 3.164000 600 52 1.000000 0.051000 0.051000 1.200000 0.028000 0.033000
1517196645376453911	300 45 0.900000 0.016000 0.014000 1700 37 1.100000 2.676000 3.149000 600 52 1.000000 0.051000 0.051000 1.200000 0.032000 0.038000
1517196645885574411	300 47 0.900000 0.026000 0.023000 1700 37 1.100000 2.662000 3.133000 600 53 1.000000 0.051000 0.051000 1.200000 0.040000 0.048000
1517196646394345286	300 47 0.900000 0.035000 0.032000 1700 38 1.100000 2.746000 3.234000 600 53 1.000000 0.051000 0.051000 1.200000 0.049000 0.059000
1517196646903743119	300 47 0.900000 0.016000 0.014000 1700 38 1.100000 2.681000 3.158000 600 54 1.000000 0.051000 0.051000 1.200000 0.029000 0.035000
1517196647412817494	300 47 0.900000 0.017000 0.015000 1700 38 1.100000 2.680000 3.157000 600 54 1.000000 0.051000 0.051000 1.200000 0.033000 0.039000
1517196647921529828	300 48 0.900000 0.022000 0.020000 1700 39 1.100000 2.706000 3.187000 600 54 1.000000 0.051000 0.051000 1.200000 0.043000 0.052000
1517196648442547078	300 48 0.900000 0.017000 0.015000 1700 39 1.100000 2.692000 3.171000 600 55 1.000000 0.051000 0.051000 1.200000 0.039000 0.047000
1517196648953012286	300 48 0.900000 0.027000 0.024000 1700 39 1.100000 2.696000 3.175000 600 54 1.000000 0.051000 0.051000 1.200000 0.033000 0.039000
1517196649461611495	300 48 0.900000 0.017000 0.015000 1700 39 1.100000 2.698000 3.178000 600 55 1.000000 0.051000 0.051000 1.200000 0.029000 0.035000
1517196649970437328	300 48 0.900000 0.022000 0.020000 1700 39 1.100000 2.677000 3.153000 600 55 1.000000 0.052000 0.052000 1.200000 0.038000 0.045000
1517196650479482411	300 49 0.900000 0.017000 0.015000 1700 39 1.100000 2.686000 3.161000 600 55 1.000000 0.051000 0.051000 1.200000 0.029000 0.035000
1517196650997765120	300 49 0.900000 0.037000 0.033000 1700 40 1.100000 2.726000 3.211000 600 55 1.000000 0.052000 0.052000 1.200000 0.044000 0.053000
1517196651508214745	300 49 0.900000 0.017000 0.015000 1700 40 1.100000 2.690000 3.166000 600 56 1.000000 0.052000 0.052000 1.200000 0.029000 0.035000
1517196652017322370	300 49 0.900000 0.022000 0.020000 1700 40 1.100000 2.673000 3.148000 600 55 1.000000 0.051000 0.051000 1.200000 0.036000 0.043000
1517196652525978078	300 49 0.900000 0.017000 0.015000 1700 40 1.100000 2.673000 3.148000 600 56 1.000000 0.052000 0.052000 1.200000 0.032000 0.038000
1517196653040920745	300 49 0.900000 0.017000 0.015000 1700 40 1.100000 2.700000 3.177000 600 56 1.000000 0.052000 0.052000 1.200000 0.030000 0.036000
1517196653551111495	300 49 0.900000 0.029000 0.026000 1700 40 1.100000 2.747000 3.235000 600 56 1.000000 0.052000 0.052000 1.200000 0.044000 0.053000
1517196654071835745	300 49 0.900000 0.017000 0.015000 1700 40 1.100000 2.714000 3.197000 600 56 1.000000 0.052000 0.052000 1.200000 0.029000 0.035000
1517196654582544204	300 49 0.900000 0.024000 0.021000 1700 40 1.100000 2.679000 3.155000 600 56 1.000000 0.052000 0.052000 1.200000 0.040000 0.048000
1517196655091352370	300 50 0.900000 0.017000 0.015000 1700 40 1.100000 2.698000 3.175000 600 56 1.000000 0.052000 0.052000 1.200000 0.032000 0.038000
1517196655599885412	300 50 0.900000 0.018000 0.016000 1700 41 1.100000 2.706000 3.184000 600 56 1.000000 0.052000 0.052000 1.200000 0.043000 0.052000
1517196656108916745	300 50 0.900000 0.022000 0.020000 1700 41 1.100000 2.698000 3.175000 600 56 1.000000 0.051000 0.051000 1.200000 0.027000 0.032000
1517196656618003620	300 50 0.900000 0.022000 0.020000 1700 41 1.100000 2.704000 3.182000 600 56 1.000000 0.052000 0.052000 1.200000 0.029000 0.035000
1517196657126652746	300 50 0.900000 0.017000 0.015000 1700 41 1.100000 2.696000 3.173000 600 57 1.000000 0.052000 0.052000 1.200000 0.034000 0.041000
1517196657641247162	300 50 0.900000 0.017000 0.015000 1700 41 1.100000 2.681000 3.155000 600 57 1.000000 0.052000 0.052000 1.200000 0.030000 0.036000
1517196658151449871	300 50 0.900000 0.034000 0.031000 1700 41 1.100000 2.751000 3.240000 600 57 1.000000 0.052000 0.052000 1.200000 0.047000 0.056000
1517196658661302162	300 50 0.900000 0.022000 0.020000 1700 41 1.100000 2.699000 3.179000 600 57 1.000000 0.052000 0.052000 1.200000 0.032000 0.038000
1517196659170317079	300 50 0.900000 0.017000 0.015000 1700 41 1.100000 2.680000 3.157000 600 57 1.000000 0.052000 0.052000 1.200000 0.031000 0.037000
1517196659680221537	300 50 0.900000 0.018000 0.016000 1700 41 1.100000 2.683000 3.160000 600 57 1.000000 0.052000 0.052000 1.200000 0.029000 0.035000
1517196660200711496	300 50 0.900000 0.017000 0.015000 1700 41 1.100000 2.725000 3.210000 600 57 1.000000 0.052000 0.052000 1.200000 0.033000 0.039000
1517196660710917746	300 50 0.900000 0.029000 0.026000 1700 41 1.100000 2.694000 3.173000 600 57 1.000000 0.052000 0.052000 1.200000 0.043000 0.052000
1517196661221252704	300 50 0.900000 0.027000 0.024000 1700 41 1.100000 2.724000 3.208000 600 57 1.000000 0.052000 0.052000 1.200000 0.037000 0.044000
1517196661729995121	300 51 0.900000 0.017000 0.015000 1700 41 1.100000 2.781000 3.276000 600 57 1.000000 0.052000 0.052000 1.200000 0.032000 0.038000
1517196662239008538	300 51 0.900000 0.017000 0.015000 1700 41 1.100000 2.743000 3.231000 600 58 1.000000 0.052000 0.052000 1.200000 0.032000 0.038000
1517196662747667538	300 51 0.900000 0.022000 0.020000 1700 42 1.100000 2.815000 3.316000 600 58 1.000000 0.052000 0.052000 1.200000 0.028000 0.033000
1517196663256531080	300 51 0.900000 0.024000 0.021000 1700 42 1.100000 2.773000 3.266000 600 58 1.000000 0.052000 0.052000 1.200000 0.044000 0.053000
1517196663767173746	300 51 0.900000 0.017000 0.015000 1700 42 1.100000 2.752000 3.241000 600 58 1.000000 0.052000 0.052000 1.200000 0.031000 0.037000
1517196664275918746	300 51 0.900000 0.018000 0.016000 1700 42 1.100000 2.761000 3.252000 600 58 1.000000 0.052000 0.052000 1.200000 0.029000 0.035000
1517196664795815705	300 51 0.900000 0.017000 0.015000 1700 42 1.100000 2.752000 3.241000 600 58 1.000000 0.052000 0.052000 1.200000 0.030000 0.036000
1517196665306395330	300 51 0.900000 0.040000 0.036000 1700 42 1.100000 2.876000 3.393000 600 58 1.000000 0.052000 0.052000 1.200000 0.052000 0.062000
1517196665815206955	300 51 0.900000 0.017000 0.015000 1700 42 1.100000 2.742000 3.230000 600 58 1.000000 0.052000 0.052000 1.200000 0.032000 0.038000
1517196666323897163	300 51 0.900000 0.018000 0.016000 1700 42 1.100000 2.763000 3.254000 600 58 1.000000 0.052000 0.052000 1.200000 0.029000 0.035000
1517196666832743455	300 51 0.900000 0.017000 0.015000 1700 42 1.100000 2.767000 3.259000 600 58 1.000000 0.052000 0.052000 1.200000 0.034000 0.041000
1517196667347748788	300 52 0.900000 0.017000 0.015000 1700 42 1.100000 2.795000 3.292000 600 58 1.000000 0.052000 0.052000 1.200000 0.035000 0.042000
1517196667860511997	300 51 0.900000 0.036000 0.032000 1700 42 1.100000 2.761000 3.252000 600 58 1.000000 0.053000 0.053000 1.200000 0.039000 0.047000
1517196668369727705	300 51 0.900000 0.017000 0.015000 1700 42 1.100000 2.744000 3.232000 600 58 1.000000 0.052000 0.052000 1.200000 0.029000 0.035000
1517196668878559122	300 52 0.900000 0.017000 0.015000 1700 42 1.100000 2.761000 3.252000 600 59 1.000000 0.052000 0.052000 1.200000 0.030000 0.036000
1517196669387244414	300 52 0.900000 0.017000 0.015000 1700 42 1.100000 2.761000 3.252000 600 58 1.000000 0.052000 0.052000 1.200000 0.030000 0.036000
1517196669895978539	300 52 0.900000 0.027000 0.024000 1700 42 1.100000 2.865000 3.380000 600 59 1.000000 0.052000 0.052000 1.200000 0.035000 0.042000
1517196670406226372	300 51 0.900000 0.017000 0.015000 1700 42 1.100000 2.753000 3.243000 600 59 1.000000 0.053000 0.053000 1.200000 0.032000 0.038000
1517196670915761080	300 52 0.900000 0.018000 0.016000 1700 42 1.100000 2.738000 3.225000 600 58 1.000000 0.052000 0.052000 1.200000 0.028000 0.033000
1517196671424677956	300 52 0.900000 0.017000 0.015000 1700 42 1.100000 2.763000 3.254000 600 59 1.000000 0.052000 0.052000 1.200000 0.030000 0.036000
1517196671933510081	300 52 0.900000 0.017000 0.015000 1700 42 1.100000 2.767000 3.259000 600 59 1.000000 0.052000 0.052000 1.200000 0.035000 0.042000
1517196672442040081	300 52 0.900000 0.039000 0.035000 1700 42 1.100000 2.926000 3.452000 600 59 1.000000 0.052000 0.052000 1.200000 0.045000 0.054000
1517196672952216831	300 52 0.900000 0.018000 0.016000 1700 43 1.100000 2.771000 3.269000 600 59 1.000000 0.052000 0.052000 1.200000 0.028000 0.033000
1517196673461381039	300 52 0.900000 0.017000 0.015000 1700 42 1.100000 2.761000 3.252000 600 58 1.000000 0.052000 0.052000 1.200000 0.033000 0.039000
1517196673970336706	300 52 0.900000 0.017000 0.015000 1700 43 1.100000 2.767000 3.259000 600 59 1.000000 0.052000 0.052000 1.200000 0.030000 0.036000
1517196674478965831	300 52 0.900000 0.033000 0.030000 1700 43 1.100000 2.793000 3.290000 600 59 1.000000 0.052000 0.052000 1.200000 0.043000 0.052000
1517196674987865123	300 52 0.900000 0.017000 0.015000 1700 43 1.100000 2.761000 3.252000 600 59 1.000000 0.052000 0.052000 1.200000 0.030000 0.036000
1517196675498117748	300 52 0.900000 0.017000 0.015000 1700 42 1.100000 2.756000 3.246000 600 59 1.000000 0.052000 0.052000 1.200000 0.030000 0.036000
1517196676007237248	300 52 0.900000 0.017000 0.015000 1700 43 1.100000 2.755000 3.245000 600 59 1.000000 0.052000 0.052000 1.200000 0.029000 0.035000
1517196676515841956	300 52 0.900000 0.027000 0.024000 1700 43 1.100000 2.749000 3.238000 600 59 1.000000 0.052000 0.052000 1.200000 0.036000 0.043000
1517196677024942165	300 52 0.900000 0.034000 0.031000 1700 43 1.100000 2.806000 3.305000 600 59 1.000000 0.052000 0.052000 1.200000 0.050000 0.060000
1517196677533660915	300 52 0.900000 0.017000 0.015000 1700 43 1.100000 2.753000 3.243000 600 59 1.000000 0.052000 0.052000 1.200000 0.027000 0.032000
1517196678044234748	300 52 0.900000 0.018000 0.016000 1700 43 1.100000 2.743000 3.231000 600 59 1.000000 0.052000 0.052000 1.200000 0.035000 0.042000
1517196678553493415	300 52 0.900000 0.026000 0.023000 1700 43 1.100000 2.743000 3.231000 600 59 1.000000 0.052000 0.052000 1.200000 0.035000 0.042000
1517196679062364581	300 52 0.900000 0.024000 0.021000 1700 43 1.100000 2.742000 3.230000 600 59 1.000000 0.052000 0.052000 1.200000 0.036000 0.043000
1517196679570996457	300 52 0.900000 0.023000 0.021000 1700 43 1.100000 2.745000 3.233000 600 59 1.000000 0.052000 0.052000 1.200000 0.030000 0.036000
1517196680079863248	300 52 0.900000 0.017000 0.015000 1700 43 1.100000 2.742000 3.230000 600 59 1.000000 0.052000 0.052000 1.200000 0.032000 0.038000
1517196680590294748	300 52 0.900000 0.018000 0.016000 1700 43 1.100000 2.722000 3.206000 600 59 1.000000 0.052000 0.052000 1.200000 0.030000 0.036000
1517196681098957998	300 52 0.900000 0.024000 0.021000 1700 43 1.100000 2.732000 3.218000 600 59 1.000000 0.052000 0.052000 1.200000 0.028000 0.033000
1517196681607956832	300 52 0.900000 0.030000 0.027000 1700 43 1.100000 2.822000 3.329000 600 59 1.000000 0.053000 0.053000 1.200000 0.043000 0.052000
1517196682116789873	300 52 0.900000 0.017000 0.015000 1700 43 1.100000 2.711000 3.193000 600 59 1.000000 0.052000 0.052000 1.200000 0.030000 0.036000
1517196682625660957	300 52 0.900000 0.017000 0.015000 1700 43 1.100000 2.693000 3.172000 600 59 1.000000 0.052000 0.052000 1.200000 0.027000 0.032000
1517196683135758457	300 52 0.900000 0.024000 0.021000 1700 43 1.100000 2.703000 3.184000 600 59 1.000000 0.052000 0.052000 1.200000 0.034000 0.041000
1517196683644885540	300 52 0.900000 0.019000 0.017000 1700 43 1.100000 2.705000 3.186000 600 59 1.000000 0.052000 0.052000 1.200000 0.050000 0.060000
1517196684153776040	300 52 0.900000 0.022000 0.020000 1700 43 1.100000 2.783000 3.278000 600 59 1.000000 0.052000 0.052000 1.200000 0.036000 0.043000
1517196684662700874	300 52 0.900000 0.017000 0.015000 1700 43 1.100000 2.735000 3.221000 600 59 1.000000 0.052000 0.052000 1.200000 0.035000 0.042000
1517196685171500457	300 52 0.900000 0.017000 0.015000 1700 43 1.100000 2.734000 3.220000 600 59 1.000000 0.052000 0.052000 1.200000 0.032000 0.038000
1517196685687502166	300 52 0.900000 0.025000 0.022000 1700 43 1.100000 2.727000 3.212000 600 59 1.000000 0.052000 0.052000 1.200000 0.028000 0.033000
1517196686197823124	300 52 0.900000 0.028000 0.025000 1700 43 1.100000 2.751000 3.240000 600 59 1.000000 0.053000 0.053000 1.200000 0.051000 0.061000
1517196686706649832	300 52 0.900000 0.017000 0.015000 1700 43 1.100000 2.712000 3.194000 600 59 1.000000 0.053000 0.053000 1.200000 0.030000 0.036000
1517196687215497291	300 52 0.900000 0.018000 0.016000 1700 43 1.100000 2.731000 3.217000 600 59 1.000000 0.053000 0.053000 1.200000 0.029000 0.035000
1517196687724441999	300 52 0.900000 0.024000 0.021000 1700 43 1.100000 2.734000 3.220000 600 59 1.000000 0.052000 0.052000 1.200000 0.028000 0.033000
1517196688233543666	300 52 0.900000 0.017000 0.015000 1700 43 1.100000 2.674000 3.149000 600 59 1.000000 0.052000 0.052000 1.200000 0.034000 0.041000
1517196688742611333	300 52 0.900000 0.027000 0.024000 1700 43 1.100000 2.772000 3.265000 600 59 1.000000 0.053000 0.053000 1.200000 0.034000 0.041000
1517196689251693874	300 52 0.900000 0.017000 0.015000 1700 43 1.100000 2.686000 3.164000 600 59 1.000000 0.052000 0.052000 1.200000 0.027000 0.032000
1517196689761094249	300 52 0.900000 0.024000 0.021000 1700 43 1.100000 2.682000 3.159000 600 59 1.000000 0.052000 0.052000 1.200000 0.031000 0.037000
1517196690269863333	300 52 0.900000 0.017000 0.015000 1700 43 1.100000 2.693000 3.172000 600 59 1.000000 0.052000 0.052000 1.200000 0.033000 0.039000
1517196690778755416	300 53 0.900000 0.038000 0.034000 1700 43 1.100000 2.776000 3.270000 600 59 1.000000 0.052000 0.052000 1.200000 0.047000 0.056000
1517196691287916291	300 52 0.900000 0.020000 0.018000 1700 43 1.100000 2.715000 3.198000 600 59 1.000000 0.052000 0.052000 1.200000 0.036000 0.043000
1517196691796791958	300 53 0.900000 0.018000 0.016000 1700 43 1.100000 2.686000 3.164000 600 59 1.000000 0.052000 0.052000 1.200000 0.033000 0.039000
1517196692306247291	300 53 0.900000 0.025000 0.022000 1700 43 1.100000 2.753000 3.243000 600 59 1.000000 0.052000 0.052000 1.200000 0.029000 0.035000
1517196692815425708	300 52 0.900000 0.017000 0.015000 1700 43 1.100000 2.701000 3.181000 600 59 1.000000 0.052000 0.052000 1.200000 0.029000 0.035000
1517196693324505042	300 53 0.900000 0.031000 0.028000 1700 43 1.100000 2.753000 3.243000 600 59 1.000000 0.052000 0.052000 1.200000 0.052000 0.062000
1517196693833715750	300 52 0.900000 0.018000 0.016000 1700 43 1.100000 2.720000 3.204000 600 59 1.000000 0.052000 0.052000 1.200000 0.027000 0.032000
1517196694342593583	300 52 0.900000 0.025000 0.022000 1700 43 1.100000 2.703000 3.184000 600 59 1.000000 0.052000 0.052000 1.200000 0.027000 0.032000
1517196694852216667	300 52 0.900000 0.017000 0.015000 1700 43 1.100000 2.688000 3.166000 600 59 1.000000 0.052000 0.052000 1.200000 0.033000 0.039000
1517196695367577083	300 53 0.900000 0.019000 0.017000 1700 43 1.100000 2.690000 3.168000 600 59 1.000000 0.052000 0.052000 1.200000 0.035000 0.042000
1517196695877902625	300 53 0.900000 0.023000 0.021000 1700 43 1.100000 2.709000 3.191000 600 60 1.000000 0.053000 0.053000 1.200000 0.029000 0.035000
1517196696386777500	300 53 0.900000 0.025000 0.022000 1700 43 1.100000 2.690000 3.168000 600 59 1.000000 0.052000 0.052000 1.200000 0.031000 0.037000
1517196696895613334	300 53 0.900000 0.018000 0.016000 1700 43 1.100000 2.706000 3.187000 600 59 1.000000 0.052000 0.052000 1.200000 0.031000 0.037000
1517196697405612042	300 53 0.900000 0.017000 0.015000 1700 43 1.100000 2.684000 3.161000 600 59 1.000000 0.052000 0.052000 1.200000 0.029000 0.035000
1517196697915003167	300 53 0.900000 0.026000 0.023000 1700 43 1.100000 2.757000 3.247000 600 59 1.000000 0.052000 0.052000 1.200000 0.043000 0.052000
1517196698423935042	300 53 0.900000 0.025000 0.022000 1700 43 1.100000 2.682000 3.159000 600 59 1.000000 0.052000 0.052000 1.200000 0.033000 0.039000
1517196698932866917	300 53 0.900000 0.027000 0.024000 1700 43 1.100000 2.695000 3.174000 600 59 1.000000 0.052000 0.052000 1.200000 0.039000 0.047000
1517196699441736292	300 53 0.900000 0.017000 0.015000 1700 44 1.100000 2.729000 3.214000 600 60 1.000000 0.052000 0.052000 1.200000 0.028000 0.033000
1517196699952937209	300 52 0.900000 0.017000 0.015000 1700 43 1.100000 2.684000 3.161000 600 59 1.000000 0.052000 0.052000 1.200000 0.030000 0.036000
1517196700462419709	300 53 0.900000 0.035000 0.032000 1700 44 1.100000 2.772000 3.265000 600 59 1.000000 0.052000 0.052000 1.200000 0.041000 0.049000
1517196700971075042	300 53 0.900000 0.026000 0.023000 1700 44 1.100000 2.700000 3.180000 600 60 1.000000 0.053000 0.053000 1.200000 0.043000 0.051000
1517196701479843251	300 53 0.900000 0.018000 0.016000 1700 44 1.100000 2.656000 3.128000 600 60 1.000000 0.052000 0.052000 1.200000 0.029000 0.035000
1517196701988894709	300 53 0.900000 0.017000 0.015000 1700 43 1.100000 2.684000 3.161000 600 60 1.000000 0.053000 0.053000 1.200000 0.029000 0.035000
1517196702500234293	300 53 0.900000 0.022000 0.020000 1700 44 1.100000 2.721000 3.205000 600 60 1.000000 0.052000 0.052000 1.200000 0.035000 0.042000
1517196703009333334	300 53 0.900000 0.029000 0.026000 1700 44 1.100000 2.689000 3.167000 600 59 1.000000 0.052000 0.052000 1.200000 0.049000 0.059000
1517196703518127918	300 53 0.900000 0.017000 0.015000 1700 44 1.100000 2.672000 3.147000 600 60 1.000000 0.053000 0.053000 1.200000 0.031000 0.037000
1517196704027244751	300 53 0.900000 0.018000 0.016000 1700 44 1.100000 2.709000 3.191000 600 59 1.000000 0.053000 0.053000 1.200000 0.031000 0.037000
1517196704535942376	300 53 0.900000 0.017000 0.015000 1700 44 1.100000 2.696000 3.175000 600 59 1.000000 0.053000 0.053000 1.200000 0.032000 0.038000
1517196705046335668	300 53 0.900000 0.035000 0.032000 1700 44 1.100000 2.771000 3.264000 600 60 1.000000 0.053000 0.053000 1.200000 0.047000 0.056000
1517196705555045543	300 53 0.900000 0.018000 0.016000 1700 44 1.100000 2.680000 3.157000 600 59 1.000000 0.052000 0.052000 1.200000 0.028000 0.033000
1517196706064494585	300 53 0.900000 0.017000 0.015000 1700 44 1.100000 2.664000 3.138000 600 60 1.000000 0.052000 0.052000 1.200000 0.027000 0.032000
1517196706573664001	300 53 0.900000 0.018000 0.016000 1700 44 1.100000 2.688000 3.166000 600 60 1.000000 0.052000 0.052000 1.200000 0.030000 0.036000
1517196707095392876	300 53 0.900000 0.017000 0.015000 1700 44 1.100000 2.713000 3.195000 600 60 1.000000 0.052000 0.052000 1.200000 0.034000 0.041000
1517196707606693168	300 53 0.900000 0.052000 0.047000 1700 44 1.100000 2.800000 3.298000 600 60 1.000000 0.053000 0.053000 1.200000 0.053000 0.064000
1517196708115874335	300 53 0.900000 0.018000 0.016000 1700 44 1.100000 2.675000 3.151000 600 60 1.000000 0.053000 0.053000 1.200000 0.031000 0.037000
1517196708624730585	300 53 0.900000 0.018000 0.016000 1700 44 1.100000 2.667000 3.141000 600 60 1.000000 0.053000 0.053000 1.200000 0.029000 0.035000
1517196709134590877	300 53 0.900000 0.017000 0.015000 1700 44 1.100000 2.682000 3.159000 600 60 1.000000 0.053000 0.053000 1.200000 0.033000 0.039000
1517196709643342918	300 53 0.900000 0.044000 0.040000 1700 44 1.100000 2.745000 3.233000 600 60 1.000000 0.053000 0.053000 1.200000 0.037000 0.044000
1517196710152267877	300 53 0.900000 0.017000 0.015000 1700 44 1.100000 2.773000 3.266000 600 60 1.000000 0.053000 0.053000 1.200000 0.034000 0.041000
1517196710661347835	300 53 0.900000 0.018000 0.016000 1700 44 1.100000 2.682000 3.159000 600 60 1.000000 0.052000 0.052000 1.200000 0.035000 0.042000
1517196711170047544	300 53 0.900000 0.018000 0.016000 1700 44 1.100000 2.684000 3.161000 600 60 1.000000 0.052000 0.052000 1.200000 0.032000 0.038000
1517196711680192502	300 53 0.900000 0.018000 0.016000 1700 44 1.100000 2.707000 3.188000 600 60 1.000000 0.052000 0.052000 1.200000 0.031000 0.037000
1517196712189659460	300 53 0.900000 0.038000 0.034000 1700 44 1.100000 2.769000 3.261000 600 60 1.000000 0.052000 0.052000 1.200000 0.048000 0.057000
1517196712698546502	300 53 0.900000 0.018000 0.016000 1700 44 1.100000 2.689000 3.167000 600 60 1.000000 0.052000 0.052000 1.200000 0.032000 0.038000
1517196713207496419	300 53 0.900000 0.017000 0.015000 1700 44 1.100000 2.693000 3.172000 600 60 1.000000 0.052000 0.052000 1.200000 0.029000 0.035000
1517196713730088836	300 53 0.900000 0.018000 0.016000 1700 44 1.100000 2.684000 3.161000 600 60 1.000000 0.052000 0.052000 1.200000 0.034000 0.041000
1517196714248292377	300 52 0.900000 0.027000 0.024000 1700 44 1.100000 2.756000 3.246000 600 59 1.000000 0.052000 0.052000 1.200000 0.037000 0.044000
1517196714758693336	300 53 0.900000 0.033000 0.030000 1700 44 1.100000 2.774000 3.267000 600 60 1.000000 0.052000 0.052000 1.200000 0.049000 0.059000
1517196715267314502	300 53 0.900000 0.018000 0.016000 1700 44 1.100000 2.688000 3.166000 600 60 1.000000 0.053000 0.053000 1.200000 0.031000 0.037000
1517196715776060169	300 53 0.900000 0.018000 0.016000 1700 44 1.100000 2.667000 3.141000 600 60 1.000000 0.052000 0.052000 1.200000 0.030000 0.036000
1517196716284830836	300 53 0.900000 0.028000 0.025000 1700 44 1.100000 2.705000 3.186000 600 60 1.000000 0.052000 0.052000 1.200000 0.040000 0.048000
1517196716793824211	300 53 0.900000 0.018000 0.016000 1700 44 1.100000 2.730000 3.215000 600 60 1.000000 0.053000 0.053000 1.200000 0.039000 0.047000
1517196717302546086	300 53 0.900000 0.020000 0.018000 1700 44 1.100000 2.690000 3.168000 600 60 1.000000 0.052000 0.052000 1.200000 0.035000 0.042000
1517196717811464794	300 53 0.900000 0.018000 0.016000 1700 44 1.100000 2.696000 3.175000 600 60 1.000000 0.052000 0.052000 1.200000 0.029000 0.035000
1517196718320223878	300 53 0.900000 0.022000 0.020000 1700 44 1.100000 2.728000 3.213000 600 60 1.000000 0.052000 0.052000 1.200000 0.036000 0.043000
1517196718840118295	300 53 0.900000 0.018000 0.016000 1700 44 1.100000 2.699000 3.179000 600 60 1.000000 0.053000 0.053000 1.200000 0.030000 0.036000
1517196719350116545	300 53 0.900000 0.028000 0.025000 1700 44 1.100000 2.737000 3.224000 600 60 1.000000 0.053000 0.053000 1.200000 0.039000 0.047000
1517196719859014420	300 53 0.900000 0.018000 0.016000 1700 44 1.100000 2.693000 3.172000 600 60 1.000000 0.053000 0.053000 1.200000 0.028000 0.033000
1517196720367628961	300 45 0.900000 0.027000 0.024000 1700 42 1.100000 2.457000 2.891000 600 51 1.000000 0.053000 0.053000 1.200000 0.032000 0.038000
1517196720875850336	300 42 0.900000 0.016000 0.014000 1700 41 1.100000 0.247000 0.288000 600 47 1.000000 0.052000 0.052000 1.200000 0.022000 0.026000
