#Timestamp	CPU(0) Frequency(MHz)	CPU(0) Temperature(C)	A7 Voltage(V)	A7 Current(A)	A7 Power(W)	CPU(4) Frequency(MHz)	CPU(4) Temperature(C)	A15 Voltage(V)	A15 Current(A)	A15 Power(W)	GPU Frequency(MHz)	GPU Temperature(C)	GPU Voltage(V)	GPU Current(A)	GPU Power(W)	RAM Voltage(V)	RAM Current(A)	RAM Power(W)
1560166065676480932	1300 45 1.000000 0.118000 0.121000 800 44 0.900000 0.183000 0.177000 600 48 1.000000 0.053000 0.053000 1.200000 0.059000 0.071000
1560166066184565640	1300 45 1.200000 0.076000 0.092000 800 44 0.900000 0.368000 0.339000 600 48 1.000000 0.053000 0.053000 1.200000 0.033000 0.039000
1560166066692525599	1300 45 1.200000 0.074000 0.090000 800 43 0.900000 0.364000 0.335000 600 47 1.000000 0.053000 0.053000 1.200000 0.034000 0.041000
1560166067200477099	1300 44 1.200000 0.084000 0.102000 800 43 0.900000 0.363000 0.335000 600 47 1.000000 0.052000 0.052000 1.200000 0.034000 0.041000
1560166067708399265	1300 44 1.200000 0.132000 0.161000 800 42 0.900000 0.368000 0.340000 600 46 1.000000 0.052000 0.052000 1.200000 0.046000 0.055000
1560166068216343640	1300 44 1.200000 0.071000 0.086000 800 42 0.900000 0.368000 0.339000 600 47 1.000000 0.052000 0.052000 1.200000 0.035000 0.042000
1560166068724363141	1300 46 1.200000 0.204000 0.248000 800 43 0.900000 1.439000 1.323000 600 50 1.000000 0.052000 0.052000 1.200000 0.024000 0.028000
1560166069232459932	1300 46 1.200000 0.204000 0.248000 800 43 0.900000 1.433000 1.318000 600 51 1.000000 0.052000 0.052000 1.200000 0.024000 0.028000
1560166069740508516	1300 47 1.200000 0.256000 0.310000 800 43 0.900000 1.428000 1.313000 600 51 1.000000 0.052000 0.052000 1.200000 0.044000 0.053000
1560166070248611391	1300 47 1.200000 0.204000 0.248000 800 43 0.900000 1.435000 1.320000 600 51 1.000000 0.052000 0.052000 1.200000 0.024000 0.028000
1560166070757001932	1300 47 1.200000 0.208000 0.253000 800 44 0.900000 1.440000 1.324000 600 51 1.000000 0.053000 0.053000 1.200000 0.025000 0.030000
1560166071265264974	1300 47 1.200000 0.226000 0.274000 800 44 0.900000 1.441000 1.322000 600 51 1.000000 0.052000 0.052000 1.200000 0.030000 0.036000
1560166071773380766	1300 47 1.200000 0.209000 0.254000 800 44 0.900000 1.438000 1.322000 600 51 1.000000 0.053000 0.053000 1.200000 0.026000 0.031000
1560166072281451099	1300 47 1.200000 0.246000 0.298000 800 44 0.900000 1.433000 1.318000 600 51 1.000000 0.052000 0.052000 1.200000 0.024000 0.028000
1560166072789633933	1300 47 1.200000 0.210000 0.255000 800 44 0.900000 1.437000 1.322000 600 52 1.000000 0.052000 0.052000 1.200000 0.024000 0.028000
1560166073297982849	1300 47 1.200000 0.228000 0.277000 800 44 0.900000 1.440000 1.324000 600 51 1.000000 0.052000 0.052000 1.200000 0.024000 0.028000
1560166073807849683	1300 47 1.200000 0.210000 0.255000 800 44 0.900000 1.441000 1.325000 600 51 1.000000 0.052000 0.052000 1.200000 0.024000 0.028000
1560166074316215016	1300 47 1.200000 0.229000 0.278000 800 44 0.900000 1.438000 1.322000 600 51 1.000000 0.052000 0.052000 1.200000 0.025000 0.030000
1560166074824310433	1300 47 1.200000 0.205000 0.249000 800 44 0.900000 1.439000 1.323000 600 51 1.000000 0.052000 0.052000 1.200000 0.025000 0.030000
1560166075332464183	1300 47 1.200000 0.206000 0.250000 800 44 0.900000 1.438000 1.322000 600 51 1.000000 0.052000 0.052000 1.200000 0.032000 0.038000
1560166075840654350	1300 47 1.200000 0.205000 0.249000 800 44 0.900000 1.440000 1.324000 600 51 1.000000 0.052000 0.052000 1.200000 0.026000 0.031000
1560166076348857891	1300 47 1.200000 0.214000 0.260000 800 44 0.900000 1.439000 1.323000 600 51 1.000000 0.052000 0.052000 1.200000 0.047000 0.056000
1560166076857042308	1300 47 1.200000 0.205000 0.249000 800 43 0.900000 1.439000 1.323000 600 51 1.000000 0.052000 0.052000 1.200000 0.026000 0.031000
1560166077365164267	1300 47 1.200000 0.231000 0.280000 800 44 0.900000 1.439000 1.323000 600 51 1.000000 0.053000 0.053000 1.200000 0.032000 0.038000
1560166077873234183	1300 47 1.200000 0.206000 0.250000 800 43 0.900000 1.440000 1.321000 600 51 1.000000 0.052000 0.052000 1.200000 0.024000 0.028000
1560166078381316517	1300 47 1.200000 0.208000 0.253000 800 44 0.900000 1.431000 1.316000 600 51 1.000000 0.052000 0.052000 1.200000 0.026000 0.031000
1560166078889575308	1300 47 1.200000 0.207000 0.251000 800 44 0.900000 1.438000 1.322000 600 51 1.000000 0.052000 0.052000 1.200000 0.027000 0.032000
1560166079397785558	1300 47 1.200000 0.228000 0.277000 800 43 0.900000 1.437000 1.322000 600 51 1.000000 0.052000 0.052000 1.200000 0.028000 0.033000
1560166079906001350	1300 47 1.200000 0.207000 0.251000 800 43 0.900000 1.438000 1.320000 600 51 1.000000 0.052000 0.052000 1.200000 0.025000 0.030000
1560166080414199267	1300 47 1.200000 0.209000 0.254000 800 43 0.900000 1.435000 1.320000 600 51 1.000000 0.052000 0.052000 1.200000 0.025000 0.030000
1560166080922386142	1300 47 1.200000 0.206000 0.250000 800 43 0.900000 1.439000 1.323000 600 51 1.000000 0.052000 0.052000 1.200000 0.033000 0.039000
1560166081430814475	1300 47 1.200000 0.230000 0.279000 800 43 0.900000 1.440000 1.324000 600 51 1.000000 0.052000 0.052000 1.200000 0.031000 0.037000
1560166081939129725	1300 47 1.200000 0.204000 0.248000 800 43 0.900000 1.437000 1.322000 600 51 1.000000 0.052000 0.052000 1.200000 0.025000 0.030000
1560166082448872434	1300 47 1.200000 0.204000 0.248000 800 43 0.900000 1.440000 1.324000 600 51 1.000000 0.052000 0.052000 1.200000 0.025000 0.030000
1560166082957227559	1300 47 1.200000 0.205000 0.249000 800 43 0.900000 1.445000 1.329000 600 51 1.000000 0.052000 0.052000 1.200000 0.036000 0.043000
1560166083465355976	1300 46 1.200000 0.231000 0.280000 800 43 0.900000 1.438000 1.322000 600 51 1.000000 0.052000 0.052000 1.200000 0.032000 0.038000
1560166083973555642	1300 46 1.200000 0.206000 0.250000 800 43 0.900000 1.436000 1.321000 600 51 1.000000 0.053000 0.053000 1.200000 0.024000 0.028000
1560166084481776892	1300 46 1.200000 0.204000 0.248000 800 43 0.900000 1.438000 1.322000 600 51 1.000000 0.052000 0.052000 1.200000 0.024000 0.028000
1560166084989953934	1300 46 1.200000 0.218000 0.265000 800 43 0.900000 1.434000 1.316000 600 51 1.000000 0.052000 0.052000 1.200000 0.032000 0.038000
1560166085498284351	1300 46 1.200000 0.208000 0.253000 800 43 0.900000 1.437000 1.322000 600 51 1.000000 0.052000 0.052000 1.200000 0.025000 0.030000
1560166086006484559	1300 46 1.200000 0.208000 0.253000 800 43 0.900000 1.434000 1.319000 600 51 1.000000 0.052000 0.052000 1.200000 0.025000 0.030000
1560166086514830934	1300 46 1.200000 0.207000 0.251000 800 43 0.900000 1.440000 1.324000 600 51 1.000000 0.052000 0.052000 1.200000 0.026000 0.031000
1560166087023095643	1300 46 1.200000 0.234000 0.284000 800 43 0.900000 1.431000 1.316000 600 51 1.000000 0.052000 0.052000 1.200000 0.025000 0.030000
1560166087531453393	1300 46 1.200000 0.231000 0.280000 800 43 0.900000 1.437000 1.322000 600 51 1.000000 0.052000 0.052000 1.200000 0.027000 0.032000
1560166088039685476	1300 46 1.200000 0.204000 0.248000 800 43 0.900000 1.434000 1.319000 600 51 1.000000 0.053000 0.053000 1.200000 0.025000 0.030000
1560166088547873601	1300 46 1.200000 0.204000 0.248000 800 43 0.900000 1.433000 1.318000 600 51 1.000000 0.052000 0.052000 1.200000 0.025000 0.030000
1560166089056000893	1300 46 1.200000 0.244000 0.295000 800 43 0.900000 1.439000 1.323000 600 51 1.000000 0.052000 0.052000 1.200000 0.026000 0.031000
1560166089564205518	1300 46 1.200000 0.216000 0.262000 800 43 0.900000 1.437000 1.322000 600 51 1.000000 0.052000 0.052000 1.200000 0.031000 0.037000
1560166090072304893	1300 46 1.200000 0.210000 0.255000 800 43 0.900000 1.434000 1.319000 600 51 1.000000 0.052000 0.052000 1.200000 0.024000 0.028000
1560166090580454101	1300 46 1.200000 0.204000 0.248000 800 43 0.900000 1.434000 1.319000 600 51 1.000000 0.052000 0.052000 1.200000 0.024000 0.028000
1560166091088927060	1300 46 1.200000 0.205000 0.249000 800 43 0.900000 1.437000 1.322000 600 51 1.000000 0.053000 0.053000 1.200000 0.024000 0.028000
1560166091598405810	1300 46 1.200000 0.259000 0.314000 800 43 0.900000 1.436000 1.321000 600 51 1.000000 0.053000 0.053000 1.200000 0.046000 0.055000
1560166092106758643	1300 46 1.200000 0.208000 0.253000 800 43 0.900000 1.434000 1.319000 600 51 1.000000 0.053000 0.053000 1.200000 0.025000 0.030000
1560166092614934227	1300 46 1.200000 0.207000 0.251000 800 43 0.900000 1.437000 1.322000 600 51 1.000000 0.053000 0.053000 1.200000 0.025000 0.030000
1560166093123158893	1300 46 1.200000 0.207000 0.251000 800 43 0.900000 1.437000 1.322000 600 51 1.000000 0.052000 0.052000 1.200000 0.026000 0.031000
1560166093631449935	1300 46 1.200000 0.259000 0.314000 800 43 0.900000 1.433000 1.318000 600 50 1.000000 0.052000 0.052000 1.200000 0.045000 0.054000
1560166094139655019	1300 46 1.200000 0.206000 0.250000 800 43 0.900000 1.441000 1.325000 600 51 1.000000 0.052000 0.052000 1.200000 0.025000 0.030000
1560166094647918477	1300 46 1.200000 0.204000 0.248000 800 43 0.900000 1.441000 1.325000 600 51 1.000000 0.052000 0.052000 1.200000 0.025000 0.030000
1560166095156249810	1300 46 1.200000 0.205000 0.249000 800 43 0.900000 1.437000 1.322000 600 51 1.000000 0.052000 0.052000 1.200000 0.024000 0.028000
1560166095664357477	1300 46 1.200000 0.280000 0.339000 800 43 0.900000 1.435000 1.320000 600 51 1.000000 0.052000 0.052000 1.200000 0.043000 0.051000
1560166096172498394	1300 46 1.200000 0.205000 0.249000 800 43 0.900000 1.441000 1.325000 600 50 1.000000 0.052000 0.052000 1.200000 0.024000 0.028000
1560166096680849144	1300 46 1.200000 0.209000 0.254000 800 43 0.900000 1.437000 1.322000 600 50 1.000000 0.052000 0.052000 1.200000 0.024000 0.028000
1560166097188990477	1300 46 1.200000 0.205000 0.249000 800 43 0.900000 1.435000 1.320000 600 50 1.000000 0.052000 0.052000 1.200000 0.024000 0.028000
1560166097697123436	1300 46 1.200000 0.210000 0.255000 800 43 0.900000 1.437000 1.322000 600 50 1.000000 0.052000 0.052000 1.200000 0.041000 0.049000
1560166098205297519	1300 46 1.200000 0.205000 0.249000 800 43 0.900000 1.438000 1.322000 600 51 1.000000 0.052000 0.052000 1.200000 0.024000 0.028000
1560166098713421019	1300 46 1.200000 0.210000 0.255000 800 43 0.900000 1.439000 1.323000 600 50 1.000000 0.052000 0.052000 1.200000 0.025000 0.030000
1560166099221678353	1300 46 1.200000 0.206000 0.250000 800 43 0.900000 1.436000 1.321000 600 50 1.000000 0.052000 0.052000 1.200000 0.025000 0.030000
1560166099730227019	1300 46 1.200000 0.208000 0.253000 800 43 0.900000 1.433000 1.318000 600 50 1.000000 0.052000 0.052000 1.200000 0.026000 0.031000
1560166100238430353	1300 46 1.200000 0.241000 0.292000 800 42 0.900000 1.428000 1.313000 600 50 1.000000 0.052000 0.052000 1.200000 0.038000 0.045000
1560166100746774561	1300 46 1.200000 0.208000 0.253000 800 43 0.900000 1.437000 1.322000 600 50 1.000000 0.052000 0.052000 1.200000 0.026000 0.031000
1560166101255112144	1300 46 1.200000 0.204000 0.248000 800 42 0.900000 1.434000 1.319000 600 50 1.000000 0.052000 0.052000 1.200000 0.025000 0.030000
1560166101763321144	1300 46 1.200000 0.205000 0.249000 800 42 0.900000 1.434000 1.319000 600 50 1.000000 0.052000 0.052000 1.200000 0.024000 0.028000
1560166102271458186	1300 46 1.200000 0.262000 0.317000 800 43 0.900000 1.429000 1.314000 600 50 1.000000 0.052000 0.052000 1.200000 0.042000 0.050000
1560166102779635645	1300 46 1.200000 0.206000 0.250000 800 42 0.900000 1.440000 1.324000 600 50 1.000000 0.052000 0.052000 1.200000 0.024000 0.028000
1560166103287881311	1300 46 1.200000 0.208000 0.253000 800 42 0.900000 1.435000 1.320000 600 50 1.000000 0.052000 0.052000 1.200000 0.024000 0.028000
1560166103796043520	1300 46 1.200000 0.205000 0.249000 800 43 0.900000 1.434000 1.319000 600 50 1.000000 0.052000 0.052000 1.200000 0.024000 0.028000
1560166104304264936	1300 46 1.200000 0.250000 0.303000 800 43 0.900000 1.429000 1.314000 600 50 1.000000 0.052000 0.052000 1.200000 0.044000 0.053000
1560166104812471728	1300 46 1.200000 0.205000 0.249000 800 42 0.900000 1.434000 1.319000 600 50 1.000000 0.052000 0.052000 1.200000 0.024000 0.028000
1560166105320713562	1300 46 1.200000 0.209000 0.254000 800 42 0.900000 1.433000 1.318000 600 50 1.000000 0.053000 0.053000 1.200000 0.025000 0.030000
1560166105828911853	1300 46 1.200000 0.205000 0.249000 800 42 0.900000 1.434000 1.319000 600 50 1.000000 0.052000 0.052000 1.200000 0.025000 0.030000
1560166106337110687	1300 46 1.200000 0.233000 0.283000 800 42 0.900000 1.440000 1.324000 600 50 1.000000 0.052000 0.052000 1.200000 0.027000 0.032000
1560166106845361687	1300 46 1.200000 0.205000 0.249000 800 42 0.900000 1.436000 1.321000 600 50 1.000000 0.052000 0.052000 1.200000 0.024000 0.028000
1560166107353609895	1300 46 1.200000 0.209000 0.254000 800 42 0.900000 1.430000 1.315000 600 50 1.000000 0.052000 0.052000 1.200000 0.024000 0.028000
1560166107861644895	1300 46 1.200000 0.205000 0.249000 800 42 0.900000 1.435000 1.320000 600 50 1.000000 0.052000 0.052000 1.200000 0.024000 0.028000
1560166108370763729	1300 46 1.200000 0.204000 0.248000 800 42 0.900000 1.434000 1.319000 600 50 1.000000 0.052000 0.052000 1.200000 0.024000 0.028000
1560166108879185979	1300 46 1.200000 0.259000 0.314000 800 42 0.900000 1.430000 1.315000 600 50 1.000000 0.052000 0.052000 1.200000 0.024000 0.028000
1560166109387339187	1300 46 1.200000 0.207000 0.251000 800 42 0.900000 1.433000 1.318000 600 50 1.000000 0.052000 0.052000 1.200000 0.024000 0.028000
1560166109895706145	1300 46 1.200000 0.207000 0.251000 800 42 0.900000 1.439000 1.323000 600 50 1.000000 0.052000 0.052000 1.200000 0.024000 0.028000
1560166110403899937	1300 46 1.200000 0.227000 0.276000 800 42 0.900000 1.436000 1.321000 600 50 1.000000 0.052000 0.052000 1.200000 0.024000 0.028000
1560166110912000437	1300 46 1.200000 0.256000 0.310000 800 42 0.900000 1.434000 1.319000 600 50 1.000000 0.052000 0.052000 1.200000 0.025000 0.030000
1560166111420274104	1300 46 1.200000 0.204000 0.248000 800 42 0.900000 1.437000 1.322000 600 50 1.000000 0.052000 0.052000 1.200000 0.024000 0.028000
1560166111928542646	1300 45 1.200000 0.204000 0.248000 800 42 0.900000 1.435000 1.320000 600 50 1.000000 0.052000 0.052000 1.200000 0.024000 0.028000
1560166112436816021	1300 45 1.200000 0.229000 0.278000 800 42 0.900000 1.434000 1.319000 600 50 1.000000 0.052000 0.052000 1.200000 0.031000 0.037000
1560166112944953396	1300 46 1.200000 0.223000 0.271000 800 42 0.900000 1.430000 1.315000 600 50 1.000000 0.052000 0.052000 1.200000 0.041000 0.049000
1560166113453095229	1300 45 1.200000 0.204000 0.248000 800 42 0.900000 1.435000 1.320000 600 50 1.000000 0.052000 0.052000 1.200000 0.024000 0.028000
1560166113961251729	1300 45 1.200000 0.209000 0.254000 800 42 0.900000 1.432000 1.317000 600 50 1.000000 0.052000 0.052000 1.200000 0.025000 0.030000
1560166114469409646	1300 45 1.200000 0.218000 0.265000 800 42 0.900000 1.431000 1.316000 600 50 1.000000 0.052000 0.052000 1.200000 0.030000 0.036000
1560166114977473396	1300 46 1.200000 0.209000 0.254000 800 42 0.900000 1.438000 1.322000 600 50 1.000000 0.052000 0.052000 1.200000 0.024000 0.028000
1560166115485584813	1300 45 1.200000 0.228000 0.277000 800 42 0.900000 1.436000 1.321000 600 50 1.000000 0.052000 0.052000 1.200000 0.036000 0.043000
1560166115993820730	1300 45 1.200000 0.209000 0.254000 800 42 0.900000 1.440000 1.324000 600 50 1.000000 0.052000 0.052000 1.200000 0.025000 0.030000
1560166116502192605	1300 45 1.200000 0.230000 0.279000 800 42 0.900000 1.439000 1.323000 600 50 1.000000 0.052000 0.052000 1.200000 0.032000 0.038000
1560166117010711730	1300 46 1.200000 0.208000 0.253000 800 42 0.900000 1.441000 1.325000 600 50 1.000000 0.052000 0.052000 1.200000 0.026000 0.031000
1560166117519123605	1300 45 1.200000 0.216000 0.262000 800 42 0.900000 1.438000 1.322000 600 50 1.000000 0.052000 0.052000 1.200000 0.040000 0.048000
1560166118027412605	1300 45 1.200000 0.203000 0.247000 800 42 0.900000 1.431000 1.316000 600 50 1.000000 0.052000 0.052000 1.200000 0.025000 0.030000
1560166118535763730	1300 45 1.200000 0.214000 0.260000 800 42 0.900000 1.431000 1.316000 600 50 1.000000 0.052000 0.052000 1.200000 0.032000 0.038000
1560166119043958105	1300 45 1.200000 0.204000 0.248000 800 42 0.900000 1.434000 1.319000 600 50 1.000000 0.052000 0.052000 1.200000 0.024000 0.028000
1560166119552050980	1300 45 1.200000 0.258000 0.312000 800 42 0.900000 1.426000 1.311000 600 50 1.000000 0.052000 0.052000 1.200000 0.028000 0.033000
1560166120060399063	1300 45 1.200000 0.206000 0.250000 800 42 0.900000 1.436000 1.321000 600 50 1.000000 0.052000 0.052000 1.200000 0.024000 0.028000
1560166120568664147	1300 45 1.200000 0.231000 0.280000 800 42 0.900000 1.433000 1.318000 600 50 1.000000 0.052000 0.052000 1.200000 0.025000 0.030000
1560166121076938605	1300 45 1.200000 0.204000 0.248000 800 42 0.900000 1.435000 1.320000 600 50 1.000000 0.052000 0.052000 1.200000 0.026000 0.031000
1560166121585238730	1300 45 1.200000 0.210000 0.255000 800 42 0.900000 1.429000 1.314000 600 50 1.000000 0.052000 0.052000 1.200000 0.024000 0.028000
1560166122093459897	1300 45 1.200000 0.205000 0.249000 800 42 0.900000 1.432000 1.317000 600 50 1.000000 0.052000 0.052000 1.200000 0.025000 0.030000
1560166122601668105	1300 45 1.200000 0.228000 0.277000 800 42 0.900000 1.440000 1.324000 600 50 1.000000 0.052000 0.052000 1.200000 0.030000 0.036000
1560166123110006980	1300 45 1.200000 0.205000 0.249000 800 42 0.900000 1.434000 1.319000 600 50 1.000000 0.052000 0.052000 1.200000 0.025000 0.030000
1560166123618135605	1300 45 1.200000 0.209000 0.254000 800 42 0.900000 1.428000 1.313000 600 50 1.000000 0.052000 0.052000 1.200000 0.026000 0.031000
1560166124126332689	1300 45 1.200000 0.204000 0.248000 800 42 0.900000 1.430000 1.315000 600 50 1.000000 0.052000 0.052000 1.200000 0.024000 0.028000
1560166124634501189	1300 45 1.200000 0.226000 0.274000 800 42 0.900000 1.431000 1.316000 600 50 1.000000 0.052000 0.052000 1.200000 0.032000 0.038000
1560166125142685814	1300 45 1.200000 0.203000 0.247000 800 42 0.900000 1.434000 1.319000 600 50 1.000000 0.052000 0.052000 1.200000 0.024000 0.028000
1560166125651645647	1300 45 1.200000 0.214000 0.260000 800 42 0.900000 1.436000 1.321000 600 50 1.000000 0.052000 0.052000 1.200000 0.024000 0.028000
1560166126160270689	1300 45 1.200000 0.251000 0.304000 800 42 0.900000 1.430000 1.315000 600 50 1.000000 0.052000 0.052000 1.200000 0.047000 0.056000
1560166126668566439	1300 45 1.200000 0.229000 0.278000 800 42 0.900000 1.433000 1.318000 600 50 1.000000 0.052000 0.052000 1.200000 0.025000 0.030000
1560166127176776981	1300 45 1.200000 0.208000 0.253000 800 42 0.900000 1.434000 1.319000 600 49 1.000000 0.052000 0.052000 1.200000 0.024000 0.028000
1560166127684940273	1300 45 1.200000 0.204000 0.248000 800 42 0.900000 1.434000 1.319000 600 49 1.000000 0.052000 0.052000 1.200000 0.026000 0.031000
1560166128193145648	1300 45 1.200000 0.231000 0.280000 800 42 0.900000 1.428000 1.313000 600 50 1.000000 0.052000 0.052000 1.200000 0.043000 0.052000
1560166128701470481	1300 45 1.200000 0.204000 0.248000 800 42 0.900000 1.433000 1.318000 600 50 1.000000 0.052000 0.052000 1.200000 0.025000 0.030000
1560166129209696398	1300 45 1.200000 0.209000 0.254000 800 42 0.900000 1.432000 1.317000 600 50 1.000000 0.052000 0.052000 1.200000 0.025000 0.030000
1560166129717928898	1300 45 1.200000 0.204000 0.248000 800 42 0.900000 1.434000 1.319000 600 50 1.000000 0.052000 0.052000 1.200000 0.024000 0.028000
1560166130226206273	1300 45 1.200000 0.247000 0.300000 800 42 0.900000 1.432000 1.317000 600 50 1.000000 0.052000 0.052000 1.200000 0.040000 0.048000
1560166130734434356	1300 45 1.200000 0.223000 0.271000 800 42 0.900000 1.430000 1.315000 600 49 1.000000 0.052000 0.052000 1.200000 0.029000 0.035000
1560166131242644731	1300 45 1.200000 0.203000 0.247000 800 42 0.900000 1.431000 1.316000 600 49 1.000000 0.052000 0.052000 1.200000 0.024000 0.028000
1560166131750835856	1300 45 1.200000 0.204000 0.248000 800 42 0.900000 1.436000 1.321000 600 49 1.000000 0.052000 0.052000 1.200000 0.023000 0.027000
1560166132258924565	1300 45 1.200000 0.255000 0.309000 800 42 0.900000 1.434000 1.319000 600 49 1.000000 0.052000 0.052000 1.200000 0.033000 0.039000
1560166132767191690	1300 45 1.200000 0.228000 0.277000 800 42 0.900000 1.436000 1.321000 600 49 1.000000 0.052000 0.052000 1.200000 0.030000 0.036000
1560166133275428232	1300 45 1.200000 0.207000 0.251000 800 42 0.900000 1.432000 1.317000 600 49 1.000000 0.052000 0.052000 1.200000 0.026000 0.031000
1560166133783647898	1300 45 1.200000 0.204000 0.248000 800 42 0.900000 1.434000 1.319000 600 49 1.000000 0.052000 0.052000 1.200000 0.025000 0.030000
1560166134292455023	1300 45 1.200000 0.206000 0.250000 800 42 0.900000 1.436000 1.321000 600 49 1.000000 0.052000 0.052000 1.200000 0.026000 0.031000
1560166134800727148	1300 45 1.200000 0.262000 0.317000 800 42 0.900000 1.423000 1.309000 600 49 1.000000 0.052000 0.052000 1.200000 0.041000 0.049000
1560166135308959898	1300 45 1.200000 0.206000 0.250000 800 42 0.900000 1.434000 1.319000 600 49 1.000000 0.052000 0.052000 1.200000 0.025000 0.030000
1560166135817087774	1300 45 1.200000 0.208000 0.253000 800 42 0.900000 1.434000 1.319000 600 49 1.000000 0.052000 0.052000 1.200000 0.026000 0.031000
1560166136325298482	1300 45 1.200000 0.204000 0.248000 800 42 0.900000 1.435000 1.320000 600 49 1.000000 0.052000 0.052000 1.200000 0.024000 0.028000
1560166136833350982	1300 45 1.200000 0.260000 0.315000 800 42 0.900000 1.428000 1.313000 600 49 1.000000 0.052000 0.052000 1.200000 0.046000 0.055000
1560166137341441565	1300 45 1.200000 0.204000 0.248000 800 42 0.900000 1.434000 1.319000 600 49 1.000000 0.052000 0.052000 1.200000 0.024000 0.028000
1560166137849624482	1300 45 1.200000 0.204000 0.248000 800 42 0.900000 1.436000 1.321000 600 49 1.000000 0.052000 0.052000 1.200000 0.024000 0.028000
1560166138357793524	1300 45 1.200000 0.204000 0.248000 800 42 0.900000 1.436000 1.321000 600 49 1.000000 0.052000 0.052000 1.200000 0.024000 0.028000
1560166138866030649	1300 45 1.200000 0.278000 0.336000 800 42 0.900000 1.424000 1.310000 600 49 1.000000 0.052000 0.052000 1.200000 0.051000 0.061000
1560166139374218691	1300 45 1.200000 0.204000 0.248000 800 42 0.900000 1.432000 1.317000 600 49 1.000000 0.052000 0.052000 1.200000 0.024000 0.028000
1560166139882605316	1300 45 1.200000 0.209000 0.254000 800 42 0.900000 1.431000 1.316000 600 49 1.000000 0.052000 0.052000 1.200000 0.025000 0.030000
1560166140390915316	1300 45 1.200000 0.204000 0.248000 800 42 0.900000 1.434000 1.319000 600 49 1.000000 0.052000 0.052000 1.200000 0.025000 0.030000
1560166140899166524	1300 45 1.200000 0.207000 0.251000 800 42 0.900000 1.432000 1.317000 600 49 1.000000 0.052000 0.052000 1.200000 0.026000 0.031000
1560166141407389941	1300 45 1.200000 0.265000 0.321000 800 42 0.900000 1.427000 1.312000 600 49 1.000000 0.052000 0.052000 1.200000 0.024000 0.028000
1560166141915694733	1300 45 1.200000 0.207000 0.251000 800 42 0.900000 1.434000 1.319000 600 49 1.000000 0.052000 0.052000 1.200000 0.025000 0.030000
1560166142423962524	1300 45 1.200000 0.207000 0.251000 800 42 0.900000 1.434000 1.319000 600 49 1.000000 0.052000 0.052000 1.200000 0.026000 0.031000
1560166142932650358	1300 45 1.200000 0.206000 0.250000 800 42 0.900000 1.433000 1.318000 600 49 1.000000 0.052000 0.052000 1.200000 0.024000 0.028000
1560166143441940441	1300 45 1.200000 0.231000 0.280000 800 42 0.900000 1.434000 1.319000 600 49 1.000000 0.052000 0.052000 1.200000 0.026000 0.031000
1560166143950106400	1300 45 1.200000 0.204000 0.248000 800 42 0.900000 1.435000 1.320000 600 49 1.000000 0.052000 0.052000 1.200000 0.024000 0.028000
1560166144458344525	1300 45 1.200000 0.204000 0.248000 800 42 0.900000 1.430000 1.315000 600 49 1.000000 0.052000 0.052000 1.200000 0.024000 0.028000
1560166144966399775	1300 45 1.200000 0.204000 0.248000 800 42 0.900000 1.434000 1.319000 600 49 1.000000 0.052000 0.052000 1.200000 0.023000 0.027000
1560166145474610025	1300 45 1.200000 0.215000 0.261000 800 42 0.900000 1.428000 1.313000 600 49 1.000000 0.052000 0.052000 1.200000 0.030000 0.036000
1560166145982817691	1300 45 1.200000 0.203000 0.247000 800 42 0.900000 1.430000 1.315000 600 49 1.000000 0.052000 0.052000 1.200000 0.024000 0.028000
1560166146491068400	1300 45 1.200000 0.209000 0.254000 800 42 0.900000 1.437000 1.322000 600 49 1.000000 0.052000 0.052000 1.200000 0.024000 0.028000
1560166146999458900	1300 45 1.200000 0.204000 0.248000 800 42 0.900000 1.438000 1.322000 600 49 1.000000 0.052000 0.052000 1.200000 0.024000 0.028000
1560166147507786317	1300 45 1.200000 0.233000 0.283000 800 42 0.900000 1.437000 1.322000 600 49 1.000000 0.052000 0.052000 1.200000 0.043000 0.051000
1560166148015991025	1300 45 1.200000 0.206000 0.250000 800 42 0.900000 1.436000 1.321000 600 49 1.000000 0.052000 0.052000 1.200000 0.025000 0.030000
1560166148524352067	1300 45 1.200000 0.206000 0.250000 800 41 0.900000 1.431000 1.316000 600 49 1.000000 0.052000 0.052000 1.200000 0.024000 0.028000
1560166149032664275	1300 45 1.200000 0.207000 0.251000 800 42 0.900000 1.429000 1.314000 600 49 1.000000 0.052000 0.052000 1.200000 0.024000 0.028000
1560166149540837067	1300 45 1.200000 0.228000 0.277000 800 42 0.900000 1.429000 1.314000 600 49 1.000000 0.052000 0.052000 1.200000 0.031000 0.037000
1560166150049030359	1300 45 1.200000 0.207000 0.251000 800 42 0.900000 1.434000 1.319000 600 49 1.000000 0.052000 0.052000 1.200000 0.025000 0.030000
1560166150557322192	1300 45 1.200000 0.204000 0.248000 800 42 0.900000 1.434000 1.319000 600 49 1.000000 0.052000 0.052000 1.200000 0.024000 0.028000
1560166151065489400	1300 45 1.200000 0.204000 0.248000 800 41 0.900000 1.437000 1.322000 600 49 1.000000 0.052000 0.052000 1.200000 0.024000 0.028000
1560166151575193234	1300 45 1.200000 0.203000 0.247000 800 42 0.900000 1.435000 1.320000 600 49 1.000000 0.052000 0.052000 1.200000 0.026000 0.031000
1560166152083694775	1300 45 1.200000 0.204000 0.248000 800 42 0.900000 1.434000 1.319000 600 49 1.000000 0.052000 0.052000 1.200000 0.024000 0.028000
1560166152591967151	1300 45 1.200000 0.204000 0.248000 800 41 0.900000 1.438000 1.322000 600 49 1.000000 0.052000 0.052000 1.200000 0.024000 0.028000
1560166153100056651	1300 45 1.200000 0.208000 0.253000 800 41 0.900000 1.441000 1.325000 600 49 1.000000 0.052000 0.052000 1.200000 0.024000 0.028000
1560166153608245484	1300 45 1.200000 0.230000 0.279000 800 41 0.900000 1.433000 1.318000 600 49 1.000000 0.052000 0.052000 1.200000 0.030000 0.036000
1560166154116552401	1300 45 1.200000 0.217000 0.263000 800 41 0.900000 1.429000 1.314000 600 49 1.000000 0.052000 0.052000 1.200000 0.024000 0.028000
1560166154624901859	1300 45 1.200000 0.205000 0.249000 800 41 0.900000 1.432000 1.317000 600 49 1.000000 0.052000 0.052000 1.200000 0.026000 0.031000
1560166155133057776	1300 45 1.200000 0.206000 0.250000 800 41 0.900000 1.429000 1.314000 600 49 1.000000 0.052000 0.052000 1.200000 0.024000 0.028000
1560166155641267234	1300 45 1.200000 0.228000 0.277000 800 41 0.900000 1.434000 1.319000 600 49 1.000000 0.052000 0.052000 1.200000 0.025000 0.030000
1560166156149418234	1300 45 1.200000 0.229000 0.278000 800 41 0.900000 1.426000 1.311000 600 49 1.000000 0.052000 0.052000 1.200000 0.025000 0.030000
1560166156657626193	1300 45 1.200000 0.206000 0.250000 800 41 0.900000 1.435000 1.320000 600 49 1.000000 0.052000 0.052000 1.200000 0.024000 0.028000
1560166157165871526	1300 45 1.200000 0.204000 0.248000 800 41 0.900000 1.437000 1.322000 600 49 1.000000 0.052000 0.052000 1.200000 0.026000 0.031000
1560166157674149026	1300 45 1.200000 0.226000 0.274000 800 41 0.900000 1.432000 1.317000 600 49 1.000000 0.052000 0.052000 1.200000 0.030000 0.036000
1560166158182395151	1300 45 1.200000 0.242000 0.293000 800 42 0.900000 1.430000 1.315000 600 49 1.000000 0.052000 0.052000 1.200000 0.025000 0.030000
1560166158690874901	1300 45 1.200000 0.203000 0.246000 800 41 0.900000 1.436000 1.321000 600 49 1.000000 0.052000 0.052000 1.200000 0.025000 0.030000
1560166159199107776	1300 45 1.200000 0.205000 0.249000 800 41 0.900000 1.434000 1.319000 600 49 1.000000 0.052000 0.052000 1.200000 0.024000 0.028000
1560166159707279610	1300 45 1.200000 0.235000 0.285000 800 41 0.900000 1.434000 1.319000 600 49 1.000000 0.052000 0.052000 1.200000 0.031000 0.037000
1560166160216640360	1300 45 1.200000 0.204000 0.248000 800 42 0.900000 1.428000 1.313000 600 49 1.000000 0.052000 0.052000 1.200000 0.025000 0.030000
1560166160725097193	1300 45 1.200000 0.259000 0.313000 800 41 0.900000 1.428000 1.313000 600 49 1.000000 0.051000 0.051000 1.200000 0.042000 0.050000
1560166161233370652	1300 45 1.200000 0.205000 0.249000 800 41 0.900000 1.433000 1.318000 600 49 1.000000 0.052000 0.052000 1.200000 0.026000 0.031000
1560166161741681277	1300 45 1.200000 0.207000 0.251000 800 41 0.900000 1.434000 1.319000 600 49 1.000000 0.052000 0.052000 1.200000 0.024000 0.028000
1560166162249910985	1300 45 1.200000 0.207000 0.251000 800 41 0.900000 1.434000 1.319000 600 49 1.000000 0.052000 0.052000 1.200000 0.025000 0.030000
1560166162758187360	1300 45 1.200000 0.260000 0.315000 800 41 0.900000 1.432000 1.317000 600 49 1.000000 0.052000 0.052000 1.200000 0.039000 0.047000
1560166163266457193	1300 45 1.200000 0.208000 0.253000 800 41 0.900000 1.436000 1.321000 600 49 1.000000 0.052000 0.052000 1.200000 0.024000 0.028000
1560166163774852069	1300 45 1.200000 0.226000 0.274000 800 41 0.900000 1.434000 1.319000 600 49 1.000000 0.052000 0.052000 1.200000 0.026000 0.031000
1560166164283031985	1300 45 1.200000 0.203000 0.247000 800 41 0.900000 1.437000 1.322000 600 49 1.000000 0.052000 0.052000 1.200000 0.025000 0.030000
1560166164791368694	1300 45 1.200000 0.255000 0.309000 800 41 0.900000 1.438000 1.322000 600 49 1.000000 0.052000 0.052000 1.200000 0.033000 0.039000
1560166165299563194	1300 45 1.200000 0.208000 0.253000 800 41 0.900000 1.431000 1.316000 600 49 1.000000 0.052000 0.052000 1.200000 0.026000 0.031000
1560166165807771985	1300 45 1.200000 0.204000 0.248000 800 41 0.900000 1.434000 1.319000 600 49 1.000000 0.052000 0.052000 1.200000 0.029000 0.035000
1560166166316001277	1300 45 1.200000 0.208000 0.253000 800 41 0.900000 1.434000 1.319000 600 49 1.000000 0.052000 0.052000 1.200000 0.024000 0.028000
1560166166824174736	1300 45 1.200000 0.208000 0.253000 800 41 0.900000 1.437000 1.322000 600 49 1.000000 0.052000 0.052000 1.200000 0.028000 0.033000
1560166167332476194	1300 45 1.200000 0.203000 0.247000 800 41 0.900000 1.435000 1.317000 600 49 1.000000 0.052000 0.052000 1.200000 0.024000 0.028000
1560166167840605736	1300 45 1.200000 0.204000 0.248000 800 41 0.900000 1.431000 1.313000 600 49 1.000000 0.052000 0.052000 1.200000 0.026000 0.031000
1560166168348819111	1300 45 1.200000 0.207000 0.251000 800 41 0.900000 1.436000 1.321000 600 49 1.000000 0.052000 0.052000 1.200000 0.025000 0.030000
1560166168859734444	1300 45 1.200000 0.206000 0.250000 800 41 0.900000 1.438000 1.322000 600 49 1.000000 0.051000 0.051000 1.200000 0.025000 0.030000
1560166169368102194	1300 45 1.200000 0.241000 0.292000 800 41 0.900000 1.423000 1.309000 600 49 1.000000 0.052000 0.052000 1.200000 0.046000 0.055000
1560166169876463569	1300 45 1.200000 0.209000 0.254000 800 41 0.900000 1.431000 1.316000 600 49 1.000000 0.052000 0.052000 1.200000 0.024000 0.028000
1560166170384616069	1300 44 1.200000 0.204000 0.248000 800 41 0.900000 1.429000 1.314000 600 49 1.000000 0.052000 0.052000 1.200000 0.025000 0.030000
1560166170893016319	1300 45 1.200000 0.203000 0.247000 800 41 0.900000 1.431000 1.316000 600 49 1.000000 0.052000 0.052000 1.200000 0.026000 0.031000
1560166171401179611	1300 45 1.200000 0.227000 0.275000 800 41 0.900000 1.428000 1.313000 600 49 1.000000 0.052000 0.052000 1.200000 0.045000 0.054000
1560166171909202195	1300 45 1.200000 0.209000 0.254000 800 41 0.900000 1.430000 1.315000 600 49 1.000000 0.052000 0.052000 1.200000 0.026000 0.031000
1560166172417389736	1300 45 1.200000 0.204000 0.248000 800 41 0.900000 1.434000 1.319000 600 49 1.000000 0.052000 0.052000 1.200000 0.024000 0.028000
1560166172925476445	1300 45 1.200000 0.209000 0.254000 800 41 0.900000 1.439000 1.323000 600 49 1.000000 0.052000 0.052000 1.200000 0.024000 0.028000
1560166173433668903	1300 45 1.200000 0.249000 0.302000 800 41 0.900000 1.429000 1.314000 600 49 1.000000 0.052000 0.052000 1.200000 0.045000 0.054000
1560166173941757611	1300 45 1.200000 0.210000 0.255000 800 41 0.900000 1.437000 1.322000 600 49 1.000000 0.052000 0.052000 1.200000 0.029000 0.035000
1560166174449935570	1300 45 1.200000 0.204000 0.248000 800 41 0.900000 1.435000 1.320000 600 49 1.000000 0.052000 0.052000 1.200000 0.024000 0.028000
1560166174958108737	1300 45 1.200000 0.207000 0.252000 800 41 0.900000 1.439000 1.323000 600 49 1.000000 0.052000 0.052000 1.200000 0.025000 0.030000
1560166175466251737	1300 45 1.200000 0.206000 0.250000 800 41 0.900000 1.432000 1.317000 600 49 1.000000 0.052000 0.052000 1.200000 0.024000 0.028000
1560166175974465820	1300 45 1.200000 0.208000 0.253000 800 41 0.900000 1.427000 1.312000 600 49 1.000000 0.052000 0.052000 1.200000 0.027000 0.032000
1560166176482614737	1300 45 1.200000 0.205000 0.249000 800 41 0.900000 1.432000 1.317000 600 49 1.000000 0.052000 0.052000 1.200000 0.025000 0.030000
1560166176990755653	1300 45 1.200000 0.203000 0.247000 800 41 0.900000 1.434000 1.319000 600 49 1.000000 0.052000 0.052000 1.200000 0.025000 0.030000
1560166177499163529	1300 45 1.200000 0.203000 0.247000 800 41 0.900000 1.436000 1.321000 600 49 1.000000 0.052000 0.052000 1.200000 0.026000 0.031000
1560166178008186987	1300 45 1.200000 0.258000 0.312000 800 41 0.900000 1.429000 1.314000 600 49 1.000000 0.052000 0.052000 1.200000 0.031000 0.037000
1560166178516455029	1300 44 1.200000 0.220000 0.267000 800 41 0.900000 1.431000 1.316000 600 49 1.000000 0.052000 0.052000 1.200000 0.024000 0.028000
1560166179024733987	1300 45 1.200000 0.204000 0.248000 800 41 0.900000 1.434000 1.319000 600 49 1.000000 0.052000 0.052000 1.200000 0.024000 0.028000
1560166179533117154	1300 45 1.200000 0.209000 0.254000 800 41 0.900000 1.430000 1.315000 600 49 1.000000 0.052000 0.052000 1.200000 0.024000 0.028000
1560166180041285320	1300 45 1.200000 0.257000 0.311000 800 41 0.900000 1.427000 1.312000 600 49 1.000000 0.052000 0.052000 1.200000 0.035000 0.042000
1560166180549381404	1300 45 1.200000 0.203000 0.247000 800 41 0.900000 1.432000 1.317000 600 49 1.000000 0.052000 0.052000 1.200000 0.024000 0.028000
1560166181057531612	1300 45 1.200000 0.203000 0.247000 800 41 0.900000 1.432000 1.317000 600 49 1.000000 0.052000 0.052000 1.200000 0.023000 0.027000
1560166181565822154	1300 45 1.200000 0.208000 0.253000 800 41 0.900000 1.436000 1.321000 600 49 1.000000 0.052000 0.052000 1.200000 0.026000 0.031000
1560166182073899737	1300 45 1.200000 0.216000 0.262000 800 41 0.900000 1.431000 1.316000 600 49 1.000000 0.052000 0.052000 1.200000 0.031000 0.037000
1560166182582282446	1300 45 1.200000 0.214000 0.260000 800 41 0.900000 1.431000 1.316000 600 49 1.000000 0.052000 0.052000 1.200000 0.027000 0.032000
1560166183090724779	1300 45 1.200000 0.206000 0.250000 800 41 0.900000 1.436000 1.321000 600 49 1.000000 0.052000 0.052000 1.200000 0.025000 0.030000
1560166183599202613	1300 44 1.200000 0.203000 0.247000 800 41 0.900000 1.433000 1.318000 600 49 1.000000 0.052000 0.052000 1.200000 0.025000 0.030000
1560166184107343779	1300 45 1.200000 0.206000 0.250000 800 41 0.900000 1.436000 1.321000 600 49 1.000000 0.052000 0.052000 1.200000 0.026000 0.031000
1560166184615560738	1300 45 1.200000 0.259000 0.314000 800 41 0.900000 1.436000 1.321000 600 49 1.000000 0.052000 0.052000 1.200000 0.024000 0.028000
1560166185123858946	1300 44 1.200000 0.207000 0.251000 800 41 0.900000 1.437000 1.322000 600 49 1.000000 0.052000 0.052000 1.200000 0.024000 0.028000
1560166185632037196	1300 45 1.200000 0.205000 0.249000 800 41 0.900000 1.434000 1.319000 600 49 1.000000 0.052000 0.052000 1.200000 0.024000 0.028000
1560166186141115613	1300 45 1.200000 0.208000 0.253000 800 41 0.900000 1.436000 1.321000 600 49 1.000000 0.052000 0.052000 1.200000 0.024000 0.028000
1560166186649553071	1300 45 1.200000 0.229000 0.278000 800 41 0.900000 1.437000 1.322000 600 49 1.000000 0.052000 0.052000 1.200000 0.024000 0.028000
1560166187157840655	1300 44 1.200000 0.204000 0.248000 800 41 0.900000 1.437000 1.322000 600 49 1.000000 0.052000 0.052000 1.200000 0.024000 0.028000
1560166187666109280	1300 44 1.200000 0.204000 0.248000 800 41 0.900000 1.434000 1.319000 600 49 1.000000 0.052000 0.052000 1.200000 0.024000 0.028000
1560166188175023405	1300 44 1.200000 0.203000 0.247000 800 41 0.900000 1.433000 1.318000 600 49 1.000000 0.052000 0.052000 1.200000 0.024000 0.028000
1560166188683555822	1300 44 1.200000 0.274000 0.332000 800 41 0.900000 1.427000 1.312000 600 49 1.000000 0.052000 0.052000 1.200000 0.051000 0.061000
1560166189191821613	1300 44 1.200000 0.208000 0.253000 800 41 0.900000 1.430000 1.315000 600 49 1.000000 0.052000 0.052000 1.200000 0.025000 0.030000
1560166189700181488	1300 45 1.200000 0.206000 0.250000 800 41 0.900000 1.431000 1.316000 600 49 1.000000 0.052000 0.052000 1.200000 0.026000 0.031000
1560166190208433530	1300 44 1.200000 0.204000 0.248000 800 41 0.900000 1.429000 1.314000 600 49 1.000000 0.052000 0.052000 1.200000 0.024000 0.028000
1560166190716635738	1300 45 1.200000 0.219000 0.266000 800 41 0.900000 1.431000 1.316000 600 49 1.000000 0.052000 0.052000 1.200000 0.049000 0.059000
1560166191224936613	1300 45 1.200000 0.206000 0.250000 800 41 0.900000 1.436000 1.321000 600 49 1.000000 0.052000 0.052000 1.200000 0.024000 0.028000
1560166191733168572	1300 44 1.200000 0.207000 0.251000 800 41 0.900000 1.434000 1.319000 600 49 1.000000 0.052000 0.052000 1.200000 0.024000 0.028000
1560166192241343322	1300 45 1.200000 0.205000 0.249000 800 41 0.900000 1.433000 1.318000 600 49 1.000000 0.052000 0.052000 1.200000 0.023000 0.027000
1560166192749353155	1300 45 1.200000 0.232000 0.282000 800 41 0.900000 1.430000 1.315000 600 49 1.000000 0.052000 0.052000 1.200000 0.040000 0.048000
1560166193257514364	1300 45 1.200000 0.204000 0.248000 800 41 0.900000 1.431000 1.316000 600 49 1.000000 0.052000 0.052000 1.200000 0.024000 0.028000
1560166193765841155	1300 45 1.200000 0.204000 0.248000 800 41 0.900000 1.436000 1.321000 600 49 1.000000 0.052000 0.052000 1.200000 0.025000 0.030000
1560166194273975614	1300 44 1.200000 0.203000 0.247000 800 41 0.900000 1.434000 1.319000 600 49 1.000000 0.052000 0.052000 1.200000 0.024000 0.028000
1560166194782464156	1300 45 1.200000 0.208000 0.253000 800 41 0.900000 1.429000 1.314000 600 49 1.000000 0.052000 0.052000 1.200000 0.032000 0.038000
1560166195290979531	1300 44 1.200000 0.204000 0.248000 800 41 0.900000 1.435000 1.320000 600 49 1.000000 0.052000 0.052000 1.200000 0.037000 0.044000
1560166195799214114	1300 44 1.200000 0.208000 0.253000 800 41 0.900000 1.434000 1.319000 600 49 1.000000 0.052000 0.052000 1.200000 0.024000 0.028000
1560166196307501822	1300 44 1.200000 0.205000 0.249000 800 41 0.900000 1.435000 1.320000 600 49 1.000000 0.052000 0.052000 1.200000 0.026000 0.031000
1560166196815691239	1300 44 1.200000 0.208000 0.253000 800 41 0.900000 1.434000 1.319000 600 49 1.000000 0.052000 0.052000 1.200000 0.024000 0.028000
1560166197323869906	1300 45 1.200000 0.217000 0.263000 800 41 0.900000 1.427000 1.312000 600 49 1.000000 0.052000 0.052000 1.200000 0.031000 0.037000
1560166197832201698	1300 44 1.200000 0.207000 0.251000 800 41 0.900000 1.438000 1.322000 600 49 1.000000 0.052000 0.052000 1.200000 0.025000 0.030000
1560166198340496323	1300 45 1.200000 0.207000 0.251000 800 41 0.900000 1.432000 1.317000 600 49 1.000000 0.052000 0.052000 1.200000 0.024000 0.028000
1560166198848658448	1300 44 1.200000 0.230000 0.279000 800 41 0.900000 1.434000 1.319000 600 49 1.000000 0.052000 0.052000 1.200000 0.026000 0.031000
1560166199356968989	1300 44 1.200000 0.235000 0.285000 800 41 0.900000 1.432000 1.317000 600 49 1.000000 0.052000 0.052000 1.200000 0.026000 0.031000
1560166199865253490	1300 44 1.200000 0.204000 0.248000 800 41 0.900000 1.430000 1.315000 600 49 1.000000 0.052000 0.052000 1.200000 0.025000 0.030000
1560166200373404906	1300 44 1.200000 0.203000 0.247000 800 41 0.900000 1.430000 1.315000 600 49 1.000000 0.052000 0.052000 1.200000 0.026000 0.031000
1560166200881644865	1300 45 1.200000 0.226000 0.274000 800 41 0.900000 1.435000 1.320000 600 49 1.000000 0.052000 0.052000 1.200000 0.030000 0.036000
1560166201389827156	1300 45 1.200000 0.243000 0.294000 800 41 0.900000 1.440000 1.324000 600 49 1.000000 0.052000 0.052000 1.200000 0.025000 0.030000
1560166201898041531	1300 45 1.200000 0.203000 0.247000 800 41 0.900000 1.435000 1.320000 600 49 1.000000 0.052000 0.052000 1.200000 0.024000 0.028000
1560166202406330198	1300 44 1.200000 0.208000 0.253000 800 41 0.900000 1.434000 1.319000 600 49 1.000000 0.052000 0.052000 1.200000 0.024000 0.028000
1560166202914751657	1300 44 1.200000 0.225000 0.273000 800 41 0.900000 1.433000 1.318000 600 49 1.000000 0.052000 0.052000 1.200000 0.026000 0.031000
1560166203424198407	1300 45 1.200000 0.209000 0.254000 800 41 0.900000 1.431000 1.316000 600 49 1.000000 0.052000 0.052000 1.200000 0.025000 0.030000
1560166203932481157	1300 45 1.200000 0.260000 0.315000 800 41 0.900000 1.425000 1.311000 600 49 1.000000 0.052000 0.052000 1.200000 0.046000 0.055000
1560166204440795407	1300 45 1.200000 0.206000 0.250000 800 41 0.900000 1.433000 1.318000 600 49 1.000000 0.052000 0.052000 1.200000 0.026000 0.031000
1560166204948948573	1300 44 1.200000 0.207000 0.251000 800 41 0.900000 1.433000 1.318000 600 49 1.000000 0.052000 0.052000 1.200000 0.025000 0.030000
1560166205457108157	1300 44 1.200000 0.206000 0.250000 800 41 0.900000 1.436000 1.321000 600 49 1.000000 0.052000 0.052000 1.200000 0.025000 0.030000
1560166205965357907	1300 44 1.200000 0.258000 0.312000 800 41 0.900000 1.428000 1.313000 600 49 1.000000 0.052000 0.052000 1.200000 0.047000 0.056000
1560166206473650407	1300 44 1.200000 0.204000 0.248000 800 41 0.900000 1.434000 1.319000 600 49 1.000000 0.052000 0.052000 1.200000 0.024000 0.028000
1560166206981863657	1300 44 1.200000 0.224000 0.272000 800 41 0.900000 1.433000 1.318000 600 49 1.000000 0.052000 0.052000 1.200000 0.026000 0.031000
1560166207490051699	1300 44 1.200000 0.203000 0.247000 800 41 0.900000 1.435000 1.320000 600 49 1.000000 0.052000 0.052000 1.200000 0.025000 0.030000
1560166207998205865	1300 45 1.200000 0.258000 0.312000 800 41 0.900000 1.429000 1.314000 600 49 1.000000 0.052000 0.052000 1.200000 0.042000 0.050000
1560166208506462449	1300 44 1.200000 0.203000 0.247000 800 41 0.900000 1.434000 1.319000 600 49 1.000000 0.052000 0.052000 1.200000 0.024000 0.028000
1560166209014735991	1300 44 1.200000 0.226000 0.275000 800 41 0.900000 1.434000 1.319000 600 49 1.000000 0.052000 0.052000 1.200000 0.028000 0.033000
1560166209522879116	1300 44 1.200000 0.226000 0.274000 800 41 0.900000 1.433000 1.318000 600 49 1.000000 0.052000 0.052000 1.200000 0.026000 0.031000
1560166210030990574	1300 45 1.200000 0.208000 0.253000 800 41 0.900000 1.433000 1.318000 600 49 1.000000 0.052000 0.052000 1.200000 0.025000 0.030000
1560166210539294157	1300 44 1.200000 0.250000 0.303000 800 41 0.900000 1.429000 1.314000 600 49 1.000000 0.052000 0.052000 1.200000 0.034000 0.041000
1560166211047413033	1300 44 1.200000 0.208000 0.253000 800 41 0.900000 1.433000 1.318000 600 49 1.000000 0.052000 0.052000 1.200000 0.026000 0.031000
1560166211555636283	1300 44 1.200000 0.204000 0.248000 800 41 0.900000 1.439000 1.323000 600 49 1.000000 0.052000 0.052000 1.200000 0.024000 0.028000
1560166212064182741	1300 45 1.200000 0.208000 0.253000 800 41 0.900000 1.440000 1.324000 600 49 1.000000 0.052000 0.052000 1.200000 0.025000 0.030000
1560166212572372158	1300 44 1.200000 0.239000 0.290000 800 41 0.900000 1.426000 1.311000 600 49 1.000000 0.052000 0.052000 1.200000 0.038000 0.045000
1560166213080618616	1300 44 1.200000 0.203000 0.247000 800 41 0.900000 1.437000 1.322000 600 49 1.000000 0.052000 0.052000 1.200000 0.024000 0.028000
1560166213588820366	1300 44 1.200000 0.203000 0.247000 800 41 0.900000 1.434000 1.319000 600 49 1.000000 0.052000 0.052000 1.200000 0.023000 0.027000
1560166214097032116	1300 44 1.200000 0.203000 0.247000 800 41 0.900000 1.433000 1.318000 600 49 1.000000 0.052000 0.052000 1.200000 0.024000 0.028000
1560166214605310575	1300 44 1.200000 0.221000 0.268000 800 41 0.900000 1.424000 1.310000 600 49 1.000000 0.052000 0.052000 1.200000 0.042000 0.050000
1560166215113515908	1300 44 1.200000 0.227000 0.276000 800 41 0.900000 1.435000 1.320000 600 49 1.000000 0.052000 0.052000 1.200000 0.024000 0.028000
1560166215621700533	1300 44 1.200000 0.208000 0.253000 800 41 0.900000 1.429000 1.314000 600 49 1.000000 0.052000 0.052000 1.200000 0.024000 0.028000
1560166216129966325	1300 44 1.200000 0.203000 0.247000 800 41 0.900000 1.434000 1.319000 600 49 1.000000 0.052000 0.052000 1.200000 0.025000 0.030000
1560166216638099283	1300 44 1.200000 0.208000 0.253000 800 41 0.900000 1.431000 1.316000 600 49 1.000000 0.052000 0.052000 1.200000 0.025000 0.030000
1560166217146369408	1300 44 1.200000 0.209000 0.254000 800 41 0.900000 1.432000 1.317000 600 49 1.000000 0.052000 0.052000 1.200000 0.024000 0.028000
1560166217654795117	1300 44 1.200000 0.233000 0.283000 800 41 0.900000 1.431000 1.316000 600 49 1.000000 0.052000 0.052000 1.200000 0.026000 0.031000
1560166218163169658	1300 44 1.200000 0.204000 0.248000 800 41 0.900000 1.432000 1.317000 600 49 1.000000 0.052000 0.052000 1.200000 0.024000 0.028000
1560166218671215075	1300 45 1.200000 0.208000 0.253000 800 41 0.900000 1.434000 1.319000 600 49 1.000000 0.052000 0.052000 1.200000 0.025000 0.030000
1560166219179362075	1300 45 1.200000 0.205000 0.249000 800 41 0.900000 1.436000 1.321000 600 49 1.000000 0.052000 0.052000 1.200000 0.026000 0.031000
1560166219687672825	1300 44 1.200000 0.204000 0.248000 800 41 0.900000 1.433000 1.318000 600 49 1.000000 0.052000 0.052000 1.200000 0.024000 0.028000
1560166220195996409	1300 44 1.200000 0.204000 0.248000 800 41 0.900000 1.435000 1.320000 600 49 1.000000 0.052000 0.052000 1.200000 0.024000 0.028000
1560166220704490242	1300 45 1.200000 0.204000 0.248000 800 41 0.900000 1.434000 1.319000 600 49 1.000000 0.052000 0.052000 1.200000 0.023000 0.027000
1560166221213577700	1300 45 1.200000 0.203000 0.247000 800 41 0.900000 1.433000 1.318000 600 49 1.000000 0.052000 0.052000 1.200000 0.024000 0.028000
1560166221721933159	1300 44 1.200000 0.203000 0.246000 800 41 0.900000 1.432000 1.317000 600 49 1.000000 0.052000 0.052000 1.200000 0.024000 0.028000
1560166222230200409	1300 44 1.200000 0.208000 0.253000 800 41 0.900000 1.435000 1.320000 600 49 1.000000 0.052000 0.052000 1.200000 0.024000 0.028000
1560166222738459492	1300 44 1.200000 0.205000 0.249000 800 41 0.900000 1.435000 1.320000 600 49 1.000000 0.052000 0.052000 1.200000 0.024000 0.028000
1560166223246771451	1300 45 1.200000 0.209000 0.254000 800 41 0.900000 1.430000 1.315000 600 49 1.000000 0.052000 0.052000 1.200000 0.046000 0.055000
1560166223755078826	1300 44 1.200000 0.229000 0.278000 800 41 0.900000 1.433000 1.318000 600 49 1.000000 0.052000 0.052000 1.200000 0.031000 0.037000
1560166224263337451	1300 44 1.200000 0.208000 0.253000 800 41 0.900000 1.432000 1.317000 600 49 1.000000 0.052000 0.052000 1.200000 0.026000 0.031000
1560166224771503159	1300 44 1.200000 0.204000 0.248000 800 41 0.900000 1.434000 1.319000 600 49 1.000000 0.052000 0.052000 1.200000 0.025000 0.030000
1560166225279819826	1300 45 1.200000 0.223000 0.271000 800 41 0.900000 1.429000 1.314000 600 49 1.000000 0.052000 0.052000 1.200000 0.040000 0.048000
1560166225788030576	1300 45 1.200000 0.226000 0.274000 800 41 0.900000 1.427000 1.312000 600 49 1.000000 0.052000 0.052000 1.200000 0.024000 0.028000
1560166226296432993	1300 44 1.200000 0.204000 0.248000 800 41 0.900000 1.434000 1.319000 600 49 1.000000 0.052000 0.052000 1.200000 0.024000 0.028000
1560166226804739868	1300 44 1.200000 0.203000 0.247000 800 41 0.900000 1.434000 1.319000 600 49 1.000000 0.052000 0.052000 1.200000 0.023000 0.027000
1560166227313338409	1300 45 1.200000 0.232000 0.281000 800 41 0.900000 1.432000 1.317000 600 49 1.000000 0.052000 0.052000 1.200000 0.035000 0.042000
1560166227821700701	1300 44 1.200000 0.204000 0.248000 800 41 0.900000 1.434000 1.319000 600 49 1.000000 0.052000 0.052000 1.200000 0.024000 0.028000
1560166228329905660	1300 44 1.200000 0.205000 0.249000 800 41 0.900000 1.433000 1.318000 600 49 1.000000 0.052000 0.052000 1.200000 0.024000 0.028000
1560166228838135660	1300 44 1.200000 0.206000 0.250000 800 41 0.900000 1.431000 1.316000 600 49 1.000000 0.052000 0.052000 1.200000 0.023000 0.027000
1560166229347842743	1300 45 1.200000 0.206000 0.250000 800 41 0.900000 1.435000 1.320000 600 49 1.000000 0.052000 0.052000 1.200000 0.031000 0.037000
1560166229856173826	1300 44 1.200000 0.234000 0.284000 800 41 0.900000 1.435000 1.320000 600 49 1.000000 0.052000 0.052000 1.200000 0.023000 0.027000
1560166230364406993	1300 44 1.200000 0.204000 0.248000 800 41 0.900000 1.434000 1.319000 600 49 1.000000 0.052000 0.052000 1.200000 0.025000 0.030000
1560166230872860160	1300 44 1.200000 0.208000 0.253000 800 41 0.900000 1.432000 1.317000 600 49 1.000000 0.052000 0.052000 1.200000 0.025000 0.030000
1560166231381190618	1300 44 1.200000 0.204000 0.248000 800 41 0.900000 1.434000 1.319000 600 49 1.000000 0.052000 0.052000 1.200000 0.024000 0.028000
1560166231889266702	1300 44 1.200000 0.286000 0.346000 800 41 0.900000 1.423000 1.309000 600 49 1.000000 0.052000 0.052000 1.200000 0.049000 0.059000
1560166232397414952	1300 44 1.200000 0.205000 0.249000 800 41 0.900000 1.433000 1.318000 600 49 1.000000 0.052000 0.052000 1.200000 0.024000 0.028000
1560166232905581410	1300 44 1.200000 0.204000 0.248000 800 41 0.900000 1.434000 1.319000 600 49 1.000000 0.052000 0.052000 1.200000 0.024000 0.028000
1560166233413840494	1300 44 1.200000 0.203000 0.247000 800 41 0.900000 1.430000 1.315000 600 49 1.000000 0.052000 0.052000 1.200000 0.024000 0.028000
1560166233922035785	1300 45 1.200000 0.276000 0.334000 800 41 0.900000 1.426000 1.311000 600 49 1.000000 0.052000 0.052000 1.200000 0.029000 0.035000
1560166234430209869	1300 44 1.200000 0.206000 0.250000 800 41 0.900000 1.436000 1.321000 600 49 1.000000 0.052000 0.052000 1.200000 0.024000 0.028000
1560166234938448035	1300 44 1.200000 0.206000 0.250000 800 41 0.900000 1.434000 1.319000 600 49 1.000000 0.052000 0.052000 1.200000 0.025000 0.030000
1560166235446853869	1300 44 1.200000 0.207000 0.251000 800 41 0.900000 1.435000 1.320000 600 49 1.000000 0.052000 0.052000 1.200000 0.026000 0.031000
1560166235954940160	1300 45 1.200000 0.230000 0.279000 800 41 0.900000 1.426000 1.311000 600 49 1.000000 0.052000 0.052000 1.200000 0.029000 0.035000
1560166236463233202	1300 44 1.200000 0.204000 0.248000 800 41 0.900000 1.428000 1.313000 600 49 1.000000 0.052000 0.052000 1.200000 0.026000 0.031000
1560166236971600869	1300 44 1.200000 0.205000 0.249000 800 41 0.900000 1.433000 1.318000 600 49 1.000000 0.052000 0.052000 1.200000 0.024000 0.028000
1560166237479955536	1300 44 1.200000 0.208000 0.253000 800 41 0.900000 1.437000 1.322000 600 49 1.000000 0.052000 0.052000 1.200000 0.024000 0.028000
1560166237988505036	1300 45 1.200000 0.211000 0.256000 800 41 0.900000 1.435000 1.320000 600 49 1.000000 0.052000 0.052000 1.200000 0.026000 0.031000
1560166238496821952	1300 44 1.200000 0.254000 0.308000 800 41 0.900000 1.427000 1.312000 600 49 1.000000 0.052000 0.052000 1.200000 0.046000 0.055000
1560166239005095328	1300 44 1.200000 0.204000 0.248000 800 41 0.900000 1.432000 1.317000 600 49 1.000000 0.052000 0.052000 1.200000 0.025000 0.030000
1560166239513360494	1300 44 1.200000 0.203000 0.247000 800 41 0.900000 1.431000 1.316000 600 49 1.000000 0.052000 0.052000 1.200000 0.025000 0.030000
1560166240021538453	1300 44 1.200000 0.226000 0.274000 800 41 0.900000 1.431000 1.316000 600 49 1.000000 0.052000 0.052000 1.200000 0.024000 0.028000
1560166240529734244	1300 44 1.200000 0.238000 0.289000 800 41 0.900000 1.430000 1.315000 600 49 1.000000 0.052000 0.052000 1.200000 0.042000 0.050000
1560166241037961369	1300 44 1.200000 0.206000 0.250000 800 41 0.900000 1.435000 1.320000 600 49 1.000000 0.052000 0.052000 1.200000 0.025000 0.030000
1560166241546179411	1300 44 1.200000 0.207000 0.251000 800 41 0.900000 1.433000 1.318000 600 49 1.000000 0.052000 0.052000 1.200000 0.025000 0.030000
1560166242054439286	1300 44 1.200000 0.218000 0.265000 800 41 0.900000 1.431000 1.316000 600 49 1.000000 0.052000 0.052000 1.200000 0.029000 0.035000
1560166242562754661	1300 44 1.200000 0.240000 0.291000 800 41 0.900000 1.431000 1.316000 600 49 1.000000 0.052000 0.052000 1.200000 0.036000 0.043000
1560166243071077245	1300 44 1.200000 0.203000 0.247000 800 41 0.900000 1.430000 1.315000 600 49 1.000000 0.052000 0.052000 1.200000 0.024000 0.028000
1560166243579367703	1300 44 1.200000 0.204000 0.248000 800 41 0.900000 1.434000 1.319000 600 49 1.000000 0.052000 0.052000 1.200000 0.024000 0.028000
1560166244087580453	1300 44 1.200000 0.208000 0.253000 800 41 0.900000 1.434000 1.319000 600 49 1.000000 0.052000 0.052000 1.200000 0.024000 0.028000
1560166244595779787	1300 44 1.200000 0.205000 0.249000 800 41 0.900000 1.433000 1.318000 600 49 1.000000 0.052000 0.052000 1.200000 0.026000 0.031000
1560166245104114912	1300 44 1.200000 0.215000 0.261000 800 41 0.900000 1.429000 1.314000 600 49 1.000000 0.052000 0.052000 1.200000 0.040000 0.048000
1560166245612339495	1300 44 1.200000 0.204000 0.248000 800 41 0.900000 1.432000 1.317000 600 49 1.000000 0.052000 0.052000 1.200000 0.025000 0.030000
1560166246120509537	1300 44 1.200000 0.221000 0.268000 800 41 0.900000 1.435000 1.320000 600 49 1.000000 0.052000 0.052000 1.200000 0.026000 0.031000
1560166246628937703	1300 44 1.200000 0.203000 0.247000 800 41 0.900000 1.435000 1.320000 600 49 1.000000 0.052000 0.052000 1.200000 0.024000 0.028000
1560166247137407370	1300 44 1.200000 0.260000 0.315000 800 41 0.900000 1.426000 1.311000 600 49 1.000000 0.052000 0.052000 1.200000 0.044000 0.053000
1560166247645565287	1300 44 1.200000 0.205000 0.249000 800 41 0.900000 1.434000 1.319000 600 49 1.000000 0.052000 0.052000 1.200000 0.025000 0.030000
1560166248153874037	1300 44 1.200000 0.207000 0.252000 800 41 0.900000 1.431000 1.316000 600 49 1.000000 0.052000 0.052000 1.200000 0.024000 0.028000
1560166248662128370	1300 44 1.200000 0.206000 0.250000 800 41 0.900000 1.434000 1.319000 600 49 1.000000 0.052000 0.052000 1.200000 0.025000 0.030000
1560166249170271329	1300 44 1.200000 0.259000 0.314000 800 41 0.900000 1.423000 1.309000 600 49 1.000000 0.052000 0.052000 1.200000 0.046000 0.055000
1560166249678597037	1300 44 1.200000 0.204000 0.248000 800 41 0.900000 1.433000 1.318000 600 49 1.000000 0.052000 0.052000 1.200000 0.023000 0.027000
1560166250186720829	1300 44 1.200000 0.224000 0.272000 800 41 0.900000 1.436000 1.321000 600 49 1.000000 0.052000 0.052000 1.200000 0.028000 0.033000
1560166250695008246	1300 44 1.200000 0.208000 0.253000 800 41 0.900000 1.432000 1.317000 600 49 1.000000 0.052000 0.052000 1.200000 0.025000 0.030000
1560166251203333204	1300 44 1.200000 0.205000 0.249000 800 41 0.900000 1.434000 1.319000 600 49 1.000000 0.052000 0.052000 1.200000 0.026000 0.031000
1560166251711571662	1300 44 1.200000 0.207000 0.251000 800 41 0.900000 1.434000 1.319000 600 49 1.000000 0.052000 0.052000 1.200000 0.025000 0.030000
1560166252219846621	1300 44 1.200000 0.205000 0.249000 800 41 0.900000 1.435000 1.320000 600 49 1.000000 0.052000 0.052000 1.200000 0.024000 0.028000
1560166252728101412	1300 44 1.200000 0.204000 0.248000 800 41 0.900000 1.434000 1.319000 600 49 1.000000 0.052000 0.052000 1.200000 0.026000 0.031000
1560166253236043871	1300 45 1.200000 0.216000 0.262000 800 41 0.900000 1.431000 1.316000 600 49 1.000000 0.052000 0.052000 1.200000 0.024000 0.028000
1560166253744367913	1300 44 1.200000 0.249000 0.302000 800 41 0.900000 1.427000 1.312000 600 49 1.000000 0.052000 0.052000 1.200000 0.025000 0.030000
1560166254252495621	1300 44 1.200000 0.204000 0.248000 800 41 0.900000 1.434000 1.319000 600 49 1.000000 0.052000 0.052000 1.200000 0.025000 0.030000
1560166254760723829	1300 44 1.200000 0.208000 0.253000 800 41 0.900000 1.432000 1.317000 600 49 1.000000 0.052000 0.052000 1.200000 0.023000 0.027000
1560166255269461246	1300 45 1.200000 0.204000 0.248000 800 41 0.900000 1.431000 1.316000 600 49 1.000000 0.052000 0.052000 1.200000 0.024000 0.028000
1560166255778792080	1300 44 1.200000 0.232000 0.282000 800 41 0.900000 1.433000 1.318000 600 49 1.000000 0.052000 0.052000 1.200000 0.026000 0.031000
1560166256286938330	1300 44 1.200000 0.203000 0.247000 800 41 0.900000 1.438000 1.322000 600 49 1.000000 0.051000 0.051000 1.200000 0.024000 0.028000
1560166256795276330	1300 44 1.200000 0.203000 0.247000 800 41 0.900000 1.432000 1.317000 600 49 1.000000 0.052000 0.052000 1.200000 0.024000 0.028000
1560166257303480705	1300 44 1.200000 0.203000 0.247000 800 41 0.900000 1.435000 1.320000 600 49 1.000000 0.052000 0.052000 1.200000 0.024000 0.028000
1560166257811853788	1300 44 1.200000 0.247000 0.299000 800 41 0.900000 1.430000 1.315000 600 49 1.000000 0.052000 0.052000 1.200000 0.039000 0.047000
1560166258319945246	1300 44 1.200000 0.208000 0.253000 800 41 0.900000 1.433000 1.318000 600 49 1.000000 0.052000 0.052000 1.200000 0.026000 0.031000
1560166258828391372	1300 44 1.200000 0.205000 0.249000 800 41 0.900000 1.434000 1.319000 600 49 1.000000 0.052000 0.052000 1.200000 0.027000 0.032000
1560166259336657122	1300 44 1.200000 0.204000 0.248000 800 41 0.900000 1.431000 1.316000 600 49 1.000000 0.052000 0.052000 1.200000 0.025000 0.030000
1560166259844851330	1300 44 1.200000 0.204000 0.248000 800 41 0.900000 1.430000 1.315000 600 49 1.000000 0.052000 0.052000 1.200000 0.034000 0.041000
1560166260352848913	1300 44 1.200000 0.210000 0.255000 800 41 0.900000 1.432000 1.317000 600 49 1.000000 0.052000 0.052000 1.200000 0.025000 0.030000
1560166260861090580	1300 44 1.200000 0.225000 0.273000 800 41 0.900000 1.433000 1.318000 600 49 1.000000 0.052000 0.052000 1.200000 0.024000 0.028000
1560166261369284580	1300 44 1.200000 0.208000 0.253000 800 41 0.900000 1.434000 1.319000 600 49 1.000000 0.052000 0.052000 1.200000 0.024000 0.028000
1560166261877382539	1300 45 1.200000 0.204000 0.248000 800 41 0.900000 1.436000 1.321000 600 49 1.000000 0.052000 0.052000 1.200000 0.029000 0.035000
1560166262385418789	1300 45 1.200000 0.208000 0.253000 800 41 0.900000 1.434000 1.319000 600 49 1.000000 0.052000 0.052000 1.200000 0.024000 0.028000
1560166262893641164	1300 44 1.200000 0.203000 0.247000 800 41 0.900000 1.433000 1.318000 600 49 1.000000 0.052000 0.052000 1.200000 0.024000 0.028000
1560166263401930664	1300 44 1.200000 0.203000 0.247000 800 41 0.900000 1.435000 1.320000 600 49 1.000000 0.052000 0.052000 1.200000 0.024000 0.028000
1560166263910498414	1300 44 1.200000 0.204000 0.248000 800 41 0.900000 1.433000 1.318000 600 49 1.000000 0.052000 0.052000 1.200000 0.023000 0.027000
1560166264419345581	1300 44 1.200000 0.203000 0.247000 800 41 0.900000 1.432000 1.317000 600 49 1.000000 0.052000 0.052000 1.200000 0.024000 0.028000
1560166264927623997	1300 44 1.200000 0.232000 0.282000 800 41 0.900000 1.434000 1.319000 600 49 1.000000 0.052000 0.052000 1.200000 0.032000 0.038000
1560166265435883914	1300 44 1.200000 0.205000 0.249000 800 41 0.900000 1.432000 1.317000 600 49 1.000000 0.052000 0.052000 1.200000 0.024000 0.028000
1560166265944206539	1300 44 1.200000 0.204000 0.248000 800 41 0.900000 1.430000 1.315000 600 49 1.000000 0.052000 0.052000 1.200000 0.025000 0.030000
1560166266452755247	1300 44 1.200000 0.211000 0.256000 800 41 0.900000 1.426000 1.311000 600 49 1.000000 0.052000 0.052000 1.200000 0.048000 0.058000
1560166266961060664	1300 44 1.200000 0.230000 0.279000 800 41 0.900000 1.430000 1.315000 600 49 1.000000 0.052000 0.052000 1.200000 0.027000 0.032000
1560166267469417081	1300 44 1.200000 0.204000 0.248000 800 41 0.900000 1.434000 1.319000 600 49 1.000000 0.052000 0.052000 1.200000 0.024000 0.028000
1560166267977626164	1300 44 1.200000 0.209000 0.254000 800 41 0.900000 1.431000 1.316000 600 49 1.000000 0.052000 0.052000 1.200000 0.024000 0.028000
1560166268485749873	1300 44 1.200000 0.226000 0.274000 800 41 0.900000 1.428000 1.313000 600 49 1.000000 0.052000 0.052000 1.200000 0.046000 0.055000
1560166268993940039	1300 44 1.200000 0.230000 0.279000 800 41 0.900000 1.432000 1.317000 600 49 1.000000 0.052000 0.052000 1.200000 0.024000 0.028000
1560166269502203998	1300 44 1.200000 0.204000 0.248000 800 41 0.900000 1.430000 1.315000 600 49 1.000000 0.052000 0.052000 1.200000 0.024000 0.028000
1560166270010472331	1300 44 1.200000 0.203000 0.247000 800 41 0.900000 1.430000 1.315000 600 49 1.000000 0.052000 0.052000 1.200000 0.024000 0.028000
1560166270518730790	1300 44 1.200000 0.238000 0.288000 800 41 0.900000 1.426000 1.311000 600 49 1.000000 0.052000 0.052000 1.200000 0.046000 0.055000
1560166271026893248	1300 44 1.200000 0.204000 0.248000 800 41 0.900000 1.431000 1.316000 600 49 1.000000 0.052000 0.052000 1.200000 0.024000 0.028000
1560166271535133790	1300 44 1.200000 0.206000 0.250000 800 41 0.900000 1.431000 1.316000 600 49 1.000000 0.052000 0.052000 1.200000 0.025000 0.030000
1560166272043246290	1300 44 1.200000 0.207000 0.252000 800 41 0.900000 1.433000 1.318000 600 49 1.000000 0.052000 0.052000 1.200000 0.025000 0.030000
1560166272551916373	1300 44 1.200000 0.206000 0.250000 800 41 0.900000 1.434000 1.319000 600 49 1.000000 0.052000 0.052000 1.200000 0.024000 0.028000
1560166273061153082	1300 44 1.200000 0.256000 0.310000 800 41 0.900000 1.431000 1.316000 600 49 1.000000 0.052000 0.052000 1.200000 0.034000 0.041000
1560166273569274165	1300 44 1.200000 0.209000 0.254000 800 41 0.900000 1.432000 1.317000 600 49 1.000000 0.052000 0.052000 1.200000 0.024000 0.028000
1560166274077404582	1300 44 1.200000 0.204000 0.248000 800 41 0.900000 1.428000 1.313000 600 49 1.000000 0.052000 0.052000 1.200000 0.025000 0.030000
1560166274585684748	1300 44 1.200000 0.208000 0.253000 800 41 0.900000 1.429000 1.314000 600 49 1.000000 0.052000 0.052000 1.200000 0.025000 0.030000
1560166275094034582	1300 44 1.200000 0.277000 0.335000 800 41 0.900000 1.430000 1.315000 600 49 1.000000 0.052000 0.052000 1.200000 0.037000 0.044000
1560166275602350582	1300 44 1.200000 0.208000 0.253000 800 41 0.900000 1.432000 1.317000 600 49 1.000000 0.052000 0.052000 1.200000 0.026000 0.031000
1560166276110659249	1300 44 1.200000 0.203000 0.247000 800 41 0.900000 1.434000 1.319000 600 49 1.000000 0.052000 0.052000 1.200000 0.025000 0.030000
1560166276618854707	1300 44 1.200000 0.204000 0.248000 800 41 0.900000 1.430000 1.315000 600 49 1.000000 0.052000 0.052000 1.200000 0.025000 0.030000
1560166277127144582	1300 44 1.200000 0.277000 0.335000 800 41 0.900000 1.430000 1.315000 600 49 1.000000 0.052000 0.052000 1.200000 0.037000 0.044000
1560166277635481499	1300 44 1.200000 0.203000 0.247000 800 41 0.900000 1.435000 1.320000 600 49 1.000000 0.052000 0.052000 1.200000 0.024000 0.028000
1560166278143675166	1300 44 1.200000 0.204000 0.248000 800 41 0.900000 1.433000 1.318000 600 49 1.000000 0.052000 0.052000 1.200000 0.025000 0.030000
1560166278652071416	1300 44 1.200000 0.204000 0.248000 800 41 0.900000 1.434000 1.319000 600 49 1.000000 0.052000 0.052000 1.200000 0.025000 0.030000
1560166279160262207	1300 44 1.200000 0.207000 0.251000 800 41 0.900000 1.434000 1.319000 600 49 1.000000 0.052000 0.052000 1.200000 0.024000 0.028000
1560166279668508666	1300 44 1.200000 0.260000 0.315000 800 41 0.900000 1.426000 1.311000 600 49 1.000000 0.052000 0.052000 1.200000 0.046000 0.055000
1560166280176682582	1300 44 1.200000 0.208000 0.253000 800 41 0.900000 1.432000 1.317000 600 49 1.000000 0.052000 0.052000 1.200000 0.025000 0.030000
1560166280684967541	1300 44 1.200000 0.204000 0.248000 800 41 0.900000 1.433000 1.318000 600 49 1.000000 0.052000 0.052000 1.200000 0.025000 0.030000
1560166281193510041	1300 44 1.200000 0.208000 0.253000 800 41 0.900000 1.434000 1.319000 600 49 1.000000 0.052000 0.052000 1.200000 0.025000 0.030000
1560166281701859541	1300 44 1.200000 0.244000 0.295000 800 41 0.900000 1.425000 1.311000 600 49 1.000000 0.052000 0.052000 1.200000 0.045000 0.054000
1560166282210088333	1300 44 1.200000 0.208000 0.253000 800 41 0.900000 1.430000 1.315000 600 49 1.000000 0.052000 0.052000 1.200000 0.025000 0.030000
1560166282718337708	1300 44 1.200000 0.203000 0.247000 800 41 0.900000 1.432000 1.317000 600 49 1.000000 0.052000 0.052000 1.200000 0.025000 0.030000
1560166283226607124	1300 44 1.200000 0.225000 0.273000 800 41 0.900000 1.434000 1.319000 600 49 1.000000 0.052000 0.052000 1.200000 0.025000 0.030000
1560166283734826416	1300 44 1.200000 0.230000 0.279000 800 41 0.900000 1.425000 1.311000 600 49 1.000000 0.052000 0.052000 1.200000 0.046000 0.055000
1560166284243138833	1300 44 1.200000 0.203000 0.247000 800 41 0.900000 1.438000 1.322000 600 49 1.000000 0.052000 0.052000 1.200000 0.025000 0.030000
1560166284751305708	1300 44 1.200000 0.206000 0.250000 800 41 0.900000 1.437000 1.322000 600 49 1.000000 0.052000 0.052000 1.200000 0.024000 0.028000
1560166285259474375	1300 44 1.200000 0.208000 0.253000 800 41 0.900000 1.434000 1.319000 600 49 1.000000 0.052000 0.052000 1.200000 0.030000 0.036000
1560166285767654875	1300 44 1.200000 0.226000 0.274000 800 41 0.900000 1.433000 1.318000 600 49 1.000000 0.052000 0.052000 1.200000 0.024000 0.028000
1560166286275845416	1300 44 1.200000 0.218000 0.265000 800 41 0.900000 1.432000 1.317000 600 49 1.000000 0.052000 0.052000 1.200000 0.026000 0.031000
1560166286784126708	1300 44 1.200000 0.206000 0.250000 800 41 0.900000 1.434000 1.319000 600 49 1.000000 0.052000 0.052000 1.200000 0.025000 0.030000
1560166287292259292	1300 44 1.200000 0.205000 0.249000 800 41 0.900000 1.428000 1.313000 600 49 1.000000 0.052000 0.052000 1.200000 0.024000 0.028000
1560166287800326625	1300 44 1.200000 0.208000 0.253000 800 41 0.900000 1.432000 1.317000 600 49 1.000000 0.052000 0.052000 1.200000 0.026000 0.031000
1560166288308570792	1300 44 1.200000 0.205000 0.249000 800 41 0.900000 1.430000 1.315000 600 49 1.000000 0.052000 0.052000 1.200000 0.029000 0.035000
1560166288816799917	1300 44 1.200000 0.208000 0.253000 800 41 0.900000 1.437000 1.322000 600 49 1.000000 0.052000 0.052000 1.200000 0.026000 0.031000
1560166289325063000	1300 44 1.200000 0.209000 0.254000 800 41 0.900000 1.434000 1.319000 600 49 1.000000 0.052000 0.052000 1.200000 0.025000 0.030000
1560166289835904542	1300 44 1.200000 0.203000 0.247000 800 41 0.900000 1.437000 1.322000 600 49 1.000000 0.052000 0.052000 1.200000 0.024000 0.028000
1560166290344180042	1300 44 1.200000 0.204000 0.248000 800 41 0.900000 1.434000 1.319000 600 49 1.000000 0.052000 0.052000 1.200000 0.033000 0.039000
1560166290852453625	1300 44 1.200000 0.203000 0.247000 800 41 0.900000 1.434000 1.319000 600 49 1.000000 0.052000 0.052000 1.200000 0.024000 0.028000
1560166291360512292	1300 44 1.200000 0.206000 0.250000 800 41 0.900000 1.438000 1.322000 600 49 1.000000 0.052000 0.052000 1.200000 0.023000 0.027000
1560166291868738250	1300 44 1.200000 0.206000 0.250000 800 41 0.900000 1.435000 1.320000 600 49 1.000000 0.052000 0.052000 1.200000 0.023000 0.027000
1560166292377036459	1300 44 1.200000 0.206000 0.250000 800 41 0.900000 1.427000 1.312000 600 49 1.000000 0.052000 0.052000 1.200000 0.033000 0.039000
1560166292885205501	1300 44 1.200000 0.206000 0.250000 800 41 0.900000 1.429000 1.314000 600 49 1.000000 0.052000 0.052000 1.200000 0.025000 0.030000
1560166293393285667	1300 44 1.200000 0.207000 0.251000 800 41 0.900000 1.433000 1.318000 600 49 1.000000 0.052000 0.052000 1.200000 0.026000 0.031000
1560166293901468417	1300 44 1.200000 0.217000 0.263000 800 41 0.900000 1.429000 1.314000 600 49 1.000000 0.052000 0.052000 1.200000 0.024000 0.028000
1560166294409528959	1300 44 1.200000 0.214000 0.260000 800 41 0.900000 1.428000 1.313000 600 49 1.000000 0.052000 0.052000 1.200000 0.030000 0.036000
1560166294917802043	1300 44 1.200000 0.205000 0.249000 800 41 0.900000 1.437000 1.322000 600 49 1.000000 0.052000 0.052000 1.200000 0.025000 0.030000
1560166295426031168	1300 44 1.200000 0.208000 0.253000 800 41 0.900000 1.436000 1.321000 600 49 1.000000 0.052000 0.052000 1.200000 0.025000 0.030000
1560166295934239251	1300 44 1.200000 0.203000 0.247000 800 41 0.900000 1.434000 1.319000 600 49 1.000000 0.052000 0.052000 1.200000 0.026000 0.031000
1560166296442341918	1300 44 1.200000 0.226000 0.274000 800 41 0.900000 1.433000 1.318000 600 49 1.000000 0.052000 0.052000 1.200000 0.024000 0.028000
1560166296950603043	1300 44 1.200000 0.203000 0.247000 800 41 0.900000 1.433000 1.318000 600 49 1.000000 0.052000 0.052000 1.200000 0.023000 0.027000
1560166297458747584	1300 44 1.200000 0.208000 0.253000 800 41 0.900000 1.435000 1.320000 600 49 1.000000 0.052000 0.052000 1.200000 0.024000 0.028000
1560166297966987543	1300 44 1.200000 0.212000 0.258000 800 41 0.900000 1.433000 1.318000 600 49 1.000000 0.052000 0.052000 1.200000 0.024000 0.028000
1560166298476797418	1300 44 1.200000 0.208000 0.253000 800 41 0.900000 1.434000 1.319000 600 49 1.000000 0.052000 0.052000 1.200000 0.024000 0.028000
1560166298985208460	1300 44 1.200000 0.222000 0.269000 800 41 0.900000 1.433000 1.318000 600 49 1.000000 0.052000 0.052000 1.200000 0.024000 0.028000
1560166299493480835	1300 44 1.200000 0.206000 0.250000 800 41 0.900000 1.434000 1.319000 600 48 1.000000 0.052000 0.052000 1.200000 0.024000 0.028000
1560166300001718210	1300 44 1.200000 0.230000 0.279000 800 41 0.900000 1.433000 1.318000 600 49 1.000000 0.052000 0.052000 1.200000 0.033000 0.039000
1560166300509879418	1300 44 1.200000 0.205000 0.249000 800 41 0.900000 1.434000 1.319000 600 49 1.000000 0.052000 0.052000 1.200000 0.024000 0.028000
1560166301018129710	1300 44 1.200000 0.257000 0.311000 800 41 0.900000 1.429000 1.314000 600 49 1.000000 0.052000 0.052000 1.200000 0.046000 0.055000
1560166301526229293	1300 44 1.200000 0.205000 0.249000 800 41 0.900000 1.430000 1.315000 600 49 1.000000 0.052000 0.052000 1.200000 0.025000 0.030000
1560166302034650127	1300 44 1.200000 0.208000 0.253000 800 41 0.900000 1.431000 1.316000 600 49 1.000000 0.052000 0.052000 1.200000 0.024000 0.028000
1560166302543049752	1300 44 1.200000 0.203000 0.247000 800 41 0.900000 1.437000 1.322000 600 49 1.000000 0.052000 0.052000 1.200000 0.024000 0.028000
1560166303051299460	1300 44 1.200000 0.255000 0.309000 800 41 0.900000 1.431000 1.316000 600 49 1.000000 0.051000 0.051000 1.200000 0.044000 0.053000
1560166303559698710	1300 44 1.200000 0.204000 0.248000 800 41 0.900000 1.432000 1.317000 600 49 1.000000 0.052000 0.052000 1.200000 0.024000 0.028000
1560166304067953669	1300 44 1.200000 0.232000 0.282000 800 41 0.900000 1.432000 1.317000 600 49 1.000000 0.052000 0.052000 1.200000 0.024000 0.028000
1560166304576116502	1300 44 1.200000 0.205000 0.249000 800 41 0.900000 1.434000 1.319000 600 49 1.000000 0.052000 0.052000 1.200000 0.024000 0.028000
1560166305084278919	1300 44 1.200000 0.208000 0.253000 800 41 0.900000 1.424000 1.310000 600 49 1.000000 0.051000 0.051000 1.200000 0.040000 0.048000
1560166305592688835	1300 44 1.200000 0.204000 0.248000 800 41 0.900000 1.431000 1.316000 600 49 1.000000 0.052000 0.052000 1.200000 0.024000 0.028000
1560166306101004336	1300 44 1.200000 0.204000 0.248000 800 41 0.900000 1.434000 1.319000 600 49 1.000000 0.052000 0.052000 1.200000 0.024000 0.028000
1560166306609218294	1300 44 1.200000 0.206000 0.250000 800 41 0.900000 1.434000 1.319000 600 49 1.000000 0.052000 0.052000 1.200000 0.025000 0.030000
1560166307117742252	1300 45 1.200000 0.206000 0.250000 800 41 0.900000 1.433000 1.318000 600 48 1.000000 0.052000 0.052000 1.200000 0.025000 0.030000
1560166307626984211	1300 44 1.200000 0.258000 0.312000 800 41 0.900000 1.431000 1.316000 600 49 1.000000 0.052000 0.052000 1.200000 0.036000 0.043000
1560166308135271752	1300 44 1.200000 0.226000 0.274000 800 41 0.900000 1.434000 1.319000 600 48 1.000000 0.052000 0.052000 1.200000 0.029000 0.035000
1560166308643571627	1300 44 1.200000 0.208000 0.253000 800 41 0.900000 1.431000 1.316000 600 49 1.000000 0.051000 0.051000 1.200000 0.024000 0.028000
1560166309151885211	1300 44 1.200000 0.203000 0.247000 800 41 0.900000 1.431000 1.316000 600 49 1.000000 0.052000 0.052000 1.200000 0.024000 0.028000
1560166309660207003	1300 44 1.200000 0.242000 0.294000 800 41 0.900000 1.426000 1.311000 600 48 1.000000 0.052000 0.052000 1.200000 0.040000 0.048000
1560166310168512711	1300 44 1.200000 0.227000 0.276000 800 41 0.900000 1.431000 1.316000 600 48 1.000000 0.052000 0.052000 1.200000 0.024000 0.028000
1560166310676796253	1300 44 1.200000 0.208000 0.253000 800 41 0.900000 1.433000 1.318000 600 49 1.000000 0.052000 0.052000 1.200000 0.024000 0.028000
1560166311185029461	1300 44 1.200000 0.205000 0.249000 800 41 0.900000 1.431000 1.316000 600 49 1.000000 0.052000 0.052000 1.200000 0.023000 0.027000
1560166311693124378	1300 44 1.200000 0.236000 0.286000 800 41 0.900000 1.434000 1.319000 600 48 1.000000 0.052000 0.052000 1.200000 0.044000 0.053000
1560166312201196711	1300 44 1.200000 0.227000 0.276000 800 41 0.900000 1.433000 1.318000 600 48 1.000000 0.052000 0.052000 1.200000 0.024000 0.028000
1560166312709414086	1300 44 1.200000 0.203000 0.247000 800 41 0.900000 1.434000 1.319000 600 48 1.000000 0.052000 0.052000 1.200000 0.024000 0.028000
1560166313217757711	1300 44 1.200000 0.205000 0.249000 800 41 0.900000 1.430000 1.315000 600 48 1.000000 0.052000 0.052000 1.200000 0.025000 0.030000
1560166313725947836	1300 44 1.200000 0.206000 0.250000 800 41 0.900000 1.431000 1.316000 600 49 1.000000 0.051000 0.051000 1.200000 0.024000 0.028000
1560166314234212336	1300 44 1.200000 0.236000 0.286000 800 41 0.900000 1.425000 1.308000 600 49 1.000000 0.052000 0.052000 1.200000 0.045000 0.054000
1560166314742631295	1300 44 1.200000 0.205000 0.249000 800 41 0.900000 1.429000 1.314000 600 49 1.000000 0.051000 0.051000 1.200000 0.025000 0.030000
1560166315250745087	1300 44 1.200000 0.207000 0.252000 800 41 0.900000 1.434000 1.319000 600 49 1.000000 0.052000 0.052000 1.200000 0.025000 0.030000
1560166315759673753	1300 44 1.200000 0.203000 0.247000 800 41 0.900000 1.431000 1.316000 600 48 1.000000 0.051000 0.051000 1.200000 0.025000 0.030000
1560166316267886628	1300 40 1.200000 0.094000 0.114000 800 40 0.900000 1.205000 1.108000 600 44 1.000000 0.052000 0.052000 1.200000 0.047000 0.056000
1560166316775823462	1300 39 1.200000 0.070000 0.085000 800 39 0.900000 0.089000 0.082000 600 43 1.000000 0.052000 0.052000 1.200000 0.022000 0.026000
