#Timestamp	CPU(0) Frequency(MHz)	CPU(0) Temperature(C)	A7 Voltage(V)	A7 Current(A)	A7 Power(W)	CPU(4) Frequency(MHz)	CPU(4) Temperature(C)	A15 Voltage(V)	A15 Current(A)	A15 Power(W)	GPU Frequency(MHz)	GPU Temperature(C)	GPU Voltage(V)	GPU Current(A)	GPU Power(W)	RAM Voltage(V)	RAM Current(A)	RAM Power(W)
1517574814489715617	1000 38 1.000000 0.067000 0.069000 1500 32 1.000000 1.022000 1.117000 600 36 1.000000 0.050000 0.050000 1.200000 0.048000 0.058000
1517574814995702825	1000 39 1.000000 0.193000 0.211000 1500 33 1.000000 0.996000 1.090000 600 37 1.000000 0.051000 0.051000 1.200000 0.045000 0.054000
1517574815501399617	1000 39 1.000000 0.192000 0.210000 1500 34 1.000000 1.000000 1.093000 600 38 1.000000 0.051000 0.051000 1.200000 0.038000 0.045000
1517574816007446159	1000 40 1.000000 0.158000 0.173000 1500 34 1.000000 1.005000 1.098000 600 38 1.000000 0.051000 0.051000 1.200000 0.048000 0.058000
1517574816513450742	1000 40 1.000000 0.188000 0.206000 1500 34 1.000000 1.016000 1.110000 600 38 1.000000 0.051000 0.051000 1.200000 0.037000 0.044000
1517574817019367576	1000 40 1.000000 0.155000 0.170000 1500 35 1.000000 1.091000 1.194000 600 38 1.000000 0.051000 0.051000 1.200000 0.041000 0.049000
1517574817525044701	1000 41 1.000000 0.190000 0.208000 1500 35 1.000000 0.995000 1.087000 600 40 1.000000 0.051000 0.051000 1.200000 0.047000 0.056000
1517574818031569492	1000 40 1.000000 0.192000 0.210000 1500 35 1.000000 1.227000 1.343000 600 39 1.000000 0.051000 0.051000 1.200000 0.043000 0.051000
1517574818537686243	1000 41 1.000000 0.156000 0.171000 1500 35 1.000000 0.997000 1.089000 600 39 1.000000 0.051000 0.051000 1.200000 0.044000 0.053000
1517574819043623743	1000 41 1.000000 0.190000 0.208000 1500 35 1.000000 0.987000 1.078000 600 39 1.000000 0.051000 0.051000 1.200000 0.040000 0.048000
1517574819550410409	1000 41 1.000000 0.188000 0.206000 1500 35 1.000000 1.026000 1.121000 600 40 1.000000 0.051000 0.051000 1.200000 0.037000 0.044000
1517574820056535243	1000 42 1.000000 0.191000 0.209000 1500 36 1.000000 1.242000 1.359000 600 39 1.000000 0.051000 0.051000 1.200000 0.043000 0.051000
1517574820562557159	1000 42 1.000000 0.194000 0.212000 1500 36 1.000000 1.019000 1.113000 600 39 1.000000 0.051000 0.051000 1.200000 0.039000 0.047000
1517574821068701326	1000 42 1.000000 0.169000 0.185000 1500 36 1.000000 1.097000 1.201000 600 40 1.000000 0.051000 0.051000 1.200000 0.046000 0.055000
1517574821574667493	1000 42 1.000000 0.183000 0.200000 1500 36 1.000000 1.023000 1.118000 600 40 1.000000 0.051000 0.051000 1.200000 0.036000 0.043000
1517574822080743118	1000 42 1.000000 0.155000 0.170000 1500 36 1.000000 1.212000 1.327000 600 40 1.000000 0.051000 0.051000 1.200000 0.053000 0.064000
1517574822586660410	1000 42 1.000000 0.187000 0.204000 1500 36 1.000000 1.028000 1.123000 600 40 1.000000 0.051000 0.051000 1.200000 0.036000 0.043000
1517574823092690993	1000 42 1.000000 0.158000 0.173000 1500 36 1.000000 1.095000 1.196000 600 40 1.000000 0.051000 0.051000 1.200000 0.043000 0.051000
1517574823598767368	1000 42 1.000000 0.193000 0.211000 1500 36 1.000000 1.022000 1.117000 600 40 1.000000 0.051000 0.051000 1.200000 0.047000 0.056000
1517574824105172910	1000 42 1.000000 0.193000 0.211000 1500 36 1.000000 0.995000 1.087000 600 40 1.000000 0.051000 0.051000 1.200000 0.036000 0.043000
1517574824611259410	1000 42 1.000000 0.156000 0.171000 1500 36 1.000000 1.011000 1.105000 600 40 1.000000 0.051000 0.051000 1.200000 0.046000 0.055000
1517574825117267118	1000 42 1.000000 0.184000 0.201000 1500 36 1.000000 0.996000 1.088000 600 40 1.000000 0.051000 0.051000 1.200000 0.042000 0.050000
1517574825623302868	1000 42 1.000000 0.156000 0.171000 1500 36 1.000000 1.028000 1.123000 600 40 1.000000 0.051000 0.051000 1.200000 0.040000 0.048000
1517574826129243202	1000 42 1.000000 0.194000 0.212000 1500 36 1.000000 0.999000 1.091000 600 40 1.000000 0.051000 0.051000 1.200000 0.037000 0.044000
1517574826635244827	1000 43 1.000000 0.188000 0.206000 1500 36 1.000000 1.020000 1.114000 600 40 1.000000 0.051000 0.051000 1.200000 0.037000 0.044000
1517574827141259160	1000 42 1.000000 0.192000 0.210000 1500 37 1.000000 1.123000 1.229000 600 40 1.000000 0.051000 0.051000 1.200000 0.043000 0.051000
1517574827647232410	1000 42 1.000000 0.188000 0.206000 1500 37 1.000000 1.021000 1.115000 600 40 1.000000 0.051000 0.051000 1.200000 0.036000 0.043000
1517574828152954285	1000 43 1.000000 0.155000 0.170000 1500 37 1.000000 1.009000 1.102000 600 41 1.000000 0.051000 0.051000 1.200000 0.045000 0.054000
1517574828658934202	1000 43 1.000000 0.191000 0.209000 1500 37 1.000000 1.006000 1.099000 600 41 1.000000 0.051000 0.051000 1.200000 0.037000 0.044000
1517574829164932744	1000 42 1.000000 0.153000 0.167000 1500 37 1.000000 1.074000 1.173000 600 40 1.000000 0.051000 0.051000 1.200000 0.049000 0.059000
1517574829670936577	1000 43 1.000000 0.192000 0.210000 1500 37 1.000000 0.996000 1.088000 600 40 1.000000 0.051000 0.051000 1.200000 0.036000 0.043000
1517574830177042911	1000 43 1.000000 0.194000 0.212000 1500 37 1.000000 1.019000 1.113000 600 42 1.000000 0.051000 0.051000 1.200000 0.035000 0.042000
1517574830683022952	1000 43 1.000000 0.177000 0.193000 1500 37 1.000000 1.252000 1.370000 600 41 1.000000 0.051000 0.051000 1.200000 0.052000 0.062000
1517574831189022244	1000 43 1.000000 0.195000 0.213000 1500 37 1.000000 1.022000 1.117000 600 41 1.000000 0.051000 0.051000 1.200000 0.040000 0.048000
1517574831695049869	1000 43 1.000000 0.154000 0.168000 1500 37 1.000000 0.987000 1.078000 600 41 1.000000 0.051000 0.051000 1.200000 0.045000 0.054000
1517574832201035119	1000 42 1.000000 0.188000 0.206000 1500 37 1.000000 1.014000 1.108000 600 42 1.000000 0.051000 0.051000 1.200000 0.036000 0.043000
1517574832707181328	1000 43 1.000000 0.190000 0.208000 1500 37 1.000000 1.243000 1.361000 600 41 1.000000 0.051000 0.051000 1.200000 0.039000 0.047000
1517574833213213786	1000 43 1.000000 0.193000 0.211000 1500 37 1.000000 1.118000 1.221000 600 41 1.000000 0.051000 0.051000 1.200000 0.040000 0.048000
1517574833719578369	1000 42 1.000000 0.186000 0.203000 1500 37 1.000000 1.005000 1.098000 600 41 1.000000 0.051000 0.051000 1.200000 0.036000 0.043000
1517574834225790869	1000 43 1.000000 0.158000 0.173000 1500 37 1.000000 1.027000 1.122000 600 41 1.000000 0.051000 0.051000 1.200000 0.042000 0.050000
1517574834731638369	1000 43 1.000000 0.192000 0.210000 1500 37 1.000000 1.242000 1.359000 600 41 1.000000 0.051000 0.051000 1.200000 0.038000 0.045000
1517574835237835620	1000 43 1.000000 0.156000 0.171000 1500 37 1.000000 1.105000 1.209000 600 41 1.000000 0.051000 0.051000 1.200000 0.050000 0.060000
1517574835743700578	1000 43 1.000000 0.191000 0.209000 1500 37 1.000000 0.999000 1.091000 600 41 1.000000 0.051000 0.051000 1.200000 0.036000 0.043000
1517574836250087120	1000 43 1.000000 0.190000 0.208000 1500 37 1.000000 1.035000 1.131000 600 41 1.000000 0.051000 0.051000 1.200000 0.038000 0.045000
1517574836756043745	1000 43 1.000000 0.196000 0.214000 1500 37 1.000000 1.053000 1.150000 600 41 1.000000 0.051000 0.051000 1.200000 0.045000 0.054000
1517574837261897703	1000 43 1.000000 0.188000 0.206000 1500 37 1.000000 1.019000 1.113000 600 41 1.000000 0.051000 0.051000 1.200000 0.037000 0.044000
1517574837768040745	1000 43 1.000000 0.155000 0.170000 1500 37 1.000000 0.996000 1.088000 600 41 1.000000 0.051000 0.051000 1.200000 0.049000 0.059000
1517574838274147287	1000 43 1.000000 0.193000 0.211000 1500 37 1.000000 1.022000 1.117000 600 41 1.000000 0.051000 0.051000 1.200000 0.036000 0.043000
1517574838780365495	1000 43 1.000000 0.194000 0.212000 1500 37 1.000000 1.038000 1.134000 600 41 1.000000 0.051000 0.051000 1.200000 0.048000 0.058000
1517574839286367495	1000 43 1.000000 0.187000 0.204000 1500 37 1.000000 1.051000 1.148000 600 41 1.000000 0.051000 0.051000 1.200000 0.040000 0.048000
1517574839792453287	1000 44 1.000000 0.185000 0.202000 1500 37 1.000000 1.007000 1.100000 600 41 1.000000 0.051000 0.051000 1.200000 0.038000 0.045000
1517574840298529912	1000 43 1.000000 0.193000 0.211000 1500 37 1.000000 1.006000 1.099000 600 41 1.000000 0.051000 0.051000 1.200000 0.037000 0.044000
1517574840805053037	1000 43 1.000000 0.188000 0.206000 1500 37 1.000000 1.060000 1.158000 600 42 1.000000 0.051000 0.051000 1.200000 0.041000 0.049000
1517574841311145579	1000 43 1.000000 0.185000 0.202000 1500 37 1.000000 1.098000 1.200000 600 41 1.000000 0.051000 0.051000 1.200000 0.042000 0.050000
1517574841817183079	1000 43 1.000000 0.190000 0.208000 1500 37 1.000000 0.999000 1.091000 600 41 1.000000 0.051000 0.051000 1.200000 0.036000 0.043000
1517574842323235954	1000 43 1.000000 0.188000 0.206000 1500 37 1.000000 1.011000 1.105000 600 41 1.000000 0.051000 0.051000 1.200000 0.043000 0.052000
1517574842829605287	1000 43 1.000000 0.195000 0.213000 1500 38 1.000000 1.017000 1.111000 600 43 1.000000 0.051000 0.051000 1.200000 0.039000 0.047000
1517574843335660079	1000 43 1.000000 0.190000 0.208000 1500 37 1.000000 1.136000 1.243000 600 41 1.000000 0.051000 0.051000 1.200000 0.037000 0.044000
1517574843841854037	1000 43 1.000000 0.195000 0.213000 1500 37 1.000000 1.013000 1.107000 600 41 1.000000 0.051000 0.051000 1.200000 0.037000 0.044000
1517574844348144329	1000 43 1.000000 0.189000 0.207000 1500 37 1.000000 1.013000 1.107000 600 41 1.000000 0.051000 0.051000 1.200000 0.037000 0.044000
1517574844854275371	1000 43 1.000000 0.157000 0.172000 1500 37 1.000000 1.029000 1.124000 600 42 1.000000 0.051000 0.051000 1.200000 0.041000 0.049000
1517574845360385412	1000 43 1.000000 0.197000 0.215000 1500 38 1.000000 1.086000 1.189000 600 41 1.000000 0.051000 0.051000 1.200000 0.041000 0.049000
1517574845866320662	1000 43 1.000000 0.191000 0.209000 1500 37 1.000000 1.020000 1.114000 600 41 1.000000 0.051000 0.051000 1.200000 0.046000 0.055000
1517574846372389996	1000 43 1.000000 0.193000 0.211000 1500 37 1.000000 1.011000 1.105000 600 41 1.000000 0.051000 0.051000 1.200000 0.037000 0.044000
1517574846878349454	1000 44 1.000000 0.187000 0.204000 1500 37 1.000000 0.979000 1.070000 600 41 1.000000 0.051000 0.051000 1.200000 0.038000 0.045000
1517574847384396663	1000 43 1.000000 0.203000 0.222000 1500 38 1.000000 1.163000 1.271000 600 42 1.000000 0.051000 0.051000 1.200000 0.053000 0.064000
1517574847890475621	1000 43 1.000000 0.185000 0.202000 1500 38 1.000000 1.008000 1.101000 600 41 1.000000 0.051000 0.051000 1.200000 0.038000 0.045000
1517574848396781579	1000 43 1.000000 0.157000 0.172000 1500 38 1.000000 1.016000 1.110000 600 41 1.000000 0.051000 0.051000 1.200000 0.037000 0.044000
1517574848902776204	1000 43 1.000000 0.183000 0.200000 1500 38 1.000000 1.025000 1.120000 600 41 1.000000 0.051000 0.051000 1.200000 0.039000 0.047000
1517574849408892580	1000 44 1.000000 0.196000 0.215000 1500 38 1.000000 1.110000 1.215000 600 42 1.000000 0.051000 0.051000 1.200000 0.038000 0.045000
1517574849914644830	1000 43 1.000000 0.187000 0.204000 1500 38 1.000000 1.005000 1.098000 600 41 1.000000 0.051000 0.051000 1.200000 0.046000 0.055000
1517574850421020371	1000 44 1.000000 0.193000 0.211000 1500 37 1.000000 1.009000 1.102000 600 41 1.000000 0.051000 0.051000 1.200000 0.037000 0.044000
1517574850927040038	1000 43 1.000000 0.195000 0.213000 1500 38 1.000000 1.008000 1.101000 600 41 1.000000 0.051000 0.051000 1.200000 0.047000 0.056000
1517574851433008871	1000 44 1.000000 0.193000 0.211000 1500 38 1.000000 1.127000 1.234000 600 42 1.000000 0.051000 0.051000 1.200000 0.038000 0.045000
1517574851939120163	1000 43 1.000000 0.165000 0.181000 1500 38 1.000000 1.013000 1.107000 600 41 1.000000 0.051000 0.051000 1.200000 0.042000 0.050000
1517574852445134538	1000 43 1.000000 0.191000 0.209000 1500 38 1.000000 0.993000 1.085000 600 41 1.000000 0.051000 0.051000 1.200000 0.038000 0.045000
1517574852951087205	1000 44 1.000000 0.187000 0.205000 1500 38 1.000000 0.995000 1.087000 600 41 1.000000 0.051000 0.051000 1.200000 0.038000 0.045000
1517574853456774413	1000 44 1.000000 0.193000 0.211000 1500 38 1.000000 1.207000 1.321000 600 44 1.000000 0.051000 0.051000 1.200000 0.039000 0.047000
1517574853962524997	1000 44 1.000000 0.190000 0.208000 1500 38 1.000000 1.006000 1.099000 600 41 1.000000 0.051000 0.051000 1.200000 0.038000 0.045000
1517574854468600205	1000 44 1.000000 0.156000 0.171000 1500 38 1.000000 1.006000 1.099000 600 41 1.000000 0.051000 0.051000 1.200000 0.039000 0.047000
1517574854974621580	1000 44 1.000000 0.188000 0.206000 1500 38 1.000000 1.001000 1.094000 600 41 1.000000 0.051000 0.051000 1.200000 0.039000 0.047000
1517574855480830205	1000 44 1.000000 0.193000 0.211000 1500 38 1.000000 1.010000 1.103000 600 43 1.000000 0.051000 0.051000 1.200000 0.037000 0.044000
1517574855986926580	1000 44 1.000000 0.198000 0.217000 1500 38 1.000000 1.253000 1.372000 600 42 1.000000 0.051000 0.051000 1.200000 0.056000 0.067000
1517574856492957872	1000 44 1.000000 0.190000 0.208000 1500 38 1.000000 1.018000 1.112000 600 41 1.000000 0.051000 0.051000 1.200000 0.038000 0.045000
1517574856998930789	1000 44 1.000000 0.189000 0.207000 1500 38 1.000000 1.011000 1.105000 600 42 1.000000 0.051000 0.051000 1.200000 0.049000 0.059000
1517574857504700372	1000 44 1.000000 0.188000 0.206000 1500 38 1.000000 1.025000 1.120000 600 42 1.000000 0.051000 0.051000 1.200000 0.040000 0.048000
1517574858010759164	1000 44 1.000000 0.162000 0.177000 1500 38 1.000000 1.209000 1.323000 600 42 1.000000 0.051000 0.051000 1.200000 0.059000 0.071000
1517574858516674789	1000 44 1.000000 0.183000 0.200000 1500 38 1.000000 1.028000 1.123000 600 42 1.000000 0.051000 0.051000 1.200000 0.039000 0.047000
1517574859022632372	1000 44 1.000000 0.193000 0.211000 1500 38 1.000000 1.002000 1.095000 600 42 1.000000 0.051000 0.051000 1.200000 0.038000 0.045000
1517574859528440997	1000 44 1.000000 0.186000 0.204000 1500 38 1.000000 1.031000 1.126000 600 43 1.000000 0.051000 0.051000 1.200000 0.038000 0.045000
1517574860034780289	1000 43 1.000000 0.198000 0.217000 1500 38 1.000000 1.130000 1.237000 600 42 1.000000 0.051000 0.051000 1.200000 0.049000 0.059000
1517574860540888039	1000 44 1.000000 0.196000 0.214000 1500 38 1.000000 1.033000 1.129000 600 42 1.000000 0.051000 0.051000 1.200000 0.042000 0.050000
1517574861046793539	1000 44 1.000000 0.195000 0.213000 1500 38 1.000000 1.007000 1.100000 600 42 1.000000 0.051000 0.051000 1.200000 0.039000 0.047000
1517574861552718164	1000 44 1.000000 0.172000 0.188000 1500 38 1.000000 1.034000 1.130000 600 44 1.000000 0.051000 0.051000 1.200000 0.039000 0.047000
1517574862058626998	1000 44 1.000000 0.195000 0.213000 1500 38 1.000000 1.097000 1.201000 600 42 1.000000 0.051000 0.051000 1.200000 0.042000 0.050000
1517574862564643914	1000 44 1.000000 0.193000 0.211000 1500 38 1.000000 1.079000 1.179000 600 42 1.000000 0.051000 0.051000 1.200000 0.039000 0.047000
1517574863070593998	1000 44 1.000000 0.191000 0.209000 1500 38 1.000000 1.031000 1.126000 600 42 1.000000 0.051000 0.051000 1.200000 0.043000 0.051000
1517574863576716498	1000 44 1.000000 0.181000 0.198000 1500 38 1.000000 1.023000 1.118000 600 43 1.000000 0.052000 0.052000 1.200000 0.038000 0.045000
1517574864082381831	1000 44 1.000000 0.156000 0.171000 1500 38 1.000000 1.104000 1.206000 600 43 1.000000 0.052000 0.052000 1.200000 0.050000 0.060000
1517574864588297290	1000 44 1.000000 0.200000 0.219000 1500 38 1.000000 1.076000 1.176000 600 42 1.000000 0.051000 0.051000 1.200000 0.039000 0.047000
1517574865094165748	1000 44 1.000000 0.191000 0.209000 1500 38 1.000000 1.005000 1.098000 600 42 1.000000 0.051000 0.051000 1.200000 0.042000 0.050000
1517574865600643873	1000 44 1.000000 0.194000 0.212000 1500 38 1.000000 1.022000 1.117000 600 42 1.000000 0.051000 0.051000 1.200000 0.038000 0.045000
1517574866107004248	1000 44 1.000000 0.189000 0.207000 1500 38 1.000000 1.051000 1.148000 600 43 1.000000 0.051000 0.051000 1.200000 0.038000 0.045000
1517574866613273332	1000 44 1.000000 0.191000 0.209000 1500 38 1.000000 1.069000 1.168000 600 42 1.000000 0.051000 0.051000 1.200000 0.038000 0.045000
1517574867119254915	1000 44 1.000000 0.192000 0.210000 1500 38 1.000000 1.022000 1.117000 600 42 1.000000 0.051000 0.051000 1.200000 0.037000 0.044000
1517574867625390332	1000 44 1.000000 0.159000 0.174000 1500 38 1.000000 1.005000 1.098000 600 42 1.000000 0.051000 0.051000 1.200000 0.043000 0.051000
1517574868131350248	1000 44 1.000000 0.190000 0.208000 1500 38 1.000000 1.107000 1.209000 600 42 1.000000 0.051000 0.051000 1.200000 0.040000 0.048000
1517574868637437332	1000 44 1.000000 0.199000 0.218000 1500 38 1.000000 1.165000 1.275000 600 42 1.000000 0.051000 0.051000 1.200000 0.048000 0.058000
1517574869143391082	1000 44 1.000000 0.187000 0.204000 1500 38 1.000000 1.029000 1.124000 600 42 1.000000 0.051000 0.051000 1.200000 0.038000 0.045000
1517574869649736999	1000 43 1.000000 0.195000 0.213000 1500 38 1.000000 1.009000 1.102000 600 42 1.000000 0.051000 0.051000 1.200000 0.038000 0.045000
1517574870155750624	1000 44 1.000000 0.158000 0.173000 1500 38 1.000000 1.126000 1.232000 600 42 1.000000 0.051000 0.051000 1.200000 0.048000 0.058000
1517574870661788832	1000 44 1.000000 0.190000 0.208000 1500 38 1.000000 1.170000 1.281000 600 42 1.000000 0.051000 0.051000 1.200000 0.049000 0.059000
1517574871167797499	1000 44 1.000000 0.163000 0.178000 1500 38 1.000000 0.997000 1.089000 600 42 1.000000 0.051000 0.051000 1.200000 0.047000 0.056000
1517574871673853707	1000 44 1.000000 0.183000 0.200000 1500 38 1.000000 1.008000 1.101000 600 42 1.000000 0.051000 0.051000 1.200000 0.037000 0.044000
1517574872179994041	1000 45 1.000000 0.195000 0.213000 1500 38 1.000000 1.079000 1.181000 600 42 1.000000 0.051000 0.051000 1.200000 0.039000 0.047000
1517574872685958166	1000 44 1.000000 0.199000 0.218000 1500 38 1.000000 1.160000 1.270000 600 42 1.000000 0.051000 0.051000 1.200000 0.048000 0.057000
1517574873192019707	1000 44 1.000000 0.190000 0.208000 1500 38 1.000000 1.052000 1.149000 600 42 1.000000 0.051000 0.051000 1.200000 0.038000 0.045000
1517574873698055207	1000 44 1.000000 0.154000 0.168000 1500 38 1.000000 0.997000 1.089000 600 42 1.000000 0.051000 0.051000 1.200000 0.045000 0.054000
1517574874204032291	1000 44 1.000000 0.193000 0.211000 1500 38 1.000000 1.108000 1.213000 600 42 1.000000 0.051000 0.051000 1.200000 0.041000 0.049000
1517574874709749374	1000 44 1.000000 0.171000 0.187000 1500 38 1.000000 1.004000 1.097000 600 43 1.000000 0.051000 0.051000 1.200000 0.040000 0.048000
1517574875215640708	1000 44 1.000000 0.185000 0.202000 1500 38 1.000000 1.054000 1.152000 600 42 1.000000 0.051000 0.051000 1.200000 0.037000 0.044000
1517574875722239124	1000 45 1.000000 0.193000 0.211000 1500 38 1.000000 1.014000 1.108000 600 42 1.000000 0.051000 0.051000 1.200000 0.035000 0.042000
1517574876228670541	1000 44 1.000000 0.195000 0.213000 1500 38 1.000000 1.133000 1.240000 600 42 1.000000 0.051000 0.051000 1.200000 0.042000 0.050000
1517574876734907624	1000 44 1.000000 0.194000 0.212000 1500 38 1.000000 1.010000 1.103000 600 43 1.000000 0.051000 0.051000 1.200000 0.036000 0.043000
1517574877241031041	1000 44 1.000000 0.165000 0.181000 1500 38 1.000000 1.022000 1.117000 600 42 1.000000 0.051000 0.051000 1.200000 0.046000 0.055000
1517574877746978708	1000 44 1.000000 0.187000 0.205000 1500 38 1.000000 1.009000 1.102000 600 42 1.000000 0.051000 0.051000 1.200000 0.037000 0.044000
1517574878252977916	1000 44 1.000000 0.175000 0.191000 1500 38 1.000000 1.070000 1.171000 600 42 1.000000 0.051000 0.051000 1.200000 0.047000 0.056000
1517574878758848541	1000 44 1.000000 0.192000 0.210000 1500 38 1.000000 1.005000 1.098000 600 42 1.000000 0.051000 0.051000 1.200000 0.036000 0.043000
1517574879265320375	1000 44 1.000000 0.198000 0.217000 1500 38 1.000000 1.197000 1.310000 600 42 1.000000 0.051000 0.051000 1.200000 0.047000 0.056000
1517574879771363875	1000 44 1.000000 0.158000 0.173000 1500 38 1.000000 1.025000 1.120000 600 42 1.000000 0.051000 0.051000 1.200000 0.045000 0.054000
1517574880277360708	1000 44 1.000000 0.185000 0.202000 1500 38 1.000000 1.081000 1.181000 600 42 1.000000 0.051000 0.051000 1.200000 0.042000 0.050000
1517574880783410417	1000 44 1.000000 0.158000 0.173000 1500 38 1.000000 1.036000 1.132000 600 42 1.000000 0.051000 0.051000 1.200000 0.048000 0.057000
1517574881289367792	1000 44 1.000000 0.197000 0.215000 1500 38 1.000000 1.205000 1.319000 600 42 1.000000 0.051000 0.051000 1.200000 0.046000 0.055000
1517574881795330833	1000 44 1.000000 0.159000 0.174000 1500 38 1.000000 0.969000 1.059000 600 42 1.000000 0.051000 0.051000 1.200000 0.040000 0.048000
1517574882301356625	1000 44 1.000000 0.192000 0.210000 1500 38 1.000000 1.072000 1.171000 600 42 1.000000 0.051000 0.051000 1.200000 0.041000 0.049000
1517574882807244417	1000 44 1.000000 0.191000 0.209000 1500 38 1.000000 1.001000 1.094000 600 42 1.000000 0.051000 0.051000 1.200000 0.035000 0.042000
1517574883313267334	1000 44 1.000000 0.171000 0.187000 1500 38 1.000000 1.193000 1.306000 600 42 1.000000 0.051000 0.051000 1.200000 0.046000 0.055000
1517574883819151000	1000 44 1.000000 0.190000 0.208000 1500 38 1.000000 0.997000 1.089000 600 42 1.000000 0.051000 0.051000 1.200000 0.035000 0.042000
1517574884325206750	1000 44 1.000000 0.160000 0.175000 1500 38 1.000000 1.100000 1.204000 600 42 1.000000 0.051000 0.051000 1.200000 0.040000 0.048000
1517574884831278209	1000 44 1.000000 0.181000 0.198000 1500 38 1.000000 1.006000 1.099000 600 42 1.000000 0.051000 0.051000 1.200000 0.034000 0.041000
1517574885337182126	1000 44 1.000000 0.189000 0.207000 1500 38 1.000000 1.211000 1.326000 600 43 1.000000 0.051000 0.051000 1.200000 0.039000 0.047000
1517574885843085542	1000 44 1.000000 0.201000 0.220000 1500 38 1.000000 1.031000 1.126000 600 42 1.000000 0.051000 0.051000 1.200000 0.037000 0.044000
1517574886349011126	1000 44 1.000000 0.185000 0.202000 1500 38 1.000000 1.085000 1.185000 600 42 1.000000 0.051000 0.051000 1.200000 0.039000 0.047000
1517574886854995792	1000 44 1.000000 0.192000 0.210000 1500 38 1.000000 1.024000 1.119000 600 42 1.000000 0.051000 0.051000 1.200000 0.036000 0.043000
1517574887362037334	1000 43 1.000000 0.194000 0.212000 1500 38 1.000000 0.994000 1.086000 600 44 1.000000 0.051000 0.051000 1.200000 0.036000 0.043000
1517574887868493959	1000 44 1.000000 0.198000 0.217000 1500 38 1.000000 1.036000 1.132000 600 42 1.000000 0.051000 0.051000 1.200000 0.056000 0.067000
1517574888374410584	1000 44 1.000000 0.192000 0.210000 1500 38 1.000000 1.083000 1.183000 600 42 1.000000 0.051000 0.051000 1.200000 0.035000 0.042000
1517574888880513959	1000 44 1.000000 0.187000 0.205000 1500 38 1.000000 1.031000 1.126000 600 42 1.000000 0.051000 0.051000 1.200000 0.041000 0.049000
1517574889386364543	1000 44 1.000000 0.190000 0.208000 1500 38 1.000000 1.012000 1.106000 600 42 1.000000 0.051000 0.051000 1.200000 0.038000 0.045000
1517574889892569959	1000 44 1.000000 0.180000 0.197000 1500 38 1.000000 1.006000 1.099000 600 42 1.000000 0.051000 0.051000 1.200000 0.047000 0.056000
1517574890398497834	1000 44 1.000000 0.193000 0.211000 1500 38 1.000000 1.079000 1.179000 600 42 1.000000 0.051000 0.051000 1.200000 0.037000 0.044000
1517574890904609876	1000 44 1.000000 0.170000 0.186000 1500 38 1.000000 1.006000 1.099000 600 42 1.000000 0.051000 0.051000 1.200000 0.034000 0.041000
1517574891410526085	1000 44 1.000000 0.183000 0.200000 1500 38 1.000000 1.011000 1.105000 600 42 1.000000 0.051000 0.051000 1.200000 0.036000 0.043000
1517574891916723960	1000 44 1.000000 0.194000 0.212000 1500 38 1.000000 1.205000 1.319000 600 42 1.000000 0.051000 0.051000 1.200000 0.035000 0.042000
1517574892422803751	1000 44 1.000000 0.167000 0.183000 1500 39 1.000000 1.078000 1.178000 600 42 1.000000 0.051000 0.051000 1.200000 0.047000 0.056000
1517574892929328626	1000 44 1.000000 0.190000 0.208000 1500 39 1.000000 1.015000 1.109000 600 42 1.000000 0.051000 0.051000 1.200000 0.034000 0.041000
1517574893435304126	1000 44 1.000000 0.155000 0.170000 1500 38 1.000000 1.009000 1.102000 600 42 1.000000 0.051000 0.051000 1.200000 0.044000 0.053000
1517574893941365543	1000 44 1.000000 0.193000 0.211000 1500 38 1.000000 1.000000 1.093000 600 42 1.000000 0.051000 0.051000 1.200000 0.035000 0.042000
1517574894447318377	1000 44 1.000000 0.157000 0.172000 1500 39 1.000000 1.036000 1.132000 600 42 1.000000 0.052000 0.052000 1.200000 0.037000 0.044000
1517574894953352918	1000 44 1.000000 0.193000 0.211000 1500 39 1.000000 1.013000 1.107000 600 42 1.000000 0.051000 0.051000 1.200000 0.035000 0.042000
1517574895459353835	1000 44 1.000000 0.190000 0.208000 1500 38 1.000000 1.024000 1.119000 600 42 1.000000 0.051000 0.051000 1.200000 0.035000 0.042000
1517574895965214002	1000 44 1.000000 0.197000 0.215000 1500 38 1.000000 1.015000 1.111000 600 43 1.000000 0.051000 0.051000 1.200000 0.037000 0.044000
1517574896471574627	1000 44 1.000000 0.192000 0.210000 1500 38 1.000000 1.032000 1.127000 600 42 1.000000 0.051000 0.051000 1.200000 0.034000 0.041000
1517574896977782794	1000 44 1.000000 0.163000 0.178000 1500 38 1.000000 1.003000 1.096000 600 42 1.000000 0.052000 0.052000 1.200000 0.046000 0.055000
1517574897483772544	1000 44 1.000000 0.191000 0.209000 1500 38 1.000000 1.031000 1.126000 600 42 1.000000 0.051000 0.051000 1.200000 0.035000 0.042000
1517574897989751794	1000 44 1.000000 0.188000 0.206000 1500 39 1.000000 1.005000 1.100000 600 44 1.000000 0.051000 0.051000 1.200000 0.033000 0.039000
1517574898495754127	1000 44 1.000000 0.204000 0.223000 1500 38 1.000000 1.255000 1.374000 600 42 1.000000 0.051000 0.051000 1.200000 0.052000 0.062000
1517574899001895544	1000 45 1.000000 0.188000 0.206000 1500 38 1.000000 1.065000 1.164000 600 42 1.000000 0.051000 0.051000 1.200000 0.035000 0.042000
1517574899507972211	1000 44 1.000000 0.187000 0.205000 1500 38 1.000000 1.027000 1.122000 600 42 1.000000 0.051000 0.051000 1.200000 0.048000 0.058000
1517574900014046502	1000 44 1.000000 0.191000 0.209000 1500 38 1.000000 1.017000 1.111000 600 43 1.000000 0.051000 0.051000 1.200000 0.034000 0.041000
1517574900520205002	1000 44 1.000000 0.160000 0.175000 1500 39 1.000000 1.183000 1.295000 600 43 1.000000 0.051000 0.051000 1.200000 0.049000 0.059000
1517574901026234377	1000 44 1.000000 0.191000 0.209000 1500 39 1.000000 1.027000 1.122000 600 42 1.000000 0.051000 0.051000 1.200000 0.036000 0.043000
1517574901532303752	1000 44 1.000000 0.159000 0.174000 1500 39 1.000000 1.028000 1.123000 600 42 1.000000 0.051000 0.051000 1.200000 0.035000 0.042000
1517574902038269002	1000 44 1.000000 0.194000 0.212000 1500 39 1.000000 1.030000 1.125000 600 42 1.000000 0.051000 0.051000 1.200000 0.034000 0.041000
1517574902544077044	1000 44 1.000000 0.203000 0.222000 1500 39 1.000000 1.210000 1.324000 600 43 1.000000 0.051000 0.051000 1.200000 0.045000 0.054000
1517574903050315919	1000 44 1.000000 0.155000 0.170000 1500 39 1.000000 1.003000 1.096000 600 42 1.000000 0.051000 0.051000 1.200000 0.046000 0.055000
1517574903556162919	1000 44 1.000000 0.194000 0.212000 1500 38 1.000000 1.014000 1.108000 600 42 1.000000 0.051000 0.051000 1.200000 0.035000 0.042000
1517574904062121169	1000 44 1.000000 0.184000 0.201000 1500 39 1.000000 1.023000 1.118000 600 42 1.000000 0.051000 0.051000 1.200000 0.034000 0.041000
1517574904568014628	1000 44 1.000000 0.195000 0.213000 1500 39 1.000000 1.043000 1.139000 600 43 1.000000 0.051000 0.051000 1.200000 0.040000 0.048000
1517574905074124461	1000 43 1.000000 0.188000 0.206000 1500 38 1.000000 1.115000 1.218000 600 42 1.000000 0.051000 0.051000 1.200000 0.036000 0.043000
1517574905580124045	1000 44 1.000000 0.158000 0.173000 1500 39 1.000000 1.019000 1.113000 600 42 1.000000 0.051000 0.051000 1.200000 0.047000 0.056000
1517574906086122586	1000 44 1.000000 0.187000 0.204000 1500 39 1.000000 1.037000 1.133000 600 42 1.000000 0.051000 0.051000 1.200000 0.035000 0.042000
1517574906591970045	1000 45 1.000000 0.158000 0.173000 1500 39 1.000000 0.987000 1.078000 600 43 1.000000 0.051000 0.051000 1.200000 0.040000 0.048000
1517574907098107253	1000 44 1.000000 0.190000 0.208000 1500 39 1.000000 1.045000 1.142000 600 42 1.000000 0.052000 0.052000 1.200000 0.037000 0.044000
1517574907604220295	1000 45 1.000000 0.165000 0.181000 1500 39 1.000000 1.014000 1.108000 600 42 1.000000 0.051000 0.051000 1.200000 0.035000 0.042000
1517574908110135878	1000 44 1.000000 0.182000 0.199000 1500 39 1.000000 1.032000 1.127000 600 42 1.000000 0.051000 0.051000 1.200000 0.035000 0.042000
1517574908615711420	1000 45 1.000000 0.193000 0.211000 1500 39 1.000000 1.012000 1.106000 600 44 1.000000 0.051000 0.051000 1.200000 0.034000 0.041000
1517574909121924087	1000 44 1.000000 0.158000 0.173000 1500 39 1.000000 1.018000 1.112000 600 42 1.000000 0.051000 0.051000 1.200000 0.045000 0.054000
1517574909627821087	1000 44 1.000000 0.194000 0.212000 1500 39 1.000000 1.002000 1.095000 600 42 1.000000 0.051000 0.051000 1.200000 0.035000 0.042000
1517574910134057295	1000 44 1.000000 0.190000 0.208000 1500 39 1.000000 1.025000 1.122000 600 42 1.000000 0.051000 0.051000 1.200000 0.035000 0.042000
1517574910640291337	1000 44 1.000000 0.194000 0.212000 1500 39 1.000000 1.030000 1.125000 600 44 1.000000 0.051000 0.051000 1.200000 0.037000 0.044000
1517574911146775837	1000 43 1.000000 0.200000 0.219000 1500 38 1.000000 1.307000 1.431000 600 42 1.000000 0.051000 0.051000 1.200000 0.047000 0.056000
1517574911653102295	1000 44 1.000000 0.155000 0.170000 1500 39 1.000000 1.025000 1.120000 600 42 1.000000 0.051000 0.051000 1.200000 0.046000 0.055000
1517574912158981129	1000 44 1.000000 0.190000 0.208000 1500 39 1.000000 1.023000 1.118000 600 42 1.000000 0.051000 0.051000 1.200000 0.035000 0.042000
1517574912664611754	1000 44 1.000000 0.156000 0.171000 1500 39 1.000000 0.997000 1.089000 600 43 1.000000 0.051000 0.051000 1.200000 0.042000 0.050000
1517574913170529087	1000 44 1.000000 0.203000 0.222000 1500 39 1.000000 1.211000 1.326000 600 42 1.000000 0.052000 0.052000 1.200000 0.047000 0.056000
1517574913676577629	1000 45 1.000000 0.177000 0.194000 1500 39 1.000000 1.013000 1.107000 600 42 1.000000 0.051000 0.051000 1.200000 0.034000 0.041000
1517574914182452754	1000 44 1.000000 0.169000 0.185000 1500 39 1.000000 1.009000 1.102000 600 42 1.000000 0.051000 0.051000 1.200000 0.034000 0.041000
1517574914688239671	1000 44 1.000000 0.184000 0.201000 1500 39 1.000000 1.009000 1.102000 600 44 1.000000 0.051000 0.051000 1.200000 0.035000 0.042000
1517574915194119546	1000 45 1.000000 0.163000 0.178000 1500 39 1.000000 1.226000 1.342000 600 43 1.000000 0.051000 0.051000 1.200000 0.052000 0.062000
1517574915700146462	1000 44 1.000000 0.188000 0.206000 1500 39 1.000000 1.006000 1.099000 600 42 1.000000 0.051000 0.051000 1.200000 0.035000 0.042000
1517574916206133338	1000 44 1.000000 0.192000 0.210000 1500 39 1.000000 1.003000 1.096000 600 42 1.000000 0.051000 0.051000 1.200000 0.035000 0.042000
1517574916712257421	1000 44 1.000000 0.195000 0.213000 1500 39 1.000000 1.042000 1.138000 600 44 1.000000 0.051000 0.051000 1.200000 0.036000 0.043000
1517574917218511588	1000 44 1.000000 0.193000 0.211000 1500 39 1.000000 1.096000 1.200000 600 43 1.000000 0.051000 0.051000 1.200000 0.039000 0.047000
1517574917724666254	1000 44 1.000000 0.159000 0.174000 1500 39 1.000000 1.028000 1.123000 600 42 1.000000 0.051000 0.051000 1.200000 0.046000 0.055000
1517574918230514213	1000 44 1.000000 0.193000 0.211000 1500 39 1.000000 1.012000 1.106000 600 42 1.000000 0.051000 0.051000 1.200000 0.037000 0.044000
1517574918736781338	1000 44 1.000000 0.156000 0.171000 1500 39 1.000000 1.026000 1.121000 600 44 1.000000 0.051000 0.051000 1.200000 0.044000 0.053000
1517574919242516088	1000 45 1.000000 0.193000 0.211000 1500 39 1.000000 1.008000 1.101000 600 43 1.000000 0.052000 0.052000 1.200000 0.034000 0.041000
1517574919748646588	1000 45 1.000000 0.191000 0.209000 1500 39 1.000000 1.010000 1.103000 600 43 1.000000 0.051000 0.051000 1.200000 0.035000 0.042000
1517574920254687255	1000 44 1.000000 0.194000 0.212000 1500 39 1.000000 1.013000 1.107000 600 42 1.000000 0.051000 0.051000 1.200000 0.035000 0.042000
1517574920761220755	1000 44 1.000000 0.191000 0.209000 1500 39 1.000000 1.007000 1.100000 600 42 1.000000 0.051000 0.051000 1.200000 0.036000 0.043000
1517574921267360796	1000 44 1.000000 0.158000 0.173000 1500 39 1.000000 1.044000 1.141000 600 44 1.000000 0.051000 0.051000 1.200000 0.040000 0.048000
1517574921773416380	1000 44 1.000000 0.199000 0.218000 1500 39 1.000000 1.006000 1.099000 600 42 1.000000 0.051000 0.051000 1.200000 0.034000 0.041000
1517574922279487172	1000 44 1.000000 0.162000 0.177000 1500 39 1.000000 1.011000 1.105000 600 42 1.000000 0.052000 0.052000 1.200000 0.047000 0.056000
1517574922785475380	1000 44 1.000000 0.182000 0.199000 1500 39 1.000000 1.028000 1.123000 600 42 1.000000 0.051000 0.051000 1.200000 0.035000 0.042000
1517574923291778588	1000 43 1.000000 0.197000 0.216000 1500 39 1.000000 1.111000 1.216000 600 42 1.000000 0.051000 0.051000 1.200000 0.041000 0.049000
1517574923797861047	1000 44 1.000000 0.167000 0.183000 1500 39 1.000000 1.243000 1.361000 600 43 1.000000 0.051000 0.051000 1.200000 0.052000 0.062000
1517574924303960172	1000 44 1.000000 0.191000 0.209000 1500 39 1.000000 1.011000 1.105000 600 42 1.000000 0.051000 0.051000 1.200000 0.034000 0.041000
1517574924809988005	1000 44 1.000000 0.155000 0.170000 1500 39 1.000000 1.012000 1.106000 600 42 1.000000 0.051000 0.051000 1.200000 0.046000 0.055000
1517574925316067464	1000 44 1.000000 0.191000 0.209000 1500 39 1.000000 1.047000 1.144000 600 42 1.000000 0.051000 0.051000 1.200000 0.036000 0.043000
1517574925822175922	1000 45 1.000000 0.165000 0.181000 1500 39 1.000000 1.185000 1.297000 600 43 1.000000 0.051000 0.051000 1.200000 0.055000 0.066000
1517574926328177797	1000 44 1.000000 0.190000 0.208000 1500 39 1.000000 1.002000 1.095000 600 42 1.000000 0.051000 0.051000 1.200000 0.034000 0.041000
1517574926834226964	1000 45 1.000000 0.192000 0.210000 1500 39 1.000000 0.982000 1.073000 600 42 1.000000 0.051000 0.051000 1.200000 0.042000 0.050000
1517574927340315172	1000 45 1.000000 0.193000 0.211000 1500 39 1.000000 1.000000 1.093000 600 42 1.000000 0.051000 0.051000 1.200000 0.035000 0.042000
1517574927846579297	1000 45 1.000000 0.190000 0.208000 1500 39 1.000000 1.185000 1.297000 600 43 1.000000 0.051000 0.051000 1.200000 0.052000 0.062000
1517574928352774714	1000 45 1.000000 0.193000 0.211000 1500 39 1.000000 0.997000 1.089000 600 42 1.000000 0.051000 0.051000 1.200000 0.042000 0.050000
1517574928859255297	1000 43 1.000000 0.193000 0.211000 1500 39 1.000000 1.007000 1.100000 600 42 1.000000 0.051000 0.051000 1.200000 0.036000 0.043000
1517574929365424881	1000 45 1.000000 0.161000 0.176000 1500 39 1.000000 1.143000 1.251000 600 42 1.000000 0.051000 0.051000 1.200000 0.040000 0.048000
1517574929871036631	1000 45 1.000000 0.194000 0.212000 1500 39 1.000000 1.005000 1.098000 600 43 1.000000 0.051000 0.051000 1.200000 0.036000 0.043000
1517574930377005881	1000 45 1.000000 0.162000 0.177000 1500 39 1.000000 1.030000 1.127000 600 42 1.000000 0.051000 0.051000 1.200000 0.050000 0.060000
1517574930882948298	1000 45 1.000000 0.190000 0.208000 1500 39 1.000000 1.011000 1.105000 600 42 1.000000 0.052000 0.052000 1.200000 0.036000 0.043000
1517574931389047214	1000 44 1.000000 0.161000 0.176000 1500 39 1.000000 1.026000 1.121000 600 43 1.000000 0.051000 0.051000 1.200000 0.037000 0.044000
1517574931895300798	1000 45 1.000000 0.193000 0.211000 1500 39 1.000000 1.009000 1.102000 600 44 1.000000 0.051000 0.051000 1.200000 0.036000 0.043000
1517574932401579964	1000 45 1.000000 0.157000 0.172000 1500 39 1.000000 1.209000 1.323000 600 43 1.000000 0.052000 0.052000 1.200000 0.045000 0.054000
1517574932907495548	1000 45 1.000000 0.190000 0.208000 1500 39 1.000000 1.012000 1.106000 600 42 1.000000 0.052000 0.052000 1.200000 0.036000 0.043000
1517574933413996923	1000 45 1.000000 0.188000 0.206000 1500 39 1.000000 1.103000 1.207000 600 42 1.000000 0.051000 0.051000 1.200000 0.039000 0.047000
1517574933920026048	1000 44 1.000000 0.194000 0.212000 1500 39 1.000000 1.044000 1.141000 600 42 1.000000 0.051000 0.051000 1.200000 0.040000 0.048000
1517574934425977506	1000 45 1.000000 0.201000 0.220000 1500 39 1.000000 1.206000 1.320000 600 43 1.000000 0.051000 0.051000 1.200000 0.047000 0.056000
1517574934932134423	1000 45 1.000000 0.195000 0.213000 1500 39 1.000000 1.015000 1.109000 600 42 1.000000 0.051000 0.051000 1.200000 0.034000 0.041000
1517574935438207631	1000 45 1.000000 0.191000 0.209000 1500 39 1.000000 1.020000 1.114000 600 43 1.000000 0.051000 0.051000 1.200000 0.036000 0.043000
1517574935944277923	1000 45 1.000000 0.196000 0.215000 1500 39 1.000000 1.018000 1.112000 600 42 1.000000 0.051000 0.051000 1.200000 0.035000 0.042000
1517574936450279257	1000 45 1.000000 0.194000 0.212000 1500 39 1.000000 1.051000 1.148000 600 43 1.000000 0.051000 0.051000 1.200000 0.041000 0.049000
1517574936956708257	1000 44 1.000000 0.189000 0.207000 1500 39 1.000000 1.018000 1.112000 600 42 1.000000 0.051000 0.051000 1.200000 0.035000 0.042000
1517574937462791298	1000 45 1.000000 0.180000 0.197000 1500 39 1.000000 1.020000 1.114000 600 43 1.000000 0.051000 0.051000 1.200000 0.049000 0.059000
1517574937968830548	1000 44 1.000000 0.191000 0.209000 1500 39 1.000000 1.029000 1.124000 600 42 1.000000 0.051000 0.051000 1.200000 0.035000 0.042000
1517574938474718590	1000 45 1.000000 0.166000 0.181000 1500 39 1.000000 1.000000 1.093000 600 43 1.000000 0.051000 0.051000 1.200000 0.039000 0.047000
1517574938980725965	1000 44 1.000000 0.194000 0.212000 1500 39 1.000000 1.035000 1.131000 600 43 1.000000 0.051000 0.051000 1.200000 0.035000 0.042000
1517574939486623965	1000 45 1.000000 0.184000 0.201000 1500 39 1.000000 1.093000 1.196000 600 43 1.000000 0.051000 0.051000 1.200000 0.039000 0.047000
1517574939992674090	1000 45 1.000000 0.196000 0.215000 1500 39 1.000000 1.048000 1.145000 600 42 1.000000 0.051000 0.051000 1.200000 0.036000 0.043000
1517574940498356257	1000 45 1.000000 0.189000 0.207000 1500 39 1.000000 1.006000 1.099000 600 43 1.000000 0.051000 0.051000 1.200000 0.034000 0.041000
1517574941004653674	1000 45 1.000000 0.203000 0.222000 1500 39 1.000000 1.219000 1.334000 600 43 1.000000 0.051000 0.051000 1.200000 0.047000 0.056000
1517574941510652174	1000 45 1.000000 0.188000 0.206000 1500 39 1.000000 1.018000 1.112000 600 43 1.000000 0.051000 0.051000 1.200000 0.035000 0.042000
1517574942016710716	1000 45 1.000000 0.195000 0.213000 1500 39 1.000000 1.035000 1.131000 600 42 1.000000 0.051000 0.051000 1.200000 0.036000 0.043000
1517574942522790674	1000 45 1.000000 0.191000 0.209000 1500 39 1.000000 1.022000 1.119000 600 44 1.000000 0.051000 0.051000 1.200000 0.039000 0.047000
1517574943029218716	1000 45 1.000000 0.194000 0.212000 1500 39 1.000000 1.223000 1.339000 600 43 1.000000 0.051000 0.051000 1.200000 0.046000 0.055000
1517574943535295716	1000 45 1.000000 0.191000 0.209000 1500 39 1.000000 1.016000 1.110000 600 43 1.000000 0.051000 0.051000 1.200000 0.047000 0.056000
1517574944041276216	1000 45 1.000000 0.190000 0.208000 1500 39 1.000000 1.030000 1.125000 600 42 1.000000 0.052000 0.052000 1.200000 0.036000 0.043000
1517574944547523091	1000 45 1.000000 0.155000 0.170000 1500 39 1.000000 1.006000 1.099000 600 43 1.000000 0.051000 0.051000 1.200000 0.044000 0.053000
1517574945053763216	1000 45 1.000000 0.192000 0.210000 1500 39 1.000000 1.215000 1.330000 600 43 1.000000 0.051000 0.051000 1.200000 0.046000 0.055000
1517574945559760341	1000 45 1.000000 0.158000 0.173000 1500 39 1.000000 1.099000 1.201000 600 43 1.000000 0.051000 0.051000 1.200000 0.040000 0.048000
1517574946065812091	1000 45 1.000000 0.187000 0.205000 1500 39 1.000000 1.017000 1.111000 600 42 1.000000 0.051000 0.051000 1.200000 0.035000 0.042000
1517574946572178758	1000 44 1.000000 0.194000 0.212000 1500 39 1.000000 1.011000 1.105000 600 42 1.000000 0.051000 0.051000 1.200000 0.036000 0.043000
1517574947078181466	1000 45 1.000000 0.180000 0.197000 1500 39 1.000000 1.259000 1.378000 600 43 1.000000 0.051000 0.051000 1.200000 0.045000 0.054000
1517574947584298550	1000 45 1.000000 0.192000 0.210000 1500 39 1.000000 1.015000 1.109000 600 43 1.000000 0.051000 0.051000 1.200000 0.037000 0.044000
1517574948090323883	1000 45 1.000000 0.191000 0.209000 1500 39 1.000000 1.023000 1.118000 600 42 1.000000 0.051000 0.051000 1.200000 0.036000 0.043000
1517574948596335133	1000 45 1.000000 0.192000 0.210000 1500 39 1.000000 1.032000 1.127000 600 42 1.000000 0.051000 0.051000 1.200000 0.034000 0.041000
1517574949102487758	1000 45 1.000000 0.192000 0.210000 1500 39 1.000000 1.039000 1.135000 600 43 1.000000 0.051000 0.051000 1.200000 0.036000 0.043000
1517574949608493300	1000 45 1.000000 0.188000 0.206000 1500 39 1.000000 1.053000 1.150000 600 43 1.000000 0.051000 0.051000 1.200000 0.045000 0.054000
1517574950114462592	1000 45 1.000000 0.193000 0.211000 1500 39 1.000000 1.007000 1.100000 600 43 1.000000 0.051000 0.051000 1.200000 0.037000 0.044000
1517574950620525592	1000 45 1.000000 0.157000 0.172000 1500 39 1.000000 1.029000 1.124000 600 42 1.000000 0.052000 0.052000 1.200000 0.044000 0.053000
1517574951126561675	1000 45 1.000000 0.193000 0.211000 1500 39 1.000000 1.078000 1.178000 600 43 1.000000 0.051000 0.051000 1.200000 0.035000 0.042000
1517574951632613175	1000 45 1.000000 0.161000 0.176000 1500 39 1.000000 1.084000 1.184000 600 43 1.000000 0.051000 0.051000 1.200000 0.036000 0.043000
1517574952138660842	1000 45 1.000000 0.194000 0.212000 1500 39 1.000000 1.015000 1.109000 600 43 1.000000 0.051000 0.051000 1.200000 0.034000 0.041000
1517574952644650384	1000 45 1.000000 0.194000 0.212000 1500 39 1.000000 1.001000 1.094000 600 43 1.000000 0.051000 0.051000 1.200000 0.035000 0.042000
1517574953150318717	1000 45 1.000000 0.158000 0.173000 1500 39 1.000000 1.136000 1.243000 600 43 1.000000 0.051000 0.051000 1.200000 0.041000 0.049000
1517574953656208009	1000 45 1.000000 0.191000 0.209000 1500 39 1.000000 1.158000 1.265000 600 43 1.000000 0.051000 0.051000 1.200000 0.039000 0.047000
1517574954162121800	1000 45 1.000000 0.188000 0.206000 1500 39 1.000000 1.018000 1.112000 600 42 1.000000 0.051000 0.051000 1.200000 0.035000 0.042000
1517574954668147342	1000 45 1.000000 0.193000 0.211000 1500 39 1.000000 1.028000 1.123000 600 42 1.000000 0.052000 0.052000 1.200000 0.034000 0.041000
1517574955175534009	1000 44 1.000000 0.188000 0.206000 1500 39 1.000000 1.020000 1.114000 600 44 1.000000 0.051000 0.051000 1.200000 0.036000 0.043000
1517574955681685551	1000 45 1.000000 0.155000 0.170000 1500 39 1.000000 1.169000 1.277000 600 43 1.000000 0.051000 0.051000 1.200000 0.049000 0.059000
1517574956187577051	1000 45 1.000000 0.191000 0.209000 1500 39 1.000000 1.006000 1.099000 600 43 1.000000 0.051000 0.051000 1.200000 0.036000 0.043000
1517574956693724342	1000 45 1.000000 0.157000 0.172000 1500 39 1.000000 1.010000 1.103000 600 43 1.000000 0.051000 0.051000 1.200000 0.043000 0.052000
1517574957199706842	1000 45 1.000000 0.190000 0.208000 1500 39 1.000000 1.017000 1.111000 600 42 1.000000 0.051000 0.051000 1.200000 0.034000 0.041000
1517574957705881176	1000 45 1.000000 0.183000 0.200000 1500 39 1.000000 1.126000 1.230000 600 43 1.000000 0.051000 0.051000 1.200000 0.037000 0.044000
1517574958211962218	1000 45 1.000000 0.189000 0.207000 1500 39 1.000000 1.018000 1.112000 600 43 1.000000 0.051000 0.051000 1.200000 0.034000 0.041000
1517574958718022301	1000 45 1.000000 0.192000 0.210000 1500 39 1.000000 1.002000 1.095000 600 42 1.000000 0.052000 0.052000 1.200000 0.035000 0.042000
1517574959224168551	1000 45 1.000000 0.160000 0.175000 1500 39 1.000000 1.049000 1.146000 600 43 1.000000 0.051000 0.051000 1.200000 0.040000 0.048000
1517574959730065551	1000 45 1.000000 0.189000 0.207000 1500 39 1.000000 1.175000 1.286000 600 43 1.000000 0.051000 0.051000 1.200000 0.040000 0.048000
1517574960236209634	1000 45 1.000000 0.190000 0.208000 1500 39 1.000000 1.028000 1.123000 600 43 1.000000 0.051000 0.051000 1.200000 0.036000 0.043000
1517574960742195468	1000 45 1.000000 0.182000 0.199000 1500 39 1.000000 1.015000 1.109000 600 43 1.000000 0.051000 0.051000 1.200000 0.035000 0.042000
1517574961248785385	1000 45 1.000000 0.188000 0.206000 1500 39 1.000000 1.034000 1.130000 600 43 1.000000 0.051000 0.051000 1.200000 0.035000 0.042000
1517574961754708718	1000 45 1.000000 0.158000 0.173000 1500 39 1.000000 1.219000 1.334000 600 43 1.000000 0.051000 0.051000 1.200000 0.048000 0.057000
1517574962260707510	1000 44 1.000000 0.191000 0.209000 1500 39 1.000000 1.007000 1.100000 600 43 1.000000 0.051000 0.051000 1.200000 0.035000 0.042000
1517574962766727093	1000 45 1.000000 0.157000 0.172000 1500 39 1.000000 1.006000 1.099000 600 43 1.000000 0.051000 0.051000 1.200000 0.043000 0.052000
1517574963272776051	1000 45 1.000000 0.193000 0.211000 1500 39 1.000000 1.017000 1.111000 600 43 1.000000 0.051000 0.051000 1.200000 0.034000 0.041000
1517574963778754802	1000 45 1.000000 0.193000 0.211000 1500 39 1.000000 1.214000 1.329000 600 44 1.000000 0.051000 0.051000 1.200000 0.042000 0.050000
1517574964284888968	1000 45 1.000000 0.190000 0.208000 1500 39 1.000000 1.011000 1.105000 600 43 1.000000 0.051000 0.051000 1.200000 0.034000 0.041000
1517574964790892218	1000 45 1.000000 0.184000 0.201000 1500 39 1.000000 1.012000 1.106000 600 43 1.000000 0.051000 0.051000 1.200000 0.034000 0.041000
1517574965296959218	1000 45 1.000000 0.159000 0.174000 1500 39 1.000000 1.014000 1.108000 600 42 1.000000 0.051000 0.051000 1.200000 0.035000 0.042000
1517574965802996468	1000 45 1.000000 0.195000 0.213000 1500 39 1.000000 1.009000 1.102000 600 44 1.000000 0.051000 0.051000 1.200000 0.034000 0.041000
1517574966309093635	1000 45 1.000000 0.193000 0.211000 1500 39 1.000000 1.025000 1.120000 600 43 1.000000 0.051000 0.051000 1.200000 0.043000 0.051000
1517574966815073344	1000 45 1.000000 0.191000 0.209000 1500 39 1.000000 1.013000 1.107000 600 42 1.000000 0.051000 0.051000 1.200000 0.035000 0.042000
1517574967321054135	1000 45 1.000000 0.193000 0.211000 1500 39 1.000000 0.978000 1.068000 600 42 1.000000 0.052000 0.052000 1.200000 0.041000 0.049000
1517574967827628594	1000 45 1.000000 0.191000 0.209000 1500 39 1.000000 1.008000 1.101000 600 44 1.000000 0.052000 0.052000 1.200000 0.035000 0.042000
1517574968333870177	1000 45 1.000000 0.193000 0.211000 1500 39 1.000000 0.989000 1.082000 600 43 1.000000 0.051000 0.051000 1.200000 0.038000 0.045000
1517574968839829427	1000 45 1.000000 0.194000 0.212000 1500 39 1.000000 1.050000 1.147000 600 43 1.000000 0.051000 0.051000 1.200000 0.043000 0.051000
1517574969345920136	1000 45 1.000000 0.190000 0.208000 1500 39 1.000000 1.028000 1.123000 600 42 1.000000 0.051000 0.051000 1.200000 0.036000 0.043000
1517574969851534927	1000 45 1.000000 0.190000 0.208000 1500 39 1.000000 1.044000 1.141000 600 45 1.000000 0.051000 0.051000 1.200000 0.045000 0.054000
1517574970357529511	1000 45 1.000000 0.189000 0.207000 1500 39 1.000000 1.342000 1.469000 600 43 1.000000 0.051000 0.051000 1.200000 0.046000 0.055000
1517574970863434844	1000 45 1.000000 0.194000 0.212000 1500 39 1.000000 1.050000 1.147000 600 43 1.000000 0.051000 0.051000 1.200000 0.045000 0.054000
1517574971370103594	1000 44 1.000000 0.195000 0.213000 1500 39 1.000000 1.018000 1.112000 600 43 1.000000 0.052000 0.052000 1.200000 0.034000 0.041000
1517574971876299719	1000 44 1.000000 0.183000 0.200000 1500 39 1.000000 1.048000 1.145000 600 44 1.000000 0.051000 0.051000 1.200000 0.044000 0.053000
1517574972382288803	1000 45 1.000000 0.196000 0.215000 1500 39 1.000000 1.097000 1.201000 600 43 1.000000 0.051000 0.051000 1.200000 0.040000 0.048000
1517574972888279553	1000 45 1.000000 0.158000 0.173000 1500 39 1.000000 1.020000 1.114000 600 43 1.000000 0.051000 0.051000 1.200000 0.037000 0.044000
1517574973394215928	1000 45 1.000000 0.184000 0.201000 1500 39 1.000000 1.003000 1.096000 600 43 1.000000 0.052000 0.052000 1.200000 0.036000 0.043000
1517574973900464969	1000 45 1.000000 0.152000 0.166000 1500 39 1.000000 1.019000 1.113000 600 43 1.000000 0.051000 0.051000 1.200000 0.035000 0.042000
1517574974406405011	1000 45 1.000000 0.196000 0.215000 1500 39 1.000000 1.107000 1.209000 600 43 1.000000 0.051000 0.051000 1.200000 0.039000 0.047000
1517574974912478136	1000 45 1.000000 0.167000 0.183000 1500 39 1.000000 1.032000 1.127000 600 43 1.000000 0.051000 0.051000 1.200000 0.035000 0.042000
1517574975418273803	1000 45 1.000000 0.193000 0.211000 1500 39 1.000000 1.013000 1.107000 600 43 1.000000 0.051000 0.051000 1.200000 0.035000 0.042000
1517574975924320595	1000 45 1.000000 0.176000 0.193000 1500 39 1.000000 1.026000 1.121000 600 43 1.000000 0.051000 0.051000 1.200000 0.036000 0.043000
1517574976430186845	1000 45 1.000000 0.188000 0.206000 1500 39 1.000000 1.104000 1.206000 600 43 1.000000 0.051000 0.051000 1.200000 0.041000 0.049000
1517574976936742636	1000 44 1.000000 0.188000 0.206000 1500 39 1.000000 1.036000 1.132000 600 43 1.000000 0.051000 0.051000 1.200000 0.034000 0.041000
1517574977442702261	1000 45 1.000000 0.155000 0.170000 1500 39 1.000000 1.049000 1.146000 600 43 1.000000 0.051000 0.051000 1.200000 0.043000 0.051000
1517574977948728887	1000 45 1.000000 0.188000 0.206000 1500 39 1.000000 1.012000 1.106000 600 43 1.000000 0.051000 0.051000 1.200000 0.034000 0.041000
1517574978454650970	1000 45 1.000000 0.188000 0.206000 1500 39 1.000000 1.066000 1.165000 600 43 1.000000 0.052000 0.052000 1.200000 0.036000 0.043000
1517574978960574053	1000 45 1.000000 0.197000 0.215000 1500 39 1.000000 1.229000 1.345000 600 43 1.000000 0.052000 0.052000 1.200000 0.040000 0.048000
1517574979466480345	1000 45 1.000000 0.192000 0.210000 1500 39 1.000000 1.012000 1.106000 600 43 1.000000 0.051000 0.051000 1.200000 0.034000 0.041000
1517574979972450178	1000 45 1.000000 0.194000 0.212000 1500 39 1.000000 1.058000 1.156000 600 43 1.000000 0.051000 0.051000 1.200000 0.043000 0.051000
1517574980479155970	1000 44 1.000000 0.190000 0.208000 1500 39 1.000000 1.111000 1.216000 600 44 1.000000 0.052000 0.052000 1.200000 0.037000 0.044000
1517574980985632679	1000 45 1.000000 0.158000 0.173000 1500 39 1.000000 1.249000 1.367000 600 43 1.000000 0.051000 0.051000 1.200000 0.055000 0.066000
1517574981491621720	1000 45 1.000000 0.193000 0.211000 1500 39 1.000000 1.024000 1.119000 600 43 1.000000 0.051000 0.051000 1.200000 0.034000 0.041000
1517574981997708679	1000 45 1.000000 0.154000 0.168000 1500 39 1.000000 1.005000 1.098000 600 43 1.000000 0.051000 0.051000 1.200000 0.037000 0.044000
1517574982503741262	1000 45 1.000000 0.190000 0.208000 1500 39 1.000000 1.111000 1.216000 600 43 1.000000 0.051000 0.051000 1.200000 0.037000 0.044000
1517574983010112137	1000 45 1.000000 0.171000 0.187000 1500 39 1.000000 1.222000 1.338000 600 43 1.000000 0.051000 0.051000 1.200000 0.041000 0.049000
1517574983516251262	1000 45 1.000000 0.188000 0.206000 1500 39 1.000000 1.018000 1.112000 600 43 1.000000 0.051000 0.051000 1.200000 0.039000 0.047000
1517574984022085971	1000 45 1.000000 0.194000 0.212000 1500 39 1.000000 1.014000 1.108000 600 43 1.000000 0.051000 0.051000 1.200000 0.034000 0.041000
1517574984528140596	1000 45 1.000000 0.190000 0.208000 1500 39 1.000000 1.046000 1.143000 600 43 1.000000 0.051000 0.051000 1.200000 0.034000 0.041000
1517574985034057512	1000 45 1.000000 0.194000 0.212000 1500 39 1.000000 1.050000 1.149000 600 43 1.000000 0.052000 0.052000 1.200000 0.038000 0.045000
1517574985540178346	1000 45 1.000000 0.193000 0.211000 1500 39 1.000000 1.034000 1.130000 600 43 1.000000 0.051000 0.051000 1.200000 0.036000 0.043000
1517574986046106263	1000 45 1.000000 0.192000 0.210000 1500 39 1.000000 1.026000 1.121000 600 43 1.000000 0.051000 0.051000 1.200000 0.041000 0.049000
1517574986552601429	1000 44 1.000000 0.190000 0.208000 1500 39 1.000000 1.099000 1.203000 600 43 1.000000 0.051000 0.051000 1.200000 0.039000 0.047000
1517574987058680513	1000 45 1.000000 0.159000 0.174000 1500 39 1.000000 1.079000 1.181000 600 43 1.000000 0.051000 0.051000 1.200000 0.050000 0.060000
1517574987564752388	1000 45 1.000000 0.193000 0.211000 1500 39 1.000000 1.036000 1.132000 600 43 1.000000 0.052000 0.052000 1.200000 0.035000 0.042000
1517574988070752929	1000 45 1.000000 0.157000 0.172000 1500 39 1.000000 0.985000 1.076000 600 43 1.000000 0.051000 0.051000 1.200000 0.041000 0.049000
1517574988576838554	1000 45 1.000000 0.189000 0.207000 1500 39 1.000000 1.080000 1.182000 600 43 1.000000 0.051000 0.051000 1.200000 0.041000 0.049000
1517574989082823513	1000 45 1.000000 0.193000 0.211000 1500 39 1.000000 1.116000 1.222000 600 43 1.000000 0.052000 0.052000 1.200000 0.038000 0.045000
1517574989588865221	1000 45 1.000000 0.190000 0.208000 1500 39 1.000000 1.016000 1.110000 600 43 1.000000 0.051000 0.051000 1.200000 0.036000 0.043000
1517574990094746555	1000 45 1.000000 0.188000 0.206000 1500 39 1.000000 1.009000 1.102000 600 43 1.000000 0.051000 0.051000 1.200000 0.035000 0.042000
1517574990601006430	1000 45 1.000000 0.192000 0.210000 1500 39 1.000000 1.018000 1.112000 600 43 1.000000 0.051000 0.051000 1.200000 0.036000 0.043000
1517574991106720513	1000 45 1.000000 0.195000 0.213000 1500 39 1.000000 1.006000 1.099000 600 44 1.000000 0.051000 0.051000 1.200000 0.037000 0.044000
1517574991612724305	1000 45 1.000000 0.195000 0.213000 1500 39 1.000000 1.108000 1.211000 600 43 1.000000 0.051000 0.051000 1.200000 0.038000 0.045000
1517574992118650972	1000 45 1.000000 0.182000 0.199000 1500 39 1.000000 1.030000 1.125000 600 43 1.000000 0.051000 0.051000 1.200000 0.040000 0.048000
1517574992624699930	1000 45 1.000000 0.188000 0.206000 1500 39 1.000000 1.104000 1.208000 600 43 1.000000 0.051000 0.051000 1.200000 0.038000 0.045000
1517574993131345097	1000 45 1.000000 0.159000 0.174000 1500 39 1.000000 1.027000 1.122000 600 44 1.000000 0.051000 0.051000 1.200000 0.047000 0.056000
1517574993637370138	1000 45 1.000000 0.195000 0.213000 1500 39 1.000000 1.069000 1.168000 600 43 1.000000 0.051000 0.051000 1.200000 0.038000 0.045000
1517574994143326472	1000 45 1.000000 0.160000 0.175000 1500 39 1.000000 0.999000 1.091000 600 43 1.000000 0.051000 0.051000 1.200000 0.039000 0.047000
1517574994649334930	1000 45 1.000000 0.192000 0.210000 1500 39 1.000000 1.099000 1.203000 600 43 1.000000 0.051000 0.051000 1.200000 0.040000 0.048000
1517574995155434264	1000 45 1.000000 0.195000 0.213000 1500 39 1.000000 1.009000 1.102000 600 43 1.000000 0.051000 0.051000 1.200000 0.035000 0.042000
1517574995661579097	1000 45 1.000000 0.195000 0.213000 1500 39 1.000000 1.046000 1.143000 600 43 1.000000 0.051000 0.051000 1.200000 0.035000 0.042000
1517574996167522847	1000 45 1.000000 0.185000 0.202000 1500 39 1.000000 1.013000 1.107000 600 43 1.000000 0.051000 0.051000 1.200000 0.035000 0.042000
1517574996673686764	1000 45 1.000000 0.194000 0.212000 1500 39 1.000000 1.000000 1.093000 600 43 1.000000 0.051000 0.051000 1.200000 0.038000 0.045000
1517574997179817764	1000 45 1.000000 0.190000 0.208000 1500 39 1.000000 1.035000 1.131000 600 43 1.000000 0.052000 0.052000 1.200000 0.036000 0.043000
1517574997685841056	1000 45 1.000000 0.190000 0.208000 1500 39 1.000000 1.238000 1.355000 600 43 1.000000 0.051000 0.051000 1.200000 0.041000 0.049000
1517574998191764306	1000 45 1.000000 0.165000 0.181000 1500 39 1.000000 1.025000 1.120000 600 43 1.000000 0.051000 0.051000 1.200000 0.038000 0.045000
1517574998697763681	1000 45 1.000000 0.190000 0.208000 1500 39 1.000000 1.104000 1.208000 600 43 1.000000 0.052000 0.052000 1.200000 0.038000 0.045000
1517574999203815056	1000 45 1.000000 0.158000 0.173000 1500 39 1.000000 1.056000 1.154000 600 43 1.000000 0.052000 0.052000 1.200000 0.047000 0.056000
1517574999709824097	1000 45 1.000000 0.195000 0.213000 1500 39 1.000000 1.217000 1.332000 600 43 1.000000 0.052000 0.052000 1.200000 0.042000 0.050000
1517575000215816848	1000 45 1.000000 0.167000 0.183000 1500 39 1.000000 0.982000 1.073000 600 43 1.000000 0.051000 0.051000 1.200000 0.040000 0.048000
1517575000721777014	1000 45 1.000000 0.190000 0.208000 1500 39 1.000000 1.097000 1.201000 600 43 1.000000 0.051000 0.051000 1.200000 0.040000 0.048000
1517575001228166264	1000 44 1.000000 0.195000 0.213000 1500 39 1.000000 1.010000 1.105000 600 43 1.000000 0.052000 0.052000 1.200000 0.034000 0.041000
1517575001733970598	1000 45 1.000000 0.202000 0.221000 1500 39 1.000000 1.206000 1.320000 600 43 1.000000 0.051000 0.051000 1.200000 0.046000 0.055000
1517575002239929931	1000 45 1.000000 0.191000 0.209000 1500 39 1.000000 1.008000 1.103000 600 43 1.000000 0.051000 0.051000 1.200000 0.034000 0.041000
1517575002745949306	1000 45 1.000000 0.159000 0.174000 1500 39 1.000000 1.135000 1.242000 600 43 1.000000 0.051000 0.051000 1.200000 0.047000 0.056000
1517575003251864223	1000 45 1.000000 0.194000 0.212000 1500 39 1.000000 1.007000 1.100000 600 43 1.000000 0.051000 0.051000 1.200000 0.035000 0.042000
1517575003757693723	1000 45 1.000000 0.196000 0.215000 1500 39 1.000000 1.028000 1.123000 600 44 1.000000 0.052000 0.052000 1.200000 0.037000 0.044000
1517575004263691223	1000 45 1.000000 0.167000 0.183000 1500 39 1.000000 1.015000 1.109000 600 43 1.000000 0.051000 0.051000 1.200000 0.037000 0.044000
1517575004769770181	1000 45 1.000000 0.187000 0.205000 1500 39 1.000000 1.068000 1.167000 600 43 1.000000 0.051000 0.051000 1.200000 0.036000 0.043000
1517575005275795390	1000 45 1.000000 0.158000 0.173000 1500 39 1.000000 1.035000 1.133000 600 43 1.000000 0.051000 0.051000 1.200000 0.045000 0.054000
1517575005782155765	1000 45 1.000000 0.190000 0.208000 1500 39 1.000000 1.015000 1.111000 600 44 1.000000 0.051000 0.051000 1.200000 0.036000 0.043000
1517575006288243307	1000 45 1.000000 0.165000 0.181000 1500 39 1.000000 1.021000 1.117000 600 43 1.000000 0.051000 0.051000 1.200000 0.048000 0.058000
1517575006794211848	1000 45 1.000000 0.188000 0.206000 1500 39 1.000000 1.033000 1.129000 600 43 1.000000 0.051000 0.051000 1.200000 0.040000 0.048000
1517575007300229223	1000 46 1.000000 0.184000 0.201000 1500 39 1.000000 1.009000 1.104000 600 43 1.000000 0.051000 0.051000 1.200000 0.041000 0.049000
1517575007806167265	1000 45 1.000000 0.193000 0.211000 1500 39 1.000000 1.056000 1.156000 600 43 1.000000 0.051000 0.051000 1.200000 0.035000 0.042000
1517575008312543765	1000 44 1.000000 0.190000 0.208000 1500 39 1.000000 1.201000 1.315000 600 43 1.000000 0.051000 0.051000 1.200000 0.036000 0.043000
1517575008818462682	1000 45 1.000000 0.158000 0.173000 1500 39 1.000000 1.037000 1.135000 600 43 1.000000 0.051000 0.051000 1.200000 0.040000 0.048000
1517575009324449557	1000 45 1.000000 0.191000 0.209000 1500 39 1.000000 1.110000 1.215000 600 43 1.000000 0.052000 0.052000 1.200000 0.036000 0.043000
1517575009830564307	1000 45 1.000000 0.195000 0.213000 1500 39 1.000000 1.037000 1.135000 600 43 1.000000 0.051000 0.051000 1.200000 0.035000 0.042000
1517575010336573432	1000 45 1.000000 0.190000 0.208000 1500 39 1.000000 1.006000 1.101000 600 43 1.000000 0.051000 0.051000 1.200000 0.035000 0.042000
1517575010842546182	1000 45 1.000000 0.191000 0.209000 1500 39 1.000000 1.035000 1.131000 600 43 1.000000 0.051000 0.051000 1.200000 0.037000 0.044000
1517575011348466391	1000 45 1.000000 0.196000 0.215000 1500 39 1.000000 1.094000 1.197000 600 43 1.000000 0.052000 0.052000 1.200000 0.044000 0.053000
1517575011854481849	1000 45 1.000000 0.194000 0.212000 1500 39 1.000000 1.026000 1.121000 600 43 1.000000 0.051000 0.051000 1.200000 0.036000 0.043000
1517575012360423516	1000 45 1.000000 0.190000 0.208000 1500 39 1.000000 1.030000 1.125000 600 43 1.000000 0.051000 0.051000 1.200000 0.041000 0.049000
1517575012866263307	1000 45 1.000000 0.193000 0.211000 1500 39 1.000000 1.032000 1.127000 600 43 1.000000 0.051000 0.051000 1.200000 0.036000 0.043000
1517575013372374307	1000 45 1.000000 0.191000 0.209000 1500 39 1.000000 1.042000 1.140000 600 43 1.000000 0.051000 0.051000 1.200000 0.042000 0.050000
1517575013878723349	1000 45 1.000000 0.188000 0.206000 1500 39 1.000000 1.024000 1.119000 600 43 1.000000 0.051000 0.051000 1.200000 0.036000 0.043000
1517575014384553891	1000 45 1.000000 0.202000 0.221000 1500 39 1.000000 1.049000 1.146000 600 44 1.000000 0.051000 0.051000 1.200000 0.044000 0.053000
1517575014890527016	1000 45 1.000000 0.191000 0.209000 1500 39 1.000000 1.017000 1.111000 600 43 1.000000 0.051000 0.051000 1.200000 0.035000 0.042000
1517575015396710391	1000 45 1.000000 0.191000 0.209000 1500 39 1.000000 1.081000 1.183000 600 43 1.000000 0.051000 0.051000 1.200000 0.039000 0.047000
1517575015902688683	1000 45 1.000000 0.188000 0.206000 1500 39 1.000000 1.019000 1.113000 600 43 1.000000 0.051000 0.051000 1.200000 0.037000 0.044000
1517575016408963808	1000 45 1.000000 0.191000 0.209000 1500 39 1.000000 1.032000 1.130000 600 44 1.000000 0.051000 0.051000 1.200000 0.035000 0.042000
1517575016914905766	1000 45 1.000000 0.198000 0.216000 1500 39 1.000000 1.199000 1.312000 600 44 1.000000 0.052000 0.052000 1.200000 0.046000 0.055000
1517575017420914558	1000 45 1.000000 0.191000 0.209000 1500 39 1.000000 1.110000 1.215000 600 43 1.000000 0.051000 0.051000 1.200000 0.040000 0.048000
1517575017926781225	1000 45 1.000000 0.190000 0.208000 1500 39 1.000000 1.020000 1.114000 600 43 1.000000 0.051000 0.051000 1.200000 0.039000 0.047000
1517575018432886641	1000 45 1.000000 0.194000 0.212000 1500 39 1.000000 1.032000 1.127000 600 43 1.000000 0.052000 0.052000 1.200000 0.035000 0.042000
1517575018938688808	1000 45 1.000000 0.205000 0.224000 1500 39 1.000000 1.229000 1.345000 600 44 1.000000 0.051000 0.051000 1.200000 0.054000 0.065000
1517575019444706600	1000 45 1.000000 0.188000 0.206000 1500 39 1.000000 1.037000 1.135000 600 43 1.000000 0.051000 0.051000 1.200000 0.036000 0.043000
1517575019950727183	1000 45 1.000000 0.191000 0.209000 1500 39 1.000000 1.019000 1.113000 600 43 1.000000 0.051000 0.051000 1.200000 0.047000 0.056000
1517575020456667267	1000 45 1.000000 0.192000 0.210000 1500 39 1.000000 1.017000 1.111000 600 43 1.000000 0.052000 0.052000 1.200000 0.035000 0.042000
1517575020962374475	1000 45 1.000000 0.162000 0.177000 1500 39 1.000000 1.163000 1.273000 600 44 1.000000 0.051000 0.051000 1.200000 0.050000 0.060000
1517575021468543100	1000 45 1.000000 0.195000 0.213000 1500 39 1.000000 1.136000 1.243000 600 43 1.000000 0.051000 0.051000 1.200000 0.050000 0.060000
1517575021975040642	1000 44 1.000000 0.193000 0.211000 1500 39 1.000000 1.015000 1.109000 600 43 1.000000 0.052000 0.052000 1.200000 0.036000 0.043000
1517575022481309934	1000 45 1.000000 0.155000 0.170000 1500 39 1.000000 1.026000 1.121000 600 43 1.000000 0.052000 0.052000 1.200000 0.045000 0.054000
1517575022987065600	1000 45 1.000000 0.195000 0.213000 1500 39 1.000000 1.024000 1.119000 600 45 1.000000 0.051000 0.051000 1.200000 0.035000 0.042000
1517575023493004892	1000 45 1.000000 0.190000 0.208000 1500 39 1.000000 1.104000 1.208000 600 43 1.000000 0.051000 0.051000 1.200000 0.041000 0.049000
1517575023998937975	1000 45 1.000000 0.188000 0.206000 1500 39 1.000000 1.021000 1.115000 600 43 1.000000 0.051000 0.051000 1.200000 0.036000 0.043000
1517575024504905725	1000 45 1.000000 0.189000 0.207000 1500 39 1.000000 1.026000 1.121000 600 43 1.000000 0.051000 0.051000 1.200000 0.036000 0.043000
1517575025011238142	1000 45 1.000000 0.193000 0.211000 1500 39 1.000000 1.052000 1.149000 600 46 1.000000 0.051000 0.051000 1.200000 0.040000 0.048000
1517575025517286892	1000 45 1.000000 0.188000 0.206000 1500 39 1.000000 1.018000 1.112000 600 43 1.000000 0.051000 0.051000 1.200000 0.037000 0.044000
1517575026023357351	1000 45 1.000000 0.155000 0.170000 1500 39 1.000000 1.016000 1.110000 600 43 1.000000 0.051000 0.051000 1.200000 0.046000 0.055000
1517575026529251267	1000 45 1.000000 0.185000 0.202000 1500 39 1.000000 1.010000 1.103000 600 43 1.000000 0.051000 0.051000 1.200000 0.035000 0.042000
1517575027037017517	1000 45 1.000000 0.157000 0.172000 1500 39 1.000000 0.982000 1.073000 600 44 1.000000 0.051000 0.051000 1.200000 0.037000 0.044000
1517575027543265517	1000 45 1.000000 0.199000 0.218000 1500 39 1.000000 1.012000 1.106000 600 43 1.000000 0.052000 0.052000 1.200000 0.060000 0.072000
1517575028049204184	1000 45 1.000000 0.190000 0.208000 1500 39 1.000000 1.029000 1.124000 600 43 1.000000 0.051000 0.051000 1.200000 0.035000 0.042000
1517575028555192309	1000 45 1.000000 0.175000 0.191000 1500 39 1.000000 1.012000 1.106000 600 43 1.000000 0.051000 0.051000 1.200000 0.044000 0.053000
1517575029061314976	1000 45 1.000000 0.195000 0.213000 1500 39 1.000000 1.030000 1.125000 600 43 1.000000 0.051000 0.051000 1.200000 0.035000 0.042000
1517575029567311768	1000 45 1.000000 0.203000 0.222000 1500 39 1.000000 1.304000 1.427000 600 43 1.000000 0.051000 0.051000 1.200000 0.049000 0.059000
1517575030073186768	1000 45 1.000000 0.190000 0.208000 1500 39 1.000000 1.032000 1.127000 600 43 1.000000 0.051000 0.051000 1.200000 0.035000 0.042000
1517575030579102268	1000 44 1.000000 0.195000 0.213000 1500 39 1.000000 1.009000 1.102000 600 43 1.000000 0.051000 0.051000 1.200000 0.037000 0.044000
1517575031085244226	1000 45 1.000000 0.190000 0.208000 1500 39 1.000000 1.026000 1.121000 600 43 1.000000 0.051000 0.051000 1.200000 0.042000 0.050000
1517575031591181518	1000 45 1.000000 0.204000 0.223000 1500 39 1.000000 1.225000 1.341000 600 43 1.000000 0.051000 0.051000 1.200000 0.050000 0.060000
1517575032097286518	1000 45 1.000000 0.157000 0.172000 1500 39 1.000000 1.012000 1.106000 600 43 1.000000 0.051000 0.051000 1.200000 0.046000 0.055000
1517575032603227143	1000 45 1.000000 0.194000 0.212000 1500 39 1.000000 1.000000 1.093000 600 43 1.000000 0.051000 0.051000 1.200000 0.034000 0.041000
1517575033109186476	1000 45 1.000000 0.158000 0.173000 1500 39 1.000000 0.975000 1.065000 600 43 1.000000 0.051000 0.051000 1.200000 0.037000 0.044000
1517575033615056018	1000 45 1.000000 0.203000 0.222000 1500 39 1.000000 1.189000 1.301000 600 43 1.000000 0.051000 0.051000 1.200000 0.047000 0.056000
1517575034120949518	1000 45 1.000000 0.192000 0.210000 1500 39 1.000000 1.030000 1.125000 600 43 1.000000 0.051000 0.051000 1.200000 0.036000 0.043000
1517575034626994810	1000 45 1.000000 0.187000 0.205000 1500 39 1.000000 1.025000 1.120000 600 43 1.000000 0.052000 0.052000 1.200000 0.046000 0.055000
1517575035132948977	1000 45 1.000000 0.195000 0.213000 1500 39 1.000000 1.028000 1.123000 600 43 1.000000 0.051000 0.051000 1.200000 0.035000 0.042000
1517575035638633268	1000 45 1.000000 0.192000 0.210000 1500 39 1.000000 1.106000 1.208000 600 44 1.000000 0.051000 0.051000 1.200000 0.041000 0.049000
1517575036144542643	1000 45 1.000000 0.200000 0.219000 1500 39 1.000000 1.015000 1.109000 600 43 1.000000 0.051000 0.051000 1.200000 0.036000 0.043000
1517575036651152102	1000 44 1.000000 0.189000 0.207000 1500 39 1.000000 1.013000 1.107000 600 43 1.000000 0.051000 0.051000 1.200000 0.036000 0.043000
1517575037157264019	1000 45 1.000000 0.178000 0.195000 1500 39 1.000000 1.023000 1.118000 600 43 1.000000 0.052000 0.052000 1.200000 0.039000 0.047000
1517575037663520310	1000 45 1.000000 0.192000 0.210000 1500 39 1.000000 1.076000 1.176000 600 45 1.000000 0.052000 0.052000 1.200000 0.039000 0.047000
1517575038169661894	1000 45 1.000000 0.155000 0.170000 1500 39 1.000000 1.002000 1.095000 600 43 1.000000 0.051000 0.051000 1.200000 0.046000 0.055000
1517575038675550602	1000 45 1.000000 0.192000 0.210000 1500 39 1.000000 1.014000 1.108000 600 43 1.000000 0.051000 0.051000 1.200000 0.034000 0.041000
1517575039181594769	1000 45 1.000000 0.158000 0.173000 1500 39 1.000000 0.988000 1.079000 600 43 1.000000 0.051000 0.051000 1.200000 0.038000 0.045000
1517575039688038769	1000 45 1.000000 0.190000 0.208000 1500 39 1.000000 1.007000 1.100000 600 43 1.000000 0.051000 0.051000 1.200000 0.035000 0.042000
1517575040194073394	1000 45 1.000000 0.202000 0.221000 1500 39 1.000000 1.197000 1.310000 600 43 1.000000 0.051000 0.051000 1.200000 0.047000 0.056000
1517575040700171436	1000 45 1.000000 0.195000 0.213000 1500 39 1.000000 1.040000 1.136000 600 43 1.000000 0.052000 0.052000 1.200000 0.046000 0.055000
1517575041206023644	1000 45 1.000000 0.190000 0.208000 1500 39 1.000000 1.014000 1.108000 600 43 1.000000 0.052000 0.052000 1.200000 0.036000 0.043000
1517575041712121436	1000 45 1.000000 0.185000 0.202000 1500 39 1.000000 1.090000 1.193000 600 43 1.000000 0.051000 0.051000 1.200000 0.042000 0.050000
1517575042218061978	1000 45 1.000000 0.192000 0.210000 1500 39 1.000000 1.200000 1.314000 600 43 1.000000 0.051000 0.051000 1.200000 0.047000 0.056000
1517575042724500353	1000 44 1.000000 0.188000 0.206000 1500 39 1.000000 1.012000 1.106000 600 43 1.000000 0.051000 0.051000 1.200000 0.036000 0.043000
1517575043230598686	1000 45 1.000000 0.158000 0.173000 1500 39 1.000000 1.014000 1.108000 600 43 1.000000 0.051000 0.051000 1.200000 0.039000 0.047000
1517575043736568144	1000 45 1.000000 0.190000 0.208000 1500 39 1.000000 1.098000 1.200000 600 43 1.000000 0.051000 0.051000 1.200000 0.039000 0.047000
1517575044242529394	1000 45 1.000000 0.165000 0.181000 1500 39 1.000000 1.225000 1.338000 600 43 1.000000 0.051000 0.051000 1.200000 0.058000 0.070000
1517575044748480270	1000 45 1.000000 0.191000 0.209000 1500 39 1.000000 1.034000 1.130000 600 43 1.000000 0.051000 0.051000 1.200000 0.035000 0.042000
1517575045254551020	1000 45 1.000000 0.169000 0.185000 1500 39 1.000000 1.003000 1.098000 600 43 1.000000 0.051000 0.051000 1.200000 0.041000 0.049000
1517575045760623103	1000 45 1.000000 0.182000 0.199000 1500 39 1.000000 1.119000 1.225000 600 43 1.000000 0.051000 0.051000 1.200000 0.037000 0.044000
1517575046266338186	1000 45 1.000000 0.191000 0.209000 1500 39 1.000000 1.008000 1.101000 600 43 1.000000 0.051000 0.051000 1.200000 0.036000 0.043000
1517575046772463936	1000 45 1.000000 0.158000 0.173000 1500 39 1.000000 1.228000 1.344000 600 43 1.000000 0.051000 0.051000 1.200000 0.049000 0.059000
1517575047278501353	1000 45 1.000000 0.191000 0.209000 1500 39 1.000000 1.023000 1.118000 600 43 1.000000 0.051000 0.051000 1.200000 0.035000 0.042000
1517575047784493687	1000 45 1.000000 0.190000 0.208000 1500 39 1.000000 1.020000 1.114000 600 43 1.000000 0.051000 0.051000 1.200000 0.046000 0.055000
1517575048290764437	1000 45 1.000000 0.192000 0.210000 1500 39 1.000000 1.030000 1.125000 600 45 1.000000 0.051000 0.051000 1.200000 0.035000 0.042000
1517575048796770353	1000 45 1.000000 0.201000 0.220000 1500 39 1.000000 1.212000 1.327000 600 43 1.000000 0.051000 0.051000 1.200000 0.038000 0.045000
1517575049302642020	1000 45 1.000000 0.188000 0.206000 1500 39 1.000000 1.068000 1.169000 600 43 1.000000 0.051000 0.051000 1.200000 0.036000 0.043000
1517575049808675145	1000 45 1.000000 0.192000 0.210000 1500 39 1.000000 1.016000 1.110000 600 43 1.000000 0.051000 0.051000 1.200000 0.035000 0.042000
1517575050314847229	1000 45 1.000000 0.192000 0.210000 1500 39 1.000000 1.051000 1.150000 600 43 1.000000 0.052000 0.052000 1.200000 0.047000 0.056000
1517575050821328562	1000 44 1.000000 0.193000 0.211000 1500 39 1.000000 1.188000 1.300000 600 43 1.000000 0.051000 0.051000 1.200000 0.046000 0.055000
1517575051327405062	1000 45 1.000000 0.188000 0.206000 1500 39 1.000000 1.041000 1.137000 600 43 1.000000 0.052000 0.052000 1.200000 0.049000 0.059000
1517575051833403812	1000 45 1.000000 0.186000 0.203000 1500 39 1.000000 1.092000 1.195000 600 43 1.000000 0.051000 0.051000 1.200000 0.037000 0.044000
1517575052342172812	1000 45 1.000000 0.159000 0.174000 1500 39 1.000000 1.039000 1.135000 600 43 1.000000 0.052000 0.052000 1.200000 0.037000 0.044000
1517575052848779104	1000 45 1.000000 0.203000 0.222000 1500 39 1.000000 1.006000 1.099000 600 43 1.000000 0.052000 0.052000 1.200000 0.036000 0.043000
1517575053354819771	1000 45 1.000000 0.193000 0.211000 1500 39 1.000000 1.031000 1.126000 600 43 1.000000 0.052000 0.052000 1.200000 0.035000 0.042000
1517575053860862479	1000 45 1.000000 0.193000 0.211000 1500 39 1.000000 1.008000 1.101000 600 43 1.000000 0.052000 0.052000 1.200000 0.036000 0.043000
1517575054366915604	1000 45 1.000000 0.194000 0.212000 1500 39 1.000000 1.014000 1.108000 600 43 1.000000 0.051000 0.051000 1.200000 0.036000 0.043000
1517575054872920021	1000 45 1.000000 0.188000 0.206000 1500 39 1.000000 1.008000 1.101000 600 43 1.000000 0.051000 0.051000 1.200000 0.036000 0.043000
1517575055379010187	1000 45 1.000000 0.170000 0.186000 1500 39 1.000000 1.030000 1.125000 600 43 1.000000 0.051000 0.051000 1.200000 0.035000 0.042000
1517575055884888313	1000 45 1.000000 0.191000 0.209000 1500 39 1.000000 1.006000 1.099000 600 43 1.000000 0.051000 0.051000 1.200000 0.036000 0.043000
1517575056390867563	1000 45 1.000000 0.155000 0.170000 1500 39 1.000000 1.018000 1.112000 600 43 1.000000 0.051000 0.051000 1.200000 0.036000 0.043000
1517575056896856854	1000 45 1.000000 0.194000 0.212000 1500 39 1.000000 0.992000 1.084000 600 43 1.000000 0.051000 0.051000 1.200000 0.037000 0.044000
1517575057402932521	1000 45 1.000000 0.159000 0.174000 1500 39 1.000000 0.986000 1.077000 600 43 1.000000 0.051000 0.051000 1.200000 0.036000 0.043000
1517575057908921854	1000 45 1.000000 0.196000 0.214000 1500 39 1.000000 1.064000 1.162000 600 43 1.000000 0.052000 0.052000 1.200000 0.036000 0.043000
1517575058414989271	1000 45 1.000000 0.157000 0.172000 1500 39 1.000000 0.991000 1.083000 600 43 1.000000 0.052000 0.052000 1.200000 0.035000 0.042000
1517575058921024813	1000 45 1.000000 0.193000 0.211000 1500 39 1.000000 1.042000 1.138000 600 44 1.000000 0.052000 0.052000 1.200000 0.047000 0.056000
1517575059427128855	1000 45 1.000000 0.190000 0.208000 1500 39 1.000000 1.217000 1.332000 600 43 1.000000 0.051000 0.051000 1.200000 0.046000 0.055000
1517575059933001688	1000 45 1.000000 0.157000 0.172000 1500 39 1.000000 1.039000 1.135000 600 43 1.000000 0.051000 0.051000 1.200000 0.046000 0.055000
1517575060439146396	1000 45 1.000000 0.188000 0.206000 1500 39 1.000000 1.027000 1.122000 600 43 1.000000 0.051000 0.051000 1.200000 0.036000 0.043000
1517575060945407646	1000 45 1.000000 0.158000 0.173000 1500 39 1.000000 1.040000 1.136000 600 44 1.000000 0.052000 0.052000 1.200000 0.048000 0.058000
1517575061451991605	1000 44 1.000000 0.202000 0.221000 1500 39 1.000000 1.203000 1.317000 600 43 1.000000 0.051000 0.051000 1.200000 0.048000 0.058000
1517575061958104563	1000 45 1.000000 0.158000 0.173000 1500 39 1.000000 1.025000 1.120000 600 43 1.000000 0.051000 0.051000 1.200000 0.047000 0.056000
1517575062464241772	1000 45 1.000000 0.187000 0.205000 1500 39 1.000000 1.021000 1.115000 600 43 1.000000 0.051000 0.051000 1.200000 0.036000 0.043000
1517575062970309188	1000 45 1.000000 0.156000 0.171000 1500 39 1.000000 1.014000 1.108000 600 43 1.000000 0.051000 0.051000 1.200000 0.047000 0.056000
1517575063476334105	1000 45 1.000000 0.192000 0.210000 1500 39 1.000000 1.194000 1.307000 600 43 1.000000 0.051000 0.051000 1.200000 0.045000 0.054000
1517575063982211813	1000 45 1.000000 0.157000 0.172000 1500 39 1.000000 1.034000 1.130000 600 43 1.000000 0.051000 0.051000 1.200000 0.041000 0.049000
1517575064488303939	1000 45 1.000000 0.187000 0.204000 1500 39 1.000000 1.005000 1.098000 600 43 1.000000 0.052000 0.052000 1.200000 0.036000 0.043000
1517575064994696105	1000 46 1.000000 0.186000 0.204000 1500 39 1.000000 1.031000 1.126000 600 43 1.000000 0.051000 0.051000 1.200000 0.035000 0.042000
1517575065500768814	1000 45 1.000000 0.206000 0.225000 1500 39 1.000000 1.053000 1.153000 600 43 1.000000 0.051000 0.051000 1.200000 0.049000 0.059000
1517575066006497897	1000 45 1.000000 0.193000 0.211000 1500 39 1.000000 1.028000 1.123000 600 43 1.000000 0.052000 0.052000 1.200000 0.035000 0.042000
1517575066512575605	1000 45 1.000000 0.168000 0.184000 1500 39 1.000000 1.030000 1.125000 600 43 1.000000 0.051000 0.051000 1.200000 0.046000 0.055000
1517575067018463147	1000 45 1.000000 0.195000 0.213000 1500 39 1.000000 1.030000 1.125000 600 43 1.000000 0.051000 0.051000 1.200000 0.035000 0.042000
1517575067524374231	1000 45 1.000000 0.190000 0.208000 1500 39 1.000000 1.004000 1.099000 600 43 1.000000 0.051000 0.051000 1.200000 0.038000 0.045000
1517575068030360481	1000 45 1.000000 0.188000 0.206000 1500 39 1.000000 1.006000 1.099000 600 43 1.000000 0.051000 0.051000 1.200000 0.034000 0.041000
1517575068536700189	1000 45 1.000000 0.195000 0.213000 1500 39 1.000000 1.007000 1.100000 600 43 1.000000 0.051000 0.051000 1.200000 0.035000 0.042000
1517575069042619189	1000 45 1.000000 0.190000 0.208000 1500 39 1.000000 1.007000 1.100000 600 43 1.000000 0.051000 0.051000 1.200000 0.038000 0.045000
1517575069548376064	1000 45 1.000000 0.191000 0.209000 1500 39 1.000000 1.032000 1.127000 600 44 1.000000 0.051000 0.051000 1.200000 0.034000 0.041000
1517575070054184564	1000 45 1.000000 0.189000 0.207000 1500 39 1.000000 1.059000 1.157000 600 43 1.000000 0.051000 0.051000 1.200000 0.046000 0.055000
1517575070560132814	1000 45 1.000000 0.188000 0.206000 1500 39 1.000000 1.005000 1.098000 600 43 1.000000 0.051000 0.051000 1.200000 0.035000 0.042000
1517575071066218648	1000 45 1.000000 0.191000 0.209000 1500 39 1.000000 1.024000 1.119000 600 43 1.000000 0.051000 0.051000 1.200000 0.035000 0.042000
1517575071576265731	1000 45 1.000000 0.188000 0.206000 1500 39 1.000000 1.018000 1.112000 600 44 1.000000 0.051000 0.051000 1.200000 0.037000 0.044000
1517575072084009314	1000 45 1.000000 0.196000 0.215000 1500 39 1.000000 1.172000 1.283000 600 44 1.000000 0.052000 0.052000 1.200000 0.047000 0.056000
1517575072590042064	1000 45 1.000000 0.155000 0.170000 1500 39 1.000000 1.031000 1.126000 600 43 1.000000 0.051000 0.051000 1.200000 0.046000 0.055000
1517575073096058315	1000 45 1.000000 0.190000 0.208000 1500 39 1.000000 1.029000 1.124000 600 43 1.000000 0.051000 0.051000 1.200000 0.034000 0.041000
1517575073602146315	1000 45 1.000000 0.155000 0.170000 1500 39 1.000000 1.011000 1.105000 600 43 1.000000 0.051000 0.051000 1.200000 0.048000 0.057000
1517575074107837815	1000 45 1.000000 0.203000 0.222000 1500 39 1.000000 1.169000 1.277000 600 44 1.000000 0.051000 0.051000 1.200000 0.046000 0.055000
1517575074613938815	1000 45 1.000000 0.190000 0.208000 1500 39 1.000000 0.995000 1.087000 600 43 1.000000 0.051000 0.051000 1.200000 0.040000 0.048000
1517575075119977231	1000 45 1.000000 0.192000 0.210000 1500 39 1.000000 1.014000 1.108000 600 43 1.000000 0.051000 0.051000 1.200000 0.035000 0.042000
1517575075625883857	1000 45 1.000000 0.190000 0.208000 1500 39 1.000000 1.013000 1.107000 600 43 1.000000 0.051000 0.051000 1.200000 0.034000 0.041000
1517575076131782607	1000 45 1.000000 0.199000 0.218000 1500 39 1.000000 1.145000 1.253000 600 44 1.000000 0.051000 0.051000 1.200000 0.046000 0.055000
1517575076637683273	1000 45 1.000000 0.193000 0.211000 1500 39 1.000000 1.003000 1.096000 600 43 1.000000 0.051000 0.051000 1.200000 0.034000 0.041000
1517575077143747732	1000 45 1.000000 0.159000 0.174000 1500 39 1.000000 1.032000 1.127000 600 43 1.000000 0.051000 0.051000 1.200000 0.039000 0.047000
1517575077649863940	1000 45 1.000000 0.195000 0.213000 1500 39 1.000000 1.028000 1.123000 600 43 1.000000 0.052000 0.052000 1.200000 0.037000 0.044000
1517575078155577440	1000 45 1.000000 0.193000 0.211000 1500 39 1.000000 1.079000 1.181000 600 45 1.000000 0.052000 0.052000 1.200000 0.034000 0.041000
1517575078661608815	1000 45 1.000000 0.162000 0.177000 1500 39 1.000000 1.015000 1.109000 600 43 1.000000 0.051000 0.051000 1.200000 0.039000 0.047000
1517575079168132565	1000 44 1.000000 0.193000 0.211000 1500 39 1.000000 1.002000 1.095000 600 43 1.000000 0.051000 0.051000 1.200000 0.034000 0.041000
1517575079674170190	1000 45 1.000000 0.159000 0.174000 1500 39 1.000000 1.035000 1.131000 600 43 1.000000 0.051000 0.051000 1.200000 0.043000 0.051000
1517575080180219482	1000 45 1.000000 0.190000 0.208000 1500 39 1.000000 1.072000 1.173000 600 45 1.000000 0.051000 0.051000 1.200000 0.035000 0.042000
1517575080686232274	1000 45 1.000000 0.155000 0.170000 1500 39 1.000000 1.007000 1.100000 600 43 1.000000 0.051000 0.051000 1.200000 0.045000 0.054000
1517575081192167732	1000 45 1.000000 0.183000 0.200000 1500 39 1.000000 1.012000 1.106000 600 43 1.000000 0.052000 0.052000 1.200000 0.034000 0.041000
1517575081698283857	1000 45 1.000000 0.194000 0.212000 1500 39 1.000000 0.991000 1.083000 600 43 1.000000 0.051000 0.051000 1.200000 0.037000 0.044000
1517575082204955857	1000 45 1.000000 0.194000 0.212000 1500 39 1.000000 1.079000 1.181000 600 44 1.000000 0.051000 0.051000 1.200000 0.034000 0.041000
1517575082711171691	1000 45 1.000000 0.195000 0.213000 1500 39 1.000000 1.225000 1.341000 600 43 1.000000 0.051000 0.051000 1.200000 0.035000 0.042000
1517575083217146816	1000 45 1.000000 0.193000 0.211000 1500 39 1.000000 1.016000 1.110000 600 43 1.000000 0.051000 0.051000 1.200000 0.037000 0.044000
1517575083723164232	1000 45 1.000000 0.190000 0.208000 1500 39 1.000000 1.011000 1.105000 600 43 1.000000 0.051000 0.051000 1.200000 0.036000 0.043000
1517575084230895691	1000 45 1.000000 0.166000 0.182000 1500 39 1.000000 1.008000 1.101000 600 43 1.000000 0.051000 0.051000 1.200000 0.037000 0.044000
1517575084737292441	1000 45 1.000000 0.189000 0.207000 1500 39 1.000000 1.178000 1.289000 600 43 1.000000 0.051000 0.051000 1.200000 0.051000 0.061000
1517575085243971566	1000 45 1.000000 0.195000 0.213000 1500 39 1.000000 1.013000 1.107000 600 43 1.000000 0.051000 0.051000 1.200000 0.034000 0.041000
1517575085749920941	1000 45 1.000000 0.158000 0.173000 1500 39 1.000000 1.016000 1.110000 600 43 1.000000 0.051000 0.051000 1.200000 0.036000 0.043000
1517575086255832191	1000 45 1.000000 0.195000 0.213000 1500 39 1.000000 1.015000 1.109000 600 43 1.000000 0.051000 0.051000 1.200000 0.034000 0.041000
1517575086761817316	1000 45 1.000000 0.167000 0.183000 1500 39 1.000000 1.161000 1.271000 600 43 1.000000 0.051000 0.051000 1.200000 0.054000 0.065000
1517575087267753025	1000 45 1.000000 0.188000 0.206000 1500 39 1.000000 1.000000 1.093000 600 43 1.000000 0.052000 0.052000 1.200000 0.036000 0.043000
1517575087773866233	1000 45 1.000000 0.164000 0.179000 1500 39 1.000000 1.033000 1.129000 600 43 1.000000 0.051000 0.051000 1.200000 0.046000 0.055000
1517575088279713400	1000 45 1.000000 0.193000 0.211000 1500 39 1.000000 1.000000 1.093000 600 43 1.000000 0.051000 0.051000 1.200000 0.035000 0.042000
1517575088785929525	1000 45 1.000000 0.198000 0.217000 1500 39 1.000000 1.193000 1.306000 600 43 1.000000 0.051000 0.051000 1.200000 0.050000 0.060000
1517575089292032775	1000 45 1.000000 0.192000 0.210000 1500 39 1.000000 1.049000 1.146000 600 43 1.000000 0.051000 0.051000 1.200000 0.036000 0.043000
1517575089798111942	1000 45 1.000000 0.181000 0.198000 1500 39 1.000000 1.030000 1.125000 600 43 1.000000 0.052000 0.052000 1.200000 0.036000 0.043000
1517575090304236567	1000 45 1.000000 0.158000 0.173000 1500 39 1.000000 1.000000 1.093000 600 43 1.000000 0.051000 0.051000 1.200000 0.046000 0.055000
1517575090809864442	1000 45 1.000000 0.193000 0.211000 1500 39 1.000000 1.058000 1.156000 600 44 1.000000 0.051000 0.051000 1.200000 0.036000 0.043000
1517575091315812608	1000 45 1.000000 0.198000 0.217000 1500 39 1.000000 1.119000 1.225000 600 43 1.000000 0.051000 0.051000 1.200000 0.047000 0.056000
1517575091821865275	1000 45 1.000000 0.192000 0.210000 1500 39 1.000000 1.032000 1.127000 600 43 1.000000 0.052000 0.052000 1.200000 0.039000 0.047000
1517575092327767400	1000 45 1.000000 0.195000 0.213000 1500 39 1.000000 1.008000 1.101000 600 43 1.000000 0.051000 0.051000 1.200000 0.034000 0.041000
1517575092834158317	1000 45 1.000000 0.198000 0.217000 1500 39 1.000000 1.127000 1.231000 600 45 1.000000 0.051000 0.051000 1.200000 0.047000 0.056000
1517575093340432734	1000 45 1.000000 0.188000 0.206000 1500 39 1.000000 1.131000 1.236000 600 43 1.000000 0.051000 0.051000 1.200000 0.045000 0.054000
1517575093846465775	1000 45 1.000000 0.192000 0.210000 1500 39 1.000000 1.039000 1.135000 600 43 1.000000 0.051000 0.051000 1.200000 0.046000 0.055000
1517575094352864025	1000 44 1.000000 0.190000 0.208000 1500 39 1.000000 1.030000 1.125000 600 43 1.000000 0.051000 0.051000 1.200000 0.034000 0.041000
1517575094859371150	1000 45 1.000000 0.193000 0.211000 1500 39 1.000000 1.137000 1.245000 600 44 1.000000 0.051000 0.051000 1.200000 0.049000 0.059000
1517575095365919984	1000 45 1.000000 0.190000 0.208000 1500 39 1.000000 1.110000 1.213000 600 43 1.000000 0.051000 0.051000 1.200000 0.046000 0.055000
1517575095872339942	1000 45 1.000000 0.157000 0.172000 1500 39 1.000000 0.979000 1.070000 600 43 1.000000 0.051000 0.051000 1.200000 0.037000 0.044000
1517575096378262942	1000 45 1.000000 0.193000 0.211000 1500 39 1.000000 1.036000 1.132000 600 43 1.000000 0.051000 0.051000 1.200000 0.036000 0.043000
1517575096884245526	1000 45 1.000000 0.162000 0.177000 1500 39 1.000000 0.984000 1.075000 600 43 1.000000 0.051000 0.051000 1.200000 0.039000 0.047000
1517575097390144567	1000 45 1.000000 0.185000 0.202000 1500 39 1.000000 1.138000 1.246000 600 43 1.000000 0.051000 0.051000 1.200000 0.039000 0.047000
1517575097896273151	1000 45 1.000000 0.183000 0.200000 1500 39 1.000000 0.989000 1.080000 600 43 1.000000 0.051000 0.051000 1.200000 0.039000 0.047000
1517575098402194984	1000 45 1.000000 0.191000 0.209000 1500 39 1.000000 1.037000 1.133000 600 43 1.000000 0.051000 0.051000 1.200000 0.036000 0.043000
1517575098908214859	1000 45 1.000000 0.162000 0.177000 1500 39 1.000000 1.090000 1.193000 600 43 1.000000 0.051000 0.051000 1.200000 0.040000 0.048000
1517575099414038401	1000 45 1.000000 0.192000 0.210000 1500 39 1.000000 1.134000 1.241000 600 43 1.000000 0.052000 0.052000 1.200000 0.039000 0.047000
1517575099920149609	1000 45 1.000000 0.159000 0.174000 1500 39 1.000000 0.989000 1.080000 600 43 1.000000 0.052000 0.052000 1.200000 0.039000 0.047000
1517575100426179568	1000 45 1.000000 0.191000 0.209000 1500 39 1.000000 1.014000 1.108000 600 43 1.000000 0.051000 0.051000 1.200000 0.037000 0.044000
1517575100932345985	1000 45 1.000000 0.160000 0.175000 1500 39 1.000000 1.064000 1.165000 600 43 1.000000 0.051000 0.051000 1.200000 0.043000 0.051000
1517575101438278151	1000 45 1.000000 0.198000 0.217000 1500 39 1.000000 1.144000 1.252000 600 43 1.000000 0.051000 0.051000 1.200000 0.038000 0.045000
1517575101944384026	1000 45 1.000000 0.191000 0.209000 1500 39 1.000000 0.984000 1.075000 600 43 1.000000 0.051000 0.051000 1.200000 0.038000 0.045000
1517575102450347360	1000 45 1.000000 0.190000 0.208000 1500 39 1.000000 1.055000 1.153000 600 43 1.000000 0.051000 0.051000 1.200000 0.045000 0.054000
1517575102956409068	1000 46 1.000000 0.191000 0.209000 1500 39 1.000000 1.021000 1.115000 600 43 1.000000 0.051000 0.051000 1.200000 0.035000 0.042000
1517575103462010068	1000 45 1.000000 0.191000 0.209000 1500 39 1.000000 1.062000 1.160000 600 44 1.000000 0.052000 0.052000 1.200000 0.046000 0.055000
1517575103968497860	1000 44 1.000000 0.202000 0.221000 1500 39 1.000000 1.073000 1.172000 600 43 1.000000 0.051000 0.051000 1.200000 0.044000 0.053000
1517575104474621568	1000 45 1.000000 0.156000 0.171000 1500 39 1.000000 1.027000 1.122000 600 43 1.000000 0.051000 0.051000 1.200000 0.047000 0.056000
1517575104980602777	1000 45 1.000000 0.188000 0.206000 1500 39 1.000000 1.091000 1.194000 600 43 1.000000 0.052000 0.052000 1.200000 0.035000 0.042000
1517575105486721610	1000 45 1.000000 0.160000 0.175000 1500 39 1.000000 1.007000 1.100000 600 44 1.000000 0.051000 0.051000 1.200000 0.042000 0.050000
1517575105992815360	1000 45 1.000000 0.203000 0.222000 1500 39 1.000000 1.067000 1.166000 600 43 1.000000 0.051000 0.051000 1.200000 0.043000 0.052000
1517575106498784985	1000 45 1.000000 0.185000 0.202000 1500 39 1.000000 0.978000 1.068000 600 43 1.000000 0.051000 0.051000 1.200000 0.034000 0.041000
1517575107004868485	1000 45 1.000000 0.195000 0.213000 1500 39 1.000000 1.084000 1.184000 600 43 1.000000 0.051000 0.051000 1.200000 0.039000 0.047000
1517575107510802944	1000 45 1.000000 0.193000 0.211000 1500 39 1.000000 1.013000 1.107000 600 43 1.000000 0.051000 0.051000 1.200000 0.034000 0.041000
1517575108016893819	1000 45 1.000000 0.190000 0.208000 1500 39 1.000000 1.061000 1.159000 600 43 1.000000 0.052000 0.052000 1.200000 0.044000 0.053000
1517575108522875194	1000 45 1.000000 0.184000 0.201000 1500 39 1.000000 1.019000 1.113000 600 43 1.000000 0.052000 0.052000 1.200000 0.035000 0.042000
1517575109028864444	1000 45 1.000000 0.156000 0.171000 1500 39 1.000000 1.016000 1.110000 600 43 1.000000 0.051000 0.051000 1.200000 0.038000 0.045000
1517575109534663777	1000 45 1.000000 0.190000 0.208000 1500 39 1.000000 1.008000 1.101000 600 43 1.000000 0.051000 0.051000 1.200000 0.037000 0.044000
1517575110040779861	1000 45 1.000000 0.185000 0.202000 1500 39 1.000000 1.182000 1.294000 600 43 1.000000 0.051000 0.051000 1.200000 0.038000 0.045000
1517575110546749652	1000 45 1.000000 0.190000 0.208000 1500 39 1.000000 1.010000 1.103000 600 43 1.000000 0.051000 0.051000 1.200000 0.035000 0.042000
1517575111053880777	1000 45 1.000000 0.194000 0.212000 1500 39 1.000000 1.078000 1.178000 600 43 1.000000 0.052000 0.052000 1.200000 0.035000 0.042000
1517575111560014569	1000 45 1.000000 0.175000 0.191000 1500 39 1.000000 1.008000 1.101000 600 43 1.000000 0.052000 0.052000 1.200000 0.041000 0.049000
1517575112065997778	1000 45 1.000000 0.193000 0.211000 1500 39 1.000000 1.158000 1.268000 600 43 1.000000 0.051000 0.051000 1.200000 0.039000 0.047000
1517575112572058944	1000 45 1.000000 0.157000 0.172000 1500 39 1.000000 1.041000 1.137000 600 43 1.000000 0.051000 0.051000 1.200000 0.048000 0.058000
1517575113077872028	1000 45 1.000000 0.196000 0.215000 1500 39 1.000000 1.101000 1.203000 600 43 1.000000 0.051000 0.051000 1.200000 0.040000 0.048000
1517575113583789778	1000 45 1.000000 0.160000 0.175000 1500 39 1.000000 1.012000 1.106000 600 43 1.000000 0.052000 0.052000 1.200000 0.046000 0.055000
1517575114089652736	1000 45 1.000000 0.199000 0.218000 1500 39 1.000000 1.187000 1.299000 600 44 1.000000 0.051000 0.051000 1.200000 0.039000 0.047000
1517575114595643278	1000 46 1.000000 0.188000 0.206000 1500 39 1.000000 1.029000 1.124000 600 43 1.000000 0.052000 0.052000 1.200000 0.042000 0.050000
1517575115101789445	1000 45 1.000000 0.189000 0.207000 1500 39 1.000000 1.037000 1.133000 600 43 1.000000 0.052000 0.052000 1.200000 0.042000 0.050000
1517575115608387778	1000 45 1.000000 0.193000 0.211000 1500 39 1.000000 1.028000 1.123000 600 43 1.000000 0.051000 0.051000 1.200000 0.036000 0.043000
1517575116114609403	1000 45 1.000000 0.184000 0.201000 1500 39 1.000000 1.038000 1.134000 600 44 1.000000 0.051000 0.051000 1.200000 0.048000 0.058000
1517575116620698153	1000 45 1.000000 0.202000 0.221000 1500 39 1.000000 0.999000 1.091000 600 43 1.000000 0.051000 0.051000 1.200000 0.042000 0.050000
1517575117126608695	1000 45 1.000000 0.190000 0.208000 1500 39 1.000000 1.042000 1.138000 600 43 1.000000 0.051000 0.051000 1.200000 0.042000 0.050000
1517575117632615153	1000 45 1.000000 0.195000 0.213000 1500 39 1.000000 1.015000 1.109000 600 43 1.000000 0.051000 0.051000 1.200000 0.035000 0.042000
1517575118138674653	1000 45 1.000000 0.192000 0.210000 1500 39 1.000000 0.989000 1.080000 600 43 1.000000 0.051000 0.051000 1.200000 0.036000 0.043000
1517575118644707737	1000 45 1.000000 0.204000 0.223000 1500 39 1.000000 1.014000 1.108000 600 43 1.000000 0.051000 0.051000 1.200000 0.042000 0.050000
1517575119151179778	1000 44 1.000000 0.193000 0.211000 1500 39 1.000000 1.093000 1.194000 600 43 1.000000 0.051000 0.051000 1.200000 0.036000 0.043000
1517575119657481403	1000 45 1.000000 0.186000 0.204000 1500 39 1.000000 1.005000 1.098000 600 43 1.000000 0.051000 0.051000 1.200000 0.036000 0.043000
1517575120163474987	1000 45 1.000000 0.190000 0.208000 1500 39 1.000000 1.009000 1.102000 600 43 1.000000 0.051000 0.051000 1.200000 0.034000 0.041000
1517575120669738904	1000 45 1.000000 0.176000 0.193000 1500 39 1.000000 1.218000 1.331000 600 43 1.000000 0.051000 0.051000 1.200000 0.045000 0.054000
1517575121175767029	1000 45 1.000000 0.186000 0.204000 1500 39 1.000000 1.029000 1.124000 600 43 1.000000 0.051000 0.051000 1.200000 0.034000 0.041000
1517575121681444362	1000 40 1.000000 0.195000 0.213000 1500 38 1.000000 1.114000 1.217000 600 43 1.000000 0.051000 0.051000 1.200000 0.036000 0.043000
1517575122186746904	1000 38 1.100000 0.047000 0.051000 1500 37 1.000000 0.465000 0.510000 600 41 1.000000 0.051000 0.051000 1.200000 0.023000 0.027000
