#Timestamp	CPU(0) Frequency(MHz)	CPU(0) Temperature(C)	A7 Voltage(V)	A7 Current(A)	A7 Power(W)	CPU(4) Frequency(MHz)	CPU(4) Temperature(C)	A15 Voltage(V)	A15 Current(A)	A15 Power(W)	GPU Frequency(MHz)	GPU Temperature(C)	GPU Voltage(V)	GPU Current(A)	GPU Power(W)	RAM Voltage(V)	RAM Current(A)	RAM Power(W)
1559809459548241421	200 32 1.000000 0.063000 0.067000 300 32 0.900000 0.080000 0.073000 600 36 1.000000 0.051000 0.051000 1.200000 0.042000 0.050000
1559809460088021129	200 33 0.900000 0.028000 0.025000 300 31 0.900000 0.056000 0.051000 600 36 1.000000 0.051000 0.051000 1.200000 0.045000 0.054000
1559809460625590754	200 32 0.900000 0.032000 0.029000 300 31 0.900000 0.130000 0.118000 600 36 1.000000 0.051000 0.051000 1.200000 0.052000 0.062000
1559809461162674088	200 32 0.900000 0.014000 0.012000 300 31 0.900000 0.184000 0.167000 600 35 1.000000 0.050000 0.050000 1.200000 0.036000 0.043000
1559809461699018004	200 32 0.900000 0.013000 0.011000 300 31 0.900000 0.184000 0.167000 600 35 1.000000 0.050000 0.050000 1.200000 0.036000 0.043000
1559809462235651338	200 32 0.900000 0.013000 0.011000 300 31 0.900000 0.184000 0.167000 600 35 1.000000 0.050000 0.050000 1.200000 0.039000 0.047000
1559809462775732046	200 32 0.900000 0.021000 0.019000 300 31 0.900000 0.184000 0.167000 600 35 1.000000 0.050000 0.050000 1.200000 0.047000 0.056000
1559809463313106630	200 32 0.900000 0.025000 0.022000 300 30 0.900000 0.182000 0.165000 600 35 1.000000 0.050000 0.050000 1.200000 0.049000 0.059000
1559809463850187213	200 32 0.900000 0.011000 0.010000 300 30 0.900000 0.183000 0.166000 600 35 1.000000 0.050000 0.050000 1.200000 0.034000 0.041000
1559809464387955963	200 32 0.900000 0.019000 0.017000 300 30 0.900000 0.184000 0.167000 600 35 1.000000 0.050000 0.050000 1.200000 0.040000 0.048000
1559809464924628130	200 31 0.900000 0.010000 0.009000 300 30 0.900000 0.171000 0.155000 600 34 1.000000 0.050000 0.050000 1.200000 0.024000 0.028000
1559809465463410421	200 31 0.900000 0.013000 0.011000 300 30 0.900000 0.169000 0.154000 600 34 1.000000 0.050000 0.050000 1.200000 0.035000 0.042000
1559809466000149005	200 31 0.900000 0.027000 0.024000 300 30 0.900000 0.173000 0.157000 600 34 1.000000 0.050000 0.050000 1.200000 0.043000 0.052000
1559809466537544088	200 31 0.900000 0.012000 0.010000 300 30 0.900000 0.169000 0.154000 600 34 1.000000 0.050000 0.050000 1.200000 0.025000 0.030000
1559809467074214130	200 31 0.900000 0.027000 0.024000 300 30 0.900000 0.173000 0.157000 600 34 1.000000 0.050000 0.050000 1.200000 0.028000 0.033000
1559809467609971797	200 31 0.900000 0.012000 0.010000 300 30 0.900000 0.170000 0.155000 600 34 1.000000 0.050000 0.050000 1.200000 0.024000 0.028000
1559809468154388963	200 31 0.900000 0.012000 0.010000 300 30 0.900000 0.169000 0.154000 600 34 1.000000 0.050000 0.050000 1.200000 0.030000 0.036000
1559809468690902005	200 31 0.900000 0.027000 0.024000 300 30 0.900000 0.173000 0.157000 600 34 1.000000 0.050000 0.050000 1.200000 0.043000 0.051000
1559809469227601422	200 31 0.900000 0.022000 0.020000 300 30 0.900000 0.171000 0.155000 600 34 1.000000 0.050000 0.050000 1.200000 0.036000 0.043000
1559809469763939672	200 31 0.900000 0.010000 0.009000 300 29 0.900000 0.169000 0.154000 600 34 1.000000 0.050000 0.050000 1.200000 0.024000 0.029000
1559809470300480630	200 31 0.900000 0.010000 0.009000 300 29 0.900000 0.169000 0.154000 600 34 1.000000 0.050000 0.050000 1.200000 0.024000 0.029000
1559809470841877755	200 31 0.900000 0.012000 0.010000 300 29 0.900000 0.169000 0.154000 600 34 1.000000 0.050000 0.050000 1.200000 0.026000 0.031000
1559809471378731797	200 31 0.900000 0.030000 0.027000 300 29 0.900000 0.172000 0.156000 600 34 1.000000 0.050000 0.050000 1.200000 0.046000 0.055000
1559809471915350214	200 30 0.900000 0.034000 0.031000 300 29 0.900000 0.173000 0.157000 600 34 1.000000 0.050000 0.050000 1.200000 0.024000 0.028000
1559809472451386089	200 31 0.900000 0.012000 0.010000 300 29 0.900000 0.169000 0.154000 600 34 1.000000 0.050000 0.050000 1.200000 0.024000 0.028000
1559809472987635547	200 30 0.900000 0.012000 0.010000 300 29 0.900000 0.169000 0.154000 600 33 1.000000 0.050000 0.050000 1.200000 0.024000 0.028000
1559809473534270297	200 30 0.900000 0.012000 0.010000 300 29 0.900000 0.168000 0.153000 600 33 1.000000 0.051000 0.051000 1.200000 0.025000 0.030000
1559809474073141881	200 30 0.900000 0.036000 0.032000 300 29 0.900000 0.174000 0.158000 600 33 1.000000 0.050000 0.050000 1.200000 0.049000 0.059000
1559809474609782214	200 30 0.900000 0.020000 0.018000 300 29 0.900000 0.171000 0.155000 600 33 1.000000 0.050000 0.050000 1.200000 0.024000 0.028000
1559809475145940756	200 30 0.900000 0.013000 0.011000 300 29 0.900000 0.169000 0.154000 600 33 1.000000 0.050000 0.050000 1.200000 0.026000 0.031000
1559809475681654506	200 30 0.900000 0.013000 0.011000 300 29 0.900000 0.168000 0.153000 600 33 1.000000 0.050000 0.050000 1.200000 0.026000 0.031000
1559809476221906506	200 30 0.900000 0.015000 0.013000 300 29 0.900000 0.168000 0.153000 600 33 1.000000 0.050000 0.050000 1.200000 0.025000 0.030000
1559809476760469256	200 30 0.900000 0.025000 0.022000 300 29 0.900000 0.173000 0.157000 600 33 1.000000 0.050000 0.050000 1.200000 0.044000 0.053000
1559809477297092590	200 30 0.900000 0.010000 0.009000 300 29 0.900000 0.168000 0.153000 600 33 1.000000 0.050000 0.050000 1.200000 0.030000 0.036000
1559809477833549173	200 30 0.900000 0.012000 0.010000 300 29 0.900000 0.168000 0.153000 600 33 1.000000 0.050000 0.050000 1.200000 0.027000 0.032000
1559809478370686548	200 30 0.900000 0.012000 0.010000 300 29 0.900000 0.169000 0.154000 600 33 1.000000 0.050000 0.050000 1.200000 0.027000 0.032000
1559809478910058215	200 30 0.900000 0.017000 0.015000 300 29 0.900000 0.166000 0.151000 600 33 1.000000 0.050000 0.050000 1.200000 0.030000 0.036000
1559809479454668048	200 30 0.900000 0.027000 0.024000 300 29 0.900000 0.173000 0.157000 600 33 1.000000 0.050000 0.050000 1.200000 0.045000 0.054000
1559809479991914548	200 30 0.900000 0.017000 0.015000 300 29 0.900000 0.168000 0.153000 600 33 1.000000 0.050000 0.050000 1.200000 0.035000 0.042000
1559809480529464757	200 30 0.900000 0.011000 0.010000 300 29 0.900000 0.167000 0.152000 600 33 1.000000 0.050000 0.050000 1.200000 0.027000 0.032000
1559809481065863715	200 30 0.900000 0.022000 0.020000 300 29 0.900000 0.170000 0.155000 600 33 1.000000 0.050000 0.050000 1.200000 0.037000 0.044000
1559809481612773007	200 30 0.900000 0.010000 0.009000 300 29 0.900000 0.167000 0.152000 600 33 1.000000 0.050000 0.050000 1.200000 0.027000 0.032000
1559809482156778840	200 30 0.900000 0.025000 0.022000 300 29 0.900000 0.173000 0.157000 600 33 1.000000 0.050000 0.050000 1.200000 0.044000 0.053000
1559809482694327965	200 30 0.900000 0.013000 0.011000 300 29 0.900000 0.169000 0.154000 600 33 1.000000 0.050000 0.050000 1.200000 0.040000 0.048000
1559809483230805715	200 30 0.900000 0.025000 0.022000 300 29 0.900000 0.172000 0.156000 600 33 1.000000 0.050000 0.050000 1.200000 0.032000 0.038000
1559809483767662049	200 30 0.900000 0.010000 0.009000 300 28 0.900000 0.167000 0.152000 600 33 1.000000 0.050000 0.050000 1.200000 0.027000 0.032000
1559809484309652757	200 30 0.900000 0.013000 0.011000 300 29 0.900000 0.167000 0.152000 600 33 1.000000 0.050000 0.050000 1.200000 0.027000 0.032000
1559809484851572465	200 30 0.900000 0.020000 0.018000 300 29 0.900000 0.173000 0.157000 600 33 1.000000 0.050000 0.050000 1.200000 0.040000 0.048000
1559809485388315757	200 30 0.900000 0.027000 0.024000 300 29 0.900000 0.172000 0.156000 600 33 1.000000 0.050000 0.050000 1.200000 0.045000 0.054000
1559809485924584091	200 30 0.900000 0.021000 0.019000 300 28 0.900000 0.168000 0.153000 600 33 1.000000 0.050000 0.050000 1.200000 0.031000 0.037000
1559809486460843424	200 30 0.900000 0.012000 0.010000 300 28 0.900000 0.167000 0.152000 600 33 1.000000 0.050000 0.050000 1.200000 0.028000 0.033000
1559809487001461382	200 30 0.900000 0.012000 0.010000 300 28 0.900000 0.168000 0.153000 600 33 1.000000 0.050000 0.050000 1.200000 0.027000 0.032000
1559809487546342299	200 30 0.900000 0.022000 0.020000 300 28 0.900000 0.173000 0.157000 600 33 1.000000 0.050000 0.050000 1.200000 0.035000 0.042000
1559809488084604674	200 30 0.900000 0.038000 0.034000 300 28 0.900000 0.175000 0.159000 600 33 1.000000 0.050000 0.050000 1.200000 0.051000 0.061000
1559809488621030716	200 30 0.900000 0.012000 0.010000 300 28 0.900000 0.167000 0.152000 600 33 1.000000 0.050000 0.050000 1.200000 0.027000 0.032000
1559809489157931508	200 30 0.900000 0.010000 0.009000 300 28 0.900000 0.167000 0.152000 600 33 1.000000 0.050000 0.050000 1.200000 0.023000 0.027000
1559809489695988549	200 30 0.900000 0.010000 0.009000 300 28 0.900000 0.168000 0.153000 600 33 1.000000 0.050000 0.050000 1.200000 0.024000 0.029000
1559809490235517466	200 30 0.900000 0.035000 0.032000 300 28 0.900000 0.177000 0.161000 600 33 1.000000 0.050000 0.050000 1.200000 0.050000 0.060000
1559809490772773299	200 30 0.900000 0.026000 0.023000 300 28 0.900000 0.167000 0.152000 600 33 1.000000 0.050000 0.050000 1.200000 0.035000 0.042000
1559809491309925675	200 30 0.900000 0.014000 0.012000 300 28 0.900000 0.166000 0.151000 600 33 1.000000 0.050000 0.050000 1.200000 0.026000 0.031000
1559809491846308716	200 30 0.900000 0.012000 0.010000 300 28 0.900000 0.166000 0.151000 600 33 1.000000 0.050000 0.050000 1.200000 0.024000 0.028000
1559809492383495550	200 30 0.900000 0.012000 0.010000 300 28 0.900000 0.170000 0.155000 600 33 1.000000 0.050000 0.050000 1.200000 0.026000 0.031000
1559809492926492758	200 30 0.900000 0.027000 0.024000 300 28 0.900000 0.173000 0.157000 600 33 1.000000 0.050000 0.050000 1.200000 0.043000 0.052000
1559809493463962425	200 30 0.900000 0.023000 0.021000 300 28 0.900000 0.168000 0.153000 600 33 1.000000 0.050000 0.050000 1.200000 0.040000 0.048000
1559809494001516925	200 29 0.900000 0.010000 0.009000 300 28 0.900000 0.166000 0.151000 600 33 1.000000 0.050000 0.050000 1.200000 0.025000 0.030000
1559809494538559758	200 30 0.900000 0.010000 0.009000 300 28 0.900000 0.166000 0.151000 600 33 1.000000 0.050000 0.050000 1.200000 0.025000 0.030000
1559809495075004758	200 30 0.900000 0.020000 0.018000 300 28 0.900000 0.169000 0.154000 600 32 1.000000 0.050000 0.050000 1.200000 0.036000 0.043000
1559809495615423050	200 30 0.900000 0.024000 0.021000 300 28 0.900000 0.172000 0.156000 600 33 1.000000 0.050000 0.050000 1.200000 0.039000 0.047000
1559809496151813050	200 30 0.900000 0.020000 0.018000 300 28 0.900000 0.172000 0.156000 600 32 1.000000 0.050000 0.050000 1.200000 0.044000 0.053000
1559809496688468259	200 29 0.900000 0.010000 0.009000 300 28 0.900000 0.167000 0.152000 600 32 1.000000 0.050000 0.050000 1.200000 0.026000 0.031000
1559809497225464342	200 30 0.900000 0.013000 0.011000 300 28 0.900000 0.168000 0.153000 600 32 1.000000 0.050000 0.050000 1.200000 0.035000 0.042000
1559809497761798425	200 30 0.900000 0.013000 0.011000 300 28 0.900000 0.169000 0.154000 600 32 1.000000 0.050000 0.050000 1.200000 0.027000 0.032000
1559809498300955759	200 29 0.900000 0.013000 0.011000 300 28 0.900000 0.168000 0.153000 600 32 1.000000 0.050000 0.050000 1.200000 0.036000 0.043000
1559809498838177925	200 29 0.900000 0.027000 0.024000 300 28 0.900000 0.172000 0.156000 600 32 1.000000 0.050000 0.050000 1.200000 0.044000 0.053000
1559809499377615092	200 30 0.900000 0.012000 0.010000 300 28 0.900000 0.167000 0.152000 600 32 1.000000 0.050000 0.050000 1.200000 0.027000 0.032000
1559809499913746176	200 29 0.900000 0.019000 0.017000 300 28 0.900000 0.170000 0.155000 600 32 1.000000 0.050000 0.050000 1.200000 0.029000 0.035000
1559809500450271217	200 29 0.900000 0.012000 0.010000 300 28 0.900000 0.169000 0.154000 600 32 1.000000 0.050000 0.050000 1.200000 0.027000 0.032000
1559809500993594592	200 29 0.900000 0.015000 0.013000 300 28 0.900000 0.168000 0.153000 600 32 1.000000 0.050000 0.050000 1.200000 0.030000 0.036000
1559809501533134092	200 29 0.900000 0.027000 0.024000 300 28 0.900000 0.172000 0.156000 600 32 1.000000 0.050000 0.050000 1.200000 0.044000 0.053000
1559809502070524801	200 29 0.900000 0.025000 0.022000 300 28 0.900000 0.170000 0.155000 600 32 1.000000 0.050000 0.050000 1.200000 0.036000 0.043000
1559809502606692801	200 29 0.900000 0.012000 0.010000 300 28 0.900000 0.167000 0.152000 600 32 1.000000 0.050000 0.050000 1.200000 0.027000 0.032000
1559809503143861551	200 29 0.900000 0.010000 0.009000 300 28 0.900000 0.168000 0.153000 600 32 1.000000 0.050000 0.050000 1.200000 0.024000 0.028000
1559809503690668509	200 29 0.900000 0.017000 0.015000 300 28 0.900000 0.168000 0.153000 600 32 1.000000 0.050000 0.050000 1.200000 0.042000 0.050000
1559809504228476843	200 29 0.900000 0.038000 0.034000 300 28 0.900000 0.174000 0.158000 600 32 1.000000 0.050000 0.050000 1.200000 0.047000 0.056000
1559809504765080843	200 29 0.900000 0.012000 0.010000 300 28 0.900000 0.168000 0.153000 600 32 1.000000 0.050000 0.050000 1.200000 0.024000 0.028000
1559809505301863301	200 29 0.900000 0.012000 0.010000 300 28 0.900000 0.169000 0.154000 600 32 1.000000 0.050000 0.050000 1.200000 0.024000 0.028000
1559809505838363635	200 29 0.900000 0.010000 0.009000 300 28 0.900000 0.167000 0.152000 600 32 1.000000 0.050000 0.050000 1.200000 0.024000 0.028000
1559809506377796801	200 29 0.900000 0.018000 0.016000 300 28 0.900000 0.167000 0.152000 600 32 1.000000 0.050000 0.050000 1.200000 0.040000 0.048000
1559809506915455926	200 29 0.900000 0.027000 0.024000 300 28 0.900000 0.173000 0.157000 600 32 1.000000 0.050000 0.050000 1.200000 0.043000 0.052000
1559809507452067260	200 29 0.900000 0.010000 0.009000 300 28 0.900000 0.168000 0.153000 600 32 1.000000 0.050000 0.050000 1.200000 0.024000 0.028000
1559809507988626885	200 29 0.900000 0.010000 0.009000 300 28 0.900000 0.169000 0.154000 600 32 1.000000 0.050000 0.050000 1.200000 0.024000 0.028000
1559809508525643302	200 29 0.900000 0.010000 0.009000 300 28 0.900000 0.167000 0.152000 600 32 1.000000 0.050000 0.050000 1.200000 0.025000 0.030000
1559809509069481760	200 29 0.900000 0.024000 0.021000 300 28 0.900000 0.170000 0.155000 600 32 1.000000 0.050000 0.050000 1.200000 0.037000 0.044000
1559809509606212218	200 29 0.900000 0.026000 0.023000 300 28 0.900000 0.172000 0.156000 600 32 1.000000 0.050000 0.050000 1.200000 0.043000 0.051000
1559809510143180093	200 29 0.900000 0.016000 0.014000 300 28 0.900000 0.169000 0.154000 600 32 1.000000 0.050000 0.050000 1.200000 0.024000 0.028000
1559809510679504052	200 29 0.900000 0.012000 0.010000 300 28 0.900000 0.169000 0.154000 600 32 1.000000 0.050000 0.050000 1.200000 0.024000 0.028000
1559809511215817927	200 29 0.900000 0.015000 0.013000 300 28 0.900000 0.169000 0.154000 600 32 1.000000 0.050000 0.050000 1.200000 0.034000 0.041000
1559809511755244135	200 29 0.900000 0.012000 0.010000 300 28 0.900000 0.166000 0.151000 600 32 1.000000 0.050000 0.050000 1.200000 0.026000 0.031000
1559809512292349510	200 29 0.900000 0.027000 0.024000 300 28 0.900000 0.173000 0.157000 600 32 1.000000 0.050000 0.050000 1.200000 0.043000 0.052000
1559809512828702260	200 29 0.900000 0.014000 0.012000 300 28 0.900000 0.169000 0.154000 600 32 1.000000 0.050000 0.050000 1.200000 0.024000 0.028000
1559809513366134927	200 29 0.900000 0.012000 0.010000 300 28 0.900000 0.168000 0.153000 600 32 1.000000 0.050000 0.050000 1.200000 0.026000 0.031000
1559809513903975011	200 29 0.900000 0.017000 0.015000 300 28 0.900000 0.169000 0.154000 600 32 1.000000 0.050000 0.050000 1.200000 0.025000 0.030000
1559809514450835094	200 29 0.900000 0.012000 0.010000 300 28 0.900000 0.166000 0.151000 600 32 1.000000 0.050000 0.050000 1.200000 0.026000 0.031000
1559809514987019136	200 29 0.900000 0.027000 0.024000 300 28 0.900000 0.172000 0.156000 600 32 1.000000 0.050000 0.050000 1.200000 0.044000 0.053000
1559809515524902302	200 29 0.900000 0.012000 0.010000 300 28 0.900000 0.170000 0.155000 600 32 1.000000 0.050000 0.050000 1.200000 0.026000 0.031000
1559809516061791969	200 29 0.900000 0.023000 0.021000 300 28 0.900000 0.171000 0.155000 600 32 1.000000 0.050000 0.050000 1.200000 0.035000 0.042000
1559809516598405011	200 29 0.900000 0.012000 0.010000 300 28 0.900000 0.166000 0.151000 600 32 1.000000 0.050000 0.050000 1.200000 0.025000 0.030000
1559809517142423928	200 29 0.900000 0.011000 0.010000 300 28 0.900000 0.167000 0.152000 600 32 1.000000 0.050000 0.050000 1.200000 0.036000 0.043000
1559809517678986261	200 29 0.900000 0.025000 0.022000 300 28 0.900000 0.173000 0.157000 600 32 1.000000 0.050000 0.050000 1.200000 0.043000 0.052000
1559809518215765803	200 29 0.900000 0.025000 0.022000 300 28 0.900000 0.170000 0.155000 600 32 1.000000 0.050000 0.050000 1.200000 0.037000 0.044000
1559809518751440803	200 29 0.900000 0.010000 0.009000 300 28 0.900000 0.166000 0.151000 600 32 1.000000 0.050000 0.050000 1.200000 0.028000 0.033000
1559809519287415595	200 29 0.900000 0.010000 0.009000 300 28 0.900000 0.166000 0.151000 600 32 1.000000 0.050000 0.050000 1.200000 0.027000 0.032000
1559809519832723720	200 29 0.900000 0.010000 0.009000 300 28 0.900000 0.166000 0.151000 600 32 1.000000 0.050000 0.050000 1.200000 0.026000 0.031000
1559809520378215761	200 29 0.900000 0.032000 0.029000 300 28 0.900000 0.174000 0.158000 600 32 1.000000 0.050000 0.050000 1.200000 0.044000 0.053000
1559809520915070886	200 29 0.900000 0.010000 0.009000 300 28 0.900000 0.167000 0.152000 600 32 1.000000 0.050000 0.050000 1.200000 0.036000 0.043000
1559809521451292803	200 29 0.900000 0.010000 0.009000 300 28 0.900000 0.166000 0.151000 600 32 1.000000 0.050000 0.050000 1.200000 0.026000 0.031000
1559809521988146720	200 29 0.900000 0.010000 0.009000 300 28 0.900000 0.165000 0.150000 600 32 1.000000 0.050000 0.050000 1.200000 0.027000 0.032000
1559809522537454428	200 29 0.900000 0.012000 0.010000 300 28 0.900000 0.166000 0.151000 600 32 1.000000 0.050000 0.050000 1.200000 0.026000 0.031000
1559809523076705095	200 29 0.900000 0.038000 0.034000 300 28 0.900000 0.175000 0.159000 600 32 1.000000 0.050000 0.050000 1.200000 0.051000 0.061000
1559809523614465470	200 29 0.900000 0.023000 0.021000 300 28 0.900000 0.168000 0.153000 600 32 1.000000 0.050000 0.050000 1.200000 0.040000 0.048000
1559809524150947053	200 29 0.900000 0.012000 0.010000 300 27 0.900000 0.166000 0.151000 600 32 1.000000 0.050000 0.050000 1.200000 0.027000 0.032000
1559809524687105970	200 29 0.900000 0.012000 0.010000 300 28 0.900000 0.166000 0.151000 600 32 1.000000 0.050000 0.050000 1.200000 0.026000 0.031000
1559809525229771554	200 29 0.900000 0.017000 0.015000 300 28 0.900000 0.170000 0.155000 600 32 1.000000 0.050000 0.050000 1.200000 0.030000 0.036000
1559809525770344554	200 29 0.900000 0.027000 0.024000 300 28 0.900000 0.173000 0.157000 600 32 1.000000 0.050000 0.050000 1.200000 0.040000 0.048000
1559809526308516762	200 29 0.900000 0.020000 0.018000 300 28 0.900000 0.169000 0.154000 600 32 1.000000 0.050000 0.050000 1.200000 0.044000 0.053000
1559809526845690679	200 29 0.900000 0.012000 0.010000 300 28 0.900000 0.167000 0.152000 600 32 1.000000 0.050000 0.050000 1.200000 0.026000 0.031000
1559809527383478221	200 29 0.900000 0.012000 0.010000 300 27 0.900000 0.166000 0.151000 600 32 1.000000 0.050000 0.050000 1.200000 0.027000 0.032000
1559809527922550887	200 29 0.900000 0.015000 0.013000 300 27 0.900000 0.167000 0.152000 600 32 1.000000 0.050000 0.050000 1.200000 0.035000 0.042000
1559809528462287179	200 29 0.900000 0.027000 0.024000 300 27 0.900000 0.173000 0.157000 600 32 1.000000 0.050000 0.050000 1.200000 0.035000 0.042000
1559809528998896304	200 29 0.900000 0.019000 0.017000 300 27 0.900000 0.166000 0.151000 600 32 1.000000 0.050000 0.050000 1.200000 0.028000 0.033000
1559809529538580637	200 29 0.900000 0.012000 0.010000 300 28 0.900000 0.167000 0.152000 600 32 1.000000 0.050000 0.050000 1.200000 0.024000 0.029000
1559809530076023221	200 29 0.900000 0.020000 0.018000 300 27 0.900000 0.166000 0.151000 600 32 1.000000 0.050000 0.050000 1.200000 0.029000 0.035000
1559809530619767429	200 29 0.900000 0.010000 0.009000 300 27 0.900000 0.168000 0.153000 600 32 1.000000 0.050000 0.050000 1.200000 0.025000 0.030000
1559809531159511971	200 29 0.900000 0.025000 0.022000 300 27 0.900000 0.173000 0.157000 600 32 1.000000 0.050000 0.050000 1.200000 0.043000 0.052000
1559809531697645929	200 29 0.900000 0.016000 0.014000 300 27 0.900000 0.166000 0.151000 600 32 1.000000 0.050000 0.050000 1.200000 0.034000 0.041000
1559809532234275429	200 29 0.900000 0.025000 0.022000 300 27 0.900000 0.168000 0.153000 600 32 1.000000 0.050000 0.050000 1.200000 0.037000 0.044000
1559809532770584054	200 29 0.900000 0.010000 0.009000 300 27 0.900000 0.167000 0.152000 600 32 1.000000 0.050000 0.050000 1.200000 0.026000 0.031000
1559809533310841138	200 29 0.900000 0.010000 0.009000 300 27 0.900000 0.167000 0.152000 600 32 1.000000 0.050000 0.050000 1.200000 0.027000 0.032000
1559809533853952846	200 29 0.900000 0.025000 0.022000 300 27 0.900000 0.173000 0.157000 600 32 1.000000 0.050000 0.050000 1.200000 0.044000 0.053000
1559809534391416471	200 29 0.900000 0.025000 0.022000 300 27 0.900000 0.170000 0.155000 600 32 1.000000 0.050000 0.050000 1.200000 0.043000 0.051000
1559809534927987388	200 29 0.900000 0.010000 0.009000 300 27 0.900000 0.166000 0.151000 600 32 1.000000 0.050000 0.050000 1.200000 0.027000 0.032000
1559809535463838388	200 29 0.900000 0.012000 0.010000 300 27 0.900000 0.166000 0.151000 600 32 1.000000 0.050000 0.050000 1.200000 0.027000 0.032000
1559809536001044805	200 29 0.900000 0.012000 0.010000 300 27 0.900000 0.167000 0.152000 600 32 1.000000 0.050000 0.050000 1.200000 0.027000 0.032000
1559809536546515138	200 29 0.900000 0.020000 0.018000 300 27 0.900000 0.169000 0.154000 600 32 1.000000 0.050000 0.050000 1.200000 0.041000 0.049000
1559809537088168638	200 29 0.900000 0.038000 0.034000 300 27 0.900000 0.175000 0.159000 600 32 1.000000 0.050000 0.050000 1.200000 0.049000 0.059000
1559809537624625972	200 29 0.900000 0.012000 0.010000 300 27 0.900000 0.166000 0.151000 600 32 1.000000 0.050000 0.050000 1.200000 0.026000 0.031000
1559809538160754055	200 29 0.900000 0.012000 0.010000 300 27 0.900000 0.167000 0.152000 600 32 1.000000 0.050000 0.050000 1.200000 0.027000 0.032000
1559809538698839430	200 29 0.900000 0.012000 0.010000 300 27 0.900000 0.168000 0.153000 600 32 1.000000 0.050000 0.050000 1.200000 0.027000 0.032000
1559809539239273014	200 29 0.900000 0.030000 0.027000 300 27 0.900000 0.167000 0.152000 600 32 1.000000 0.050000 0.050000 1.200000 0.040000 0.048000
1559809539777636139	200 29 0.900000 0.027000 0.024000 300 27 0.900000 0.172000 0.156000 600 32 1.000000 0.050000 0.050000 1.200000 0.045000 0.054000
1559809540314071764	200 29 0.900000 0.012000 0.010000 300 27 0.900000 0.166000 0.151000 600 32 1.000000 0.050000 0.050000 1.200000 0.027000 0.032000
1559809540850738347	200 29 0.900000 0.012000 0.010000 300 27 0.900000 0.167000 0.152000 600 32 1.000000 0.050000 0.050000 1.200000 0.027000 0.032000
1559809541386954181	200 29 0.900000 0.015000 0.013000 300 27 0.900000 0.167000 0.152000 600 32 1.000000 0.050000 0.050000 1.200000 0.027000 0.032000
1559809541929811389	200 29 0.900000 0.025000 0.022000 300 27 0.900000 0.170000 0.155000 600 32 1.000000 0.050000 0.050000 1.200000 0.033000 0.039000
1559809542471074222	200 29 0.900000 0.026000 0.023000 300 27 0.900000 0.172000 0.156000 600 32 1.000000 0.050000 0.050000 1.200000 0.034000 0.041000
1559809543007977681	200 29 0.900000 0.011000 0.010000 300 27 0.900000 0.167000 0.152000 600 32 1.000000 0.050000 0.050000 1.200000 0.024000 0.029000
1559809543545831139	200 29 0.900000 0.010000 0.009000 300 27 0.900000 0.168000 0.153000 600 32 1.000000 0.050000 0.050000 1.200000 0.025000 0.030000
1559809544082282556	200 29 0.900000 0.016000 0.014000 300 27 0.900000 0.169000 0.154000 600 32 1.000000 0.050000 0.050000 1.200000 0.026000 0.031000
1559809544621119723	200 29 0.900000 0.021000 0.019000 300 27 0.900000 0.169000 0.154000 600 32 1.000000 0.050000 0.050000 1.200000 0.042000 0.050000
1559809545158189264	200 29 0.900000 0.023000 0.021000 300 27 0.900000 0.171000 0.155000 600 32 1.000000 0.050000 0.050000 1.200000 0.039000 0.047000
1559809545696752056	200 29 0.900000 0.010000 0.009000 300 27 0.900000 0.167000 0.152000 600 32 1.000000 0.050000 0.050000 1.200000 0.025000 0.030000
1559809546234064223	200 29 0.900000 0.022000 0.020000 300 27 0.900000 0.172000 0.156000 600 32 1.000000 0.050000 0.050000 1.200000 0.034000 0.041000
1559809546770271348	200 29 0.900000 0.010000 0.009000 300 27 0.900000 0.166000 0.151000 600 32 1.000000 0.050000 0.050000 1.200000 0.024000 0.028000
1559809547314515765	200 29 0.900000 0.023000 0.021000 300 27 0.900000 0.167000 0.152000 600 32 1.000000 0.050000 0.050000 1.200000 0.037000 0.044000
1559809547851867015	200 29 0.900000 0.027000 0.024000 300 27 0.900000 0.173000 0.157000 600 32 1.000000 0.050000 0.050000 1.200000 0.044000 0.053000
1559809548388475598	200 29 0.900000 0.012000 0.010000 300 27 0.900000 0.169000 0.154000 600 32 1.000000 0.050000 0.050000 1.200000 0.033000 0.039000
1559809548925553015	200 29 0.900000 0.015000 0.013000 300 27 0.900000 0.168000 0.153000 600 32 1.000000 0.050000 0.050000 1.200000 0.024000 0.029000
1559809549461918140	200 29 0.900000 0.012000 0.010000 300 27 0.900000 0.166000 0.151000 600 32 1.000000 0.050000 0.050000 1.200000 0.024000 0.029000
1559809550005777307	200 29 0.900000 0.012000 0.010000 300 27 0.900000 0.166000 0.151000 600 32 1.000000 0.050000 0.050000 1.200000 0.033000 0.039000
1559809550544109307	200 29 0.900000 0.027000 0.024000 300 27 0.900000 0.172000 0.156000 600 32 1.000000 0.050000 0.050000 1.200000 0.044000 0.053000
1559809551080953140	200 29 0.900000 0.022000 0.020000 300 27 0.900000 0.171000 0.155000 600 32 1.000000 0.050000 0.050000 1.200000 0.029000 0.035000
1559809551616888515	200 29 0.900000 0.012000 0.010000 300 27 0.900000 0.167000 0.152000 600 32 1.000000 0.050000 0.050000 1.200000 0.026000 0.031000
1559809552153832557	200 29 0.900000 0.012000 0.010000 300 27 0.900000 0.166000 0.151000 600 32 1.000000 0.050000 0.050000 1.200000 0.026000 0.031000
1559809552696589140	200 29 0.900000 0.015000 0.013000 300 27 0.900000 0.166000 0.151000 600 32 1.000000 0.050000 0.050000 1.200000 0.030000 0.036000
1559809553234433765	200 29 0.900000 0.038000 0.034000 300 27 0.900000 0.174000 0.158000 600 32 1.000000 0.050000 0.050000 1.200000 0.051000 0.061000
1559809553770983057	200 29 0.900000 0.012000 0.010000 300 27 0.900000 0.169000 0.154000 600 32 1.000000 0.050000 0.050000 1.200000 0.026000 0.031000
1559809554307316307	200 29 0.900000 0.012000 0.010000 300 27 0.900000 0.167000 0.152000 600 32 1.000000 0.050000 0.050000 1.200000 0.027000 0.032000
1559809554843499807	200 29 0.900000 0.012000 0.010000 300 27 0.900000 0.166000 0.151000 600 31 1.000000 0.050000 0.050000 1.200000 0.027000 0.032000
1559809555387348432	200 29 0.900000 0.012000 0.010000 300 27 0.900000 0.171000 0.155000 600 32 1.000000 0.050000 0.050000 1.200000 0.030000 0.036000
1559809555923813099	200 29 0.900000 0.025000 0.022000 300 27 0.900000 0.173000 0.157000 600 32 1.000000 0.050000 0.050000 1.200000 0.041000 0.049000
1559809556460207099	200 29 0.900000 0.010000 0.009000 300 27 0.900000 0.166000 0.151000 600 31 1.000000 0.050000 0.050000 1.200000 0.024000 0.029000
1559809556996172307	200 29 0.900000 0.010000 0.009000 300 27 0.900000 0.166000 0.151000 600 31 1.000000 0.050000 0.050000 1.200000 0.024000 0.028000
1559809557533580599	200 29 0.900000 0.010000 0.009000 300 27 0.900000 0.165000 0.150000 600 32 1.000000 0.050000 0.050000 1.200000 0.029000 0.035000
1559809558077140807	200 29 0.900000 0.017000 0.015000 300 27 0.900000 0.168000 0.153000 600 32 1.000000 0.050000 0.050000 1.200000 0.036000 0.043000
1559809558614236141	200 29 0.900000 0.025000 0.022000 300 27 0.900000 0.173000 0.157000 600 32 1.000000 0.050000 0.050000 1.200000 0.043000 0.052000
1559809559150900974	200 29 0.900000 0.010000 0.009000 300 27 0.900000 0.166000 0.151000 600 31 1.000000 0.050000 0.050000 1.200000 0.024000 0.029000
1559809559692842599	200 28 0.900000 0.010000 0.009000 300 27 0.900000 0.166000 0.151000 600 32 1.000000 0.050000 0.050000 1.200000 0.025000 0.030000
1559809560230286558	200 29 0.900000 0.020000 0.018000 300 27 0.900000 0.169000 0.154000 600 32 1.000000 0.050000 0.050000 1.200000 0.031000 0.037000
1559809560770268599	200 29 0.900000 0.012000 0.010000 300 27 0.900000 0.166000 0.151000 600 31 1.000000 0.050000 0.050000 1.200000 0.031000 0.037000
1559809561307333058	200 29 0.900000 0.027000 0.024000 300 27 0.900000 0.173000 0.157000 600 32 1.000000 0.050000 0.050000 1.200000 0.044000 0.053000
1559809561843638725	200 29 0.900000 0.016000 0.014000 300 27 0.900000 0.166000 0.151000 600 32 1.000000 0.050000 0.050000 1.200000 0.034000 0.041000
1559809562380477475	200 29 0.900000 0.014000 0.012000 300 27 0.900000 0.167000 0.152000 600 32 1.000000 0.050000 0.050000 1.200000 0.027000 0.032000
1559809562917030266	200 29 0.900000 0.012000 0.010000 300 27 0.900000 0.167000 0.152000 600 32 1.000000 0.050000 0.050000 1.200000 0.030000 0.036000
1559809563456004933	200 29 0.900000 0.012000 0.010000 300 27 0.900000 0.166000 0.151000 600 31 1.000000 0.050000 0.050000 1.200000 0.027000 0.032000
1559809563992946767	200 29 0.900000 0.027000 0.024000 300 27 0.900000 0.173000 0.157000 600 32 1.000000 0.050000 0.050000 1.200000 0.044000 0.053000
1559809564530095267	200 29 0.900000 0.013000 0.011000 300 27 0.900000 0.167000 0.152000 600 32 1.000000 0.050000 0.050000 1.200000 0.038000 0.045000
1559809565065816683	200 29 0.900000 0.018000 0.016000 300 27 0.900000 0.167000 0.152000 600 32 1.000000 0.050000 0.050000 1.200000 0.037000 0.044000
1559809565601933892	200 29 0.900000 0.012000 0.010000 300 27 0.900000 0.167000 0.152000 600 31 1.000000 0.050000 0.050000 1.200000 0.027000 0.032000
1559809566141147267	200 28 0.900000 0.011000 0.010000 300 27 0.900000 0.168000 0.153000 600 31 1.000000 0.050000 0.050000 1.200000 0.027000 0.032000
1559809566684480559	200 28 0.900000 0.025000 0.022000 300 27 0.900000 0.173000 0.157000 600 32 1.000000 0.050000 0.050000 1.200000 0.042000 0.050000
1559809567221003642	200 29 0.900000 0.030000 0.027000 300 27 0.900000 0.170000 0.155000 600 31 1.000000 0.050000 0.050000 1.200000 0.045000 0.054000
1559809567757718600	200 28 0.900000 0.012000 0.010000 300 27 0.900000 0.166000 0.151000 600 31 1.000000 0.050000 0.050000 1.200000 0.027000 0.032000
1559809568294179100	200 28 0.900000 0.012000 0.010000 300 27 0.900000 0.166000 0.151000 600 31 1.000000 0.050000 0.050000 1.200000 0.027000 0.032000
1559809568832931767	200 29 0.900000 0.012000 0.010000 300 27 0.900000 0.167000 0.152000 600 31 1.000000 0.050000 0.050000 1.200000 0.027000 0.032000
1559809569373606767	200 29 0.900000 0.035000 0.032000 300 27 0.900000 0.174000 0.158000 600 32 1.000000 0.050000 0.050000 1.200000 0.048000 0.058000
1559809569911731892	200 29 0.900000 0.010000 0.009000 300 27 0.900000 0.165000 0.150000 600 31 1.000000 0.050000 0.050000 1.200000 0.027000 0.032000
1559809570447949726	200 29 0.900000 0.010000 0.009000 300 27 0.900000 0.166000 0.151000 600 32 1.000000 0.050000 0.050000 1.200000 0.025000 0.030000
1559809570983972392	200 29 0.900000 0.010000 0.009000 300 27 0.900000 0.166000 0.151000 600 31 1.000000 0.050000 0.050000 1.200000 0.025000 0.030000
1559809571524035059	200 28 0.900000 0.013000 0.011000 300 27 0.900000 0.168000 0.153000 600 31 1.000000 0.050000 0.050000 1.200000 0.026000 0.031000
1559809572068996976	200 29 0.900000 0.026000 0.023000 300 27 0.900000 0.172000 0.156000 600 31 1.000000 0.050000 0.050000 1.200000 0.048000 0.058000
1559809572605967643	200 29 0.900000 0.010000 0.009000 300 27 0.900000 0.165000 0.150000 600 31 1.000000 0.050000 0.050000 1.200000 0.033000 0.039000
1559809573142916101	200 29 0.900000 0.010000 0.009000 300 27 0.900000 0.166000 0.151000 600 31 1.000000 0.050000 0.050000 1.200000 0.027000 0.032000
1559809573680392601	200 28 0.900000 0.013000 0.011000 300 27 0.900000 0.167000 0.152000 600 31 1.000000 0.050000 0.050000 1.200000 0.026000 0.031000
1559809574220497309	200 28 0.900000 0.022000 0.020000 300 27 0.900000 0.170000 0.155000 600 31 1.000000 0.050000 0.050000 1.200000 0.038000 0.045000
1559809574762836018	200 29 0.900000 0.025000 0.022000 300 27 0.900000 0.171000 0.155000 600 32 1.000000 0.050000 0.050000 1.200000 0.045000 0.054000
1559809575298909185	200 28 0.900000 0.023000 0.021000 300 27 0.900000 0.165000 0.150000 600 31 1.000000 0.050000 0.050000 1.200000 0.038000 0.045000
1559809575835654351	200 28 0.900000 0.012000 0.010000 300 27 0.900000 0.166000 0.151000 600 31 1.000000 0.050000 0.050000 1.200000 0.026000 0.031000
1559809576371846518	200 29 0.900000 0.015000 0.013000 300 27 0.900000 0.170000 0.155000 600 31 1.000000 0.050000 0.050000 1.200000 0.030000 0.036000
1559809576911456226	200 28 0.900000 0.012000 0.010000 300 27 0.900000 0.167000 0.152000 600 31 1.000000 0.050000 0.050000 1.200000 0.028000 0.033000
1559809577451382268	200 28 0.900000 0.027000 0.024000 300 27 0.900000 0.169000 0.154000 600 31 1.000000 0.050000 0.050000 1.200000 0.040000 0.048000
1559809577989486810	200 28 0.900000 0.020000 0.018000 300 27 0.900000 0.171000 0.155000 600 31 1.000000 0.050000 0.050000 1.200000 0.043000 0.052000
1559809578526242560	200 28 0.900000 0.011000 0.010000 300 27 0.900000 0.167000 0.152000 600 31 1.000000 0.050000 0.050000 1.200000 0.028000 0.033000
1559809579062861102	200 28 0.900000 0.015000 0.013000 300 27 0.900000 0.172000 0.156000 600 31 1.000000 0.050000 0.050000 1.200000 0.036000 0.043000
1559809579600787893	200 28 0.900000 0.010000 0.009000 300 27 0.900000 0.168000 0.153000 600 31 1.000000 0.050000 0.050000 1.200000 0.027000 0.032000
1559809580142051393	200 28 0.900000 0.014000 0.012000 300 27 0.900000 0.167000 0.152000 600 31 1.000000 0.050000 0.050000 1.200000 0.037000 0.044000
1559809580679016394	200 29 0.900000 0.027000 0.024000 300 27 0.900000 0.172000 0.156000 600 31 1.000000 0.050000 0.050000 1.200000 0.045000 0.054000
1559809581215409644	200 29 0.900000 0.018000 0.016000 300 27 0.900000 0.169000 0.154000 600 31 1.000000 0.050000 0.050000 1.200000 0.036000 0.043000
1559809581751477560	200 28 0.900000 0.012000 0.010000 300 27 0.900000 0.168000 0.153000 600 31 1.000000 0.050000 0.050000 1.200000 0.028000 0.033000
1559809582288211269	200 28 0.900000 0.012000 0.010000 300 27 0.900000 0.167000 0.152000 600 31 1.000000 0.050000 0.050000 1.200000 0.027000 0.032000
1559809582832267227	200 28 0.900000 0.025000 0.022000 300 27 0.900000 0.170000 0.155000 600 31 1.000000 0.050000 0.050000 1.200000 0.044000 0.053000
1559809583369450852	200 29 0.900000 0.030000 0.027000 300 27 0.900000 0.173000 0.157000 600 31 1.000000 0.050000 0.050000 1.200000 0.042000 0.050000
1559809583905605394	200 28 0.900000 0.010000 0.009000 300 27 0.900000 0.167000 0.152000 600 31 1.000000 0.050000 0.050000 1.200000 0.024000 0.029000
1559809584442430477	200 28 0.900000 0.010000 0.009000 300 27 0.900000 0.167000 0.152000 600 31 1.000000 0.050000 0.050000 1.200000 0.024000 0.028000
1559809584978795811	200 28 0.900000 0.010000 0.009000 300 27 0.900000 0.166000 0.151000 600 31 1.000000 0.050000 0.050000 1.200000 0.024000 0.028000
1559809585523428061	200 28 0.900000 0.032000 0.029000 300 27 0.900000 0.170000 0.155000 600 31 1.000000 0.050000 0.050000 1.200000 0.045000 0.054000
1559809586061179603	200 28 0.900000 0.037000 0.033000 300 27 0.900000 0.173000 0.157000 600 31 1.000000 0.050000 0.050000 1.200000 0.039000 0.047000
1559809586598143561	200 28 0.900000 0.012000 0.010000 300 27 0.900000 0.168000 0.153000 600 31 1.000000 0.050000 0.050000 1.200000 0.024000 0.029000
1559809587134414394	200 28 0.900000 0.012000 0.010000 300 27 0.900000 0.167000 0.152000 600 31 1.000000 0.050000 0.050000 1.200000 0.025000 0.030000
1559809587673537811	200 28 0.900000 0.012000 0.010000 300 27 0.900000 0.166000 0.151000 600 31 1.000000 0.050000 0.050000 1.200000 0.025000 0.030000
1559809588212544478	200 28 0.900000 0.031000 0.028000 300 27 0.900000 0.172000 0.156000 600 31 1.000000 0.050000 0.050000 1.200000 0.046000 0.055000
1559809588754304728	200 28 0.900000 0.027000 0.024000 300 27 0.900000 0.172000 0.156000 600 31 1.000000 0.050000 0.050000 1.200000 0.043000 0.052000
1559809589290645603	200 28 0.900000 0.012000 0.010000 300 27 0.900000 0.169000 0.154000 600 31 1.000000 0.050000 0.050000 1.200000 0.025000 0.030000
1559809589827640811	200 28 0.900000 0.012000 0.010000 300 27 0.900000 0.166000 0.151000 600 31 1.000000 0.050000 0.050000 1.200000 0.025000 0.030000
1559809590363769645	200 28 0.900000 0.017000 0.015000 300 27 0.900000 0.166000 0.151000 600 31 1.000000 0.050000 0.050000 1.200000 0.031000 0.037000
1559809590902810186	200 28 0.900000 0.018000 0.016000 300 27 0.900000 0.168000 0.153000 600 31 1.000000 0.050000 0.050000 1.200000 0.035000 0.042000
1559809591439685395	200 29 0.900000 0.025000 0.022000 300 27 0.900000 0.172000 0.156000 600 31 1.000000 0.050000 0.050000 1.200000 0.044000 0.053000
1559809591975790187	200 29 0.900000 0.010000 0.009000 300 27 0.900000 0.167000 0.152000 600 31 1.000000 0.050000 0.050000 1.200000 0.027000 0.032000
1559809592512787937	200 28 0.900000 0.012000 0.010000 300 27 0.900000 0.167000 0.152000 600 31 1.000000 0.050000 0.050000 1.200000 0.027000 0.032000
1559809593050018562	200 28 0.900000 0.027000 0.024000 300 27 0.900000 0.169000 0.154000 600 31 1.000000 0.050000 0.050000 1.200000 0.031000 0.037000
1559809593593161478	200 28 0.900000 0.012000 0.010000 300 27 0.900000 0.166000 0.151000 600 31 1.000000 0.050000 0.050000 1.200000 0.032000 0.038000
1559809594129871728	200 28 0.900000 0.027000 0.024000 300 27 0.900000 0.173000 0.157000 600 31 1.000000 0.050000 0.050000 1.200000 0.044000 0.053000
1559809594667357479	200 28 0.900000 0.012000 0.010000 300 27 0.900000 0.169000 0.154000 600 31 1.000000 0.050000 0.050000 1.200000 0.026000 0.031000
1559809595204079604	200 29 0.900000 0.022000 0.020000 300 27 0.900000 0.170000 0.155000 600 31 1.000000 0.050000 0.050000 1.200000 0.038000 0.045000
1559809595741127437	200 28 0.900000 0.012000 0.010000 300 27 0.900000 0.166000 0.151000 600 31 1.000000 0.050000 0.050000 1.200000 0.027000 0.032000
1559809596280745312	200 28 0.900000 0.012000 0.010000 300 27 0.900000 0.167000 0.152000 600 31 1.000000 0.050000 0.050000 1.200000 0.026000 0.031000
1559809596818494854	200 28 0.900000 0.022000 0.020000 300 27 0.900000 0.173000 0.157000 600 31 1.000000 0.050000 0.050000 1.200000 0.038000 0.045000
1559809597354660354	200 28 0.900000 0.024000 0.021000 300 27 0.900000 0.170000 0.155000 600 31 1.000000 0.050000 0.050000 1.200000 0.035000 0.042000
1559809597891175604	200 28 0.900000 0.010000 0.009000 300 27 0.900000 0.165000 0.150000 600 31 1.000000 0.050000 0.050000 1.200000 0.025000 0.030000
1559809598427720021	200 28 0.900000 0.010000 0.009000 300 27 0.900000 0.166000 0.151000 600 31 1.000000 0.050000 0.050000 1.200000 0.024000 0.028000
1559809598966261021	200 28 0.900000 0.012000 0.010000 300 27 0.900000 0.169000 0.154000 600 31 1.000000 0.050000 0.050000 1.200000 0.038000 0.045000
1559809599503786354	200 29 0.900000 0.027000 0.024000 300 27 0.900000 0.173000 0.157000 600 31 1.000000 0.050000 0.050000 1.200000 0.047000 0.056000
1559809600040401563	200 29 0.900000 0.019000 0.017000 300 27 0.900000 0.166000 0.151000 600 31 1.000000 0.050000 0.050000 1.200000 0.024000 0.029000
1559809600576827479	200 29 0.900000 0.012000 0.010000 300 27 0.900000 0.165000 0.150000 600 31 1.000000 0.050000 0.050000 1.200000 0.025000 0.030000
1559809601113474563	200 28 0.900000 0.012000 0.010000 300 27 0.900000 0.166000 0.151000 600 31 1.000000 0.050000 0.050000 1.200000 0.024000 0.029000
1559809601662532146	200 28 0.900000 0.011000 0.010000 300 27 0.900000 0.168000 0.153000 600 31 1.000000 0.050000 0.050000 1.200000 0.033000 0.039000
1559809602199872021	200 29 0.900000 0.038000 0.034000 300 27 0.900000 0.176000 0.160000 600 31 1.000000 0.050000 0.050000 1.200000 0.047000 0.056000
1559809602736047104	200 28 0.900000 0.010000 0.009000 300 27 0.900000 0.166000 0.151000 600 31 1.000000 0.050000 0.050000 1.200000 0.024000 0.029000
1559809603272643063	200 29 0.900000 0.010000 0.009000 300 27 0.900000 0.165000 0.150000 600 31 1.000000 0.050000 0.050000 1.200000 0.024000 0.029000
1559809603810048813	200 28 0.900000 0.010000 0.009000 300 27 0.900000 0.166000 0.151000 600 31 1.000000 0.050000 0.050000 1.200000 0.024000 0.029000
1559809604349775105	200 28 0.900000 0.021000 0.019000 300 27 0.900000 0.169000 0.154000 600 31 1.000000 0.050000 0.050000 1.200000 0.037000 0.044000
1559809604885826230	200 28 0.900000 0.025000 0.022000 300 27 0.900000 0.172000 0.157000 600 31 1.000000 0.050000 0.050000 1.200000 0.047000 0.056000
1559809605422249521	200 28 0.900000 0.022000 0.020000 300 27 0.900000 0.166000 0.151000 600 31 1.000000 0.050000 0.050000 1.200000 0.037000 0.044000
1559809605958495605	200 28 0.900000 0.012000 0.010000 300 27 0.900000 0.166000 0.151000 600 31 1.000000 0.050000 0.050000 1.200000 0.028000 0.033000
1559809606495605272	200 28 0.900000 0.012000 0.010000 300 27 0.900000 0.167000 0.152000 600 31 1.000000 0.050000 0.050000 1.200000 0.028000 0.033000
1559809607035944438	200 28 0.900000 0.027000 0.024000 300 27 0.900000 0.170000 0.155000 600 31 1.000000 0.050000 0.050000 1.200000 0.038000 0.045000
1559809607572701647	200 28 0.900000 0.027000 0.024000 300 27 0.900000 0.172000 0.156000 600 31 1.000000 0.050000 0.050000 1.200000 0.043000 0.052000
1559809608109165438	200 28 0.900000 0.019000 0.017000 300 27 0.900000 0.166000 0.151000 600 31 1.000000 0.050000 0.050000 1.200000 0.042000 0.050000
1559809608647084147	200 28 0.900000 0.012000 0.010000 300 27 0.900000 0.166000 0.151000 600 31 1.000000 0.050000 0.050000 1.200000 0.027000 0.032000
1559809609184476522	200 28 0.900000 0.022000 0.020000 300 27 0.900000 0.170000 0.155000 600 31 1.000000 0.050000 0.050000 1.200000 0.030000 0.036000
1559809609726500439	200 28 0.900000 0.012000 0.010000 300 27 0.900000 0.168000 0.153000 600 31 1.000000 0.050000 0.050000 1.200000 0.026000 0.031000
1559809610270902147	200 28 0.900000 0.027000 0.024000 300 27 0.900000 0.171000 0.156000 600 31 1.000000 0.050000 0.050000 1.200000 0.039000 0.047000
1559809610807822939	200 28 0.900000 0.010000 0.009000 300 27 0.900000 0.165000 0.150000 600 31 1.000000 0.050000 0.050000 1.200000 0.026000 0.031000
1559809611344691106	200 28 0.900000 0.022000 0.020000 300 27 0.900000 0.170000 0.155000 600 31 1.000000 0.050000 0.050000 1.200000 0.033000 0.039000
1559809611881000356	200 28 0.900000 0.012000 0.010000 300 27 0.900000 0.167000 0.152000 600 31 1.000000 0.050000 0.050000 1.200000 0.026000 0.031000
1559809612420965814	200 28 0.900000 0.012000 0.010000 300 27 0.900000 0.167000 0.152000 600 31 1.000000 0.050000 0.050000 1.200000 0.028000 0.033000
1559809612963183981	200 28 0.900000 0.027000 0.024000 300 27 0.900000 0.172000 0.156000 600 31 1.000000 0.050000 0.050000 1.200000 0.045000 0.054000
1559809613501070439	200 28 0.900000 0.015000 0.013000 300 27 0.900000 0.168000 0.153000 600 31 1.000000 0.050000 0.050000 1.200000 0.031000 0.037000
1559809614038127564	200 28 0.900000 0.015000 0.013000 300 27 0.900000 0.166000 0.151000 600 31 1.000000 0.050000 0.050000 1.200000 0.031000 0.037000
1559809614575195273	200 28 0.900000 0.011000 0.010000 300 27 0.900000 0.166000 0.151000 600 31 1.000000 0.050000 0.050000 1.200000 0.026000 0.031000
1559809615115351523	200 28 0.900000 0.010000 0.009000 300 27 0.900000 0.167000 0.152000 600 31 1.000000 0.050000 0.050000 1.200000 0.027000 0.032000
1559809615655071231	200 28 0.900000 0.025000 0.022000 300 27 0.900000 0.172000 0.156000 600 31 1.000000 0.050000 0.050000 1.200000 0.044000 0.053000
1559809616193228856	200 28 0.900000 0.022000 0.020000 300 27 0.900000 0.167000 0.152000 600 31 1.000000 0.050000 0.050000 1.200000 0.043000 0.052000
1559809616729629564	200 28 0.900000 0.010000 0.009000 300 27 0.900000 0.166000 0.151000 600 31 1.000000 0.050000 0.050000 1.200000 0.027000 0.032000
1559809617265498940	200 28 0.900000 0.010000 0.009000 300 27 0.900000 0.167000 0.152000 600 31 1.000000 0.050000 0.050000 1.200000 0.026000 0.031000
1559809617807956065	200 28 0.900000 0.010000 0.009000 300 27 0.900000 0.166000 0.151000 600 31 1.000000 0.050000 0.050000 1.200000 0.027000 0.032000
1559809618349987398	200 28 0.900000 0.021000 0.019000 300 27 0.900000 0.169000 0.154000 600 31 1.000000 0.050000 0.050000 1.200000 0.045000 0.054000
1559809618886364606	200 28 0.900000 0.032000 0.029000 300 27 0.900000 0.172000 0.156000 600 31 1.000000 0.050000 0.050000 1.200000 0.043000 0.052000
1559809619422774898	200 28 0.900000 0.012000 0.010000 300 27 0.900000 0.167000 0.152000 600 31 1.000000 0.050000 0.050000 1.200000 0.026000 0.031000
1559809619958800690	200 28 0.900000 0.012000 0.010000 300 27 0.900000 0.168000 0.153000 600 31 1.000000 0.050000 0.050000 1.200000 0.026000 0.031000
1559809620499074607	200 28 0.900000 0.012000 0.010000 300 27 0.900000 0.167000 0.152000 600 31 1.000000 0.050000 0.050000 1.200000 0.027000 0.032000
1559809621038438357	200 28 0.900000 0.033000 0.030000 300 27 0.900000 0.170000 0.155000 600 31 1.000000 0.050000 0.050000 1.200000 0.045000 0.054000
1559809621576327732	200 28 0.900000 0.027000 0.024000 300 27 0.900000 0.172000 0.156000 600 31 1.000000 0.050000 0.050000 1.200000 0.044000 0.053000
1559809622113543315	200 28 0.900000 0.012000 0.010000 300 27 0.900000 0.167000 0.152000 600 31 1.000000 0.050000 0.050000 1.200000 0.027000 0.032000
1559809622651625649	200 28 0.900000 0.012000 0.010000 300 27 0.900000 0.167000 0.152000 600 31 1.000000 0.050000 0.050000 1.200000 0.027000 0.032000
1559809623188335315	200 28 0.900000 0.025000 0.022000 300 27 0.900000 0.168000 0.153000 600 31 1.000000 0.050000 0.050000 1.200000 0.031000 0.037000
1559809623733105982	200 28 0.900000 0.025000 0.022000 300 27 0.900000 0.171000 0.155000 600 31 1.000000 0.050000 0.050000 1.200000 0.043000 0.052000
1559809624270311649	200 28 0.900000 0.025000 0.022000 300 27 0.900000 0.170000 0.155000 600 31 1.000000 0.050000 0.050000 1.200000 0.031000 0.037000
1559809624806925524	200 28 0.900000 0.012000 0.010000 300 27 0.900000 0.167000 0.152000 600 31 1.000000 0.050000 0.050000 1.200000 0.023000 0.027000
1559809625343770732	200 28 0.900000 0.019000 0.017000 300 27 0.900000 0.169000 0.154000 600 31 1.000000 0.050000 0.050000 1.200000 0.035000 0.042000
1559809625881033316	200 28 0.900000 0.013000 0.011000 300 27 0.900000 0.170000 0.155000 600 31 1.000000 0.050000 0.050000 1.200000 0.059000 0.071000
1559809626421116274	200 28 0.900000 0.025000 0.022000 300 27 0.900000 0.169000 0.154000 600 31 1.000000 0.050000 0.050000 1.200000 0.068000 0.082000
1559809626960717774	200 29 0.900000 0.026000 0.023000 300 27 0.900000 0.193000 0.176000 600 33 1.000000 0.050000 0.050000 1.200000 0.064000 0.077000
1559809627500478441	200 29 0.900000 0.025000 0.022000 300 27 0.900000 0.574000 0.522000 600 33 1.000000 0.050000 0.050000 1.200000 0.062000 0.075000
1559809628039897441	200 29 0.900000 0.027000 0.024000 300 28 0.900000 0.574000 0.522000 600 34 1.000000 0.050000 0.050000 1.200000 0.062000 0.075000
1559809628579097733	200 30 0.900000 0.025000 0.022000 300 28 0.900000 0.573000 0.522000 600 34 1.000000 0.050000 0.050000 1.200000 0.061000 0.073000
1559809629120670483	200 30 0.900000 0.037000 0.033000 300 28 0.900000 0.572000 0.521000 600 34 1.000000 0.050000 0.050000 1.200000 0.068000 0.082000
1559809629662591566	200 30 0.900000 0.036000 0.032000 300 28 0.900000 0.570000 0.519000 600 34 1.000000 0.050000 0.050000 1.200000 0.069000 0.083000
1559809630202544774	200 30 0.900000 0.034000 0.031000 300 28 0.900000 0.574000 0.522000 600 34 1.000000 0.050000 0.050000 1.200000 0.067000 0.081000
1559809630742395483	200 30 0.900000 0.027000 0.024000 300 28 0.900000 0.573000 0.522000 600 34 1.000000 0.050000 0.050000 1.200000 0.062000 0.075000
1559809631282301108	200 30 0.900000 0.027000 0.024000 300 28 0.900000 0.574000 0.522000 600 34 1.000000 0.050000 0.050000 1.200000 0.063000 0.076000
1559809631828753733	200 30 0.900000 0.027000 0.024000 300 28 0.900000 0.573000 0.522000 600 34 1.000000 0.050000 0.050000 1.200000 0.065000 0.078000
1559809632368752775	200 30 0.900000 0.041000 0.037000 300 28 0.900000 0.569000 0.518000 600 34 1.000000 0.050000 0.050000 1.200000 0.072000 0.087000
1559809632907979941	200 30 0.900000 0.031000 0.028000 300 28 0.900000 0.573000 0.522000 600 34 1.000000 0.050000 0.050000 1.200000 0.063000 0.076000
1559809633447183441	200 30 0.900000 0.027000 0.024000 300 28 0.900000 0.574000 0.522000 600 34 1.000000 0.050000 0.050000 1.200000 0.062000 0.075000
1559809633986834150	200 30 0.900000 0.027000 0.024000 300 28 0.900000 0.574000 0.522000 600 34 1.000000 0.050000 0.050000 1.200000 0.063000 0.076000
1559809634531101442	200 30 0.900000 0.027000 0.024000 300 28 0.900000 0.573000 0.522000 600 34 1.000000 0.050000 0.050000 1.200000 0.062000 0.075000
1559809635071596108	200 30 0.900000 0.038000 0.034000 300 29 0.900000 0.570000 0.519000 600 35 1.000000 0.050000 0.050000 1.200000 0.069000 0.083000
1559809635611339650	200 30 0.900000 0.025000 0.022000 300 28 0.900000 0.574000 0.522000 600 35 1.000000 0.050000 0.050000 1.200000 0.061000 0.073000
1559809636150915525	200 30 0.900000 0.025000 0.022000 300 29 0.900000 0.575000 0.523000 600 35 1.000000 0.050000 0.050000 1.200000 0.062000 0.075000
1559809636693721067	200 30 0.900000 0.025000 0.022000 300 29 0.900000 0.574000 0.522000 600 35 1.000000 0.050000 0.050000 1.200000 0.061000 0.073000
1559809637236185234	200 31 0.900000 0.036000 0.032000 300 29 0.900000 0.574000 0.522000 600 35 1.000000 0.050000 0.050000 1.200000 0.068000 0.082000
1559809637777113234	200 31 0.900000 0.040000 0.036000 300 29 0.900000 0.570000 0.519000 600 35 1.000000 0.050000 0.050000 1.200000 0.069000 0.083000
1559809638316760984	200 31 0.900000 0.030000 0.027000 300 29 0.900000 0.575000 0.523000 600 35 1.000000 0.050000 0.050000 1.200000 0.061000 0.073000
1559809638856519567	200 31 0.900000 0.027000 0.024000 300 29 0.900000 0.574000 0.522000 600 35 1.000000 0.050000 0.050000 1.200000 0.061000 0.073000
1559809639396453692	200 31 0.900000 0.030000 0.027000 300 29 0.900000 0.574000 0.522000 600 35 1.000000 0.050000 0.050000 1.200000 0.065000 0.078000
1559809639942497234	200 31 0.900000 0.027000 0.024000 300 29 0.900000 0.574000 0.522000 600 35 1.000000 0.050000 0.050000 1.200000 0.061000 0.073000
1559809640484747484	200 31 0.900000 0.040000 0.036000 300 29 0.900000 0.570000 0.519000 600 35 1.000000 0.050000 0.050000 1.200000 0.069000 0.083000
1559809641025501942	200 31 0.900000 0.030000 0.027000 300 29 0.900000 0.572000 0.521000 600 35 1.000000 0.050000 0.050000 1.200000 0.061000 0.073000
1559809641564324901	200 31 0.900000 0.026000 0.023000 300 29 0.900000 0.574000 0.522000 600 35 1.000000 0.050000 0.050000 1.200000 0.061000 0.073000
1559809642104246234	200 31 0.900000 0.032000 0.029000 300 29 0.900000 0.572000 0.521000 600 35 1.000000 0.050000 0.050000 1.200000 0.063000 0.076000
1559809642648335818	200 31 0.900000 0.025000 0.022000 300 29 0.900000 0.574000 0.522000 600 35 1.000000 0.050000 0.050000 1.200000 0.061000 0.073000
1559809643194716818	200 31 0.900000 0.039000 0.035000 300 29 0.900000 0.570000 0.519000 600 35 1.000000 0.050000 0.050000 1.200000 0.069000 0.083000
1559809643735723359	200 31 0.900000 0.040000 0.036000 300 29 0.900000 0.571000 0.520000 600 35 1.000000 0.050000 0.050000 1.200000 0.065000 0.078000
1559809644275964568	200 31 0.900000 0.030000 0.027000 300 29 0.900000 0.572000 0.521000 600 35 1.000000 0.051000 0.051000 1.200000 0.067000 0.081000
1559809644815399401	200 31 0.900000 0.027000 0.024000 300 29 0.900000 0.574000 0.522000 600 35 1.000000 0.050000 0.050000 1.200000 0.063000 0.076000
1559809645362281568	200 31 0.900000 0.027000 0.024000 300 29 0.900000 0.574000 0.522000 600 35 1.000000 0.050000 0.050000 1.200000 0.063000 0.076000
1559809645904166151	200 31 0.900000 0.038000 0.034000 300 29 0.900000 0.570000 0.519000 600 35 1.000000 0.050000 0.050000 1.200000 0.069000 0.083000
1559809646443897651	200 31 0.900000 0.041000 0.037000 300 29 0.900000 0.572000 0.521000 600 35 1.000000 0.050000 0.050000 1.200000 0.066000 0.079000
1559809646983343651	200 31 0.900000 0.025000 0.022000 300 29 0.900000 0.575000 0.523000 600 35 1.000000 0.051000 0.051000 1.200000 0.061000 0.073000
1559809647522790818	200 31 0.900000 0.025000 0.022000 300 29 0.900000 0.575000 0.523000 600 35 1.000000 0.050000 0.050000 1.200000 0.061000 0.073000
1559809648062773610	200 31 0.900000 0.025000 0.022000 300 29 0.900000 0.575000 0.523000 600 35 1.000000 0.050000 0.050000 1.200000 0.062000 0.075000
1559809648607108985	200 31 0.900000 0.042000 0.038000 300 29 0.900000 0.570000 0.519000 600 35 1.000000 0.050000 0.050000 1.200000 0.067000 0.081000
1559809649146711318	200 31 0.900000 0.034000 0.031000 300 29 0.900000 0.572000 0.520000 600 35 1.000000 0.050000 0.050000 1.200000 0.074000 0.089000
1559809649686357777	200 31 0.900000 0.027000 0.024000 300 29 0.900000 0.575000 0.523000 600 35 1.000000 0.050000 0.050000 1.200000 0.063000 0.076000
1559809650226359318	200 31 0.900000 0.027000 0.024000 300 29 0.900000 0.574000 0.522000 600 35 1.000000 0.050000 0.050000 1.200000 0.063000 0.076000
1559809650766483944	200 31 0.900000 0.027000 0.024000 300 29 0.900000 0.575000 0.523000 600 35 1.000000 0.050000 0.050000 1.200000 0.063000 0.076000
1559809651316468319	200 31 0.900000 0.037000 0.033000 300 29 0.900000 0.571000 0.520000 600 35 1.000000 0.050000 0.050000 1.200000 0.065000 0.078000
1559809651856245110	200 31 0.900000 0.040000 0.036000 300 29 0.900000 0.570000 0.519000 600 35 1.000000 0.050000 0.050000 1.200000 0.070000 0.084000
1559809652395780610	200 31 0.900000 0.027000 0.024000 300 29 0.900000 0.575000 0.523000 600 35 1.000000 0.050000 0.050000 1.200000 0.063000 0.076000
1559809652934859152	200 31 0.900000 0.027000 0.024000 300 29 0.900000 0.575000 0.523000 600 35 1.000000 0.050000 0.050000 1.200000 0.063000 0.076000
1559809653475298902	200 31 0.900000 0.027000 0.024000 300 29 0.900000 0.574000 0.522000 600 35 1.000000 0.050000 0.050000 1.200000 0.062000 0.075000
1559809654021240527	200 31 0.900000 0.031000 0.028000 300 29 0.900000 0.574000 0.522000 600 35 1.000000 0.050000 0.050000 1.200000 0.065000 0.078000
1559809654561745361	200 31 0.900000 0.040000 0.036000 300 29 0.900000 0.570000 0.519000 600 35 1.000000 0.050000 0.050000 1.200000 0.070000 0.084000
1559809655101977569	200 31 0.900000 0.027000 0.024000 300 29 0.900000 0.575000 0.523000 600 35 1.000000 0.050000 0.050000 1.200000 0.065000 0.078000
1559809655644129861	200 31 0.900000 0.027000 0.024000 300 29 0.900000 0.574000 0.522000 600 35 1.000000 0.050000 0.050000 1.200000 0.063000 0.076000
1559809656184498861	200 31 0.900000 0.037000 0.033000 300 29 0.900000 0.575000 0.523000 600 35 1.000000 0.050000 0.050000 1.200000 0.063000 0.076000
1559809656726379236	200 31 0.900000 0.027000 0.024000 300 29 0.900000 0.571000 0.520000 600 35 1.000000 0.050000 0.050000 1.200000 0.062000 0.075000
1559809657265546528	200 31 0.900000 0.040000 0.036000 300 29 0.900000 0.571000 0.520000 600 35 1.000000 0.050000 0.050000 1.200000 0.069000 0.083000
1559809657806614819	200 31 0.900000 0.025000 0.022000 300 29 0.900000 0.574000 0.522000 600 35 1.000000 0.050000 0.050000 1.200000 0.062000 0.075000
1559809658346681028	200 31 0.900000 0.039000 0.035000 300 29 0.900000 0.573000 0.522000 600 35 1.000000 0.050000 0.050000 1.200000 0.067000 0.081000
1559809658885815195	200 31 0.900000 0.025000 0.022000 300 29 0.900000 0.575000 0.523000 600 35 1.000000 0.050000 0.050000 1.200000 0.062000 0.075000
1559809659435832695	200 31 0.900000 0.025000 0.022000 300 29 0.900000 0.573000 0.522000 600 35 1.000000 0.050000 0.050000 1.200000 0.063000 0.076000
1559809659982516070	200 31 0.900000 0.038000 0.034000 300 29 0.900000 0.571000 0.520000 600 35 1.000000 0.050000 0.050000 1.200000 0.070000 0.084000
1559809660521500403	200 31 0.900000 0.033000 0.030000 300 29 0.900000 0.572000 0.521000 600 35 1.000000 0.050000 0.050000 1.200000 0.066000 0.079000
1559809661061431445	200 31 0.900000 0.025000 0.022000 300 29 0.900000 0.574000 0.522000 600 35 1.000000 0.050000 0.050000 1.200000 0.063000 0.076000
1559809661600871028	200 31 0.900000 0.025000 0.022000 300 29 0.900000 0.573000 0.521000 600 35 1.000000 0.050000 0.050000 1.200000 0.063000 0.076000
1559809662146575403	200 31 0.900000 0.025000 0.022000 300 29 0.900000 0.575000 0.523000 600 35 1.000000 0.050000 0.050000 1.200000 0.063000 0.076000
1559809662701848237	200 31 0.900000 0.037000 0.033000 300 29 0.900000 0.571000 0.520000 600 35 1.000000 0.050000 0.050000 1.200000 0.069000 0.083000
1559809663242502028	200 31 0.900000 0.050000 0.045000 300 29 0.900000 0.570000 0.519000 600 35 1.000000 0.050000 0.050000 1.200000 0.072000 0.087000
1559809663781956112	200 31 0.900000 0.027000 0.024000 300 29 0.900000 0.574000 0.522000 600 35 1.000000 0.050000 0.050000 1.200000 0.062000 0.075000
1559809664321623528	200 31 0.900000 0.027000 0.024000 300 29 0.900000 0.574000 0.522000 600 35 1.000000 0.050000 0.050000 1.200000 0.063000 0.076000
1559809664868473779	200 31 0.900000 0.027000 0.024000 300 29 0.900000 0.574000 0.522000 600 35 1.000000 0.050000 0.050000 1.200000 0.063000 0.076000
1559809665411433779	200 31 0.900000 0.040000 0.036000 300 29 0.900000 0.572000 0.521000 600 35 1.000000 0.050000 0.050000 1.200000 0.069000 0.083000
1559809665951725904	200 31 0.900000 0.028000 0.025000 300 29 0.900000 0.572000 0.521000 600 35 1.000000 0.050000 0.050000 1.200000 0.064000 0.077000
1559809666491746570	200 31 0.900000 0.025000 0.022000 300 29 0.900000 0.575000 0.523000 600 35 1.000000 0.050000 0.050000 1.200000 0.061000 0.073000
1559809667031515529	200 31 0.900000 0.025000 0.022000 300 29 0.900000 0.574000 0.522000 600 35 1.000000 0.050000 0.050000 1.200000 0.062000 0.075000
1559809667575645446	200 31 0.900000 0.035000 0.032000 300 29 0.900000 0.574000 0.522000 600 35 1.000000 0.050000 0.050000 1.200000 0.063000 0.076000
1559809668118284696	200 31 0.900000 0.038000 0.034000 300 29 0.900000 0.571000 0.520000 600 35 1.000000 0.050000 0.050000 1.200000 0.069000 0.083000
1559809668657691529	200 31 0.900000 0.028000 0.025000 300 29 0.900000 0.570000 0.519000 600 35 1.000000 0.050000 0.050000 1.200000 0.067000 0.081000
1559809669196895987	200 31 0.900000 0.027000 0.024000 300 29 0.900000 0.575000 0.523000 600 35 1.000000 0.050000 0.050000 1.200000 0.062000 0.075000
1559809669737607446	200 31 0.900000 0.027000 0.024000 300 29 0.900000 0.574000 0.522000 600 35 1.000000 0.050000 0.050000 1.200000 0.061000 0.073000
1559809670277540904	200 31 0.900000 0.040000 0.036000 300 29 0.900000 0.573000 0.521000 600 35 1.000000 0.050000 0.050000 1.200000 0.065000 0.078000
1559809670822377321	200 31 0.900000 0.033000 0.030000 300 29 0.900000 0.572000 0.521000 600 35 1.000000 0.050000 0.050000 1.200000 0.068000 0.082000
1559809671362232571	200 31 0.900000 0.040000 0.036000 300 29 0.900000 0.570000 0.518000 600 35 1.000000 0.050000 0.050000 1.200000 0.069000 0.083000
1559809671901795113	200 31 0.900000 0.027000 0.024000 300 29 0.900000 0.573000 0.521000 600 35 1.000000 0.050000 0.050000 1.200000 0.063000 0.076000
1559809672441495529	200 31 0.900000 0.037000 0.033000 300 29 0.900000 0.574000 0.522000 600 35 1.000000 0.050000 0.050000 1.200000 0.066000 0.079000
1559809672981017696	200 31 0.900000 0.027000 0.024000 300 29 0.900000 0.574000 0.522000 600 35 1.000000 0.050000 0.050000 1.200000 0.063000 0.076000
1559809673523707655	200 31 0.900000 0.033000 0.030000 300 29 0.900000 0.573000 0.522000 600 35 1.000000 0.050000 0.050000 1.200000 0.064000 0.077000
1559809674064601946	200 31 0.900000 0.040000 0.036000 300 29 0.900000 0.570000 0.519000 600 35 1.000000 0.050000 0.050000 1.200000 0.070000 0.084000
1559809674603704405	200 31 0.900000 0.030000 0.027000 300 29 0.900000 0.574000 0.522000 600 35 1.000000 0.050000 0.050000 1.200000 0.063000 0.076000
1559809675143379238	200 31 0.900000 0.026000 0.023000 300 29 0.900000 0.574000 0.522000 600 35 1.000000 0.050000 0.050000 1.200000 0.063000 0.076000
1559809675682852988	200 31 0.900000 0.027000 0.024000 300 29 0.900000 0.574000 0.522000 600 35 1.000000 0.050000 0.050000 1.200000 0.063000 0.076000
1559809676228610405	200 31 0.900000 0.027000 0.024000 300 29 0.900000 0.574000 0.522000 600 35 1.000000 0.050000 0.050000 1.200000 0.062000 0.075000
1559809676769634530	200 31 0.900000 0.038000 0.034000 300 29 0.900000 0.571000 0.520000 600 35 1.000000 0.050000 0.050000 1.200000 0.070000 0.084000
1559809677309410113	200 31 0.900000 0.031000 0.028000 300 29 0.900000 0.574000 0.522000 600 35 1.000000 0.050000 0.050000 1.200000 0.062000 0.075000
1559809677848824613	200 31 0.900000 0.025000 0.022000 300 29 0.900000 0.575000 0.523000 600 35 1.000000 0.050000 0.050000 1.200000 0.061000 0.073000
1559809678388105364	200 31 0.900000 0.025000 0.022000 300 29 0.900000 0.575000 0.523000 600 35 1.000000 0.050000 0.050000 1.200000 0.061000 0.073000
1559809678935530280	200 31 0.900000 0.030000 0.027000 300 29 0.900000 0.574000 0.522000 600 35 1.000000 0.050000 0.050000 1.200000 0.065000 0.078000
1559809679475067489	200 31 0.900000 0.050000 0.045000 300 29 0.900000 0.570000 0.519000 600 35 1.000000 0.050000 0.050000 1.200000 0.073000 0.088000
1559809680014485572	200 31 0.900000 0.025000 0.022000 300 29 0.900000 0.575000 0.523000 600 35 1.000000 0.050000 0.050000 1.200000 0.061000 0.073000
1559809680554258280	200 31 0.900000 0.025000 0.022000 300 29 0.900000 0.575000 0.523000 600 35 1.000000 0.050000 0.050000 1.200000 0.061000 0.073000
1559809681094246114	200 31 0.900000 0.025000 0.022000 300 29 0.900000 0.575000 0.523000 600 35 1.000000 0.050000 0.050000 1.200000 0.062000 0.075000
1559809681638807822	200 31 0.900000 0.026000 0.023000 300 29 0.900000 0.575000 0.523000 600 35 1.000000 0.050000 0.050000 1.200000 0.063000 0.076000
1559809682180245239	200 31 0.900000 0.048000 0.043000 300 29 0.900000 0.570000 0.519000 600 35 1.000000 0.050000 0.050000 1.200000 0.069000 0.083000
1559809682720520739	200 31 0.900000 0.035000 0.032000 300 29 0.900000 0.574000 0.522000 600 35 1.000000 0.050000 0.050000 1.200000 0.061000 0.073000
1559809683260587322	200 31 0.900000 0.027000 0.024000 300 29 0.900000 0.574000 0.522000 600 35 1.000000 0.050000 0.050000 1.200000 0.061000 0.073000
1559809683799696572	200 31 0.900000 0.027000 0.024000 300 29 0.900000 0.575000 0.523000 600 35 1.000000 0.050000 0.050000 1.200000 0.061000 0.073000
1559809684344996698	200 31 0.900000 0.040000 0.036000 300 29 0.900000 0.573000 0.522000 600 35 1.000000 0.050000 0.050000 1.200000 0.065000 0.078000
1559809684891516073	200 31 0.900000 0.040000 0.036000 300 29 0.900000 0.571000 0.520000 600 35 1.000000 0.050000 0.050000 1.200000 0.069000 0.083000
1559809685430894489	200 31 0.900000 0.037000 0.033000 300 29 0.900000 0.572000 0.521000 600 35 1.000000 0.050000 0.050000 1.200000 0.065000 0.078000
1559809685970702656	200 31 0.900000 0.027000 0.024000 300 29 0.900000 0.574000 0.522000 600 35 1.000000 0.050000 0.050000 1.200000 0.063000 0.076000
1559809686510309906	200 31 0.900000 0.034000 0.031000 300 29 0.900000 0.574000 0.522000 600 35 1.000000 0.050000 0.050000 1.200000 0.065000 0.078000
1559809687052284906	200 31 0.900000 0.027000 0.024000 300 29 0.900000 0.575000 0.523000 600 35 1.000000 0.050000 0.050000 1.200000 0.062000 0.075000
1559809687593926573	200 31 0.900000 0.038000 0.034000 300 29 0.900000 0.570000 0.519000 600 35 1.000000 0.050000 0.050000 1.200000 0.069000 0.083000
1559809688133540198	200 31 0.900000 0.038000 0.034000 300 29 0.900000 0.575000 0.523000 600 35 1.000000 0.050000 0.050000 1.200000 0.061000 0.073000
1559809688674004198	200 31 0.900000 0.027000 0.024000 300 29 0.900000 0.574000 0.522000 600 35 1.000000 0.050000 0.050000 1.200000 0.065000 0.078000
1559809689213624073	200 31 0.900000 0.030000 0.027000 300 29 0.900000 0.575000 0.523000 600 35 1.000000 0.050000 0.050000 1.200000 0.062000 0.075000
1559809689754667448	200 31 0.900000 0.027000 0.024000 300 29 0.900000 0.575000 0.523000 600 35 1.000000 0.051000 0.051000 1.200000 0.061000 0.073000
1559809690296502615	200 31 0.900000 0.039000 0.035000 300 29 0.900000 0.571000 0.520000 600 35 1.000000 0.050000 0.050000 1.200000 0.069000 0.083000
1559809690840954323	200 31 0.900000 0.037000 0.033000 300 29 0.900000 0.572000 0.520000 600 35 1.000000 0.050000 0.050000 1.200000 0.064000 0.077000
1559809691380769698	200 31 0.900000 0.036000 0.032000 300 29 0.900000 0.575000 0.523000 600 35 1.000000 0.050000 0.050000 1.200000 0.067000 0.081000
1559809691919835407	200 31 0.900000 0.025000 0.022000 300 29 0.900000 0.575000 0.523000 600 35 1.000000 0.050000 0.050000 1.200000 0.062000 0.075000
1559809692459555740	200 31 0.900000 0.025000 0.022000 300 29 0.900000 0.575000 0.523000 600 35 1.000000 0.050000 0.050000 1.200000 0.063000 0.076000
1559809693005523490	200 31 0.900000 0.037000 0.033000 300 29 0.900000 0.571000 0.520000 600 35 1.000000 0.051000 0.051000 1.200000 0.064000 0.077000
1559809693545018324	200 31 0.900000 0.050000 0.045000 300 29 0.900000 0.570000 0.519000 600 35 1.000000 0.050000 0.050000 1.200000 0.071000 0.085000
1559809694084956990	200 31 0.900000 0.025000 0.022000 300 29 0.900000 0.576000 0.524000 600 35 1.000000 0.050000 0.050000 1.200000 0.064000 0.077000
1559809694624395865	200 31 0.900000 0.027000 0.024000 300 29 0.900000 0.574000 0.522000 600 35 1.000000 0.050000 0.050000 1.200000 0.062000 0.075000
1559809695163611907	200 31 0.900000 0.027000 0.024000 300 29 0.900000 0.575000 0.523000 600 36 1.000000 0.050000 0.050000 1.200000 0.063000 0.076000
1559809695711458574	200 31 0.900000 0.027000 0.024000 300 30 0.900000 0.572000 0.521000 600 35 1.000000 0.050000 0.050000 1.200000 0.062000 0.075000
1559809696253056991	200 31 0.900000 0.051000 0.046000 300 29 0.900000 0.570000 0.519000 600 35 1.000000 0.050000 0.050000 1.200000 0.074000 0.089000
1559809696793652407	200 31 0.900000 0.028000 0.025000 300 29 0.900000 0.573000 0.521000 600 35 1.000000 0.050000 0.050000 1.200000 0.065000 0.078000
1559809697332881407	200 31 0.900000 0.027000 0.024000 300 30 0.900000 0.574000 0.522000 600 35 1.000000 0.050000 0.050000 1.200000 0.062000 0.075000
1559809697872584282	200 31 0.900000 0.025000 0.022000 300 29 0.900000 0.574000 0.522000 600 35 1.000000 0.050000 0.050000 1.200000 0.062000 0.075000
1559809698424695658	200 31 0.900000 0.040000 0.036000 300 30 0.900000 0.571000 0.520000 600 35 1.000000 0.050000 0.050000 1.200000 0.067000 0.081000
1559809698964327616	200 31 0.900000 0.038000 0.034000 300 30 0.900000 0.570000 0.518000 600 35 1.000000 0.050000 0.050000 1.200000 0.070000 0.084000
1559809699503703616	200 31 0.900000 0.025000 0.022000 300 29 0.900000 0.574000 0.522000 600 35 1.000000 0.050000 0.050000 1.200000 0.062000 0.075000
1559809700043148408	200 31 0.900000 0.025000 0.022000 300 30 0.900000 0.575000 0.523000 600 35 1.000000 0.050000 0.050000 1.200000 0.063000 0.076000
1559809700582651324	200 31 0.900000 0.030000 0.027000 300 29 0.900000 0.573000 0.522000 600 35 1.000000 0.050000 0.050000 1.200000 0.065000 0.078000
1559809701128162491	200 31 0.900000 0.027000 0.024000 300 29 0.900000 0.575000 0.523000 600 35 1.000000 0.050000 0.050000 1.200000 0.063000 0.076000
1559809701667632950	200 31 0.900000 0.040000 0.036000 300 29 0.900000 0.571000 0.520000 600 36 1.000000 0.050000 0.050000 1.200000 0.070000 0.084000
1559809702206681700	200 31 0.900000 0.030000 0.027000 300 30 0.900000 0.573000 0.522000 600 35 1.000000 0.050000 0.050000 1.200000 0.064000 0.077000
1559809702747179908	200 31 0.900000 0.027000 0.024000 300 30 0.900000 0.573000 0.522000 600 35 1.000000 0.050000 0.050000 1.200000 0.063000 0.076000
1559809703287061366	200 31 0.900000 0.034000 0.031000 300 29 0.900000 0.574000 0.522000 600 36 1.000000 0.051000 0.051000 1.200000 0.064000 0.077000
1559809703828704242	200 31 0.900000 0.027000 0.024000 300 30 0.900000 0.573000 0.522000 600 36 1.000000 0.050000 0.050000 1.200000 0.063000 0.076000
1559809704376882783	200 31 0.900000 0.040000 0.036000 300 30 0.900000 0.571000 0.520000 600 35 1.000000 0.051000 0.051000 1.200000 0.070000 0.084000
1559809704917009658	200 31 0.900000 0.031000 0.028000 300 30 0.900000 0.571000 0.520000 600 35 1.000000 0.050000 0.050000 1.200000 0.067000 0.081000
1559809705457200283	200 31 0.900000 0.040000 0.036000 300 30 0.900000 0.573000 0.522000 600 36 1.000000 0.050000 0.050000 1.200000 0.067000 0.081000
1559809705996076450	200 31 0.900000 0.027000 0.024000 300 29 0.900000 0.575000 0.523000 600 36 1.000000 0.050000 0.050000 1.200000 0.063000 0.076000
1559809706542304742	200 31 0.900000 0.026000 0.023000 300 30 0.900000 0.574000 0.522000 600 35 1.000000 0.051000 0.051000 1.200000 0.063000 0.076000
1559809707089048200	200 31 0.900000 0.032000 0.029000 300 30 0.900000 0.572000 0.521000 600 35 1.000000 0.050000 0.050000 1.200000 0.069000 0.083000
1559809707628657034	200 31 0.900000 0.039000 0.035000 300 30 0.900000 0.572000 0.521000 600 36 1.000000 0.050000 0.050000 1.200000 0.070000 0.084000
1559809708168088242	200 31 0.900000 0.025000 0.022000 300 29 0.900000 0.575000 0.523000 600 35 1.000000 0.050000 0.050000 1.200000 0.061000 0.073000
1559809708707690450	200 31 0.900000 0.025000 0.022000 300 30 0.900000 0.575000 0.523000 600 35 1.000000 0.050000 0.050000 1.200000 0.062000 0.075000
1559809709252044576	200 31 0.900000 0.025000 0.022000 300 29 0.900000 0.574000 0.522000 600 35 1.000000 0.050000 0.050000 1.200000 0.061000 0.073000
1559809709798087076	200 31 0.900000 0.041000 0.037000 300 30 0.900000 0.570000 0.519000 600 36 1.000000 0.050000 0.050000 1.200000 0.070000 0.084000
1559809710338855951	200 31 0.900000 0.033000 0.030000 300 30 0.900000 0.570000 0.519000 600 36 1.000000 0.050000 0.050000 1.200000 0.066000 0.079000
1559809710878924826	200 31 0.900000 0.025000 0.022000 300 29 0.900000 0.574000 0.522000 600 35 1.000000 0.050000 0.050000 1.200000 0.062000 0.075000
1559809711418919451	200 31 0.900000 0.025000 0.022000 300 30 0.900000 0.574000 0.522000 600 36 1.000000 0.050000 0.050000 1.200000 0.062000 0.075000
1559809711958135409	200 31 0.900000 0.025000 0.022000 300 29 0.900000 0.574000 0.522000 600 36 1.000000 0.050000 0.050000 1.200000 0.062000 0.075000
1559809712503556576	200 31 0.900000 0.047000 0.043000 300 30 0.900000 0.572000 0.521000 600 35 1.000000 0.050000 0.050000 1.200000 0.073000 0.088000
1559809713046957409	200 31 0.900000 0.034000 0.031000 300 30 0.900000 0.570000 0.519000 600 36 1.000000 0.050000 0.050000 1.200000 0.069000 0.083000
1559809713585872493	200 31 0.900000 0.027000 0.024000 300 30 0.900000 0.575000 0.523000 600 36 1.000000 0.050000 0.050000 1.200000 0.063000 0.076000
1559809714125150076	200 31 0.900000 0.027000 0.024000 300 29 0.900000 0.574000 0.522000 600 36 1.000000 0.050000 0.050000 1.200000 0.063000 0.076000
1559809714664905951	200 31 0.900000 0.027000 0.024000 300 29 0.900000 0.575000 0.523000 600 36 1.000000 0.050000 0.050000 1.200000 0.064000 0.077000
1559809715206200201	200 31 0.900000 0.032000 0.029000 300 30 0.900000 0.572000 0.521000 600 36 1.000000 0.050000 0.050000 1.200000 0.066000 0.079000
1559809715746270243	200 31 0.900000 0.040000 0.036000 300 30 0.900000 0.571000 0.520000 600 36 1.000000 0.050000 0.050000 1.200000 0.070000 0.084000
1559809716285852910	200 31 0.900000 0.027000 0.024000 300 30 0.900000 0.574000 0.522000 600 36 1.000000 0.050000 0.050000 1.200000 0.063000 0.076000
1559809716825414535	200 31 0.900000 0.027000 0.024000 300 30 0.900000 0.575000 0.523000 600 36 1.000000 0.050000 0.050000 1.200000 0.063000 0.076000
1559809717365554785	200 31 0.900000 0.037000 0.033000 300 30 0.900000 0.573000 0.522000 600 36 1.000000 0.050000 0.050000 1.200000 0.066000 0.079000
1559809717909202952	200 31 0.900000 0.027000 0.024000 300 30 0.900000 0.575000 0.523000 600 36 1.000000 0.050000 0.050000 1.200000 0.062000 0.075000
1559809718449716952	200 31 0.900000 0.035000 0.032000 300 30 0.900000 0.571000 0.520000 600 36 1.000000 0.050000 0.050000 1.200000 0.068000 0.082000
1559809718989919993	200 31 0.900000 0.025000 0.022000 300 30 0.900000 0.575000 0.523000 600 36 1.000000 0.050000 0.050000 1.200000 0.062000 0.075000
1559809719529788410	200 31 0.900000 0.028000 0.025000 300 30 0.900000 0.574000 0.522000 600 35 1.000000 0.050000 0.050000 1.200000 0.064000 0.077000
1559809720069807785	200 31 0.900000 0.027000 0.024000 300 30 0.900000 0.575000 0.523000 600 36 1.000000 0.050000 0.050000 1.200000 0.061000 0.073000
1559809720612501744	200 31 0.900000 0.027000 0.024000 300 30 0.900000 0.574000 0.522000 600 36 1.000000 0.050000 0.050000 1.200000 0.065000 0.078000
1559809721151946869	200 31 0.900000 0.040000 0.036000 300 30 0.900000 0.572000 0.521000 600 36 1.000000 0.050000 0.050000 1.200000 0.069000 0.083000
1559809721690947994	200 31 0.900000 0.034000 0.031000 300 30 0.900000 0.574000 0.522000 600 36 1.000000 0.050000 0.050000 1.200000 0.066000 0.079000
1559809722229799244	200 32 0.900000 0.027000 0.024000 300 30 0.900000 0.575000 0.523000 600 36 1.000000 0.051000 0.051000 1.200000 0.061000 0.073000
1559809722769975785	200 31 0.900000 0.026000 0.023000 300 30 0.900000 0.575000 0.523000 600 36 1.000000 0.050000 0.050000 1.200000 0.061000 0.073000
1559809723315483869	200 32 0.900000 0.025000 0.022000 300 30 0.900000 0.575000 0.523000 600 36 1.000000 0.050000 0.050000 1.200000 0.062000 0.075000
1559809723867169202	200 32 0.900000 0.039000 0.035000 300 30 0.900000 0.571000 0.520000 600 36 1.000000 0.051000 0.051000 1.200000 0.070000 0.084000
1559809724406445244	200 31 0.900000 0.030000 0.027000 300 30 0.900000 0.574000 0.522000 600 36 1.000000 0.050000 0.050000 1.200000 0.063000 0.076000
1559809724946689619	200 31 0.900000 0.025000 0.022000 300 30 0.900000 0.575000 0.523000 600 36 1.000000 0.050000 0.050000 1.200000 0.062000 0.075000
1559809725486822036	200 31 0.900000 0.025000 0.022000 300 30 0.900000 0.574000 0.522000 600 36 1.000000 0.050000 0.050000 1.200000 0.061000 0.073000
1559809726030344244	200 31 0.900000 0.025000 0.022000 300 30 0.900000 0.575000 0.523000 600 36 1.000000 0.050000 0.050000 1.200000 0.062000 0.075000
1559809726576251536	200 32 0.900000 0.040000 0.036000 300 30 0.900000 0.570000 0.519000 600 36 1.000000 0.050000 0.050000 1.200000 0.073000 0.088000
1559809727115584411	200 32 0.900000 0.041000 0.037000 300 30 0.900000 0.573000 0.522000 600 36 1.000000 0.050000 0.050000 1.200000 0.065000 0.078000
1559809727655686411	200 31 0.900000 0.027000 0.024000 300 30 0.900000 0.574000 0.522000 600 36 1.000000 0.050000 0.050000 1.200000 0.063000 0.076000
1559809728195216036	200 31 0.900000 0.027000 0.024000 300 30 0.900000 0.575000 0.523000 600 36 1.000000 0.051000 0.051000 1.200000 0.063000 0.076000
1559809728736463411	200 31 0.900000 0.027000 0.024000 300 30 0.900000 0.574000 0.522000 600 36 1.000000 0.050000 0.050000 1.200000 0.064000 0.077000
1559809729282567578	200 32 0.900000 0.038000 0.034000 300 30 0.900000 0.571000 0.520000 600 36 1.000000 0.050000 0.050000 1.200000 0.069000 0.083000
1559809729822587536	200 32 0.900000 0.028000 0.025000 300 30 0.900000 0.575000 0.523000 600 36 1.000000 0.050000 0.050000 1.200000 0.062000 0.075000
1559809730362283495	200 31 0.900000 0.025000 0.022000 300 30 0.900000 0.576000 0.524000 600 36 1.000000 0.050000 0.050000 1.200000 0.062000 0.075000
1559809730902334786	200 31 0.900000 0.028000 0.025000 300 30 0.900000 0.574000 0.522000 600 36 1.000000 0.050000 0.050000 1.200000 0.063000 0.076000
1559809731447129370	200 31 0.900000 0.025000 0.022000 300 30 0.900000 0.575000 0.523000 600 36 1.000000 0.050000 0.050000 1.200000 0.061000 0.073000
1559809731988475412	200 32 0.900000 0.038000 0.034000 300 30 0.900000 0.572000 0.521000 600 36 1.000000 0.050000 0.050000 1.200000 0.069000 0.083000
1559809732529072620	200 32 0.900000 0.039000 0.035000 300 30 0.900000 0.573000 0.522000 600 36 1.000000 0.050000 0.050000 1.200000 0.064000 0.077000
1559809733070371495	200 31 0.900000 0.027000 0.024000 300 30 0.900000 0.575000 0.523000 600 36 1.000000 0.050000 0.050000 1.200000 0.061000 0.073000
1559809733610623662	200 31 0.900000 0.037000 0.033000 300 30 0.900000 0.574000 0.522000 600 36 1.000000 0.050000 0.050000 1.200000 0.064000 0.077000
1559809734150653078	200 31 0.900000 0.027000 0.024000 300 30 0.900000 0.575000 0.523000 600 36 1.000000 0.050000 0.050000 1.200000 0.062000 0.075000
1559809734692436120	200 31 0.900000 0.032000 0.029000 300 30 0.900000 0.571000 0.520000 600 36 1.000000 0.050000 0.050000 1.200000 0.064000 0.077000
1559809735232980537	200 32 0.900000 0.040000 0.036000 300 30 0.900000 0.572000 0.521000 600 36 1.000000 0.050000 0.050000 1.200000 0.070000 0.084000
1559809735772822162	200 32 0.900000 0.030000 0.027000 300 30 0.900000 0.574000 0.522000 600 36 1.000000 0.050000 0.050000 1.200000 0.062000 0.075000
1559809736312908537	200 31 0.900000 0.027000 0.024000 300 30 0.900000 0.576000 0.524000 600 36 1.000000 0.050000 0.050000 1.200000 0.064000 0.077000
1559809736852739787	200 32 0.900000 0.027000 0.024000 300 30 0.900000 0.575000 0.523000 600 36 1.000000 0.050000 0.050000 1.200000 0.062000 0.075000
1559809737396967037	200 31 0.900000 0.032000 0.029000 300 30 0.900000 0.573000 0.522000 600 36 1.000000 0.050000 0.050000 1.200000 0.063000 0.076000
1559809737937483621	200 32 0.900000 0.040000 0.036000 300 30 0.900000 0.571000 0.520000 600 36 1.000000 0.050000 0.050000 1.200000 0.070000 0.084000
1559809738477469746	200 32 0.900000 0.033000 0.030000 300 30 0.900000 0.574000 0.522000 600 36 1.000000 0.050000 0.050000 1.200000 0.068000 0.082000
1559809739016575829	200 31 0.900000 0.026000 0.023000 300 30 0.900000 0.574000 0.522000 600 36 1.000000 0.050000 0.050000 1.200000 0.063000 0.076000
1559809739556029329	200 31 0.900000 0.026000 0.023000 300 30 0.900000 0.575000 0.523000 600 36 1.000000 0.050000 0.050000 1.200000 0.062000 0.075000
1559809740099704163	200 32 0.900000 0.028000 0.025000 300 30 0.900000 0.574000 0.522000 600 36 1.000000 0.050000 0.050000 1.200000 0.063000 0.076000
1559809740640863371	200 32 0.900000 0.050000 0.045000 300 30 0.900000 0.570000 0.519000 600 36 1.000000 0.050000 0.050000 1.200000 0.073000 0.088000
1559809741182126538	200 32 0.900000 0.025000 0.022000 300 30 0.900000 0.574000 0.522000 600 36 1.000000 0.050000 0.050000 1.200000 0.063000 0.076000
1559809741721517246	200 32 0.900000 0.025000 0.022000 300 30 0.900000 0.575000 0.523000 600 36 1.000000 0.050000 0.050000 1.200000 0.063000 0.076000
1559809742261019121	200 32 0.900000 0.025000 0.022000 300 30 0.900000 0.574000 0.522000 600 36 1.000000 0.050000 0.050000 1.200000 0.062000 0.075000
1559809742806586205	200 32 0.900000 0.034000 0.031000 300 30 0.900000 0.574000 0.522000 600 36 1.000000 0.050000 0.050000 1.200000 0.064000 0.077000
1559809743350865121	200 32 0.900000 0.038000 0.034000 300 30 0.900000 0.571000 0.520000 600 36 1.000000 0.050000 0.050000 1.200000 0.071000 0.085000
1559809743890758788	200 32 0.900000 0.025000 0.022000 300 30 0.900000 0.573000 0.522000 600 36 1.000000 0.050000 0.050000 1.200000 0.065000 0.078000
1559809744430830121	200 31 0.900000 0.025000 0.022000 300 30 0.900000 0.575000 0.523000 600 36 1.000000 0.050000 0.050000 1.200000 0.063000 0.076000
1559809744972406288	200 32 0.900000 0.025000 0.022000 300 30 0.900000 0.575000 0.523000 600 36 1.000000 0.050000 0.050000 1.200000 0.062000 0.075000
1559809745519469247	200 32 0.900000 0.040000 0.036000 300 30 0.900000 0.574000 0.522000 600 36 1.000000 0.050000 0.050000 1.200000 0.066000 0.079000
1559809746061964788	200 32 0.900000 0.039000 0.035000 300 30 0.900000 0.571000 0.520000 600 36 1.000000 0.050000 0.050000 1.200000 0.070000 0.084000
1559809746602414663	200 32 0.900000 0.038000 0.034000 300 30 0.900000 0.572000 0.521000 600 36 1.000000 0.050000 0.050000 1.200000 0.068000 0.082000
1559809747142843372	200 31 0.900000 0.027000 0.024000 300 30 0.900000 0.575000 0.523000 600 36 1.000000 0.050000 0.050000 1.200000 0.062000 0.075000
1559809747683529538	200 32 0.900000 0.033000 0.030000 300 30 0.900000 0.575000 0.523000 600 36 1.000000 0.050000 0.050000 1.200000 0.065000 0.078000
1559809748224944663	200 32 0.900000 0.027000 0.024000 300 30 0.900000 0.574000 0.522000 600 36 1.000000 0.051000 0.051000 1.200000 0.062000 0.075000
1559809748767086789	200 32 0.900000 0.038000 0.034000 300 30 0.900000 0.572000 0.521000 600 36 1.000000 0.050000 0.050000 1.200000 0.068000 0.082000
1559809749307575830	200 31 0.900000 0.039000 0.035000 300 30 0.900000 0.571000 0.520000 600 36 1.000000 0.050000 0.050000 1.200000 0.070000 0.084000
1559809749846504247	200 32 0.900000 0.027000 0.024000 300 30 0.900000 0.575000 0.523000 600 36 1.000000 0.050000 0.050000 1.200000 0.062000 0.075000
1559809750385761789	200 32 0.900000 0.025000 0.022000 300 30 0.900000 0.575000 0.523000 600 36 1.000000 0.050000 0.050000 1.200000 0.061000 0.073000
1559809750925926497	200 31 0.900000 0.020000 0.018000 300 29 0.900000 0.576000 0.524000 600 35 1.000000 0.050000 0.050000 1.200000 0.062000 0.075000
1559809751471558956	200 30 0.900000 0.035000 0.032000 300 29 0.900000 0.064000 0.058000 600 34 1.000000 0.050000 0.050000 1.200000 0.046000 0.055000
1559809752009756956	200 30 0.900000 0.026000 0.023000 300 29 0.900000 0.052000 0.047000 600 33 1.000000 0.050000 0.050000 1.200000 0.034000 0.041000
