#Timestamp	CPU(0) Frequency(MHz)	CPU(0) Temperature(C)	A7 Voltage(V)	A7 Current(A)	A7 Power(W)	CPU(4) Frequency(MHz)	CPU(4) Temperature(C)	A15 Voltage(V)	A15 Current(A)	A15 Power(W)	GPU Frequency(MHz)	GPU Temperature(C)	GPU Voltage(V)	GPU Current(A)	GPU Power(W)	RAM Voltage(V)	RAM Current(A)	RAM Power(W)
1517296397395587052	1000 47 1.000000 0.234000 0.254000 1600 38 1.100000 1.889000 2.145000 600 44 1.000000 0.051000 0.051000 1.200000 0.029000 0.035000
1517296397900688969	1000 49 1.000000 0.236000 0.256000 1600 40 1.100000 2.219000 2.523000 600 46 1.000000 0.051000 0.051000 1.200000 0.029000 0.035000
1517296398405762719	1000 51 1.000000 0.236000 0.256000 1600 41 1.100000 2.215000 2.518000 600 47 1.000000 0.051000 0.051000 1.200000 0.029000 0.035000
1517296398910791969	1000 52 1.000000 0.236000 0.256000 1600 42 1.100000 2.201000 2.502000 600 48 1.000000 0.052000 0.052000 1.200000 0.028000 0.033000
1517296399416660511	1000 52 1.000000 0.237000 0.257000 1600 43 1.100000 2.221000 2.525000 600 49 1.000000 0.052000 0.052000 1.200000 0.029000 0.035000
1517296399921843636	1000 53 1.000000 0.236000 0.256000 1600 44 1.100000 2.302000 2.617000 600 49 1.000000 0.052000 0.052000 1.200000 0.032000 0.038000
1517296400426842094	1000 54 1.000000 0.237000 0.257000 1600 44 1.100000 2.219000 2.523000 600 49 1.000000 0.052000 0.052000 1.200000 0.029000 0.035000
1517296400931777844	1000 54 1.000000 0.237000 0.257000 1600 45 1.100000 2.224000 2.528000 600 50 1.000000 0.052000 0.052000 1.200000 0.028000 0.033000
1517296401436699178	1000 54 1.000000 0.237000 0.257000 1600 45 1.100000 2.213000 2.516000 600 50 1.000000 0.052000 0.052000 1.200000 0.028000 0.033000
1517296401941757844	1000 55 1.000000 0.237000 0.257000 1600 45 1.100000 2.298000 2.612000 600 51 1.000000 0.053000 0.053000 1.200000 0.030000 0.036000
1517296402446665011	1000 55 1.000000 0.237000 0.257000 1600 45 1.100000 2.209000 2.511000 600 51 1.000000 0.053000 0.053000 1.200000 0.029000 0.035000
1517296402951638636	1000 55 1.000000 0.238000 0.258000 1600 46 1.100000 2.215000 2.518000 600 51 1.000000 0.052000 0.052000 1.200000 0.029000 0.035000
1517296403456609095	1000 55 1.000000 0.238000 0.258000 1600 46 1.100000 2.247000 2.554000 600 51 1.000000 0.053000 0.053000 1.200000 0.028000 0.033000
1517296403961803053	1000 56 1.000000 0.239000 0.259000 1600 46 1.100000 2.225000 2.529000 600 52 1.000000 0.053000 0.053000 1.200000 0.031000 0.037000
1517296404466877886	1000 56 1.000000 0.238000 0.258000 1600 46 1.100000 2.242000 2.549000 600 52 1.000000 0.053000 0.053000 1.200000 0.029000 0.035000
1517296404971783428	1000 56 1.000000 0.239000 0.259000 1600 46 1.100000 2.224000 2.528000 600 52 1.000000 0.053000 0.053000 1.200000 0.028000 0.033000
1517296405476707095	1000 56 1.000000 0.238000 0.258000 1600 46 1.100000 2.242000 2.549000 600 52 1.000000 0.053000 0.053000 1.200000 0.029000 0.035000
1517296405981818345	1000 56 1.000000 0.238000 0.258000 1600 47 1.100000 2.317000 2.634000 600 52 1.000000 0.053000 0.053000 1.200000 0.032000 0.038000
1517296406486867553	1000 56 1.000000 0.238000 0.258000 1600 47 1.100000 2.234000 2.540000 600 52 1.000000 0.053000 0.053000 1.200000 0.028000 0.033000
1517296406991912678	1000 56 1.000000 0.238000 0.258000 1600 47 1.100000 2.225000 2.529000 600 52 1.000000 0.053000 0.053000 1.200000 0.028000 0.033000
1517296407496934678	1000 56 1.000000 0.238000 0.258000 1600 47 1.100000 2.230000 2.535000 600 52 1.000000 0.053000 0.053000 1.200000 0.028000 0.033000
1517296408001995012	1000 56 1.000000 0.238000 0.258000 1600 47 1.100000 2.320000 2.637000 600 53 1.000000 0.053000 0.053000 1.200000 0.029000 0.035000
1517296408506975678	1000 56 1.000000 0.238000 0.258000 1600 47 1.100000 2.256000 2.565000 600 53 1.000000 0.053000 0.053000 1.200000 0.029000 0.035000
1517296409011970512	1000 57 1.000000 0.238000 0.258000 1600 47 1.100000 2.245000 2.552000 600 53 1.000000 0.053000 0.053000 1.200000 0.029000 0.035000
1517296409516939929	1000 57 1.000000 0.239000 0.259000 1600 47 1.100000 2.244000 2.551000 600 53 1.000000 0.053000 0.053000 1.200000 0.029000 0.035000
1517296410022064179	1000 57 1.000000 0.238000 0.258000 1600 47 1.100000 2.327000 2.645000 600 53 1.000000 0.053000 0.053000 1.200000 0.031000 0.037000
1517296410527114179	1000 57 1.000000 0.238000 0.258000 1600 47 1.100000 2.240000 2.546000 600 53 1.000000 0.053000 0.053000 1.200000 0.028000 0.033000
1517296411032054804	1000 57 1.000000 0.238000 0.258000 1600 47 1.100000 2.224000 2.528000 600 53 1.000000 0.053000 0.053000 1.200000 0.028000 0.033000
1517296411536996679	1000 57 1.000000 0.238000 0.258000 1600 47 1.100000 2.227000 2.532000 600 53 1.000000 0.053000 0.053000 1.200000 0.028000 0.033000
1517296412041997137	1000 57 1.000000 0.238000 0.258000 1600 47 1.100000 2.316000 2.633000 600 53 1.000000 0.053000 0.053000 1.200000 0.031000 0.037000
1517296412547107762	1000 57 1.000000 0.238000 0.258000 1600 47 1.100000 2.221000 2.525000 600 53 1.000000 0.053000 0.053000 1.200000 0.029000 0.035000
1517296413052189471	1000 57 1.000000 0.238000 0.258000 1600 47 1.100000 2.220000 2.524000 600 53 1.000000 0.053000 0.053000 1.200000 0.028000 0.033000
1517296413557280137	1000 57 1.000000 0.238000 0.258000 1600 47 1.100000 2.226000 2.530000 600 53 1.000000 0.053000 0.053000 1.200000 0.029000 0.035000
1517296414062350096	1000 57 1.000000 0.239000 0.259000 1600 47 1.100000 2.336000 2.656000 600 53 1.000000 0.053000 0.053000 1.200000 0.032000 0.038000
1517296414567341471	1000 57 1.000000 0.238000 0.258000 1600 47 1.100000 2.227000 2.532000 600 53 1.000000 0.053000 0.053000 1.200000 0.029000 0.035000
1517296415072301596	1000 57 1.000000 0.238000 0.258000 1600 47 1.100000 2.246000 2.553000 600 53 1.000000 0.053000 0.053000 1.200000 0.029000 0.035000
1517296415577322596	1000 57 1.000000 0.239000 0.259000 1600 48 1.100000 2.238000 2.544000 600 53 1.000000 0.053000 0.053000 1.200000 0.028000 0.033000
1517296416082544929	1000 57 1.000000 0.238000 0.258000 1600 48 1.100000 2.296000 2.610000 600 53 1.000000 0.053000 0.053000 1.200000 0.030000 0.036000
1517296416587576013	1000 57 1.000000 0.239000 0.259000 1600 47 1.100000 2.249000 2.557000 600 53 1.000000 0.053000 0.053000 1.200000 0.029000 0.035000
1517296417092536180	1000 57 1.000000 0.238000 0.258000 1600 48 1.100000 2.237000 2.543000 600 53 1.000000 0.053000 0.053000 1.200000 0.030000 0.036000
1517296417597508305	1000 57 1.000000 0.239000 0.259000 1600 48 1.100000 2.236000 2.542000 600 53 1.000000 0.053000 0.053000 1.200000 0.029000 0.034000
1517296418102652971	1000 57 1.000000 0.238000 0.258000 1600 48 1.100000 2.317000 2.634000 600 53 1.000000 0.053000 0.053000 1.200000 0.029000 0.035000
1517296418607691138	1000 57 1.000000 0.238000 0.258000 1600 48 1.100000 2.233000 2.538000 600 53 1.000000 0.053000 0.053000 1.200000 0.028000 0.033000
1517296419112692721	1000 57 1.000000 0.239000 0.259000 1600 48 1.100000 2.244000 2.551000 600 53 1.000000 0.053000 0.053000 1.200000 0.028000 0.033000
1517296419617722721	1000 57 1.000000 0.239000 0.259000 1600 48 1.100000 2.260000 2.569000 600 53 1.000000 0.053000 0.053000 1.200000 0.028000 0.033000
1517296420122868013	1000 57 1.000000 0.238000 0.258000 1600 48 1.100000 2.241000 2.548000 600 54 1.000000 0.053000 0.053000 1.200000 0.031000 0.037000
1517296420627859888	1000 57 1.000000 0.238000 0.258000 1600 48 1.100000 2.259000 2.568000 600 53 1.000000 0.053000 0.053000 1.200000 0.028000 0.033000
1517296421132952847	1000 57 1.000000 0.239000 0.259000 1600 48 1.100000 2.239000 2.545000 600 53 1.000000 0.053000 0.053000 1.200000 0.028000 0.033000
1517296421638006888	1000 57 1.000000 0.239000 0.259000 1600 48 1.100000 2.258000 2.567000 600 53 1.000000 0.053000 0.053000 1.200000 0.027000 0.032000
1517296422143144722	1000 57 1.000000 0.238000 0.258000 1600 48 1.100000 2.251000 2.559000 600 54 1.000000 0.053000 0.053000 1.200000 0.028000 0.033000
1517296422649323972	1000 57 1.000000 0.238000 0.258000 1600 48 1.100000 2.273000 2.584000 600 53 1.000000 0.053000 0.053000 1.200000 0.030000 0.036000
1517296423154653555	1000 57 1.000000 0.239000 0.259000 1600 48 1.100000 2.281000 2.593000 600 54 1.000000 0.053000 0.053000 1.200000 0.029000 0.035000
1517296423659552847	1000 57 1.000000 0.238000 0.258000 1600 48 1.100000 2.303000 2.618000 600 54 1.000000 0.053000 0.053000 1.200000 0.028000 0.033000
1517296424164605680	1000 58 1.000000 0.239000 0.259000 1600 48 1.100000 2.290000 2.603000 600 54 1.000000 0.053000 0.053000 1.200000 0.028000 0.033000
1517296424669705722	1000 58 1.000000 0.238000 0.258000 1600 48 1.100000 2.270000 2.580000 600 54 1.000000 0.053000 0.053000 1.200000 0.028000 0.033000
1517296425174776764	1000 57 1.000000 0.238000 0.258000 1600 48 1.100000 2.284000 2.596000 600 54 1.000000 0.053000 0.053000 1.200000 0.028000 0.033000
1517296425679670431	1000 57 1.000000 0.238000 0.258000 1600 48 1.100000 2.278000 2.590000 600 54 1.000000 0.053000 0.053000 1.200000 0.028000 0.033000
1517296426184709472	1000 57 1.000000 0.239000 0.259000 1600 48 1.100000 2.271000 2.582000 600 54 1.000000 0.053000 0.053000 1.200000 0.029000 0.035000
1517296426689791389	1000 58 1.000000 0.238000 0.258000 1600 48 1.100000 2.287000 2.600000 600 54 1.000000 0.053000 0.053000 1.200000 0.028000 0.033000
1517296427194785931	1000 58 1.000000 0.238000 0.258000 1600 48 1.100000 2.268000 2.578000 600 54 1.000000 0.053000 0.053000 1.200000 0.028000 0.033000
1517296427700383681	1000 58 1.000000 0.238000 0.258000 1600 48 1.100000 2.294000 2.608000 600 54 1.000000 0.053000 0.053000 1.200000 0.028000 0.033000
1517296428205534472	1000 58 1.000000 0.239000 0.259000 1600 48 1.100000 2.295000 2.609000 600 54 1.000000 0.053000 0.053000 1.200000 0.029000 0.035000
1517296428710564348	1000 57 1.000000 0.238000 0.258000 1600 48 1.100000 2.300000 2.615000 600 54 1.000000 0.053000 0.053000 1.200000 0.028000 0.033000
1517296429215538514	1000 58 1.000000 0.239000 0.259000 1600 48 1.100000 2.297000 2.611000 600 54 1.000000 0.053000 0.053000 1.200000 0.028000 0.033000
1517296429720591598	1000 58 1.000000 0.238000 0.258000 1600 48 1.100000 2.275000 2.586000 600 54 1.000000 0.053000 0.053000 1.200000 0.027000 0.032000
1517296430225684306	1000 58 1.000000 0.239000 0.259000 1600 48 1.100000 2.293000 2.607000 600 54 1.000000 0.053000 0.053000 1.200000 0.028000 0.033000
1517296430730689973	1000 58 1.000000 0.238000 0.258000 1600 48 1.100000 2.279000 2.591000 600 54 1.000000 0.053000 0.053000 1.200000 0.028000 0.033000
1517296431235619056	1000 58 1.000000 0.239000 0.259000 1600 48 1.100000 2.284000 2.596000 600 54 1.000000 0.053000 0.053000 1.200000 0.028000 0.033000
1517296431740538640	1000 58 1.000000 0.239000 0.259000 1600 48 1.100000 2.289000 2.604000 600 54 1.000000 0.053000 0.053000 1.200000 0.027000 0.032000
1517296432245703723	1000 58 1.000000 0.239000 0.259000 1600 48 1.100000 2.272000 2.583000 600 54 1.000000 0.053000 0.053000 1.200000 0.028000 0.033000
1517296432750766973	1000 58 1.000000 0.239000 0.259000 1600 48 1.100000 2.275000 2.588000 600 54 1.000000 0.053000 0.053000 1.200000 0.027000 0.032000
1517296433255823306	1000 58 1.000000 0.239000 0.259000 1600 48 1.100000 2.275000 2.586000 600 54 1.000000 0.053000 0.053000 1.200000 0.028000 0.033000
1517296433760875223	1000 58 1.000000 0.239000 0.259000 1600 48 1.100000 2.303000 2.618000 600 54 1.000000 0.053000 0.053000 1.200000 0.028000 0.033000
1517296434265921098	1000 58 1.000000 0.239000 0.259000 1600 48 1.100000 2.304000 2.621000 600 54 1.000000 0.053000 0.053000 1.200000 0.027000 0.032000
1517296434770949015	1000 58 1.000000 0.239000 0.259000 1600 48 1.100000 2.278000 2.590000 600 54 1.000000 0.053000 0.053000 1.200000 0.028000 0.033000
1517296435275866557	1000 58 1.000000 0.239000 0.259000 1600 48 1.100000 2.292000 2.606000 600 54 1.000000 0.053000 0.053000 1.200000 0.028000 0.033000
1517296435780859432	1000 58 1.000000 0.239000 0.259000 1600 48 1.100000 2.258000 2.567000 600 54 1.000000 0.053000 0.053000 1.200000 0.027000 0.032000
1517296436286009932	1000 58 1.000000 0.238000 0.258000 1600 48 1.100000 2.266000 2.576000 600 54 1.000000 0.053000 0.053000 1.200000 0.028000 0.033000
1517296436791006557	1000 58 1.000000 0.246000 0.267000 1600 48 1.100000 2.265000 2.575000 600 54 1.000000 0.053000 0.053000 1.200000 0.027000 0.032000
1517296437296026057	1000 58 1.000000 0.239000 0.259000 1600 48 1.100000 2.256000 2.565000 600 54 1.000000 0.053000 0.053000 1.200000 0.027000 0.032000
1517296437801028974	1000 58 1.000000 0.239000 0.259000 1600 48 1.100000 2.256000 2.565000 600 54 1.000000 0.053000 0.053000 1.200000 0.027000 0.032000
1517296438306255390	1000 58 1.000000 0.238000 0.258000 1600 48 1.100000 2.255000 2.563000 600 54 1.000000 0.053000 0.053000 1.200000 0.028000 0.033000
1517296438811307640	1000 58 1.000000 0.239000 0.259000 1600 48 1.100000 2.252000 2.560000 600 54 1.000000 0.053000 0.053000 1.200000 0.029000 0.034000
1517296439316438890	1000 58 1.000000 0.239000 0.259000 1600 48 1.100000 2.265000 2.575000 600 54 1.000000 0.053000 0.053000 1.200000 0.029000 0.035000
1517296439821521641	1000 58 1.000000 0.238000 0.258000 1600 48 1.100000 2.273000 2.584000 600 54 1.000000 0.053000 0.053000 1.200000 0.030000 0.036000
1517296440326753349	1000 58 1.000000 0.239000 0.259000 1600 48 1.100000 2.276000 2.587000 600 54 1.000000 0.053000 0.053000 1.200000 0.029000 0.034000
1517296440831790932	1000 58 1.000000 0.239000 0.259000 1600 48 1.100000 2.314000 2.631000 600 54 1.000000 0.053000 0.053000 1.200000 0.030000 0.036000
1517296441336847932	1000 58 1.000000 0.239000 0.259000 1600 48 1.100000 2.271000 2.582000 600 54 1.000000 0.053000 0.053000 1.200000 0.029000 0.034000
1517296441841764224	1000 58 1.000000 0.239000 0.259000 1600 48 1.100000 2.261000 2.570000 600 54 1.000000 0.053000 0.053000 1.200000 0.029000 0.034000
1517296442346964808	1000 58 1.000000 0.239000 0.259000 1600 48 1.100000 2.234000 2.540000 600 54 1.000000 0.053000 0.053000 1.200000 0.028000 0.033000
1517296442852006974	1000 58 1.000000 0.239000 0.259000 1600 48 1.100000 2.226000 2.530000 600 54 1.000000 0.053000 0.053000 1.200000 0.029000 0.035000
1517296443357013016	1000 58 1.000000 0.238000 0.258000 1600 48 1.100000 2.224000 2.528000 600 54 1.000000 0.053000 0.053000 1.200000 0.029000 0.035000
1517296443861993016	1000 58 1.000000 0.239000 0.259000 1600 48 1.100000 2.225000 2.529000 600 54 1.000000 0.053000 0.053000 1.200000 0.029000 0.035000
1517296444367174141	1000 58 1.000000 0.238000 0.258000 1600 48 1.100000 2.239000 2.545000 600 54 1.000000 0.053000 0.053000 1.200000 0.030000 0.036000
1517296444872360808	1000 58 1.000000 0.239000 0.259000 1600 48 1.100000 2.253000 2.561000 600 54 1.000000 0.053000 0.053000 1.200000 0.030000 0.036000
1517296445377463225	1000 57 1.000000 0.238000 0.258000 1600 48 1.100000 2.246000 2.553000 600 54 1.000000 0.053000 0.053000 1.200000 0.029000 0.035000
1517296445882394766	1000 57 1.000000 0.239000 0.259000 1600 48 1.100000 2.228000 2.533000 600 54 1.000000 0.053000 0.053000 1.200000 0.029000 0.035000
1517296446388307850	1000 57 1.000000 0.238000 0.258000 1600 48 1.100000 2.251000 2.559000 600 54 1.000000 0.053000 0.053000 1.200000 0.029000 0.034000
1517296446893567516	1000 57 1.000000 0.239000 0.259000 1600 48 1.100000 2.306000 2.621000 600 54 1.000000 0.053000 0.053000 1.200000 0.029000 0.034000
1517296447398490350	1000 57 1.000000 0.238000 0.258000 1600 48 1.100000 2.246000 2.553000 600 54 1.000000 0.053000 0.053000 1.200000 0.029000 0.035000
1517296447903502767	1000 57 1.000000 0.239000 0.259000 1600 48 1.100000 2.230000 2.535000 600 54 1.000000 0.053000 0.053000 1.200000 0.029000 0.034000
1517296448409554558	1000 57 1.000000 0.239000 0.259000 1600 48 1.100000 2.248000 2.555000 600 54 1.000000 0.053000 0.053000 1.200000 0.029000 0.034000
1517296448914715600	1000 58 1.000000 0.239000 0.259000 1600 48 1.100000 2.254000 2.562000 600 54 1.000000 0.053000 0.053000 1.200000 0.030000 0.036000
1517296449419774058	1000 58 1.000000 0.239000 0.259000 1600 48 1.100000 2.255000 2.563000 600 54 1.000000 0.053000 0.053000 1.200000 0.029000 0.035000
1517296449924745767	1000 58 1.000000 0.239000 0.259000 1600 48 1.100000 2.281000 2.593000 600 54 1.000000 0.053000 0.053000 1.200000 0.030000 0.036000
1517296450429751683	1000 58 1.000000 0.238000 0.258000 1600 48 1.100000 2.260000 2.569000 600 54 1.000000 0.053000 0.053000 1.200000 0.030000 0.036000
1517296450934877892	1000 58 1.000000 0.239000 0.259000 1600 48 1.100000 2.285000 2.598000 600 54 1.000000 0.053000 0.053000 1.200000 0.030000 0.036000
1517296451439887600	1000 58 1.000000 0.241000 0.261000 1600 48 1.100000 2.268000 2.578000 600 54 1.000000 0.053000 0.053000 1.200000 0.029000 0.035000
1517296451944899017	1000 58 1.000000 0.239000 0.259000 1600 48 1.100000 2.255000 2.563000 600 54 1.000000 0.053000 0.053000 1.200000 0.030000 0.036000
1517296452449809975	1000 58 1.000000 0.239000 0.259000 1600 48 1.100000 2.270000 2.580000 600 54 1.000000 0.053000 0.053000 1.200000 0.030000 0.036000
1517296452954925017	1000 58 1.000000 0.239000 0.259000 1600 48 1.100000 2.334000 2.653000 600 54 1.000000 0.053000 0.053000 1.200000 0.033000 0.039000
1517296453459886476	1000 58 1.000000 0.239000 0.259000 1600 48 1.100000 2.252000 2.560000 600 54 1.000000 0.053000 0.053000 1.200000 0.029000 0.034000
1517296453964856601	1000 58 1.000000 0.239000 0.259000 1600 48 1.100000 2.253000 2.561000 600 54 1.000000 0.053000 0.053000 1.200000 0.030000 0.036000
1517296454469899142	1000 58 1.000000 0.239000 0.259000 1600 48 1.100000 2.252000 2.560000 600 54 1.000000 0.053000 0.053000 1.200000 0.029000 0.034000
1517296454974956309	1000 58 1.000000 0.240000 0.260000 1600 48 1.100000 2.247000 2.554000 600 54 1.000000 0.053000 0.053000 1.200000 0.034000 0.041000
1517296455479892809	1000 58 1.000000 0.239000 0.259000 1600 48 1.100000 2.274000 2.585000 600 54 1.000000 0.053000 0.053000 1.200000 0.029000 0.034000
1517296455984871601	1000 58 1.000000 0.239000 0.259000 1600 48 1.100000 2.244000 2.551000 600 54 1.000000 0.053000 0.053000 1.200000 0.029000 0.035000
1517296456489879518	1000 58 1.000000 0.239000 0.259000 1600 48 1.100000 2.255000 2.563000 600 54 1.000000 0.053000 0.053000 1.200000 0.029000 0.035000
1517296456994984059	1000 58 1.000000 0.239000 0.259000 1600 48 1.100000 2.335000 2.657000 600 54 1.000000 0.053000 0.053000 1.200000 0.033000 0.039000
1517296457500052851	1000 58 1.000000 0.239000 0.259000 1600 48 1.100000 2.248000 2.555000 600 54 1.000000 0.053000 0.053000 1.200000 0.030000 0.036000
1517296458005054893	1000 58 1.000000 0.239000 0.259000 1600 48 1.100000 2.267000 2.577000 600 54 1.000000 0.053000 0.053000 1.200000 0.030000 0.036000
1517296458510038643	1000 58 1.000000 0.239000 0.259000 1600 48 1.100000 2.275000 2.586000 600 54 1.000000 0.053000 0.053000 1.200000 0.030000 0.036000
1517296459015126934	1000 58 1.000000 0.240000 0.260000 1600 48 1.100000 2.267000 2.577000 600 54 1.000000 0.053000 0.053000 1.200000 0.030000 0.036000
1517296459520270268	1000 58 1.000000 0.239000 0.259000 1600 48 1.100000 2.269000 2.579000 600 54 1.000000 0.053000 0.053000 1.200000 0.030000 0.036000
1517296460025303268	1000 58 1.000000 0.241000 0.261000 1600 48 1.100000 2.268000 2.578000 600 54 1.000000 0.053000 0.053000 1.200000 0.029000 0.034000
1517296460530338310	1000 58 1.000000 0.241000 0.261000 1600 48 1.100000 2.251000 2.559000 600 54 1.000000 0.053000 0.053000 1.200000 0.029000 0.035000
1517296461035401851	1000 58 1.000000 0.242000 0.262000 1600 48 1.100000 2.352000 2.674000 600 54 1.000000 0.053000 0.053000 1.200000 0.033000 0.039000
1517296461540352226	1000 58 1.000000 0.241000 0.261000 1600 48 1.100000 2.263000 2.573000 600 54 1.000000 0.053000 0.053000 1.200000 0.029000 0.035000
1517296462045455310	1000 58 1.000000 0.241000 0.261000 1600 48 1.100000 2.263000 2.573000 600 54 1.000000 0.053000 0.053000 1.200000 0.029000 0.035000
1517296462550403685	1000 58 1.000000 0.241000 0.261000 1600 48 1.100000 2.276000 2.587000 600 54 1.000000 0.053000 0.053000 1.200000 0.028000 0.033000
1517296463055514268	1000 58 1.000000 0.241000 0.261000 1600 48 1.100000 2.276000 2.587000 600 54 1.000000 0.053000 0.053000 1.200000 0.029000 0.035000
1517296463560579393	1000 58 1.000000 0.242000 0.262000 1600 48 1.100000 2.291000 2.604000 600 54 1.000000 0.053000 0.053000 1.200000 0.030000 0.036000
1517296464065581435	1000 58 1.000000 0.241000 0.261000 1600 48 1.100000 2.290000 2.603000 600 54 1.000000 0.053000 0.053000 1.200000 0.029000 0.035000
1517296464570453560	1000 58 1.000000 0.241000 0.261000 1600 48 1.100000 2.270000 2.583000 600 54 1.000000 0.053000 0.053000 1.200000 0.029000 0.035000
1517296465075670185	1000 58 1.000000 0.243000 0.263000 1600 48 1.100000 2.313000 2.629000 600 54 1.000000 0.053000 0.053000 1.200000 0.029000 0.035000
1517296465580665352	1000 58 1.000000 0.241000 0.261000 1600 48 1.100000 2.261000 2.570000 600 54 1.000000 0.053000 0.053000 1.200000 0.029000 0.035000
1517296466085708394	1000 58 1.000000 0.241000 0.261000 1600 48 1.100000 2.276000 2.587000 600 54 1.000000 0.053000 0.053000 1.200000 0.029000 0.035000
1517296466590710727	1000 58 1.000000 0.241000 0.261000 1600 48 1.100000 2.259000 2.568000 600 54 1.000000 0.053000 0.053000 1.200000 0.028000 0.033000
1517296467095706435	1000 58 1.000000 0.242000 0.262000 1600 48 1.100000 2.342000 2.665000 600 54 1.000000 0.053000 0.053000 1.200000 0.032000 0.038000
1517296467600685352	1000 58 1.000000 0.241000 0.261000 1600 48 1.100000 2.273000 2.584000 600 54 1.000000 0.053000 0.053000 1.200000 0.029000 0.035000
1517296468105681186	1000 58 1.000000 0.241000 0.261000 1600 48 1.100000 2.249000 2.557000 600 54 1.000000 0.053000 0.053000 1.200000 0.029000 0.035000
1517296468610622811	1000 58 1.000000 0.241000 0.261000 1600 48 1.100000 2.247000 2.554000 600 54 1.000000 0.053000 0.053000 1.200000 0.028000 0.033000
1517296469115700727	1000 58 1.000000 0.241000 0.261000 1600 48 1.100000 2.262000 2.571000 600 54 1.000000 0.053000 0.053000 1.200000 0.029000 0.035000
1517296469620734477	1000 58 1.000000 0.242000 0.262000 1600 48 1.100000 2.296000 2.610000 600 54 1.000000 0.053000 0.053000 1.200000 0.030000 0.036000
1517296470125725436	1000 58 1.000000 0.242000 0.262000 1600 48 1.100000 2.272000 2.585000 600 54 1.000000 0.053000 0.053000 1.200000 0.029000 0.035000
1517296470630697686	1000 58 1.000000 0.241000 0.261000 1600 48 1.100000 2.283000 2.595000 600 54 1.000000 0.053000 0.053000 1.200000 0.029000 0.035000
1517296471135818519	1000 58 1.000000 0.241000 0.261000 1600 48 1.100000 2.268000 2.578000 600 54 1.000000 0.053000 0.053000 1.200000 0.029000 0.035000
1517296471640927769	1000 58 1.000000 0.241000 0.261000 1600 48 1.100000 2.252000 2.560000 600 54 1.000000 0.053000 0.053000 1.200000 0.029000 0.034000
1517296472145818936	1000 58 1.000000 0.241000 0.261000 1600 48 1.100000 2.266000 2.576000 600 54 1.000000 0.053000 0.053000 1.200000 0.029000 0.034000
1517296472650717603	1000 58 1.000000 0.241000 0.261000 1600 48 1.100000 2.262000 2.571000 600 54 1.000000 0.053000 0.053000 1.200000 0.029000 0.034000
1517296473155746728	1000 58 1.000000 0.243000 0.263000 1600 48 1.100000 2.332000 2.651000 600 54 1.000000 0.053000 0.053000 1.200000 0.031000 0.037000
1517296473660836353	1000 58 1.000000 0.241000 0.261000 1600 48 1.100000 2.245000 2.552000 600 54 1.000000 0.053000 0.053000 1.200000 0.029000 0.035000
1517296474165811270	1000 58 1.000000 0.241000 0.261000 1600 48 1.100000 2.224000 2.528000 600 54 1.000000 0.053000 0.053000 1.200000 0.029000 0.034000
1517296474670816228	1000 58 1.000000 0.241000 0.261000 1600 48 1.100000 2.219000 2.523000 600 54 1.000000 0.053000 0.053000 1.200000 0.029000 0.034000
1517296475175852603	1000 58 1.000000 0.242000 0.262000 1600 48 1.100000 2.264000 2.574000 600 54 1.000000 0.053000 0.053000 1.200000 0.029000 0.034000
1517296475680906020	1000 58 1.000000 0.241000 0.261000 1600 48 1.100000 2.228000 2.533000 600 54 1.000000 0.053000 0.053000 1.200000 0.029000 0.034000
1517296476185831020	1000 57 1.000000 0.241000 0.261000 1600 48 1.100000 2.243000 2.550000 600 54 1.000000 0.053000 0.053000 1.200000 0.029000 0.035000
1517296476690771520	1000 58 1.000000 0.241000 0.261000 1600 48 1.100000 2.228000 2.533000 600 54 1.000000 0.053000 0.053000 1.200000 0.029000 0.035000
1517296477195874187	1000 58 1.000000 0.241000 0.261000 1600 48 1.100000 2.238000 2.544000 600 54 1.000000 0.053000 0.053000 1.200000 0.029000 0.035000
1517296477700928687	1000 58 1.000000 0.241000 0.261000 1600 48 1.100000 2.228000 2.533000 600 54 1.000000 0.053000 0.053000 1.200000 0.029000 0.034000
1517296478205970395	1000 58 1.000000 0.241000 0.261000 1600 48 1.100000 2.222000 2.526000 600 54 1.000000 0.053000 0.053000 1.200000 0.029000 0.035000
1517296478711018020	1000 58 1.000000 0.241000 0.261000 1600 48 1.100000 2.224000 2.528000 600 54 1.000000 0.053000 0.053000 1.200000 0.028000 0.033000
1517296479216029187	1000 58 1.000000 0.242000 0.262000 1600 48 1.100000 2.296000 2.610000 600 54 1.000000 0.053000 0.053000 1.200000 0.032000 0.038000
1517296479721086854	1000 58 1.000000 0.240000 0.260000 1600 48 1.100000 2.219000 2.523000 600 54 1.000000 0.053000 0.053000 1.200000 0.029000 0.035000
1517296480226063770	1000 58 1.000000 0.240000 0.260000 1600 48 1.100000 2.230000 2.535000 600 54 1.000000 0.053000 0.053000 1.200000 0.030000 0.036000
1517296480731117104	1000 58 1.000000 0.241000 0.261000 1600 48 1.100000 2.284000 2.596000 600 54 1.000000 0.053000 0.053000 1.200000 0.029000 0.035000
1517296481236108854	1000 58 1.000000 0.239000 0.259000 1600 48 1.100000 2.286000 2.599000 600 54 1.000000 0.053000 0.053000 1.200000 0.028000 0.033000
1517296481741123771	1000 58 1.000000 0.241000 0.261000 1600 48 1.100000 2.268000 2.578000 600 54 1.000000 0.053000 0.053000 1.200000 0.028000 0.033000
1517296482246103396	1000 58 1.000000 0.239000 0.259000 1600 48 1.100000 2.283000 2.595000 600 54 1.000000 0.053000 0.053000 1.200000 0.028000 0.033000
1517296482751177687	1000 58 1.000000 0.239000 0.259000 1600 48 1.100000 2.271000 2.582000 600 54 1.000000 0.053000 0.053000 1.200000 0.028000 0.033000
1517296483256219729	1000 58 1.000000 0.239000 0.259000 1600 48 1.100000 2.268000 2.578000 600 54 1.000000 0.053000 0.053000 1.200000 0.028000 0.033000
1517296483761206271	1000 58 1.000000 0.239000 0.259000 1600 48 1.100000 2.267000 2.577000 600 54 1.000000 0.053000 0.053000 1.200000 0.028000 0.033000
1517296484267332979	1000 58 1.000000 0.238000 0.258000 1600 48 1.100000 2.264000 2.574000 600 54 1.000000 0.053000 0.053000 1.200000 0.028000 0.033000
1517296484772818396	1000 58 1.000000 0.239000 0.259000 1600 48 1.100000 2.265000 2.577000 600 54 1.000000 0.053000 0.053000 1.200000 0.028000 0.033000
1517296485277934896	1000 58 1.000000 0.241000 0.261000 1600 48 1.100000 2.301000 2.616000 600 54 1.000000 0.053000 0.053000 1.200000 0.032000 0.038000
1517296485782878313	1000 58 1.000000 0.238000 0.258000 1600 48 1.100000 2.303000 2.618000 600 54 1.000000 0.053000 0.053000 1.200000 0.029000 0.035000
1517296486287846938	1000 58 1.000000 0.239000 0.259000 1600 48 1.100000 2.285000 2.600000 600 54 1.000000 0.053000 0.053000 1.200000 0.028000 0.033000
1517296486792902521	1000 58 1.000000 0.239000 0.259000 1600 48 1.100000 2.292000 2.608000 600 54 1.000000 0.053000 0.053000 1.200000 0.028000 0.033000
1517296487297941938	1000 58 1.000000 0.239000 0.259000 1600 48 1.100000 2.284000 2.596000 600 54 1.000000 0.053000 0.053000 1.200000 0.028000 0.033000
1517296487802970438	1000 58 1.000000 0.249000 0.270000 1600 48 1.100000 2.270000 2.580000 600 54 1.000000 0.053000 0.053000 1.200000 0.028000 0.033000
1517296488307940688	1000 58 1.000000 0.239000 0.259000 1600 48 1.100000 2.269000 2.582000 600 54 1.000000 0.053000 0.053000 1.200000 0.028000 0.033000
1517296488813046688	1000 58 1.000000 0.239000 0.259000 1600 48 1.100000 2.267000 2.579000 600 54 1.000000 0.053000 0.053000 1.200000 0.028000 0.033000
1517296489318283855	1000 58 1.000000 0.238000 0.258000 1600 48 1.100000 2.264000 2.574000 600 54 1.000000 0.053000 0.053000 1.200000 0.028000 0.033000
1517296489823481022	1000 58 1.000000 0.239000 0.259000 1600 48 1.100000 2.267000 2.579000 600 54 1.000000 0.053000 0.053000 1.200000 0.028000 0.033000
1517296490328444188	1000 58 1.000000 0.239000 0.259000 1600 48 1.100000 2.269000 2.582000 600 54 1.000000 0.053000 0.053000 1.200000 0.028000 0.033000
1517296490833597480	1000 58 1.000000 0.239000 0.259000 1600 48 1.100000 2.267000 2.579000 600 54 1.000000 0.053000 0.053000 1.200000 0.030000 0.036000
1517296491338875938	1000 58 1.000000 0.239000 0.259000 1600 48 1.100000 2.276000 2.590000 600 54 1.000000 0.053000 0.053000 1.200000 0.028000 0.033000
1517296491843894022	1000 58 1.000000 0.239000 0.259000 1600 48 1.100000 2.287000 2.600000 600 54 1.000000 0.053000 0.053000 1.200000 0.031000 0.037000
1517296492348867480	1000 58 1.000000 0.239000 0.259000 1600 48 1.100000 2.295000 2.611000 600 54 1.000000 0.053000 0.053000 1.200000 0.029000 0.034000
1517296492853780439	1000 58 1.000000 0.239000 0.259000 1600 48 1.100000 2.271000 2.584000 600 54 1.000000 0.053000 0.053000 1.200000 0.029000 0.034000
1517296493360635939	1000 58 1.000000 0.239000 0.259000 1600 48 1.100000 2.299000 2.613000 600 54 1.000000 0.053000 0.053000 1.200000 0.029000 0.034000
1517296493865747230	1000 58 1.000000 0.239000 0.259000 1600 48 1.100000 2.401000 2.732000 600 54 1.000000 0.053000 0.053000 1.200000 0.033000 0.039000
1517296494370753564	1000 58 1.000000 0.239000 0.259000 1600 48 1.100000 2.302000 2.619000 600 54 1.000000 0.053000 0.053000 1.200000 0.029000 0.034000
1517296494875762189	1000 58 1.000000 0.239000 0.259000 1600 48 1.100000 2.324000 2.644000 600 54 1.000000 0.053000 0.053000 1.200000 0.029000 0.034000
1517296495382256106	1000 58 1.000000 0.239000 0.259000 1600 48 1.100000 2.292000 2.608000 600 54 1.000000 0.053000 0.053000 1.200000 0.029000 0.034000
1517296495887505689	1000 58 1.000000 0.240000 0.260000 1600 48 1.100000 2.413000 2.745000 600 54 1.000000 0.053000 0.053000 1.200000 0.033000 0.039000
1517296496392510189	1000 58 1.000000 0.239000 0.259000 1600 48 1.100000 2.296000 2.612000 600 54 1.000000 0.053000 0.053000 1.200000 0.028000 0.033000
1517296496897581939	1000 58 1.000000 0.239000 0.259000 1600 48 1.100000 2.305000 2.623000 600 54 1.000000 0.053000 0.053000 1.200000 0.029000 0.035000
1517296497402745231	1000 58 1.000000 0.239000 0.259000 1600 48 1.100000 2.285000 2.600000 600 54 1.000000 0.053000 0.053000 1.200000 0.028000 0.033000
1517296497907925647	1000 58 1.000000 0.239000 0.259000 1600 48 1.100000 2.349000 2.673000 600 54 1.000000 0.053000 0.053000 1.200000 0.034000 0.041000
1517296498412952564	1000 58 1.000000 0.239000 0.259000 1600 48 1.100000 2.268000 2.580000 600 54 1.000000 0.053000 0.053000 1.200000 0.028000 0.033000
1517296498917889481	1000 58 1.000000 0.239000 0.259000 1600 48 1.100000 2.287000 2.602000 600 54 1.000000 0.053000 0.053000 1.200000 0.029000 0.035000
1517296499422880314	1000 58 1.000000 0.239000 0.259000 1600 48 1.100000 2.317000 2.634000 600 54 1.000000 0.053000 0.053000 1.200000 0.029000 0.034000
1517296499927907981	1000 58 1.000000 0.240000 0.260000 1600 48 1.100000 2.342000 2.665000 600 54 1.000000 0.053000 0.053000 1.200000 0.032000 0.038000
1517296500432898564	1000 58 1.000000 0.239000 0.259000 1600 48 1.100000 2.313000 2.629000 600 54 1.000000 0.053000 0.053000 1.200000 0.030000 0.036000
1517296500937922606	1000 58 1.000000 0.240000 0.260000 1600 48 1.100000 2.272000 2.583000 600 54 1.000000 0.053000 0.053000 1.200000 0.028000 0.033000
1517296501442832398	1000 58 1.000000 0.239000 0.259000 1600 48 1.100000 2.296000 2.610000 600 54 1.000000 0.053000 0.053000 1.200000 0.031000 0.037000
1517296501947910481	1000 58 1.000000 0.239000 0.259000 1600 48 1.100000 2.357000 2.679000 600 54 1.000000 0.053000 0.053000 1.200000 0.032000 0.038000
1517296502452911731	1000 58 1.000000 0.239000 0.259000 1600 48 1.100000 2.260000 2.569000 600 54 1.000000 0.053000 0.053000 1.200000 0.029000 0.034000
1517296502957801023	1000 58 1.000000 0.239000 0.259000 1600 48 1.100000 2.276000 2.587000 600 54 1.000000 0.053000 0.053000 1.200000 0.029000 0.034000
1517296503462773856	1000 58 1.000000 0.239000 0.259000 1600 48 1.100000 2.261000 2.570000 600 54 1.000000 0.053000 0.053000 1.200000 0.029000 0.034000
1517296503967810232	1000 58 1.000000 0.239000 0.259000 1600 48 1.100000 2.349000 2.670000 600 54 1.000000 0.053000 0.053000 1.200000 0.031000 0.037000
1517296504472823023	1000 58 1.000000 0.239000 0.259000 1600 48 1.100000 2.291000 2.604000 600 54 1.000000 0.053000 0.053000 1.200000 0.030000 0.036000
1517296504977801148	1000 58 1.000000 0.239000 0.259000 1600 48 1.100000 2.292000 2.606000 600 54 1.000000 0.053000 0.053000 1.200000 0.030000 0.036000
1517296505482793107	1000 58 1.000000 0.239000 0.259000 1600 48 1.100000 2.280000 2.592000 600 54 1.000000 0.053000 0.053000 1.200000 0.030000 0.036000
1517296505987920357	1000 58 1.000000 0.239000 0.259000 1600 48 1.100000 2.388000 2.717000 600 54 1.000000 0.053000 0.053000 1.200000 0.032000 0.038000
1517296506492923190	1000 58 1.000000 0.239000 0.259000 1600 48 1.100000 2.270000 2.580000 600 54 1.000000 0.053000 0.053000 1.200000 0.030000 0.036000
1517296506997843690	1000 58 1.000000 0.239000 0.259000 1600 48 1.100000 2.284000 2.596000 600 54 1.000000 0.053000 0.053000 1.200000 0.029000 0.034000
1517296507502842440	1000 58 1.000000 0.239000 0.259000 1600 48 1.100000 2.247000 2.554000 600 54 1.000000 0.053000 0.053000 1.200000 0.030000 0.036000
1517296508007911690	1000 58 1.000000 0.239000 0.259000 1600 48 1.100000 2.357000 2.679000 600 54 1.000000 0.053000 0.053000 1.200000 0.031000 0.037000
1517296508512879857	1000 58 1.000000 0.239000 0.259000 1600 48 1.100000 2.249000 2.557000 600 54 1.000000 0.053000 0.053000 1.200000 0.029000 0.034000
1517296509017834649	1000 58 1.000000 0.239000 0.259000 1600 48 1.100000 2.248000 2.555000 600 54 1.000000 0.053000 0.053000 1.200000 0.029000 0.034000
1517296509522795191	1000 58 1.000000 0.239000 0.259000 1600 48 1.100000 2.245000 2.554000 600 54 1.000000 0.053000 0.053000 1.200000 0.029000 0.035000
1517296510027911732	1000 58 1.000000 0.240000 0.260000 1600 48 1.100000 2.329000 2.650000 600 54 1.000000 0.053000 0.053000 1.200000 0.033000 0.039000
1517296510532935816	1000 58 1.000000 0.239000 0.259000 1600 48 1.100000 2.290000 2.603000 600 54 1.000000 0.053000 0.053000 1.200000 0.030000 0.036000
1517296511037853357	1000 58 1.000000 0.239000 0.259000 1600 48 1.100000 2.276000 2.587000 600 54 1.000000 0.053000 0.053000 1.200000 0.030000 0.036000
1517296511542749191	1000 58 1.000000 0.240000 0.260000 1600 48 1.100000 2.272000 2.583000 600 54 1.000000 0.053000 0.053000 1.200000 0.030000 0.036000
1517296512047794816	1000 58 1.000000 0.239000 0.259000 1600 48 1.100000 2.371000 2.695000 600 54 1.000000 0.053000 0.053000 1.200000 0.033000 0.039000
1517296512552939191	1000 58 1.000000 0.239000 0.259000 1600 48 1.100000 2.282000 2.594000 600 54 1.000000 0.053000 0.053000 1.200000 0.030000 0.036000
1517296513057994149	1000 58 1.000000 0.241000 0.261000 1600 48 1.100000 2.303000 2.618000 600 54 1.000000 0.053000 0.053000 1.200000 0.029000 0.034000
1517296513562962399	1000 58 1.000000 0.239000 0.259000 1600 48 1.100000 2.281000 2.593000 600 54 1.000000 0.053000 0.053000 1.200000 0.029000 0.035000
1517296514068028024	1000 58 1.000000 0.239000 0.259000 1600 48 1.100000 2.363000 2.686000 600 54 1.000000 0.053000 0.053000 1.200000 0.033000 0.039000
1517296514573013108	1000 58 1.000000 0.239000 0.259000 1600 48 1.100000 2.278000 2.590000 600 54 1.000000 0.053000 0.053000 1.200000 0.029000 0.034000
1517296515077940358	1000 58 1.000000 0.239000 0.259000 1600 48 1.100000 2.281000 2.595000 600 54 1.000000 0.053000 0.053000 1.200000 0.029000 0.034000
1517296515582901566	1000 58 1.000000 0.239000 0.259000 1600 48 1.100000 2.280000 2.592000 600 54 1.000000 0.053000 0.053000 1.200000 0.029000 0.035000
1517296516088141983	1000 58 1.000000 0.239000 0.259000 1600 48 1.100000 2.370000 2.697000 600 54 1.000000 0.053000 0.053000 1.200000 0.030000 0.036000
1517296516593174191	1000 58 1.000000 0.239000 0.259000 1600 48 1.100000 2.322000 2.640000 600 54 1.000000 0.053000 0.053000 1.200000 0.030000 0.036000
1517296517098095275	1000 58 1.000000 0.239000 0.259000 1600 48 1.100000 2.299000 2.613000 600 54 1.000000 0.053000 0.053000 1.200000 0.030000 0.036000
1517296517603091941	1000 58 1.000000 0.239000 0.259000 1600 48 1.100000 2.284000 2.596000 600 54 1.000000 0.053000 0.053000 1.200000 0.029000 0.034000
1517296518108148942	1000 58 1.000000 0.239000 0.259000 1600 48 1.100000 2.366000 2.692000 600 54 1.000000 0.053000 0.053000 1.200000 0.032000 0.038000
1517296518613194317	1000 58 1.000000 0.239000 0.259000 1600 48 1.100000 2.280000 2.592000 600 54 1.000000 0.053000 0.053000 1.200000 0.029000 0.035000
1517296519118121567	1000 58 1.000000 0.239000 0.259000 1600 48 1.100000 2.269000 2.579000 600 54 1.000000 0.053000 0.053000 1.200000 0.029000 0.035000
1517296519623027525	1000 58 1.000000 0.239000 0.259000 1600 48 1.100000 2.268000 2.578000 600 54 1.000000 0.053000 0.053000 1.200000 0.029000 0.035000
1517296520128037275	1000 58 1.000000 0.239000 0.259000 1600 48 1.100000 2.360000 2.685000 600 54 1.000000 0.053000 0.053000 1.200000 0.032000 0.038000
1517296520633063109	1000 58 1.000000 0.239000 0.259000 1600 48 1.100000 2.266000 2.576000 600 54 1.000000 0.053000 0.053000 1.200000 0.029000 0.035000
1517296521138010359	1000 58 1.000000 0.239000 0.259000 1600 48 1.100000 2.264000 2.574000 600 54 1.000000 0.053000 0.053000 1.200000 0.030000 0.036000
1517296521642975900	1000 58 1.000000 0.239000 0.259000 1600 48 1.100000 2.267000 2.577000 600 54 1.000000 0.053000 0.053000 1.200000 0.029000 0.035000
1517296522148085942	1000 58 1.000000 0.239000 0.259000 1600 48 1.100000 2.308000 2.626000 600 54 1.000000 0.053000 0.053000 1.200000 0.030000 0.036000
1517296522653064734	1000 58 1.000000 0.239000 0.259000 1600 48 1.100000 2.279000 2.591000 600 54 1.000000 0.053000 0.053000 1.200000 0.028000 0.033000
1517296523157959525	1000 58 1.000000 0.239000 0.259000 1600 48 1.100000 2.281000 2.593000 600 54 1.000000 0.053000 0.053000 1.200000 0.029000 0.035000
1517296523662927651	1000 58 1.000000 0.239000 0.259000 1600 48 1.100000 2.259000 2.568000 600 54 1.000000 0.053000 0.053000 1.200000 0.028000 0.033000
1517296524167946192	1000 58 1.000000 0.238000 0.258000 1600 48 1.100000 2.298000 2.612000 600 54 1.000000 0.053000 0.053000 1.200000 0.030000 0.036000
1517296524672918651	1000 58 1.000000 0.239000 0.259000 1600 48 1.100000 2.260000 2.569000 600 54 1.000000 0.053000 0.053000 1.200000 0.028000 0.033000
1517296525177896526	1000 58 1.000000 0.239000 0.259000 1600 48 1.100000 2.251000 2.561000 600 54 1.000000 0.053000 0.053000 1.200000 0.028000 0.033000
1517296525682863776	1000 58 1.000000 0.239000 0.259000 1600 48 1.100000 2.255000 2.566000 600 54 1.000000 0.053000 0.053000 1.200000 0.028000 0.033000
1517296526187919609	1000 58 1.000000 0.239000 0.259000 1600 48 1.100000 2.346000 2.667000 600 54 1.000000 0.053000 0.053000 1.200000 0.032000 0.038000
1517296526692968276	1000 58 1.000000 0.239000 0.259000 1600 48 1.100000 2.258000 2.567000 600 54 1.000000 0.053000 0.053000 1.200000 0.029000 0.034000
1517296527197926943	1000 58 1.000000 0.239000 0.259000 1600 48 1.100000 2.256000 2.565000 600 54 1.000000 0.053000 0.053000 1.200000 0.028000 0.033000
1517296527702879484	1000 58 1.000000 0.239000 0.259000 1600 48 1.100000 2.259000 2.570000 600 54 1.000000 0.053000 0.053000 1.200000 0.028000 0.033000
1517296528207861234	1000 58 1.000000 0.239000 0.259000 1600 48 1.100000 2.276000 2.590000 600 54 1.000000 0.053000 0.053000 1.200000 0.029000 0.034000
1517296528712881151	1000 58 1.000000 0.239000 0.259000 1600 48 1.100000 2.259000 2.568000 600 54 1.000000 0.053000 0.053000 1.200000 0.028000 0.033000
1517296529217823193	1000 58 1.000000 0.239000 0.259000 1600 48 1.100000 2.258000 2.567000 600 54 1.000000 0.053000 0.053000 1.200000 0.028000 0.033000
1517296529722710651	1000 58 1.000000 0.239000 0.259000 1600 48 1.100000 2.288000 2.601000 600 54 1.000000 0.053000 0.053000 1.200000 0.028000 0.033000
1517296530227719943	1000 58 1.000000 0.239000 0.259000 1600 48 1.100000 2.281000 2.593000 600 54 1.000000 0.053000 0.053000 1.200000 0.029000 0.035000
1517296530732842818	1000 58 1.000000 0.239000 0.259000 1600 48 1.100000 2.352000 2.674000 600 54 1.000000 0.053000 0.053000 1.200000 0.033000 0.039000
1517296531237676276	1000 58 1.000000 0.242000 0.262000 1600 48 1.100000 2.276000 2.587000 600 54 1.000000 0.053000 0.053000 1.200000 0.029000 0.035000
1517296531742571485	1000 58 1.000000 0.239000 0.259000 1600 48 1.100000 2.293000 2.607000 600 54 1.000000 0.053000 0.053000 1.200000 0.030000 0.036000
1517296532247590152	1000 58 1.000000 0.238000 0.258000 1600 48 1.100000 2.261000 2.570000 600 54 1.000000 0.053000 0.053000 1.200000 0.029000 0.035000
1517296532752488027	1000 58 1.000000 0.239000 0.259000 1600 48 1.100000 2.242000 2.549000 600 54 1.000000 0.053000 0.053000 1.200000 0.029000 0.035000
1517296533257576402	1000 58 1.000000 0.239000 0.259000 1600 48 1.100000 2.245000 2.552000 600 54 1.000000 0.053000 0.053000 1.200000 0.029000 0.035000
1517296533762886985	1000 58 1.000000 0.239000 0.259000 1600 48 1.100000 2.236000 2.542000 600 54 1.000000 0.053000 0.053000 1.200000 0.029000 0.035000
1517296534267819110	1000 58 1.000000 0.239000 0.259000 1600 48 1.100000 2.272000 2.583000 600 54 1.000000 0.053000 0.053000 1.200000 0.030000 0.036000
1517296534772848735	1000 58 1.000000 0.239000 0.259000 1600 48 1.100000 2.328000 2.649000 600 54 1.000000 0.053000 0.053000 1.200000 0.033000 0.039000
1517296535277730402	1000 58 1.000000 0.239000 0.259000 1600 48 1.100000 2.252000 2.560000 600 54 1.000000 0.053000 0.053000 1.200000 0.030000 0.036000
1517296535782723735	1000 58 1.000000 0.239000 0.259000 1600 48 1.100000 2.277000 2.588000 600 54 1.000000 0.053000 0.053000 1.200000 0.029000 0.034000
1517296536287793652	1000 58 1.000000 0.239000 0.259000 1600 48 1.100000 2.244000 2.551000 600 54 1.000000 0.053000 0.053000 1.200000 0.030000 0.036000
1517296536792659527	1000 58 1.000000 0.239000 0.259000 1600 48 1.100000 2.359000 2.682000 600 54 1.000000 0.053000 0.053000 1.200000 0.033000 0.039000
1517296537297613735	1000 58 1.000000 0.239000 0.259000 1600 48 1.100000 2.236000 2.542000 600 54 1.000000 0.053000 0.053000 1.200000 0.029000 0.034000
1517296537802588319	1000 58 1.000000 0.239000 0.259000 1600 48 1.100000 2.272000 2.583000 600 54 1.000000 0.053000 0.053000 1.200000 0.029000 0.034000
1517296538307616444	1000 58 1.000000 0.239000 0.259000 1600 48 1.100000 2.247000 2.554000 600 54 1.000000 0.053000 0.053000 1.200000 0.029000 0.034000
1517296538812589486	1000 58 1.000000 0.238000 0.258000 1600 48 1.100000 2.229000 2.534000 600 54 1.000000 0.053000 0.053000 1.200000 0.029000 0.035000
1517296539317635527	1000 58 1.000000 0.239000 0.259000 1600 48 1.100000 2.225000 2.529000 600 54 1.000000 0.053000 0.053000 1.200000 0.028000 0.033000
1517296539822541777	1000 58 1.000000 0.239000 0.259000 1600 48 1.100000 2.239000 2.545000 600 54 1.000000 0.053000 0.053000 1.200000 0.030000 0.036000
1517296540327619944	1000 58 1.000000 0.239000 0.259000 1600 48 1.100000 2.273000 2.584000 600 54 1.000000 0.053000 0.053000 1.200000 0.029000 0.034000
1517296540832601361	1000 58 1.000000 0.241000 0.261000 1600 48 1.100000 2.335000 2.654000 600 54 1.000000 0.053000 0.053000 1.200000 0.033000 0.039000
1517296541337662069	1000 58 1.000000 0.238000 0.258000 1600 48 1.100000 2.254000 2.562000 600 54 1.000000 0.053000 0.053000 1.200000 0.029000 0.035000
1517296541842571361	1000 58 1.000000 0.239000 0.259000 1600 48 1.100000 2.257000 2.566000 600 54 1.000000 0.053000 0.053000 1.200000 0.029000 0.035000
1517296542347698944	1000 58 1.000000 0.238000 0.258000 1600 48 1.100000 2.262000 2.571000 600 54 1.000000 0.053000 0.053000 1.200000 0.027000 0.032000
1517296542852628111	1000 58 1.000000 0.241000 0.261000 1600 48 1.100000 2.340000 2.662000 600 54 1.000000 0.053000 0.053000 1.200000 0.030000 0.036000
1517296543357713278	1000 58 1.000000 0.239000 0.259000 1600 48 1.100000 2.267000 2.577000 600 54 1.000000 0.053000 0.053000 1.200000 0.026000 0.031000
1517296543862640945	1000 58 1.000000 0.239000 0.259000 1600 48 1.100000 2.231000 2.538000 600 54 1.000000 0.053000 0.053000 1.200000 0.026000 0.031000
1517296544368606570	1000 58 1.000000 0.239000 0.259000 1600 48 1.100000 2.227000 2.532000 600 54 1.000000 0.053000 0.053000 1.200000 0.025000 0.030000
1517296544873803986	1000 58 1.000000 0.239000 0.259000 1600 48 1.100000 2.259000 2.568000 600 54 1.000000 0.053000 0.053000 1.200000 0.025000 0.030000
1517296545378709445	1000 58 1.000000 0.239000 0.259000 1600 48 1.100000 2.256000 2.565000 600 54 1.000000 0.053000 0.053000 1.200000 0.025000 0.030000
1517296545883575945	1000 58 1.000000 0.239000 0.259000 1600 48 1.100000 2.290000 2.603000 600 54 1.000000 0.053000 0.053000 1.200000 0.026000 0.031000
1517296546389078362	1000 58 1.000000 0.239000 0.259000 1600 48 1.100000 2.272000 2.585000 600 54 1.000000 0.053000 0.053000 1.200000 0.026000 0.031000
1517296546894256112	1000 58 1.000000 0.248000 0.269000 1600 48 1.100000 2.361000 2.684000 600 54 1.000000 0.053000 0.053000 1.200000 0.030000 0.036000
1517296547399275403	1000 58 1.000000 0.239000 0.259000 1600 48 1.100000 2.278000 2.590000 600 54 1.000000 0.053000 0.053000 1.200000 0.026000 0.031000
1517296547905786195	1000 58 1.000000 0.239000 0.259000 1600 48 1.100000 2.290000 2.603000 600 54 1.000000 0.053000 0.053000 1.200000 0.025000 0.030000
1517296548410679403	1000 58 1.000000 0.239000 0.259000 1600 48 1.100000 2.285000 2.598000 600 54 1.000000 0.053000 0.053000 1.200000 0.027000 0.032000
1517296548915764112	1000 58 1.000000 0.239000 0.259000 1600 48 1.100000 2.360000 2.685000 600 54 1.000000 0.053000 0.053000 1.200000 0.028000 0.033000
1517296549420851154	1000 58 1.000000 0.239000 0.259000 1600 48 1.100000 2.256000 2.565000 600 54 1.000000 0.053000 0.053000 1.200000 0.025000 0.030000
1517296549925808195	1000 58 1.000000 0.239000 0.259000 1600 48 1.100000 2.253000 2.561000 600 54 1.000000 0.053000 0.053000 1.200000 0.025000 0.030000
1517296550430780695	1000 58 1.000000 0.239000 0.259000 1600 48 1.100000 2.247000 2.554000 600 54 1.000000 0.053000 0.053000 1.200000 0.025000 0.030000
1517296550935756862	1000 58 1.000000 0.239000 0.259000 1600 48 1.100000 2.238000 2.544000 600 54 1.000000 0.053000 0.053000 1.200000 0.025000 0.030000
1517296551440723071	1000 58 1.000000 0.239000 0.259000 1600 48 1.100000 2.227000 2.532000 600 54 1.000000 0.053000 0.053000 1.200000 0.026000 0.031000
1517296551945729987	1000 58 1.000000 0.239000 0.259000 1600 48 1.100000 2.270000 2.580000 600 54 1.000000 0.053000 0.053000 1.200000 0.026000 0.031000
1517296552450683779	1000 58 1.000000 0.239000 0.259000 1600 48 1.100000 2.255000 2.563000 600 54 1.000000 0.053000 0.053000 1.200000 0.026000 0.031000
1517296552955599571	1000 57 1.000000 0.239000 0.259000 1600 48 1.100000 2.340000 2.660000 600 54 1.000000 0.053000 0.053000 1.200000 0.029000 0.034000
1517296553460641112	1000 57 1.000000 0.239000 0.259000 1600 48 1.100000 2.256000 2.565000 600 54 1.000000 0.053000 0.053000 1.200000 0.027000 0.032000
1517296553965663612	1000 58 1.000000 0.239000 0.259000 1600 48 1.100000 2.255000 2.563000 600 54 1.000000 0.053000 0.053000 1.200000 0.025000 0.030000
1517296554470643488	1000 58 1.000000 0.239000 0.259000 1600 48 1.100000 2.236000 2.542000 600 54 1.000000 0.053000 0.053000 1.200000 0.025000 0.030000
1517296554975681071	1000 58 1.000000 0.239000 0.259000 1600 48 1.100000 2.316000 2.633000 600 54 1.000000 0.053000 0.053000 1.200000 0.030000 0.036000
1517296555480635738	1000 58 1.000000 0.239000 0.259000 1600 48 1.100000 2.228000 2.533000 600 54 1.000000 0.053000 0.053000 1.200000 0.025000 0.030000
1517296555985626029	1000 57 1.000000 0.239000 0.259000 1600 48 1.100000 2.230000 2.535000 600 54 1.000000 0.053000 0.053000 1.200000 0.025000 0.030000
1517296556490543613	1000 57 1.000000 0.239000 0.259000 1600 48 1.100000 2.233000 2.538000 600 54 1.000000 0.053000 0.053000 1.200000 0.025000 0.030000
1517296556995515280	1000 58 1.000000 0.239000 0.259000 1600 48 1.100000 2.230000 2.535000 600 54 1.000000 0.053000 0.053000 1.200000 0.026000 0.031000
1517296557500478405	1000 57 1.000000 0.240000 0.260000 1600 48 1.100000 2.254000 2.562000 600 54 1.000000 0.053000 0.053000 1.200000 0.025000 0.030000
1517296558005540321	1000 57 1.000000 0.239000 0.259000 1600 48 1.100000 2.279000 2.591000 600 54 1.000000 0.053000 0.053000 1.200000 0.027000 0.032000
1517296558510423280	1000 57 1.000000 0.240000 0.260000 1600 48 1.100000 2.245000 2.552000 600 54 1.000000 0.053000 0.053000 1.200000 0.026000 0.031000
1517296559015426530	1000 58 1.000000 0.239000 0.259000 1600 48 1.100000 2.350000 2.671000 600 54 1.000000 0.053000 0.053000 1.200000 0.031000 0.037000
1517296559520436238	1000 58 1.000000 0.239000 0.259000 1600 48 1.100000 2.230000 2.535000 600 54 1.000000 0.053000 0.053000 1.200000 0.025000 0.030000
1517296560025540988	1000 58 1.000000 0.239000 0.259000 1600 48 1.100000 2.231000 2.536000 600 54 1.000000 0.053000 0.053000 1.200000 0.025000 0.030000
1517296560530481697	1000 57 1.000000 0.239000 0.259000 1600 48 1.100000 2.238000 2.544000 600 54 1.000000 0.053000 0.053000 1.200000 0.025000 0.030000
1517296561035571322	1000 57 1.000000 0.239000 0.259000 1600 48 1.100000 2.328000 2.646000 600 54 1.000000 0.053000 0.053000 1.200000 0.029000 0.035000
1517296561540468613	1000 58 1.000000 0.239000 0.259000 1600 48 1.100000 2.238000 2.544000 600 55 1.000000 0.053000 0.053000 1.200000 0.025000 0.030000
1517296562045453613	1000 58 1.000000 0.239000 0.259000 1600 48 1.100000 2.234000 2.540000 600 54 1.000000 0.053000 0.053000 1.200000 0.027000 0.032000
1517296562550330947	1000 57 1.000000 0.239000 0.259000 1600 48 1.100000 2.241000 2.548000 600 54 1.000000 0.053000 0.053000 1.200000 0.027000 0.032000
1517296563055239572	1000 58 1.000000 0.239000 0.259000 1600 48 1.100000 2.253000 2.561000 600 55 1.000000 0.053000 0.053000 1.200000 0.028000 0.033000
1517296563560162614	1000 58 1.000000 0.239000 0.259000 1600 48 1.100000 2.268000 2.578000 600 54 1.000000 0.053000 0.053000 1.200000 0.030000 0.036000
1517296564065170239	1000 58 1.000000 0.238000 0.258000 1600 48 1.100000 2.275000 2.586000 600 54 1.000000 0.053000 0.053000 1.200000 0.029000 0.035000
1517296564570021280	1000 58 1.000000 0.239000 0.259000 1600 48 1.100000 2.254000 2.562000 600 55 1.000000 0.053000 0.053000 1.200000 0.029000 0.035000
1517296565074975114	1000 58 1.000000 0.239000 0.259000 1600 48 1.100000 2.340000 2.662000 600 55 1.000000 0.053000 0.053000 1.200000 0.031000 0.037000
1517296565579887156	1000 58 1.000000 0.239000 0.259000 1600 48 1.100000 2.257000 2.566000 600 54 1.000000 0.053000 0.053000 1.200000 0.029000 0.035000
1517296566084883156	1000 58 1.000000 0.239000 0.259000 1600 48 1.100000 2.256000 2.565000 600 55 1.000000 0.053000 0.053000 1.200000 0.029000 0.034000
1517296566589846031	1000 58 1.000000 0.239000 0.259000 1600 48 1.100000 2.290000 2.603000 600 54 1.000000 0.053000 0.053000 1.200000 0.029000 0.035000
1517296567094816614	1000 58 1.000000 0.239000 0.259000 1600 48 1.100000 2.272000 2.583000 600 55 1.000000 0.053000 0.053000 1.200000 0.031000 0.037000
1517296567599662156	1000 58 1.000000 0.239000 0.259000 1600 48 1.100000 2.296000 2.610000 600 54 1.000000 0.053000 0.053000 1.200000 0.029000 0.035000
1517296568104696906	1000 58 1.000000 0.239000 0.259000 1600 48 1.100000 2.279000 2.591000 600 54 1.000000 0.053000 0.053000 1.200000 0.029000 0.035000
1517296568610015364	1000 58 1.000000 0.241000 0.261000 1600 48 1.100000 2.276000 2.587000 600 54 1.000000 0.053000 0.053000 1.200000 0.028000 0.033000
1517296569115714114	1000 58 1.000000 0.239000 0.259000 1600 48 1.100000 2.252000 2.560000 600 54 1.000000 0.053000 0.053000 1.200000 0.030000 0.036000
1517296569622464614	1000 58 1.000000 0.239000 0.259000 1600 48 1.100000 2.319000 2.636000 600 54 1.000000 0.053000 0.053000 1.200000 0.031000 0.037000
1517296570127686114	1000 58 1.000000 0.239000 0.259000 1600 48 1.100000 2.278000 2.590000 600 54 1.000000 0.053000 0.053000 1.200000 0.030000 0.036000
1517296570632997739	1000 58 1.000000 0.239000 0.259000 1600 48 1.100000 2.294000 2.608000 600 54 1.000000 0.053000 0.053000 1.200000 0.029000 0.035000
1517296571139647323	1000 58 1.000000 0.239000 0.259000 1600 48 1.100000 2.290000 2.603000 600 54 1.000000 0.053000 0.053000 1.200000 0.030000 0.036000
1517296571644978698	1000 58 1.000000 0.239000 0.259000 1600 48 1.100000 2.286000 2.599000 600 54 1.000000 0.053000 0.053000 1.200000 0.030000 0.036000
1517296572150244156	1000 58 1.000000 0.239000 0.259000 1600 48 1.100000 2.293000 2.607000 600 54 1.000000 0.053000 0.053000 1.200000 0.030000 0.036000
1517296572655765990	1000 58 1.000000 0.239000 0.259000 1600 48 1.100000 2.301000 2.616000 600 54 1.000000 0.053000 0.053000 1.200000 0.029000 0.034000
1517296573162641281	1000 58 1.000000 0.239000 0.259000 1600 48 1.100000 2.278000 2.590000 600 54 1.000000 0.053000 0.053000 1.200000 0.030000 0.036000
1517296573667913740	1000 58 1.000000 0.239000 0.259000 1600 48 1.100000 2.303000 2.618000 600 54 1.000000 0.053000 0.053000 1.200000 0.029000 0.034000
1517296574173256907	1000 58 1.000000 0.239000 0.259000 1600 48 1.100000 2.275000 2.586000 600 54 1.000000 0.053000 0.053000 1.200000 0.030000 0.036000
1517296574678410490	1000 58 1.000000 0.240000 0.260000 1600 48 1.100000 2.268000 2.578000 600 54 1.000000 0.053000 0.053000 1.200000 0.029000 0.035000
1517296575183633490	1000 58 1.000000 0.239000 0.259000 1600 48 1.100000 2.287000 2.600000 600 55 1.000000 0.053000 0.053000 1.200000 0.029000 0.034000
1517296575688917948	1000 58 1.000000 0.239000 0.259000 1600 48 1.100000 2.336000 2.656000 600 54 1.000000 0.053000 0.053000 1.200000 0.034000 0.041000
1517296576194096990	1000 58 1.000000 0.239000 0.259000 1600 48 1.100000 2.288000 2.601000 600 54 1.000000 0.053000 0.053000 1.200000 0.030000 0.036000
1517296576699203324	1000 58 1.000000 0.238000 0.258000 1600 48 1.100000 2.261000 2.570000 600 54 1.000000 0.053000 0.053000 1.200000 0.030000 0.036000
1517296577204477865	1000 58 1.000000 0.239000 0.259000 1600 48 1.100000 2.276000 2.587000 600 54 1.000000 0.053000 0.053000 1.200000 0.029000 0.035000
1517296577709517157	1000 58 1.000000 0.239000 0.259000 1600 48 1.100000 2.248000 2.555000 600 54 1.000000 0.053000 0.053000 1.200000 0.030000 0.036000
1517296578214555824	1000 58 1.000000 0.238000 0.258000 1600 48 1.100000 2.266000 2.576000 600 54 1.000000 0.053000 0.053000 1.200000 0.029000 0.035000
1517296578719421324	1000 58 1.000000 0.239000 0.259000 1600 48 1.100000 2.265000 2.575000 600 54 1.000000 0.053000 0.053000 1.200000 0.030000 0.036000
1517296579224510532	1000 58 1.000000 0.239000 0.259000 1600 48 1.100000 2.257000 2.566000 600 54 1.000000 0.053000 0.053000 1.200000 0.030000 0.036000
1517296579729578824	1000 58 1.000000 0.238000 0.258000 1600 48 1.100000 2.235000 2.541000 600 54 1.000000 0.053000 0.053000 1.200000 0.030000 0.036000
1517296580234460949	1000 58 1.000000 0.239000 0.259000 1600 48 1.100000 2.234000 2.540000 600 54 1.000000 0.053000 0.053000 1.200000 0.029000 0.035000
1517296580739281116	1000 57 1.000000 0.238000 0.258000 1600 48 1.100000 2.233000 2.538000 600 54 1.000000 0.053000 0.053000 1.200000 0.029000 0.035000
1517296581244300991	1000 58 1.000000 0.238000 0.258000 1600 48 1.100000 2.266000 2.576000 600 54 1.000000 0.053000 0.053000 1.200000 0.029000 0.035000
1517296581749443991	1000 58 1.000000 0.239000 0.259000 1600 48 1.100000 2.324000 2.644000 600 54 1.000000 0.053000 0.053000 1.200000 0.032000 0.038000
1517296582254253616	1000 58 1.000000 0.238000 0.258000 1600 48 1.100000 2.276000 2.587000 600 54 1.000000 0.053000 0.053000 1.200000 0.029000 0.035000
1517296582759163574	1000 58 1.000000 0.239000 0.259000 1600 48 1.100000 2.253000 2.561000 600 54 1.000000 0.053000 0.053000 1.200000 0.029000 0.035000
1517296583264159283	1000 58 1.000000 0.239000 0.259000 1600 48 1.100000 2.300000 2.615000 600 55 1.000000 0.053000 0.053000 1.200000 0.028000 0.033000
1517296583769127824	1000 58 1.000000 0.239000 0.259000 1600 48 1.100000 2.293000 2.607000 600 54 1.000000 0.053000 0.053000 1.200000 0.029000 0.035000
1517296584273952241	1000 58 1.000000 0.239000 0.259000 1600 48 1.100000 2.290000 2.603000 600 54 1.000000 0.053000 0.053000 1.200000 0.027000 0.032000
1517296584778832741	1000 58 1.000000 0.239000 0.259000 1600 48 1.100000 2.263000 2.573000 600 54 1.000000 0.053000 0.053000 1.200000 0.027000 0.032000
1517296585283737450	1000 58 1.000000 0.240000 0.260000 1600 48 1.100000 2.262000 2.571000 600 54 1.000000 0.053000 0.053000 1.200000 0.026000 0.031000
1517296585788637700	1000 58 1.000000 0.240000 0.260000 1600 48 1.100000 2.263000 2.573000 600 54 1.000000 0.053000 0.053000 1.200000 0.026000 0.031000
1517296586293673866	1000 58 1.000000 0.239000 0.259000 1600 48 1.100000 2.258000 2.567000 600 54 1.000000 0.053000 0.053000 1.200000 0.026000 0.031000
1517296586798488450	1000 58 1.000000 0.240000 0.260000 1600 48 1.100000 2.255000 2.563000 600 54 1.000000 0.053000 0.053000 1.200000 0.026000 0.031000
1517296587303356866	1000 58 1.000000 0.240000 0.260000 1600 48 1.100000 2.290000 2.603000 600 55 1.000000 0.053000 0.053000 1.200000 0.027000 0.032000
1517296587808270867	1000 58 1.000000 0.240000 0.260000 1600 48 1.100000 2.357000 2.679000 600 55 1.000000 0.053000 0.053000 1.200000 0.030000 0.036000
1517296588313291075	1000 58 1.000000 0.240000 0.260000 1600 48 1.100000 2.290000 2.603000 600 54 1.000000 0.053000 0.053000 1.200000 0.027000 0.032000
1517296588818102992	1000 58 1.000000 0.240000 0.260000 1600 48 1.100000 2.284000 2.596000 600 54 1.000000 0.053000 0.053000 1.200000 0.026000 0.031000
1517296589323132117	1000 58 1.000000 0.240000 0.260000 1600 48 1.100000 2.266000 2.576000 600 55 1.000000 0.053000 0.053000 1.200000 0.026000 0.031000
1517296589827999367	1000 58 1.000000 0.240000 0.260000 1600 48 1.100000 2.212000 2.515000 600 54 1.000000 0.053000 0.053000 1.200000 0.027000 0.032000
1517296590332909492	1000 57 1.000000 0.239000 0.259000 1600 48 1.100000 2.217000 2.520000 600 54 1.000000 0.053000 0.053000 1.200000 0.026000 0.031000
1517296590837794867	1000 58 1.000000 0.239000 0.259000 1600 48 1.100000 2.222000 2.526000 600 54 1.000000 0.053000 0.053000 1.200000 0.026000 0.031000
1517296591343101034	1000 57 1.000000 0.239000 0.259000 1600 48 1.100000 2.222000 2.526000 600 55 1.000000 0.053000 0.053000 1.200000 0.026000 0.031000
1517296591848023075	1000 57 1.000000 0.239000 0.259000 1600 48 1.100000 2.220000 2.524000 600 54 1.000000 0.053000 0.053000 1.200000 0.026000 0.031000
1517296592352970784	1000 57 1.000000 0.239000 0.259000 1600 48 1.100000 2.222000 2.526000 600 54 1.000000 0.053000 0.053000 1.200000 0.026000 0.031000
1517296592858409409	1000 57 1.000000 0.239000 0.259000 1600 48 1.100000 2.258000 2.567000 600 54 1.000000 0.053000 0.053000 1.200000 0.027000 0.032000
1517296593363987117	1000 57 1.000000 0.240000 0.260000 1600 48 1.100000 2.248000 2.555000 600 55 1.000000 0.053000 0.053000 1.200000 0.028000 0.033000
1517296593869414076	1000 57 1.000000 0.240000 0.260000 1600 48 1.100000 2.336000 2.658000 600 54 1.000000 0.053000 0.053000 1.200000 0.032000 0.038000
1517296594374720534	1000 57 1.000000 0.239000 0.259000 1600 48 1.100000 2.245000 2.552000 600 54 1.000000 0.053000 0.053000 1.200000 0.027000 0.032000
1517296594880021576	1000 57 1.000000 0.239000 0.259000 1600 48 1.100000 2.225000 2.529000 600 54 1.000000 0.053000 0.053000 1.200000 0.027000 0.032000
1517296595385351326	1000 57 1.000000 0.240000 0.260000 1600 48 1.100000 2.222000 2.526000 600 54 1.000000 0.053000 0.053000 1.200000 0.027000 0.032000
1517296595890708492	1000 57 1.000000 0.252000 0.273000 1600 48 1.100000 2.258000 2.567000 600 54 1.000000 0.053000 0.053000 1.200000 0.028000 0.033000
1517296596396048743	1000 57 1.000000 0.240000 0.260000 1600 48 1.100000 2.256000 2.565000 600 54 1.000000 0.053000 0.053000 1.200000 0.026000 0.031000
1517296596901226034	1000 57 1.000000 0.239000 0.259000 1600 48 1.100000 2.259000 2.568000 600 54 1.000000 0.053000 0.053000 1.200000 0.026000 0.031000
1517296597406242868	1000 58 1.000000 0.239000 0.259000 1600 48 1.100000 2.262000 2.571000 600 54 1.000000 0.053000 0.053000 1.200000 0.026000 0.031000
1517296597911336784	1000 58 1.000000 0.240000 0.260000 1600 48 1.100000 2.258000 2.567000 600 54 1.000000 0.053000 0.053000 1.200000 0.026000 0.031000
1517296598416298493	1000 58 1.000000 0.240000 0.260000 1600 48 1.100000 2.270000 2.580000 600 54 1.000000 0.053000 0.053000 1.200000 0.026000 0.031000
1517296598921340660	1000 58 1.000000 0.239000 0.259000 1600 48 1.100000 2.301000 2.616000 600 54 1.000000 0.053000 0.053000 1.200000 0.027000 0.032000
1517296599426558368	1000 58 1.000000 0.239000 0.259000 1600 48 1.100000 2.301000 2.616000 600 54 1.000000 0.053000 0.053000 1.200000 0.026000 0.031000
1517296599931703785	1000 58 1.000000 0.240000 0.260000 1600 48 1.100000 2.363000 2.689000 600 54 1.000000 0.053000 0.053000 1.200000 0.032000 0.038000
1517296600436659951	1000 58 1.000000 0.240000 0.260000 1600 48 1.100000 2.275000 2.586000 600 54 1.000000 0.053000 0.053000 1.200000 0.027000 0.032000
1517296600941798076	1000 58 1.000000 0.239000 0.259000 1600 48 1.100000 2.278000 2.590000 600 54 1.000000 0.053000 0.053000 1.200000 0.026000 0.031000
1517296601446716285	1000 58 1.000000 0.240000 0.260000 1600 48 1.100000 2.279000 2.591000 600 54 1.000000 0.053000 0.053000 1.200000 0.026000 0.031000
1517296601952017743	1000 58 1.000000 0.241000 0.261000 1600 48 1.100000 2.268000 2.578000 600 54 1.000000 0.053000 0.053000 1.200000 0.029000 0.035000
1517296602457258785	1000 58 1.000000 0.240000 0.260000 1600 48 1.100000 2.262000 2.571000 600 54 1.000000 0.053000 0.053000 1.200000 0.026000 0.031000
1517296602962432077	1000 58 1.000000 0.239000 0.259000 1600 48 1.100000 2.282000 2.594000 600 54 1.000000 0.053000 0.053000 1.200000 0.026000 0.031000
1517296603467299577	1000 58 1.000000 0.239000 0.259000 1600 48 1.100000 2.296000 2.612000 600 54 1.000000 0.053000 0.053000 1.200000 0.026000 0.031000
1517296603972578910	1000 58 1.000000 0.239000 0.259000 1600 48 1.100000 2.363000 2.689000 600 54 1.000000 0.053000 0.053000 1.200000 0.026000 0.031000
1517296604477851577	1000 58 1.000000 0.239000 0.259000 1600 48 1.100000 2.296000 2.610000 600 54 1.000000 0.053000 0.053000 1.200000 0.026000 0.031000
1517296604983026660	1000 58 1.000000 0.239000 0.259000 1600 48 1.100000 2.289000 2.602000 600 54 1.000000 0.053000 0.053000 1.200000 0.027000 0.032000
1517296605487970785	1000 58 1.000000 0.239000 0.259000 1600 48 1.100000 2.283000 2.595000 600 54 1.000000 0.053000 0.053000 1.200000 0.027000 0.032000
1517296605993300785	1000 58 1.000000 0.238000 0.258000 1600 48 1.100000 2.293000 2.607000 600 54 1.000000 0.053000 0.053000 1.200000 0.030000 0.036000
1517296606498323827	1000 58 1.000000 0.238000 0.258000 1600 48 1.100000 2.287000 2.600000 600 54 1.000000 0.053000 0.053000 1.200000 0.026000 0.031000
1517296607003263869	1000 58 1.000000 0.238000 0.258000 1600 48 1.100000 2.296000 2.610000 600 54 1.000000 0.053000 0.053000 1.200000 0.026000 0.031000
1517296607509668661	1000 58 1.000000 0.239000 0.259000 1600 48 1.100000 2.288000 2.601000 600 54 1.000000 0.053000 0.053000 1.200000 0.026000 0.031000
1517296608014721536	1000 58 1.000000 0.240000 0.260000 1600 48 1.100000 2.356000 2.681000 600 55 1.000000 0.053000 0.053000 1.200000 0.030000 0.036000
1517296608519751619	1000 58 1.000000 0.239000 0.259000 1600 48 1.100000 2.291000 2.604000 600 54 1.000000 0.053000 0.053000 1.200000 0.027000 0.032000
1517296609024702994	1000 58 1.000000 0.238000 0.258000 1600 48 1.100000 2.290000 2.603000 600 54 1.000000 0.053000 0.053000 1.200000 0.027000 0.032000
1517296609529686786	1000 57 1.000000 0.238000 0.258000 1600 48 1.100000 2.288000 2.601000 600 54 1.000000 0.053000 0.053000 1.200000 0.027000 0.032000
1517296610034665119	1000 57 1.000000 0.239000 0.259000 1600 48 1.100000 2.346000 2.667000 600 54 1.000000 0.053000 0.053000 1.200000 0.031000 0.037000
1517296610539626828	1000 58 1.000000 0.238000 0.258000 1600 48 1.100000 2.259000 2.568000 600 54 1.000000 0.053000 0.053000 1.200000 0.028000 0.033000
1517296611044556203	1000 58 1.000000 0.238000 0.258000 1600 48 1.100000 2.288000 2.601000 600 54 1.000000 0.053000 0.053000 1.200000 0.027000 0.032000
1517296611549553369	1000 57 1.000000 0.238000 0.258000 1600 48 1.100000 2.283000 2.595000 600 54 1.000000 0.053000 0.053000 1.200000 0.027000 0.032000
1517296612054481953	1000 58 1.000000 0.238000 0.258000 1600 48 1.100000 2.285000 2.598000 600 54 1.000000 0.053000 0.053000 1.200000 0.027000 0.032000
1517296612559394036	1000 58 1.000000 0.238000 0.258000 1600 48 1.100000 2.279000 2.591000 600 54 1.000000 0.053000 0.053000 1.200000 0.027000 0.032000
1517296613064358786	1000 57 1.000000 0.238000 0.258000 1600 48 1.100000 2.283000 2.595000 600 54 1.000000 0.053000 0.053000 1.200000 0.027000 0.032000
1517296613569428578	1000 58 1.000000 0.238000 0.258000 1600 48 1.100000 2.290000 2.603000 600 54 1.000000 0.053000 0.053000 1.200000 0.027000 0.032000
1517296614074685661	1000 58 1.000000 0.239000 0.259000 1600 48 1.100000 2.334000 2.653000 600 54 1.000000 0.053000 0.053000 1.200000 0.027000 0.032000
1517296614579702286	1000 58 1.000000 0.239000 0.259000 1600 48 1.100000 2.279000 2.591000 600 54 1.000000 0.053000 0.053000 1.200000 0.027000 0.032000
1517296615084706203	1000 58 1.000000 0.238000 0.258000 1600 48 1.100000 2.270000 2.580000 600 54 1.000000 0.053000 0.053000 1.200000 0.027000 0.032000
1517296615589713286	1000 58 1.000000 0.238000 0.258000 1600 48 1.100000 2.267000 2.577000 600 54 1.000000 0.053000 0.053000 1.200000 0.027000 0.032000
1517296616094831912	1000 58 1.000000 0.240000 0.260000 1600 48 1.100000 2.353000 2.677000 600 54 1.000000 0.053000 0.053000 1.200000 0.029000 0.034000
1517296616599920078	1000 58 1.000000 0.239000 0.259000 1600 48 1.100000 2.292000 2.606000 600 54 1.000000 0.053000 0.053000 1.200000 0.027000 0.032000
1517296617105010662	1000 58 1.000000 0.238000 0.258000 1600 48 1.100000 2.298000 2.615000 600 54 1.000000 0.053000 0.053000 1.200000 0.027000 0.032000
1517296617609970828	1000 58 1.000000 0.238000 0.258000 1600 48 1.100000 2.288000 2.603000 600 54 1.000000 0.053000 0.053000 1.200000 0.027000 0.032000
1517296618115192495	1000 58 1.000000 0.239000 0.259000 1600 48 1.100000 2.299000 2.616000 600 54 1.000000 0.053000 0.053000 1.200000 0.026000 0.031000
1517296618620184037	1000 58 1.000000 0.239000 0.259000 1600 48 1.100000 2.293000 2.607000 600 54 1.000000 0.053000 0.053000 1.200000 0.028000 0.033000
1517296619125236329	1000 58 1.000000 0.238000 0.258000 1600 48 1.100000 2.288000 2.601000 600 54 1.000000 0.053000 0.053000 1.200000 0.027000 0.032000
1517296619630382079	1000 58 1.000000 0.238000 0.258000 1600 48 1.100000 2.297000 2.611000 600 54 1.000000 0.053000 0.053000 1.200000 0.027000 0.032000
1517296620135643662	1000 58 1.000000 0.239000 0.259000 1600 48 1.100000 2.315000 2.632000 600 54 1.000000 0.053000 0.053000 1.200000 0.027000 0.032000
1517296620640823079	1000 58 1.000000 0.239000 0.259000 1600 48 1.100000 2.267000 2.577000 600 54 1.000000 0.053000 0.053000 1.200000 0.027000 0.032000
1517296621145796329	1000 58 1.000000 0.238000 0.258000 1600 48 1.100000 2.264000 2.574000 600 55 1.000000 0.053000 0.053000 1.200000 0.026000 0.031000
1517296621651061829	1000 58 1.000000 0.238000 0.258000 1600 48 1.100000 2.269000 2.579000 600 54 1.000000 0.053000 0.053000 1.200000 0.026000 0.031000
1517296622156452912	1000 58 1.000000 0.240000 0.260000 1600 48 1.100000 2.346000 2.669000 600 54 1.000000 0.053000 0.053000 1.200000 0.030000 0.036000
1517296622662422746	1000 58 1.000000 0.239000 0.259000 1600 48 1.100000 2.294000 2.608000 600 54 1.000000 0.053000 0.053000 1.200000 0.028000 0.033000
1517296623168223954	1000 58 1.000000 0.239000 0.259000 1600 48 1.100000 2.304000 2.619000 600 54 1.000000 0.053000 0.053000 1.200000 0.028000 0.033000
1517296623673810371	1000 58 1.000000 0.239000 0.259000 1600 48 1.100000 2.285000 2.598000 600 54 1.000000 0.053000 0.053000 1.200000 0.026000 0.031000
1517296624181993204	1000 58 1.000000 0.239000 0.259000 1600 48 1.100000 2.291000 2.604000 600 54 1.000000 0.053000 0.053000 1.200000 0.028000 0.033000
1517296624687923288	1000 58 1.000000 0.240000 0.260000 1600 48 1.100000 2.290000 2.603000 600 54 1.000000 0.053000 0.053000 1.200000 0.027000 0.032000
1517296625193229913	1000 58 1.000000 0.239000 0.259000 1600 48 1.100000 2.293000 2.607000 600 54 1.000000 0.053000 0.053000 1.200000 0.026000 0.031000
1517296625698448621	1000 58 1.000000 0.239000 0.259000 1600 48 1.100000 2.263000 2.573000 600 54 1.000000 0.053000 0.053000 1.200000 0.026000 0.031000
1517296626204200788	1000 58 1.000000 0.239000 0.259000 1600 48 1.100000 2.269000 2.579000 600 54 1.000000 0.053000 0.053000 1.200000 0.026000 0.031000
1517296626710947163	1000 58 1.000000 0.240000 0.260000 1600 48 1.100000 2.265000 2.575000 600 54 1.000000 0.053000 0.053000 1.200000 0.025000 0.030000
1517296627216250038	1000 58 1.000000 0.239000 0.259000 1600 48 1.100000 2.264000 2.574000 600 54 1.000000 0.053000 0.053000 1.200000 0.025000 0.030000
1517296627723402580	1000 58 1.000000 0.239000 0.259000 1600 48 1.100000 2.275000 2.586000 600 54 1.000000 0.053000 0.053000 1.200000 0.025000 0.030000
1517296628228535996	1000 58 1.000000 0.240000 0.260000 1600 48 1.100000 2.358000 2.683000 600 54 1.000000 0.053000 0.053000 1.200000 0.029000 0.035000
1517296628733640538	1000 58 1.000000 0.239000 0.259000 1600 48 1.100000 2.296000 2.612000 600 54 1.000000 0.053000 0.053000 1.200000 0.026000 0.031000
1517296629238911246	1000 58 1.000000 0.239000 0.259000 1600 48 1.100000 2.307000 2.625000 600 54 1.000000 0.053000 0.053000 1.200000 0.026000 0.031000
1517296629743876330	1000 58 1.000000 0.239000 0.259000 1600 48 1.100000 2.318000 2.635000 600 54 1.000000 0.053000 0.053000 1.200000 0.026000 0.031000
1517296630248904122	1000 58 1.000000 0.239000 0.259000 1600 48 1.100000 2.285000 2.600000 600 55 1.000000 0.053000 0.053000 1.200000 0.025000 0.030000
1517296630753787080	1000 58 1.000000 0.240000 0.260000 1600 48 1.100000 2.278000 2.592000 600 55 1.000000 0.053000 0.053000 1.200000 0.027000 0.032000
1517296631258636080	1000 58 1.000000 0.239000 0.259000 1600 48 1.100000 2.278000 2.590000 600 54 1.000000 0.053000 0.053000 1.200000 0.025000 0.030000
1517296631763504288	1000 58 1.000000 0.239000 0.259000 1600 48 1.100000 2.279000 2.593000 600 54 1.000000 0.053000 0.053000 1.200000 0.025000 0.030000
1517296632268527247	1000 58 1.000000 0.241000 0.261000 1600 48 1.100000 2.276000 2.590000 600 54 1.000000 0.053000 0.053000 1.200000 0.025000 0.030000
1517296632773567539	1000 58 1.000000 0.239000 0.259000 1600 48 1.100000 2.275000 2.588000 600 54 1.000000 0.053000 0.053000 1.200000 0.025000 0.030000
1517296633278435830	1000 58 1.000000 0.239000 0.259000 1600 48 1.100000 2.276000 2.590000 600 54 1.000000 0.053000 0.053000 1.200000 0.025000 0.030000
1517296633783360414	1000 58 1.000000 0.239000 0.259000 1600 48 1.100000 2.277000 2.588000 600 54 1.000000 0.053000 0.053000 1.200000 0.025000 0.030000
1517296634288323247	1000 58 1.000000 0.239000 0.259000 1600 48 1.100000 2.320000 2.637000 600 54 1.000000 0.053000 0.053000 1.200000 0.029000 0.034000
1517296634793308539	1000 57 1.000000 0.239000 0.259000 1600 48 1.100000 2.260000 2.569000 600 54 1.000000 0.053000 0.053000 1.200000 0.027000 0.032000
1517296635298138581	1000 57 1.000000 0.239000 0.259000 1600 48 1.100000 2.246000 2.553000 600 54 1.000000 0.053000 0.053000 1.200000 0.026000 0.031000
1517296635803008997	1000 57 1.000000 0.239000 0.259000 1600 48 1.100000 2.229000 2.534000 600 54 1.000000 0.053000 0.053000 1.200000 0.026000 0.031000
1517296636307992164	1000 58 1.000000 0.239000 0.259000 1600 48 1.100000 2.235000 2.541000 600 54 1.000000 0.053000 0.053000 1.200000 0.026000 0.031000
1517296636812953247	1000 58 1.000000 0.239000 0.259000 1600 48 1.100000 2.230000 2.535000 600 54 1.000000 0.053000 0.053000 1.200000 0.025000 0.030000
1517296637317868456	1000 58 1.000000 0.239000 0.259000 1600 48 1.100000 2.232000 2.537000 600 54 1.000000 0.053000 0.053000 1.200000 0.025000 0.030000
1517296637822739664	1000 58 1.000000 0.239000 0.259000 1600 48 1.100000 2.234000 2.540000 600 54 1.000000 0.053000 0.053000 1.200000 0.025000 0.030000
1517296638327663831	1000 58 1.000000 0.239000 0.259000 1600 48 1.100000 2.234000 2.540000 600 54 1.000000 0.053000 0.053000 1.200000 0.025000 0.030000
1517296638832617956	1000 58 1.000000 0.239000 0.259000 1600 48 1.100000 2.233000 2.541000 600 54 1.000000 0.053000 0.053000 1.200000 0.025000 0.030000
1517296639337651998	1000 58 1.000000 0.239000 0.259000 1600 48 1.100000 2.289000 2.602000 600 54 1.000000 0.053000 0.053000 1.200000 0.025000 0.030000
1517296639842908789	1000 58 1.000000 0.239000 0.259000 1600 48 1.100000 2.272000 2.583000 600 54 1.000000 0.053000 0.053000 1.200000 0.025000 0.030000
1517296640347996539	1000 58 1.000000 0.239000 0.259000 1600 48 1.100000 2.246000 2.553000 600 54 1.000000 0.053000 0.053000 1.200000 0.026000 0.031000
1517296640852931748	1000 58 1.000000 0.241000 0.261000 1600 48 1.100000 2.367000 2.693000 600 54 1.000000 0.053000 0.053000 1.200000 0.029000 0.035000
1517296641357829165	1000 58 1.000000 0.239000 0.259000 1600 48 1.100000 2.279000 2.591000 600 54 1.000000 0.053000 0.053000 1.200000 0.026000 0.031000
1517296641862697915	1000 58 1.000000 0.239000 0.259000 1600 48 1.100000 2.295000 2.609000 600 54 1.000000 0.053000 0.053000 1.200000 0.025000 0.030000
1517296642368407373	1000 58 1.000000 0.239000 0.259000 1600 48 1.100000 2.279000 2.591000 600 54 1.000000 0.053000 0.053000 1.200000 0.025000 0.030000
1517296642873394498	1000 58 1.000000 0.239000 0.259000 1600 48 1.100000 2.359000 2.684000 600 54 1.000000 0.053000 0.053000 1.200000 0.025000 0.030000
1517296643378286498	1000 58 1.000000 0.239000 0.259000 1600 48 1.100000 2.294000 2.608000 600 54 1.000000 0.053000 0.053000 1.200000 0.025000 0.030000
1517296643883118957	1000 58 1.000000 0.239000 0.259000 1600 48 1.100000 2.278000 2.590000 600 54 1.000000 0.053000 0.053000 1.200000 0.025000 0.030000
1517296644392722290	1000 58 1.000000 0.241000 0.261000 1600 48 1.100000 2.297000 2.611000 600 54 1.000000 0.053000 0.053000 1.200000 0.026000 0.031000
1517296644898426998	1000 58 1.000000 0.243000 0.263000 1600 48 1.100000 2.352000 2.676000 600 55 1.000000 0.053000 0.053000 1.200000 0.026000 0.031000
1517296645403388957	1000 58 1.000000 0.241000 0.261000 1600 48 1.100000 2.298000 2.612000 600 54 1.000000 0.053000 0.053000 1.200000 0.026000 0.031000
1517296645908284665	1000 58 1.000000 0.241000 0.261000 1600 48 1.100000 2.259000 2.568000 600 54 1.000000 0.053000 0.053000 1.200000 0.026000 0.031000
1517296646413746999	1000 58 1.000000 0.241000 0.261000 1600 48 1.100000 2.297000 2.611000 600 55 1.000000 0.053000 0.053000 1.200000 0.027000 0.032000
1517296646918822832	1000 58 1.000000 0.248000 0.269000 1600 48 1.100000 2.336000 2.656000 600 54 1.000000 0.053000 0.053000 1.200000 0.033000 0.039000
1517296647423728999	1000 58 1.000000 0.242000 0.262000 1600 48 1.100000 2.281000 2.593000 600 54 1.000000 0.053000 0.053000 1.200000 0.027000 0.032000
1517296647928621332	1000 58 1.000000 0.243000 0.263000 1600 48 1.100000 2.281000 2.593000 600 54 1.000000 0.053000 0.053000 1.200000 0.029000 0.035000
1517296648433554415	1000 58 1.000000 0.241000 0.261000 1600 48 1.100000 2.272000 2.583000 600 54 1.000000 0.053000 0.053000 1.200000 0.028000 0.033000
1517296648938883040	1000 58 1.000000 0.241000 0.261000 1600 48 1.100000 2.389000 2.716000 600 54 1.000000 0.053000 0.053000 1.200000 0.031000 0.037000
1517296649443803249	1000 58 1.000000 0.242000 0.262000 1600 48 1.100000 2.268000 2.578000 600 55 1.000000 0.053000 0.053000 1.200000 0.029000 0.035000
1517296649948658666	1000 58 1.000000 0.241000 0.261000 1600 48 1.100000 2.292000 2.606000 600 54 1.000000 0.053000 0.053000 1.200000 0.028000 0.033000
1517296650453582124	1000 58 1.000000 0.242000 0.262000 1600 48 1.100000 2.282000 2.594000 600 54 1.000000 0.053000 0.053000 1.200000 0.028000 0.033000
1517296650958517374	1000 58 1.000000 0.242000 0.262000 1600 48 1.100000 2.341000 2.661000 600 55 1.000000 0.053000 0.053000 1.200000 0.030000 0.036000
1517296651463512624	1000 58 1.000000 0.242000 0.262000 1600 48 1.100000 2.251000 2.559000 600 55 1.000000 0.053000 0.053000 1.200000 0.028000 0.033000
1517296651968380041	1000 58 1.000000 0.241000 0.261000 1600 48 1.100000 2.248000 2.555000 600 54 1.000000 0.053000 0.053000 1.200000 0.028000 0.033000
1517296652473332541	1000 57 1.000000 0.242000 0.262000 1600 48 1.100000 2.269000 2.579000 600 54 1.000000 0.053000 0.053000 1.200000 0.028000 0.033000
1517296652978348708	1000 57 1.000000 0.241000 0.261000 1600 48 1.100000 2.333000 2.652000 600 54 1.000000 0.053000 0.053000 1.200000 0.028000 0.033000
1517296653483260166	1000 58 1.000000 0.243000 0.263000 1600 48 1.100000 2.269000 2.579000 600 54 1.000000 0.053000 0.053000 1.200000 0.029000 0.035000
1517296653988159874	1000 58 1.000000 0.241000 0.261000 1600 48 1.100000 2.295000 2.609000 600 54 1.000000 0.053000 0.053000 1.200000 0.028000 0.033000
1517296654493143583	1000 58 1.000000 0.241000 0.261000 1600 48 1.100000 2.280000 2.592000 600 54 1.000000 0.053000 0.053000 1.200000 0.028000 0.033000
1517296654998073833	1000 58 1.000000 0.242000 0.262000 1600 48 1.100000 2.370000 2.697000 600 55 1.000000 0.053000 0.053000 1.200000 0.031000 0.037000
1517296655502970583	1000 58 1.000000 0.242000 0.262000 1600 48 1.100000 2.287000 2.600000 600 54 1.000000 0.053000 0.053000 1.200000 0.029000 0.035000
1517296656007864708	1000 58 1.000000 0.242000 0.262000 1600 48 1.100000 2.260000 2.569000 600 55 1.000000 0.053000 0.053000 1.200000 0.028000 0.033000
1517296656512746625	1000 58 1.000000 0.242000 0.262000 1600 48 1.100000 2.260000 2.569000 600 54 1.000000 0.053000 0.053000 1.200000 0.028000 0.033000
1517296657017852041	1000 58 1.000000 0.241000 0.261000 1600 48 1.100000 2.349000 2.673000 600 55 1.000000 0.053000 0.053000 1.200000 0.032000 0.038000
1517296657522732208	1000 58 1.000000 0.242000 0.262000 1600 48 1.100000 2.257000 2.566000 600 55 1.000000 0.053000 0.053000 1.200000 0.027000 0.032000
1517296658028745958	1000 58 1.000000 0.242000 0.262000 1600 48 1.100000 2.285000 2.598000 600 55 1.000000 0.053000 0.053000 1.200000 0.028000 0.033000
1517296658533964875	1000 58 1.000000 0.243000 0.263000 1600 48 1.100000 2.284000 2.596000 600 54 1.000000 0.053000 0.053000 1.200000 0.028000 0.033000
1517296659038946500	1000 58 1.000000 0.242000 0.262000 1600 48 1.100000 2.354000 2.676000 600 55 1.000000 0.053000 0.053000 1.200000 0.028000 0.033000
1517296659543841125	1000 58 1.000000 0.242000 0.262000 1600 48 1.100000 2.278000 2.590000 600 54 1.000000 0.053000 0.053000 1.200000 0.028000 0.033000
1517296660048651792	1000 58 1.000000 0.242000 0.262000 1600 48 1.100000 2.271000 2.582000 600 55 1.000000 0.053000 0.053000 1.200000 0.028000 0.033000
1517296660553612709	1000 58 1.000000 0.241000 0.261000 1600 48 1.100000 2.250000 2.558000 600 54 1.000000 0.053000 0.053000 1.200000 0.028000 0.033000
1517296661058606709	1000 58 1.000000 0.241000 0.261000 1600 48 1.100000 2.327000 2.645000 600 54 1.000000 0.053000 0.053000 1.200000 0.032000 0.038000
1517296661563583625	1000 58 1.000000 0.241000 0.261000 1600 48 1.100000 2.233000 2.538000 600 54 1.000000 0.053000 0.053000 1.200000 0.029000 0.034000
1517296662068520125	1000 57 1.000000 0.241000 0.261000 1600 48 1.100000 2.232000 2.537000 600 55 1.000000 0.053000 0.053000 1.200000 0.028000 0.033000
1517296662573406625	1000 57 1.000000 0.241000 0.261000 1600 48 1.100000 2.229000 2.534000 600 54 1.000000 0.053000 0.053000 1.200000 0.027000 0.032000
1517296663078428084	1000 58 1.000000 0.242000 0.262000 1600 48 1.100000 2.317000 2.634000 600 54 1.000000 0.053000 0.053000 1.200000 0.031000 0.037000
1517296663583363459	1000 57 1.000000 0.242000 0.262000 1600 48 1.100000 2.231000 2.536000 600 54 1.000000 0.053000 0.053000 1.200000 0.027000 0.032000
1517296664088196834	1000 58 1.000000 0.241000 0.261000 1600 48 1.100000 2.268000 2.578000 600 54 1.000000 0.053000 0.053000 1.200000 0.028000 0.033000
1517296664593300334	1000 58 1.000000 0.241000 0.261000 1600 48 1.100000 2.250000 2.558000 600 54 1.000000 0.053000 0.053000 1.200000 0.028000 0.033000
1517296665098291709	1000 58 1.000000 0.240000 0.260000 1600 48 1.100000 2.318000 2.635000 600 55 1.000000 0.053000 0.053000 1.200000 0.030000 0.036000
1517296665603227917	1000 58 1.000000 0.240000 0.260000 1600 48 1.100000 2.254000 2.562000 600 54 1.000000 0.053000 0.053000 1.200000 0.029000 0.035000
1517296666108189001	1000 58 1.000000 0.240000 0.260000 1600 48 1.100000 2.261000 2.570000 600 54 1.000000 0.053000 0.053000 1.200000 0.030000 0.036000
1517296666613209001	1000 58 1.000000 0.240000 0.260000 1600 48 1.100000 2.267000 2.577000 600 54 1.000000 0.053000 0.053000 1.200000 0.029000 0.035000
1517296667118170043	1000 58 1.000000 0.241000 0.261000 1600 48 1.100000 2.345000 2.668000 600 55 1.000000 0.053000 0.053000 1.200000 0.031000 0.037000
1517296667623111959	1000 58 1.000000 0.240000 0.260000 1600 48 1.100000 2.266000 2.578000 600 54 1.000000 0.053000 0.053000 1.200000 0.029000 0.034000
1517296668128064668	1000 57 1.000000 0.240000 0.260000 1600 48 1.100000 2.268000 2.578000 600 54 1.000000 0.053000 0.053000 1.200000 0.029000 0.035000
1517296668633089418	1000 57 1.000000 0.240000 0.260000 1600 48 1.100000 2.267000 2.577000 600 54 1.000000 0.053000 0.053000 1.200000 0.029000 0.035000
1517296669138079335	1000 58 1.000000 0.240000 0.260000 1600 48 1.100000 2.350000 2.671000 600 55 1.000000 0.053000 0.053000 1.200000 0.031000 0.037000
1517296669642962126	1000 58 1.000000 0.240000 0.260000 1600 48 1.100000 2.264000 2.574000 600 55 1.000000 0.053000 0.053000 1.200000 0.028000 0.033000
1517296670147818126	1000 58 1.000000 0.240000 0.260000 1600 48 1.100000 2.300000 2.615000 600 54 1.000000 0.053000 0.053000 1.200000 0.029000 0.035000
1517296670652938376	1000 58 1.000000 0.240000 0.260000 1600 48 1.100000 2.287000 2.600000 600 54 1.000000 0.053000 0.053000 1.200000 0.029000 0.035000
1517296671157925710	1000 58 1.000000 0.240000 0.260000 1600 48 1.100000 2.296000 2.612000 600 55 1.000000 0.053000 0.053000 1.200000 0.029000 0.035000
1517296671662874627	1000 58 1.000000 0.240000 0.260000 1600 48 1.100000 2.264000 2.574000 600 54 1.000000 0.053000 0.053000 1.200000 0.030000 0.036000
1517296672167731543	1000 58 1.000000 0.240000 0.260000 1600 48 1.100000 2.266000 2.576000 600 54 1.000000 0.053000 0.053000 1.200000 0.029000 0.035000
1517296672672612960	1000 58 1.000000 0.240000 0.260000 1600 48 1.100000 2.250000 2.558000 600 54 1.000000 0.053000 0.053000 1.200000 0.029000 0.035000
1517296673177651960	1000 58 1.000000 0.240000 0.260000 1600 48 1.100000 2.342000 2.662000 600 55 1.000000 0.053000 0.053000 1.200000 0.030000 0.036000
1517296673682562293	1000 58 1.000000 0.240000 0.260000 1600 48 1.100000 2.241000 2.548000 600 54 1.000000 0.053000 0.053000 1.200000 0.028000 0.033000
1517296674187551335	1000 58 1.000000 0.240000 0.260000 1600 48 1.100000 2.239000 2.545000 600 54 1.000000 0.053000 0.053000 1.200000 0.028000 0.033000
1517296674692521752	1000 58 1.000000 0.240000 0.260000 1600 48 1.100000 2.242000 2.549000 600 54 1.000000 0.053000 0.053000 1.200000 0.028000 0.033000
1517296675197609835	1000 58 1.000000 0.240000 0.260000 1600 48 1.100000 2.327000 2.645000 600 55 1.000000 0.053000 0.053000 1.200000 0.032000 0.038000
1517296675703774085	1000 58 1.000000 0.240000 0.260000 1600 48 1.100000 2.267000 2.577000 600 54 1.000000 0.053000 0.053000 1.200000 0.030000 0.036000
1517296676209075502	1000 58 1.000000 0.241000 0.261000 1600 48 1.100000 2.264000 2.574000 600 54 1.000000 0.053000 0.053000 1.200000 0.029000 0.035000
1517296676714026210	1000 58 1.000000 0.240000 0.260000 1600 48 1.100000 2.259000 2.568000 600 54 1.000000 0.053000 0.053000 1.200000 0.030000 0.036000
1517296677219029336	1000 58 1.000000 0.240000 0.260000 1600 48 1.100000 2.276000 2.587000 600 54 1.000000 0.053000 0.053000 1.200000 0.029000 0.035000
1517296677723851127	1000 58 1.000000 0.240000 0.260000 1600 48 1.100000 2.349000 2.670000 600 54 1.000000 0.053000 0.053000 1.200000 0.028000 0.033000
1517296678228850169	1000 58 1.000000 0.240000 0.260000 1600 48 1.100000 2.262000 2.571000 600 54 1.000000 0.053000 0.053000 1.200000 0.029000 0.035000
1517296678733721044	1000 58 1.000000 0.240000 0.260000 1600 48 1.100000 2.275000 2.586000 600 54 1.000000 0.053000 0.053000 1.200000 0.029000 0.035000
1517296679238643877	1000 58 1.000000 0.240000 0.260000 1600 48 1.100000 2.245000 2.552000 600 54 1.000000 0.053000 0.053000 1.200000 0.030000 0.036000
1517296679743508877	1000 58 1.000000 0.240000 0.260000 1600 48 1.100000 2.260000 2.569000 600 54 1.000000 0.053000 0.053000 1.200000 0.029000 0.035000
1517296680248414711	1000 58 1.000000 0.240000 0.260000 1600 48 1.100000 2.251000 2.559000 600 54 1.000000 0.053000 0.053000 1.200000 0.029000 0.035000
1517296680753486503	1000 58 1.000000 0.240000 0.260000 1600 48 1.100000 2.247000 2.554000 600 54 1.000000 0.053000 0.053000 1.200000 0.029000 0.035000
1517296681258408378	1000 58 1.000000 0.240000 0.260000 1600 48 1.100000 2.242000 2.549000 600 55 1.000000 0.053000 0.053000 1.200000 0.032000 0.038000
1517296681763403086	1000 57 1.000000 0.241000 0.261000 1600 48 1.100000 2.343000 2.666000 600 54 1.000000 0.053000 0.053000 1.200000 0.030000 0.036000
1517296682268303461	1000 58 1.000000 0.240000 0.260000 1600 48 1.100000 2.251000 2.559000 600 54 1.000000 0.053000 0.053000 1.200000 0.031000 0.037000
1517296682773591545	1000 57 1.000000 0.240000 0.260000 1600 48 1.100000 2.259000 2.568000 600 54 1.000000 0.053000 0.053000 1.200000 0.029000 0.035000
1517296683279195711	1000 57 1.000000 0.240000 0.260000 1600 48 1.100000 2.259000 2.568000 600 54 1.000000 0.053000 0.053000 1.200000 0.029000 0.035000
1517296683784564628	1000 58 1.000000 0.241000 0.261000 1600 48 1.100000 2.341000 2.661000 600 54 1.000000 0.053000 0.053000 1.200000 0.029000 0.035000
1517296684291549586	1000 58 1.000000 0.242000 0.262000 1600 48 1.100000 2.263000 2.573000 600 54 1.000000 0.053000 0.053000 1.200000 0.029000 0.035000
1517296684797578420	1000 57 1.000000 0.241000 0.261000 1600 48 1.100000 2.242000 2.549000 600 54 1.000000 0.053000 0.053000 1.200000 0.029000 0.035000
1517296685305655795	1000 58 1.000000 0.238000 0.258000 1600 48 1.100000 2.258000 2.567000 600 54 1.000000 0.053000 0.053000 1.200000 0.029000 0.035000
1517296685811687295	1000 57 1.000000 0.239000 0.259000 1600 48 1.100000 2.242000 2.549000 600 54 1.000000 0.053000 0.053000 1.200000 0.028000 0.033000
1517296686318521295	1000 58 1.000000 0.239000 0.259000 1600 48 1.100000 2.269000 2.579000 600 54 1.000000 0.053000 0.053000 1.200000 0.028000 0.033000
1517296686824377128	1000 58 1.000000 0.239000 0.259000 1600 48 1.100000 2.239000 2.545000 600 54 1.000000 0.053000 0.053000 1.200000 0.029000 0.035000
1517296687332575878	1000 57 1.000000 0.241000 0.261000 1600 48 1.100000 2.233000 2.538000 600 54 1.000000 0.053000 0.053000 1.200000 0.030000 0.036000
1517296687838882878	1000 57 1.000000 0.239000 0.259000 1600 48 1.100000 2.339000 2.659000 600 54 1.000000 0.053000 0.053000 1.200000 0.031000 0.037000
1517296688344409420	1000 58 1.000000 0.240000 0.260000 1600 48 1.100000 2.255000 2.563000 600 54 1.000000 0.053000 0.053000 1.200000 0.029000 0.035000
1517296688849715420	1000 57 1.000000 0.239000 0.259000 1600 48 1.100000 2.270000 2.580000 600 54 1.000000 0.053000 0.053000 1.200000 0.029000 0.035000
1517296689354959920	1000 58 1.000000 0.239000 0.259000 1600 48 1.100000 2.264000 2.574000 600 54 1.000000 0.053000 0.053000 1.200000 0.029000 0.035000
1517296689860411754	1000 58 1.000000 0.241000 0.261000 1600 48 1.100000 2.332000 2.651000 600 54 1.000000 0.053000 0.053000 1.200000 0.032000 0.038000
1517296690365773379	1000 58 1.000000 0.239000 0.259000 1600 48 1.100000 2.281000 2.593000 600 54 1.000000 0.053000 0.053000 1.200000 0.030000 0.036000
1517296690871009670	1000 57 1.000000 0.239000 0.259000 1600 48 1.100000 2.244000 2.551000 600 54 1.000000 0.053000 0.053000 1.200000 0.029000 0.035000
1517296691376634962	1000 57 1.000000 0.238000 0.258000 1600 48 1.100000 2.282000 2.594000 600 55 1.000000 0.053000 0.053000 1.200000 0.030000 0.036000
1517296691882641962	1000 58 1.000000 0.239000 0.259000 1600 48 1.100000 2.241000 2.548000 600 54 1.000000 0.053000 0.053000 1.200000 0.033000 0.039000
1517296692388073087	1000 57 1.000000 0.239000 0.259000 1600 48 1.100000 2.239000 2.545000 600 54 1.000000 0.053000 0.053000 1.200000 0.030000 0.036000
1517296692893977962	1000 58 1.000000 0.239000 0.259000 1600 48 1.100000 2.244000 2.551000 600 54 1.000000 0.053000 0.053000 1.200000 0.030000 0.036000
1517296693399925921	1000 58 1.000000 0.239000 0.259000 1600 48 1.100000 2.242000 2.549000 600 55 1.000000 0.053000 0.053000 1.200000 0.029000 0.035000
1517296693906487212	1000 57 1.000000 0.239000 0.259000 1600 48 1.100000 2.371000 2.695000 600 54 1.000000 0.053000 0.053000 1.200000 0.035000 0.042000
1517296694411971629	1000 58 1.000000 0.239000 0.259000 1600 48 1.100000 2.255000 2.563000 600 54 1.000000 0.053000 0.053000 1.200000 0.029000 0.035000
1517296694917957838	1000 57 1.000000 0.239000 0.259000 1600 48 1.100000 2.289000 2.602000 600 54 1.000000 0.053000 0.053000 1.200000 0.030000 0.036000
1517296695425815796	1000 58 1.000000 0.239000 0.259000 1600 48 1.100000 2.243000 2.550000 600 56 1.000000 0.053000 0.053000 1.200000 0.029000 0.035000
1517296695931553963	1000 58 1.000000 0.239000 0.259000 1600 48 1.100000 2.374000 2.699000 600 54 1.000000 0.053000 0.053000 1.200000 0.035000 0.042000
1517296696438416129	1000 58 1.000000 0.241000 0.261000 1600 48 1.100000 2.249000 2.557000 600 54 1.000000 0.053000 0.053000 1.200000 0.029000 0.035000
1517296696945717296	1000 58 1.000000 0.239000 0.259000 1600 48 1.100000 2.266000 2.576000 600 54 1.000000 0.053000 0.053000 1.200000 0.030000 0.036000
1517296697452034755	1000 58 1.000000 0.239000 0.259000 1600 48 1.100000 2.240000 2.546000 600 55 1.000000 0.053000 0.053000 1.200000 0.029000 0.035000
1517296697958181046	1000 58 1.000000 0.239000 0.259000 1600 48 1.100000 2.237000 2.543000 600 54 1.000000 0.053000 0.053000 1.200000 0.034000 0.041000
1517296698463872505	1000 58 1.000000 0.239000 0.259000 1600 48 1.100000 2.235000 2.541000 600 54 1.000000 0.053000 0.053000 1.200000 0.029000 0.035000
1517296698971980880	1000 57 1.000000 0.239000 0.259000 1600 48 1.100000 2.237000 2.543000 600 54 1.000000 0.053000 0.053000 1.200000 0.028000 0.033000
1517296699480488130	1000 57 1.000000 0.239000 0.259000 1600 48 1.100000 2.236000 2.542000 600 54 1.000000 0.053000 0.053000 1.200000 0.028000 0.033000
1517296699985770880	1000 58 1.000000 0.241000 0.261000 1600 48 1.100000 2.239000 2.545000 600 54 1.000000 0.053000 0.053000 1.200000 0.028000 0.033000
1517296700490706172	1000 58 1.000000 0.239000 0.259000 1600 48 1.100000 2.250000 2.558000 600 54 1.000000 0.053000 0.053000 1.200000 0.030000 0.036000
1517296700995664005	1000 58 1.000000 0.239000 0.259000 1600 48 1.100000 2.288000 2.601000 600 54 1.000000 0.053000 0.053000 1.200000 0.029000 0.034000
1517296701500864005	1000 57 1.000000 0.239000 0.259000 1600 48 1.100000 2.247000 2.554000 600 54 1.000000 0.053000 0.053000 1.200000 0.029000 0.035000
1517296702006217630	1000 58 1.000000 0.239000 0.259000 1600 48 1.100000 2.347000 2.668000 600 54 1.000000 0.053000 0.053000 1.200000 0.035000 0.042000
1517296702511689380	1000 58 1.000000 0.239000 0.259000 1600 48 1.100000 2.241000 2.548000 600 54 1.000000 0.053000 0.053000 1.200000 0.029000 0.035000
1517296703017640964	1000 58 1.000000 0.239000 0.259000 1600 48 1.100000 2.242000 2.549000 600 54 1.000000 0.053000 0.053000 1.200000 0.031000 0.037000
1517296703523465005	1000 58 1.000000 0.239000 0.259000 1600 48 1.100000 2.233000 2.538000 600 54 1.000000 0.053000 0.053000 1.200000 0.029000 0.034000
1517296704029483880	1000 58 1.000000 0.239000 0.259000 1600 48 1.100000 2.230000 2.535000 600 54 1.000000 0.053000 0.053000 1.200000 0.034000 0.041000
1517296704535181089	1000 58 1.000000 0.239000 0.259000 1600 48 1.100000 2.237000 2.543000 600 54 1.000000 0.053000 0.053000 1.200000 0.028000 0.033000
1517296705040547880	1000 58 1.000000 0.238000 0.258000 1600 48 1.100000 2.244000 2.551000 600 54 1.000000 0.053000 0.053000 1.200000 0.029000 0.035000
1517296705547107256	1000 57 1.000000 0.193000 0.210000 1600 48 1.100000 2.242000 2.549000 600 54 1.000000 0.053000 0.053000 1.200000 0.029000 0.034000
1517296706057462672	1000 57 1.000000 0.149000 0.163000 1600 48 1.100000 2.234000 2.540000 600 54 1.000000 0.053000 0.053000 1.200000 0.026000 0.031000
1517296706562857797	1000 57 1.000000 0.148000 0.162000 1600 47 1.100000 2.262000 2.571000 600 54 1.000000 0.053000 0.053000 1.200000 0.028000 0.033000
1517296707068116922	1000 57 1.000000 0.147000 0.161000 1600 47 1.100000 2.252000 2.560000 600 53 1.000000 0.053000 0.053000 1.200000 0.027000 0.032000
1517296707574398547	1000 52 1.000000 0.147000 0.161000 1600 47 1.100000 2.275000 2.586000 600 53 1.000000 0.053000 0.053000 1.200000 0.027000 0.032000
1517296708079715798	1000 48 1.000000 0.147000 0.161000 1600 45 1.100000 1.385000 1.569000 600 53 1.000000 0.053000 0.053000 1.200000 0.030000 0.036000
1517296708585531964	1000 47 1.000000 0.147000 0.161000 1600 45 1.100000 1.278000 1.446000 600 52 1.000000 0.053000 0.053000 1.200000 0.026000 0.031000
1517296709090956131	1000 47 1.100000 0.050000 0.055000 1600 44 1.100000 1.277000 1.446000 600 51 1.000000 0.053000 0.053000 1.200000 0.024000 0.028000
1517296709599226381	1000 46 1.100000 0.050000 0.055000 1600 43 1.100000 1.275000 1.444000 600 51 1.000000 0.053000 0.053000 1.200000 0.023000 0.027000
1517296710104475006	1000 44 1.100000 0.052000 0.057000 1600 43 1.100000 0.303000 0.344000 600 48 1.000000 0.053000 0.053000 1.200000 0.028000 0.033000
1517296710609637089	1000 43 1.100000 0.048000 0.052000 1600 41 1.100000 0.215000 0.244000 600 47 1.000000 0.052000 0.052000 1.200000 0.023000 0.027000
