#Timestamp	CPU(0) Frequency(MHz)	CPU(0) Temperature(C)	A7 Voltage(V)	A7 Current(A)	A7 Power(W)	CPU(4) Frequency(MHz)	CPU(4) Temperature(C)	A15 Voltage(V)	A15 Current(A)	A15 Power(W)	GPU Frequency(MHz)	GPU Temperature(C)	GPU Voltage(V)	GPU Current(A)	GPU Power(W)	RAM Voltage(V)	RAM Current(A)	RAM Power(W)
1559841501969380991	1000 40 1.000000 0.040000 0.040000 1500 34 1.000000 0.835000 0.866000 600 39 1.000000 0.050000 0.050000 1.200000 0.048000 0.058000
1559841502475231866	1000 41 1.100000 0.047000 0.051000 1500 35 1.000000 0.976000 1.066000 600 39 1.000000 0.051000 0.051000 1.200000 0.034000 0.041000
1559841502981010991	1000 41 1.100000 0.046000 0.050000 1500 36 1.000000 0.926000 1.013000 600 40 1.000000 0.051000 0.051000 1.200000 0.034000 0.041000
1559841503487022574	1000 42 1.100000 0.047000 0.051000 1500 36 1.000000 1.055000 1.155000 600 40 1.000000 0.051000 0.051000 1.200000 0.035000 0.042000
1559841503992916574	1000 42 1.100000 0.050000 0.055000 1500 37 1.000000 1.172000 1.284000 600 41 1.000000 0.051000 0.051000 1.200000 0.039000 0.047000
1559841504500098324	1000 42 1.000000 0.235000 0.255000 1500 37 1.000000 0.962000 1.051000 600 41 1.000000 0.051000 0.051000 1.200000 0.037000 0.044000
1559841505006215283	1000 43 1.000000 0.238000 0.258000 1500 37 1.000000 0.971000 1.061000 600 41 1.000000 0.051000 0.051000 1.200000 0.037000 0.044000
1559841505512551116	1000 43 1.000000 0.245000 0.266000 1500 38 1.000000 1.059000 1.157000 600 42 1.000000 0.051000 0.051000 1.200000 0.040000 0.048000
1559841506018548449	1000 44 1.000000 0.238000 0.258000 1500 38 1.000000 0.969000 1.059000 600 42 1.000000 0.051000 0.051000 1.200000 0.037000 0.044000
1559841506525594074	1000 43 1.000000 0.239000 0.260000 1500 38 1.000000 0.982000 1.073000 600 42 1.000000 0.051000 0.051000 1.200000 0.033000 0.039000
1559841507031576783	1000 44 1.000000 0.248000 0.269000 1500 38 1.000000 0.973000 1.063000 600 42 1.000000 0.051000 0.051000 1.200000 0.039000 0.047000
1559841507537649741	1000 44 1.000000 0.248000 0.269000 1500 38 1.000000 0.980000 1.071000 600 42 1.000000 0.051000 0.051000 1.200000 0.039000 0.047000
1559841508043261700	1000 44 1.000000 0.238000 0.258000 1500 39 1.000000 0.971000 1.061000 600 43 1.000000 0.051000 0.051000 1.200000 0.033000 0.039000
1559841508549118616	1000 44 1.000000 0.239000 0.260000 1500 39 1.000000 0.978000 1.068000 600 43 1.000000 0.051000 0.051000 1.200000 0.037000 0.044000
1559841509055128366	1000 44 1.000000 0.253000 0.275000 1500 39 1.000000 0.984000 1.075000 600 43 1.000000 0.051000 0.051000 1.200000 0.038000 0.045000
1559841509561042950	1000 44 1.000000 0.239000 0.260000 1500 39 1.000000 1.045000 1.144000 600 43 1.000000 0.051000 0.051000 1.200000 0.039000 0.047000
1559841510067138866	1000 44 1.000000 0.240000 0.261000 1500 39 1.000000 0.968000 1.059000 600 44 1.000000 0.051000 0.051000 1.200000 0.038000 0.045000
1559841510573146033	1000 45 1.000000 0.243000 0.264000 1500 39 1.000000 0.971000 1.061000 600 43 1.000000 0.051000 0.051000 1.200000 0.038000 0.045000
1559841511079167950	1000 44 1.000000 0.242000 0.263000 1500 39 1.000000 0.965000 1.054000 600 43 1.000000 0.051000 0.051000 1.200000 0.032000 0.038000
1559841511584774658	1000 45 1.000000 0.240000 0.261000 1500 39 1.000000 1.059000 1.159000 600 43 1.000000 0.051000 0.051000 1.200000 0.039000 0.047000
1559841512091739908	1000 45 1.000000 0.238000 0.258000 1500 39 1.000000 0.992000 1.086000 600 45 1.000000 0.051000 0.051000 1.200000 0.039000 0.047000
1559841512597743908	1000 45 1.000000 0.238000 0.258000 1500 39 1.000000 1.180000 1.292000 600 43 1.000000 0.051000 0.051000 1.200000 0.036000 0.043000
1559841513103671784	1000 45 1.000000 0.238000 0.258000 1500 39 1.000000 0.989000 1.080000 600 43 1.000000 0.051000 0.051000 1.200000 0.038000 0.045000
1559841513609948325	1000 45 1.000000 0.240000 0.261000 1500 40 1.000000 0.970000 1.062000 600 44 1.000000 0.051000 0.051000 1.200000 0.039000 0.047000
1559841514115859659	1000 45 1.000000 0.238000 0.258000 1500 40 1.000000 0.985000 1.078000 600 44 1.000000 0.051000 0.051000 1.200000 0.038000 0.045000
1559841514621862284	1000 45 1.000000 0.241000 0.261000 1500 39 1.000000 1.184000 1.297000 600 44 1.000000 0.051000 0.051000 1.200000 0.044000 0.053000
1559841515127887825	1000 45 1.000000 0.240000 0.261000 1500 40 1.000000 0.976000 1.068000 600 44 1.000000 0.051000 0.051000 1.200000 0.034000 0.041000
1559841515634216325	1000 45 1.000000 0.240000 0.261000 1500 39 1.000000 1.000000 1.095000 600 44 1.000000 0.051000 0.051000 1.200000 0.039000 0.047000
1559841516140215451	1000 45 1.000000 0.242000 0.263000 1500 40 1.000000 0.972000 1.064000 600 44 1.000000 0.051000 0.051000 1.200000 0.029000 0.035000
1559841516647743326	1000 44 1.000000 0.239000 0.260000 1500 40 1.000000 1.197000 1.310000 600 44 1.000000 0.051000 0.051000 1.200000 0.044000 0.053000
1559841517153883034	1000 45 1.000000 0.240000 0.261000 1500 40 1.000000 0.970000 1.060000 600 44 1.000000 0.051000 0.051000 1.200000 0.039000 0.047000
1559841517660119409	1000 45 1.000000 0.248000 0.269000 1500 40 1.000000 1.053000 1.153000 600 44 1.000000 0.051000 0.051000 1.200000 0.029000 0.035000
1559841518166758992	1000 45 1.000000 0.240000 0.261000 1500 40 1.000000 0.991000 1.083000 600 44 1.000000 0.051000 0.051000 1.200000 0.038000 0.045000
1559841518672658701	1000 45 1.000000 0.239000 0.260000 1500 40 1.000000 0.973000 1.065000 600 44 1.000000 0.051000 0.051000 1.200000 0.039000 0.047000
1559841519178657368	1000 45 1.000000 0.242000 0.263000 1500 40 1.000000 0.999000 1.093000 600 44 1.000000 0.051000 0.051000 1.200000 0.034000 0.041000
1559841519684691576	1000 45 1.000000 0.240000 0.260000 1500 40 1.000000 0.972000 1.062000 600 44 1.000000 0.051000 0.051000 1.200000 0.038000 0.045000
1559841520191030076	1000 45 1.000000 0.239000 0.260000 1500 40 1.000000 0.988000 1.079000 600 44 1.000000 0.051000 0.051000 1.200000 0.037000 0.044000
1559841520696754076	1000 45 1.000000 0.240000 0.261000 1500 40 1.000000 0.985000 1.076000 600 44 1.000000 0.051000 0.051000 1.200000 0.030000 0.036000
1559841521202682034	1000 45 1.000000 0.255000 0.276000 1500 40 1.000000 0.971000 1.061000 600 44 1.000000 0.051000 0.051000 1.200000 0.037000 0.044000
1559841521708647118	1000 45 1.000000 0.240000 0.261000 1500 40 1.000000 0.969000 1.061000 600 44 1.000000 0.051000 0.051000 1.200000 0.029000 0.035000
1559841522214661910	1000 45 1.000000 0.243000 0.264000 1500 40 1.000000 0.969000 1.059000 600 44 1.000000 0.052000 0.052000 1.200000 0.037000 0.044000
1559841522720200535	1000 46 1.000000 0.239000 0.260000 1500 40 1.000000 1.004000 1.099000 600 45 1.000000 0.051000 0.051000 1.200000 0.038000 0.045000
1559841523227115451	1000 45 1.000000 0.240000 0.261000 1500 40 1.000000 0.971000 1.061000 600 44 1.000000 0.051000 0.051000 1.200000 0.034000 0.041000
1559841523733057785	1000 45 1.000000 0.241000 0.262000 1500 40 1.000000 1.058000 1.158000 600 44 1.000000 0.051000 0.051000 1.200000 0.041000 0.049000
1559841524240286285	1000 45 1.000000 0.244000 0.265000 1500 40 1.000000 0.973000 1.065000 600 44 1.000000 0.051000 0.051000 1.200000 0.030000 0.036000
1559841524746843702	1000 45 1.000000 0.241000 0.262000 1500 40 1.000000 0.990000 1.082000 600 45 1.000000 0.051000 0.051000 1.200000 0.036000 0.043000
1559841525252866202	1000 44 1.000000 0.243000 0.264000 1500 40 1.000000 1.125000 1.231000 600 44 1.000000 0.051000 0.051000 1.200000 0.046000 0.055000
1559841525758566577	1000 46 1.000000 0.258000 0.280000 1500 40 1.000000 0.974000 1.064000 600 44 1.000000 0.051000 0.051000 1.200000 0.027000 0.032000
1559841526264759410	1000 45 1.000000 0.239000 0.260000 1500 40 1.000000 0.970000 1.060000 600 44 1.000000 0.051000 0.051000 1.200000 0.037000 0.044000
1559841526770771577	1000 46 1.000000 0.239000 0.260000 1500 40 1.000000 0.974000 1.066000 600 44 1.000000 0.051000 0.051000 1.200000 0.033000 0.039000
1559841527276594952	1000 45 1.000000 0.248000 0.269000 1500 40 1.000000 1.108000 1.213000 600 44 1.000000 0.051000 0.051000 1.200000 0.035000 0.042000
1559841527782306994	1000 46 1.000000 0.240000 0.261000 1500 40 1.000000 0.969000 1.059000 600 45 1.000000 0.052000 0.052000 1.200000 0.038000 0.045000
1559841528288247744	1000 46 1.000000 0.240000 0.261000 1500 40 1.000000 0.969000 1.059000 600 44 1.000000 0.051000 0.051000 1.200000 0.041000 0.049000
1559841528794192702	1000 46 1.000000 0.249000 0.270000 1500 40 1.000000 0.972000 1.064000 600 44 1.000000 0.051000 0.051000 1.200000 0.038000 0.045000
1559841529300169160	1000 46 1.000000 0.243000 0.264000 1500 40 1.000000 1.023000 1.120000 600 45 1.000000 0.051000 0.051000 1.200000 0.043000 0.052000
1559841529805820202	1000 46 1.000000 0.240000 0.261000 1500 40 1.000000 0.994000 1.086000 600 45 1.000000 0.051000 0.051000 1.200000 0.034000 0.041000
1559841530311734202	1000 46 1.000000 0.249000 0.270000 1500 40 1.000000 0.977000 1.067000 600 44 1.000000 0.051000 0.051000 1.200000 0.037000 0.044000
1559841530817692202	1000 46 1.000000 0.249000 0.270000 1500 40 1.000000 0.970000 1.060000 600 44 1.000000 0.051000 0.051000 1.200000 0.040000 0.048000
1559841531323585536	1000 46 1.000000 0.240000 0.261000 1500 40 1.000000 0.980000 1.071000 600 45 1.000000 0.052000 0.052000 1.200000 0.027000 0.032000
1559841531829172619	1000 46 1.000000 0.240000 0.261000 1500 40 1.000000 1.098000 1.202000 600 45 1.000000 0.051000 0.051000 1.200000 0.044000 0.053000
1559841532335267744	1000 46 1.000000 0.249000 0.270000 1500 40 1.000000 1.059000 1.159000 600 44 1.000000 0.051000 0.051000 1.200000 0.041000 0.049000
1559841532841164911	1000 46 1.000000 0.240000 0.261000 1500 40 1.000000 0.982000 1.073000 600 44 1.000000 0.051000 0.051000 1.200000 0.035000 0.042000
1559841533347075619	1000 46 1.000000 0.240000 0.261000 1500 40 1.000000 0.991000 1.083000 600 45 1.000000 0.051000 0.051000 1.200000 0.037000 0.044000
1559841533853140328	1000 46 1.000000 0.249000 0.270000 1500 40 1.000000 1.093000 1.196000 600 45 1.000000 0.051000 0.051000 1.200000 0.038000 0.045000
1559841534359227786	1000 46 1.000000 0.240000 0.261000 1500 41 1.000000 1.067000 1.168000 600 45 1.000000 0.051000 0.051000 1.200000 0.041000 0.049000
1559841534865222828	1000 46 1.000000 0.240000 0.261000 1500 40 1.000000 0.972000 1.064000 600 44 1.000000 0.052000 0.052000 1.200000 0.038000 0.045000
1559841535371100161	1000 46 1.000000 0.242000 0.263000 1500 41 1.000000 0.993000 1.085000 600 46 1.000000 0.052000 0.052000 1.200000 0.028000 0.033000
1559841535876771370	1000 46 1.000000 0.242000 0.263000 1500 40 1.000000 1.081000 1.183000 600 47 1.000000 0.052000 0.052000 1.200000 0.043000 0.052000
1559841536382732036	1000 46 1.000000 0.245000 0.266000 1500 41 1.000000 0.994000 1.086000 600 45 1.000000 0.052000 0.052000 1.200000 0.037000 0.044000
1559841536888730661	1000 46 1.000000 0.246000 0.267000 1500 40 1.000000 0.988000 1.079000 600 45 1.000000 0.052000 0.052000 1.200000 0.030000 0.036000
1559841537394645203	1000 46 1.000000 0.261000 0.283000 1500 41 1.000000 1.008000 1.103000 600 44 1.000000 0.051000 0.051000 1.200000 0.039000 0.047000
1559841537900583036	1000 46 1.000000 0.249000 0.270000 1500 41 1.000000 1.083000 1.185000 600 46 1.000000 0.051000 0.051000 1.200000 0.042000 0.050000
1559841538407182203	1000 46 1.000000 0.246000 0.267000 1500 41 1.000000 1.084000 1.186000 600 45 1.000000 0.052000 0.052000 1.200000 0.041000 0.049000
1559841538913037287	1000 46 1.000000 0.246000 0.267000 1500 41 1.000000 0.993000 1.085000 600 44 1.000000 0.052000 0.052000 1.200000 0.039000 0.047000
1559841539420312870	1000 45 1.000000 0.253000 0.275000 1500 41 1.000000 1.014000 1.108000 600 45 1.000000 0.051000 0.051000 1.200000 0.036000 0.043000
1559841539926413703	1000 46 1.000000 0.245000 0.266000 1500 41 1.000000 1.096000 1.200000 600 45 1.000000 0.052000 0.052000 1.200000 0.044000 0.053000
1559841540432432620	1000 46 1.000000 0.247000 0.268000 1500 41 1.000000 1.084000 1.186000 600 45 1.000000 0.051000 0.051000 1.200000 0.043000 0.052000
1559841540938312412	1000 46 1.000000 0.261000 0.283000 1500 41 1.000000 1.001000 1.094000 600 45 1.000000 0.051000 0.051000 1.200000 0.029000 0.035000
1559841541444270704	1000 46 1.000000 0.246000 0.267000 1500 41 1.000000 1.000000 1.093000 600 45 1.000000 0.052000 0.052000 1.200000 0.038000 0.045000
1559841541949947245	1000 46 1.000000 0.250000 0.272000 1500 41 1.000000 1.087000 1.190000 600 45 1.000000 0.051000 0.051000 1.200000 0.043000 0.052000
1559841542455936579	1000 46 1.000000 0.262000 0.284000 1500 41 1.000000 1.001000 1.094000 600 45 1.000000 0.051000 0.051000 1.200000 0.036000 0.043000
1559841542961985079	1000 46 1.000000 0.247000 0.268000 1500 41 1.000000 1.006000 1.099000 600 45 1.000000 0.051000 0.051000 1.200000 0.038000 0.045000
1559841543467984412	1000 46 1.000000 0.246000 0.267000 1500 41 1.000000 0.998000 1.090000 600 45 1.000000 0.051000 0.051000 1.200000 0.039000 0.047000
1559841543974169037	1000 46 1.000000 0.244000 0.265000 1500 41 1.000000 1.004000 1.097000 600 45 1.000000 0.051000 0.051000 1.200000 0.032000 0.038000
1559841544480211912	1000 46 1.000000 0.252000 0.273000 1500 41 1.000000 1.144000 1.252000 600 45 1.000000 0.051000 0.051000 1.200000 0.045000 0.054000
1559841544986328371	1000 45 1.000000 0.246000 0.267000 1500 41 1.000000 1.014000 1.108000 600 45 1.000000 0.052000 0.052000 1.200000 0.037000 0.044000
1559841545492325746	1000 46 1.000000 0.244000 0.265000 1500 41 1.000000 0.990000 1.082000 600 45 1.000000 0.052000 0.052000 1.200000 0.039000 0.047000
1559841545998382079	1000 46 1.000000 0.242000 0.263000 1500 41 1.000000 1.004000 1.097000 600 46 1.000000 0.052000 0.052000 1.200000 0.038000 0.045000
1559841546504452121	1000 46 1.000000 0.251000 0.273000 1500 41 1.000000 1.145000 1.253000 600 45 1.000000 0.052000 0.052000 1.200000 0.039000 0.047000
1559841547010435579	1000 46 1.000000 0.245000 0.266000 1500 41 1.000000 0.991000 1.083000 600 45 1.000000 0.052000 0.052000 1.200000 0.038000 0.045000
1559841547516389996	1000 46 1.000000 0.245000 0.266000 1500 41 1.000000 0.992000 1.084000 600 45 1.000000 0.051000 0.051000 1.200000 0.038000 0.045000
1559841548022253704	1000 46 1.000000 0.249000 0.270000 1500 41 1.000000 0.985000 1.076000 600 45 1.000000 0.051000 0.051000 1.200000 0.031000 0.037000
1559841548528497704	1000 46 1.000000 0.247000 0.268000 1500 41 1.000000 1.102000 1.206000 600 45 1.000000 0.052000 0.052000 1.200000 0.041000 0.049000
1559841549035162913	1000 46 1.000000 0.244000 0.265000 1500 41 1.000000 1.006000 1.101000 600 45 1.000000 0.052000 0.052000 1.200000 0.038000 0.045000
1559841549542708121	1000 46 1.000000 0.254000 0.276000 1500 41 1.000000 0.999000 1.091000 600 45 1.000000 0.051000 0.051000 1.200000 0.031000 0.037000
1559841550048907955	1000 46 1.000000 0.243000 0.264000 1500 41 1.000000 1.015000 1.111000 600 45 1.000000 0.051000 0.051000 1.200000 0.038000 0.045000
1559841550555041121	1000 46 1.000000 0.251000 0.273000 1500 41 1.000000 1.210000 1.326000 600 45 1.000000 0.051000 0.051000 1.200000 0.046000 0.055000
1559841551060962913	1000 46 1.000000 0.243000 0.264000 1500 41 1.000000 1.009000 1.104000 600 45 1.000000 0.052000 0.052000 1.200000 0.035000 0.042000
1559841551567010080	1000 46 1.000000 0.262000 0.284000 1500 41 1.000000 0.995000 1.089000 600 45 1.000000 0.051000 0.051000 1.200000 0.039000 0.047000
1559841552072963788	1000 46 1.000000 0.244000 0.265000 1500 41 1.000000 1.017000 1.111000 600 45 1.000000 0.052000 0.052000 1.200000 0.035000 0.042000
1559841552579072330	1000 46 1.000000 0.243000 0.264000 1500 41 1.000000 1.211000 1.326000 600 45 1.000000 0.051000 0.051000 1.200000 0.048000 0.058000
1559841553084979247	1000 46 1.000000 0.258000 0.280000 1500 41 1.000000 0.988000 1.081000 600 45 1.000000 0.052000 0.052000 1.200000 0.038000 0.045000
1559841553591067622	1000 46 1.000000 0.243000 0.264000 1500 41 1.000000 0.991000 1.083000 600 45 1.000000 0.051000 0.051000 1.200000 0.029000 0.035000
1559841554097365663	1000 46 1.000000 0.244000 0.265000 1500 41 1.000000 0.985000 1.076000 600 45 1.000000 0.051000 0.051000 1.200000 0.038000 0.045000
1559841554603117538	1000 47 1.000000 0.257000 0.279000 1500 41 1.000000 1.231000 1.347000 600 46 1.000000 0.052000 0.052000 1.200000 0.048000 0.058000
1559841555110409372	1000 45 1.000000 0.244000 0.265000 1500 41 1.000000 0.989000 1.082000 600 45 1.000000 0.051000 0.051000 1.200000 0.035000 0.042000
1559841555616341789	1000 46 1.000000 0.242000 0.263000 1500 41 1.000000 0.995000 1.089000 600 45 1.000000 0.051000 0.051000 1.200000 0.039000 0.047000
1559841556122279455	1000 46 1.000000 0.245000 0.266000 1500 41 1.000000 0.997000 1.091000 600 45 1.000000 0.052000 0.052000 1.200000 0.038000 0.045000
1559841556628441372	1000 47 1.000000 0.261000 0.283000 1500 41 1.000000 1.100000 1.204000 600 47 1.000000 0.051000 0.051000 1.200000 0.036000 0.043000
1559841557134624039	1000 46 1.000000 0.242000 0.263000 1500 41 1.000000 1.032000 1.130000 600 45 1.000000 0.051000 0.051000 1.200000 0.040000 0.048000
1559841557640486164	1000 46 1.000000 0.243000 0.264000 1500 41 1.000000 0.988000 1.081000 600 45 1.000000 0.051000 0.051000 1.200000 0.037000 0.044000
1559841558146530414	1000 46 1.000000 0.243000 0.264000 1500 41 1.000000 0.986000 1.077000 600 45 1.000000 0.051000 0.051000 1.200000 0.038000 0.045000
1559841558654682831	1000 46 1.000000 0.251000 0.272000 1500 41 1.000000 1.085000 1.188000 600 46 1.000000 0.052000 0.052000 1.200000 0.042000 0.050000
1559841559160831497	1000 46 1.000000 0.249000 0.270000 1500 41 1.000000 1.032000 1.130000 600 45 1.000000 0.052000 0.052000 1.200000 0.034000 0.041000
1559841559667514497	1000 46 1.000000 0.244000 0.265000 1500 41 1.000000 0.981000 1.074000 600 45 1.000000 0.052000 0.052000 1.200000 0.037000 0.044000
1559841560173747997	1000 46 1.000000 0.256000 0.278000 1500 41 1.000000 0.980000 1.071000 600 45 1.000000 0.051000 0.051000 1.200000 0.038000 0.045000
1559841560679681081	1000 46 1.000000 0.244000 0.265000 1500 41 1.000000 1.084000 1.186000 600 45 1.000000 0.052000 0.052000 1.200000 0.034000 0.041000
1559841561185756123	1000 47 1.000000 0.246000 0.267000 1500 41 1.000000 1.012000 1.108000 600 45 1.000000 0.051000 0.051000 1.200000 0.040000 0.048000
1559841561691792164	1000 46 1.000000 0.245000 0.266000 1500 41 1.000000 1.008000 1.103000 600 45 1.000000 0.052000 0.052000 1.200000 0.040000 0.048000
1559841562197887373	1000 46 1.000000 0.246000 0.267000 1500 41 1.000000 0.991000 1.085000 600 45 1.000000 0.052000 0.052000 1.200000 0.029000 0.035000
1559841562703884039	1000 46 1.000000 0.243000 0.264000 1500 41 1.000000 1.097000 1.201000 600 45 1.000000 0.052000 0.052000 1.200000 0.044000 0.053000
1559841563209605664	1000 47 1.000000 0.247000 0.268000 1500 41 1.000000 1.149000 1.258000 600 45 1.000000 0.051000 0.051000 1.200000 0.045000 0.054000
1559841563715569248	1000 46 1.000000 0.249000 0.270000 1500 41 1.000000 0.989000 1.080000 600 45 1.000000 0.052000 0.052000 1.200000 0.035000 0.042000
1559841564221828373	1000 46 1.000000 0.244000 0.265000 1500 41 1.000000 0.984000 1.075000 600 45 1.000000 0.052000 0.052000 1.200000 0.038000 0.045000
1559841564727873123	1000 47 1.000000 0.243000 0.264000 1500 41 1.000000 1.074000 1.176000 600 45 1.000000 0.051000 0.051000 1.200000 0.041000 0.049000
1559841565235247790	1000 46 1.000000 0.244000 0.265000 1500 41 1.000000 1.147000 1.255000 600 46 1.000000 0.052000 0.052000 1.200000 0.048000 0.058000
1559841565741606123	1000 47 1.000000 0.244000 0.265000 1500 41 1.000000 0.983000 1.074000 600 45 1.000000 0.052000 0.052000 1.200000 0.038000 0.045000
1559841566247515748	1000 47 1.000000 0.244000 0.265000 1500 41 1.000000 0.993000 1.085000 600 45 1.000000 0.052000 0.052000 1.200000 0.029000 0.035000
1559841566753463165	1000 46 1.000000 0.241000 0.262000 1500 41 1.000000 1.080000 1.180000 600 45 1.000000 0.052000 0.052000 1.200000 0.042000 0.050000
1559841567258973040	1000 47 1.000000 0.248000 0.269000 1500 41 1.000000 0.984000 1.075000 600 47 1.000000 0.051000 0.051000 1.200000 0.038000 0.045000
1559841567765137415	1000 46 1.000000 0.247000 0.268000 1500 41 1.000000 1.152000 1.261000 600 45 1.000000 0.052000 0.052000 1.200000 0.045000 0.054000
1559841568271165457	1000 46 1.000000 0.241000 0.262000 1500 41 1.000000 0.984000 1.077000 600 45 1.000000 0.052000 0.052000 1.200000 0.034000 0.041000
1559841568776862832	1000 46 1.000000 0.250000 0.271000 1500 41 1.000000 0.992000 1.084000 600 45 1.000000 0.051000 0.051000 1.200000 0.039000 0.047000
1559841569283016582	1000 46 1.000000 0.241000 0.262000 1500 41 1.000000 0.999000 1.091000 600 46 1.000000 0.052000 0.052000 1.200000 0.037000 0.044000
1559841569789416499	1000 46 1.000000 0.245000 0.266000 1500 41 1.000000 1.167000 1.277000 600 45 1.000000 0.052000 0.052000 1.200000 0.048000 0.058000
1559841570295461457	1000 46 1.000000 0.242000 0.263000 1500 41 1.000000 0.992000 1.084000 600 45 1.000000 0.052000 0.052000 1.200000 0.038000 0.045000
1559841570801641957	1000 46 1.000000 0.261000 0.283000 1500 41 1.000000 0.998000 1.090000 600 45 1.000000 0.052000 0.052000 1.200000 0.031000 0.037000
1559841571307594165	1000 46 1.000000 0.242000 0.263000 1500 41 1.000000 1.005000 1.098000 600 45 1.000000 0.052000 0.052000 1.200000 0.039000 0.047000
1559841571813678499	1000 46 1.000000 0.248000 0.269000 1500 41 1.000000 1.178000 1.289000 600 45 1.000000 0.051000 0.051000 1.200000 0.048000 0.058000
1559841572319595832	1000 47 1.000000 0.254000 0.276000 1500 41 1.000000 0.995000 1.087000 600 45 1.000000 0.051000 0.051000 1.200000 0.034000 0.041000
1559841572825687207	1000 46 1.000000 0.243000 0.264000 1500 41 1.000000 0.984000 1.075000 600 45 1.000000 0.052000 0.052000 1.200000 0.038000 0.045000
1559841573331627999	1000 47 1.000000 0.242000 0.263000 1500 41 1.000000 1.005000 1.098000 600 45 1.000000 0.052000 0.052000 1.200000 0.037000 0.044000
1559841573837599957	1000 47 1.000000 0.244000 0.265000 1500 41 1.000000 1.160000 1.270000 600 45 1.000000 0.052000 0.052000 1.200000 0.048000 0.058000
1559841574344116624	1000 46 1.000000 0.249000 0.270000 1500 41 1.000000 1.003000 1.096000 600 45 1.000000 0.052000 0.052000 1.200000 0.039000 0.047000
1559841574850115708	1000 47 1.000000 0.242000 0.263000 1500 41 1.000000 0.984000 1.075000 600 45 1.000000 0.052000 0.052000 1.200000 0.038000 0.045000
1559841575357411249	1000 46 1.000000 0.245000 0.266000 1500 41 1.000000 1.033000 1.129000 600 45 1.000000 0.052000 0.052000 1.200000 0.037000 0.044000
1559841575863331666	1000 47 1.000000 0.260000 0.282000 1500 41 1.000000 0.981000 1.072000 600 46 1.000000 0.052000 0.052000 1.200000 0.039000 0.047000
1559841576369234166	1000 47 1.000000 0.241000 0.262000 1500 41 1.000000 1.009000 1.102000 600 45 1.000000 0.052000 0.052000 1.200000 0.034000 0.041000
1559841576874990583	1000 47 1.000000 0.242000 0.263000 1500 41 1.000000 0.979000 1.070000 600 46 1.000000 0.052000 0.052000 1.200000 0.039000 0.047000
1559841577381007916	1000 46 1.000000 0.245000 0.266000 1500 41 1.000000 1.001000 1.094000 600 45 1.000000 0.052000 0.052000 1.200000 0.039000 0.047000
1559841577886659416	1000 47 1.000000 0.251000 0.272000 1500 41 1.000000 0.988000 1.079000 600 46 1.000000 0.052000 0.052000 1.200000 0.030000 0.036000
1559841578392563333	1000 47 1.000000 0.243000 0.264000 1500 41 1.000000 0.997000 1.091000 600 45 1.000000 0.052000 0.052000 1.200000 0.038000 0.045000
1559841578898349833	1000 47 1.000000 0.242000 0.263000 1500 41 1.000000 0.977000 1.067000 600 45 1.000000 0.051000 0.051000 1.200000 0.038000 0.045000
1559841579404400166	1000 47 1.000000 0.256000 0.278000 1500 41 1.000000 0.975000 1.067000 600 45 1.000000 0.051000 0.051000 1.200000 0.035000 0.042000
1559841579911419208	1000 46 1.000000 0.242000 0.263000 1500 41 1.000000 0.976000 1.066000 600 47 1.000000 0.052000 0.052000 1.200000 0.038000 0.045000
1559841580417712250	1000 47 1.000000 0.243000 0.264000 1500 41 1.000000 1.185000 1.297000 600 45 1.000000 0.051000 0.051000 1.200000 0.047000 0.056000
1559841580923778583	1000 46 1.000000 0.243000 0.264000 1500 41 1.000000 0.988000 1.079000 600 46 1.000000 0.052000 0.052000 1.200000 0.032000 0.038000
1559841581429818875	1000 47 1.000000 0.244000 0.265000 1500 41 1.000000 1.046000 1.145000 600 45 1.000000 0.052000 0.052000 1.200000 0.042000 0.050000
1559841581935788125	1000 47 1.000000 0.243000 0.264000 1500 41 1.000000 0.990000 1.082000 600 45 1.000000 0.051000 0.051000 1.200000 0.037000 0.044000
1559841582441815458	1000 47 1.000000 0.248000 0.269000 1500 41 1.000000 1.169000 1.280000 600 45 1.000000 0.052000 0.052000 1.200000 0.049000 0.059000
1559841582947775292	1000 47 1.000000 0.255000 0.277000 1500 41 1.000000 1.000000 1.093000 600 46 1.000000 0.052000 0.052000 1.200000 0.038000 0.045000
1559841583453786459	1000 47 1.000000 0.244000 0.265000 1500 41 1.000000 0.989000 1.080000 600 45 1.000000 0.052000 0.052000 1.200000 0.033000 0.039000
1559841583959656042	1000 46 1.000000 0.242000 0.263000 1500 41 1.000000 0.998000 1.090000 600 45 1.000000 0.052000 0.052000 1.200000 0.038000 0.045000
1559841584465577875	1000 47 1.000000 0.249000 0.270000 1500 41 1.000000 1.166000 1.276000 600 46 1.000000 0.051000 0.051000 1.200000 0.047000 0.056000
1559841584971451875	1000 47 1.000000 0.244000 0.265000 1500 41 1.000000 0.980000 1.071000 600 46 1.000000 0.052000 0.052000 1.200000 0.032000 0.038000
1559841585478947875	1000 46 1.000000 0.244000 0.265000 1500 41 1.000000 0.980000 1.071000 600 45 1.000000 0.051000 0.051000 1.200000 0.038000 0.045000
1559841585985111376	1000 47 1.000000 0.241000 0.262000 1500 41 1.000000 0.977000 1.067000 600 45 1.000000 0.052000 0.052000 1.200000 0.037000 0.044000
1559841586491145292	1000 47 1.000000 0.257000 0.279000 1500 41 1.000000 0.981000 1.072000 600 46 1.000000 0.052000 0.052000 1.200000 0.030000 0.036000
1559841586996748959	1000 47 1.000000 0.243000 0.264000 1500 41 1.000000 1.009000 1.102000 600 46 1.000000 0.052000 0.052000 1.200000 0.038000 0.045000
1559841587502725251	1000 46 1.000000 0.240000 0.261000 1500 41 1.000000 1.070000 1.171000 600 45 1.000000 0.052000 0.052000 1.200000 0.041000 0.049000
1559841588008698709	1000 47 1.000000 0.253000 0.275000 1500 41 1.000000 0.997000 1.089000 600 45 1.000000 0.052000 0.052000 1.200000 0.035000 0.042000
1559841588514348584	1000 47 1.000000 0.243000 0.264000 1500 41 1.000000 0.984000 1.077000 600 46 1.000000 0.052000 0.052000 1.200000 0.039000 0.047000
1559841589019986334	1000 47 1.000000 0.238000 0.258000 1500 41 1.000000 0.986000 1.077000 600 46 1.000000 0.051000 0.051000 1.200000 0.035000 0.042000
1559841589525977209	1000 47 1.000000 0.242000 0.263000 1500 41 1.000000 0.981000 1.072000 600 45 1.000000 0.052000 0.052000 1.200000 0.038000 0.045000
1559841590032190876	1000 46 1.000000 0.258000 0.280000 1500 41 1.000000 0.981000 1.074000 600 45 1.000000 0.052000 0.052000 1.200000 0.038000 0.045000
1559841590538390084	1000 47 1.000000 0.245000 0.266000 1500 41 1.000000 0.982000 1.073000 600 47 1.000000 0.052000 0.052000 1.200000 0.029000 0.035000
1559841591045110834	1000 46 1.000000 0.244000 0.265000 1500 41 1.000000 0.978000 1.070000 600 46 1.000000 0.052000 0.052000 1.200000 0.038000 0.045000
1559841591551252335	1000 47 1.000000 0.257000 0.279000 1500 41 1.000000 0.979000 1.070000 600 45 1.000000 0.051000 0.051000 1.200000 0.038000 0.045000
1559841592057217585	1000 47 1.000000 0.244000 0.265000 1500 41 1.000000 0.976000 1.066000 600 45 1.000000 0.052000 0.052000 1.200000 0.035000 0.042000
1559841592563373668	1000 47 1.000000 0.243000 0.264000 1500 41 1.000000 0.998000 1.092000 600 45 1.000000 0.052000 0.052000 1.200000 0.039000 0.047000
1559841593069401668	1000 47 1.000000 0.248000 0.269000 1500 41 1.000000 1.169000 1.280000 600 47 1.000000 0.052000 0.052000 1.200000 0.047000 0.056000
1559841593575342585	1000 47 1.000000 0.254000 0.275000 1500 41 1.000000 1.090000 1.191000 600 45 1.000000 0.052000 0.052000 1.200000 0.035000 0.042000
1559841594081492626	1000 46 1.000000 0.245000 0.266000 1500 41 1.000000 0.980000 1.071000 600 45 1.000000 0.052000 0.052000 1.200000 0.038000 0.045000
1559841594588231918	1000 46 1.000000 0.246000 0.267000 1500 41 1.000000 1.006000 1.101000 600 45 1.000000 0.052000 0.052000 1.200000 0.038000 0.045000
1559841595094478543	1000 47 1.000000 0.263000 0.285000 1500 41 1.000000 1.162000 1.272000 600 47 1.000000 0.051000 0.051000 1.200000 0.048000 0.058000
1559841595601092960	1000 47 1.000000 0.243000 0.264000 1500 41 1.000000 0.979000 1.070000 600 45 1.000000 0.052000 0.052000 1.200000 0.038000 0.045000
1559841596107326127	1000 47 1.000000 0.245000 0.266000 1500 41 1.000000 0.982000 1.073000 600 45 1.000000 0.052000 0.052000 1.200000 0.031000 0.037000
1559841596613428335	1000 47 1.000000 0.242000 0.263000 1500 41 1.000000 0.981000 1.074000 600 45 1.000000 0.052000 0.052000 1.200000 0.038000 0.045000
1559841597119473585	1000 47 1.000000 0.253000 0.275000 1500 41 1.000000 1.180000 1.292000 600 46 1.000000 0.052000 0.052000 1.200000 0.048000 0.058000
1559841597625495169	1000 47 1.000000 0.244000 0.265000 1500 41 1.000000 0.981000 1.072000 600 46 1.000000 0.051000 0.051000 1.200000 0.031000 0.037000
1559841598131422377	1000 47 1.000000 0.245000 0.266000 1500 41 1.000000 0.975000 1.065000 600 45 1.000000 0.052000 0.052000 1.200000 0.037000 0.044000
1559841598637622044	1000 47 1.000000 0.246000 0.267000 1500 41 1.000000 0.977000 1.067000 600 45 1.000000 0.052000 0.052000 1.200000 0.039000 0.047000
1559841599143225252	1000 47 1.000000 0.243000 0.264000 1500 41 1.000000 0.988000 1.079000 600 46 1.000000 0.052000 0.052000 1.200000 0.030000 0.036000
1559841599649098210	1000 47 1.000000 0.245000 0.266000 1500 41 1.000000 1.096000 1.200000 600 46 1.000000 0.052000 0.052000 1.200000 0.042000 0.050000
1559841600155409752	1000 46 1.000000 0.246000 0.267000 1500 41 1.000000 0.979000 1.070000 600 45 1.000000 0.052000 0.052000 1.200000 0.038000 0.045000
1559841600661546294	1000 47 1.000000 0.248000 0.269000 1500 41 1.000000 0.976000 1.066000 600 45 1.000000 0.052000 0.052000 1.200000 0.033000 0.039000
1559841601169733252	1000 46 1.000000 0.243000 0.264000 1500 41 1.000000 0.978000 1.068000 600 47 1.000000 0.051000 0.051000 1.200000 0.037000 0.044000
1559841601676069586	1000 47 1.000000 0.246000 0.267000 1500 41 1.000000 0.985000 1.078000 600 45 1.000000 0.052000 0.052000 1.200000 0.037000 0.044000
1559841602182119252	1000 47 1.000000 0.255000 0.277000 1500 41 1.000000 0.977000 1.069000 600 45 1.000000 0.052000 0.052000 1.200000 0.038000 0.045000
1559841602688049711	1000 47 1.000000 0.244000 0.265000 1500 41 1.000000 0.975000 1.065000 600 45 1.000000 0.052000 0.052000 1.200000 0.038000 0.045000
1559841603194356919	1000 47 1.000000 0.243000 0.264000 1500 41 1.000000 0.982000 1.073000 600 45 1.000000 0.052000 0.052000 1.200000 0.030000 0.036000
1559841603700347794	1000 47 1.000000 0.250000 0.272000 1500 41 1.000000 0.981000 1.072000 600 46 1.000000 0.051000 0.051000 1.200000 0.038000 0.045000
1559841604206274794	1000 47 1.000000 0.244000 0.265000 1500 41 1.000000 0.979000 1.070000 600 45 1.000000 0.052000 0.052000 1.200000 0.038000 0.045000
1559841604712237878	1000 47 1.000000 0.243000 0.264000 1500 41 1.000000 0.995000 1.089000 600 45 1.000000 0.051000 0.051000 1.200000 0.033000 0.039000
1559841605218188128	1000 47 1.000000 0.242000 0.263000 1500 41 1.000000 0.976000 1.068000 600 45 1.000000 0.051000 0.051000 1.200000 0.038000 0.045000
1559841605724501586	1000 47 1.000000 0.259000 0.281000 1500 41 1.000000 0.987000 1.080000 600 46 1.000000 0.051000 0.051000 1.200000 0.052000 0.062000
1559841606230643795	1000 47 1.000000 0.244000 0.265000 1500 41 1.000000 0.997000 1.089000 600 46 1.000000 0.052000 0.052000 1.200000 0.030000 0.036000
1559841606736636295	1000 46 1.000000 0.243000 0.264000 1500 41 1.000000 0.985000 1.076000 600 45 1.000000 0.052000 0.052000 1.200000 0.038000 0.045000
1559841607242617795	1000 47 1.000000 0.252000 0.274000 1500 41 1.000000 0.997000 1.091000 600 45 1.000000 0.052000 0.052000 1.200000 0.037000 0.044000
1559841607748614420	1000 47 1.000000 0.249000 0.270000 1500 41 1.000000 1.042000 1.140000 600 46 1.000000 0.051000 0.051000 1.200000 0.032000 0.038000
1559841608254641253	1000 47 1.000000 0.244000 0.265000 1500 41 1.000000 1.003000 1.096000 600 45 1.000000 0.052000 0.052000 1.200000 0.039000 0.047000
1559841608760601795	1000 47 1.000000 0.243000 0.264000 1500 41 1.000000 0.984000 1.075000 600 45 1.000000 0.052000 0.052000 1.200000 0.038000 0.045000
1559841609266468712	1000 47 1.000000 0.262000 0.284000 1500 41 1.000000 1.001000 1.094000 600 45 1.000000 0.051000 0.051000 1.200000 0.033000 0.039000
1559841609772139920	1000 47 1.000000 0.244000 0.265000 1500 41 1.000000 1.060000 1.158000 600 46 1.000000 0.051000 0.051000 1.200000 0.041000 0.049000
1559841610278717378	1000 47 1.000000 0.236000 0.256000 1500 41 1.000000 0.991000 1.083000 600 45 1.000000 0.051000 0.051000 1.200000 0.037000 0.044000
1559841610784748670	1000 47 1.000000 0.257000 0.279000 1500 41 1.000000 0.982000 1.073000 600 45 1.000000 0.052000 0.052000 1.200000 0.038000 0.045000
1559841611292141004	1000 46 1.000000 0.248000 0.269000 1500 41 1.000000 1.001000 1.094000 600 45 1.000000 0.052000 0.052000 1.200000 0.039000 0.047000
1559841611798205795	1000 47 1.000000 0.245000 0.266000 1500 41 1.000000 0.982000 1.073000 600 47 1.000000 0.052000 0.052000 1.200000 0.037000 0.044000
1559841612304172837	1000 47 1.000000 0.246000 0.267000 1500 41 1.000000 1.177000 1.288000 600 45 1.000000 0.052000 0.052000 1.200000 0.046000 0.055000
1559841612810234629	1000 47 1.000000 0.253000 0.274000 1500 42 1.000000 0.981000 1.072000 600 45 1.000000 0.052000 0.052000 1.200000 0.038000 0.045000
1559841613316237379	1000 47 1.000000 0.244000 0.265000 1500 41 1.000000 1.001000 1.094000 600 45 1.000000 0.052000 0.052000 1.200000 0.035000 0.042000
1559841613822420587	1000 47 1.000000 0.245000 0.266000 1500 41 1.000000 1.004000 1.099000 600 46 1.000000 0.052000 0.052000 1.200000 0.038000 0.045000
1559841614328516587	1000 47 1.000000 0.262000 0.285000 1500 41 1.000000 1.180000 1.292000 600 46 1.000000 0.052000 0.052000 1.200000 0.050000 0.060000
1559841614834401462	1000 47 1.000000 0.243000 0.264000 1500 41 1.000000 0.990000 1.082000 600 45 1.000000 0.052000 0.052000 1.200000 0.030000 0.036000
1559841615340318421	1000 47 1.000000 0.245000 0.266000 1500 41 1.000000 0.992000 1.084000 600 45 1.000000 0.052000 0.052000 1.200000 0.039000 0.047000
1559841615846508837	1000 47 1.000000 0.244000 0.265000 1500 41 1.000000 1.078000 1.180000 600 45 1.000000 0.052000 0.052000 1.200000 0.041000 0.049000
1559841616352547296	1000 47 1.000000 0.256000 0.278000 1500 41 1.000000 1.159000 1.269000 600 46 1.000000 0.052000 0.052000 1.200000 0.046000 0.055000
1559841616858721004	1000 46 1.000000 0.245000 0.266000 1500 41 1.000000 0.978000 1.068000 600 45 1.000000 0.052000 0.052000 1.200000 0.038000 0.045000
1559841617364945796	1000 47 1.000000 0.245000 0.266000 1500 41 1.000000 0.983000 1.074000 600 45 1.000000 0.052000 0.052000 1.200000 0.039000 0.047000
1559841617871088838	1000 47 1.000000 0.248000 0.269000 1500 41 1.000000 1.002000 1.095000 600 45 1.000000 0.052000 0.052000 1.200000 0.032000 0.038000
1559841618376796838	1000 47 1.000000 0.245000 0.266000 1500 41 1.000000 0.983000 1.074000 600 46 1.000000 0.052000 0.052000 1.200000 0.039000 0.047000
1559841618882858213	1000 47 1.000000 0.244000 0.265000 1500 41 1.000000 1.001000 1.094000 600 45 1.000000 0.052000 0.052000 1.200000 0.037000 0.044000
1559841619388741463	1000 47 1.000000 0.246000 0.267000 1500 41 1.000000 0.980000 1.071000 600 45 1.000000 0.052000 0.052000 1.200000 0.039000 0.047000
1559841619894743046	1000 47 1.000000 0.246000 0.267000 1500 41 1.000000 1.001000 1.094000 600 46 1.000000 0.052000 0.052000 1.200000 0.038000 0.045000
1559841620400426546	1000 47 1.000000 0.248000 0.269000 1500 41 1.000000 0.989000 1.080000 600 46 1.000000 0.052000 0.052000 1.200000 0.033000 0.039000
1559841620906374505	1000 47 1.000000 0.246000 0.267000 1500 41 1.000000 1.003000 1.096000 600 46 1.000000 0.052000 0.052000 1.200000 0.038000 0.045000
1559841621413183171	1000 47 1.000000 0.253000 0.275000 1500 41 1.000000 0.978000 1.068000 600 45 1.000000 0.051000 0.051000 1.200000 0.039000 0.047000
1559841621919505546	1000 47 1.000000 0.245000 0.266000 1500 41 1.000000 1.061000 1.159000 600 45 1.000000 0.052000 0.052000 1.200000 0.037000 0.044000
1559841622425110005	1000 47 1.000000 0.244000 0.265000 1500 41 1.000000 0.981000 1.072000 600 47 1.000000 0.051000 0.051000 1.200000 0.038000 0.045000
1559841622931053172	1000 47 1.000000 0.238000 0.258000 1500 41 1.000000 0.970000 1.060000 600 45 1.000000 0.051000 0.051000 1.200000 0.037000 0.044000
1559841623437012505	1000 47 1.000000 0.259000 0.281000 1500 41 1.000000 0.992000 1.084000 600 45 1.000000 0.052000 0.052000 1.200000 0.031000 0.037000
1559841623942758213	1000 47 1.000000 0.244000 0.265000 1500 41 1.000000 0.992000 1.084000 600 45 1.000000 0.052000 0.052000 1.200000 0.038000 0.045000
1559841624449085463	1000 47 1.000000 0.244000 0.265000 1500 41 1.000000 0.990000 1.082000 600 46 1.000000 0.052000 0.052000 1.200000 0.039000 0.047000
1559841624955304214	1000 47 1.000000 0.264000 0.286000 1500 41 1.000000 1.176000 1.287000 600 46 1.000000 0.052000 0.052000 1.200000 0.046000 0.055000
1559841625461216964	1000 47 1.000000 0.245000 0.266000 1500 41 1.000000 0.993000 1.085000 600 45 1.000000 0.052000 0.052000 1.200000 0.039000 0.047000
1559841625967407672	1000 46 1.000000 0.243000 0.264000 1500 41 1.000000 0.986000 1.077000 600 46 1.000000 0.051000 0.051000 1.200000 0.035000 0.042000
1559841626473661672	1000 47 1.000000 0.253000 0.275000 1500 41 1.000000 0.995000 1.087000 600 45 1.000000 0.052000 0.052000 1.200000 0.038000 0.045000
1559841626980833964	1000 46 1.000000 0.254000 0.275000 1500 41 1.000000 1.173000 1.284000 600 46 1.000000 0.052000 0.052000 1.200000 0.048000 0.058000
1559841627487139422	1000 47 1.000000 0.245000 0.266000 1500 41 1.000000 0.987000 1.078000 600 45 1.000000 0.052000 0.052000 1.200000 0.029000 0.035000
1559841627993110422	1000 47 1.000000 0.241000 0.262000 1500 41 1.000000 1.049000 1.148000 600 46 1.000000 0.052000 0.052000 1.200000 0.041000 0.049000
1559841628499084714	1000 47 1.000000 0.261000 0.283000 1500 41 1.000000 0.977000 1.067000 600 45 1.000000 0.052000 0.052000 1.200000 0.037000 0.044000
1559841629004975297	1000 47 1.000000 0.247000 0.268000 1500 41 1.000000 1.160000 1.270000 600 46 1.000000 0.052000 0.052000 1.200000 0.044000 0.053000
1559841629510888506	1000 47 1.000000 0.243000 0.264000 1500 41 1.000000 0.980000 1.071000 600 46 1.000000 0.052000 0.052000 1.200000 0.038000 0.045000
1559841630016802422	1000 47 1.000000 0.243000 0.264000 1500 41 1.000000 0.982000 1.073000 600 46 1.000000 0.052000 0.052000 1.200000 0.038000 0.045000
1559841630522671589	1000 47 1.000000 0.248000 0.269000 1500 41 1.000000 1.004000 1.097000 600 45 1.000000 0.052000 0.052000 1.200000 0.033000 0.039000
1559841631028600798	1000 47 1.000000 0.244000 0.265000 1500 41 1.000000 0.978000 1.068000 600 46 1.000000 0.052000 0.052000 1.200000 0.038000 0.045000
1559841631534864631	1000 47 1.000000 0.243000 0.264000 1500 41 1.000000 1.003000 1.098000 600 45 1.000000 0.052000 0.052000 1.200000 0.038000 0.045000
1559841632040653298	1000 47 1.000000 0.253000 0.274000 1500 42 1.000000 0.982000 1.073000 600 46 1.000000 0.052000 0.052000 1.200000 0.038000 0.045000
1559841632546577423	1000 47 1.000000 0.243000 0.264000 1500 41 1.000000 0.980000 1.071000 600 45 1.000000 0.052000 0.052000 1.200000 0.039000 0.047000
1559841633052198214	1000 47 1.000000 0.246000 0.267000 1500 42 1.000000 0.978000 1.068000 600 46 1.000000 0.052000 0.052000 1.200000 0.031000 0.037000
1559841633558135590	1000 47 1.000000 0.246000 0.267000 1500 41 1.000000 0.976000 1.066000 600 46 1.000000 0.052000 0.052000 1.200000 0.038000 0.045000
1559841634063799048	1000 47 1.000000 0.244000 0.265000 1500 41 1.000000 1.045000 1.142000 600 46 1.000000 0.051000 0.051000 1.200000 0.038000 0.045000
1559841634569432965	1000 42 1.000000 0.245000 0.266000 1500 41 1.000000 0.979000 1.070000 600 45 1.000000 0.052000 0.052000 1.200000 0.031000 0.037000
1559841635075257881	1000 40 1.100000 0.047000 0.051000 1500 39 1.100000 0.186000 0.204000 600 46 1.000000 0.051000 0.051000 1.200000 0.022000 0.026000
