timestamp 	VIRTUAL_SCALING 	CPU0_FREQ 	CPU1_FREQ 	CPU2_FREQ 	CPU3_FREQ 	CPU4_FREQ 	CPU5_FREQ 	CPU6_FREQ 	CPU7_FREQ 	GPU_FREQ 	CPU_GOVERNOR 	CPU0_TEMP 	CPU1_TEMP 	CPU2_TEMP 	CPU3_TEMP 	GPU_TEMP
1576511255297058323 	1 	200 	200 	200 	200 	400 	400 	400 	400 	600 	performance 	30 	30 	34 	31 	29
1576511255469244823  	0 	200 	200 	200 	200 	400 	400 	400 	400 	600  	performance 	30 	30 	34 	31 	29
1576511256682666614 	1 	200 	200 	200 	200 	400 	400 	400 	400 	600 	performance 	30 	30 	34 	31 	29
1576511256857548323  	0 	200 	200 	200 	200 	400 	400 	400 	400 	600  	performance 	31 	30 	34 	31 	29
1576511258070201365 	1 	200 	200 	200 	200 	400 	400 	400 	400 	600 	performance 	31 	31 	34 	31 	29
1576511258247207906  	0 	200 	200 	200 	200 	400 	400 	400 	400 	600  	performance 	31 	31 	34 	31 	29
1576511259463473615 	1 	200 	200 	200 	200 	400 	400 	400 	400 	600 	performance 	31 	31 	34 	31 	29
1576511259647147115  	0 	200 	200 	200 	200 	400 	400 	400 	400 	600  	performance 	31 	31 	34 	31 	29
1576511260866594865 	1 	200 	200 	200 	200 	400 	400 	400 	400 	600 	performance 	31 	31 	34 	31 	29
1576511261043113907  	0 	200 	200 	200 	200 	400 	400 	400 	400 	600  	performance 	31 	31 	34 	31 	29
1576511262255925615 	1 	200 	200 	200 	200 	400 	400 	400 	400 	600 	performance 	31 	31 	34 	31 	29
1576511262434915115  	0 	200 	200 	200 	200 	400 	400 	400 	400 	600  	performance 	31 	31 	34 	31 	29
1576511263647591740 	1 	200 	200 	200 	200 	400 	400 	400 	400 	600 	performance 	31 	31 	34 	31 	29
1576511263824966449  	0 	200 	200 	200 	200 	400 	400 	400 	400 	600  	performance 	31 	31 	34 	31 	29
1576511265040726407 	1 	200 	200 	200 	200 	400 	400 	400 	400 	600 	performance 	31 	31 	34 	31 	29
1576511265232938532  	0 	200 	200 	200 	200 	400 	400 	400 	400 	600  	performance 	31 	31 	34 	31 	29
1576511266431314741 	1 	200 	200 	200 	200 	400 	400 	400 	400 	600 	performance 	31 	31 	34 	31 	29
1576511266591397366  	0 	200 	200 	200 	200 	400 	400 	400 	400 	600  	performance 	31 	31 	34 	31 	29
1576511267781491741 	1 	200 	200 	200 	200 	400 	400 	400 	400 	600 	performance 	31 	31 	34 	31 	29
1576511267940096366  	0 	200 	200 	200 	200 	400 	400 	400 	400 	600  	performance 	31 	31 	34 	31 	29
1576511269135559408 	1 	200 	200 	200 	200 	400 	400 	400 	400 	600 	performance 	31 	31 	34 	31 	29
1576511269305192158  	0 	200 	200 	200 	200 	400 	400 	400 	400 	600  	performance 	31 	31 	34 	31 	29
1576511270495703408 	1 	200 	200 	200 	200 	400 	400 	400 	400 	600 	performance 	31 	31 	34 	31 	29
1576511270653098866  	0 	200 	200 	200 	200 	400 	400 	400 	400 	600  	performance 	31 	31 	34 	31 	29
1576511271862754783 	1 	200 	200 	200 	200 	400 	400 	400 	400 	600 	performance 	31 	31 	34 	31 	29
1576511272044985200  	0 	200 	200 	200 	200 	400 	400 	400 	400 	600  	performance 	31 	31 	34 	31 	29
1576511273239688408 	1 	200 	200 	200 	200 	400 	400 	400 	400 	600 	performance 	31 	31 	34 	31 	29
1576511273398665033  	0 	200 	200 	200 	200 	400 	400 	400 	400 	600  	performance 	31 	31 	34 	31 	29
1576511274587103117 	1 	200 	200 	200 	200 	400 	400 	400 	400 	600 	performance 	31 	31 	34 	31 	29
1576511274743739408  	0 	200 	200 	200 	200 	400 	400 	400 	400 	600  	performance 	31 	31 	34 	31 	29
1576511275937345450 	1 	200 	200 	200 	200 	400 	400 	400 	400 	600 	performance 	31 	31 	34 	31 	29
1576511276093540533  	0 	200 	200 	200 	200 	400 	400 	400 	400 	600  	performance 	31 	31 	34 	31 	29
1576511277283349034 	1 	200 	200 	200 	200 	400 	400 	400 	400 	600 	performance 	31 	31 	34 	31 	29
1576511277442712867  	0 	200 	200 	200 	200 	400 	400 	400 	400 	600  	performance 	31 	31 	34 	31 	29
1576511278648210575 	1 	200 	200 	200 	200 	400 	400 	400 	400 	600 	performance 	31 	30 	34 	31 	29
1576511278824019242  	0 	200 	200 	200 	200 	400 	400 	400 	400 	600  	performance 	31 	31 	34 	31 	29
1576511280022487992 	1 	200 	200 	200 	200 	400 	400 	400 	400 	600 	performance 	31 	31 	34 	31 	29
1576511280189182951  	0 	200 	200 	200 	200 	400 	400 	400 	400 	600  	performance 	31 	31 	34 	31 	29
1576511281378606076 	1 	200 	200 	200 	200 	400 	400 	400 	400 	600 	performance 	31 	31 	34 	31 	29
1576511281535945659  	0 	200 	200 	200 	200 	400 	400 	400 	400 	600  	performance 	31 	31 	34 	31 	29
1576511282728956743 	1 	200 	200 	200 	200 	400 	400 	400 	400 	600 	performance 	31 	31 	34 	31 	29
1576511282886541201  	0 	200 	200 	200 	200 	400 	400 	400 	400 	600  	performance 	31 	31 	34 	31 	29
1576511284076011576 	1 	200 	200 	200 	200 	400 	400 	400 	400 	600 	performance 	31 	31 	34 	31 	29
1576511284235663076  	0 	200 	200 	200 	200 	400 	400 	400 	400 	600  	performance 	31 	31 	34 	31 	29
1576511285425576118 	1 	200 	200 	200 	200 	400 	400 	400 	400 	600 	performance 	31 	31 	34 	31 	29
1576511285589170618  	0 	200 	200 	200 	200 	400 	400 	400 	400 	600  	performance 	31 	31 	34 	32 	29
1576511286791935410 	1 	200 	200 	200 	200 	400 	400 	400 	400 	600 	performance 	31 	31 	34 	31 	29
1576511286953045660  	0 	200 	200 	200 	200 	400 	400 	400 	400 	600  	performance 	31 	31 	34 	31 	29
1576511288143148952 	1 	200 	200 	200 	200 	400 	400 	400 	400 	600 	performance 	31 	31 	34 	31 	29
1576511288300121327  	0 	200 	200 	200 	200 	400 	400 	400 	400 	600  	performance 	31 	31 	34 	31 	29
1576511289491910285 	1 	200 	200 	200 	200 	400 	400 	400 	400 	600 	performance 	31 	31 	34 	31 	29
1576511289649266577  	0 	200 	200 	200 	200 	400 	400 	400 	400 	600  	performance 	31 	31 	34 	31 	29
1576511290839727077 	1 	200 	200 	200 	200 	400 	400 	400 	400 	600 	performance 	31 	31 	34 	31 	29
1576511291000356577  	0 	200 	200 	200 	200 	400 	400 	400 	400 	600  	performance 	31 	31 	34 	31 	29
1576511292189735327 	1 	200 	200 	200 	200 	400 	400 	400 	400 	600 	performance 	31 	31 	34 	31 	29
1576511292349153785  	0 	200 	200 	200 	200 	400 	400 	400 	400 	600  	performance 	31 	30 	34 	31 	29
1576511293546550161 	1 	200 	200 	200 	200 	400 	400 	400 	400 	600 	performance 	31 	31 	34 	31 	29
1576511293705985202  	0 	200 	200 	200 	200 	400 	400 	400 	400 	600  	performance 	31 	31 	34 	31 	29
1576511294912960952 	1 	200 	200 	200 	200 	400 	400 	400 	400 	600 	performance 	31 	31 	34 	31 	29
1576511295069381577  	0 	200 	200 	200 	200 	400 	400 	400 	400 	600  	performance 	31 	31 	34 	31 	29
1576511296261237911 	1 	200 	200 	200 	200 	400 	400 	400 	400 	600 	performance 	31 	31 	34 	31 	29
1576511296418576328  	0 	200 	200 	200 	200 	400 	400 	400 	400 	600  	performance 	31 	30 	34 	31 	29
1576511297607435869 	1 	200 	200 	200 	200 	400 	400 	400 	400 	600 	performance 	31 	31 	34 	31 	29
1576511297767551494  	0 	200 	200 	200 	200 	400 	400 	400 	400 	600  	performance 	31 	31 	34 	31 	29
1576511298957301536 	1 	200 	200 	200 	200 	400 	400 	400 	400 	600 	performance 	31 	30 	34 	31 	29
1576511299114317911  	0 	200 	200 	200 	200 	400 	400 	400 	400 	600  	performance 	31 	31 	34 	31 	29
1576511300305055578 	1 	200 	200 	200 	200 	400 	400 	400 	400 	600 	performance 	31 	31 	34 	31 	29
1576511300468465203  	0 	200 	200 	200 	200 	400 	400 	400 	400 	600  	performance 	31 	31 	34 	31 	29
1576511301661149870 	1 	200 	200 	200 	200 	400 	400 	400 	400 	600 	performance 	31 	30 	34 	31 	29
1576511301826966995  	0 	200 	200 	200 	200 	400 	400 	400 	400 	600  	performance 	31 	31 	34 	31 	29
1576511303039416162 	1 	200 	200 	200 	200 	400 	400 	400 	400 	600 	performance 	31 	31 	34 	31 	29
1576511303197161412  	0 	200 	200 	200 	200 	400 	400 	400 	400 	600  	performance 	31 	31 	34 	31 	29
1576511304387839120 	1 	200 	200 	200 	200 	400 	400 	400 	400 	600 	performance 	31 	30 	34 	31 	29
1576511304547473287  	0 	200 	200 	200 	200 	400 	400 	400 	400 	600  	performance 	31 	31 	34 	31 	29
1576511305737655870 	1 	200 	200 	200 	200 	400 	400 	400 	400 	600 	performance 	31 	30 	34 	31 	29
1576511305895192162  	0 	200 	200 	200 	200 	400 	400 	400 	400 	600  	performance 	31 	30 	34 	31 	29
1576511307088058745 	1 	200 	200 	200 	200 	400 	400 	400 	400 	600 	performance 	31 	30 	34 	31 	29
1576511307245978412  	0 	200 	200 	200 	200 	400 	400 	400 	400 	600  	performance 	31 	31 	34 	31 	29
1576511308435947329 	1 	200 	200 	200 	200 	400 	400 	400 	400 	600 	performance 	31 	31 	34 	31 	29
1576511308625633287  	0 	200 	200 	200 	200 	400 	400 	400 	400 	600  	performance 	31 	31 	34 	32 	29
1576511309829132746 	1 	200 	200 	200 	200 	400 	400 	400 	400 	600 	performance 	31 	31 	34 	31 	29
1576511309987630912  	0 	200 	200 	200 	200 	400 	400 	400 	400 	600  	performance 	31 	30 	34 	31 	29
1576511311178680788 	1 	200 	200 	200 	200 	400 	400 	400 	400 	600 	performance 	31 	31 	34 	31 	29
1576511311338540704  	0 	200 	200 	200 	200 	400 	400 	400 	400 	600  	performance 	31 	31 	34 	31 	29
1576511312528313746 	1 	200 	200 	200 	200 	400 	400 	400 	400 	600 	performance 	31 	30 	34 	31 	29
1576511312686443204  	0 	200 	200 	200 	200 	400 	400 	400 	400 	600  	performance 	31 	30 	34 	31 	29
1576511313881716330 	1 	200 	200 	200 	200 	400 	400 	400 	400 	600 	performance 	31 	31 	34 	31 	29
1576511314037966455  	0 	200 	200 	200 	200 	400 	400 	400 	400 	600  	performance 	31 	30 	34 	31 	29
1576511315227274871 	1 	200 	200 	200 	200 	400 	400 	400 	400 	600 	performance 	31 	30 	34 	31 	29
1576511315415254913  	0 	200 	200 	200 	200 	400 	400 	400 	400 	600  	performance 	31 	31 	34 	31 	29
1576511316611158497 	1 	200 	200 	200 	200 	400 	400 	400 	400 	600 	performance 	31 	31 	34 	31 	29
1576511316768686163  	0 	200 	200 	200 	200 	400 	400 	400 	400 	600  	performance 	31 	31 	34 	31 	29
1576511317960037372 	1 	200 	200 	200 	200 	400 	400 	400 	400 	600 	performance 	31 	30 	34 	31 	29
1576511318118291247  	0 	200 	200 	200 	200 	400 	400 	400 	400 	600  	performance 	31 	31 	34 	31 	29
1576511319307802122 	1 	200 	200 	200 	200 	400 	400 	400 	400 	600 	performance 	31 	30 	34 	31 	29
1576511319465253039  	0 	200 	200 	200 	200 	400 	400 	400 	400 	600  	performance 	31 	30 	34 	31 	29
1576511320670584872 	1 	200 	200 	200 	200 	400 	400 	400 	400 	600 	performance 	31 	30 	34 	31 	29
1576511320847371455  	0 	200 	200 	200 	200 	400 	400 	400 	400 	600  	performance 	31 	30 	34 	31 	29
1576511322060185039 	1 	200 	200 	200 	200 	400 	400 	400 	400 	600 	performance 	31 	30 	34 	31 	29
1576511322244501956  	0 	200 	200 	200 	200 	400 	400 	400 	400 	600  	performance 	31 	31 	34 	31 	29
1576511323439478039 	1 	200 	200 	200 	200 	400 	400 	400 	400 	600 	performance 	31 	30 	34 	31 	29
1576511323597134956  	0 	200 	200 	200 	200 	400 	400 	400 	400 	600  	performance 	31 	31 	34 	31 	29
1576511324789567414 	1 	200 	200 	200 	200 	400 	400 	400 	400 	600 	performance 	31 	30 	34 	31 	29
1576511324948035873  	0 	200 	200 	200 	200 	400 	400 	400 	400 	600  	performance 	31 	30 	34 	31 	29
1576511326138481414 	1 	200 	200 	200 	200 	400 	400 	400 	400 	600 	performance 	31 	30 	34 	31 	29
1576511326301416539  	0 	200 	200 	200 	200 	400 	400 	400 	400 	600  	performance 	31 	30 	34 	31 	29
1576511327492757373 	1 	200 	200 	200 	200 	400 	400 	400 	400 	600 	performance 	31 	30 	34 	31 	29
1576511327650369706  	0 	200 	200 	200 	200 	400 	400 	400 	400 	600  	performance 	31 	30 	34 	31 	29
1576511328841705998 	1 	200 	200 	200 	200 	400 	400 	400 	400 	600 	performance 	31 	30 	34 	31 	29
1576511329008434915  	0 	200 	200 	200 	200 	400 	400 	400 	400 	600  	performance 	31 	31 	34 	31 	29
1576511330207637248 	1 	200 	200 	200 	200 	400 	400 	400 	400 	600 	performance 	31 	31 	34 	31 	29
1576511330365499207  	0 	200 	200 	200 	200 	400 	400 	400 	400 	600  	performance 	31 	30 	34 	31 	29
1576511331557376665 	1 	200 	200 	200 	200 	400 	400 	400 	400 	600 	performance 	31 	31 	34 	31 	29
1576511331713817040  	0 	200 	200 	200 	200 	400 	400 	400 	400 	600  	performance 	31 	30 	34 	31 	29
1576511332907939082 	1 	200 	200 	200 	200 	400 	400 	400 	400 	600 	performance 	31 	30 	34 	31 	29
1576511333067117165  	0 	200 	200 	200 	200 	400 	400 	400 	400 	600  	performance 	31 	31 	34 	31 	29
1576511334259499082 	1 	200 	200 	200 	200 	400 	400 	400 	400 	600 	performance 	31 	30 	34 	31 	29
1576511334416932665  	0 	200 	200 	200 	200 	400 	400 	400 	400 	600  	performance 	31 	30 	34 	31 	29
1576511335621891499 	1 	200 	200 	200 	200 	400 	400 	400 	400 	600 	performance 	31 	30 	34 	31 	29
1576511335811035041  	0 	200 	200 	200 	200 	400 	400 	400 	400 	600  	performance 	31 	31 	34 	31 	29
1576511337035336374 	1 	200 	200 	200 	200 	400 	400 	400 	400 	600 	performance 	31 	31 	34 	31 	29
1576511337219129041  	0 	200 	200 	200 	200 	400 	400 	400 	400 	600  	performance 	31 	30 	34 	31 	29
1576511338411419624 	1 	200 	200 	200 	200 	400 	400 	400 	400 	600 	performance 	31 	30 	34 	31 	29
1576511338567214041  	0 	200 	200 	200 	200 	400 	400 	400 	400 	600  	performance 	31 	31 	34 	31 	29
1576511339756495249 	1 	200 	200 	200 	200 	400 	400 	400 	400 	600 	performance 	31 	30 	34 	31 	29
1576511339929478124  	0 	200 	200 	200 	200 	400 	400 	400 	400 	600  	performance 	31 	30 	34 	31 	29
1576511341140411333 	1 	200 	200 	200 	200 	400 	400 	400 	400 	600 	performance 	31 	30 	34 	31 	29
1576511341316689208  	0 	200 	200 	200 	200 	400 	400 	400 	400 	600  	performance 	31 	30 	34 	31 	29
1576511342533957291 	1 	200 	200 	200 	200 	400 	400 	400 	400 	600 	performance 	31 	30 	34 	31 	29
1576511342718965000  	0 	200 	200 	200 	200 	400 	400 	400 	400 	600  	performance 	31 	31 	34 	31 	29
1576511343921551333 	1 	200 	200 	200 	200 	400 	400 	400 	400 	600 	performance 	31 	30 	34 	31 	29
1576511344081725583  	0 	200 	200 	200 	200 	400 	400 	400 	400 	600  	performance 	31 	30 	34 	31 	29
1576511345271334042 	1 	200 	200 	200 	200 	400 	400 	400 	400 	600 	performance 	31 	30 	34 	31 	29
1576511345428490000  	0 	200 	200 	200 	200 	400 	400 	400 	400 	600  	performance 	31 	30 	34 	31 	29
1576511346621547917 	1 	200 	200 	200 	200 	400 	400 	400 	400 	600 	performance 	31 	30 	34 	31 	29
1576511346778644042  	0 	200 	200 	200 	200 	400 	400 	400 	400 	600  	performance 	31 	30 	34 	31 	29
1576511347969152084 	1 	200 	200 	200 	200 	400 	400 	400 	400 	600 	performance 	31 	30 	34 	31 	29
1576511348129039417  	0 	200 	200 	200 	200 	400 	400 	400 	400 	600  	performance 	31 	30 	34 	31 	29
1576511349325435292 	1 	200 	200 	200 	200 	400 	400 	400 	400 	600 	performance 	31 	30 	34 	31 	29
1576511349494576751  	0 	200 	200 	200 	200 	400 	400 	400 	400 	600  	performance 	31 	31 	34 	31 	29
1576511350714237876 	1 	200 	200 	200 	200 	400 	400 	400 	400 	600 	performance 	31 	30 	34 	31 	29
1576511350891653084  	0 	200 	200 	200 	200 	400 	400 	400 	400 	600  	performance 	31 	30 	34 	31 	29
1576511352104839209 	1 	200 	200 	200 	200 	400 	400 	400 	400 	600 	performance 	31 	30 	34 	31 	29
1576511352283360584  	0 	200 	200 	200 	200 	400 	400 	400 	400 	600  	performance 	31 	30 	34 	31 	29
1576511353499249001 	1 	200 	200 	200 	200 	400 	400 	400 	400 	600 	performance 	31 	30 	34 	31 	29
1576511353675048668  	0 	200 	200 	200 	200 	400 	400 	400 	400 	600  	performance 	31 	30 	34 	31 	29
1576511354888854209 	1 	200 	200 	200 	200 	400 	400 	400 	400 	600 	performance 	31 	30 	34 	31 	29
1576511355074137335  	0 	200 	200 	200 	200 	400 	400 	400 	400 	600  	performance 	31 	31 	34 	31 	29
1576511356300776710 	1 	200 	200 	200 	200 	400 	400 	400 	400 	600 	performance 	31 	31 	34 	31 	29
1576511356478605335  	0 	200 	200 	200 	200 	400 	400 	400 	400 	600  	performance 	31 	31 	34 	31 	29
1576511357689298251 	1 	200 	200 	200 	200 	400 	400 	400 	400 	600 	performance 	31 	30 	34 	31 	29
1576511357866448752  	0 	200 	200 	200 	200 	400 	400 	400 	400 	600  	performance 	31 	30 	34 	31 	29
1576511359080330293 	1 	200 	200 	200 	200 	400 	400 	400 	400 	600 	performance 	31 	30 	34 	31 	29
1576511359257139127  	0 	200 	200 	200 	200 	400 	400 	400 	400 	600  	performance 	31 	30 	34 	31 	29
1576511360469204085 	1 	200 	200 	200 	200 	400 	400 	400 	400 	600 	performance 	31 	30 	34 	31 	29
1576511360647242127  	0 	200 	200 	200 	200 	400 	400 	400 	400 	600  	performance 	31 	31 	34 	31 	29
1576511361866030585 	1 	200 	200 	200 	200 	400 	400 	400 	400 	600 	performance 	30 	30 	34 	31 	29
1576511362045329710  	0 	200 	200 	200 	200 	400 	400 	400 	400 	600  	performance 	31 	30 	34 	31 	29
1576511363259794085 	1 	200 	200 	200 	200 	400 	400 	400 	400 	600 	performance 	31 	30 	34 	31 	29
1576511363435568502  	0 	200 	200 	200 	200 	400 	400 	400 	400 	600  	performance 	31 	30 	34 	31 	29
1576511364647011627 	1 	200 	200 	200 	200 	400 	400 	400 	400 	600 	performance 	31 	30 	34 	31 	29
1576511364827118752  	0 	200 	200 	200 	200 	400 	400 	400 	400 	600  	performance 	31 	30 	34 	31 	29
1576511366039227919 	1 	200 	200 	200 	200 	400 	400 	400 	400 	600 	performance 	31 	30 	34 	31 	29
1576511366216706628  	0 	200 	200 	200 	200 	400 	400 	400 	400 	600  	performance 	31 	30 	34 	31 	29
1576511367431856919 	1 	200 	200 	200 	200 	400 	400 	400 	400 	600 	performance 	31 	30 	34 	31 	29
1576511367621058128  	0 	200 	200 	200 	200 	400 	400 	400 	400 	600  	performance 	31 	31 	34 	31 	29
1576511368814543628 	1 	200 	200 	200 	200 	400 	400 	400 	400 	600 	performance 	31 	30 	34 	31 	29
1576511368973759836  	0 	200 	200 	200 	200 	400 	400 	400 	400 	600  	performance 	31 	30 	34 	31 	29
1576511370162509211 	1 	200 	200 	200 	200 	400 	400 	400 	400 	600 	performance 	31 	30 	34 	31 	29
1576511370320225878  	0 	200 	200 	200 	200 	400 	400 	400 	400 	600  	performance 	31 	30 	34 	31 	29
1576511371512738753 	1 	200 	200 	200 	200 	400 	400 	400 	400 	600 	performance 	31 	30 	34 	31 	29
1576511371669955711  	0 	200 	200 	200 	200 	400 	400 	400 	400 	600  	performance 	31 	30 	34 	31 	29
1576511372860640087 	1 	200 	200 	200 	200 	400 	400 	400 	400 	600 	performance 	31 	30 	34 	31 	29
1576511373018500878  	0 	200 	200 	200 	200 	400 	400 	400 	400 	600  	performance 	31 	30 	34 	31 	29
1576511374221618712 	1 	200 	200 	200 	200 	400 	400 	400 	400 	600 	performance 	31 	30 	34 	31 	29
1576511374403827587  	0 	200 	200 	200 	200 	400 	400 	400 	400 	600  	performance 	31 	31 	34 	31 	29
1576511375596704462 	1 	200 	200 	200 	200 	400 	400 	400 	400 	600 	performance 	31 	30 	34 	31 	29
1576511375772160420  	0 	200 	200 	200 	200 	400 	400 	400 	400 	600  	performance 	31 	30 	34 	31 	29
1576511376985840420 	1 	200 	200 	200 	200 	400 	400 	400 	400 	600 	performance 	31 	30 	34 	31 	29
1576511377161984295  	0 	200 	200 	200 	200 	400 	400 	400 	400 	600  	performance 	31 	30 	34 	31 	29
1576511378377424962 	1 	200 	200 	200 	200 	400 	400 	400 	400 	600 	performance 	31 	30 	34 	31 	29
1576511378553284046  	0 	200 	200 	200 	200 	400 	400 	400 	400 	600  	performance 	31 	30 	34 	31 	29
1576511379764137837 	1 	200 	200 	200 	200 	400 	400 	400 	400 	600 	performance 	31 	30 	34 	31 	29
1576511379952458962  	0 	200 	200 	200 	200 	400 	400 	400 	400 	600  	performance 	31 	31 	34 	31 	29
1576511381175601463 	1 	200 	200 	200 	200 	400 	400 	400 	400 	600 	performance 	31 	30 	34 	31 	29
1576511381352826963  	0 	200 	200 	200 	200 	400 	400 	400 	400 	600  	performance 	31 	31 	34 	31 	29
1576511382566754754 	1 	200 	200 	200 	200 	400 	400 	400 	400 	600 	performance 	31 	31 	34 	31 	29
1576511382741684171  	0 	200 	200 	200 	200 	400 	400 	400 	400 	600  	performance 	31 	30 	34 	31 	29
1576511383957229255 	1 	200 	200 	200 	200 	400 	400 	400 	400 	600 	performance 	31 	30 	34 	31 	29
1576511384134809588  	0 	200 	200 	200 	200 	400 	400 	400 	400 	600  	performance 	31 	30 	34 	31 	29
1576511385346343088 	1 	200 	200 	200 	200 	400 	400 	400 	400 	600 	performance 	31 	30 	34 	31 	29
1576511385530221046  	0 	200 	200 	200 	200 	400 	400 	400 	400 	600  	performance 	31 	30 	34 	31 	29
1576511386758551922 	1 	200 	200 	200 	200 	400 	400 	400 	400 	600 	performance 	31 	31 	34 	31 	29
1576511386939969755  	0 	200 	200 	200 	200 	400 	400 	400 	400 	600  	performance 	31 	30 	34 	31 	29
1576511388154613838 	1 	200 	200 	200 	200 	400 	400 	400 	400 	600 	performance 	31 	30 	34 	31 	29
1576511388330869130  	0 	200 	200 	200 	200 	400 	400 	400 	400 	600  	performance 	31 	31 	34 	31 	29
1576511389543016214 	1 	200 	200 	200 	200 	400 	400 	400 	400 	600 	performance 	31 	30 	34 	31 	29
1576511389717183380  	0 	200 	200 	200 	200 	400 	400 	400 	400 	600  	performance 	31 	31 	34 	31 	29
1576511390907019797 	1 	200 	200 	200 	200 	400 	400 	400 	400 	600 	performance 	31 	30 	34 	31 	29
1576511391083975214  	0 	200 	200 	200 	200 	400 	400 	400 	400 	600  	performance 	31 	30 	34 	31 	29
1576511392298369881 	1 	200 	200 	200 	200 	400 	400 	400 	400 	600 	performance 	31 	30 	34 	31 	29
1576511392493662464  	0 	200 	200 	200 	200 	400 	400 	400 	400 	600  	performance 	31 	31 	34 	31 	29
1576511393696131964 	1 	200 	200 	200 	200 	400 	400 	400 	400 	600 	performance 	31 	30 	34 	31 	29
1576511393856678339  	0 	200 	200 	200 	200 	400 	400 	400 	400 	600  	performance 	31 	30 	34 	31 	29
1576511395045501548 	1 	200 	200 	200 	200 	400 	400 	400 	400 	600 	performance 	31 	30 	34 	31 	29
1576511395202176089  	0 	200 	200 	200 	200 	400 	400 	400 	400 	600  	performance 	31 	30 	34 	31 	29
1576511396390967339 	1 	200 	200 	200 	200 	400 	400 	400 	400 	600 	performance 	31 	30 	34 	31 	29
1576511396551369839  	0 	200 	200 	200 	200 	400 	400 	400 	400 	600  	performance 	31 	30 	34 	31 	29
1576511397740934173 	1 	200 	200 	200 	200 	400 	400 	400 	400 	600 	performance 	31 	30 	34 	31 	29
1576511397903373631  	0 	200 	200 	200 	200 	400 	400 	400 	400 	600  	performance 	31 	30 	34 	31 	29
1576511399097084090 	1 	200 	200 	200 	200 	400 	400 	400 	400 	600 	performance 	31 	30 	34 	31 	29
1576511399262051340  	0 	200 	200 	200 	200 	400 	400 	400 	400 	600  	performance 	31 	31 	34 	31 	29
1576511400457988215 	1 	200 	200 	200 	200 	400 	400 	400 	400 	600 	performance 	31 	31 	34 	31 	29
1576511400618017132  	0 	200 	200 	200 	200 	400 	400 	400 	400 	600  	performance 	31 	31 	34 	31 	29
1576511401806948090 	1 	200 	200 	200 	200 	400 	400 	400 	400 	600 	performance 	31 	30 	34 	31 	29
1576511401965084215  	0 	200 	200 	200 	200 	400 	400 	400 	400 	600  	performance 	30 	30 	34 	31 	29
1576511403154811049 	1 	200 	200 	200 	200 	400 	400 	400 	400 	600 	performance 	31 	30 	34 	31 	29
1576511403317341549  	0 	200 	200 	200 	200 	400 	400 	400 	400 	600  	performance 	31 	30 	34 	31 	29
1576511404507181882 	1 	200 	200 	200 	200 	400 	400 	400 	400 	600 	performance 	31 	30 	34 	31 	29
1576511404665001549  	0 	200 	200 	200 	200 	400 	400 	400 	400 	600  	performance 	31 	30 	34 	31 	29
1576511405857775174 	1 	200 	200 	200 	200 	400 	400 	400 	400 	600 	performance 	31 	30 	34 	31 	29
1576511406031172132  	0 	200 	200 	200 	200 	400 	400 	400 	400 	600  	performance 	31 	31 	34 	31 	29
1576511407232602882 	1 	200 	200 	200 	200 	400 	400 	400 	400 	600 	performance 	31 	31 	34 	31 	29
1576511407391925216  	0 	200 	200 	200 	200 	400 	400 	400 	400 	600  	performance 	31 	30 	34 	31 	29
1576511408582102508 	1 	200 	200 	200 	200 	400 	400 	400 	400 	600 	performance 	31 	30 	34 	31 	29
1576511408759863549  	0 	200 	200 	200 	200 	400 	400 	400 	400 	600  	performance 	31 	30 	34 	31 	29
1576511409977143216 	1 	200 	200 	200 	200 	400 	400 	400 	400 	600 	performance 	31 	30 	34 	31 	29
1576511410134190466  	0 	200 	200 	200 	200 	400 	400 	400 	400 	600  	performance 	31 	30 	34 	31 	29
1576511411323785841 	1 	200 	200 	200 	200 	400 	400 	400 	400 	600 	performance 	31 	30 	34 	31 	29
1576511411483663300  	0 	200 	200 	200 	200 	400 	400 	400 	400 	600  	performance 	31 	30 	34 	31 	29
1576511412677049508 	1 	200 	200 	200 	200 	400 	400 	400 	400 	600 	performance 	31 	30 	34 	31 	29
1576511412837494883  	0 	200 	200 	200 	200 	400 	400 	400 	400 	600  	performance 	31 	30 	34 	31 	29
1576511414046963175 	1 	200 	200 	200 	200 	400 	400 	400 	400 	600 	performance 	31 	30 	34 	31 	29
1576511414226971717  	0 	200 	200 	200 	200 	400 	400 	400 	400 	600  	performance 	31 	30 	34 	31 	29
1576511415438688800 	1 	200 	200 	200 	200 	400 	400 	400 	400 	600 	performance 	31 	30 	34 	31 	29
1576511415615766800  	0 	200 	200 	200 	200 	400 	400 	400 	400 	600  	performance 	31 	30 	34 	31 	29
1576511416828026134 	1 	200 	200 	200 	200 	400 	400 	400 	400 	600 	performance 	31 	30 	34 	31 	29
1576511416985249509  	0 	200 	200 	200 	200 	400 	400 	400 	400 	600  	performance 	31 	30 	34 	31 	29
1576511418175557259 	1 	200 	200 	200 	200 	400 	400 	400 	400 	600 	performance 	31 	30 	34 	31 	29
1576511418335352384  	0 	200 	200 	200 	200 	400 	400 	400 	400 	600  	performance 	31 	30 	34 	31 	29
1576511419524008092 	1 	200 	200 	200 	200 	400 	400 	400 	400 	600 	performance 	30 	30 	34 	31 	29
1576511419696945342  	0 	200 	200 	200 	200 	400 	400 	400 	400 	600  	performance 	31 	31 	34 	31 	29
1576511420898261884 	1 	200 	200 	200 	200 	400 	400 	400 	400 	600 	performance 	31 	30 	34 	31 	29
1576511421059308926  	0 	200 	200 	200 	200 	400 	400 	400 	400 	600  	performance 	31 	31 	34 	31 	29
1576511422270166884 	1 	200 	200 	200 	200 	400 	400 	400 	400 	600 	performance 	31 	30 	34 	31 	29
1576511422448800468  	0 	200 	200 	200 	200 	400 	400 	400 	400 	600  	performance 	31 	30 	34 	31 	29
1576511423638066759 	1 	200 	200 	200 	200 	400 	400 	400 	400 	600 	performance 	31 	30 	34 	31 	29
1576511423794736551  	0 	200 	200 	200 	200 	400 	400 	400 	400 	600  	performance 	31 	30 	34 	31 	29
1576511424985691010 	1 	200 	200 	200 	200 	400 	400 	400 	400 	600 	performance 	31 	30 	34 	31 	29
1576511425143136051  	0 	200 	200 	200 	200 	400 	400 	400 	400 	600  	performance 	31 	30 	34 	31 	29
1576511426332691468 	1 	200 	200 	200 	200 	400 	400 	400 	400 	600 	performance 	31 	30 	34 	31 	29
1576511426507334551  	0 	200 	200 	200 	200 	400 	400 	400 	400 	600  	performance 	31 	30 	34 	31 	29
1576511427708181052 	1 	200 	200 	200 	200 	400 	400 	400 	400 	600 	performance 	31 	31 	34 	31 	29
1576511427869238468  	0 	200 	200 	200 	200 	400 	400 	400 	400 	600  	performance 	31 	30 	34 	31 	29
1576511429059949677 	1 	200 	200 	200 	200 	400 	400 	400 	400 	600 	performance 	31 	30 	34 	31 	29
1576511429220167468  	0 	200 	200 	200 	200 	400 	400 	400 	400 	600  	performance 	31 	30 	34 	31 	29
1576511430408631635 	1 	200 	200 	200 	200 	400 	400 	400 	400 	600 	performance 	31 	30 	34 	31 	29
1576511430565831135  	0 	200 	200 	200 	200 	400 	400 	400 	400 	600  	performance 	31 	30 	34 	31 	29
1576511431758007885 	1 	200 	200 	200 	200 	400 	400 	400 	400 	600 	performance 	31 	30 	34 	31 	29
1576511431915526677  	0 	200 	200 	200 	200 	400 	400 	400 	400 	600  	performance 	31 	30 	34 	31 	29
1576511433105376219 	1 	200 	200 	200 	200 	400 	400 	400 	400 	600 	performance 	31 	30 	34 	31 	29
1576511433263140052  	0 	200 	200 	200 	200 	400 	400 	400 	400 	600  	performance 	31 	30 	34 	31 	29
1576511434461552011 	1 	200 	200 	200 	200 	400 	400 	400 	400 	600 	performance 	31 	30 	34 	31 	29
1576511434626179136  	0 	200 	200 	200 	200 	400 	400 	400 	400 	600  	performance 	31 	30 	34 	31 	29
1576511435827220636 	1 	200 	200 	200 	200 	400 	400 	400 	400 	600 	performance 	31 	30 	34 	31 	29
1576511435987520511  	0 	200 	200 	200 	200 	400 	400 	400 	400 	600  	performance 	31 	30 	34 	31 	29
1576511437177605053 	1 	200 	200 	200 	200 	400 	400 	400 	400 	600 	performance 	31 	30 	34 	31 	29
1576511437335565844  	0 	200 	200 	200 	200 	400 	400 	400 	400 	600  	performance 	31 	30 	34 	31 	29
1576511438527876386 	1 	200 	200 	200 	200 	400 	400 	400 	400 	600 	performance 	30 	30 	34 	31 	29
1576511438685758678  	0 	200 	200 	200 	200 	400 	400 	400 	400 	600  	performance 	31 	30 	34 	31 	29
1576511439877957178 	1 	200 	200 	200 	200 	400 	400 	400 	400 	600 	performance 	31 	30 	34 	31 	29
1576511440035865636  	0 	200 	200 	200 	200 	400 	400 	400 	400 	600  	performance 	31 	30 	34 	31 	29
1576511441227215636 	1 	200 	200 	200 	200 	400 	400 	400 	400 	600 	performance 	31 	30 	34 	31 	29
1576511441398762095  	0 	200 	200 	200 	200 	400 	400 	400 	400 	600  	performance 	31 	31 	34 	31 	29
1576511442589914762 	1 	200 	200 	200 	200 	400 	400 	400 	400 	600 	performance 	31 	30 	34 	31 	29
1576511442755963970  	0 	200 	200 	200 	200 	400 	400 	400 	400 	600  	performance 	31 	30 	34 	31 	29
1576511443947158637 	1 	200 	200 	200 	200 	400 	400 	400 	400 	600 	performance 	30 	30 	34 	31 	29
1576511444103947012  	0 	200 	200 	200 	200 	400 	400 	400 	400 	600  	performance 	31 	30 	34 	31 	29
1576511445304200720 	1 	200 	200 	200 	200 	400 	400 	400 	400 	600 	performance 	31 	30 	34 	31 	29
1576511445479804137  	0 	200 	200 	200 	200 	400 	400 	400 	400 	600  	performance 	30 	30 	34 	31 	29
1576511446691848929 	1 	200 	200 	200 	200 	400 	400 	400 	400 	600 	performance 	31 	30 	34 	31 	29
1576511446872243470  	0 	200 	200 	200 	200 	400 	400 	400 	400 	600  	performance 	31 	30 	34 	31 	29
1576511448083510387 	1 	200 	200 	200 	200 	400 	400 	400 	400 	600 	performance 	30 	30 	34 	31 	29
1576511448278900221  	0 	200 	200 	200 	200 	400 	400 	400 	400 	600  	performance 	31 	30 	34 	31 	29
1576511449484283596 	1 	200 	200 	200 	200 	400 	400 	400 	400 	600 	performance 	30 	31 	34 	31 	29
1576511449641313762  	0 	200 	200 	200 	200 	400 	400 	400 	400 	600  	performance 	31 	30 	34 	31 	29
1576511450830797054 	1 	200 	200 	200 	200 	400 	400 	400 	400 	600 	performance 	30 	30 	34 	31 	29
1576511450990683263  	0 	200 	200 	200 	200 	400 	400 	400 	400 	600  	performance 	30 	30 	34 	31 	29
1576511452189021554 	1 	200 	200 	200 	200 	400 	400 	400 	400 	600 	performance 	30 	30 	34 	31 	29
1576511452346404429  	0 	200 	200 	200 	200 	400 	400 	400 	400 	600  	performance 	31 	30 	34 	31 	29
1576511453537012596 	1 	200 	200 	200 	200 	400 	400 	400 	400 	600 	performance 	31 	30 	34 	31 	29
1576511453714382596  	0 	200 	200 	200 	200 	400 	400 	400 	400 	600  	performance 	31 	30 	34 	31 	29
1576511454928186055 	1 	200 	200 	200 	200 	400 	400 	400 	400 	600 	performance 	31 	30 	34 	31 	29
1576511455120093638  	0 	200 	200 	200 	200 	400 	400 	400 	400 	600  	performance 	31 	31 	34 	31 	29
1576511456353954097 	1 	200 	200 	200 	200 	400 	400 	400 	400 	600 	performance 	31 	30 	34 	31 	29
1576511456529226013  	0 	200 	200 	200 	200 	400 	400 	400 	400 	600  	performance 	31 	30 	34 	31 	29
1576511457746542972 	1 	200 	200 	200 	200 	400 	400 	400 	400 	600 	performance 	31 	30 	34 	31 	29
1576511457904480805  	0 	200 	200 	200 	200 	400 	400 	400 	400 	600  	performance 	31 	30 	34 	31 	29
1576511459094422472 	1 	200 	200 	200 	200 	400 	400 	400 	400 	600 	performance 	30 	30 	34 	31 	29
1576511459251159055  	0 	200 	200 	200 	200 	400 	400 	400 	400 	600  	performance 	30 	30 	34 	31 	29
1576511460445127847 	1 	200 	200 	200 	200 	400 	400 	400 	400 	600 	performance 	31 	30 	34 	31 	29
1576511460602103847  	0 	200 	200 	200 	200 	400 	400 	400 	400 	600  	performance 	31 	30 	34 	31 	29
1576511461794585347 	1 	200 	200 	200 	200 	400 	400 	400 	400 	600 	performance 	30 	30 	34 	31 	29
1576511461972492806  	0 	200 	200 	200 	200 	400 	400 	400 	400 	600  	performance 	31 	30 	34 	31 	29
1576511463185355889 	1 	200 	200 	200 	200 	400 	400 	400 	400 	600 	performance 	31 	30 	34 	31 	29
1576511463361064972  	0 	200 	200 	200 	200 	400 	400 	400 	400 	600  	performance 	31 	30 	34 	31 	29
1576511464574355473 	1 	200 	200 	200 	200 	400 	400 	400 	400 	600 	performance 	31 	30 	34 	31 	29
1576511464749977306  	0 	200 	200 	200 	200 	400 	400 	400 	400 	600  	performance 	31 	30 	34 	31 	29
1576511465963675806 	1 	200 	200 	200 	200 	400 	400 	400 	400 	600 	performance 	31 	30 	34 	31 	29
1576511466142268806  	0 	200 	200 	200 	200 	400 	400 	400 	400 	600  	performance 	31 	30 	34 	31 	29
1576511467379475140 	1 	200 	200 	200 	200 	400 	400 	400 	400 	600 	performance 	30 	30 	34 	31 	29
1576511467597692890  	0 	200 	200 	200 	200 	400 	400 	400 	400 	600  	performance 	31 	31 	34 	31 	29
1576511469166112473 	1 	200 	200 	200 	200 	400 	400 	400 	400 	600 	performance 	31 	32 	35 	32 	29
1576511469614119390  	0 	200 	200 	200 	200 	400 	400 	400 	400 	600  	performance 	31 	32 	35 	33 	30
1576511471210119723 	1 	200 	200 	200 	200 	400 	400 	400 	400 	600 	performance 	32 	32 	36 	33 	30
1576511471710522057  	0 	200 	200 	200 	200 	400 	400 	400 	400 	600  	performance 	32 	32 	36 	33 	30
1576511473298180474 	1 	200 	200 	200 	200 	400 	400 	400 	400 	600 	performance 	32 	32 	36 	33 	30
1576511473766010349  	0 	200 	200 	200 	200 	400 	400 	400 	400 	600  	performance 	32 	32 	36 	33 	30
1576511475382235432 	1 	200 	200 	200 	200 	400 	400 	400 	400 	600 	performance 	32 	32 	36 	33 	30
1576511475874136224  	0 	200 	200 	200 	200 	400 	400 	400 	400 	600  	performance 	32 	32 	36 	33 	30
1576511477458233141 	1 	200 	200 	200 	200 	400 	400 	400 	400 	600 	performance 	32 	32 	36 	33 	30
1576511477974162349  	0 	200 	200 	200 	200 	400 	400 	400 	400 	600  	performance 	32 	32 	36 	33 	30
1576511479574222933 	1 	200 	200 	200 	200 	400 	400 	400 	400 	600 	performance 	32 	32 	36 	33 	30
1576511480054094808  	0 	200 	200 	200 	200 	400 	400 	400 	400 	600  	performance 	32 	33 	36 	33 	30
1576511481642047183 	1 	200 	200 	200 	200 	400 	400 	400 	400 	600 	performance 	32 	33 	36 	34 	30
1576511482110286850  	0 	200 	200 	200 	200 	400 	400 	400 	400 	600  	performance 	32 	33 	36 	33 	30
1576511483674211642 	1 	200 	200 	200 	200 	400 	400 	400 	400 	600 	performance 	32 	33 	36 	34 	30
1576511484162273392  	0 	200 	200 	200 	200 	400 	400 	400 	400 	600  	performance 	32 	33 	36 	34 	31
1576511485742221517 	1 	200 	200 	200 	200 	400 	400 	400 	400 	600 	performance 	32 	33 	36 	33 	31
1576511486206255808  	0 	200 	200 	200 	200 	400 	400 	400 	400 	600  	performance 	32 	33 	36 	33 	30
1576511487770173684 	1 	200 	200 	200 	200 	400 	400 	400 	400 	600 	performance 	32 	33 	36 	34 	31
1576511488282259725  	0 	200 	200 	200 	200 	400 	400 	400 	400 	600  	performance 	32 	33 	37 	34 	31
1576511489890241267 	1 	200 	200 	200 	200 	400 	400 	400 	400 	600 	performance 	32 	33 	36 	34 	31
1576511490342255142  	0 	200 	200 	200 	200 	400 	400 	400 	400 	600  	performance 	33 	33 	36 	34 	31
1576511491938294017 	1 	200 	200 	200 	200 	400 	400 	400 	400 	600 	performance 	32 	33 	36 	34 	31
1576511492462532309  	0 	200 	200 	200 	200 	400 	400 	400 	400 	600  	performance 	32 	33 	36 	34 	31
1576511494045934934 	1 	200 	200 	200 	200 	400 	400 	400 	400 	600 	performance 	32 	33 	36 	34 	31
1576511494522136059  	0 	200 	200 	200 	200 	400 	400 	400 	400 	600  	performance 	32 	33 	36 	34 	31
1576511496078149851 	1 	200 	200 	200 	200 	400 	400 	400 	400 	600 	performance 	32 	33 	36 	34 	31
1576511496574110851  	0 	200 	200 	200 	200 	400 	400 	400 	400 	600  	performance 	33 	33 	37 	34 	31
1576511498186206435 	1 	200 	200 	200 	200 	400 	400 	400 	400 	600 	performance 	33 	33 	37 	34 	31
1576511498658074393  	0 	200 	200 	200 	200 	400 	400 	400 	400 	600  	performance 	32 	33 	37 	34 	31
1576511500254169310 	1 	200 	200 	200 	200 	400 	400 	400 	400 	600 	performance 	32 	33 	37 	34 	31
1576511500722223727  	0 	200 	200 	200 	200 	400 	400 	400 	400 	600  	performance 	32 	33 	37 	34 	31
1576511502286979310 	1 	200 	200 	200 	200 	400 	400 	400 	400 	600 	performance 	32 	33 	36 	34 	31
1576511502790166060  	0 	200 	200 	200 	200 	400 	400 	400 	400 	600  	performance 	32 	33 	37 	34 	31
1576511504382277352 	1 	200 	200 	200 	200 	400 	400 	400 	400 	600 	performance 	33 	33 	37 	34 	31
1576511504870147686  	0 	200 	200 	200 	200 	400 	400 	400 	400 	600  	performance 	33 	33 	37 	34 	31
1576511506446121186 	1 	200 	200 	200 	200 	400 	400 	400 	400 	600 	performance 	33 	33 	37 	34 	31
1576511506954153769  	0 	200 	200 	200 	200 	400 	400 	400 	400 	600  	performance 	33 	33 	37 	34 	31
1576511508542298228 	1 	200 	200 	200 	200 	400 	400 	400 	400 	600 	performance 	33 	33 	37 	34 	31
1576511509022164395  	0 	200 	200 	200 	200 	400 	400 	400 	400 	600  	performance 	32 	33 	37 	34 	31
1576511510606214353 	1 	200 	200 	200 	200 	400 	400 	400 	400 	600 	performance 	32 	33 	37 	34 	31
1576511511062068228  	0 	200 	200 	200 	200 	400 	400 	400 	400 	600  	performance 	33 	33 	37 	34 	31
1576511512658257520 	1 	200 	200 	200 	200 	400 	400 	400 	400 	600 	performance 	33 	33 	37 	34 	31
1576511513094125978  	0 	200 	200 	200 	200 	400 	400 	400 	400 	600  	performance 	32 	33 	37 	34 	31
1576511514698046937 	1 	200 	200 	200 	200 	400 	400 	400 	400 	600 	performance 	32 	33 	37 	34 	31
1576511515178229895  	0 	200 	200 	200 	200 	400 	400 	400 	400 	600  	performance 	33 	33 	37 	34 	31
1576511516758173520 	1 	200 	200 	200 	200 	400 	400 	400 	400 	600 	performance 	33 	33 	37 	34 	31
1576511517258212021  	0 	200 	200 	200 	200 	400 	400 	400 	400 	600  	performance 	32 	33 	37 	34 	31
1576511518882209354 	1 	200 	200 	200 	200 	400 	400 	400 	400 	600 	performance 	33 	33 	37 	34 	31
1576511519374127646  	0 	200 	200 	200 	200 	400 	400 	400 	400 	600  	performance 	33 	33 	37 	34 	31
1576511520938069188 	1 	200 	200 	200 	200 	400 	400 	400 	400 	600 	performance 	33 	33 	37 	34 	31
1576511521482211354  	0 	200 	200 	200 	200 	400 	400 	400 	400 	600  	performance 	33 	33 	37 	34 	31
1576511523078193021 	1 	200 	200 	200 	200 	400 	400 	400 	400 	600 	performance 	33 	33 	37 	34 	31
1576511523557977980  	0 	200 	200 	200 	200 	400 	400 	400 	400 	600  	performance 	33 	33 	37 	34 	31
1576511525134174563 	1 	200 	200 	200 	200 	400 	400 	400 	400 	600 	performance 	33 	33 	37 	34 	31
1576511525630187772  	0 	200 	200 	200 	200 	400 	400 	400 	400 	600  	performance 	33 	33 	37 	34 	31
1576511527210240230 	1 	200 	200 	200 	200 	400 	400 	400 	400 	600 	performance 	33 	33 	37 	34 	31
1576511527710210938  	0 	200 	200 	200 	200 	400 	400 	400 	400 	600  	performance 	33 	33 	37 	34 	31
1576511529298205897 	1 	200 	200 	200 	200 	400 	400 	400 	400 	600 	performance 	33 	33 	37 	34 	31
1576511529778076480  	0 	200 	200 	200 	200 	400 	400 	400 	400 	600  	performance 	33 	33 	37 	34 	31
1576511531362167356 	1 	200 	200 	200 	200 	400 	400 	400 	400 	600 	performance 	33 	33 	37 	34 	31
1576511531866181939  	0 	200 	200 	200 	200 	400 	400 	400 	400 	600  	performance 	33 	33 	37 	34 	31
1576511533454187731 	1 	200 	200 	200 	200 	400 	400 	400 	400 	600 	performance 	33 	33 	37 	34 	31
1576511533962219939  	0 	200 	200 	200 	200 	400 	400 	400 	400 	600  	performance 	33 	33 	37 	34 	31
1576511535558272398 	1 	200 	200 	200 	200 	400 	400 	400 	400 	600 	performance 	33 	33 	37 	34 	31
1576511536042206273  	0 	200 	200 	200 	200 	400 	400 	400 	400 	600  	performance 	33 	33 	37 	34 	31
1576511537630454398 	1 	200 	200 	200 	200 	400 	400 	400 	400 	600 	performance 	33 	33 	37 	34 	31
1576511538102212773  	0 	200 	200 	200 	200 	400 	400 	400 	400 	600  	performance 	33 	33 	37 	34 	31
1576511539694247023 	1 	200 	200 	200 	200 	400 	400 	400 	400 	600 	performance 	33 	33 	37 	34 	31
1576511540182248065  	0 	200 	200 	200 	200 	400 	400 	400 	400 	600  	performance 	33 	33 	37 	34 	31
1576511541734265273 	1 	200 	200 	200 	200 	400 	400 	400 	400 	600 	performance 	33 	33 	37 	34 	31
1576511542250031773  	0 	200 	200 	200 	200 	400 	400 	400 	400 	600  	performance 	33 	33 	37 	34 	31
1576511543858174315 	1 	200 	200 	200 	200 	400 	400 	400 	400 	600 	performance 	33 	33 	37 	34 	31
1576511544318211274  	0 	200 	200 	200 	200 	400 	400 	400 	400 	600  	performance 	33 	33 	37 	34 	31
1576511545894172191 	1 	200 	200 	200 	200 	400 	400 	400 	400 	600 	performance 	33 	33 	37 	34 	31
1576511546382148857  	0 	200 	200 	200 	200 	400 	400 	400 	400 	600  	performance 	33 	33 	37 	34 	31
1576511547953445941 	1 	200 	200 	200 	200 	400 	400 	400 	400 	600 	performance 	33 	33 	37 	34 	31
1576511548418238233  	0 	200 	200 	200 	200 	400 	400 	400 	400 	600  	performance 	33 	33 	37 	34 	31
1576511549994243983 	1 	200 	200 	200 	200 	400 	400 	400 	400 	600 	performance 	33 	33 	37 	34 	31
1576511550490144441  	0 	200 	200 	200 	200 	400 	400 	400 	400 	600  	performance 	33 	33 	37 	34 	31
1576511552102166483 	1 	200 	200 	200 	200 	400 	400 	400 	400 	600 	performance 	33 	33 	37 	34 	31
1576511552598204525  	0 	200 	200 	200 	200 	400 	400 	400 	400 	600  	performance 	33 	33 	37 	34 	31
1576511554186227192 	1 	200 	200 	200 	200 	400 	400 	400 	400 	600 	performance 	33 	33 	37 	34 	31
1576511554682059275  	0 	200 	200 	200 	200 	400 	400 	400 	400 	600  	performance 	33 	33 	37 	34 	31
1576511556270214525 	1 	200 	200 	200 	200 	400 	400 	400 	400 	600 	performance 	33 	33 	37 	34 	31
1576511556770062775  	0 	200 	200 	200 	200 	400 	400 	400 	400 	600  	performance 	33 	33 	37 	34 	31
1576511558354242692 	1 	200 	200 	200 	200 	400 	400 	400 	400 	600 	performance 	33 	33 	37 	34 	31
1576511558838194150  	0 	200 	200 	200 	200 	400 	400 	400 	400 	600  	performance 	33 	33 	37 	34 	31
1576511560406197609 	1 	200 	200 	200 	200 	400 	400 	400 	400 	600 	performance 	33 	33 	37 	34 	31
1576511560922176192  	0 	200 	200 	200 	200 	400 	400 	400 	400 	600  	performance 	33 	33 	37 	34 	31
1576511562482276234 	1 	200 	200 	200 	200 	400 	400 	400 	400 	600 	performance 	33 	33 	37 	34 	31
1576511562950221734  	0 	200 	200 	200 	200 	400 	400 	400 	400 	600  	performance 	33 	33 	37 	34 	31
1576511564566140026 	1 	200 	200 	200 	200 	400 	400 	400 	400 	600 	performance 	33 	33 	37 	34 	31
1576511565086008151  	0 	200 	200 	200 	200 	400 	400 	400 	400 	600  	performance 	33 	33 	37 	34 	31
1576511566622117610 	1 	200 	200 	200 	200 	400 	400 	400 	400 	600 	performance 	33 	33 	37 	34 	31
1576511567102145943  	0 	200 	200 	200 	200 	400 	400 	400 	400 	600  	performance 	33 	33 	37 	34 	31
1576511568710071402 	1 	200 	200 	200 	200 	400 	400 	400 	400 	600 	performance 	33 	33 	37 	34 	31
1576511569186258818  	0 	200 	200 	200 	200 	400 	400 	400 	400 	600  	performance 	33 	33 	37 	34 	31
1576511570746413819 	1 	200 	200 	200 	200 	400 	400 	400 	400 	600 	performance 	33 	33 	37 	34 	31
1576511571238211902  	0 	200 	200 	200 	200 	400 	400 	400 	400 	600  	performance 	33 	33 	37 	34 	31
1576511572814073819 	1 	200 	200 	200 	200 	400 	400 	400 	400 	600 	performance 	33 	33 	37 	34 	31
1576511573310056277  	0 	200 	200 	200 	200 	400 	400 	400 	400 	600  	performance 	33 	33 	37 	34 	31
1576511574918266902 	1 	200 	200 	200 	200 	400 	400 	400 	400 	600 	performance 	33 	33 	37 	34 	31
1576511575430156944  	0 	200 	200 	200 	200 	400 	400 	400 	400 	600  	performance 	33 	33 	37 	34 	31
1576511577006126236 	1 	200 	200 	200 	200 	400 	400 	400 	400 	600 	performance 	33 	33 	37 	34 	31
1576511577502180694  	0 	200 	200 	200 	200 	400 	400 	400 	400 	600  	performance 	33 	33 	37 	34 	31
1576511579118176153 	1 	200 	200 	200 	200 	400 	400 	400 	400 	600 	performance 	33 	33 	37 	34 	31
1576511579590257736  	0 	200 	200 	200 	200 	400 	400 	400 	400 	600  	performance 	33 	33 	37 	34 	31
1576511581178046820 	1 	200 	200 	200 	200 	400 	400 	400 	400 	600 	performance 	33 	33 	37 	34 	31
1576511581710168653  	0 	200 	200 	200 	200 	400 	400 	400 	400 	600  	performance 	33 	33 	37 	34 	31
1576511583282015487 	1 	200 	200 	200 	200 	400 	400 	400 	400 	600 	performance 	33 	33 	37 	34 	31
1576511583750211653  	0 	200 	200 	200 	200 	400 	400 	400 	400 	600  	performance 	33 	33 	37 	34 	31
1576511585338214320 	1 	200 	200 	200 	200 	400 	400 	400 	400 	600 	performance 	33 	33 	37 	34 	31
1576511585854099820  	0 	200 	200 	200 	200 	400 	400 	400 	400 	600  	performance 	33 	33 	37 	34 	31
1576511587426207279 	1 	200 	200 	200 	200 	400 	400 	400 	400 	600 	performance 	33 	33 	37 	34 	31
1576511587906103112  	0 	200 	200 	200 	200 	400 	400 	400 	400 	600  	performance 	33 	33 	37 	34 	31
1576511589486177362 	1 	200 	200 	200 	200 	400 	400 	400 	400 	600 	performance 	33 	33 	37 	34 	31
1576511589998164404  	0 	200 	200 	200 	200 	400 	400 	400 	400 	600  	performance 	33 	33 	37 	34 	31
1576511591578195529 	1 	200 	200 	200 	200 	400 	400 	400 	400 	600 	performance 	33 	33 	37 	34 	31
1576511592098287571  	0 	200 	200 	200 	200 	400 	400 	400 	400 	600  	performance 	33 	33 	37 	34 	31
1576511593686186655 	1 	200 	200 	200 	200 	400 	400 	400 	400 	600 	performance 	33 	33 	37 	34 	31
1576511594150111196  	0 	200 	200 	200 	200 	400 	400 	400 	400 	600  	performance 	33 	33 	37 	34 	31
1576511595718181988 	1 	200 	200 	200 	200 	400 	400 	400 	400 	600 	performance 	33 	33 	37 	34 	31
1576511596174227572  	0 	200 	200 	200 	200 	400 	400 	400 	400 	600  	performance 	33 	33 	37 	34 	31
1576511597750299447 	1 	200 	200 	200 	200 	400 	400 	400 	400 	600 	performance 	33 	33 	37 	34 	31
1576511598226248113  	0 	200 	200 	200 	200 	400 	400 	400 	400 	600  	performance 	33 	33 	37 	34 	31
1576511599832406572 	1 	200 	200 	200 	200 	400 	400 	400 	400 	600 	performance 	33 	33 	37 	34 	31
1576511600290141864  	0 	200 	200 	200 	200 	400 	400 	400 	400 	600  	performance 	33 	33 	37 	34 	31
1576511601894179822 	1 	200 	200 	200 	200 	400 	400 	400 	400 	600 	performance 	33 	33 	37 	34 	31
1576511602406200072  	0 	200 	200 	200 	200 	400 	400 	400 	400 	600  	performance 	33 	33 	37 	34 	31
1576511604002312989 	1 	200 	200 	200 	200 	400 	400 	400 	400 	600 	performance 	33 	33 	37 	34 	31
1576511604490113948  	0 	200 	200 	200 	200 	400 	400 	400 	400 	600  	performance 	33 	33 	37 	34 	31
1576511606041943698 	1 	200 	200 	200 	200 	400 	400 	400 	400 	600 	performance 	33 	33 	37 	34 	31
1576511606538110573  	0 	200 	200 	200 	200 	400 	400 	400 	400 	600  	performance 	33 	33 	37 	34 	31
1576511608106071656 	1 	200 	200 	200 	200 	400 	400 	400 	400 	600 	performance 	33 	33 	37 	34 	31
1576511608590052281  	0 	200 	200 	200 	200 	400 	400 	400 	400 	600  	performance 	33 	33 	37 	34 	31
1576511610190103740 	1 	200 	200 	200 	200 	400 	400 	400 	400 	600 	performance 	33 	33 	37 	34 	31
1576511610654044740  	0 	200 	200 	200 	200 	400 	400 	400 	400 	600  	performance 	33 	33 	37 	34 	31
1576511612286175157 	1 	200 	200 	200 	200 	400 	400 	400 	400 	600 	performance 	33 	33 	37 	34 	31
1576511612758192574  	0 	200 	200 	200 	200 	400 	400 	400 	400 	600  	performance 	33 	33 	37 	34 	31
1576511614330192990 	1 	200 	200 	200 	200 	400 	400 	400 	400 	600 	performance 	33 	33 	37 	34 	31
1576511614806275824  	0 	200 	200 	200 	200 	400 	400 	400 	400 	600  	performance 	33 	33 	37 	34 	31
1576511616382231074 	1 	200 	200 	200 	200 	400 	400 	400 	400 	600 	performance 	33 	33 	37 	34 	31
1576511616846200241  	0 	200 	200 	200 	200 	400 	400 	400 	400 	600  	performance 	33 	33 	37 	34 	31
1576511618414030366 	1 	200 	200 	200 	200 	400 	400 	400 	400 	600 	performance 	33 	33 	37 	34 	31
1576511618910151116  	0 	200 	200 	200 	200 	400 	400 	400 	400 	600  	performance 	33 	33 	37 	34 	31
1576511620506356408 	1 	200 	200 	200 	200 	400 	400 	400 	400 	600 	performance 	33 	33 	37 	34 	31
1576511621018307325  	0 	200 	200 	200 	200 	400 	400 	400 	400 	600  	performance 	33 	33 	37 	34 	31
1576511622618201991 	1 	200 	200 	200 	200 	400 	400 	400 	400 	600 	performance 	33 	33 	37 	34 	31
1576511623078234866  	0 	200 	200 	200 	200 	400 	400 	400 	400 	600  	performance 	33 	33 	37 	34 	31
1576511624630018200 	1 	200 	200 	200 	200 	400 	400 	400 	400 	600 	performance 	33 	33 	37 	34 	31
1576511625138227408  	0 	200 	200 	200 	200 	400 	400 	400 	400 	600  	performance 	33 	33 	37 	34 	31
1576511626734175325 	1 	200 	200 	200 	200 	400 	400 	400 	400 	600 	performance 	33 	33 	37 	34 	31
1576511627242169284  	0 	200 	200 	200 	200 	400 	400 	400 	400 	600  	performance 	33 	33 	37 	34 	31
1576511628822136659 	1 	200 	200 	200 	200 	400 	400 	400 	400 	600 	performance 	33 	33 	37 	34 	31
1576511629278231367  	0 	200 	200 	200 	200 	400 	400 	400 	400 	600  	performance 	33 	33 	37 	34 	31
1576511630850208992 	1 	200 	200 	200 	200 	400 	400 	400 	400 	600 	performance 	33 	33 	37 	34 	31
1576511631354193826  	0 	200 	200 	200 	200 	400 	400 	400 	400 	600  	performance 	33 	33 	37 	34 	31
1576511632922030534 	1 	200 	200 	200 	200 	400 	400 	400 	400 	600 	performance 	33 	33 	37 	34 	31
1576511633422177326  	0 	200 	200 	200 	200 	400 	400 	400 	400 	600  	performance 	33 	33 	37 	34 	31
1576511634966152285 	1 	200 	200 	200 	200 	400 	400 	400 	400 	600 	performance 	33 	33 	37 	34 	31
1576511635442137785  	0 	200 	200 	200 	200 	400 	400 	400 	400 	600  	performance 	33 	33 	37 	34 	31
1576511637002198785 	1 	200 	200 	200 	200 	400 	400 	400 	400 	600 	performance 	33 	33 	37 	34 	31
1576511637487760202  	0 	200 	200 	200 	200 	400 	400 	400 	400 	600  	performance 	33 	33 	37 	34 	31
1576511639062148535 	1 	200 	200 	200 	200 	400 	400 	400 	400 	600 	performance 	33 	33 	37 	34 	31
1576511639558117952  	0 	200 	200 	200 	200 	400 	400 	400 	400 	600  	performance 	33 	33 	37 	34 	31
1576511641134090369 	1 	200 	200 	200 	200 	400 	400 	400 	400 	600 	performance 	33 	33 	37 	34 	31
1576511641598072910  	0 	200 	200 	200 	200 	400 	400 	400 	400 	600  	performance 	33 	33 	37 	34 	31
1576511643210285327 	1 	200 	200 	200 	200 	400 	400 	400 	400 	600 	performance 	33 	33 	37 	34 	31
1576511643690132661  	0 	200 	200 	200 	200 	400 	400 	400 	400 	600  	performance 	33 	33 	37 	34 	31
1576511645242055202 	1 	200 	200 	200 	200 	400 	400 	400 	400 	600 	performance 	33 	33 	37 	34 	31
1576511645722274952  	0 	200 	200 	200 	200 	400 	400 	400 	400 	600  	performance 	33 	33 	37 	34 	31
1576511647258609161 	1 	200 	200 	200 	200 	400 	400 	400 	400 	600 	performance 	33 	33 	37 	34 	31
1576511647742035328  	0 	200 	200 	200 	200 	400 	400 	400 	400 	600  	performance 	33 	33 	37 	34 	31
1576511649322447036 	1 	200 	200 	200 	200 	400 	400 	400 	400 	600 	performance 	33 	33 	37 	34 	31
1576511649754229995  	0 	200 	200 	200 	200 	400 	400 	400 	400 	600  	performance 	33 	33 	37 	34 	31
1576511651310162995 	1 	200 	200 	200 	200 	400 	400 	400 	400 	600 	performance 	33 	33 	37 	34 	31
1576511651770288662  	0 	200 	200 	200 	200 	400 	400 	400 	400 	600  	performance 	33 	33 	37 	34 	31
1576511653370252370 	1 	200 	200 	200 	200 	400 	400 	400 	400 	600 	performance 	33 	33 	37 	34 	31
1576511653858265745  	0 	200 	200 	200 	200 	400 	400 	400 	400 	600  	performance 	33 	33 	37 	34 	31
1576511655418137954 	1 	200 	200 	200 	200 	400 	400 	400 	400 	600 	performance 	33 	33 	37 	34 	31
1576511655894245620  	0 	200 	200 	200 	200 	400 	400 	400 	400 	600  	performance 	33 	33 	37 	34 	31
1576511657469996704 	1 	200 	200 	200 	200 	400 	400 	400 	400 	600 	performance 	33 	33 	37 	34 	31
1576511657962259454  	0 	200 	200 	200 	200 	400 	400 	400 	400 	600  	performance 	33 	33 	37 	34 	31
1576511659522171412 	1 	200 	200 	200 	200 	400 	400 	400 	400 	600 	performance 	33 	33 	37 	34 	31
1576511660014089204  	0 	200 	200 	200 	200 	400 	400 	400 	400 	600  	performance 	33 	33 	37 	34 	31
1576511661602117079 	1 	200 	200 	200 	200 	400 	400 	400 	400 	600 	performance 	33 	33 	37 	34 	31
1576511662078299954  	0 	200 	200 	200 	200 	400 	400 	400 	400 	600  	performance 	33 	33 	37 	34 	31
1576511663654187163 	1 	200 	200 	200 	200 	400 	400 	400 	400 	600 	performance 	33 	33 	37 	34 	31
1576511664154202163  	0 	200 	200 	200 	200 	400 	400 	400 	400 	600  	performance 	33 	33 	37 	34 	31
1576511665742269413 	1 	200 	200 	200 	200 	400 	400 	400 	400 	600 	performance 	33 	33 	37 	34 	31
1576511666214131622  	0 	200 	200 	200 	200 	400 	400 	400 	400 	600  	performance 	33 	33 	37 	34 	31
1576511667798193205 	1 	200 	200 	200 	200 	400 	400 	400 	400 	600 	performance 	33 	33 	37 	34 	31
1576511668274334122  	0 	200 	200 	200 	200 	400 	400 	400 	400 	600  	performance 	33 	33 	37 	34 	31
1576511669878162830 	1 	200 	200 	200 	200 	400 	400 	400 	400 	600 	performance 	33 	33 	37 	34 	31
1576511670350241872  	0 	200 	200 	200 	200 	400 	400 	400 	400 	600  	performance 	33 	33 	37 	34 	31
1576511671962057872 	1 	200 	200 	200 	200 	400 	400 	400 	400 	600 	performance 	33 	33 	37 	34 	31
1576511672450201331  	0 	200 	200 	200 	200 	400 	400 	400 	400 	600  	performance 	33 	33 	37 	34 	31
1576511674046134748 	1 	200 	200 	200 	200 	400 	400 	400 	400 	600 	performance 	33 	33 	37 	34 	31
1576511674542108498  	0 	200 	200 	200 	200 	400 	400 	400 	400 	600  	performance 	33 	33 	37 	34 	31
1576511676146215164 	1 	200 	200 	200 	200 	400 	400 	400 	400 	600 	performance 	33 	33 	37 	34 	31
1576511676614278290  	0 	200 	200 	200 	200 	400 	400 	400 	400 	600  	performance 	33 	33 	37 	34 	31
1576511678190149040 	1 	200 	200 	200 	200 	400 	400 	400 	400 	600 	performance 	33 	33 	37 	34 	31
1576511678686164831  	0 	200 	200 	200 	200 	400 	400 	400 	400 	600  	performance 	33 	33 	37 	34 	31
1576511680266168290 	1 	200 	200 	200 	200 	400 	400 	400 	400 	600 	performance 	33 	33 	37 	34 	31
1576511680758162790  	0 	200 	200 	200 	200 	400 	400 	400 	400 	600  	performance 	33 	33 	37 	34 	31
1576511682342056832 	1 	200 	200 	200 	200 	400 	400 	400 	400 	600 	performance 	33 	33 	37 	34 	31
1576511682830155915  	0 	200 	200 	200 	200 	400 	400 	400 	400 	600  	performance 	33 	33 	37 	34 	31
1576511684406072332 	1 	200 	200 	200 	200 	400 	400 	400 	400 	600 	performance 	33 	33 	37 	34 	31
1576511684946071165  	0 	200 	200 	200 	200 	400 	400 	400 	400 	600  	performance 	33 	33 	37 	34 	31
1576511686506084999 	1 	200 	200 	200 	200 	400 	400 	400 	400 	600 	performance 	33 	33 	37 	34 	31
1576511686958129957  	0 	200 	200 	200 	200 	400 	400 	400 	400 	600  	performance 	33 	33 	37 	34 	31
1576511688566219374 	1 	200 	200 	200 	200 	400 	400 	400 	400 	600 	performance 	33 	33 	37 	34 	31
1576511689010136749  	0 	200 	200 	200 	200 	400 	400 	400 	400 	600  	performance 	33 	33 	37 	34 	31
1576511690606143458 	1 	200 	200 	200 	200 	400 	400 	400 	400 	600 	performance 	33 	33 	37 	34 	31
1576511691082177666  	0 	200 	200 	200 	200 	400 	400 	400 	400 	600  	performance 	33 	33 	37 	34 	31
1576511692286471916 	1 	200 	200 	200 	200 	400 	400 	400 	400 	600 	performance 	32 	32 	36 	33 	31
1576511692429984375  	0 	200 	200 	200 	200 	400 	400 	400 	400 	600  	performance 	32 	32 	36 	33 	31
1576511693612119750 	1 	200 	200 	200 	200 	400 	400 	400 	400 	600 	performance 	32 	32 	35 	32 	30
1576511693771054708  	0 	200 	200 	200 	200 	400 	400 	400 	400 	600  	performance 	32 	32 	35 	32 	30
1576511694963803792 	1 	200 	200 	200 	200 	400 	400 	400 	400 	600 	performance 	32 	31 	35 	32 	30
1576511695122534083  	0 	200 	200 	200 	200 	400 	400 	400 	400 	600  	performance 	32 	31 	35 	32 	30
1576511696317430625 	1 	200 	200 	200 	200 	400 	400 	400 	400 	600 	performance 	31 	31 	35 	32 	30
1576511696475986834  	0 	200 	200 	200 	200 	400 	400 	400 	400 	600  	performance 	32 	31 	35 	32 	30
1576511697666607834 	1 	200 	200 	200 	200 	400 	400 	400 	400 	600 	performance 	31 	31 	35 	32 	30
1576511697835384459  	0 	200 	200 	200 	200 	400 	400 	400 	400 	600  	performance 	31 	31 	35 	32 	30
1576511699028990709 	1 	200 	200 	200 	200 	400 	400 	400 	400 	600 	performance 	31 	31 	34 	32 	30
1576511699197520001  	0 	200 	200 	200 	200 	400 	400 	400 	400 	600  	performance 	31 	31 	35 	32 	30
1576511700394715001 	1 	200 	200 	200 	200 	400 	400 	400 	400 	600 	performance 	31 	31 	35 	32 	30
1576511700553442417  	0 	200 	200 	200 	200 	400 	400 	400 	400 	600  	performance 	31 	31 	35 	32 	30
1576511701745108793 	1 	200 	200 	200 	200 	400 	400 	400 	400 	600 	performance 	31 	31 	35 	31 	30
1576511701906689293  	0 	200 	200 	200 	200 	400 	400 	400 	400 	600  	performance 	31 	31 	34 	31 	30
1576511703098774376 	1 	200 	200 	200 	200 	400 	400 	400 	400 	600 	performance 	31 	31 	34 	31 	30
1576511703257099334  	0 	200 	200 	200 	200 	400 	400 	400 	400 	600  	performance 	31 	31 	34 	32 	30
1576511704448284084 	1 	200 	200 	200 	200 	400 	400 	400 	400 	600 	performance 	31 	31 	34 	31 	30
1576511704609490251  	0 	200 	200 	200 	200 	400 	400 	400 	400 	600  	performance 	31 	31 	34 	31 	30
1576511705805205418 	1 	200 	200 	200 	200 	400 	400 	400 	400 	600 	performance 	31 	31 	34 	31 	30
1576511705977329918  	0 	200 	200 	200 	200 	400 	400 	400 	400 	600  	performance 	31 	31 	34 	32 	30
1576511707181966293 	1 	200 	200 	200 	200 	400 	400 	400 	400 	600 	performance 	31 	31 	34 	31 	30
1576511707340815127  	0 	200 	200 	200 	200 	400 	400 	400 	400 	600  	performance 	31 	31 	34 	31 	30
1576511708531639210 	1 	200 	200 	200 	200 	400 	400 	400 	400 	600 	performance 	31 	31 	34 	31 	29
1576511708711323668  	0 	200 	200 	200 	200 	400 	400 	400 	400 	600  	performance 	31 	31 	34 	32 	29
1576511709901842418 	1 	200 	200 	200 	200 	400 	400 	400 	400 	600 	performance 	31 	31 	34 	31 	29
1576511710060428460  	0 	200 	200 	200 	200 	400 	400 	400 	400 	600  	performance 	31 	31 	34 	31 	29
1576511711253283044 	1 	200 	200 	200 	200 	400 	400 	400 	400 	600 	performance 	31 	31 	34 	31 	29
1576511711411175919  	0 	200 	200 	200 	200 	400 	400 	400 	400 	600  	performance 	31 	31 	34 	31 	29
1576511712604485919 	1 	200 	200 	200 	200 	400 	400 	400 	400 	600 	performance 	31 	31 	34 	31 	29
1576511712778315002  	0 	200 	200 	200 	200 	400 	400 	400 	400 	600  	performance 	31 	31 	34 	31 	30
1576511713993563919 	1 	200 	200 	200 	200 	400 	400 	400 	400 	600 	performance 	31 	31 	34 	32 	29
1576511714162019252  	0 	200 	200 	200 	200 	400 	400 	400 	400 	600  	performance 	31 	31 	34 	31 	29
1576511715354154502 	1 	200 	200 	200 	200 	400 	400 	400 	400 	600 	performance 	31 	31 	34 	31 	29
1576511715512901877  	0 	200 	200 	200 	200 	400 	400 	400 	400 	600  	performance 	31 	31 	34 	31 	29
1576511716702437461 	1 	200 	200 	200 	200 	400 	400 	400 	400 	600 	performance 	31 	31 	34 	31 	29
1576511716863108128  	0 	200 	200 	200 	200 	400 	400 	400 	400 	600  	performance 	31 	31 	34 	31 	29
1576511718056178503 	1 	200 	200 	200 	200 	400 	400 	400 	400 	600 	performance 	31 	30 	34 	31 	29
1576511718213495378  	0 	200 	200 	200 	200 	400 	400 	400 	400 	600  	performance 	31 	31 	34 	31 	29
1576511719409332878 	1 	200 	200 	200 	200 	400 	400 	400 	400 	600 	performance 	31 	30 	34 	31 	29
1576511719574690128  	0 	200 	200 	200 	200 	400 	400 	400 	400 	600  	performance 	31 	31 	34 	31 	29
1576511720765239420 	1 	200 	200 	200 	200 	400 	400 	400 	400 	600 	performance 	31 	31 	34 	31 	29
1576511720923473253  	0 	200 	200 	200 	200 	400 	400 	400 	400 	600  	performance 	31 	31 	34 	31 	29
1576511722126291670 	1 	200 	200 	200 	200 	400 	400 	400 	400 	600 	performance 	31 	31 	34 	31 	29
1576511722284304170  	0 	200 	200 	200 	200 	400 	400 	400 	400 	600  	performance 	31 	31 	34 	31 	29
1576511723483451962 	1 	200 	200 	200 	200 	400 	400 	400 	400 	600 	performance 	31 	31 	34 	31 	29
1576511723643905295  	0 	200 	200 	200 	200 	400 	400 	400 	400 	600  	performance 	31 	30 	34 	31 	29
1576511724836061254 	1 	200 	200 	200 	200 	400 	400 	400 	400 	600 	performance 	31 	30 	34 	31 	29
1576511724994958129  	0 	200 	200 	200 	200 	400 	400 	400 	400 	600  	performance 	31 	31 	34 	31 	29
1576511726188153879 	1 	200 	200 	200 	200 	400 	400 	400 	400 	600 	performance 	31 	30 	34 	31 	29
1576511726362979920  	0 	200 	200 	200 	200 	400 	400 	400 	400 	600  	performance 	31 	31 	34 	31 	29
1576511727555631671 	1 	200 	200 	200 	200 	400 	400 	400 	400 	600 	performance 	31 	31 	34 	31 	29
1576511727714245421  	0 	200 	200 	200 	200 	400 	400 	400 	400 	600  	performance 	31 	31 	34 	31 	29
1576511728907751462 	1 	200 	200 	200 	200 	400 	400 	400 	400 	600 	performance 	31 	31 	34 	31 	29
1576511729064956129  	0 	200 	200 	200 	200 	400 	400 	400 	400 	600  	performance 	31 	30 	34 	31 	29
1576511730255859838 	1 	200 	200 	200 	200 	400 	400 	400 	400 	600 	performance 	31 	30 	34 	31 	29
1576511730416306754  	0 	200 	200 	200 	200 	400 	400 	400 	400 	600  	performance 	31 	30 	34 	31 	29
1576511731606092713 	1 	200 	200 	200 	200 	400 	400 	400 	400 	600 	performance 	31 	31 	34 	31 	29
1576511731764883129  	0 	200 	200 	200 	200 	400 	400 	400 	400 	600  	performance 	31 	31 	34 	31 	29
1576511732981172463 	1 	200 	200 	200 	200 	400 	400 	400 	400 	600 	performance 	31 	31 	34 	31 	29
1576511733145038588  	0 	200 	200 	200 	200 	400 	400 	400 	400 	600  	performance 	31 	31 	34 	31 	29
1576511734337808796 	1 	200 	200 	200 	200 	400 	400 	400 	400 	600 	performance 	31 	30 	34 	31 	29
1576511734498577380  	0 	200 	200 	200 	200 	400 	400 	400 	400 	600  	performance 	31 	30 	34 	31 	29
1576511735703211213 	1 	200 	200 	200 	200 	400 	400 	400 	400 	600 	performance 	31 	31 	34 	31 	29
1576511735864082963  	0 	200 	200 	200 	200 	400 	400 	400 	400 	600  	performance 	31 	31 	34 	31 	29
1576511737054293713 	1 	200 	200 	200 	200 	400 	400 	400 	400 	600 	performance 	31 	30 	34 	31 	29
1576511737214849630  	0 	200 	200 	200 	200 	400 	400 	400 	400 	600  	performance 	31 	30 	34 	31 	29
1576511738404164922 	1 	200 	200 	200 	200 	400 	400 	400 	400 	600 	performance 	31 	30 	34 	31 	29
1576511738564308172  	0 	200 	200 	200 	200 	400 	400 	400 	400 	600  	performance 	31 	30 	34 	31 	29
1576511739771948297 	1 	200 	200 	200 	200 	400 	400 	400 	400 	600 	performance 	31 	31 	34 	31 	29
1576511739932928589  	0 	200 	200 	200 	200 	400 	400 	400 	400 	600  	performance 	31 	31 	34 	31 	29
1576511741124880297 	1 	200 	200 	200 	200 	400 	400 	400 	400 	600 	performance 	31 	30 	34 	31 	29
1576511741287141089  	0 	200 	200 	200 	200 	400 	400 	400 	400 	600  	performance 	31 	31 	34 	31 	29
1576511742486232214 	1 	200 	200 	200 	200 	400 	400 	400 	400 	600 	performance 	31 	31 	34 	31 	29
1576511742644443714  	0 	200 	200 	200 	200 	400 	400 	400 	400 	600  	performance 	31 	30 	34 	31 	29
1576511743837181881 	1 	200 	200 	200 	200 	400 	400 	400 	400 	600 	performance 	31 	30 	34 	31 	29
1576511743995755881  	0 	200 	200 	200 	200 	400 	400 	400 	400 	600  	performance 	31 	31 	34 	31 	29
1576511745186087756 	1 	200 	200 	200 	200 	400 	400 	400 	400 	600 	performance 	31 	30 	34 	31 	29
1576511745356940089  	0 	200 	200 	200 	200 	400 	400 	400 	400 	600  	performance 	31 	30 	34 	31 	29
1576511746557460923 	1 	200 	200 	200 	200 	400 	400 	400 	400 	600 	performance 	31 	31 	34 	31 	29
1576511746719289423  	0 	200 	200 	200 	200 	400 	400 	400 	400 	600  	performance 	31 	31 	34 	31 	29
1576511747911619673 	1 	200 	200 	200 	200 	400 	400 	400 	400 	600 	performance 	31 	30 	34 	31 	29
1576511748072786756  	0 	200 	200 	200 	200 	400 	400 	400 	400 	600  	performance 	31 	31 	34 	31 	29
1576511749263865340 	1 	200 	200 	200 	200 	400 	400 	400 	400 	600 	performance 	31 	30 	34 	31 	29
1576511749421537423  	0 	200 	200 	200 	200 	400 	400 	400 	400 	600  	performance 	31 	30 	34 	31 	29
1576511750613340007 	1 	200 	200 	200 	200 	400 	400 	400 	400 	600 	performance 	31 	30 	34 	31 	29
1576511750771243798  	0 	200 	200 	200 	200 	400 	400 	400 	400 	600  	performance 	31 	30 	34 	31 	29
1576511751962542757 	1 	200 	200 	200 	200 	400 	400 	400 	400 	600 	performance 	31 	30 	34 	31 	29
1576511752125310590  	0 	200 	200 	200 	200 	400 	400 	400 	400 	600  	performance 	31 	30 	34 	31 	29
1576511753322453049 	1 	200 	200 	200 	200 	400 	400 	400 	400 	600 	performance 	31 	30 	34 	31 	29
1576511753483468424  	0 	200 	200 	200 	200 	400 	400 	400 	400 	600  	performance 	31 	30 	34 	31 	29
1576511754676143132 	1 	200 	200 	200 	200 	400 	400 	400 	400 	600 	performance 	31 	30 	34 	31 	29
1576511754835460924  	0 	200 	200 	200 	200 	400 	400 	400 	400 	600  	performance 	31 	30 	34 	31 	29
1576511756025985174 	1 	200 	200 	200 	200 	400 	400 	400 	400 	600 	performance 	31 	30 	34 	31 	29
1576511756184663924  	0 	200 	200 	200 	200 	400 	400 	400 	400 	600  	performance 	31 	30 	34 	31 	29
1576511757377946466 	1 	200 	200 	200 	200 	400 	400 	400 	400 	600 	performance 	31 	30 	34 	31 	29
1576511757536771216  	0 	200 	200 	200 	200 	400 	400 	400 	400 	600  	performance 	31 	30 	34 	31 	29
1576511758727862799 	1 	200 	200 	200 	200 	400 	400 	400 	400 	600 	performance 	31 	30 	34 	31 	29
1576511758889334591  	0 	200 	200 	200 	200 	400 	400 	400 	400 	600  	performance 	31 	30 	34 	31 	29
1576511760081510883 	1 	200 	200 	200 	200 	400 	400 	400 	400 	600 	performance 	31 	30 	34 	31 	29
1576511760246710549  	0 	200 	200 	200 	200 	400 	400 	400 	400 	600  	performance 	31 	30 	34 	31 	29
1576511761452852550 	1 	200 	200 	200 	200 	400 	400 	400 	400 	600 	performance 	31 	31 	34 	31 	29
1576511761619061466  	0 	200 	200 	200 	200 	400 	400 	400 	400 	600  	performance 	31 	30 	34 	31 	29
1576511762818141508 	1 	200 	200 	200 	200 	400 	400 	400 	400 	600 	performance 	31 	30 	34 	31 	29
1576511762979755175  	0 	200 	200 	200 	200 	400 	400 	400 	400 	600  	performance 	31 	30 	34 	31 	29
1576511764170594842 	1 	200 	200 	200 	200 	400 	400 	400 	400 	600 	performance 	31 	30 	34 	31 	29
1576511764329098717  	0 	200 	200 	200 	200 	400 	400 	400 	400 	600  	performance 	31 	30 	34 	31 	29
1576511765520386967 	1 	200 	200 	200 	200 	400 	400 	400 	400 	600 	performance 	31 	30 	34 	31 	29
1576511765679800258  	0 	200 	200 	200 	200 	400 	400 	400 	400 	600  	performance 	31 	30 	34 	31 	29
1576511766870804342 	1 	200 	200 	200 	200 	400 	400 	400 	400 	600 	performance 	31 	30 	34 	31 	29
1576511767037419925  	0 	200 	200 	200 	200 	400 	400 	400 	400 	600  	performance 	31 	31 	34 	31 	29
1576511768250727467 	1 	200 	200 	200 	200 	400 	400 	400 	400 	600 	performance 	31 	31 	34 	31 	29
1576511768410662134  	0 	200 	200 	200 	200 	400 	400 	400 	400 	600  	performance 	31 	31 	34 	31 	29
1576511769601569426 	1 	200 	200 	200 	200 	400 	400 	400 	400 	600 	performance 	31 	31 	34 	31 	29
1576511769762608342  	0 	200 	200 	200 	200 	400 	400 	400 	400 	600  	performance 	31 	30 	34 	31 	29
1576511770954091217 	1 	200 	200 	200 	200 	400 	400 	400 	400 	600 	performance 	31 	30 	34 	31 	29
1576511771112432676  	0 	200 	200 	200 	200 	400 	400 	400 	400 	600  	performance 	31 	30 	34 	31 	29
1576511772306801176 	1 	200 	200 	200 	200 	400 	400 	400 	400 	600 	performance 	31 	30 	34 	31 	29
1576511772465366093  	0 	200 	200 	200 	200 	400 	400 	400 	400 	600  	performance 	31 	30 	34 	31 	29
1576511773683333718 	1 	200 	200 	200 	200 	400 	400 	400 	400 	600 	performance 	30 	30 	33 	31 	29
1576511773883237051  	0 	200 	200 	200 	200 	400 	400 	400 	400 	600  	performance 	30 	31 	34 	31 	29
