#Timestamp	CPU(0) Frequency(MHz)	CPU(0) Temperature(C)	A7 Voltage(V)	A7 Current(A)	A7 Power(W)	CPU(4) Frequency(MHz)	CPU(4) Temperature(C)	A15 Voltage(V)	A15 Current(A)	A15 Power(W)	GPU Frequency(MHz)	GPU Temperature(C)	GPU Voltage(V)	GPU Current(A)	GPU Power(W)	RAM Voltage(V)	RAM Current(A)	RAM Power(W)
1517206398521863907	400 43 0.900000 0.116000 0.105000 1100 40 0.900000 1.380000 1.368000 600 48 1.000000 0.052000 0.052000 1.200000 0.034000 0.041000
1517206399029473782	400 44 0.900000 0.116000 0.105000 1100 40 0.900000 1.394000 1.387000 600 49 1.000000 0.051000 0.051000 1.200000 0.024000 0.028000
1517206399536923490	400 44 0.900000 0.116000 0.105000 1100 40 0.900000 1.597000 1.590000 600 49 1.000000 0.052000 0.052000 1.200000 0.024000 0.028000
1517206400044616615	400 45 0.900000 0.116000 0.105000 1100 40 0.900000 1.382000 1.375000 600 49 1.000000 0.051000 0.051000 1.200000 0.024000 0.028000
1517206400552154532	400 44 0.900000 0.116000 0.105000 1100 40 0.900000 1.487000 1.479000 600 49 1.000000 0.052000 0.052000 1.200000 0.024000 0.028000
1517206401068799407	400 45 0.900000 0.116000 0.105000 1100 40 0.900000 1.385000 1.378000 600 50 1.000000 0.052000 0.052000 1.200000 0.023000 0.027000
1517206401576244449	400 45 0.900000 0.116000 0.105000 1100 40 0.900000 1.600000 1.592000 600 50 1.000000 0.052000 0.052000 1.200000 0.024000 0.028000
1517206402083821741	400 45 0.900000 0.116000 0.105000 1100 41 0.900000 1.394000 1.384000 600 50 1.000000 0.052000 0.052000 1.200000 0.023000 0.027000
1517206402591297407	400 45 0.900000 0.116000 0.105000 1100 41 0.900000 1.397000 1.387000 600 49 1.000000 0.052000 0.052000 1.200000 0.023000 0.027000
1517206403106962449	400 45 0.900000 0.116000 0.105000 1100 40 0.900000 1.391000 1.384000 600 49 1.000000 0.051000 0.051000 1.200000 0.023000 0.027000
1517206403618214782	400 45 0.900000 0.116000 0.105000 1100 41 0.900000 1.598000 1.590000 600 50 1.000000 0.051000 0.051000 1.200000 0.025000 0.030000
1517206404126014991	400 45 0.900000 0.116000 0.105000 1100 40 0.900000 1.394000 1.384000 600 50 1.000000 0.052000 0.052000 1.200000 0.023000 0.027000
1517206404633612033	400 45 0.900000 0.116000 0.105000 1100 40 0.900000 1.394000 1.387000 600 49 1.000000 0.052000 0.052000 1.200000 0.023000 0.027000
1517206405141175699	400 45 0.900000 0.116000 0.105000 1100 41 0.900000 1.393000 1.386000 600 49 1.000000 0.052000 0.052000 1.200000 0.023000 0.027000
1517206405648533283	400 45 0.900000 0.116000 0.105000 1100 41 0.900000 1.589000 1.582000 600 49 1.000000 0.052000 0.052000 1.200000 0.026000 0.031000
1517206406156022449	400 45 0.900000 0.116000 0.105000 1100 40 0.900000 1.384000 1.377000 600 49 1.000000 0.052000 0.052000 1.200000 0.023000 0.027000
1517206406663444116	400 45 0.900000 0.116000 0.105000 1100 40 0.900000 1.497000 1.486000 600 49 1.000000 0.052000 0.052000 1.200000 0.024000 0.028000
1517206407170945449	400 45 0.900000 0.116000 0.105000 1100 40 0.900000 1.383000 1.376000 600 49 1.000000 0.052000 0.052000 1.200000 0.023000 0.027000
1517206407678388575	400 45 0.900000 0.116000 0.105000 1100 40 0.900000 1.398000 1.388000 600 49 1.000000 0.052000 0.052000 1.200000 0.025000 0.030000
1517206408185998783	400 45 0.900000 0.116000 0.105000 1100 40 0.900000 1.393000 1.386000 600 49 1.000000 0.051000 0.051000 1.200000 0.023000 0.027000
1517206408693810366	400 45 0.900000 0.116000 0.105000 1100 40 0.900000 1.454000 1.446000 600 49 1.000000 0.052000 0.052000 1.200000 0.023000 0.027000
1517206409201351283	400 44 0.900000 0.116000 0.105000 1100 40 0.900000 1.396000 1.389000 600 49 1.000000 0.052000 0.052000 1.200000 0.023000 0.027000
1517206409708644908	400 45 0.900000 0.116000 0.105000 1100 40 0.900000 1.386000 1.379000 600 49 1.000000 0.052000 0.052000 1.200000 0.024000 0.028000
1517206410216275658	400 45 0.900000 0.116000 0.105000 1100 40 0.900000 1.405000 1.397000 600 49 1.000000 0.052000 0.052000 1.200000 0.023000 0.027000
1517206410723965700	400 44 0.900000 0.116000 0.105000 1100 40 0.900000 1.385000 1.375000 600 49 1.000000 0.052000 0.052000 1.200000 0.023000 0.027000
1517206411231381742	400 44 0.900000 0.116000 0.105000 1100 40 0.900000 1.380000 1.370000 600 49 1.000000 0.052000 0.052000 1.200000 0.024000 0.028000
1517206411748460450	400 44 0.900000 0.116000 0.105000 1100 40 0.900000 1.382000 1.372000 600 49 1.000000 0.052000 0.052000 1.200000 0.023000 0.027000
1517206412259960325	400 44 0.900000 0.116000 0.105000 1100 40 0.900000 1.430000 1.419000 600 49 1.000000 0.052000 0.052000 1.200000 0.024000 0.028000
1517206412767399450	400 44 0.900000 0.116000 0.105000 1100 40 0.900000 1.383000 1.373000 600 49 1.000000 0.052000 0.052000 1.200000 0.023000 0.027000
1517206413274985117	400 44 0.900000 0.116000 0.105000 1100 40 0.900000 1.400000 1.390000 600 49 1.000000 0.052000 0.052000 1.200000 0.023000 0.027000
1517206413782588659	400 44 0.900000 0.116000 0.105000 1100 40 0.900000 1.386000 1.376000 600 49 1.000000 0.052000 0.052000 1.200000 0.024000 0.028000
1517206414290164450	400 44 0.900000 0.116000 0.105000 1100 40 0.900000 1.519000 1.511000 600 49 1.000000 0.051000 0.051000 1.200000 0.028000 0.033000
1517206414797664034	400 44 0.900000 0.116000 0.105000 1100 40 0.900000 1.492000 1.484000 600 49 1.000000 0.052000 0.052000 1.200000 0.023000 0.027000
1517206415305127742	400 44 0.900000 0.116000 0.105000 1100 40 0.900000 1.385000 1.378000 600 49 1.000000 0.052000 0.052000 1.200000 0.023000 0.027000
1517206415812731451	400 44 0.900000 0.116000 0.105000 1100 40 0.900000 1.400000 1.390000 600 49 1.000000 0.052000 0.052000 1.200000 0.023000 0.027000
1517206416339320617	400 44 0.900000 0.116000 0.105000 1100 40 0.900000 1.471000 1.463000 600 49 1.000000 0.052000 0.052000 1.200000 0.028000 0.033000
1517206416847189951	400 44 0.900000 0.116000 0.105000 1100 40 0.900000 1.435000 1.424000 600 49 1.000000 0.052000 0.052000 1.200000 0.023000 0.027000
1517206417354772784	400 44 0.900000 0.116000 0.105000 1100 40 0.900000 1.393000 1.383000 600 49 1.000000 0.052000 0.052000 1.200000 0.023000 0.027000
1517206417862057909	400 44 0.900000 0.116000 0.105000 1100 40 0.900000 1.380000 1.370000 600 49 1.000000 0.052000 0.052000 1.200000 0.023000 0.027000
1517206418390388117	400 44 0.900000 0.116000 0.105000 1100 40 0.900000 1.448000 1.440000 600 49 1.000000 0.052000 0.052000 1.200000 0.027000 0.032000
1517206418903149743	400 44 0.900000 0.116000 0.105000 1100 40 0.900000 1.378000 1.368000 600 49 1.000000 0.052000 0.052000 1.200000 0.028000 0.033000
1517206419410617743	400 44 0.900000 0.116000 0.105000 1100 40 0.900000 1.383000 1.373000 600 48 1.000000 0.052000 0.052000 1.200000 0.024000 0.028000
1517206419917877659	400 44 0.900000 0.116000 0.105000 1100 40 0.900000 1.378000 1.368000 600 48 1.000000 0.052000 0.052000 1.200000 0.023000 0.027000
1517206420456641909	400 44 0.900000 0.116000 0.105000 1100 40 0.900000 1.405000 1.395000 600 49 1.000000 0.052000 0.052000 1.200000 0.024000 0.028000
1517206420964239159	400 44 0.900000 0.116000 0.105000 1100 40 0.900000 1.382000 1.372000 600 49 1.000000 0.051000 0.051000 1.200000 0.028000 0.033000
1517206421472125493	400 44 0.900000 0.116000 0.105000 1100 40 0.900000 1.388000 1.381000 600 49 1.000000 0.051000 0.051000 1.200000 0.023000 0.027000
1517206421979620368	400 44 0.900000 0.116000 0.105000 1100 40 0.900000 1.388000 1.381000 600 49 1.000000 0.052000 0.052000 1.200000 0.023000 0.027000
1517206422506323243	400 44 0.900000 0.116000 0.105000 1100 40 0.900000 1.397000 1.390000 600 48 1.000000 0.052000 0.052000 1.200000 0.023000 0.027000
1517206423013969076	400 44 0.900000 0.116000 0.105000 1100 40 0.900000 1.677000 1.670000 600 49 1.000000 0.052000 0.052000 1.200000 0.029000 0.035000
1517206423521350118	400 44 0.900000 0.116000 0.105000 1100 40 0.900000 1.397000 1.390000 600 49 1.000000 0.052000 0.052000 1.200000 0.023000 0.027000
1517206424028860660	400 44 0.900000 0.116000 0.105000 1100 40 0.900000 1.390000 1.380000 600 48 1.000000 0.051000 0.051000 1.200000 0.023000 0.027000
1517206424536356785	400 44 0.900000 0.116000 0.105000 1100 40 0.900000 1.387000 1.377000 600 48 1.000000 0.052000 0.052000 1.200000 0.023000 0.027000
1517206425044006577	400 44 0.900000 0.116000 0.105000 1100 40 0.900000 1.651000 1.644000 600 49 1.000000 0.052000 0.052000 1.200000 0.027000 0.032000
1517206425551713285	400 44 0.900000 0.116000 0.105000 1100 40 0.900000 1.371000 1.364000 600 49 1.000000 0.051000 0.051000 1.200000 0.024000 0.028000
1517206426059408493	400 44 0.900000 0.116000 0.105000 1100 40 0.900000 1.379000 1.372000 600 48 1.000000 0.052000 0.052000 1.200000 0.023000 0.027000
1517206426566989827	400 44 0.900000 0.116000 0.105000 1100 40 0.900000 1.382000 1.375000 600 48 1.000000 0.052000 0.052000 1.200000 0.024000 0.028000
1517206427074555660	400 44 0.900000 0.116000 0.105000 1100 40 0.900000 1.563000 1.555000 600 49 1.000000 0.051000 0.051000 1.200000 0.027000 0.032000
1517206427582006785	400 44 0.900000 0.116000 0.105000 1100 39 0.900000 1.380000 1.373000 600 48 1.000000 0.051000 0.051000 1.200000 0.024000 0.028000
1517206428089688952	400 44 0.900000 0.116000 0.105000 1100 39 0.900000 1.378000 1.368000 600 48 1.000000 0.052000 0.052000 1.200000 0.023000 0.027000
1517206428597189077	400 44 0.900000 0.116000 0.105000 1100 40 0.900000 1.375000 1.365000 600 48 1.000000 0.052000 0.052000 1.200000 0.023000 0.027000
1517206429113833869	400 44 0.900000 0.116000 0.105000 1100 39 0.900000 1.475000 1.467000 600 48 1.000000 0.051000 0.051000 1.200000 0.024000 0.028000
1517206429623156952	400 44 0.900000 0.115000 0.104000 1100 39 0.900000 1.474000 1.466000 600 48 1.000000 0.051000 0.051000 1.200000 0.029000 0.035000
1517206430130723827	400 44 0.900000 0.116000 0.105000 1100 39 0.900000 1.388000 1.378000 600 48 1.000000 0.052000 0.052000 1.200000 0.024000 0.028000
1517206430637887077	400 44 0.900000 0.116000 0.105000 1100 39 0.900000 1.389000 1.379000 600 48 1.000000 0.051000 0.051000 1.200000 0.023000 0.027000
1517206431154359411	400 44 0.900000 0.116000 0.105000 1100 39 0.900000 1.475000 1.467000 600 48 1.000000 0.052000 0.052000 1.200000 0.026000 0.031000
1517206431663443411	400 44 0.900000 0.116000 0.105000 1100 39 0.900000 1.510000 1.502000 600 48 1.000000 0.051000 0.051000 1.200000 0.029000 0.035000
1517206432171001994	400 44 0.900000 0.116000 0.105000 1100 39 0.900000 1.380000 1.370000 600 48 1.000000 0.052000 0.052000 1.200000 0.023000 0.027000
1517206432678509328	400 44 0.900000 0.116000 0.105000 1100 39 0.900000 1.391000 1.381000 600 48 1.000000 0.052000 0.052000 1.200000 0.024000 0.028000
1517206433186284244	400 44 0.900000 0.116000 0.105000 1100 39 0.900000 1.467000 1.459000 600 48 1.000000 0.051000 0.051000 1.200000 0.028000 0.033000
1517206433693976161	400 44 0.900000 0.116000 0.105000 1100 39 0.900000 1.543000 1.535000 600 48 1.000000 0.052000 0.052000 1.200000 0.028000 0.033000
1517206434201561869	400 44 0.900000 0.116000 0.105000 1100 39 0.900000 1.371000 1.361000 600 48 1.000000 0.051000 0.051000 1.200000 0.023000 0.027000
1517206434709153119	400 43 0.900000 0.116000 0.105000 1100 39 0.900000 1.373000 1.363000 600 48 1.000000 0.052000 0.052000 1.200000 0.023000 0.027000
1517206435216763369	400 43 0.900000 0.116000 0.105000 1100 39 0.900000 1.388000 1.381000 600 48 1.000000 0.051000 0.051000 1.200000 0.027000 0.032000
1517206435724318203	400 44 0.900000 0.116000 0.105000 1100 39 0.900000 1.572000 1.564000 600 48 1.000000 0.051000 0.051000 1.200000 0.027000 0.032000
1517206436231909911	400 44 0.900000 0.116000 0.105000 1100 39 0.900000 1.371000 1.364000 600 48 1.000000 0.052000 0.052000 1.200000 0.024000 0.028000
1517206436739217245	400 44 0.900000 0.116000 0.105000 1100 39 0.900000 1.392000 1.385000 600 48 1.000000 0.051000 0.051000 1.200000 0.024000 0.028000
1517206437246952411	400 43 0.900000 0.115000 0.104000 1100 39 0.900000 1.387000 1.380000 600 48 1.000000 0.051000 0.051000 1.200000 0.023000 0.027000
1517206437754352203	400 44 0.900000 0.115000 0.104000 1100 39 0.900000 1.380000 1.373000 600 48 1.000000 0.051000 0.051000 1.200000 0.024000 0.028000
1517206438261823453	400 43 0.900000 0.115000 0.104000 1100 39 0.900000 1.600000 1.593000 600 48 1.000000 0.052000 0.052000 1.200000 0.024000 0.028000
1517206438769249037	400 43 0.900000 0.115000 0.104000 1100 39 0.900000 1.387000 1.380000 600 48 1.000000 0.052000 0.052000 1.200000 0.023000 0.027000
1517206439276929162	400 43 0.900000 0.115000 0.104000 1100 39 0.900000 1.388000 1.381000 600 48 1.000000 0.051000 0.051000 1.200000 0.026000 0.031000
1517206439793464078	400 43 0.900000 0.116000 0.105000 1100 39 0.900000 1.378000 1.371000 600 48 1.000000 0.051000 0.051000 1.200000 0.023000 0.027000
1517206440301065995	400 43 0.900000 0.116000 0.105000 1100 39 0.900000 1.605000 1.598000 600 48 1.000000 0.051000 0.051000 1.200000 0.025000 0.030000
1517206440808436995	400 43 0.900000 0.116000 0.105000 1100 39 0.900000 1.384000 1.377000 600 48 1.000000 0.051000 0.051000 1.200000 0.023000 0.027000
1517206441316277579	400 43 0.900000 0.116000 0.105000 1100 39 0.900000 1.386000 1.379000 600 48 1.000000 0.052000 0.052000 1.200000 0.027000 0.032000
1517206441823922079	400 43 0.900000 0.116000 0.105000 1100 39 0.900000 1.389000 1.382000 600 48 1.000000 0.051000 0.051000 1.200000 0.023000 0.027000
1517206442331273454	400 43 0.900000 0.116000 0.105000 1100 39 0.900000 1.593000 1.586000 600 48 1.000000 0.052000 0.052000 1.200000 0.025000 0.030000
1517206442839107370	400 43 0.900000 0.116000 0.105000 1100 39 0.900000 1.373000 1.366000 600 48 1.000000 0.052000 0.052000 1.200000 0.023000 0.027000
1517206443346919579	400 43 0.900000 0.116000 0.105000 1100 39 0.900000 1.400000 1.393000 600 48 1.000000 0.051000 0.051000 1.200000 0.024000 0.028000
1517206443854350454	400 43 0.900000 0.116000 0.105000 1100 39 0.900000 1.383000 1.376000 600 48 1.000000 0.051000 0.051000 1.200000 0.023000 0.027000
1517206444361904079	400 43 0.900000 0.116000 0.105000 1100 39 0.900000 1.383000 1.376000 600 48 1.000000 0.051000 0.051000 1.200000 0.024000 0.028000
1517206444869481829	400 43 0.900000 0.115000 0.104000 1100 39 0.900000 1.389000 1.382000 600 48 1.000000 0.051000 0.051000 1.200000 0.023000 0.027000
1517206445377259954	400 43 0.900000 0.115000 0.104000 1100 39 0.900000 1.390000 1.383000 600 48 1.000000 0.052000 0.052000 1.200000 0.023000 0.027000
1517206445884588787	400 43 0.900000 0.115000 0.104000 1100 39 0.900000 1.383000 1.376000 600 48 1.000000 0.052000 0.052000 1.200000 0.023000 0.027000
1517206446392078162	400 43 0.900000 0.115000 0.104000 1100 39 0.900000 1.383000 1.376000 600 48 1.000000 0.051000 0.051000 1.200000 0.023000 0.027000
1517206446899850413	400 43 0.900000 0.115000 0.104000 1100 39 0.900000 1.402000 1.394000 600 48 1.000000 0.051000 0.051000 1.200000 0.023000 0.027000
1517206447407512996	400 43 0.900000 0.116000 0.105000 1100 39 0.900000 1.370000 1.360000 600 48 1.000000 0.052000 0.052000 1.200000 0.026000 0.031000
1517206447915031871	400 43 0.900000 0.116000 0.105000 1100 39 0.900000 1.399000 1.392000 600 48 1.000000 0.051000 0.051000 1.200000 0.023000 0.027000
1517206448432651538	400 43 0.900000 0.116000 0.105000 1100 39 0.900000 1.382000 1.375000 600 48 1.000000 0.051000 0.051000 1.200000 0.023000 0.027000
1517206448941210371	400 43 0.900000 0.116000 0.105000 1100 39 0.900000 1.412000 1.402000 600 48 1.000000 0.051000 0.051000 1.200000 0.023000 0.027000
1517206449449018246	400 43 0.900000 0.116000 0.105000 1100 39 0.900000 1.387000 1.380000 600 48 1.000000 0.051000 0.051000 1.200000 0.026000 0.031000
1517206449956567996	400 43 0.900000 0.116000 0.105000 1100 39 0.900000 1.484000 1.476000 600 48 1.000000 0.051000 0.051000 1.200000 0.024000 0.028000
1517206450464003580	400 43 0.900000 0.116000 0.105000 1100 39 0.900000 1.378000 1.371000 600 48 1.000000 0.052000 0.052000 1.200000 0.023000 0.027000
1517206450971426746	400 43 0.900000 0.116000 0.105000 1100 39 0.900000 1.522000 1.514000 600 48 1.000000 0.051000 0.051000 1.200000 0.027000 0.032000
1517206451479116996	400 43 0.900000 0.116000 0.105000 1100 39 0.900000 1.390000 1.383000 600 48 1.000000 0.051000 0.051000 1.200000 0.024000 0.028000
1517206451986607996	400 43 0.900000 0.116000 0.105000 1100 39 0.900000 1.385000 1.378000 600 48 1.000000 0.051000 0.051000 1.200000 0.023000 0.027000
1517206452493894538	400 43 0.900000 0.116000 0.105000 1100 39 0.900000 1.389000 1.382000 600 48 1.000000 0.051000 0.051000 1.200000 0.023000 0.027000
1517206453001365663	400 43 0.900000 0.116000 0.105000 1100 39 0.900000 1.485000 1.477000 600 48 1.000000 0.051000 0.051000 1.200000 0.027000 0.032000
1517206453508916247	400 43 0.900000 0.115000 0.104000 1100 39 0.900000 1.396000 1.389000 600 48 1.000000 0.051000 0.051000 1.200000 0.023000 0.027000
1517206454016483788	400 43 0.900000 0.115000 0.104000 1100 39 0.900000 1.371000 1.364000 600 48 1.000000 0.051000 0.051000 1.200000 0.023000 0.027000
1517206454523933413	400 43 0.900000 0.115000 0.104000 1100 39 0.900000 1.380000 1.373000 600 47 1.000000 0.052000 0.052000 1.200000 0.023000 0.027000
1517206455031376580	400 43 0.900000 0.116000 0.105000 1100 39 0.900000 1.446000 1.438000 600 48 1.000000 0.052000 0.052000 1.200000 0.027000 0.032000
1517206455538905330	400 43 0.900000 0.115000 0.104000 1100 39 0.900000 1.368000 1.361000 600 48 1.000000 0.051000 0.051000 1.200000 0.027000 0.032000
1517206456046291289	400 43 0.900000 0.116000 0.105000 1100 39 0.900000 1.377000 1.370000 600 48 1.000000 0.051000 0.051000 1.200000 0.023000 0.027000
1517206456553781789	400 43 0.900000 0.115000 0.104000 1100 39 0.900000 1.385000 1.378000 600 48 1.000000 0.051000 0.051000 1.200000 0.023000 0.027000
1517206457071462997	400 43 0.900000 0.116000 0.105000 1100 39 0.900000 1.392000 1.385000 600 48 1.000000 0.052000 0.052000 1.200000 0.024000 0.028000
1517206457580085330	400 43 0.900000 0.116000 0.105000 1100 39 0.900000 1.553000 1.545000 600 48 1.000000 0.051000 0.051000 1.200000 0.023000 0.027000
1517206458087719956	400 43 0.900000 0.116000 0.105000 1100 39 0.900000 1.444000 1.436000 600 48 1.000000 0.051000 0.051000 1.200000 0.023000 0.027000
1517206458595068122	400 43 0.900000 0.116000 0.105000 1100 39 0.900000 1.384000 1.377000 600 48 1.000000 0.051000 0.051000 1.200000 0.023000 0.027000
1517206459109233039	400 43 0.900000 0.116000 0.105000 1100 39 0.900000 1.385000 1.378000 600 48 1.000000 0.051000 0.051000 1.200000 0.023000 0.027000
1517206459620396331	400 43 0.900000 0.116000 0.105000 1100 39 0.900000 1.600000 1.592000 600 48 1.000000 0.052000 0.052000 1.200000 0.028000 0.033000
1517206460128092706	400 43 0.900000 0.116000 0.105000 1100 39 0.900000 1.380000 1.373000 600 48 1.000000 0.052000 0.052000 1.200000 0.029000 0.035000
1517206460635567831	400 43 0.900000 0.116000 0.105000 1100 39 0.900000 1.369000 1.362000 600 47 1.000000 0.051000 0.051000 1.200000 0.023000 0.027000
1517206461142981498	400 43 0.900000 0.116000 0.105000 1100 39 0.900000 1.380000 1.373000 600 48 1.000000 0.051000 0.051000 1.200000 0.024000 0.028000
1517206461650463664	400 43 0.900000 0.116000 0.105000 1100 39 0.900000 1.586000 1.579000 600 48 1.000000 0.051000 0.051000 1.200000 0.026000 0.031000
1517206462157941456	400 43 0.900000 0.116000 0.105000 1100 39 0.900000 1.370000 1.363000 600 47 1.000000 0.051000 0.051000 1.200000 0.027000 0.032000
1517206462665380581	400 43 0.900000 0.115000 0.104000 1100 39 0.900000 1.377000 1.370000 600 48 1.000000 0.051000 0.051000 1.200000 0.024000 0.028000
1517206463172898539	400 43 0.900000 0.115000 0.104000 1100 39 0.900000 1.379000 1.372000 600 47 1.000000 0.051000 0.051000 1.200000 0.023000 0.027000
1517206463694527915	400 43 0.900000 0.115000 0.104000 1100 39 0.900000 1.373000 1.366000 600 48 1.000000 0.051000 0.051000 1.200000 0.024000 0.028000
1517206464203075290	400 43 0.900000 0.115000 0.104000 1100 39 0.900000 1.473000 1.465000 600 48 1.000000 0.051000 0.051000 1.200000 0.030000 0.036000
1517206464710378956	400 43 0.900000 0.116000 0.105000 1100 39 0.900000 1.381000 1.374000 600 47 1.000000 0.052000 0.052000 1.200000 0.023000 0.027000
1517206465217742498	400 43 0.900000 0.116000 0.105000 1100 39 0.900000 1.391000 1.381000 600 47 1.000000 0.052000 0.052000 1.200000 0.023000 0.027000
1517206465738675873	400 43 0.900000 0.116000 0.105000 1100 39 0.900000 1.376000 1.366000 600 48 1.000000 0.051000 0.051000 1.200000 0.023000 0.027000
1517206466255223332	400 43 0.900000 0.116000 0.105000 1100 39 0.900000 1.432000 1.424000 600 47 1.000000 0.051000 0.051000 1.200000 0.031000 0.037000
1517206466762793332	400 43 0.900000 0.116000 0.105000 1100 39 0.900000 1.379000 1.372000 600 47 1.000000 0.051000 0.051000 1.200000 0.023000 0.027000
1517206467270072957	400 43 0.900000 0.116000 0.105000 1100 39 0.900000 1.371000 1.364000 600 47 1.000000 0.052000 0.052000 1.200000 0.023000 0.027000
1517206467802435623	400 43 0.900000 0.116000 0.105000 1100 39 0.900000 1.376000 1.366000 600 47 1.000000 0.051000 0.051000 1.200000 0.023000 0.027000
1517206468314792332	400 43 0.900000 0.116000 0.105000 1100 39 0.900000 1.448000 1.440000 600 48 1.000000 0.051000 0.051000 1.200000 0.035000 0.042000
1517206468822239790	400 43 0.900000 0.116000 0.105000 1100 39 0.900000 1.371000 1.364000 600 47 1.000000 0.051000 0.051000 1.200000 0.023000 0.027000
1517206469329684332	400 43 0.900000 0.116000 0.105000 1100 39 0.900000 1.376000 1.369000 600 47 1.000000 0.051000 0.051000 1.200000 0.024000 0.028000
1517206469837125207	400 43 0.900000 0.116000 0.105000 1100 39 0.900000 1.378000 1.371000 600 47 1.000000 0.051000 0.051000 1.200000 0.023000 0.027000
1517206470344719790	400 43 0.900000 0.116000 0.105000 1100 39 0.900000 1.488000 1.480000 600 48 1.000000 0.051000 0.051000 1.200000 0.032000 0.038000
1517206470852275374	400 43 0.900000 0.115000 0.104000 1100 38 0.900000 1.374000 1.367000 600 48 1.000000 0.051000 0.051000 1.200000 0.023000 0.027000
1517206471359619290	400 43 0.900000 0.115000 0.104000 1100 39 0.900000 1.379000 1.372000 600 47 1.000000 0.051000 0.051000 1.200000 0.023000 0.027000
1517206471866917707	400 43 0.900000 0.115000 0.104000 1100 38 0.900000 1.373000 1.366000 600 47 1.000000 0.051000 0.051000 1.200000 0.022000 0.026000
1517206472374363499	400 43 0.900000 0.115000 0.104000 1100 39 0.900000 1.527000 1.519000 600 48 1.000000 0.051000 0.051000 1.200000 0.024000 0.028000
1517206472881882166	400 43 0.900000 0.115000 0.104000 1100 39 0.900000 1.381000 1.374000 600 47 1.000000 0.051000 0.051000 1.200000 0.023000 0.027000
1517206473389291582	400 43 0.900000 0.116000 0.105000 1100 38 0.900000 1.380000 1.373000 600 47 1.000000 0.051000 0.051000 1.200000 0.024000 0.028000
1517206473896747332	400 43 0.900000 0.116000 0.105000 1100 38 0.900000 1.373000 1.366000 600 47 1.000000 0.051000 0.051000 1.200000 0.023000 0.027000
1517206474404262166	400 43 0.900000 0.116000 0.105000 1100 39 0.900000 1.380000 1.373000 600 48 1.000000 0.051000 0.051000 1.200000 0.027000 0.032000
1517206474911955291	400 43 0.900000 0.116000 0.105000 1100 39 0.900000 1.580000 1.572000 600 47 1.000000 0.051000 0.051000 1.200000 0.024000 0.028000
1517206475419366583	400 43 0.900000 0.116000 0.105000 1100 39 0.900000 1.380000 1.373000 600 47 1.000000 0.052000 0.052000 1.200000 0.023000 0.027000
1517206475926952083	400 43 0.900000 0.116000 0.105000 1100 38 0.900000 1.394000 1.387000 600 47 1.000000 0.052000 0.052000 1.200000 0.024000 0.028000
1517206476444223833	400 43 0.900000 0.115000 0.104000 1100 39 0.900000 1.468000 1.460000 600 47 1.000000 0.052000 0.052000 1.200000 0.027000 0.032000
1517206476951781958	400 43 0.900000 0.116000 0.105000 1100 39 0.900000 1.605000 1.598000 600 47 1.000000 0.051000 0.051000 1.200000 0.025000 0.030000
1517206477459246625	400 43 0.900000 0.116000 0.105000 1100 39 0.900000 1.380000 1.373000 600 47 1.000000 0.051000 0.051000 1.200000 0.023000 0.027000
1517206477966580500	400 43 0.900000 0.115000 0.104000 1100 38 0.900000 1.391000 1.384000 600 47 1.000000 0.052000 0.052000 1.200000 0.024000 0.028000
1517206478474235500	400 43 0.900000 0.116000 0.105000 1100 38 0.900000 1.480000 1.472000 600 47 1.000000 0.051000 0.051000 1.200000 0.027000 0.032000
1517206478982091958	400 43 0.900000 0.116000 0.105000 1100 38 0.900000 1.396000 1.389000 600 47 1.000000 0.051000 0.051000 1.200000 0.027000 0.032000
1517206479489505291	400 43 0.900000 0.115000 0.104000 1100 38 0.900000 1.372000 1.365000 600 47 1.000000 0.052000 0.052000 1.200000 0.023000 0.027000
1517206479997046041	400 43 0.900000 0.116000 0.105000 1100 38 0.900000 1.394000 1.387000 600 47 1.000000 0.051000 0.051000 1.200000 0.023000 0.027000
1517206480504847125	400 43 0.900000 0.116000 0.105000 1100 39 0.900000 1.386000 1.379000 600 47 1.000000 0.051000 0.051000 1.200000 0.026000 0.031000
1517206481012586000	400 43 0.900000 0.115000 0.104000 1100 38 0.900000 1.383000 1.376000 600 48 1.000000 0.051000 0.051000 1.200000 0.025000 0.030000
1517206481520056417	400 43 0.900000 0.116000 0.105000 1100 38 0.900000 1.391000 1.384000 600 47 1.000000 0.051000 0.051000 1.200000 0.023000 0.027000
1517206482027459208	400 43 0.900000 0.115000 0.104000 1100 38 0.900000 1.380000 1.373000 600 47 1.000000 0.051000 0.051000 1.200000 0.023000 0.027000
1517206482535163958	400 43 0.900000 0.115000 0.104000 1100 38 0.900000 1.392000 1.385000 600 47 1.000000 0.051000 0.051000 1.200000 0.027000 0.032000
1517206483042605334	400 43 0.900000 0.116000 0.105000 1100 38 0.900000 1.377000 1.370000 600 48 1.000000 0.051000 0.051000 1.200000 0.024000 0.028000
1517206483549913750	400 43 0.900000 0.115000 0.104000 1100 38 0.900000 1.397000 1.390000 600 47 1.000000 0.051000 0.051000 1.200000 0.023000 0.027000
1517206484057353042	400 43 0.900000 0.116000 0.105000 1100 38 0.900000 1.377000 1.370000 600 47 1.000000 0.052000 0.052000 1.200000 0.022000 0.026000
1517206484565099750	400 43 0.900000 0.116000 0.105000 1100 38 0.900000 1.456000 1.448000 600 47 1.000000 0.051000 0.051000 1.200000 0.027000 0.032000
1517206485080324000	400 43 0.900000 0.116000 0.105000 1100 38 0.900000 1.380000 1.373000 600 47 1.000000 0.051000 0.051000 1.200000 0.023000 0.027000
1517206485591390584	400 43 0.900000 0.116000 0.105000 1100 38 0.900000 1.375000 1.368000 600 47 1.000000 0.051000 0.051000 1.200000 0.023000 0.027000
1517206486098876626	400 43 0.900000 0.116000 0.105000 1100 38 0.900000 1.376000 1.369000 600 47 1.000000 0.051000 0.051000 1.200000 0.023000 0.027000
1517206486606440459	400 43 0.900000 0.116000 0.105000 1100 38 0.900000 1.388000 1.381000 600 47 1.000000 0.051000 0.051000 1.200000 0.024000 0.028000
1517206487113948834	400 43 0.900000 0.115000 0.104000 1100 38 0.900000 1.386000 1.379000 600 47 1.000000 0.051000 0.051000 1.200000 0.024000 0.028000
1517206487621575792	400 43 0.900000 0.115000 0.104000 1100 38 0.900000 1.564000 1.556000 600 47 1.000000 0.051000 0.051000 1.200000 0.028000 0.033000
1517206488129040292	400 43 0.900000 0.115000 0.104000 1100 38 0.900000 1.388000 1.381000 600 47 1.000000 0.052000 0.052000 1.200000 0.023000 0.027000
1517206488636557626	400 43 0.900000 0.116000 0.105000 1100 38 0.900000 1.382000 1.375000 600 47 1.000000 0.051000 0.051000 1.200000 0.026000 0.031000
1517206489144130959	400 43 0.900000 0.115000 0.104000 1100 38 0.900000 1.393000 1.386000 600 47 1.000000 0.051000 0.051000 1.200000 0.023000 0.027000
1517206489651840251	400 43 0.900000 0.115000 0.104000 1100 38 0.900000 1.517000 1.509000 600 47 1.000000 0.051000 0.051000 1.200000 0.027000 0.032000
1517206490159141543	400 43 0.900000 0.115000 0.104000 1100 38 0.900000 1.397000 1.390000 600 47 1.000000 0.051000 0.051000 1.200000 0.023000 0.027000
1517206490666997793	400 43 0.900000 0.115000 0.104000 1100 38 0.900000 1.403000 1.395000 600 47 1.000000 0.051000 0.051000 1.200000 0.027000 0.032000
1517206491174651793	400 43 0.900000 0.116000 0.105000 1100 38 0.900000 1.369000 1.362000 600 47 1.000000 0.051000 0.051000 1.200000 0.023000 0.027000
1517206491682021376	400 43 0.900000 0.116000 0.105000 1100 38 0.900000 1.492000 1.484000 600 47 1.000000 0.051000 0.051000 1.200000 0.028000 0.033000
1517206492189521835	400 43 0.900000 0.116000 0.105000 1100 38 0.900000 1.376000 1.369000 600 47 1.000000 0.051000 0.051000 1.200000 0.023000 0.027000
1517206492697207460	400 43 0.900000 0.116000 0.105000 1100 38 0.900000 1.395000 1.388000 600 47 1.000000 0.051000 0.051000 1.200000 0.023000 0.027000
1517206493204843960	400 43 0.900000 0.116000 0.105000 1100 38 0.900000 1.371000 1.361000 600 47 1.000000 0.051000 0.051000 1.200000 0.024000 0.028000
1517206493718092043	400 43 0.900000 0.116000 0.105000 1100 38 0.900000 1.396000 1.389000 600 47 1.000000 0.051000 0.051000 1.200000 0.023000 0.027000
1517206494225818418	400 43 0.900000 0.116000 0.105000 1100 38 0.900000 1.516000 1.508000 600 47 1.000000 0.051000 0.051000 1.200000 0.023000 0.027000
1517206494733624335	400 43 0.900000 0.116000 0.105000 1100 38 0.900000 1.372000 1.365000 600 47 1.000000 0.051000 0.051000 1.200000 0.023000 0.027000
1517206495241213335	400 43 0.900000 0.116000 0.105000 1100 38 0.900000 1.395000 1.388000 600 47 1.000000 0.051000 0.051000 1.200000 0.023000 0.027000
1517206495760228668	400 42 0.900000 0.116000 0.105000 1100 38 0.900000 1.385000 1.375000 600 47 1.000000 0.051000 0.051000 1.200000 0.023000 0.027000
1517206496267730793	400 43 0.900000 0.116000 0.105000 1100 38 0.900000 1.535000 1.527000 600 47 1.000000 0.051000 0.051000 1.200000 0.024000 0.028000
1517206496775410002	400 43 0.900000 0.115000 0.104000 1100 38 0.900000 1.375000 1.368000 600 47 1.000000 0.051000 0.051000 1.200000 0.027000 0.032000
1517206497283092627	400 43 0.900000 0.115000 0.104000 1100 38 0.900000 1.378000 1.371000 600 47 1.000000 0.051000 0.051000 1.200000 0.023000 0.027000
1517206497790665752	400 43 0.900000 0.115000 0.104000 1100 38 0.900000 1.370000 1.363000 600 47 1.000000 0.051000 0.051000 1.200000 0.023000 0.027000
1517206498297938294	400 43 0.900000 0.116000 0.105000 1100 38 0.900000 1.576000 1.568000 600 47 1.000000 0.051000 0.051000 1.200000 0.024000 0.028000
1517206498805535710	400 43 0.900000 0.116000 0.105000 1100 38 0.900000 1.425000 1.417000 600 47 1.000000 0.052000 0.052000 1.200000 0.026000 0.031000
1517206499313105294	400 43 0.900000 0.115000 0.104000 1100 38 0.900000 1.371000 1.364000 600 47 1.000000 0.051000 0.051000 1.200000 0.024000 0.028000
1517206499820788794	400 42 0.900000 0.115000 0.104000 1100 38 0.900000 1.391000 1.384000 600 47 1.000000 0.052000 0.052000 1.200000 0.023000 0.027000
1517206500328488169	400 43 0.900000 0.115000 0.104000 1100 38 0.900000 1.375000 1.365000 600 47 1.000000 0.051000 0.051000 1.200000 0.024000 0.028000
1517206500835995627	400 43 0.900000 0.116000 0.105000 1100 38 0.900000 1.393000 1.383000 600 47 1.000000 0.052000 0.052000 1.200000 0.025000 0.030000
1517206501343623294	400 42 0.900000 0.116000 0.105000 1100 38 0.900000 1.375000 1.365000 600 47 1.000000 0.051000 0.051000 1.200000 0.028000 0.033000
1517206501851158752	400 43 0.900000 0.116000 0.105000 1100 38 0.900000 1.388000 1.378000 600 47 1.000000 0.052000 0.052000 1.200000 0.023000 0.027000
1517206502358388711	400 43 0.900000 0.116000 0.105000 1100 38 0.900000 1.377000 1.367000 600 47 1.000000 0.051000 0.051000 1.200000 0.023000 0.027000
1517206502865990711	400 43 0.900000 0.116000 0.105000 1100 38 0.900000 1.371000 1.361000 600 47 1.000000 0.051000 0.051000 1.200000 0.026000 0.031000
1517206503373489503	400 43 0.900000 0.116000 0.105000 1100 38 0.900000 1.373000 1.363000 600 47 1.000000 0.051000 0.051000 1.200000 0.027000 0.032000
1517206503880912086	400 42 0.900000 0.116000 0.105000 1100 38 0.900000 1.375000 1.365000 600 47 1.000000 0.051000 0.051000 1.200000 0.024000 0.028000
1517206504398478711	400 42 0.900000 0.116000 0.105000 1100 38 0.900000 1.372000 1.362000 600 47 1.000000 0.052000 0.052000 1.200000 0.023000 0.027000
1517206504907278086	400 43 0.900000 0.116000 0.105000 1100 38 0.900000 1.376000 1.369000 600 47 1.000000 0.051000 0.051000 1.200000 0.027000 0.032000
1517206505414907503	400 42 0.900000 0.116000 0.105000 1100 38 0.900000 1.375000 1.365000 600 47 1.000000 0.051000 0.051000 1.200000 0.023000 0.027000
1517206505922357336	400 42 0.900000 0.115000 0.104000 1100 38 0.900000 1.371000 1.364000 600 47 1.000000 0.052000 0.052000 1.200000 0.024000 0.028000
1517206506429793211	400 42 0.900000 0.115000 0.104000 1100 38 0.900000 1.373000 1.366000 600 47 1.000000 0.051000 0.051000 1.200000 0.023000 0.027000
1517206506937648753	400 43 0.900000 0.115000 0.104000 1100 38 0.900000 1.582000 1.575000 600 47 1.000000 0.051000 0.051000 1.200000 0.023000 0.027000
1517206507445166503	400 42 0.900000 0.114000 0.103000 1100 38 0.900000 1.423000 1.415000 600 47 1.000000 0.051000 0.051000 1.200000 0.028000 0.033000
1517206507952792170	400 42 0.900000 0.115000 0.104000 1100 38 0.900000 1.380000 1.373000 600 47 1.000000 0.051000 0.051000 1.200000 0.023000 0.027000
1517206508460366878	400 42 0.900000 0.115000 0.104000 1100 38 0.900000 1.374000 1.367000 600 47 1.000000 0.051000 0.051000 1.200000 0.024000 0.028000
1517206508982386462	400 43 0.900000 0.115000 0.104000 1100 38 0.900000 1.585000 1.578000 600 47 1.000000 0.052000 0.052000 1.200000 0.023000 0.027000
1517206509491806920	400 42 0.900000 0.116000 0.105000 1100 38 0.900000 1.382000 1.375000 600 47 1.000000 0.051000 0.051000 1.200000 0.028000 0.033000
1517206509999227712	400 42 0.900000 0.116000 0.105000 1100 38 0.900000 1.374000 1.367000 600 47 1.000000 0.051000 0.051000 1.200000 0.023000 0.027000
1517206510506818170	400 42 0.900000 0.116000 0.105000 1100 38 0.900000 1.376000 1.369000 600 47 1.000000 0.051000 0.051000 1.200000 0.023000 0.027000
1517206511026736629	400 43 0.900000 0.116000 0.105000 1100 38 0.900000 1.559000 1.552000 600 47 1.000000 0.051000 0.051000 1.200000 0.023000 0.027000
1517206511535271545	400 42 0.900000 0.116000 0.105000 1100 38 0.900000 1.376000 1.369000 600 47 1.000000 0.051000 0.051000 1.200000 0.028000 0.033000
1517206512042917879	400 42 0.900000 0.116000 0.105000 1100 38 0.900000 1.400000 1.393000 600 47 1.000000 0.051000 0.051000 1.200000 0.024000 0.028000
1517206512550301837	400 42 0.900000 0.116000 0.105000 1100 38 0.900000 1.380000 1.373000 600 47 1.000000 0.051000 0.051000 1.200000 0.023000 0.027000
1517206513086743920	400 42 0.900000 0.116000 0.105000 1100 38 0.900000 1.388000 1.381000 600 47 1.000000 0.051000 0.051000 1.200000 0.023000 0.027000
1517206513594767046	400 42 0.900000 0.116000 0.105000 1100 38 0.900000 1.550000 1.542000 600 47 1.000000 0.051000 0.051000 1.200000 0.025000 0.030000
1517206514102162879	400 42 0.900000 0.116000 0.105000 1100 38 0.900000 1.399000 1.392000 600 47 1.000000 0.051000 0.051000 1.200000 0.023000 0.027000
1517206514609490754	400 42 0.900000 0.115000 0.104000 1100 38 0.900000 1.373000 1.366000 600 47 1.000000 0.051000 0.051000 1.200000 0.023000 0.027000
1517206515124943337	400 42 0.900000 0.115000 0.104000 1100 38 0.900000 1.389000 1.382000 600 47 1.000000 0.051000 0.051000 1.200000 0.023000 0.027000
1517206515635237671	400 42 0.900000 0.115000 0.104000 1100 38 0.900000 1.434000 1.426000 600 47 1.000000 0.051000 0.051000 1.200000 0.031000 0.037000
1517206516142818504	400 42 0.900000 0.115000 0.104000 1100 38 0.900000 1.399000 1.392000 600 47 1.000000 0.051000 0.051000 1.200000 0.024000 0.028000
1517206516650102213	400 42 0.900000 0.115000 0.104000 1100 38 0.900000 1.377000 1.370000 600 47 1.000000 0.051000 0.051000 1.200000 0.023000 0.027000
1517206517157515213	400 42 0.900000 0.115000 0.104000 1100 38 0.900000 1.400000 1.393000 600 47 1.000000 0.051000 0.051000 1.200000 0.024000 0.028000
1517206517664970963	400 43 0.900000 0.115000 0.104000 1100 38 0.900000 1.460000 1.452000 600 47 1.000000 0.051000 0.051000 1.200000 0.028000 0.033000
1517206518172547379	400 42 0.900000 0.116000 0.105000 1100 38 0.900000 1.392000 1.385000 600 47 1.000000 0.051000 0.051000 1.200000 0.024000 0.028000
1517206518680003254	400 42 0.900000 0.116000 0.105000 1100 38 0.900000 1.389000 1.382000 600 47 1.000000 0.051000 0.051000 1.200000 0.023000 0.027000
1517206519187454255	400 42 0.900000 0.116000 0.105000 1100 38 0.900000 1.386000 1.379000 600 47 1.000000 0.051000 0.051000 1.200000 0.023000 0.027000
1517206519694986005	400 43 0.900000 0.116000 0.105000 1100 38 0.900000 1.470000 1.462000 600 47 1.000000 0.051000 0.051000 1.200000 0.028000 0.033000
1517206520202608755	400 42 0.900000 0.116000 0.105000 1100 38 0.900000 1.385000 1.378000 600 47 1.000000 0.051000 0.051000 1.200000 0.023000 0.027000
1517206520709973380	400 42 0.900000 0.116000 0.105000 1100 38 0.900000 1.392000 1.385000 600 47 1.000000 0.052000 0.052000 1.200000 0.023000 0.027000
1517206521217462963	400 42 0.900000 0.116000 0.105000 1100 38 0.900000 1.378000 1.371000 600 47 1.000000 0.051000 0.051000 1.200000 0.023000 0.027000
1517206521729887671	400 43 0.900000 0.116000 0.105000 1100 38 0.900000 1.398000 1.391000 600 47 1.000000 0.051000 0.051000 1.200000 0.024000 0.028000
1517206522241104880	400 42 0.900000 0.116000 0.105000 1100 38 0.900000 1.591000 1.583000 600 47 1.000000 0.051000 0.051000 1.200000 0.029000 0.035000
1517206522748717963	400 42 0.900000 0.116000 0.105000 1100 38 0.900000 1.382000 1.375000 600 47 1.000000 0.051000 0.051000 1.200000 0.023000 0.027000
1517206523256219463	400 42 0.900000 0.115000 0.104000 1100 38 0.900000 1.388000 1.378000 600 47 1.000000 0.051000 0.051000 1.200000 0.023000 0.027000
1517206523764065963	400 42 0.900000 0.115000 0.104000 1100 38 0.900000 1.388000 1.378000 600 47 1.000000 0.051000 0.051000 1.200000 0.028000 0.033000
1517206524271526797	400 42 0.900000 0.114000 0.103000 1100 38 0.900000 1.582000 1.575000 600 47 1.000000 0.051000 0.051000 1.200000 0.028000 0.033000
1517206524779024089	400 42 0.900000 0.115000 0.104000 1100 38 0.900000 1.396000 1.389000 600 47 1.000000 0.051000 0.051000 1.200000 0.024000 0.028000
1517206525286380672	400 42 0.900000 0.115000 0.104000 1100 38 0.900000 1.374000 1.367000 600 47 1.000000 0.051000 0.051000 1.200000 0.023000 0.027000
1517206525794042214	400 42 0.900000 0.115000 0.104000 1100 38 0.900000 1.480000 1.472000 600 47 1.000000 0.051000 0.051000 1.200000 0.027000 0.032000
1517206526301626964	400 42 0.900000 0.116000 0.105000 1100 38 0.900000 1.547000 1.539000 600 47 1.000000 0.051000 0.051000 1.200000 0.028000 0.033000
1517206526809175047	400 42 0.900000 0.116000 0.105000 1100 38 0.900000 1.375000 1.368000 600 47 1.000000 0.051000 0.051000 1.200000 0.023000 0.027000
1517206527316532047	400 42 0.900000 0.116000 0.105000 1100 38 0.900000 1.380000 1.373000 600 47 1.000000 0.052000 0.052000 1.200000 0.023000 0.027000
1517206527824043839	400 42 0.900000 0.116000 0.105000 1100 38 0.900000 1.458000 1.450000 600 47 1.000000 0.051000 0.051000 1.200000 0.027000 0.032000
1517206528331425797	400 43 0.900000 0.116000 0.105000 1100 38 0.900000 1.518000 1.510000 600 47 1.000000 0.051000 0.051000 1.200000 0.028000 0.033000
1517206528838836297	400 42 0.900000 0.116000 0.105000 1100 38 0.900000 1.452000 1.444000 600 47 1.000000 0.051000 0.051000 1.200000 0.023000 0.027000
1517206529346333297	400 42 0.900000 0.116000 0.105000 1100 38 0.900000 1.399000 1.392000 600 47 1.000000 0.052000 0.052000 1.200000 0.023000 0.027000
1517206529854101839	400 42 0.900000 0.116000 0.105000 1100 38 0.900000 1.381000 1.374000 600 47 1.000000 0.051000 0.051000 1.200000 0.025000 0.030000
1517206530368736714	400 42 0.900000 0.116000 0.105000 1100 38 0.900000 1.393000 1.386000 600 47 1.000000 0.051000 0.051000 1.200000 0.023000 0.027000
1517206530876229756	400 42 0.900000 0.116000 0.105000 1100 38 0.900000 1.496000 1.488000 600 47 1.000000 0.051000 0.051000 1.200000 0.023000 0.027000
1517206531383727339	400 42 0.900000 0.116000 0.105000 1100 38 0.900000 1.388000 1.381000 600 47 1.000000 0.052000 0.052000 1.200000 0.023000 0.027000
1517206531891381964	400 42 0.900000 0.115000 0.104000 1100 38 0.900000 1.400000 1.393000 600 47 1.000000 0.051000 0.051000 1.200000 0.027000 0.032000
1517206532406280131	400 42 0.900000 0.116000 0.105000 1100 38 0.900000 1.395000 1.388000 600 47 1.000000 0.051000 0.051000 1.200000 0.023000 0.027000
1517206532916562339	400 42 0.900000 0.116000 0.105000 1100 38 0.900000 1.524000 1.516000 600 47 1.000000 0.051000 0.051000 1.200000 0.024000 0.028000
1517206533423976048	400 42 0.900000 0.116000 0.105000 1100 38 0.900000 1.379000 1.372000 600 47 1.000000 0.051000 0.051000 1.200000 0.023000 0.027000
1517206533931544590	400 42 0.900000 0.116000 0.105000 1100 38 0.900000 1.471000 1.463000 600 47 1.000000 0.051000 0.051000 1.200000 0.026000 0.031000
1517206534439153965	400 42 0.900000 0.116000 0.105000 1100 38 0.900000 1.378000 1.371000 600 47 1.000000 0.051000 0.051000 1.200000 0.023000 0.027000
1517206534946570881	400 42 0.900000 0.116000 0.105000 1100 38 0.900000 1.563000 1.555000 600 47 1.000000 0.051000 0.051000 1.200000 0.024000 0.028000
1517206535453944090	400 42 0.900000 0.115000 0.104000 1100 38 0.900000 1.379000 1.372000 600 47 1.000000 0.052000 0.052000 1.200000 0.023000 0.027000
1517206535961494715	400 42 0.900000 0.115000 0.104000 1100 38 0.900000 1.382000 1.375000 600 47 1.000000 0.051000 0.051000 1.200000 0.025000 0.030000
1517206536469109465	400 42 0.900000 0.116000 0.105000 1100 38 0.900000 1.398000 1.391000 600 47 1.000000 0.051000 0.051000 1.200000 0.023000 0.027000
1517206536976629048	400 42 0.900000 0.115000 0.104000 1100 38 0.900000 1.380000 1.373000 600 47 1.000000 0.051000 0.051000 1.200000 0.025000 0.030000
1517206537484181757	400 42 0.900000 0.115000 0.104000 1100 38 0.900000 1.395000 1.388000 600 47 1.000000 0.051000 0.051000 1.200000 0.023000 0.027000
1517206537991902507	400 42 0.900000 0.116000 0.105000 1100 38 0.900000 1.386000 1.379000 600 47 1.000000 0.051000 0.051000 1.200000 0.025000 0.030000
1517206538499337382	400 42 0.900000 0.116000 0.105000 1100 38 0.900000 1.379000 1.372000 600 47 1.000000 0.051000 0.051000 1.200000 0.023000 0.027000
1517206539006660757	400 43 0.900000 0.116000 0.105000 1100 38 0.900000 1.379000 1.372000 600 47 1.000000 0.051000 0.051000 1.200000 0.025000 0.030000
1517206539514010465	400 42 0.900000 0.116000 0.105000 1100 38 0.900000 1.380000 1.373000 600 47 1.000000 0.051000 0.051000 1.200000 0.023000 0.027000
1517206540021613215	400 42 0.900000 0.116000 0.105000 1100 38 0.900000 1.414000 1.406000 600 47 1.000000 0.051000 0.051000 1.200000 0.023000 0.027000
1517206540529177340	400 42 0.900000 0.116000 0.105000 1100 38 0.900000 1.379000 1.372000 600 47 1.000000 0.051000 0.051000 1.200000 0.024000 0.028000
1517206541046225007	400 42 0.900000 0.116000 0.105000 1100 38 0.900000 1.378000 1.371000 600 47 1.000000 0.051000 0.051000 1.200000 0.023000 0.027000
1517206541554698299	400 42 0.900000 0.116000 0.105000 1100 38 0.900000 1.378000 1.371000 600 47 1.000000 0.051000 0.051000 1.200000 0.027000 0.032000
1517206542062325341	400 42 0.900000 0.116000 0.105000 1100 38 0.900000 1.473000 1.465000 600 47 1.000000 0.051000 0.051000 1.200000 0.023000 0.027000
1517206542570207674	400 42 0.900000 0.116000 0.105000 1100 38 0.900000 1.388000 1.381000 600 47 1.000000 0.051000 0.051000 1.200000 0.027000 0.032000
1517206543077709174	400 42 0.900000 0.116000 0.105000 1100 38 0.900000 1.399000 1.392000 600 47 1.000000 0.051000 0.051000 1.200000 0.023000 0.027000
1517206543585283632	400 42 0.900000 0.116000 0.105000 1100 38 0.900000 1.583000 1.576000 600 47 1.000000 0.051000 0.051000 1.200000 0.023000 0.027000
1517206544092868966	400 42 0.900000 0.116000 0.105000 1100 38 0.900000 1.394000 1.387000 600 47 1.000000 0.051000 0.051000 1.200000 0.023000 0.027000
1517206544600253633	400 42 0.900000 0.116000 0.105000 1100 38 0.900000 1.379000 1.372000 600 47 1.000000 0.051000 0.051000 1.200000 0.027000 0.032000
1517206545107974466	400 42 0.900000 0.116000 0.105000 1100 38 0.900000 1.380000 1.373000 600 47 1.000000 0.051000 0.051000 1.200000 0.023000 0.027000
1517206545615448549	400 42 0.900000 0.116000 0.105000 1100 38 0.900000 1.585000 1.578000 600 47 1.000000 0.051000 0.051000 1.200000 0.023000 0.027000
1517206546123023924	400 42 0.900000 0.116000 0.105000 1100 38 0.900000 1.377000 1.370000 600 47 1.000000 0.051000 0.051000 1.200000 0.023000 0.027000
1517206546630567924	400 42 0.900000 0.116000 0.105000 1100 38 0.900000 1.379000 1.372000 600 47 1.000000 0.051000 0.051000 1.200000 0.025000 0.030000
1517206547137836841	400 42 0.900000 0.115000 0.104000 1100 38 0.900000 1.380000 1.373000 600 47 1.000000 0.051000 0.051000 1.200000 0.023000 0.027000
1517206547645287300	400 42 0.900000 0.116000 0.105000 1100 38 0.900000 1.574000 1.567000 600 47 1.000000 0.051000 0.051000 1.200000 0.023000 0.027000
1517206548152746008	400 42 0.900000 0.116000 0.105000 1100 38 0.900000 1.436000 1.428000 600 47 1.000000 0.051000 0.051000 1.200000 0.023000 0.027000
1517206548660347300	400 42 0.900000 0.116000 0.105000 1100 38 0.900000 1.379000 1.372000 600 47 1.000000 0.051000 0.051000 1.200000 0.023000 0.027000
1517206549168031841	400 42 0.900000 0.116000 0.105000 1100 38 0.900000 1.380000 1.373000 600 47 1.000000 0.051000 0.051000 1.200000 0.023000 0.027000
1517206549686176091	400 42 0.900000 0.116000 0.105000 1100 38 0.900000 1.388000 1.381000 600 47 1.000000 0.051000 0.051000 1.200000 0.023000 0.027000
1517206550194841258	400 42 0.900000 0.116000 0.105000 1100 38 0.900000 1.539000 1.532000 600 47 1.000000 0.051000 0.051000 1.200000 0.028000 0.033000
1517206550702359092	400 42 0.900000 0.116000 0.105000 1100 38 0.900000 1.489000 1.481000 600 47 1.000000 0.051000 0.051000 1.200000 0.028000 0.033000
1517206551209890383	400 42 0.900000 0.116000 0.105000 1100 38 0.900000 1.387000 1.380000 600 47 1.000000 0.051000 0.051000 1.200000 0.023000 0.027000
1517206551717490342	400 42 0.900000 0.116000 0.105000 1100 38 0.900000 1.390000 1.383000 600 47 1.000000 0.051000 0.051000 1.200000 0.023000 0.027000
1517206552225087675	400 42 0.900000 0.116000 0.105000 1100 38 0.900000 1.509000 1.502000 600 47 1.000000 0.051000 0.051000 1.200000 0.028000 0.033000
1517206552732795300	400 42 0.900000 0.116000 0.105000 1100 38 0.900000 1.472000 1.466000 600 47 1.000000 0.051000 0.051000 1.200000 0.028000 0.033000
1517206553240303675	400 42 0.900000 0.116000 0.105000 1100 38 0.900000 1.398000 1.391000 600 47 1.000000 0.051000 0.051000 1.200000 0.024000 0.028000
1517206553748018550	400 42 0.900000 0.115000 0.104000 1100 38 0.900000 1.380000 1.373000 600 47 1.000000 0.052000 0.052000 1.200000 0.023000 0.027000
1517206554274036009	400 42 0.900000 0.116000 0.105000 1100 38 0.900000 1.488000 1.480000 600 47 1.000000 0.051000 0.051000 1.200000 0.028000 0.033000
1517206554781599675	400 42 0.900000 0.116000 0.105000 1100 38 0.900000 1.478000 1.470000 600 47 1.000000 0.051000 0.051000 1.200000 0.024000 0.028000
1517206555289057675	400 42 0.900000 0.116000 0.105000 1100 38 0.900000 1.384000 1.377000 600 47 1.000000 0.051000 0.051000 1.200000 0.023000 0.027000
1517206555796477676	400 42 0.900000 0.116000 0.105000 1100 38 0.900000 1.397000 1.390000 600 47 1.000000 0.051000 0.051000 1.200000 0.023000 0.027000
1517206556322357967	400 42 0.900000 0.116000 0.105000 1100 38 0.900000 1.437000 1.429000 600 47 1.000000 0.051000 0.051000 1.200000 0.026000 0.031000
1517206556830190217	400 42 0.900000 0.116000 0.105000 1100 38 0.900000 1.410000 1.402000 600 47 1.000000 0.051000 0.051000 1.200000 0.023000 0.027000
1517206557337658176	400 42 0.900000 0.116000 0.105000 1100 38 0.900000 1.390000 1.383000 600 47 1.000000 0.051000 0.051000 1.200000 0.024000 0.028000
1517206557845398926	400 42 0.900000 0.116000 0.105000 1100 38 0.900000 1.386000 1.379000 600 47 1.000000 0.051000 0.051000 1.200000 0.023000 0.027000
1517206558371284093	400 42 0.900000 0.116000 0.105000 1100 38 0.900000 1.396000 1.389000 600 47 1.000000 0.051000 0.051000 1.200000 0.024000 0.028000
1517206558879019259	400 42 0.900000 0.115000 0.104000 1100 38 0.900000 1.660000 1.653000 600 47 1.000000 0.051000 0.051000 1.200000 0.029000 0.035000
1517206559386582593	400 42 0.900000 0.116000 0.105000 1100 38 0.900000 1.395000 1.388000 600 47 1.000000 0.051000 0.051000 1.200000 0.023000 0.027000
1517206559894065718	400 42 0.900000 0.116000 0.105000 1100 38 0.900000 1.387000 1.380000 600 47 1.000000 0.051000 0.051000 1.200000 0.023000 0.027000
1517206560418437676	400 42 0.900000 0.116000 0.105000 1100 38 0.900000 1.389000 1.382000 600 47 1.000000 0.051000 0.051000 1.200000 0.023000 0.027000
1517206560930165426	400 42 0.900000 0.116000 0.105000 1100 38 0.900000 1.685000 1.678000 600 47 1.000000 0.051000 0.051000 1.200000 0.032000 0.038000
1517206561437645385	400 42 0.900000 0.116000 0.105000 1100 38 0.900000 1.386000 1.379000 600 47 1.000000 0.051000 0.051000 1.200000 0.024000 0.028000
1517206561945042218	400 42 0.900000 0.116000 0.105000 1100 38 0.900000 1.391000 1.384000 600 47 1.000000 0.051000 0.051000 1.200000 0.023000 0.027000
1517206562452573426	400 42 0.900000 0.115000 0.104000 1100 38 0.900000 1.392000 1.385000 600 47 1.000000 0.051000 0.051000 1.200000 0.023000 0.027000
1517206562960267010	400 42 0.900000 0.116000 0.105000 1100 38 0.900000 1.678000 1.671000 600 47 1.000000 0.051000 0.051000 1.200000 0.032000 0.038000
1517206563467739468	400 42 0.900000 0.116000 0.105000 1100 38 0.900000 1.379000 1.372000 600 47 1.000000 0.051000 0.051000 1.200000 0.023000 0.027000
1517206563974860552	400 42 0.900000 0.115000 0.104000 1100 38 0.900000 1.378000 1.371000 600 47 1.000000 0.051000 0.051000 1.200000 0.022000 0.026000
1517206564482192010	400 42 0.900000 0.116000 0.105000 1100 38 0.900000 1.377000 1.370000 600 47 1.000000 0.051000 0.051000 1.200000 0.023000 0.027000
1517206564989735593	400 42 0.900000 0.116000 0.105000 1100 38 0.900000 1.379000 1.372000 600 47 1.000000 0.051000 0.051000 1.200000 0.028000 0.033000
1517206565497185302	400 42 0.900000 0.116000 0.105000 1100 38 0.900000 1.419000 1.411000 600 47 1.000000 0.051000 0.051000 1.200000 0.023000 0.027000
1517206566004635010	400 42 0.900000 0.116000 0.105000 1100 38 0.900000 1.388000 1.381000 600 47 1.000000 0.051000 0.051000 1.200000 0.024000 0.028000
1517206566512041427	400 42 0.900000 0.116000 0.105000 1100 38 0.900000 1.390000 1.383000 600 47 1.000000 0.051000 0.051000 1.200000 0.023000 0.027000
1517206567019297427	400 42 0.900000 0.116000 0.105000 1100 38 0.900000 1.473000 1.465000 600 47 1.000000 0.051000 0.051000 1.200000 0.027000 0.032000
1517206567526990927	400 42 0.900000 0.116000 0.105000 1100 38 0.900000 1.445000 1.437000 600 47 1.000000 0.051000 0.051000 1.200000 0.023000 0.027000
1517206568034290552	400 42 0.900000 0.116000 0.105000 1100 38 0.900000 1.400000 1.393000 600 47 1.000000 0.051000 0.051000 1.200000 0.023000 0.027000
1517206568541567635	400 42 0.900000 0.116000 0.105000 1100 38 0.900000 1.382000 1.375000 600 47 1.000000 0.051000 0.051000 1.200000 0.023000 0.027000
1517206569058893219	400 42 0.900000 0.116000 0.105000 1100 38 0.900000 1.473000 1.465000 600 47 1.000000 0.051000 0.051000 1.200000 0.026000 0.031000
1517206569566281344	400 42 0.900000 0.116000 0.105000 1100 38 0.900000 1.478000 1.470000 600 47 1.000000 0.051000 0.051000 1.200000 0.024000 0.028000
1517206570073786136	400 42 0.900000 0.116000 0.105000 1100 38 0.900000 1.378000 1.371000 600 47 1.000000 0.051000 0.051000 1.200000 0.023000 0.027000
1517206570581242011	400 42 0.900000 0.116000 0.105000 1100 38 0.900000 1.380000 1.373000 600 47 1.000000 0.051000 0.051000 1.200000 0.023000 0.027000
1517206571088937594	400 42 0.900000 0.116000 0.105000 1100 38 0.900000 1.473000 1.465000 600 47 1.000000 0.051000 0.051000 1.200000 0.026000 0.031000
1517206571596296844	400 42 0.900000 0.116000 0.105000 1100 38 0.900000 1.514000 1.506000 600 47 1.000000 0.051000 0.051000 1.200000 0.024000 0.028000
1517206572103628719	400 42 0.900000 0.115000 0.104000 1100 38 0.900000 1.398000 1.391000 600 47 1.000000 0.051000 0.051000 1.200000 0.023000 0.027000
1517206572611070553	400 42 0.900000 0.115000 0.104000 1100 38 0.900000 1.382000 1.375000 600 47 1.000000 0.051000 0.051000 1.200000 0.024000 0.028000
1517206573118656344	400 42 0.900000 0.116000 0.105000 1100 38 0.900000 1.420000 1.412000 600 47 1.000000 0.051000 0.051000 1.200000 0.027000 0.032000
1517206573626160636	400 42 0.900000 0.116000 0.105000 1100 38 0.900000 1.432000 1.424000 600 47 1.000000 0.051000 0.051000 1.200000 0.025000 0.030000
1517206574133699928	400 42 0.900000 0.116000 0.105000 1100 38 0.900000 1.388000 1.381000 600 47 1.000000 0.051000 0.051000 1.200000 0.023000 0.027000
1517206574641117219	400 42 0.900000 0.116000 0.105000 1100 38 0.900000 1.393000 1.386000 600 47 1.000000 0.051000 0.051000 1.200000 0.023000 0.027000
1517206575148758220	400 42 0.900000 0.116000 0.105000 1100 38 0.900000 1.460000 1.452000 600 47 1.000000 0.051000 0.051000 1.200000 0.027000 0.032000
1517206575656111970	400 42 0.900000 0.116000 0.105000 1100 38 0.900000 1.392000 1.385000 600 47 1.000000 0.051000 0.051000 1.200000 0.026000 0.031000
1517206576163487136	400 42 0.900000 0.115000 0.104000 1100 38 0.900000 1.379000 1.372000 600 47 1.000000 0.051000 0.051000 1.200000 0.023000 0.027000
1517206576670896053	400 42 0.900000 0.116000 0.105000 1100 38 0.900000 1.377000 1.370000 600 47 1.000000 0.051000 0.051000 1.200000 0.023000 0.027000
1517206577178589803	400 42 0.900000 0.116000 0.105000 1100 38 0.900000 1.469000 1.461000 600 47 1.000000 0.051000 0.051000 1.200000 0.027000 0.032000
1517206577694235553	400 42 0.900000 0.116000 0.105000 1100 38 0.900000 1.379000 1.372000 600 47 1.000000 0.051000 0.051000 1.200000 0.025000 0.030000
1517206578204064595	400 42 0.900000 0.115000 0.104000 1100 38 0.900000 1.380000 1.373000 600 47 1.000000 0.051000 0.051000 1.200000 0.023000 0.027000
1517206578711894178	400 42 0.900000 0.116000 0.105000 1100 38 0.900000 1.399000 1.392000 600 47 1.000000 0.052000 0.052000 1.200000 0.023000 0.027000
1517206579219578345	400 42 0.900000 0.116000 0.105000 1100 38 0.900000 1.379000 1.372000 600 47 1.000000 0.051000 0.051000 1.200000 0.025000 0.030000
1517206579726989470	400 42 0.900000 0.116000 0.105000 1100 38 0.900000 1.395000 1.388000 600 47 1.000000 0.051000 0.051000 1.200000 0.023000 0.027000
1517206580234476262	400 42 0.900000 0.116000 0.105000 1100 38 0.900000 1.588000 1.581000 600 47 1.000000 0.051000 0.051000 1.200000 0.027000 0.032000
1517206580741971429	400 42 0.900000 0.115000 0.104000 1100 38 0.900000 1.379000 1.372000 600 47 1.000000 0.051000 0.051000 1.200000 0.024000 0.028000
1517206581249581845	400 42 0.900000 0.116000 0.105000 1100 38 0.900000 1.427000 1.419000 600 47 1.000000 0.051000 0.051000 1.200000 0.023000 0.027000
1517206581757069845	400 42 0.900000 0.115000 0.104000 1100 38 0.900000 1.378000 1.371000 600 47 1.000000 0.051000 0.051000 1.200000 0.024000 0.028000
1517206582264702970	400 42 0.900000 0.116000 0.105000 1100 38 0.900000 1.585000 1.578000 600 47 1.000000 0.051000 0.051000 1.200000 0.023000 0.027000
1517206582772049387	400 42 0.900000 0.116000 0.105000 1100 38 0.900000 1.379000 1.372000 600 47 1.000000 0.051000 0.051000 1.200000 0.023000 0.027000
1517206583279727012	400 42 0.900000 0.116000 0.105000 1100 38 0.900000 1.458000 1.450000 600 47 1.000000 0.051000 0.051000 1.200000 0.023000 0.027000
1517206583787382637	400 42 0.900000 0.116000 0.105000 1100 38 0.900000 1.377000 1.370000 600 47 1.000000 0.051000 0.051000 1.200000 0.023000 0.027000
1517206584294776304	400 42 0.900000 0.116000 0.105000 1100 38 0.900000 1.581000 1.574000 600 47 1.000000 0.051000 0.051000 1.200000 0.024000 0.028000
1517206584802172429	400 42 0.900000 0.116000 0.105000 1100 38 0.900000 1.381000 1.374000 600 47 1.000000 0.051000 0.051000 1.200000 0.023000 0.027000
1517206585310144929	400 42 0.900000 0.116000 0.105000 1100 38 0.900000 1.387000 1.380000 600 47 1.000000 0.051000 0.051000 1.200000 0.023000 0.027000
1517206585817684846	400 42 0.900000 0.116000 0.105000 1100 38 0.900000 1.396000 1.389000 600 47 1.000000 0.051000 0.051000 1.200000 0.027000 0.032000
1517206586336396388	400 42 0.900000 0.115000 0.104000 1100 38 0.900000 1.380000 1.373000 600 47 1.000000 0.051000 0.051000 1.200000 0.023000 0.027000
1517206586844168596	400 42 0.900000 0.116000 0.105000 1100 38 0.900000 1.378000 1.371000 600 47 1.000000 0.051000 0.051000 1.200000 0.029000 0.035000
1517206587351945388	400 42 0.900000 0.116000 0.105000 1100 38 0.900000 1.377000 1.370000 600 47 1.000000 0.051000 0.051000 1.200000 0.024000 0.028000
1517206587859513679	400 42 0.900000 0.116000 0.105000 1100 38 0.900000 1.379000 1.372000 600 47 1.000000 0.051000 0.051000 1.200000 0.026000 0.031000
1517206588377703513	400 42 0.900000 0.116000 0.105000 1100 38 0.900000 1.380000 1.373000 600 47 1.000000 0.051000 0.051000 1.200000 0.023000 0.027000
1517206588885937804	400 42 0.900000 0.116000 0.105000 1100 38 0.900000 1.551000 1.544000 600 47 1.000000 0.051000 0.051000 1.200000 0.028000 0.033000
1517206589393576388	400 42 0.900000 0.116000 0.105000 1100 38 0.900000 1.389000 1.382000 600 47 1.000000 0.051000 0.051000 1.200000 0.023000 0.027000
1517206589901086388	400 42 0.900000 0.116000 0.105000 1100 38 0.900000 1.409000 1.401000 600 47 1.000000 0.051000 0.051000 1.200000 0.024000 0.028000
1517206590408526846	400 42 0.900000 0.116000 0.105000 1100 38 0.900000 1.380000 1.373000 600 47 1.000000 0.051000 0.051000 1.200000 0.023000 0.027000
1517206590916002721	400 42 0.900000 0.116000 0.105000 1100 38 0.900000 1.533000 1.525000 600 47 1.000000 0.051000 0.051000 1.200000 0.028000 0.033000
1517206591423534430	400 42 0.900000 0.116000 0.105000 1100 38 0.900000 1.382000 1.375000 600 47 1.000000 0.051000 0.051000 1.200000 0.023000 0.027000
1517206591930930680	400 42 0.900000 0.116000 0.105000 1100 38 0.900000 1.398000 1.391000 600 47 1.000000 0.051000 0.051000 1.200000 0.023000 0.027000
1517206592438669388	400 42 0.900000 0.116000 0.105000 1100 38 0.900000 1.385000 1.378000 600 47 1.000000 0.051000 0.051000 1.200000 0.023000 0.027000
1517206592946086138	400 42 0.900000 0.116000 0.105000 1100 38 0.900000 1.389000 1.382000 600 47 1.000000 0.051000 0.051000 1.200000 0.023000 0.027000
1517206593453855472	400 42 0.900000 0.116000 0.105000 1100 38 0.900000 1.497000 1.489000 600 47 1.000000 0.051000 0.051000 1.200000 0.024000 0.028000
1517206593961380055	400 42 0.900000 0.116000 0.105000 1100 38 0.900000 1.468000 1.460000 600 47 1.000000 0.051000 0.051000 1.200000 0.027000 0.032000
1517206594468965180	400 42 0.900000 0.116000 0.105000 1100 38 0.900000 1.399000 1.392000 600 47 1.000000 0.051000 0.051000 1.200000 0.024000 0.028000
1517206594976508014	400 42 0.900000 0.115000 0.104000 1100 38 0.900000 1.381000 1.374000 600 47 1.000000 0.051000 0.051000 1.200000 0.023000 0.027000
1517206595483945514	400 42 0.900000 0.116000 0.105000 1100 38 0.900000 1.535000 1.527000 600 47 1.000000 0.051000 0.051000 1.200000 0.025000 0.030000
1517206595991768889	400 42 0.900000 0.116000 0.105000 1100 38 0.900000 1.481000 1.473000 600 47 1.000000 0.051000 0.051000 1.200000 0.025000 0.030000
1517206596499188097	400 42 0.900000 0.116000 0.105000 1100 38 0.900000 1.390000 1.383000 600 47 1.000000 0.051000 0.051000 1.200000 0.023000 0.027000
1517206597015008680	400 42 0.900000 0.116000 0.105000 1100 38 0.900000 1.392000 1.385000 600 47 1.000000 0.051000 0.051000 1.200000 0.024000 0.028000
1517206597526204847	400 42 0.900000 0.116000 0.105000 1100 38 0.900000 1.562000 1.554000 600 47 1.000000 0.051000 0.051000 1.200000 0.026000 0.031000
1517206598033769764	400 42 0.900000 0.116000 0.105000 1100 38 0.900000 1.383000 1.376000 600 47 1.000000 0.051000 0.051000 1.200000 0.023000 0.027000
1517206598541411722	400 42 0.900000 0.115000 0.104000 1100 38 0.900000 1.378000 1.371000 600 47 1.000000 0.051000 0.051000 1.200000 0.023000 0.027000
1517206599048856806	400 42 0.900000 0.115000 0.104000 1100 38 0.900000 1.380000 1.373000 600 47 1.000000 0.051000 0.051000 1.200000 0.023000 0.027000
1517206599558108264	400 42 0.900000 0.116000 0.105000 1100 38 0.900000 1.386000 1.379000 600 47 1.000000 0.051000 0.051000 1.200000 0.025000 0.030000
1517206600065756056	400 42 0.900000 0.116000 0.105000 1100 38 0.900000 1.477000 1.469000 600 47 1.000000 0.051000 0.051000 1.200000 0.028000 0.033000
1517206600573413514	400 42 0.900000 0.116000 0.105000 1100 38 0.900000 1.379000 1.372000 600 47 1.000000 0.051000 0.051000 1.200000 0.023000 0.027000
1517206601080847681	400 42 0.900000 0.116000 0.105000 1100 38 0.900000 1.395000 1.388000 600 47 1.000000 0.051000 0.051000 1.200000 0.023000 0.027000
1517206601610873681	400 42 0.900000 0.116000 0.105000 1100 38 0.900000 1.387000 1.380000 600 47 1.000000 0.051000 0.051000 1.200000 0.025000 0.030000
1517206602118727389	400 42 0.900000 0.116000 0.105000 1100 38 0.900000 1.471000 1.463000 600 47 1.000000 0.051000 0.051000 1.200000 0.028000 0.033000
1517206602626043556	400 42 0.900000 0.115000 0.104000 1100 38 0.900000 1.391000 1.384000 600 47 1.000000 0.051000 0.051000 1.200000 0.023000 0.027000
1517206603133396181	400 42 0.900000 0.116000 0.105000 1100 38 0.900000 1.389000 1.382000 600 47 1.000000 0.051000 0.051000 1.200000 0.023000 0.027000
1517206603658371973	400 42 0.900000 0.116000 0.105000 1100 38 0.900000 1.386000 1.379000 600 47 1.000000 0.051000 0.051000 1.200000 0.023000 0.027000
1517206604166042015	400 42 0.900000 0.116000 0.105000 1100 38 0.900000 1.480000 1.472000 600 47 1.000000 0.051000 0.051000 1.200000 0.024000 0.028000
1517206604673593306	400 42 0.900000 0.116000 0.105000 1100 38 0.900000 1.379000 1.372000 600 47 1.000000 0.051000 0.051000 1.200000 0.023000 0.027000
1517206605181007181	400 42 0.900000 0.116000 0.105000 1100 38 0.900000 1.380000 1.373000 600 47 1.000000 0.051000 0.051000 1.200000 0.023000 0.027000
1517206605714332181	400 42 0.900000 0.116000 0.105000 1100 38 0.900000 1.376000 1.369000 600 47 1.000000 0.051000 0.051000 1.200000 0.023000 0.027000
1517206606230495515	400 42 0.900000 0.116000 0.105000 1100 38 0.900000 1.408000 1.400000 600 47 1.000000 0.051000 0.051000 1.200000 0.023000 0.027000
1517206606737989890	400 42 0.900000 0.116000 0.105000 1100 38 0.900000 1.378000 1.371000 600 47 1.000000 0.051000 0.051000 1.200000 0.023000 0.027000
1517206607245362182	400 42 0.900000 0.115000 0.104000 1100 38 0.900000 1.379000 1.372000 600 47 1.000000 0.051000 0.051000 1.200000 0.023000 0.027000
1517206607774402932	400 42 0.900000 0.115000 0.104000 1100 38 0.900000 1.377000 1.370000 600 47 1.000000 0.051000 0.051000 1.200000 0.023000 0.027000
1517206608283049557	400 42 0.900000 0.116000 0.105000 1100 38 0.900000 1.471000 1.463000 600 47 1.000000 0.051000 0.051000 1.200000 0.024000 0.028000
1517206608790890890	400 42 0.900000 0.116000 0.105000 1100 38 0.900000 1.380000 1.373000 600 47 1.000000 0.051000 0.051000 1.200000 0.024000 0.028000
1517206609298091432	400 42 0.900000 0.116000 0.105000 1100 38 0.900000 1.399000 1.392000 600 47 1.000000 0.051000 0.051000 1.200000 0.023000 0.027000
1517206609805377515	400 42 0.900000 0.116000 0.105000 1100 38 0.900000 1.381000 1.374000 600 47 1.000000 0.051000 0.051000 1.200000 0.023000 0.027000
1517206610312985099	400 42 0.900000 0.116000 0.105000 1100 38 0.900000 1.560000 1.553000 600 47 1.000000 0.051000 0.051000 1.200000 0.030000 0.036000
1517206610820500932	400 42 0.900000 0.116000 0.105000 1100 38 0.900000 1.387000 1.380000 600 47 1.000000 0.051000 0.051000 1.200000 0.023000 0.027000
1517206611327910140	400 42 0.900000 0.116000 0.105000 1100 38 0.900000 1.389000 1.382000 600 47 1.000000 0.051000 0.051000 1.200000 0.023000 0.027000
1517206611835271016	400 42 0.900000 0.116000 0.105000 1100 38 0.900000 1.393000 1.386000 600 47 1.000000 0.051000 0.051000 1.200000 0.023000 0.027000
1517206612342644016	400 42 0.900000 0.116000 0.105000 1100 38 0.900000 1.512000 1.504000 600 47 1.000000 0.051000 0.051000 1.200000 0.029000 0.035000
1517206612849954724	400 42 0.900000 0.116000 0.105000 1100 38 0.900000 1.379000 1.372000 600 47 1.000000 0.051000 0.051000 1.200000 0.023000 0.027000
1517206613357236516	400 42 0.900000 0.116000 0.105000 1100 38 0.900000 1.379000 1.372000 600 47 1.000000 0.052000 0.052000 1.200000 0.022000 0.026000
1517206613864694224	400 42 0.900000 0.116000 0.105000 1100 38 0.900000 1.378000 1.371000 600 47 1.000000 0.051000 0.051000 1.200000 0.023000 0.027000
1517206614381914849	400 42 0.900000 0.115000 0.104000 1100 38 0.900000 1.448000 1.440000 600 47 1.000000 0.051000 0.051000 1.200000 0.025000 0.030000
1517206614890976016	400 42 0.900000 0.116000 0.105000 1100 38 0.900000 1.377000 1.370000 600 47 1.000000 0.051000 0.051000 1.200000 0.023000 0.027000
1517206615398192516	400 42 0.900000 0.116000 0.105000 1100 38 0.900000 1.377000 1.370000 600 47 1.000000 0.051000 0.051000 1.200000 0.023000 0.027000
1517206615905621891	400 42 0.900000 0.116000 0.105000 1100 38 0.900000 1.398000 1.391000 600 47 1.000000 0.052000 0.052000 1.200000 0.023000 0.027000
1517206616422289474	400 42 0.900000 0.116000 0.105000 1100 38 0.900000 1.465000 1.457000 600 47 1.000000 0.051000 0.051000 1.200000 0.028000 0.033000
1517206616931425724	400 42 0.900000 0.116000 0.105000 1100 38 0.900000 1.602000 1.595000 600 47 1.000000 0.051000 0.051000 1.200000 0.026000 0.031000
1517206617439187141	400 42 0.900000 0.116000 0.105000 1100 38 0.900000 1.386000 1.379000 600 47 1.000000 0.052000 0.052000 1.200000 0.023000 0.027000
1517206617946758058	400 42 0.900000 0.116000 0.105000 1100 38 0.900000 1.393000 1.386000 600 47 1.000000 0.052000 0.052000 1.200000 0.023000 0.027000
1517206618454299016	400 42 0.900000 0.116000 0.105000 1100 38 0.900000 1.475000 1.467000 600 47 1.000000 0.051000 0.051000 1.200000 0.027000 0.032000
1517206618961726683	400 42 0.900000 0.116000 0.105000 1100 38 0.900000 1.584000 1.577000 600 47 1.000000 0.051000 0.051000 1.200000 0.027000 0.032000
1517206619468958850	400 42 0.900000 0.115000 0.104000 1100 38 0.900000 1.377000 1.367000 600 47 1.000000 0.051000 0.051000 1.200000 0.023000 0.027000
1517206619976376433	400 42 0.900000 0.115000 0.104000 1100 38 0.900000 1.378000 1.371000 600 47 1.000000 0.051000 0.051000 1.200000 0.023000 0.027000
1517206620484055558	400 42 0.900000 0.116000 0.105000 1100 38 0.900000 1.472000 1.464000 600 47 1.000000 0.051000 0.051000 1.200000 0.027000 0.032000
1517206620991722183	400 42 0.900000 0.116000 0.105000 1100 38 0.900000 1.582000 1.575000 600 47 1.000000 0.051000 0.051000 1.200000 0.025000 0.030000
1517206621499264767	400 42 0.900000 0.116000 0.105000 1100 38 0.900000 1.379000 1.372000 600 47 1.000000 0.051000 0.051000 1.200000 0.023000 0.027000
1517206622006855600	400 42 0.900000 0.116000 0.105000 1100 38 0.900000 1.376000 1.369000 600 47 1.000000 0.051000 0.051000 1.200000 0.026000 0.031000
1517206622514636808	400 42 0.900000 0.116000 0.105000 1100 38 0.900000 1.411000 1.403000 600 47 1.000000 0.051000 0.051000 1.200000 0.027000 0.032000
1517206623021959725	400 42 0.900000 0.116000 0.105000 1100 38 0.900000 1.381000 1.374000 600 47 1.000000 0.051000 0.051000 1.200000 0.023000 0.027000
1517206623529293184	400 42 0.900000 0.116000 0.105000 1100 38 0.900000 1.396000 1.389000 600 47 1.000000 0.051000 0.051000 1.200000 0.028000 0.033000
1517206624036921350	400 42 0.900000 0.116000 0.105000 1100 38 0.900000 1.380000 1.373000 600 47 1.000000 0.051000 0.051000 1.200000 0.023000 0.027000
1517206624544567725	400 42 0.900000 0.116000 0.105000 1100 38 0.900000 1.459000 1.451000 600 47 1.000000 0.051000 0.051000 1.200000 0.024000 0.028000
1517206625060129017	400 42 0.900000 0.115000 0.104000 1100 38 0.900000 1.378000 1.371000 600 47 1.000000 0.052000 0.052000 1.200000 0.023000 0.027000
1517206625571077809	400 42 0.900000 0.116000 0.105000 1100 38 0.900000 1.386000 1.379000 600 47 1.000000 0.051000 0.051000 1.200000 0.028000 0.033000
1517206626078653892	400 42 0.900000 0.116000 0.105000 1100 38 0.900000 1.384000 1.377000 600 47 1.000000 0.052000 0.052000 1.200000 0.023000 0.027000
1517206626586182351	400 42 0.900000 0.116000 0.105000 1100 38 0.900000 1.391000 1.384000 600 47 1.000000 0.051000 0.051000 1.200000 0.023000 0.027000
1517206627093787934	400 42 0.900000 0.116000 0.105000 1100 38 0.900000 1.386000 1.379000 600 47 1.000000 0.051000 0.051000 1.200000 0.024000 0.028000
1517206627601442476	400 42 0.900000 0.116000 0.105000 1100 38 0.900000 1.545000 1.538000 600 47 1.000000 0.051000 0.051000 1.200000 0.028000 0.033000
1517206628108922809	400 42 0.900000 0.115000 0.104000 1100 38 0.900000 1.397000 1.390000 600 47 1.000000 0.051000 0.051000 1.200000 0.023000 0.027000
1517206628616623434	400 42 0.900000 0.115000 0.104000 1100 38 0.900000 1.378000 1.371000 600 47 1.000000 0.051000 0.051000 1.200000 0.024000 0.028000
1517206629124116143	400 42 0.900000 0.116000 0.105000 1100 38 0.900000 1.400000 1.393000 600 47 1.000000 0.051000 0.051000 1.200000 0.023000 0.027000
1517206629631905601	400 42 0.900000 0.116000 0.105000 1100 38 0.900000 1.376000 1.369000 600 47 1.000000 0.051000 0.051000 1.200000 0.023000 0.027000
1517206630139191851	400 42 0.900000 0.116000 0.105000 1100 38 0.900000 1.462000 1.454000 600 47 1.000000 0.051000 0.051000 1.200000 0.024000 0.028000
1517206630646956059	400 42 0.900000 0.116000 0.105000 1100 38 0.900000 1.386000 1.376000 600 47 1.000000 0.051000 0.051000 1.200000 0.023000 0.027000
1517206631154277810	400 42 0.900000 0.115000 0.104000 1100 38 0.900000 1.400000 1.393000 600 47 1.000000 0.051000 0.051000 1.200000 0.023000 0.027000
1517206631661683393	400 42 0.900000 0.116000 0.105000 1100 38 0.900000 1.390000 1.383000 600 47 1.000000 0.051000 0.051000 1.200000 0.023000 0.027000
1517206632169357810	400 42 0.900000 0.116000 0.105000 1100 38 0.900000 1.486000 1.478000 600 47 1.000000 0.051000 0.051000 1.200000 0.024000 0.028000
1517206632677164018	400 42 0.900000 0.116000 0.105000 1100 38 0.900000 1.400000 1.393000 600 47 1.000000 0.051000 0.051000 1.200000 0.024000 0.028000
1517206633184697435	400 42 0.900000 0.116000 0.105000 1100 38 0.900000 1.382000 1.375000 600 47 1.000000 0.051000 0.051000 1.200000 0.023000 0.027000
1517206633702264935	400 42 0.900000 0.116000 0.105000 1100 38 0.900000 1.392000 1.385000 600 47 1.000000 0.051000 0.051000 1.200000 0.023000 0.027000
1517206634210257643	400 42 0.900000 0.116000 0.105000 1100 38 0.900000 1.520000 1.512000 600 47 1.000000 0.051000 0.051000 1.200000 0.026000 0.031000
1517206634717816310	400 42 0.900000 0.116000 0.105000 1100 38 0.900000 1.394000 1.384000 600 47 1.000000 0.051000 0.051000 1.200000 0.024000 0.028000
1517206635225423477	400 42 0.900000 0.116000 0.105000 1100 38 0.900000 1.379000 1.372000 600 47 1.000000 0.051000 0.051000 1.200000 0.023000 0.027000
1517206635733122685	400 42 0.900000 0.116000 0.105000 1100 38 0.900000 1.376000 1.366000 600 47 1.000000 0.051000 0.051000 1.200000 0.023000 0.027000
1517206636240645102	400 42 0.900000 0.116000 0.105000 1100 38 0.900000 1.559000 1.551000 600 47 1.000000 0.051000 0.051000 1.200000 0.025000 0.030000
1517206636748551519	400 42 0.900000 0.116000 0.105000 1100 38 0.900000 1.388000 1.378000 600 47 1.000000 0.051000 0.051000 1.200000 0.023000 0.027000
1517206637256213185	400 42 0.900000 0.116000 0.105000 1100 38 0.900000 1.482000 1.474000 600 47 1.000000 0.051000 0.051000 1.200000 0.027000 0.032000
1517206637763543352	400 42 0.900000 0.115000 0.104000 1100 38 0.900000 1.383000 1.376000 600 46 1.000000 0.051000 0.051000 1.200000 0.023000 0.027000
1517206638271180310	400 42 0.900000 0.115000 0.104000 1100 38 0.900000 1.393000 1.383000 600 47 1.000000 0.051000 0.051000 1.200000 0.025000 0.030000
1517206638778707894	400 42 0.900000 0.115000 0.104000 1100 38 0.900000 1.379000 1.372000 600 47 1.000000 0.051000 0.051000 1.200000 0.023000 0.027000
1517206639286213352	400 42 0.900000 0.116000 0.105000 1100 38 0.900000 1.400000 1.393000 600 47 1.000000 0.051000 0.051000 1.200000 0.024000 0.028000
1517206639793786811	400 42 0.900000 0.116000 0.105000 1100 38 0.900000 1.381000 1.374000 600 47 1.000000 0.051000 0.051000 1.200000 0.024000 0.028000
1517206640301139519	400 42 0.900000 0.116000 0.105000 1100 38 0.900000 1.391000 1.381000 600 47 1.000000 0.051000 0.051000 1.200000 0.023000 0.027000
1517206640808615686	400 42 0.900000 0.116000 0.105000 1100 38 0.900000 1.385000 1.378000 600 47 1.000000 0.051000 0.051000 1.200000 0.023000 0.027000
1517206641316283352	400 42 0.900000 0.116000 0.105000 1100 38 0.900000 1.376000 1.369000 600 47 1.000000 0.051000 0.051000 1.200000 0.023000 0.027000
1517206641823968061	400 42 0.900000 0.115000 0.104000 1100 38 0.900000 1.396000 1.389000 600 47 1.000000 0.052000 0.052000 1.200000 0.023000 0.027000
1517206642341641061	400 42 0.900000 0.116000 0.105000 1100 38 0.900000 1.377000 1.370000 600 47 1.000000 0.051000 0.051000 1.200000 0.023000 0.027000
1517206642849225186	400 42 0.900000 0.116000 0.105000 1100 38 0.900000 1.384000 1.377000 600 47 1.000000 0.051000 0.051000 1.200000 0.023000 0.027000
1517206643356944853	400 42 0.900000 0.116000 0.105000 1100 38 0.900000 1.375000 1.368000 600 47 1.000000 0.051000 0.051000 1.200000 0.023000 0.027000
1517206643864522186	400 42 0.900000 0.116000 0.105000 1100 38 0.900000 1.386000 1.379000 600 47 1.000000 0.052000 0.052000 1.200000 0.024000 0.028000
1517206644383755019	400 42 0.900000 0.115000 0.104000 1100 38 0.900000 1.397000 1.390000 600 47 1.000000 0.052000 0.052000 1.200000 0.023000 0.027000
1517206644891154186	400 42 0.900000 0.116000 0.105000 1100 38 0.900000 1.591000 1.584000 600 47 1.000000 0.051000 0.051000 1.200000 0.029000 0.035000
1517206645398785103	400 42 0.900000 0.116000 0.105000 1100 38 0.900000 1.474000 1.466000 600 47 1.000000 0.052000 0.052000 1.200000 0.025000 0.030000
1517206645906285311	400 42 0.900000 0.115000 0.104000 1100 38 0.900000 1.398000 1.391000 600 47 1.000000 0.052000 0.052000 1.200000 0.024000 0.028000
1517206646413660811	400 42 0.900000 0.115000 0.104000 1100 38 0.900000 1.384000 1.377000 600 47 1.000000 0.051000 0.051000 1.200000 0.023000 0.027000
1517206646921211145	400 42 0.900000 0.115000 0.104000 1100 38 0.900000 1.600000 1.593000 600 47 1.000000 0.051000 0.051000 1.200000 0.027000 0.032000
1517206647428839270	400 42 0.900000 0.115000 0.104000 1100 38 0.900000 1.376000 1.366000 600 47 1.000000 0.051000 0.051000 1.200000 0.023000 0.027000
1517206647936145603	400 42 0.900000 0.115000 0.104000 1100 38 0.900000 1.376000 1.369000 600 47 1.000000 0.051000 0.051000 1.200000 0.023000 0.027000
1517206648443567687	400 42 0.900000 0.116000 0.105000 1100 38 0.900000 1.380000 1.370000 600 47 1.000000 0.052000 0.052000 1.200000 0.023000 0.027000
1517206648961437520	400 42 0.900000 0.116000 0.105000 1100 38 0.900000 1.562000 1.554000 600 47 1.000000 0.051000 0.051000 1.200000 0.028000 0.033000
1517206649469152853	400 42 0.900000 0.116000 0.105000 1100 38 0.900000 1.396000 1.386000 600 47 1.000000 0.051000 0.051000 1.200000 0.023000 0.027000
1517206649976620103	400 42 0.900000 0.115000 0.104000 1100 38 0.900000 1.373000 1.366000 600 47 1.000000 0.051000 0.051000 1.200000 0.023000 0.027000
1517206650484178228	400 42 0.900000 0.115000 0.104000 1100 38 0.900000 1.375000 1.365000 600 47 1.000000 0.051000 0.051000 1.200000 0.023000 0.027000
1517206651014462270	400 42 0.900000 0.116000 0.105000 1100 38 0.900000 1.405000 1.397000 600 47 1.000000 0.051000 0.051000 1.200000 0.023000 0.027000
1517206651522204020	400 42 0.900000 0.116000 0.105000 1100 38 0.900000 1.523000 1.515000 600 47 1.000000 0.051000 0.051000 1.200000 0.028000 0.033000
1517206652029726520	400 42 0.900000 0.115000 0.104000 1100 38 0.900000 1.376000 1.369000 600 47 1.000000 0.051000 0.051000 1.200000 0.024000 0.028000
1517206652537250312	400 42 0.900000 0.115000 0.104000 1100 38 0.900000 1.395000 1.388000 600 47 1.000000 0.051000 0.051000 1.200000 0.023000 0.027000
1517206653064459312	400 42 0.900000 0.115000 0.104000 1100 38 0.900000 1.379000 1.372000 600 47 1.000000 0.051000 0.051000 1.200000 0.023000 0.027000
1517206653572164771	400 42 0.900000 0.116000 0.105000 1100 38 0.900000 1.551000 1.543000 600 47 1.000000 0.051000 0.051000 1.200000 0.030000 0.036000
1517206654079718229	400 42 0.900000 0.116000 0.105000 1100 38 0.900000 1.396000 1.389000 600 47 1.000000 0.051000 0.051000 1.200000 0.023000 0.027000
1517206654587127937	400 42 0.900000 0.116000 0.105000 1100 38 0.900000 1.378000 1.371000 600 47 1.000000 0.051000 0.051000 1.200000 0.023000 0.027000
1517206655094602396	400 42 0.900000 0.116000 0.105000 1100 38 0.900000 1.374000 1.367000 600 47 1.000000 0.052000 0.052000 1.200000 0.023000 0.027000
1517206655602081812	400 42 0.900000 0.115000 0.104000 1100 38 0.900000 1.612000 1.605000 600 47 1.000000 0.051000 0.051000 1.200000 0.028000 0.033000
1517206656109450771	400 42 0.900000 0.116000 0.105000 1100 38 0.900000 1.377000 1.370000 600 47 1.000000 0.051000 0.051000 1.200000 0.023000 0.027000
1517206656616992063	400 42 0.900000 0.115000 0.104000 1100 38 0.900000 1.377000 1.370000 600 47 1.000000 0.051000 0.051000 1.200000 0.023000 0.027000
1517206657124326604	400 42 0.900000 0.115000 0.104000 1100 38 0.900000 1.376000 1.369000 600 47 1.000000 0.051000 0.051000 1.200000 0.023000 0.027000
1517206657631843771	400 42 0.900000 0.116000 0.105000 1100 38 0.900000 1.581000 1.574000 600 47 1.000000 0.051000 0.051000 1.200000 0.027000 0.032000
1517206658139423771	400 42 0.900000 0.116000 0.105000 1100 38 0.900000 1.376000 1.369000 600 47 1.000000 0.051000 0.051000 1.200000 0.023000 0.027000
1517206658646786938	400 42 0.900000 0.115000 0.104000 1100 38 0.900000 1.397000 1.390000 600 47 1.000000 0.051000 0.051000 1.200000 0.023000 0.027000
1517206659153978146	400 42 0.900000 0.115000 0.104000 1100 38 0.900000 1.377000 1.370000 600 47 1.000000 0.051000 0.051000 1.200000 0.023000 0.027000
1517206659661414563	400 42 0.900000 0.115000 0.104000 1100 38 0.900000 1.475000 1.467000 600 47 1.000000 0.051000 0.051000 1.200000 0.026000 0.031000
1517206660168920146	400 42 0.900000 0.116000 0.105000 1100 38 0.900000 1.377000 1.370000 600 47 1.000000 0.051000 0.051000 1.200000 0.023000 0.027000
1517206660676293188	400 42 0.900000 0.115000 0.104000 1100 38 0.900000 1.376000 1.369000 600 47 1.000000 0.051000 0.051000 1.200000 0.023000 0.027000
1517206661183917271	400 42 0.900000 0.115000 0.104000 1100 38 0.900000 1.377000 1.370000 600 47 1.000000 0.051000 0.051000 1.200000 0.023000 0.027000
1517206661701332646	400 42 0.900000 0.115000 0.104000 1100 38 0.900000 1.463000 1.455000 600 47 1.000000 0.051000 0.051000 1.200000 0.023000 0.027000
1517206662210272272	400 42 0.900000 0.115000 0.104000 1100 38 0.900000 1.376000 1.369000 600 47 1.000000 0.051000 0.051000 1.200000 0.028000 0.033000
1517206662717612313	400 42 0.900000 0.116000 0.105000 1100 38 0.900000 1.374000 1.367000 600 47 1.000000 0.051000 0.051000 1.200000 0.024000 0.028000
1517206663225138397	400 42 0.900000 0.116000 0.105000 1100 38 0.900000 1.376000 1.369000 600 47 1.000000 0.051000 0.051000 1.200000 0.023000 0.027000
1517206663732929105	400 42 0.900000 0.116000 0.105000 1100 38 0.900000 1.400000 1.393000 600 47 1.000000 0.051000 0.051000 1.200000 0.028000 0.033000
1517206664240727313	400 42 0.900000 0.116000 0.105000 1100 38 0.900000 1.598000 1.591000 600 47 1.000000 0.051000 0.051000 1.200000 0.028000 0.033000
1517206664748112189	400 42 0.900000 0.115000 0.104000 1100 38 0.900000 1.380000 1.373000 600 47 1.000000 0.051000 0.051000 1.200000 0.023000 0.027000
1517206665255427022	400 42 0.900000 0.115000 0.104000 1100 38 0.900000 1.400000 1.393000 600 47 1.000000 0.051000 0.051000 1.200000 0.024000 0.028000
1517206665763247980	400 42 0.900000 0.116000 0.105000 1100 38 0.900000 1.377000 1.370000 600 47 1.000000 0.051000 0.051000 1.200000 0.023000 0.027000
1517206666270840564	400 42 0.900000 0.115000 0.104000 1100 38 0.900000 1.396000 1.389000 600 47 1.000000 0.051000 0.051000 1.200000 0.024000 0.028000
1517206666778144855	400 42 0.900000 0.116000 0.105000 1100 38 0.900000 1.408000 1.400000 600 47 1.000000 0.051000 0.051000 1.200000 0.023000 0.027000
1517206667285680480	400 42 0.900000 0.115000 0.104000 1100 38 0.900000 1.385000 1.378000 600 47 1.000000 0.051000 0.051000 1.200000 0.023000 0.027000
1517206667793473314	400 42 0.900000 0.115000 0.104000 1100 38 0.900000 1.390000 1.383000 600 47 1.000000 0.051000 0.051000 1.200000 0.023000 0.027000
1517206668300835522	400 42 0.900000 0.116000 0.105000 1100 38 0.900000 1.382000 1.375000 600 47 1.000000 0.051000 0.051000 1.200000 0.023000 0.027000
1517206668808386481	400 42 0.900000 0.116000 0.105000 1100 38 0.900000 1.459000 1.451000 600 47 1.000000 0.051000 0.051000 1.200000 0.025000 0.030000
1517206669315810772	400 42 0.900000 0.115000 0.104000 1100 38 0.900000 1.377000 1.370000 600 47 1.000000 0.051000 0.051000 1.200000 0.023000 0.027000
1517206669823326314	400 42 0.900000 0.116000 0.105000 1100 38 0.900000 1.394000 1.387000 600 47 1.000000 0.051000 0.051000 1.200000 0.023000 0.027000
1517206670339261523	400 42 0.900000 0.116000 0.105000 1100 38 0.900000 1.383000 1.376000 600 47 1.000000 0.051000 0.051000 1.200000 0.023000 0.027000
1517206670850490689	400 42 0.900000 0.115000 0.104000 1100 38 0.900000 1.479000 1.471000 600 47 1.000000 0.052000 0.052000 1.200000 0.025000 0.030000
1517206671357950731	400 42 0.900000 0.115000 0.104000 1100 38 0.900000 1.378000 1.371000 600 47 1.000000 0.051000 0.051000 1.200000 0.023000 0.027000
1517206671865676273	400 42 0.900000 0.116000 0.105000 1100 38 0.900000 1.464000 1.456000 600 47 1.000000 0.051000 0.051000 1.200000 0.026000 0.031000
1517206672374624981	400 42 0.900000 0.116000 0.105000 1100 38 0.900000 1.383000 1.376000 600 47 1.000000 0.051000 0.051000 1.200000 0.024000 0.028000
1517206672882096189	400 42 0.900000 0.116000 0.105000 1100 38 0.900000 1.456000 1.448000 600 47 1.000000 0.051000 0.051000 1.200000 0.025000 0.030000
1517206673389653065	400 42 0.900000 0.116000 0.105000 1100 38 0.900000 1.393000 1.386000 600 47 1.000000 0.051000 0.051000 1.200000 0.024000 0.028000
1517206673897469231	400 42 0.900000 0.115000 0.104000 1100 38 0.900000 1.379000 1.372000 600 47 1.000000 0.052000 0.052000 1.200000 0.023000 0.027000
1517206674405006148	400 42 0.900000 0.115000 0.104000 1100 38 0.900000 1.398000 1.391000 600 47 1.000000 0.051000 0.051000 1.200000 0.023000 0.027000
1517206674912563856	400 42 0.900000 0.116000 0.105000 1100 38 0.900000 1.424000 1.416000 600 47 1.000000 0.051000 0.051000 1.200000 0.025000 0.030000
1517206675420100731	400 42 0.900000 0.115000 0.104000 1100 38 0.900000 1.393000 1.386000 600 47 1.000000 0.051000 0.051000 1.200000 0.023000 0.027000
1517206675927741898	400 42 0.900000 0.116000 0.105000 1100 38 0.900000 1.384000 1.377000 600 47 1.000000 0.052000 0.052000 1.200000 0.024000 0.028000
1517206676435151648	400 42 0.900000 0.115000 0.104000 1100 38 0.900000 1.386000 1.379000 600 47 1.000000 0.051000 0.051000 1.200000 0.023000 0.027000
1517206676942634523	400 42 0.900000 0.115000 0.104000 1100 38 0.900000 1.394000 1.387000 600 47 1.000000 0.051000 0.051000 1.200000 0.024000 0.028000
1517206677449961940	400 42 0.900000 0.116000 0.105000 1100 38 0.900000 1.377000 1.370000 600 47 1.000000 0.051000 0.051000 1.200000 0.023000 0.027000
1517206677957681148	400 42 0.900000 0.116000 0.105000 1100 38 0.900000 1.378000 1.371000 600 47 1.000000 0.051000 0.051000 1.200000 0.024000 0.028000
1517206678465345190	400 42 0.900000 0.115000 0.104000 1100 38 0.900000 1.379000 1.372000 600 47 1.000000 0.052000 0.052000 1.200000 0.023000 0.027000
1517206678972653524	400 42 0.900000 0.115000 0.104000 1100 38 0.900000 1.392000 1.385000 600 47 1.000000 0.051000 0.051000 1.200000 0.023000 0.027000
1517206679480107274	400 42 0.900000 0.116000 0.105000 1100 38 0.900000 1.590000 1.583000 600 47 1.000000 0.051000 0.051000 1.200000 0.028000 0.033000
1517206679987872607	400 42 0.900000 0.116000 0.105000 1100 38 0.900000 1.389000 1.382000 600 47 1.000000 0.051000 0.051000 1.200000 0.023000 0.027000
1517206680495414940	400 42 0.900000 0.115000 0.104000 1100 38 0.900000 1.389000 1.382000 600 47 1.000000 0.052000 0.052000 1.200000 0.024000 0.028000
1517206681010687732	400 42 0.900000 0.115000 0.104000 1100 38 0.900000 1.382000 1.375000 600 47 1.000000 0.051000 0.051000 1.200000 0.023000 0.027000
1517206681521735732	400 42 0.900000 0.116000 0.105000 1100 38 0.900000 1.597000 1.590000 600 45 1.000000 0.051000 0.051000 1.200000 0.029000 0.035000
1517206682029216941	400 38 0.900000 0.099000 0.090000 1100 37 0.900000 0.583000 0.577000 600 42 1.000000 0.051000 0.051000 1.200000 0.023000 0.027000
1517206682536505774	400 37 0.900000 0.091000 0.082000 1100 36 1.000000 0.138000 0.138000 600 41 1.000000 0.051000 0.051000 1.200000 0.023000 0.027000
1517206683043739357	400 36 0.900000 0.091000 0.082000 1100 36 1.000000 0.134000 0.134000 600 40 1.000000 0.051000 0.051000 1.200000 0.023000 0.027000
1517206683551058066	400 36 0.900000 0.092000 0.083000 1100 35 0.900000 0.365000 0.363000 600 40 1.000000 0.051000 0.051000 1.200000 0.027000 0.032000
1517206684058531524	400 36 0.900000 0.091000 0.082000 1100 35 1.000000 0.120000 0.120000 600 39 1.000000 0.051000 0.051000 1.200000 0.023000 0.027000
1517206684565849066	400 35 0.900000 0.091000 0.082000 1100 35 1.000000 0.120000 0.120000 600 39 1.000000 0.051000 0.051000 1.200000 0.022000 0.026000
1517206685073052399	400 35 0.900000 0.091000 0.083000 1100 34 1.000000 0.122000 0.122000 600 38 1.000000 0.051000 0.051000 1.200000 0.023000 0.027000
1517206685580224233	400 35 0.900000 0.093000 0.084000 1100 34 0.900000 0.356000 0.354000 600 38 1.000000 0.051000 0.051000 1.200000 0.027000 0.032000
1517206686087737691	400 35 0.900000 0.091000 0.082000 1100 34 1.000000 0.124000 0.124000 600 38 1.000000 0.051000 0.051000 1.200000 0.023000 0.027000
1517206686595596691	400 38 0.900000 0.091000 0.082000 1100 34 1.000000 0.196000 0.196000 600 38 1.000000 0.051000 0.051000 1.200000 0.025000 0.030000
1517206687103489400	400 38 0.900000 0.018000 0.016000 1100 34 0.900000 0.709000 0.702000 600 39 1.000000 0.051000 0.051000 1.200000 0.032000 0.038000
1517206687611089525	400 38 0.900000 0.017000 0.015000 1100 35 0.900000 0.708000 0.701000 600 39 1.000000 0.051000 0.051000 1.200000 0.033000 0.039000
1517206688118604191	400 35 0.900000 0.017000 0.015000 1100 34 0.900000 0.716000 0.709000 600 39 1.000000 0.051000 0.051000 1.200000 0.031000 0.037000
1517206688626068608	400 34 0.900000 0.018000 0.016000 1100 34 1.000000 0.129000 0.129000 600 38 1.000000 0.051000 0.051000 1.200000 0.025000 0.030000
