#Timestamp	CPU(0) Frequency(MHz)	CPU(0) Temperature(C)	A7 Voltage(V)	A7 Current(A)	A7 Power(W)	CPU(4) Frequency(MHz)	CPU(4) Temperature(C)	A15 Voltage(V)	A15 Current(A)	A15 Power(W)	GPU Frequency(MHz)	GPU Temperature(C)	GPU Voltage(V)	GPU Current(A)	GPU Power(W)	RAM Voltage(V)	RAM Current(A)	RAM Power(W)
1553297621771348426	900 32 0.900000 0.018000 0.016000 800 32 0.900000 0.240000 0.219000 600 36 1.000000 0.050000 0.050000 1.200000 0.037000 0.044000
1553297622280098052	900 32 1.000000 0.124000 0.131000 800 32 0.900000 0.108000 0.099000 600 36 1.000000 0.050000 0.050000 1.200000 0.040000 0.048000
1553297622788671385	900 32 1.000000 0.124000 0.131000 800 32 0.900000 0.095000 0.087000 600 36 1.000000 0.050000 0.050000 1.200000 0.039000 0.047000
1553297623297230885	900 33 1.000000 0.123000 0.130000 800 32 0.900000 0.103000 0.095000 600 36 1.000000 0.050000 0.050000 1.200000 0.039000 0.047000
1553297623805809718	900 33 1.000000 0.218000 0.229000 800 32 0.900000 0.107000 0.098000 600 36 1.000000 0.050000 0.050000 1.200000 0.036000 0.043000
1553297624314500218	900 33 1.000000 0.244000 0.255000 800 32 0.900000 0.138000 0.127000 600 36 1.000000 0.050000 0.050000 1.200000 0.029000 0.035000
1553297624823047052	900 33 1.000000 0.243000 0.254000 800 32 0.900000 0.100000 0.092000 600 36 1.000000 0.050000 0.050000 1.200000 0.029000 0.035000
1553297625332270260	900 34 1.000000 0.243000 0.254000 800 32 0.900000 0.096000 0.088000 600 36 1.000000 0.050000 0.050000 1.200000 0.028000 0.033000
1553297625841012385	900 33 1.000000 0.243000 0.254000 800 32 0.900000 0.143000 0.131000 600 36 1.000000 0.050000 0.050000 1.200000 0.033000 0.039000
1553297626349645844	900 33 1.000000 0.244000 0.255000 800 32 0.900000 0.168000 0.154000 600 36 1.000000 0.051000 0.051000 1.200000 0.032000 0.038000
1553297626858179844	900 33 1.000000 0.243000 0.254000 800 32 0.900000 0.087000 0.080000 600 36 1.000000 0.051000 0.051000 1.200000 0.030000 0.036000
1553297627366959219	900 33 1.000000 0.243000 0.254000 800 32 0.900000 0.086000 0.079000 600 36 1.000000 0.050000 0.050000 1.200000 0.028000 0.033000
1553297627875911844	900 33 1.000000 0.243000 0.254000 800 32 0.900000 0.180000 0.166000 600 36 1.000000 0.050000 0.050000 1.200000 0.030000 0.036000
1553297628384642677	900 33 1.000000 0.243000 0.254000 800 32 0.900000 0.090000 0.083000 600 36 1.000000 0.051000 0.051000 1.200000 0.028000 0.033000
1553297628893285261	900 33 1.000000 0.243000 0.254000 800 32 0.900000 0.095000 0.087000 600 36 1.000000 0.050000 0.050000 1.200000 0.028000 0.033000
1553297629401744011	900 33 1.000000 0.243000 0.254000 800 32 0.900000 0.103000 0.095000 600 36 1.000000 0.051000 0.051000 1.200000 0.029000 0.035000
1553297629910426761	900 33 1.000000 0.244000 0.255000 800 32 0.900000 0.119000 0.110000 600 36 1.000000 0.050000 0.050000 1.200000 0.029000 0.035000
1553297630419217386	900 33 1.000000 0.243000 0.254000 800 32 0.900000 0.098000 0.090000 600 36 1.000000 0.050000 0.050000 1.200000 0.028000 0.033000
1553297630927902428	900 33 1.000000 0.243000 0.254000 800 32 0.900000 0.102000 0.094000 600 36 1.000000 0.050000 0.050000 1.200000 0.029000 0.035000
1553297631436351511	900 33 1.000000 0.243000 0.255000 800 32 0.900000 0.092000 0.085000 600 36 1.000000 0.050000 0.050000 1.200000 0.029000 0.035000
1553297631945037469	900 34 1.000000 0.246000 0.257000 800 32 0.900000 0.103000 0.095000 600 36 1.000000 0.051000 0.051000 1.200000 0.028000 0.033000
1553297632453961219	900 33 1.000000 0.244000 0.255000 800 32 0.900000 0.086000 0.079000 600 36 1.000000 0.051000 0.051000 1.200000 0.029000 0.035000
1553297632962554844	900 33 1.000000 0.243000 0.254000 800 32 0.900000 0.086000 0.079000 600 36 1.000000 0.051000 0.051000 1.200000 0.029000 0.035000
1553297633470956886	900 33 1.000000 0.243000 0.254000 800 32 0.900000 0.086000 0.079000 600 36 1.000000 0.050000 0.050000 1.200000 0.028000 0.033000
1553297633980215095	900 34 1.000000 0.243000 0.254000 800 32 0.900000 0.086000 0.079000 600 36 1.000000 0.051000 0.051000 1.200000 0.028000 0.033000
1553297634489026970	900 34 1.000000 0.247000 0.258000 800 32 0.900000 0.264000 0.243000 600 36 1.000000 0.051000 0.051000 1.200000 0.038000 0.045000
1553297634997800928	900 33 1.000000 0.244000 0.255000 800 32 0.900000 0.123000 0.113000 600 36 1.000000 0.051000 0.051000 1.200000 0.030000 0.036000
1553297635506249636	900 33 1.000000 0.243000 0.254000 800 32 0.900000 0.092000 0.085000 600 36 1.000000 0.051000 0.051000 1.200000 0.029000 0.035000
1553297636014702345	900 33 1.000000 0.243000 0.254000 800 32 0.900000 0.096000 0.088000 600 36 1.000000 0.051000 0.051000 1.200000 0.028000 0.033000
1553297636523405637	900 34 1.000000 0.249000 0.260000 800 32 0.900000 0.271000 0.249000 600 36 1.000000 0.050000 0.050000 1.200000 0.035000 0.042000
1553297637032016137	900 33 1.000000 0.243000 0.254000 800 32 0.900000 0.087000 0.080000 600 36 1.000000 0.050000 0.050000 1.200000 0.029000 0.035000
1553297637540541137	900 33 1.000000 0.243000 0.254000 800 32 0.900000 0.099000 0.091000 600 36 1.000000 0.050000 0.050000 1.200000 0.028000 0.033000
1553297638049067053	900 33 1.000000 0.243000 0.254000 800 32 0.900000 0.097000 0.089000 600 36 1.000000 0.051000 0.051000 1.200000 0.029000 0.035000
1553297638557720512	900 34 1.000000 0.250000 0.262000 800 32 0.900000 0.211000 0.194000 600 36 1.000000 0.050000 0.050000 1.200000 0.033000 0.039000
1553297639066278845	900 33 1.000000 0.219000 0.230000 800 32 0.900000 0.086000 0.079000 600 36 1.000000 0.050000 0.050000 1.200000 0.027000 0.032000
1553297639574782595	900 33 1.000000 0.125000 0.132000 800 32 0.900000 0.101000 0.093000 600 36 1.000000 0.050000 0.050000 1.200000 0.044000 0.053000
1553297640083067512	900 33 1.000000 0.125000 0.132000 800 32 0.900000 0.100000 0.092000 600 36 1.000000 0.050000 0.050000 1.200000 0.043000 0.051000
1553297640591952595	900 33 1.000000 0.125000 0.132000 800 32 0.900000 0.163000 0.150000 600 37 1.000000 0.050000 0.050000 1.200000 0.045000 0.054000
1553297641100587262	900 33 1.000000 0.126000 0.133000 800 32 0.900000 0.101000 0.093000 600 36 1.000000 0.050000 0.050000 1.200000 0.043000 0.051000
1553297641609179012	900 33 1.000000 0.126000 0.133000 800 32 0.900000 0.113000 0.104000 600 36 1.000000 0.050000 0.050000 1.200000 0.043000 0.051000
1553297642117694262	900 32 1.000000 0.126000 0.133000 800 32 0.900000 0.113000 0.104000 600 36 1.000000 0.051000 0.051000 1.200000 0.043000 0.051000
1553297642627262137	900 33 1.000000 0.126000 0.133000 800 32 0.900000 0.100000 0.092000 600 36 1.000000 0.051000 0.051000 1.200000 0.044000 0.053000
1553297643136235137	900 33 1.000000 0.130000 0.137000 800 32 0.900000 0.351000 0.323000 600 36 1.000000 0.050000 0.050000 1.200000 0.051000 0.061000
1553297643644674596	900 32 1.000000 0.126000 0.133000 800 32 0.900000 0.113000 0.104000 600 36 1.000000 0.050000 0.050000 1.200000 0.044000 0.053000
1553297644153154971	900 32 1.000000 0.126000 0.133000 800 32 0.900000 0.100000 0.092000 600 36 1.000000 0.050000 0.050000 1.200000 0.044000 0.053000
1553297644662151471	900 33 1.000000 0.126000 0.133000 800 32 0.900000 0.131000 0.121000 600 36 1.000000 0.051000 0.051000 1.200000 0.044000 0.053000
1553297645170838971	900 33 1.000000 0.127000 0.134000 800 32 0.900000 0.299000 0.275000 600 36 1.000000 0.051000 0.051000 1.200000 0.048000 0.057000
1553297645679716804	900 32 1.000000 0.126000 0.133000 800 32 0.900000 0.100000 0.092000 600 36 1.000000 0.050000 0.050000 1.200000 0.043000 0.051000
1553297646187962471	900 32 1.000000 0.127000 0.134000 800 31 0.900000 0.101000 0.093000 600 36 1.000000 0.050000 0.050000 1.200000 0.043000 0.051000
1553297646696191804	900 32 1.000000 0.127000 0.134000 800 32 0.900000 0.100000 0.092000 600 36 1.000000 0.050000 0.050000 1.200000 0.043000 0.051000
1553297647204598221	900 33 1.000000 0.127000 0.134000 800 32 0.900000 0.290000 0.267000 600 36 1.000000 0.050000 0.050000 1.200000 0.045000 0.054000
1553297647712977805	900 33 1.000000 0.127000 0.134000 800 32 0.900000 0.095000 0.087000 600 36 1.000000 0.050000 0.050000 1.200000 0.042000 0.050000
1553297648221276096	900 32 1.000000 0.128000 0.135000 800 32 0.900000 0.097000 0.089000 600 36 1.000000 0.050000 0.050000 1.200000 0.041000 0.049000
1553297648729772096	900 32 1.000000 0.126000 0.133000 800 32 0.900000 0.112000 0.103000 600 36 1.000000 0.051000 0.051000 1.200000 0.041000 0.049000
1553297649238792055	900 33 1.000000 0.126000 0.133000 800 32 0.900000 0.186000 0.171000 600 36 1.000000 0.051000 0.051000 1.200000 0.044000 0.053000
1553297649747353388	900 32 1.000000 0.127000 0.134000 800 32 0.900000 0.121000 0.111000 600 36 1.000000 0.050000 0.050000 1.200000 0.043000 0.051000
1553297650255832763	900 32 1.000000 0.126000 0.133000 800 32 0.900000 0.097000 0.089000 600 36 1.000000 0.051000 0.051000 1.200000 0.042000 0.050000
1553297650764086972	900 32 1.000000 0.126000 0.133000 800 31 0.900000 0.097000 0.089000 600 36 1.000000 0.050000 0.050000 1.200000 0.042000 0.050000
1553297651273370638	900 32 1.000000 0.056000 0.059000 800 31 0.900000 0.147000 0.135000 600 36 1.000000 0.051000 0.051000 1.200000 0.038000 0.045000
1553297651782023305	900 32 1.000000 0.041000 0.043000 800 31 0.900000 0.157000 0.145000 600 35 1.000000 0.051000 0.051000 1.200000 0.026000 0.031000
