#Timestamp	CPU(0) Frequency(MHz)	CPU(0) Temperature(C)	A7 Voltage(V)	A7 Current(A)	A7 Power(W)	CPU(4) Frequency(MHz)	CPU(4) Temperature(C)	A15 Voltage(V)	A15 Current(A)	A15 Power(W)	GPU Frequency(MHz)	GPU Temperature(C)	GPU Voltage(V)	GPU Current(A)	GPU Power(W)	RAM Voltage(V)	RAM Current(A)	RAM Power(W)
1559795202636574805	800 32 1.100000 0.093000 0.105000 900 30 0.900000 0.092000 0.086000 600 34 1.000000 0.050000 0.050000 1.200000 0.035000 0.042000
1559795203149009805	800 33 1.000000 0.067000 0.068000 900 30 0.900000 0.498000 0.468000 600 34 1.000000 0.050000 0.050000 1.200000 0.048000 0.058000
1559795203659854555	800 33 1.000000 0.044000 0.045000 900 30 0.900000 0.504000 0.473000 600 34 1.000000 0.050000 0.050000 1.200000 0.047000 0.056000
1559795204170748805	800 33 1.000000 0.038000 0.038000 900 30 0.900000 0.504000 0.474000 600 34 1.000000 0.050000 0.050000 1.200000 0.043000 0.051000
1559795204681441638	800 33 1.000000 0.035000 0.035000 900 30 0.900000 0.483000 0.454000 600 34 1.000000 0.050000 0.050000 1.200000 0.028000 0.033000
1559795205192096972	800 33 1.000000 0.062000 0.063000 900 30 0.900000 0.482000 0.453000 600 34 1.000000 0.050000 0.050000 1.200000 0.027000 0.032000
1559795205702721180	800 33 1.000000 0.033000 0.033000 900 30 0.900000 0.483000 0.454000 600 35 1.000000 0.050000 0.050000 1.200000 0.034000 0.041000
1559795206213504055	800 33 1.000000 0.033000 0.033000 900 30 0.900000 0.484000 0.454000 600 35 1.000000 0.050000 0.050000 1.200000 0.028000 0.033000
1559795206724164305	800 33 1.000000 0.033000 0.033000 900 30 0.900000 0.484000 0.454000 600 34 1.000000 0.050000 0.050000 1.200000 0.028000 0.033000
1559795207244887138	800 33 1.000000 0.037000 0.037000 900 30 0.900000 0.482000 0.453000 600 35 1.000000 0.050000 0.050000 1.200000 0.027000 0.032000
1559795207756024430	800 33 1.000000 0.070000 0.071000 900 30 0.900000 0.481000 0.452000 600 35 1.000000 0.050000 0.050000 1.200000 0.036000 0.043000
1559795208266823097	800 33 1.000000 0.036000 0.036000 900 30 0.900000 0.483000 0.454000 600 34 1.000000 0.050000 0.050000 1.200000 0.027000 0.032000
1559795208777449222	800 33 1.000000 0.034000 0.034000 900 30 0.900000 0.484000 0.454000 600 34 1.000000 0.050000 0.050000 1.200000 0.027000 0.032000
1559795209294725055	800 33 1.000000 0.033000 0.033000 900 30 0.900000 0.484000 0.454000 600 34 1.000000 0.051000 0.051000 1.200000 0.027000 0.032000
1559795209805639389	800 33 1.000000 0.061000 0.062000 900 30 0.900000 0.484000 0.454000 600 35 1.000000 0.050000 0.050000 1.200000 0.047000 0.056000
1559795210316292430	800 33 1.000000 0.035000 0.035000 900 30 0.900000 0.482000 0.453000 600 35 1.000000 0.050000 0.050000 1.200000 0.027000 0.032000
1559795210826943806	800 33 1.000000 0.037000 0.037000 900 30 0.900000 0.484000 0.455000 600 34 1.000000 0.050000 0.050000 1.200000 0.027000 0.032000
1559795211337741056	800 33 1.000000 0.035000 0.035000 900 30 0.900000 0.484000 0.454000 600 35 1.000000 0.050000 0.050000 1.200000 0.028000 0.033000
1559795211848552014	800 33 1.000000 0.071000 0.072000 900 30 0.900000 0.487000 0.457000 600 34 1.000000 0.050000 0.050000 1.200000 0.031000 0.037000
1559795212359303139	800 33 1.000000 0.033000 0.033000 900 30 0.900000 0.484000 0.454000 600 34 1.000000 0.051000 0.051000 1.200000 0.027000 0.032000
1559795212870059472	800 33 1.000000 0.033000 0.033000 900 30 0.900000 0.482000 0.453000 600 35 1.000000 0.050000 0.050000 1.200000 0.027000 0.032000
1559795213380501306	800 33 1.000000 0.035000 0.035000 900 30 0.900000 0.483000 0.454000 600 34 1.000000 0.050000 0.050000 1.200000 0.028000 0.033000
1559795213893472139	800 33 1.000000 0.041000 0.042000 900 30 0.900000 0.486000 0.457000 600 34 1.000000 0.050000 0.050000 1.200000 0.035000 0.042000
1559795214405468139	800 33 1.000000 0.063000 0.064000 900 30 0.900000 0.484000 0.455000 600 34 1.000000 0.050000 0.050000 1.200000 0.035000 0.042000
1559795214916067931	800 33 1.000000 0.035000 0.035000 900 30 0.900000 0.481000 0.452000 600 34 1.000000 0.050000 0.050000 1.200000 0.027000 0.032000
1559795215426838806	800 33 1.000000 0.035000 0.035000 900 30 0.900000 0.482000 0.453000 600 34 1.000000 0.050000 0.050000 1.200000 0.027000 0.032000
1559795215938431223	800 33 1.000000 0.052000 0.053000 900 30 0.900000 0.485000 0.455000 600 34 1.000000 0.050000 0.050000 1.200000 0.033000 0.039000
1559795216449619890	800 33 1.000000 0.065000 0.066000 900 30 0.900000 0.485000 0.455000 600 35 1.000000 0.050000 0.050000 1.200000 0.046000 0.055000
1559795216960277306	800 33 1.000000 0.033000 0.033000 900 30 0.900000 0.482000 0.453000 600 34 1.000000 0.050000 0.050000 1.200000 0.026000 0.031000
1559795217471022556	800 33 1.000000 0.033000 0.033000 900 30 0.900000 0.481000 0.452000 600 35 1.000000 0.050000 0.050000 1.200000 0.027000 0.032000
1559795217981788181	800 33 1.000000 0.036000 0.036000 900 30 0.900000 0.481000 0.452000 600 35 1.000000 0.050000 0.050000 1.200000 0.027000 0.032000
1559795218492424431	800 33 1.000000 0.045000 0.046000 900 30 0.900000 0.483000 0.454000 600 34 1.000000 0.050000 0.050000 1.200000 0.027000 0.032000
1559795219003276473	800 33 1.000000 0.037000 0.037000 900 30 0.900000 0.484000 0.455000 600 34 1.000000 0.050000 0.050000 1.200000 0.027000 0.032000
1559795219513985390	800 33 1.000000 0.033000 0.033000 900 30 0.900000 0.484000 0.455000 600 34 1.000000 0.050000 0.050000 1.200000 0.027000 0.032000
1559795220024752765	800 33 1.000000 0.035000 0.035000 900 30 0.900000 0.482000 0.453000 600 34 1.000000 0.050000 0.050000 1.200000 0.027000 0.032000
1559795220537619265	800 33 1.000000 0.036000 0.036000 900 30 0.900000 0.482000 0.453000 600 34 1.000000 0.050000 0.050000 1.200000 0.028000 0.033000
1559795221048687390	800 33 1.000000 0.072000 0.073000 900 30 0.900000 0.484000 0.455000 600 34 1.000000 0.051000 0.051000 1.200000 0.037000 0.044000
1559795221559532348	800 33 1.000000 0.036000 0.036000 900 30 0.900000 0.484000 0.454000 600 34 1.000000 0.050000 0.050000 1.200000 0.028000 0.033000
1559795222070356140	800 33 1.000000 0.035000 0.035000 900 30 0.900000 0.484000 0.454000 600 34 1.000000 0.050000 0.050000 1.200000 0.027000 0.032000
1559795222582250640	800 33 1.000000 0.037000 0.037000 900 30 0.900000 0.481000 0.452000 600 34 1.000000 0.050000 0.050000 1.200000 0.028000 0.033000
1559795223093466432	800 33 1.000000 0.072000 0.073000 900 30 0.900000 0.484000 0.454000 600 34 1.000000 0.050000 0.050000 1.200000 0.045000 0.054000
1559795223604145932	800 33 1.000000 0.034000 0.034000 900 30 0.900000 0.484000 0.454000 600 34 1.000000 0.050000 0.050000 1.200000 0.026000 0.031000
1559795224115043099	800 33 1.000000 0.046000 0.047000 900 30 0.900000 0.485000 0.455000 600 34 1.000000 0.050000 0.050000 1.200000 0.027000 0.032000
1559795224625717390	800 33 1.000000 0.033000 0.033000 900 30 0.900000 0.482000 0.453000 600 34 1.000000 0.050000 0.050000 1.200000 0.027000 0.032000
1559795225136516391	800 33 1.000000 0.076000 0.077000 900 30 0.900000 0.484000 0.455000 600 34 1.000000 0.050000 0.050000 1.200000 0.048000 0.058000
1559795225647517057	800 33 1.000000 0.033000 0.033000 900 30 0.900000 0.483000 0.454000 600 34 1.000000 0.050000 0.050000 1.200000 0.027000 0.032000
1559795226158312557	800 33 1.000000 0.033000 0.033000 900 30 0.900000 0.484000 0.454000 600 34 1.000000 0.050000 0.050000 1.200000 0.028000 0.033000
1559795226668842266	800 33 1.000000 0.053000 0.054000 900 30 0.900000 0.485000 0.456000 600 34 1.000000 0.050000 0.050000 1.200000 0.030000 0.036000
1559795227181774307	800 33 1.000000 0.035000 0.035000 900 30 0.900000 0.484000 0.455000 600 34 1.000000 0.050000 0.050000 1.200000 0.028000 0.033000
1559795227694175849	800 33 1.000000 0.080000 0.082000 900 30 0.900000 0.485000 0.456000 600 34 1.000000 0.050000 0.050000 1.200000 0.038000 0.045000
1559795228204789391	800 33 1.000000 0.037000 0.037000 900 30 0.900000 0.483000 0.454000 600 34 1.000000 0.050000 0.050000 1.200000 0.027000 0.032000
1559795228715644933	800 33 1.000000 0.050000 0.051000 900 30 0.900000 0.486000 0.457000 600 34 1.000000 0.050000 0.050000 1.200000 0.028000 0.033000
1559795229228631974	800 33 1.000000 0.035000 0.035000 900 30 0.900000 0.483000 0.454000 600 34 1.000000 0.050000 0.050000 1.200000 0.027000 0.032000
1559795229739925599	800 33 1.000000 0.078000 0.079000 900 30 0.900000 0.484000 0.455000 600 34 1.000000 0.050000 0.050000 1.200000 0.047000 0.056000
1559795230251049391	800 33 1.000000 0.034000 0.034000 900 30 0.900000 0.481000 0.452000 600 34 1.000000 0.050000 0.050000 1.200000 0.026000 0.031000
1559795230762068850	800 33 1.000000 0.036000 0.036000 900 30 0.900000 0.485000 0.456000 600 35 1.000000 0.050000 0.050000 1.200000 0.025000 0.030000
1559795231272704516	800 33 1.000000 0.033000 0.033000 900 30 0.900000 0.484000 0.455000 600 34 1.000000 0.050000 0.050000 1.200000 0.027000 0.032000
1559795231783592891	800 33 1.000000 0.078000 0.079000 900 30 0.900000 0.483000 0.454000 600 34 1.000000 0.050000 0.050000 1.200000 0.047000 0.056000
1559795232295472141	800 33 1.000000 0.035000 0.035000 900 30 0.900000 0.482000 0.453000 600 34 1.000000 0.050000 0.050000 1.200000 0.026000 0.031000
1559795232806632266	800 33 1.000000 0.054000 0.055000 900 30 0.900000 0.484000 0.454000 600 34 1.000000 0.050000 0.050000 1.200000 0.028000 0.033000
1559795233317432475	800 33 1.000000 0.037000 0.037000 900 30 0.900000 0.484000 0.455000 600 34 1.000000 0.050000 0.050000 1.200000 0.027000 0.032000
1559795233829495892	800 33 1.000000 0.034000 0.034000 900 30 0.900000 0.484000 0.455000 600 34 1.000000 0.050000 0.050000 1.200000 0.038000 0.045000
1559795234341116850	800 33 1.000000 0.081000 0.083000 900 30 0.900000 0.482000 0.453000 600 34 1.000000 0.050000 0.050000 1.200000 0.038000 0.045000
1559795234852063642	800 33 1.000000 0.054000 0.055000 900 30 0.900000 0.483000 0.454000 600 34 1.000000 0.050000 0.050000 1.200000 0.034000 0.041000
1559795235363024892	800 33 1.000000 0.037000 0.037000 900 30 0.900000 0.481000 0.452000 600 34 1.000000 0.050000 0.050000 1.200000 0.027000 0.032000
1559795235876763933	800 33 1.000000 0.035000 0.035000 900 30 0.900000 0.484000 0.455000 600 34 1.000000 0.050000 0.050000 1.200000 0.028000 0.033000
1559795236387693684	800 33 1.000000 0.077000 0.078000 900 30 0.900000 0.487000 0.458000 600 34 1.000000 0.050000 0.050000 1.200000 0.048000 0.058000
1559795236898506517	800 33 1.000000 0.054000 0.055000 900 30 0.900000 0.485000 0.456000 600 34 1.000000 0.050000 0.050000 1.200000 0.031000 0.037000
1559795237408998684	800 33 1.000000 0.033000 0.033000 900 30 0.900000 0.482000 0.453000 600 34 1.000000 0.050000 0.050000 1.200000 0.026000 0.031000
1559795237919661684	800 33 1.000000 0.033000 0.033000 900 30 0.900000 0.482000 0.453000 600 34 1.000000 0.050000 0.050000 1.200000 0.027000 0.032000
1559795238430306725	800 33 1.000000 0.076000 0.077000 900 30 0.900000 0.485000 0.455000 600 34 1.000000 0.050000 0.050000 1.200000 0.047000 0.056000
1559795238940890101	800 33 1.000000 0.048000 0.049000 900 30 0.900000 0.487000 0.458000 600 34 1.000000 0.050000 0.050000 1.200000 0.031000 0.037000
1559795239451479684	800 33 1.000000 0.035000 0.035000 900 30 0.900000 0.483000 0.454000 600 34 1.000000 0.050000 0.050000 1.200000 0.026000 0.031000
1559795239962069934	800 33 1.000000 0.035000 0.035000 900 30 0.900000 0.481000 0.452000 600 34 1.000000 0.050000 0.050000 1.200000 0.025000 0.030000
1559795240474769851	800 33 1.000000 0.037000 0.037000 900 30 0.900000 0.483000 0.454000 600 34 1.000000 0.050000 0.050000 1.200000 0.036000 0.043000
1559795240985777767	800 33 1.000000 0.053000 0.054000 900 30 0.900000 0.486000 0.457000 600 34 1.000000 0.050000 0.050000 1.200000 0.029000 0.035000
1559795241496410934	800 33 1.000000 0.033000 0.033000 900 30 0.900000 0.483000 0.454000 600 34 1.000000 0.050000 0.050000 1.200000 0.026000 0.031000
1559795242007018393	800 33 1.000000 0.033000 0.033000 900 30 0.900000 0.482000 0.453000 600 34 1.000000 0.050000 0.050000 1.200000 0.028000 0.033000
1559795242518767434	800 33 1.000000 0.037000 0.037000 900 30 0.900000 0.482000 0.453000 600 34 1.000000 0.050000 0.050000 1.200000 0.028000 0.033000
1559795243029817934	800 33 1.000000 0.076000 0.077000 900 30 0.900000 0.484000 0.455000 600 34 1.000000 0.050000 0.050000 1.200000 0.028000 0.033000
1559795243540453393	800 33 1.000000 0.035000 0.035000 900 30 0.900000 0.484000 0.455000 600 34 1.000000 0.050000 0.050000 1.200000 0.027000 0.032000
1559795244051179476	800 33 1.000000 0.037000 0.037000 900 30 0.900000 0.484000 0.455000 600 34 1.000000 0.050000 0.050000 1.200000 0.027000 0.032000
1559795244561955060	800 33 1.000000 0.033000 0.033000 900 30 0.900000 0.483000 0.454000 600 34 1.000000 0.050000 0.050000 1.200000 0.027000 0.032000
1559795245072644476	800 33 1.000000 0.035000 0.035000 900 30 0.900000 0.482000 0.453000 600 34 1.000000 0.050000 0.050000 1.200000 0.028000 0.033000
1559795245583448060	800 33 1.000000 0.044000 0.045000 900 30 0.900000 0.483000 0.454000 600 34 1.000000 0.050000 0.050000 1.200000 0.031000 0.037000
1559795246094318685	800 33 1.000000 0.035000 0.035000 900 30 0.900000 0.485000 0.456000 600 34 1.000000 0.050000 0.050000 1.200000 0.027000 0.032000
1559795246604791268	800 33 1.000000 0.035000 0.035000 900 30 0.900000 0.484000 0.455000 600 34 1.000000 0.050000 0.050000 1.200000 0.027000 0.032000
1559795247117636810	800 33 1.000000 0.037000 0.037000 900 30 0.900000 0.482000 0.453000 600 34 1.000000 0.050000 0.050000 1.200000 0.027000 0.032000
1559795247629820143	800 33 1.000000 0.046000 0.047000 900 30 0.900000 0.483000 0.454000 600 34 1.000000 0.050000 0.050000 1.200000 0.040000 0.048000
1559795248140547935	800 33 1.000000 0.033000 0.033000 900 30 0.900000 0.491000 0.462000 600 34 1.000000 0.050000 0.050000 1.200000 0.028000 0.033000
1559795248651396018	800 33 1.000000 0.033000 0.033000 900 30 0.900000 0.492000 0.462000 600 34 1.000000 0.050000 0.050000 1.200000 0.028000 0.033000
1559795249163216393	800 33 1.000000 0.040000 0.041000 900 30 0.900000 0.491000 0.462000 600 34 1.000000 0.050000 0.050000 1.200000 0.027000 0.032000
1559795249674202227	800 33 1.000000 0.048000 0.049000 900 30 0.900000 0.492000 0.462000 600 34 1.000000 0.050000 0.050000 1.200000 0.050000 0.060000
1559795250184826935	800 33 1.000000 0.033000 0.033000 900 30 0.900000 0.489000 0.459000 600 34 1.000000 0.050000 0.050000 1.200000 0.027000 0.032000
1559795250695558352	800 33 1.000000 0.036000 0.036000 900 30 0.900000 0.490000 0.460000 600 34 1.000000 0.050000 0.050000 1.200000 0.028000 0.033000
1559795251206411685	800 33 1.000000 0.036000 0.036000 900 30 0.900000 0.492000 0.462000 600 34 1.000000 0.051000 0.051000 1.200000 0.027000 0.032000
1559795251717125977	800 33 1.000000 0.053000 0.054000 900 30 0.900000 0.494000 0.464000 600 34 1.000000 0.050000 0.050000 1.200000 0.033000 0.039000
1559795252227695769	800 33 1.000000 0.053000 0.054000 900 30 0.900000 0.489000 0.459000 600 34 1.000000 0.050000 0.050000 1.200000 0.031000 0.037000
1559795252738374436	800 33 1.000000 0.037000 0.037000 900 30 0.900000 0.490000 0.461000 600 34 1.000000 0.050000 0.050000 1.200000 0.028000 0.033000
1559795253249086686	800 33 1.000000 0.035000 0.035000 900 30 0.900000 0.491000 0.462000 600 34 1.000000 0.050000 0.050000 1.200000 0.027000 0.032000
1559795253760789936	800 33 1.000000 0.054000 0.055000 900 30 0.900000 0.493000 0.463000 600 34 1.000000 0.050000 0.050000 1.200000 0.034000 0.041000
1559795254271863436	800 33 1.000000 0.053000 0.054000 900 30 0.900000 0.491000 0.462000 600 34 1.000000 0.050000 0.050000 1.200000 0.041000 0.049000
1559795254782710602	800 33 1.000000 0.035000 0.035000 900 30 0.900000 0.489000 0.460000 600 34 1.000000 0.050000 0.050000 1.200000 0.028000 0.033000
1559795255294130894	800 33 1.000000 0.033000 0.033000 900 30 0.900000 0.490000 0.461000 600 34 1.000000 0.050000 0.050000 1.200000 0.028000 0.033000
1559795255806167853	800 33 1.000000 0.033000 0.033000 900 30 0.900000 0.492000 0.462000 600 34 1.000000 0.050000 0.050000 1.200000 0.033000 0.039000
1559795256317005686	800 33 1.000000 0.055000 0.056000 900 30 0.900000 0.494000 0.464000 600 34 1.000000 0.050000 0.050000 1.200000 0.049000 0.059000
1559795256827676769	800 33 1.000000 0.033000 0.033000 900 30 0.900000 0.490000 0.461000 600 34 1.000000 0.050000 0.050000 1.200000 0.026000 0.031000
1559795257339093936	800 33 1.000000 0.033000 0.033000 900 30 0.900000 0.489000 0.459000 600 34 1.000000 0.050000 0.050000 1.200000 0.026000 0.031000
1559795257850263644	800 33 1.000000 0.055000 0.056000 900 30 0.900000 0.491000 0.462000 600 34 1.000000 0.050000 0.050000 1.200000 0.029000 0.035000
1559795258361026145	800 33 1.000000 0.056000 0.057000 900 30 0.900000 0.496000 0.466000 600 34 1.000000 0.050000 0.050000 1.200000 0.044000 0.053000
1559795258871841186	800 33 1.000000 0.058000 0.059000 900 30 0.900000 0.492000 0.462000 600 34 1.000000 0.050000 0.050000 1.200000 0.032000 0.038000
1559795259382544520	800 33 1.000000 0.037000 0.037000 900 30 0.900000 0.491000 0.462000 600 34 1.000000 0.050000 0.050000 1.200000 0.027000 0.032000
1559795259893409395	800 33 1.000000 0.051000 0.052000 900 30 0.900000 0.490000 0.461000 600 34 1.000000 0.050000 0.050000 1.200000 0.033000 0.039000
1559795260405877603	800 32 1.000000 0.034000 0.034000 900 30 0.900000 0.489000 0.460000 600 35 1.000000 0.050000 0.050000 1.200000 0.028000 0.033000
1559795260918923311	800 35 1.000000 0.066000 0.067000 900 31 0.900000 0.680000 0.640000 600 38 1.000000 0.050000 0.050000 1.200000 0.087000 0.105000
1559795261431781062	800 36 1.000000 0.151000 0.154000 900 32 0.900000 1.606000 1.519000 600 40 1.000000 0.050000 0.050000 1.200000 0.087000 0.105000
1559795261944809562	800 36 1.000000 0.170000 0.173000 900 32 0.900000 1.603000 1.516000 600 41 1.000000 0.051000 0.051000 1.200000 0.091000 0.110000
1559795262460256395	800 37 1.000000 0.149000 0.152000 900 33 0.900000 1.608000 1.521000 600 41 1.000000 0.051000 0.051000 1.200000 0.087000 0.105000
1559795262973755603	800 37 1.000000 0.180000 0.183000 900 33 0.900000 1.598000 1.511000 600 42 1.000000 0.050000 0.050000 1.200000 0.103000 0.124000
1559795263486707145	800 38 1.000000 0.150000 0.153000 900 33 0.900000 1.608000 1.521000 600 42 1.000000 0.051000 0.051000 1.200000 0.086000 0.104000
1559795263999785895	800 38 1.000000 0.154000 0.157000 900 34 0.900000 1.605000 1.518000 600 42 1.000000 0.051000 0.051000 1.200000 0.091000 0.110000
1559795264512589812	800 38 1.000000 0.152000 0.155000 900 34 0.900000 1.608000 1.521000 600 43 1.000000 0.050000 0.050000 1.200000 0.086000 0.104000
1559795265025396895	800 38 1.000000 0.155000 0.158000 900 34 0.900000 1.598000 1.511000 600 43 1.000000 0.051000 0.051000 1.200000 0.094000 0.113000
1559795265538450604	800 39 1.000000 0.152000 0.155000 900 34 0.900000 1.611000 1.524000 600 43 1.000000 0.051000 0.051000 1.200000 0.086000 0.104000
1559795266051591854	800 39 1.000000 0.170000 0.173000 900 34 0.900000 1.607000 1.520000 600 43 1.000000 0.051000 0.051000 1.200000 0.091000 0.110000
1559795266564720562	800 39 1.000000 0.150000 0.153000 900 35 0.900000 1.610000 1.523000 600 43 1.000000 0.051000 0.051000 1.200000 0.086000 0.104000
1559795267078991854	800 39 1.000000 0.150000 0.153000 900 35 0.900000 1.610000 1.523000 600 43 1.000000 0.051000 0.051000 1.200000 0.086000 0.104000
1559795267591948687	800 39 1.000000 0.153000 0.156000 900 35 0.900000 1.602000 1.515000 600 44 1.000000 0.051000 0.051000 1.200000 0.087000 0.105000
1559795268105084104	800 39 1.000000 0.152000 0.155000 900 35 0.900000 1.611000 1.524000 600 44 1.000000 0.051000 0.051000 1.200000 0.087000 0.105000
1559795268618094104	800 39 1.000000 0.152000 0.155000 900 35 0.900000 1.609000 1.522000 600 44 1.000000 0.051000 0.051000 1.200000 0.087000 0.105000
1559795269131053687	800 39 1.000000 0.152000 0.155000 900 35 0.900000 1.610000 1.523000 600 44 1.000000 0.051000 0.051000 1.200000 0.087000 0.105000
1559795269644104479	800 40 1.000000 0.183000 0.187000 900 35 0.900000 1.612000 1.524000 600 44 1.000000 0.051000 0.051000 1.200000 0.094000 0.113000
1559795270156970021	800 40 1.000000 0.159000 0.162000 900 35 0.900000 1.610000 1.523000 600 44 1.000000 0.051000 0.051000 1.200000 0.087000 0.105000
1559795270669949979	800 39 1.000000 0.162000 0.165000 900 35 0.900000 1.610000 1.523000 600 44 1.000000 0.051000 0.051000 1.200000 0.087000 0.105000
1559795271182970896	800 40 1.000000 0.152000 0.155000 900 35 0.900000 1.610000 1.521000 600 44 1.000000 0.051000 0.051000 1.200000 0.087000 0.105000
1559795271696654938	800 40 1.000000 0.151000 0.154000 900 35 0.900000 1.612000 1.524000 600 44 1.000000 0.051000 0.051000 1.200000 0.086000 0.104000
1559795272210196479	800 40 1.000000 0.173000 0.176000 900 36 0.900000 1.604000 1.517000 600 44 1.000000 0.051000 0.051000 1.200000 0.087000 0.105000
1559795272723268938	800 40 1.000000 0.152000 0.155000 900 35 0.900000 1.611000 1.524000 600 44 1.000000 0.051000 0.051000 1.200000 0.086000 0.104000
1559795273236117855	800 40 1.000000 0.152000 0.155000 900 36 0.900000 1.611000 1.524000 600 44 1.000000 0.051000 0.051000 1.200000 0.086000 0.104000
1559795273751796646	800 40 1.000000 0.149000 0.152000 900 35 0.900000 1.610000 1.523000 600 45 1.000000 0.051000 0.051000 1.200000 0.086000 0.104000
1559795274265021105	800 40 1.000000 0.180000 0.183000 900 36 0.900000 1.600000 1.513000 600 45 1.000000 0.051000 0.051000 1.200000 0.097000 0.117000
1559795274777982646	800 40 1.000000 0.150000 0.153000 900 36 0.900000 1.610000 1.523000 600 45 1.000000 0.051000 0.051000 1.200000 0.086000 0.104000
1559795275291260272	800 40 1.000000 0.150000 0.153000 900 36 0.900000 1.610000 1.523000 600 45 1.000000 0.051000 0.051000 1.200000 0.086000 0.104000
1559795275804298563	800 40 1.000000 0.150000 0.153000 900 36 0.900000 1.609000 1.522000 600 45 1.000000 0.051000 0.051000 1.200000 0.086000 0.104000
1559795276316946272	800 40 1.000000 0.203000 0.207000 900 36 0.900000 1.605000 1.518000 600 45 1.000000 0.051000 0.051000 1.200000 0.103000 0.124000
1559795276829967355	800 40 1.000000 0.157000 0.160000 900 36 0.900000 1.610000 1.523000 600 45 1.000000 0.051000 0.051000 1.200000 0.086000 0.104000
1559795277343108813	800 40 1.000000 0.150000 0.153000 900 36 0.900000 1.612000 1.524000 600 45 1.000000 0.051000 0.051000 1.200000 0.087000 0.105000
1559795277856224230	800 40 1.000000 0.152000 0.155000 900 36 0.900000 1.612000 1.524000 600 45 1.000000 0.051000 0.051000 1.200000 0.087000 0.105000
1559795278372161772	800 40 1.000000 0.152000 0.155000 900 36 0.900000 1.612000 1.524000 600 45 1.000000 0.051000 0.051000 1.200000 0.087000 0.105000
1559795278885843564	800 40 1.000000 0.207000 0.211000 900 36 0.900000 1.599000 1.512000 600 45 1.000000 0.051000 0.051000 1.200000 0.099000 0.119000
1559795279398793605	800 40 1.000000 0.152000 0.155000 900 36 0.900000 1.611000 1.524000 600 45 1.000000 0.051000 0.051000 1.200000 0.087000 0.105000
1559795279911951772	800 40 1.000000 0.153000 0.156000 900 36 0.900000 1.610000 1.523000 600 45 1.000000 0.051000 0.051000 1.200000 0.086000 0.104000
1559795280426384939	800 40 1.000000 0.153000 0.156000 900 36 0.900000 1.612000 1.524000 600 45 1.000000 0.051000 0.051000 1.200000 0.086000 0.104000
1559795280939373981	800 40 1.000000 0.198000 0.202000 900 36 0.900000 1.605000 1.518000 600 45 1.000000 0.051000 0.051000 1.200000 0.102000 0.123000
1559795281452631231	800 40 1.000000 0.150000 0.153000 900 36 0.900000 1.612000 1.524000 600 45 1.000000 0.051000 0.051000 1.200000 0.086000 0.104000
1559795281965744897	800 40 1.000000 0.150000 0.153000 900 36 0.900000 1.611000 1.524000 600 45 1.000000 0.051000 0.051000 1.200000 0.087000 0.105000
1559795282478565814	800 40 1.000000 0.151000 0.154000 900 36 0.900000 1.612000 1.524000 600 45 1.000000 0.051000 0.051000 1.200000 0.086000 0.104000
1559795282992175439	800 41 1.000000 0.169000 0.172000 900 36 0.900000 1.610000 1.523000 600 45 1.000000 0.051000 0.051000 1.200000 0.094000 0.113000
1559795283505575481	800 40 1.000000 0.177000 0.180000 900 36 0.900000 1.609000 1.522000 600 45 1.000000 0.051000 0.051000 1.200000 0.086000 0.104000
1559795284018686731	800 40 1.000000 0.153000 0.156000 900 36 0.900000 1.612000 1.524000 600 45 1.000000 0.051000 0.051000 1.200000 0.086000 0.104000
1559795284531777939	800 40 1.000000 0.152000 0.155000 900 36 0.900000 1.613000 1.525000 600 45 1.000000 0.051000 0.051000 1.200000 0.087000 0.105000
1559795285047738273	800 41 1.000000 0.171000 0.174000 900 36 0.900000 1.609000 1.522000 600 45 1.000000 0.051000 0.051000 1.200000 0.091000 0.110000
1559795285560981689	800 40 1.000000 0.185000 0.189000 900 36 0.900000 1.604000 1.517000 600 45 1.000000 0.051000 0.051000 1.200000 0.102000 0.123000
1559795286074500189	800 40 1.000000 0.152000 0.155000 900 36 0.900000 1.613000 1.525000 600 45 1.000000 0.051000 0.051000 1.200000 0.087000 0.105000
1559795286587375856	800 41 1.000000 0.151000 0.154000 900 36 0.900000 1.612000 1.524000 600 45 1.000000 0.051000 0.051000 1.200000 0.087000 0.105000
1559795287100445856	800 41 1.000000 0.157000 0.160000 900 36 0.900000 1.611000 1.524000 600 45 1.000000 0.051000 0.051000 1.200000 0.087000 0.105000
1559795287613574148	800 41 1.000000 0.153000 0.156000 900 36 0.900000 1.610000 1.523000 600 45 1.000000 0.051000 0.051000 1.200000 0.087000 0.105000
1559795288126584773	800 41 1.000000 0.154000 0.157000 900 36 0.900000 1.608000 1.521000 600 45 1.000000 0.051000 0.051000 1.200000 0.098000 0.118000
1559795288639644398	800 41 1.000000 0.154000 0.157000 900 36 0.900000 1.610000 1.523000 600 45 1.000000 0.051000 0.051000 1.200000 0.087000 0.105000
1559795289152521898	800 41 1.000000 0.171000 0.174000 900 36 0.900000 1.611000 1.524000 600 45 1.000000 0.051000 0.051000 1.200000 0.087000 0.105000
1559795289666259857	800 41 1.000000 0.155000 0.158000 900 37 0.900000 1.612000 1.524000 600 45 1.000000 0.051000 0.051000 1.200000 0.088000 0.106000
1559795290179640148	800 41 1.000000 0.188000 0.192000 900 37 0.900000 1.602000 1.515000 600 45 1.000000 0.051000 0.051000 1.200000 0.102000 0.123000
1559795290692531315	800 41 1.000000 0.153000 0.156000 900 36 0.900000 1.613000 1.525000 600 45 1.000000 0.051000 0.051000 1.200000 0.088000 0.106000
1559795291205693482	800 41 1.000000 0.153000 0.156000 900 37 0.900000 1.611000 1.524000 600 46 1.000000 0.051000 0.051000 1.200000 0.088000 0.106000
1559795291718626232	800 41 1.000000 0.154000 0.157000 900 37 0.900000 1.613000 1.525000 600 46 1.000000 0.051000 0.051000 1.200000 0.088000 0.106000
1559795292231695232	800 41 1.000000 0.180000 0.183000 900 37 0.900000 1.603000 1.516000 600 46 1.000000 0.051000 0.051000 1.200000 0.094000 0.113000
1559795292744945982	800 41 1.000000 0.152000 0.155000 900 37 0.900000 1.613000 1.525000 600 46 1.000000 0.051000 0.051000 1.200000 0.087000 0.105000
1559795293257990815	800 41 1.000000 0.161000 0.164000 900 37 0.900000 1.610000 1.523000 600 46 1.000000 0.051000 0.051000 1.200000 0.087000 0.105000
1559795293771101690	800 41 1.000000 0.152000 0.155000 900 37 0.900000 1.613000 1.525000 600 46 1.000000 0.051000 0.051000 1.200000 0.087000 0.105000
1559795294286150315	800 41 1.000000 0.169000 0.172000 900 37 0.900000 1.609000 1.522000 600 46 1.000000 0.051000 0.051000 1.200000 0.087000 0.105000
1559795294799853066	800 41 1.000000 0.152000 0.155000 900 37 0.900000 1.613000 1.525000 600 46 1.000000 0.051000 0.051000 1.200000 0.089000 0.107000
1559795295312960191	800 41 1.000000 0.169000 0.172000 900 37 0.900000 1.611000 1.524000 600 46 1.000000 0.051000 0.051000 1.200000 0.086000 0.104000
1559795295826120149	800 41 1.000000 0.155000 0.158000 900 37 0.900000 1.613000 1.525000 600 46 1.000000 0.051000 0.051000 1.200000 0.087000 0.105000
1559795296341944066	800 41 1.000000 0.152000 0.155000 900 37 0.900000 1.613000 1.525000 600 46 1.000000 0.051000 0.051000 1.200000 0.087000 0.105000
1559795296855285524	800 41 1.000000 0.161000 0.164000 900 37 0.900000 1.603000 1.516000 600 46 1.000000 0.051000 0.051000 1.200000 0.093000 0.112000
1559795297368068857	800 41 1.000000 0.153000 0.156000 900 37 0.900000 1.611000 1.524000 600 46 1.000000 0.051000 0.051000 1.200000 0.087000 0.105000
1559795297881533566	800 41 1.000000 0.171000 0.174000 900 37 0.900000 1.612000 1.524000 600 46 1.000000 0.051000 0.051000 1.200000 0.092000 0.111000
1559795298394671024	800 41 1.000000 0.155000 0.158000 900 37 0.900000 1.611000 1.524000 600 46 1.000000 0.051000 0.051000 1.200000 0.088000 0.106000
1559795298907617024	800 41 1.000000 0.155000 0.158000 900 37 0.900000 1.608000 1.521000 600 46 1.000000 0.051000 0.051000 1.200000 0.088000 0.106000
1559795299420680983	800 41 1.000000 0.155000 0.158000 900 37 0.900000 1.613000 1.525000 600 46 1.000000 0.051000 0.051000 1.200000 0.090000 0.108000
1559795299933904274	800 41 1.000000 0.153000 0.156000 900 37 0.900000 1.612000 1.524000 600 46 1.000000 0.051000 0.051000 1.200000 0.090000 0.108000
1559795300447217441	800 41 1.000000 0.152000 0.155000 900 37 0.900000 1.612000 1.523000 600 46 1.000000 0.051000 0.051000 1.200000 0.088000 0.106000
1559795300962233150	800 37 1.000000 0.121000 0.123000 900 36 0.900000 1.051000 0.994000 600 42 1.000000 0.051000 0.051000 1.200000 0.087000 0.105000
1559795301472936358	800 36 1.000000 0.035000 0.035000 900 35 0.900000 0.094000 0.089000 600 40 1.000000 0.051000 0.051000 1.200000 0.037000 0.044000
