#Timestamp	CPU(0) Frequency(MHz)	CPU(0) Temperature(C)	A7 Voltage(V)	A7 Current(A)	A7 Power(W)	CPU(4) Frequency(MHz)	CPU(4) Temperature(C)	A15 Voltage(V)	A15 Current(A)	A15 Power(W)	GPU Frequency(MHz)	GPU Temperature(C)	GPU Voltage(V)	GPU Current(A)	GPU Power(W)	RAM Voltage(V)	RAM Current(A)	RAM Power(W)
1560158843142302113	1100 33 1.100000 0.070000 0.079000 700 31 0.900000 0.427000 0.388000 600 35 1.000000 0.050000 0.050000 1.200000 0.047000 0.056000
1560158843652923404	1100 32 1.100000 0.052000 0.059000 700 31 0.900000 0.368000 0.335000 600 35 1.000000 0.050000 0.050000 1.200000 0.037000 0.044000
1560158844163373571	1100 32 1.100000 0.051000 0.057000 700 31 0.900000 0.307000 0.279000 600 35 1.000000 0.050000 0.050000 1.200000 0.033000 0.039000
1560158844673891196	1100 32 1.100000 0.051000 0.057000 700 30 0.900000 0.307000 0.279000 600 35 1.000000 0.051000 0.051000 1.200000 0.033000 0.039000
1560158845184408821	1100 32 1.100000 0.065000 0.073000 700 30 0.900000 0.425000 0.387000 600 35 1.000000 0.050000 0.050000 1.200000 0.042000 0.050000
1560158845694845821	1100 32 1.100000 0.053000 0.060000 700 30 0.900000 0.370000 0.337000 600 35 1.000000 0.051000 0.051000 1.200000 0.037000 0.044000
1560158846257279238	1100 34 1.100000 0.232000 0.261000 700 31 0.900000 0.889000 0.807000 600 37 1.000000 0.050000 0.050000 1.200000 0.036000 0.043000
1560158846817421321	1100 35 1.100000 0.450000 0.504000 700 32 0.900000 1.222000 1.107000 600 38 1.000000 0.050000 0.050000 1.200000 0.025000 0.030000
1560158847369256738	1100 36 1.100000 0.449000 0.503000 700 33 0.900000 1.203000 1.089000 600 39 1.000000 0.051000 0.051000 1.200000 0.029000 0.035000
1560158847933272613	1100 36 1.100000 0.448000 0.502000 700 33 0.900000 1.191000 1.079000 600 39 1.000000 0.051000 0.051000 1.200000 0.035000 0.042000
1560158848509310238	1100 37 1.100000 0.449000 0.503000 700 33 0.900000 1.220000 1.105000 600 40 1.000000 0.050000 0.050000 1.200000 0.026000 0.031000
1560158849077307447	1100 37 1.100000 0.451000 0.505000 700 33 0.900000 1.223000 1.108000 600 40 1.000000 0.051000 0.051000 1.200000 0.025000 0.030000
1560158849633382072	1100 37 1.100000 0.450000 0.504000 700 34 0.900000 1.221000 1.106000 600 40 1.000000 0.051000 0.051000 1.200000 0.025000 0.030000
1560158850193395905	1100 37 1.100000 0.451000 0.505000 700 34 0.900000 1.203000 1.089000 600 40 1.000000 0.051000 0.051000 1.200000 0.030000 0.036000
1560158850761303155	1100 37 1.100000 0.449000 0.503000 700 34 0.900000 1.205000 1.091000 600 40 1.000000 0.051000 0.051000 1.200000 0.030000 0.036000
1560158851325268155	1100 38 1.100000 0.449000 0.503000 700 34 0.900000 1.219000 1.104000 600 41 1.000000 0.051000 0.051000 1.200000 0.028000 0.033000
1560158851881303239	1100 38 1.100000 0.451000 0.505000 700 34 0.900000 1.225000 1.109000 600 41 1.000000 0.051000 0.051000 1.200000 0.025000 0.030000
1560158852433300155	1100 38 1.100000 0.451000 0.505000 700 34 0.900000 1.218000 1.103000 600 41 1.000000 0.051000 0.051000 1.200000 0.027000 0.032000
1560158852989369447	1100 38 1.100000 0.452000 0.506000 700 34 0.900000 1.226000 1.110000 600 41 1.000000 0.051000 0.051000 1.200000 0.025000 0.030000
1560158853553283530	1100 38 1.100000 0.449000 0.503000 700 34 0.900000 1.223000 1.108000 600 41 1.000000 0.051000 0.051000 1.200000 0.029000 0.035000
1560158854101235072	1100 38 1.100000 0.449000 0.503000 700 34 0.900000 1.211000 1.097000 600 41 1.000000 0.051000 0.051000 1.200000 0.030000 0.036000
1560158854665292364	1100 38 1.100000 0.450000 0.504000 700 34 0.900000 1.213000 1.098000 600 41 1.000000 0.051000 0.051000 1.200000 0.032000 0.038000
1560158855229329906	1100 38 1.100000 0.451000 0.505000 700 35 0.900000 1.220000 1.105000 600 41 1.000000 0.051000 0.051000 1.200000 0.026000 0.031000
1560158855785337281	1100 38 1.100000 0.451000 0.505000 700 35 0.900000 1.220000 1.105000 600 41 1.000000 0.051000 0.051000 1.200000 0.026000 0.031000
1560158856349531656	1100 38 1.100000 0.451000 0.505000 700 34 0.900000 1.224000 1.108000 600 41 1.000000 0.051000 0.051000 1.200000 0.025000 0.030000
1560158856901343614	1100 38 1.100000 0.447000 0.501000 700 35 0.900000 1.184000 1.072000 600 41 1.000000 0.051000 0.051000 1.200000 0.039000 0.047000
1560158857461306906	1100 38 1.100000 0.451000 0.505000 700 35 0.900000 1.204000 1.090000 600 41 1.000000 0.051000 0.051000 1.200000 0.030000 0.036000
1560158858017292406	1100 38 1.100000 0.451000 0.505000 700 35 0.900000 1.225000 1.109000 600 41 1.000000 0.051000 0.051000 1.200000 0.026000 0.031000
1560158858577413864	1100 38 1.100000 0.451000 0.505000 700 35 0.900000 1.221000 1.106000 600 41 1.000000 0.051000 0.051000 1.200000 0.026000 0.031000
1560158859145340073	1100 38 1.100000 0.450000 0.504000 700 35 0.900000 1.208000 1.094000 600 41 1.000000 0.051000 0.051000 1.200000 0.028000 0.033000
1560158859701314740	1100 38 1.100000 0.450000 0.504000 700 35 0.900000 1.210000 1.096000 600 41 1.000000 0.051000 0.051000 1.200000 0.028000 0.033000
1560158860257271656	1100 38 1.100000 0.451000 0.505000 700 35 0.900000 1.212000 1.098000 600 41 1.000000 0.051000 0.051000 1.200000 0.029000 0.035000
1560158860809447865	1100 38 1.100000 0.451000 0.505000 700 35 0.900000 1.227000 1.111000 600 41 1.000000 0.051000 0.051000 1.200000 0.025000 0.030000
1560158861373324740	1100 38 1.100000 0.452000 0.506000 700 35 0.900000 1.209000 1.095000 600 41 1.000000 0.051000 0.051000 1.200000 0.030000 0.036000
1560158861937365906	1100 38 1.100000 0.451000 0.505000 700 35 0.900000 1.223000 1.108000 600 41 1.000000 0.051000 0.051000 1.200000 0.025000 0.030000
1560158862501314115	1100 38 1.100000 0.451000 0.505000 700 35 0.900000 1.216000 1.101000 600 41 1.000000 0.051000 0.051000 1.200000 0.026000 0.031000
1560158863061300323	1100 38 1.100000 0.449000 0.503000 700 35 0.900000 1.201000 1.088000 600 41 1.000000 0.051000 0.051000 1.200000 0.028000 0.033000
1560158863625314407	1100 38 1.100000 0.448000 0.502000 700 35 0.900000 1.201000 1.088000 600 41 1.000000 0.051000 0.051000 1.200000 0.034000 0.041000
1560158864177242573	1100 38 1.100000 0.452000 0.506000 700 35 0.900000 1.224000 1.108000 600 41 1.000000 0.051000 0.051000 1.200000 0.025000 0.030000
1560158864741281823	1100 38 1.100000 0.452000 0.506000 700 35 0.900000 1.222000 1.107000 600 41 1.000000 0.051000 0.051000 1.200000 0.026000 0.031000
1560158865297167365	1100 38 1.100000 0.452000 0.506000 700 35 0.900000 1.218000 1.103000 600 41 1.000000 0.051000 0.051000 1.200000 0.024000 0.028000
1560158865849199365	1100 38 1.100000 0.451000 0.505000 700 35 0.900000 1.200000 1.087000 600 41 1.000000 0.051000 0.051000 1.200000 0.031000 0.037000
1560158866401385199	1100 38 1.100000 0.451000 0.505000 700 35 0.900000 1.201000 1.088000 600 41 1.000000 0.051000 0.051000 1.200000 0.027000 0.032000
1560158866973324157	1100 38 1.100000 0.452000 0.506000 700 35 0.900000 1.220000 1.105000 600 41 1.000000 0.051000 0.051000 1.200000 0.025000 0.030000
1560158867529468115	1100 38 1.100000 0.450000 0.504000 700 35 0.900000 1.221000 1.106000 600 41 1.000000 0.051000 0.051000 1.200000 0.025000 0.030000
1560158868085279116	1100 38 1.100000 0.450000 0.504000 700 35 0.900000 1.206000 1.092000 600 41 1.000000 0.051000 0.051000 1.200000 0.030000 0.036000
1560158868645227616	1100 38 1.100000 0.451000 0.505000 700 35 0.900000 1.213000 1.098000 600 41 1.000000 0.051000 0.051000 1.200000 0.028000 0.033000
1560158869209269699	1100 38 1.100000 0.450000 0.504000 700 35 0.900000 1.199000 1.086000 600 41 1.000000 0.051000 0.051000 1.200000 0.027000 0.032000
1560158869765276574	1100 38 1.100000 0.452000 0.506000 700 35 0.900000 1.222000 1.107000 600 41 1.000000 0.051000 0.051000 1.200000 0.024000 0.028000
1560158870317259449	1100 38 1.100000 0.452000 0.506000 700 35 0.900000 1.218000 1.103000 600 41 1.000000 0.051000 0.051000 1.200000 0.026000 0.031000
1560158870881323783	1100 38 1.100000 0.451000 0.505000 700 35 0.900000 1.220000 1.105000 600 41 1.000000 0.051000 0.051000 1.200000 0.025000 0.030000
1560158871441247283	1100 38 1.100000 0.453000 0.507000 700 35 0.900000 1.212000 1.098000 600 41 1.000000 0.051000 0.051000 1.200000 0.025000 0.030000
1560158872009321824	1100 38 1.100000 0.451000 0.505000 700 35 0.900000 1.202000 1.089000 600 41 1.000000 0.051000 0.051000 1.200000 0.027000 0.032000
1560158872569320241	1100 38 1.100000 0.451000 0.505000 700 35 0.900000 1.203000 1.089000 600 41 1.000000 0.051000 0.051000 1.200000 0.030000 0.036000
1560158873133287866	1100 38 1.100000 0.451000 0.505000 700 35 0.900000 1.220000 1.105000 600 41 1.000000 0.051000 0.051000 1.200000 0.026000 0.031000
1560158873689249408	1100 38 1.100000 0.452000 0.506000 700 35 0.900000 1.221000 1.106000 600 41 1.000000 0.051000 0.051000 1.200000 0.025000 0.030000
1560158874249190616	1100 38 1.100000 0.451000 0.505000 700 35 0.900000 1.217000 1.102000 600 41 1.000000 0.051000 0.051000 1.200000 0.027000 0.032000
1560158874809211658	1100 38 1.100000 0.451000 0.505000 700 35 0.900000 1.204000 1.090000 600 41 1.000000 0.051000 0.051000 1.200000 0.028000 0.033000
1560158875373253241	1100 38 1.100000 0.450000 0.504000 700 35 0.900000 1.209000 1.095000 600 41 1.000000 0.051000 0.051000 1.200000 0.028000 0.033000
1560158875937267825	1100 38 1.100000 0.451000 0.505000 700 35 0.900000 1.223000 1.108000 600 41 1.000000 0.051000 0.051000 1.200000 0.026000 0.031000
1560158876501364492	1100 38 1.100000 0.452000 0.506000 700 35 0.900000 1.222000 1.105000 600 41 1.000000 0.051000 0.051000 1.200000 0.026000 0.031000
1560158877065306283	1100 38 1.100000 0.451000 0.505000 700 35 0.900000 1.224000 1.108000 600 41 1.000000 0.051000 0.051000 1.200000 0.026000 0.031000
1560158877633385825	1100 38 1.100000 0.451000 0.505000 700 35 0.900000 1.217000 1.102000 600 41 1.000000 0.051000 0.051000 1.200000 0.028000 0.033000
1560158878189350992	1100 38 1.100000 0.452000 0.506000 700 35 0.900000 1.202000 1.089000 600 41 1.000000 0.051000 0.051000 1.200000 0.028000 0.033000
1560158878749316742	1100 38 1.100000 0.451000 0.505000 700 35 0.900000 1.212000 1.098000 600 41 1.000000 0.051000 0.051000 1.200000 0.028000 0.033000
1560158879305261700	1100 38 1.100000 0.451000 0.505000 700 35 0.900000 1.219000 1.104000 600 41 1.000000 0.051000 0.051000 1.200000 0.025000 0.030000
1560158879869249867	1100 38 1.100000 0.451000 0.505000 700 35 0.900000 1.221000 1.106000 600 41 1.000000 0.051000 0.051000 1.200000 0.024000 0.028000
1560158880425342367	1100 38 1.100000 0.451000 0.505000 700 35 0.900000 1.224000 1.108000 600 41 1.000000 0.051000 0.051000 1.200000 0.026000 0.031000
1560158880993475367	1100 38 1.100000 0.451000 0.505000 700 35 0.900000 1.188000 1.075000 600 41 1.000000 0.051000 0.051000 1.200000 0.028000 0.033000
1560158881553260034	1100 38 1.100000 0.451000 0.505000 700 35 0.900000 1.212000 1.096000 600 41 1.000000 0.051000 0.051000 1.200000 0.028000 0.033000
1560158882117304951	1100 39 1.100000 0.451000 0.505000 700 35 0.900000 1.217000 1.102000 600 41 1.000000 0.051000 0.051000 1.200000 0.026000 0.031000
1560158882697308784	1100 38 1.100000 0.451000 0.505000 700 35 0.900000 1.221000 1.106000 600 42 1.000000 0.051000 0.051000 1.200000 0.024000 0.028000
1560158883249487492	1100 38 1.100000 0.451000 0.505000 700 35 0.900000 1.213000 1.097000 600 42 1.000000 0.051000 0.051000 1.200000 0.031000 0.037000
1560158883797300909	1100 38 1.100000 0.450000 0.504000 700 35 0.900000 1.198000 1.085000 600 41 1.000000 0.051000 0.051000 1.200000 0.029000 0.035000
1560158884357302034	1100 38 1.100000 0.450000 0.504000 700 35 0.900000 1.203000 1.088000 600 41 1.000000 0.051000 0.051000 1.200000 0.030000 0.036000
1560158884917317368	1100 38 1.100000 0.451000 0.505000 700 35 0.900000 1.226000 1.110000 600 41 1.000000 0.051000 0.051000 1.200000 0.025000 0.030000
1560158885489309826	1100 38 1.100000 0.450000 0.504000 700 35 0.900000 1.216000 1.101000 600 41 1.000000 0.051000 0.051000 1.200000 0.030000 0.036000
1560158886053294701	1100 38 1.100000 0.451000 0.505000 700 35 0.900000 1.221000 1.105000 600 41 1.000000 0.051000 0.051000 1.200000 0.026000 0.031000
1560158886613283159	1100 38 1.100000 0.451000 0.505000 700 35 0.900000 1.210000 1.096000 600 41 1.000000 0.051000 0.051000 1.200000 0.027000 0.032000
1560158887165373493	1100 39 1.100000 0.451000 0.505000 700 35 0.900000 1.214000 1.098000 600 42 1.000000 0.051000 0.051000 1.200000 0.029000 0.035000
1560158887729323618	1100 38 1.100000 0.450000 0.504000 700 35 0.900000 1.218000 1.102000 600 41 1.000000 0.051000 0.051000 1.200000 0.029000 0.035000
1560158888293263826	1100 38 1.100000 0.452000 0.506000 700 35 0.900000 1.226000 1.110000 600 41 1.000000 0.051000 0.051000 1.200000 0.025000 0.030000
1560158888857313035	1100 39 1.100000 0.451000 0.505000 700 35 0.900000 1.226000 1.110000 600 41 1.000000 0.051000 0.051000 1.200000 0.024000 0.028000
1560158889401472201	1100 38 1.100000 0.452000 0.506000 700 35 0.900000 1.224000 1.107000 600 41 1.000000 0.051000 0.051000 1.200000 0.025000 0.030000
1560158889969324826	1100 38 1.100000 0.449000 0.503000 700 35 0.900000 1.200000 1.086000 600 41 1.000000 0.051000 0.051000 1.200000 0.036000 0.043000
1560158890529339910	1100 39 1.100000 0.451000 0.505000 700 35 0.900000 1.212000 1.098000 600 41 1.000000 0.051000 0.051000 1.200000 0.030000 0.036000
1560158891089247910	1100 38 1.100000 0.451000 0.505000 700 35 0.900000 1.221000 1.106000 600 41 1.000000 0.051000 0.051000 1.200000 0.025000 0.030000
1560158891645395910	1100 39 1.100000 0.452000 0.506000 700 35 0.900000 1.221000 1.105000 600 41 1.000000 0.051000 0.051000 1.200000 0.025000 0.030000
1560158892209462452	1100 38 1.100000 0.452000 0.506000 700 35 0.900000 1.204000 1.089000 600 41 1.000000 0.051000 0.051000 1.200000 0.025000 0.030000
1560158892769518952	1100 38 1.100000 0.451000 0.505000 700 35 0.900000 1.206000 1.091000 600 42 1.000000 0.051000 0.051000 1.200000 0.026000 0.031000
1560158893329325369	1100 39 1.100000 0.451000 0.505000 700 35 0.900000 1.220000 1.104000 600 42 1.000000 0.051000 0.051000 1.200000 0.027000 0.032000
1560158893885446077	1100 38 1.100000 0.451000 0.505000 700 35 0.900000 1.223000 1.108000 600 42 1.000000 0.051000 0.051000 1.200000 0.025000 0.030000
1560158894457402952	1100 39 1.100000 0.450000 0.504000 700 35 0.900000 1.210000 1.095000 600 41 1.000000 0.051000 0.051000 1.200000 0.028000 0.033000
1560158895021347910	1100 38 1.100000 0.452000 0.506000 700 35 0.900000 1.225000 1.108000 600 42 1.000000 0.051000 0.051000 1.200000 0.025000 0.030000
1560158895585534202	1100 38 1.100000 0.451000 0.505000 700 35 0.900000 1.214000 1.099000 600 42 1.000000 0.051000 0.051000 1.200000 0.029000 0.035000
1560158896129376577	1100 38 1.100000 0.450000 0.504000 700 35 0.900000 1.193000 1.080000 600 41 1.000000 0.051000 0.051000 1.200000 0.028000 0.033000
1560158896677244036	1100 39 1.100000 0.452000 0.506000 700 35 0.900000 1.205000 1.090000 600 41 1.000000 0.051000 0.051000 1.200000 0.025000 0.030000
1560158897241349994	1100 39 1.100000 0.451000 0.505000 700 35 0.900000 1.217000 1.102000 600 42 1.000000 0.051000 0.051000 1.200000 0.026000 0.031000
1560158897809321494	1100 39 1.100000 0.452000 0.506000 700 35 0.900000 1.221000 1.105000 600 42 1.000000 0.051000 0.051000 1.200000 0.026000 0.031000
1560158898369534119	1100 38 1.100000 0.452000 0.506000 700 35 0.900000 1.222000 1.107000 600 41 1.000000 0.051000 0.051000 1.200000 0.026000 0.031000
1560158898921276828	1100 38 1.100000 0.451000 0.505000 700 35 0.900000 1.188000 1.075000 600 41 1.000000 0.051000 0.051000 1.200000 0.036000 0.043000
1560158899481321786	1100 39 1.100000 0.451000 0.505000 700 35 0.900000 1.198000 1.084000 600 41 1.000000 0.051000 0.051000 1.200000 0.030000 0.036000
1560158900045336619	1100 38 1.100000 0.451000 0.505000 700 35 0.900000 1.225000 1.108000 600 42 1.000000 0.051000 0.051000 1.200000 0.026000 0.031000
1560158900613307244	1100 39 1.100000 0.452000 0.506000 700 35 0.900000 1.226000 1.110000 600 41 1.000000 0.051000 0.051000 1.200000 0.026000 0.031000
1560158901173307661	1100 38 1.100000 0.452000 0.506000 700 35 0.900000 1.226000 1.110000 600 42 1.000000 0.051000 0.051000 1.200000 0.028000 0.033000
1560158901737467495	1100 38 1.100000 0.451000 0.505000 700 35 0.900000 1.218000 1.103000 600 42 1.000000 0.051000 0.051000 1.200000 0.028000 0.033000
1560158902293256995	1100 38 1.100000 0.451000 0.505000 700 35 0.900000 1.216000 1.101000 600 42 1.000000 0.051000 0.051000 1.200000 0.030000 0.036000
1560158902853320370	1100 38 1.100000 0.451000 0.505000 700 35 0.900000 1.220000 1.105000 600 42 1.000000 0.051000 0.051000 1.200000 0.026000 0.031000
1560158903405256870	1100 39 1.100000 0.452000 0.506000 700 35 0.900000 1.217000 1.102000 600 42 1.000000 0.051000 0.051000 1.200000 0.029000 0.035000
1560158903965394786	1100 38 1.100000 0.451000 0.505000 700 35 0.900000 1.225000 1.108000 600 42 1.000000 0.051000 0.051000 1.200000 0.026000 0.031000
1560158904525285370	1100 38 1.100000 0.452000 0.506000 700 35 0.900000 1.220000 1.105000 600 42 1.000000 0.051000 0.051000 1.200000 0.025000 0.030000
1560158905089344453	1100 38 1.100000 0.450000 0.504000 700 35 0.900000 1.210000 1.096000 600 41 1.000000 0.051000 0.051000 1.200000 0.030000 0.036000
1560158905653307328	1100 38 1.100000 0.450000 0.504000 700 35 0.900000 1.222000 1.107000 600 41 1.000000 0.051000 0.051000 1.200000 0.027000 0.032000
1560158906221335870	1100 38 1.100000 0.451000 0.505000 700 35 0.900000 1.226000 1.110000 600 42 1.000000 0.051000 0.051000 1.200000 0.026000 0.031000
1560158906781324328	1100 39 1.100000 0.451000 0.505000 700 35 0.900000 1.227000 1.111000 600 41 1.000000 0.051000 0.051000 1.200000 0.027000 0.032000
1560158907341337787	1100 38 1.100000 0.451000 0.505000 700 35 0.900000 1.226000 1.110000 600 41 1.000000 0.051000 0.051000 1.200000 0.026000 0.031000
1560158907905489620	1100 38 1.100000 0.449000 0.503000 700 35 0.900000 1.222000 1.105000 600 41 1.000000 0.051000 0.051000 1.200000 0.029000 0.035000
1560158908469350287	1100 38 1.100000 0.451000 0.505000 700 35 0.900000 1.202000 1.089000 600 41 1.000000 0.051000 0.051000 1.200000 0.026000 0.031000
1560158909025389954	1100 39 1.100000 0.452000 0.506000 700 35 0.900000 1.218000 1.102000 600 42 1.000000 0.051000 0.051000 1.200000 0.026000 0.031000
1560158909589413579	1100 38 1.100000 0.451000 0.505000 700 35 0.900000 1.216000 1.101000 600 42 1.000000 0.051000 0.051000 1.200000 0.029000 0.035000
1560158910157315246	1100 38 1.100000 0.452000 0.506000 700 35 0.900000 1.230000 1.114000 600 42 1.000000 0.051000 0.051000 1.200000 0.025000 0.030000
1560158910737337954	1100 38 1.100000 0.451000 0.505000 700 35 0.900000 1.211000 1.097000 600 41 1.000000 0.051000 0.051000 1.200000 0.026000 0.031000
1560158911293375329	1100 38 1.100000 0.451000 0.505000 700 35 0.900000 1.191000 1.077000 600 41 1.000000 0.051000 0.051000 1.200000 0.029000 0.035000
1560158911857364246	1100 39 1.100000 0.452000 0.506000 700 35 0.900000 1.204000 1.089000 600 42 1.000000 0.051000 0.051000 1.200000 0.029000 0.035000
1560158912405396537	1100 38 1.100000 0.452000 0.506000 700 35 0.900000 1.221000 1.106000 600 42 1.000000 0.051000 0.051000 1.200000 0.026000 0.031000
1560158912957365329	1100 39 1.100000 0.452000 0.506000 700 35 0.900000 1.218000 1.103000 600 41 1.000000 0.051000 0.051000 1.200000 0.026000 0.031000
1560158913521271121	1100 38 1.100000 0.452000 0.506000 700 35 0.900000 1.220000 1.104000 600 42 1.000000 0.051000 0.051000 1.200000 0.026000 0.031000
1560158914089307163	1100 38 1.100000 0.451000 0.505000 700 35 0.900000 1.180000 1.067000 600 41 1.000000 0.051000 0.051000 1.200000 0.033000 0.039000
1560158914649296413	1100 38 1.100000 0.451000 0.505000 700 35 0.900000 1.205000 1.090000 600 42 1.000000 0.051000 0.051000 1.200000 0.028000 0.033000
1560158915213218329	1100 38 1.100000 0.452000 0.506000 700 35 0.900000 1.220000 1.104000 600 42 1.000000 0.051000 0.051000 1.200000 0.026000 0.031000
1560158915777298663	1100 39 1.100000 0.452000 0.506000 700 35 0.900000 1.222000 1.107000 600 41 1.000000 0.051000 0.051000 1.200000 0.026000 0.031000
1560158916349391455	1100 39 1.100000 0.450000 0.504000 700 35 0.900000 1.211000 1.095000 600 41 1.000000 0.051000 0.051000 1.200000 0.030000 0.036000
1560158916925319705	1100 38 1.100000 0.450000 0.504000 700 35 0.900000 1.204000 1.089000 600 41 1.000000 0.051000 0.051000 1.200000 0.026000 0.031000
1560158917485304538	1100 38 1.100000 0.451000 0.505000 700 35 0.900000 1.212000 1.096000 600 42 1.000000 0.051000 0.051000 1.200000 0.029000 0.035000
1560158918049332663	1100 38 1.100000 0.451000 0.505000 700 35 0.900000 1.226000 1.110000 600 41 1.000000 0.051000 0.051000 1.200000 0.025000 0.030000
1560158918613360955	1100 39 1.100000 0.450000 0.504000 700 35 0.900000 1.215000 1.100000 600 41 1.000000 0.051000 0.051000 1.200000 0.030000 0.036000
1560158919177282622	1100 39 1.100000 0.451000 0.505000 700 35 0.900000 1.224000 1.107000 600 42 1.000000 0.051000 0.051000 1.200000 0.025000 0.030000
1560158919753343997	1100 38 1.100000 0.451000 0.505000 700 35 0.900000 1.219000 1.103000 600 41 1.000000 0.051000 0.051000 1.200000 0.026000 0.031000
1560158920313415163	1100 38 1.100000 0.451000 0.505000 700 35 0.900000 1.191000 1.077000 600 41 1.000000 0.051000 0.051000 1.200000 0.029000 0.035000
1560158920877320830	1100 38 1.100000 0.450000 0.504000 700 35 0.900000 1.201000 1.086000 600 42 1.000000 0.051000 0.051000 1.200000 0.033000 0.039000
1560158921429302580	1100 38 1.100000 0.452000 0.506000 700 35 0.900000 1.222000 1.105000 600 42 1.000000 0.051000 0.051000 1.200000 0.025000 0.030000
1560158921989308414	1100 39 1.100000 0.452000 0.506000 700 35 0.900000 1.221000 1.106000 600 41 1.000000 0.051000 0.051000 1.200000 0.025000 0.030000
1560158922557237080	1100 38 1.100000 0.451000 0.505000 700 35 0.900000 1.224000 1.108000 600 41 1.000000 0.051000 0.051000 1.200000 0.025000 0.030000
1560158923117463580	1100 38 1.100000 0.450000 0.504000 700 35 0.900000 1.204000 1.089000 600 42 1.000000 0.051000 0.051000 1.200000 0.028000 0.033000
1560158923677217789	1100 39 1.100000 0.450000 0.504000 700 35 0.900000 1.215000 1.099000 600 42 1.000000 0.051000 0.051000 1.200000 0.030000 0.036000
1560158924237218456	1100 39 1.100000 0.452000 0.506000 700 35 0.900000 1.226000 1.110000 600 42 1.000000 0.051000 0.051000 1.200000 0.025000 0.030000
1560158924801344456	1100 39 1.100000 0.451000 0.505000 700 35 0.900000 1.221000 1.105000 600 42 1.000000 0.051000 0.051000 1.200000 0.026000 0.031000
1560158925365615456	1100 38 1.100000 0.450000 0.504000 700 35 0.900000 1.205000 1.091000 600 42 1.000000 0.051000 0.051000 1.200000 0.029000 0.035000
1560158925921246289	1100 38 1.100000 0.449000 0.503000 700 35 0.900000 1.199000 1.085000 600 41 1.000000 0.051000 0.051000 1.200000 0.030000 0.036000
1560158926481229789	1100 39 1.100000 0.451000 0.505000 700 35 0.900000 1.202000 1.089000 600 42 1.000000 0.051000 0.051000 1.200000 0.029000 0.035000
1560158927041389789	1100 39 1.100000 0.450000 0.504000 700 35 0.900000 1.216000 1.100000 600 41 1.000000 0.051000 0.051000 1.200000 0.025000 0.030000
1560158927605324331	1100 39 1.100000 0.451000 0.505000 700 35 0.900000 1.222000 1.107000 600 42 1.000000 0.051000 0.051000 1.200000 0.025000 0.030000
1560158928165244498	1100 39 1.100000 0.452000 0.506000 700 35 0.900000 1.222000 1.107000 600 42 1.000000 0.051000 0.051000 1.200000 0.024000 0.028000
1560158928737259789	1100 39 1.100000 0.451000 0.505000 700 35 0.900000 1.222000 1.107000 600 42 1.000000 0.051000 0.051000 1.200000 0.025000 0.030000
1560158929301358498	1100 39 1.100000 0.451000 0.505000 700 35 0.900000 1.215000 1.099000 600 41 1.000000 0.051000 0.051000 1.200000 0.029000 0.035000
1560158929857326790	1100 39 1.100000 0.450000 0.504000 700 35 0.900000 1.216000 1.101000 600 42 1.000000 0.051000 0.051000 1.200000 0.029000 0.035000
1560158930409241790	1100 38 1.100000 0.451000 0.505000 700 35 0.900000 1.219000 1.104000 600 42 1.000000 0.051000 0.051000 1.200000 0.025000 0.030000
1560158930977215165	1100 39 1.100000 0.452000 0.506000 700 35 0.900000 1.220000 1.105000 600 42 1.000000 0.051000 0.051000 1.200000 0.025000 0.030000
1560158931541337331	1100 38 1.100000 0.452000 0.506000 700 35 0.900000 1.216000 1.101000 600 41 1.000000 0.051000 0.051000 1.200000 0.028000 0.033000
1560158932097198581	1100 38 1.100000 0.450000 0.504000 700 35 0.900000 1.203000 1.089000 600 42 1.000000 0.051000 0.051000 1.200000 0.029000 0.035000
1560158932661343998	1100 38 1.100000 0.450000 0.504000 700 35 0.900000 1.209000 1.095000 600 42 1.000000 0.051000 0.051000 1.200000 0.029000 0.035000
1560158933221328582	1100 39 1.100000 0.451000 0.505000 700 35 0.900000 1.223000 1.108000 600 42 1.000000 0.051000 0.051000 1.200000 0.025000 0.030000
1560158933785340832	1100 38 1.100000 0.452000 0.506000 700 35 0.900000 1.218000 1.103000 600 42 1.000000 0.051000 0.051000 1.200000 0.027000 0.032000
1560158934337368040	1100 39 1.100000 0.451000 0.505000 700 35 0.900000 1.204000 1.090000 600 42 1.000000 0.051000 0.051000 1.200000 0.026000 0.031000
1560158934893295165	1100 39 1.100000 0.449000 0.503000 700 35 0.900000 1.205000 1.091000 600 41 1.000000 0.051000 0.051000 1.200000 0.029000 0.035000
1560158935441254249	1100 39 1.100000 0.449000 0.503000 700 35 0.900000 1.209000 1.095000 600 42 1.000000 0.051000 0.051000 1.200000 0.029000 0.035000
1560158936005242665	1100 38 1.100000 0.451000 0.505000 700 35 0.900000 1.214000 1.099000 600 42 1.000000 0.051000 0.051000 1.200000 0.029000 0.035000
1560158936569347832	1100 39 1.100000 0.451000 0.505000 700 35 0.900000 1.220000 1.105000 600 42 1.000000 0.051000 0.051000 1.200000 0.025000 0.030000
1560158937133313415	1100 39 1.100000 0.451000 0.505000 700 35 0.900000 1.218000 1.103000 600 42 1.000000 0.051000 0.051000 1.200000 0.025000 0.030000
1560158937701286499	1100 38 1.100000 0.451000 0.505000 700 35 0.900000 1.217000 1.101000 600 42 1.000000 0.051000 0.051000 1.200000 0.028000 0.033000
1560158938261334874	1100 39 1.100000 0.449000 0.503000 700 35 0.900000 1.210000 1.095000 600 42 1.000000 0.051000 0.051000 1.200000 0.031000 0.037000
1560158938825414707	1100 39 1.100000 0.449000 0.503000 700 35 0.900000 1.213000 1.098000 600 42 1.000000 0.051000 0.051000 1.200000 0.027000 0.032000
1560158939389350457	1100 39 1.100000 0.451000 0.505000 700 35 0.900000 1.220000 1.105000 600 42 1.000000 0.051000 0.051000 1.200000 0.026000 0.031000
1560158939949315541	1100 38 1.100000 0.451000 0.505000 700 35 0.900000 1.224000 1.107000 600 42 1.000000 0.051000 0.051000 1.200000 0.027000 0.032000
1560158940513348457	1100 39 1.100000 0.451000 0.505000 700 35 0.900000 1.214000 1.098000 600 42 1.000000 0.051000 0.051000 1.200000 0.029000 0.035000
1560158941077363958	1100 38 1.100000 0.447000 0.501000 700 35 0.900000 1.203000 1.088000 600 42 1.000000 0.051000 0.051000 1.200000 0.029000 0.035000
1560158941645309666	1100 39 1.100000 0.451000 0.505000 700 35 0.900000 1.209000 1.095000 600 42 1.000000 0.051000 0.051000 1.200000 0.031000 0.037000
1560158942205299166	1100 39 1.100000 0.452000 0.506000 700 35 0.900000 1.222000 1.107000 600 42 1.000000 0.051000 0.051000 1.200000 0.026000 0.031000
1560158942765331499	1100 39 1.100000 0.451000 0.505000 700 35 0.900000 1.223000 1.108000 600 42 1.000000 0.051000 0.051000 1.200000 0.026000 0.031000
1560158943329308874	1100 39 1.100000 0.451000 0.505000 700 35 0.900000 1.215000 1.099000 600 42 1.000000 0.051000 0.051000 1.200000 0.026000 0.031000
1560158943885348583	1100 38 1.100000 0.451000 0.505000 700 35 0.900000 1.203000 1.088000 600 42 1.000000 0.051000 0.051000 1.200000 0.030000 0.036000
1560158944433322958	1100 39 1.100000 0.449000 0.503000 700 35 0.900000 1.208000 1.094000 600 42 1.000000 0.051000 0.051000 1.200000 0.030000 0.036000
1560158944997361708	1100 39 1.100000 0.451000 0.505000 700 35 0.900000 1.206000 1.091000 600 42 1.000000 0.051000 0.051000 1.200000 0.030000 0.036000
1560158945561348291	1100 39 1.100000 0.452000 0.506000 700 35 0.900000 1.225000 1.109000 600 42 1.000000 0.051000 0.051000 1.200000 0.026000 0.031000
1560158946113344250	1100 39 1.100000 0.451000 0.505000 700 35 0.900000 1.221000 1.106000 600 42 1.000000 0.051000 0.051000 1.200000 0.026000 0.031000
1560158946677130208	1100 39 1.100000 0.451000 0.505000 700 35 0.900000 1.222000 1.107000 600 42 1.000000 0.051000 0.051000 1.200000 0.026000 0.031000
1560158947237257042	1100 38 1.100000 0.449000 0.503000 700 35 0.900000 1.185000 1.072000 600 42 1.000000 0.051000 0.051000 1.200000 0.031000 0.037000
1560158947797312417	1100 39 1.100000 0.451000 0.505000 700 35 0.900000 1.209000 1.094000 600 42 1.000000 0.051000 0.051000 1.200000 0.031000 0.037000
1560158948353351375	1100 39 1.100000 0.452000 0.506000 700 35 0.900000 1.223000 1.108000 600 42 1.000000 0.051000 0.051000 1.200000 0.025000 0.030000
1560158948917393083	1100 39 1.100000 0.452000 0.506000 700 35 0.900000 1.222000 1.105000 600 42 1.000000 0.051000 0.051000 1.200000 0.026000 0.031000
1560158949485296417	1100 39 1.100000 0.452000 0.506000 700 35 0.900000 1.211000 1.097000 600 42 1.000000 0.051000 0.051000 1.200000 0.032000 0.038000
1560158950057257334	1100 39 1.100000 0.451000 0.505000 700 35 0.900000 1.201000 1.086000 600 42 1.000000 0.051000 0.051000 1.200000 0.029000 0.035000
1560158950617312959	1100 39 1.100000 0.451000 0.505000 700 35 0.900000 1.202000 1.087000 600 42 1.000000 0.051000 0.051000 1.200000 0.028000 0.033000
1560158951177435542	1100 39 1.100000 0.452000 0.506000 700 35 0.900000 1.219000 1.103000 600 42 1.000000 0.051000 0.051000 1.200000 0.026000 0.031000
1560158951737341417	1100 39 1.100000 0.450000 0.504000 700 35 0.900000 1.199000 1.085000 600 42 1.000000 0.051000 0.051000 1.200000 0.031000 0.037000
1560158952293305876	1100 39 1.100000 0.452000 0.506000 700 35 0.900000 1.220000 1.104000 600 42 1.000000 0.051000 0.051000 1.200000 0.026000 0.031000
1560158952861352001	1100 39 1.100000 0.450000 0.504000 700 35 0.900000 1.196000 1.082000 600 42 1.000000 0.051000 0.051000 1.200000 0.027000 0.032000
1560158953427134334	1100 39 1.100000 0.451000 0.505000 700 35 0.900000 1.217000 1.101000 600 41 1.000000 0.051000 0.051000 1.200000 0.030000 0.036000
1560158953989340917	1100 39 1.100000 0.451000 0.505000 700 35 0.900000 1.224000 1.107000 600 42 1.000000 0.051000 0.051000 1.200000 0.027000 0.032000
1560158954533351792	1100 39 1.100000 0.452000 0.506000 700 35 0.900000 1.221000 1.106000 600 42 1.000000 0.051000 0.051000 1.200000 0.026000 0.031000
1560158955093319876	1100 39 1.100000 0.452000 0.506000 700 35 0.900000 1.217000 1.101000 600 42 1.000000 0.051000 0.051000 1.200000 0.026000 0.031000
1560158955645010084	1100 39 1.100000 0.451000 0.505000 700 35 0.900000 1.221000 1.105000 600 42 1.000000 0.051000 0.051000 1.200000 0.025000 0.030000
1560158956221310501	1100 39 1.100000 0.449000 0.503000 700 35 0.900000 1.189000 1.077000 600 42 1.000000 0.051000 0.051000 1.200000 0.031000 0.037000
1560158956781300793	1100 39 1.100000 0.451000 0.505000 700 35 0.900000 1.213000 1.097000 600 42 1.000000 0.051000 0.051000 1.200000 0.030000 0.036000
1560158957345307001	1100 39 1.100000 0.452000 0.506000 700 35 0.900000 1.221000 1.106000 600 42 1.000000 0.051000 0.051000 1.200000 0.025000 0.030000
1560158957905342960	1100 39 1.100000 0.452000 0.506000 700 35 0.900000 1.219000 1.103000 600 42 1.000000 0.051000 0.051000 1.200000 0.025000 0.030000
1560158958461329626	1100 39 1.100000 0.452000 0.506000 700 35 0.900000 1.224000 1.107000 600 42 1.000000 0.051000 0.051000 1.200000 0.025000 0.030000
1560158959013362585	1100 39 1.100000 0.451000 0.505000 700 35 0.900000 1.203000 1.088000 600 42 1.000000 0.051000 0.051000 1.200000 0.031000 0.037000
1560158959577377668	1100 39 1.100000 0.450000 0.504000 700 35 0.900000 1.198000 1.084000 600 41 1.000000 0.051000 0.051000 1.200000 0.029000 0.035000
1560158960133297710	1100 39 1.100000 0.452000 0.506000 700 35 0.900000 1.222000 1.105000 600 42 1.000000 0.051000 0.051000 1.200000 0.024000 0.028000
1560158960693319002	1100 39 1.100000 0.451000 0.505000 700 35 0.900000 1.221000 1.105000 600 42 1.000000 0.051000 0.051000 1.200000 0.026000 0.031000
1560158961257366335	1100 39 1.100000 0.452000 0.506000 700 35 0.900000 1.218000 1.102000 600 42 1.000000 0.051000 0.051000 1.200000 0.026000 0.031000
1560158961829335960	1100 39 1.100000 0.451000 0.505000 700 35 0.900000 1.212000 1.096000 600 42 1.000000 0.051000 0.051000 1.200000 0.028000 0.033000
1560158962393458043	1100 39 1.100000 0.451000 0.505000 700 35 0.900000 1.187000 1.074000 600 42 1.000000 0.051000 0.051000 1.200000 0.031000 0.037000
1560158962957286543	1100 39 1.100000 0.452000 0.506000 700 35 0.900000 1.225000 1.108000 600 42 1.000000 0.051000 0.051000 1.200000 0.025000 0.030000
1560158963513272419	1100 39 1.100000 0.452000 0.506000 700 35 0.900000 1.228000 1.112000 600 42 1.000000 0.051000 0.051000 1.200000 0.025000 0.030000
1560158964077299627	1100 39 1.100000 0.451000 0.505000 700 35 0.900000 1.224000 1.108000 600 42 1.000000 0.051000 0.051000 1.200000 0.025000 0.030000
1560158964657366127	1100 39 1.100000 0.451000 0.505000 700 35 0.900000 1.214000 1.098000 600 42 1.000000 0.051000 0.051000 1.200000 0.027000 0.032000
1560158965209349169	1100 39 1.100000 0.450000 0.504000 700 35 0.900000 1.217000 1.102000 600 42 1.000000 0.051000 0.051000 1.200000 0.029000 0.035000
1560158965773327669	1100 39 1.100000 0.451000 0.505000 700 35 0.900000 1.223000 1.108000 600 42 1.000000 0.051000 0.051000 1.200000 0.026000 0.031000
1560158966337291794	1100 39 1.100000 0.452000 0.506000 700 35 0.900000 1.224000 1.107000 600 42 1.000000 0.051000 0.051000 1.200000 0.025000 0.030000
1560158966897312169	1100 39 1.100000 0.452000 0.506000 700 35 0.900000 1.205000 1.090000 600 42 1.000000 0.051000 0.051000 1.200000 0.031000 0.037000
1560158967465449252	1100 39 1.100000 0.452000 0.506000 700 35 0.900000 1.221000 1.105000 600 42 1.000000 0.051000 0.051000 1.200000 0.025000 0.030000
1560158968017307461	1100 39 1.100000 0.450000 0.504000 700 35 0.900000 1.196000 1.082000 600 42 1.000000 0.051000 0.051000 1.200000 0.029000 0.035000
1560158968577282794	1100 39 1.100000 0.451000 0.505000 700 35 0.900000 1.200000 1.086000 600 42 1.000000 0.051000 0.051000 1.200000 0.030000 0.036000
1560158969137306128	1100 39 1.100000 0.451000 0.505000 700 35 0.900000 1.204000 1.089000 600 42 1.000000 0.051000 0.051000 1.200000 0.031000 0.037000
1560158969705265003	1100 39 1.100000 0.453000 0.507000 700 35 0.900000 1.223000 1.106000 600 42 1.000000 0.051000 0.051000 1.200000 0.025000 0.030000
1560158970261298211	1100 39 1.100000 0.451000 0.505000 700 35 0.900000 1.224000 1.107000 600 42 1.000000 0.051000 0.051000 1.200000 0.025000 0.030000
1560158970825278794	1100 39 1.100000 0.452000 0.506000 700 35 0.900000 1.218000 1.102000 600 42 1.000000 0.051000 0.051000 1.200000 0.027000 0.032000
1560158971389261169	1100 39 1.100000 0.450000 0.504000 700 35 0.900000 1.188000 1.075000 600 42 1.000000 0.051000 0.051000 1.200000 0.030000 0.036000
1560158971953345086	1100 39 1.100000 0.451000 0.505000 700 35 0.900000 1.211000 1.095000 600 42 1.000000 0.051000 0.051000 1.200000 0.025000 0.030000
1560158972521300420	1100 39 1.100000 0.452000 0.506000 700 35 0.900000 1.216000 1.101000 600 42 1.000000 0.051000 0.051000 1.200000 0.026000 0.031000
1560158973077413545	1100 39 1.100000 0.451000 0.505000 700 35 0.900000 1.222000 1.105000 600 42 1.000000 0.051000 0.051000 1.200000 0.025000 0.030000
1560158973653341128	1100 39 1.100000 0.451000 0.505000 700 35 0.900000 1.218000 1.102000 600 41 1.000000 0.051000 0.051000 1.200000 0.031000 0.037000
1560158974205326336	1100 39 1.100000 0.450000 0.504000 700 35 0.900000 1.211000 1.095000 600 42 1.000000 0.051000 0.051000 1.200000 0.029000 0.035000
1560158974769213378	1100 39 1.100000 0.451000 0.505000 700 35 0.900000 1.201000 1.086000 600 42 1.000000 0.051000 0.051000 1.200000 0.028000 0.033000
1560158975333384087	1100 39 1.100000 0.452000 0.506000 700 35 0.900000 1.217000 1.101000 600 42 1.000000 0.051000 0.051000 1.200000 0.025000 0.030000
1560158975893348545	1100 39 1.100000 0.450000 0.504000 700 35 0.900000 1.206000 1.091000 600 42 1.000000 0.051000 0.051000 1.200000 0.025000 0.030000
1560158976449315045	1100 39 1.100000 0.452000 0.506000 700 35 0.900000 1.220000 1.105000 600 42 1.000000 0.051000 0.051000 1.200000 0.025000 0.030000
1560158976997737462	1100 39 1.100000 0.451000 0.505000 700 35 0.900000 1.213000 1.098000 600 42 1.000000 0.051000 0.051000 1.200000 0.026000 0.031000
1560158977561243170	1100 38 1.100000 0.450000 0.504000 700 35 0.900000 1.192000 1.078000 600 42 1.000000 0.051000 0.051000 1.200000 0.026000 0.031000
1560158978125343379	1100 39 1.100000 0.449000 0.503000 700 35 0.900000 1.199000 1.086000 600 42 1.000000 0.051000 0.051000 1.200000 0.027000 0.032000
1560158978681289504	1100 39 1.100000 0.452000 0.506000 700 35 0.900000 1.217000 1.101000 600 42 1.000000 0.051000 0.051000 1.200000 0.025000 0.030000
1560158979245298712	1100 39 1.100000 0.452000 0.506000 700 35 0.900000 1.225000 1.108000 600 42 1.000000 0.051000 0.051000 1.200000 0.024000 0.028000
1560158979809368712	1100 39 1.100000 0.451000 0.505000 700 35 0.900000 1.226000 1.110000 600 42 1.000000 0.051000 0.051000 1.200000 0.027000 0.032000
1560158980377295087	1100 39 1.100000 0.451000 0.505000 700 35 0.900000 1.195000 1.082000 600 42 1.000000 0.051000 0.051000 1.200000 0.027000 0.032000
1560158980941290504	1100 39 1.100000 0.451000 0.505000 700 35 0.900000 1.197000 1.084000 600 42 1.000000 0.051000 0.051000 1.200000 0.030000 0.036000
1560158981501252712	1100 39 1.100000 0.451000 0.505000 700 35 0.900000 1.221000 1.106000 600 42 1.000000 0.051000 0.051000 1.200000 0.026000 0.031000
1560158982057412421	1100 39 1.100000 0.453000 0.507000 700 35 0.900000 1.220000 1.105000 600 42 1.000000 0.051000 0.051000 1.200000 0.026000 0.031000
1560158982621440379	1100 39 1.100000 0.452000 0.506000 700 35 0.900000 1.206000 1.091000 600 42 1.000000 0.051000 0.051000 1.200000 0.031000 0.037000
1560158983181291504	1100 38 1.100000 0.452000 0.506000 700 35 0.900000 1.202000 1.087000 600 42 1.000000 0.051000 0.051000 1.200000 0.030000 0.036000
1560158983753308254	1100 39 1.100000 0.451000 0.505000 700 35 0.900000 1.208000 1.093000 600 42 1.000000 0.051000 0.051000 1.200000 0.032000 0.038000
1560158984313330129	1100 39 1.100000 0.452000 0.506000 700 35 0.900000 1.216000 1.101000 600 42 1.000000 0.051000 0.051000 1.200000 0.025000 0.030000
1560158984877315713	1100 39 1.100000 0.451000 0.505000 700 35 0.900000 1.220000 1.105000 600 42 1.000000 0.051000 0.051000 1.200000 0.027000 0.032000
1560158985441335796	1100 39 1.100000 0.452000 0.506000 700 35 0.900000 1.222000 1.105000 600 42 1.000000 0.051000 0.051000 1.200000 0.027000 0.032000
1560158985997394796	1100 39 1.100000 0.451000 0.505000 700 35 0.900000 1.223000 1.106000 600 42 1.000000 0.051000 0.051000 1.200000 0.026000 0.031000
1560158986561274963	1100 39 1.100000 0.451000 0.505000 700 35 0.900000 1.205000 1.090000 600 42 1.000000 0.051000 0.051000 1.200000 0.029000 0.035000
1560158987113243630	1100 39 1.100000 0.451000 0.505000 700 35 0.900000 1.208000 1.093000 600 42 1.000000 0.051000 0.051000 1.200000 0.030000 0.036000
1560158987677329796	1100 39 1.100000 0.452000 0.506000 700 35 0.900000 1.223000 1.108000 600 42 1.000000 0.051000 0.051000 1.200000 0.025000 0.030000
1560158988241282380	1100 39 1.100000 0.452000 0.506000 700 35 0.900000 1.224000 1.108000 600 42 1.000000 0.051000 0.051000 1.200000 0.026000 0.031000
1560158988801324422	1100 39 1.100000 0.451000 0.505000 700 35 0.900000 1.214000 1.098000 600 42 1.000000 0.051000 0.051000 1.200000 0.028000 0.033000
1560158989369312338	1100 39 1.100000 0.450000 0.504000 700 35 0.900000 1.219000 1.104000 600 42 1.000000 0.051000 0.051000 1.200000 0.032000 0.038000
1560158989929293130	1100 39 1.100000 0.451000 0.505000 700 35 0.900000 1.206000 1.092000 600 42 1.000000 0.051000 0.051000 1.200000 0.028000 0.033000
1560158990477352422	1100 39 1.100000 0.451000 0.505000 700 35 0.900000 1.223000 1.108000 600 42 1.000000 0.051000 0.051000 1.200000 0.025000 0.030000
1560158991045335255	1100 39 1.100000 0.451000 0.505000 700 35 0.900000 1.216000 1.101000 600 42 1.000000 0.051000 0.051000 1.200000 0.025000 0.030000
1560158991605318630	1100 39 1.100000 0.451000 0.505000 700 35 0.900000 1.219000 1.104000 600 42 1.000000 0.051000 0.051000 1.200000 0.025000 0.030000
1560158992169294589	1100 39 1.100000 0.449000 0.503000 700 35 0.900000 1.210000 1.096000 600 42 1.000000 0.051000 0.051000 1.200000 0.030000 0.036000
1560158992733218839	1100 39 1.100000 0.450000 0.504000 700 35 0.900000 1.204000 1.090000 600 42 1.000000 0.051000 0.051000 1.200000 0.030000 0.036000
1560158993293322922	1100 39 1.100000 0.451000 0.505000 700 35 0.900000 1.205000 1.091000 600 42 1.000000 0.051000 0.051000 1.200000 0.030000 0.036000
1560158993857315589	1100 39 1.100000 0.453000 0.507000 700 35 0.900000 1.224000 1.108000 600 42 1.000000 0.051000 0.051000 1.200000 0.025000 0.030000
1560158994405302797	1100 39 1.100000 0.451000 0.505000 700 35 0.900000 1.222000 1.107000 600 42 1.000000 0.051000 0.051000 1.200000 0.025000 0.030000
1560158994973218006	1100 39 1.100000 0.451000 0.505000 700 35 0.900000 1.222000 1.107000 600 42 1.000000 0.051000 0.051000 1.200000 0.025000 0.030000
1560158995533472089	1100 39 1.100000 0.450000 0.504000 700 35 0.900000 1.194000 1.081000 600 42 1.000000 0.051000 0.051000 1.200000 0.032000 0.038000
1560158996093310047	1100 39 1.100000 0.449000 0.503000 700 35 0.900000 1.213000 1.097000 600 42 1.000000 0.051000 0.051000 1.200000 0.032000 0.038000
1560158996653300298	1100 39 1.100000 0.451000 0.505000 700 35 0.900000 1.224000 1.108000 600 42 1.000000 0.051000 0.051000 1.200000 0.025000 0.030000
1560158997217423214	1100 39 1.100000 0.451000 0.505000 700 35 0.900000 1.225000 1.109000 600 42 1.000000 0.051000 0.051000 1.200000 0.025000 0.030000
1560158997785280589	1100 39 1.100000 0.452000 0.506000 700 35 0.900000 1.214000 1.099000 600 42 1.000000 0.051000 0.051000 1.200000 0.029000 0.035000
1560158998353301089	1100 39 1.100000 0.449000 0.503000 700 35 0.900000 1.208000 1.094000 600 42 1.000000 0.051000 0.051000 1.200000 0.029000 0.035000
1560158998917353506	1100 39 1.100000 0.449000 0.503000 700 35 0.900000 1.224000 1.108000 600 42 1.000000 0.051000 0.051000 1.200000 0.029000 0.035000
1560158999501520840	1100 39 1.100000 0.452000 0.506000 700 35 0.900000 1.227000 1.111000 600 42 1.000000 0.051000 0.051000 1.200000 0.026000 0.031000
1560159000061424631	1100 39 1.100000 0.452000 0.506000 700 35 0.900000 1.223000 1.108000 600 42 1.000000 0.051000 0.051000 1.200000 0.025000 0.030000
1560159000629326465	1100 39 1.100000 0.452000 0.506000 700 35 0.900000 1.227000 1.111000 600 42 1.000000 0.051000 0.051000 1.200000 0.024000 0.028000
1560159001193237215	1100 39 1.100000 0.450000 0.504000 700 35 0.900000 1.222000 1.107000 600 42 1.000000 0.051000 0.051000 1.200000 0.031000 0.037000
1560159001749390048	1100 38 1.100000 0.451000 0.505000 700 35 0.900000 1.208000 1.094000 600 42 1.000000 0.051000 0.051000 1.200000 0.030000 0.036000
1560159002313332548	1100 39 1.100000 0.451000 0.505000 700 35 0.900000 1.228000 1.112000 600 42 1.000000 0.051000 0.051000 1.200000 0.028000 0.033000
1560159002873310923	1100 39 1.100000 0.451000 0.505000 700 35 0.900000 1.228000 1.112000 600 42 1.000000 0.051000 0.051000 1.200000 0.027000 0.032000
1560159003445351298	1100 39 1.100000 0.451000 0.505000 700 35 0.900000 1.227000 1.111000 600 42 1.000000 0.051000 0.051000 1.200000 0.025000 0.030000
1560159004001539590	1100 39 1.100000 0.452000 0.506000 700 35 0.900000 1.224000 1.108000 600 42 1.000000 0.051000 0.051000 1.200000 0.025000 0.030000
1560159004557374465	1100 39 1.100000 0.450000 0.504000 700 35 0.900000 1.216000 1.101000 600 42 1.000000 0.051000 0.051000 1.200000 0.028000 0.033000
1560159005121296340	1100 39 1.100000 0.452000 0.506000 700 35 0.900000 1.231000 1.115000 600 42 1.000000 0.051000 0.051000 1.200000 0.025000 0.030000
1560159005685235382	1100 39 1.100000 0.452000 0.506000 700 35 0.900000 1.226000 1.110000 600 42 1.000000 0.051000 0.051000 1.200000 0.024000 0.028000
1560159006253287590	1100 39 1.100000 0.452000 0.506000 700 35 0.900000 1.222000 1.107000 600 42 1.000000 0.051000 0.051000 1.200000 0.025000 0.030000
1560159006817247049	1100 39 1.100000 0.451000 0.505000 700 35 0.900000 1.223000 1.108000 600 42 1.000000 0.051000 0.051000 1.200000 0.026000 0.031000
1560159007377318549	1100 39 1.100000 0.449000 0.503000 700 35 0.900000 1.208000 1.094000 600 42 1.000000 0.051000 0.051000 1.200000 0.030000 0.036000
1560159007941294591	1100 39 1.100000 0.450000 0.504000 700 35 0.900000 1.208000 1.094000 600 42 1.000000 0.051000 0.051000 1.200000 0.030000 0.036000
1560159008493257382	1100 39 1.100000 0.452000 0.506000 700 35 0.900000 1.222000 1.107000 600 42 1.000000 0.051000 0.051000 1.200000 0.026000 0.031000
1560159009057309924	1100 39 1.100000 0.451000 0.505000 700 35 0.900000 1.227000 1.111000 600 42 1.000000 0.051000 0.051000 1.200000 0.025000 0.030000
1560159009621332424	1100 39 1.100000 0.452000 0.506000 700 35 0.900000 1.222000 1.107000 600 42 1.000000 0.051000 0.051000 1.200000 0.025000 0.030000
1560159010185402174	1100 39 1.100000 0.450000 0.504000 700 35 0.900000 1.214000 1.099000 600 42 1.000000 0.051000 0.051000 1.200000 0.029000 0.035000
1560159010745273424	1100 39 1.100000 0.450000 0.504000 700 35 0.900000 1.212000 1.098000 600 42 1.000000 0.051000 0.051000 1.200000 0.033000 0.039000
1560159011305281799	1100 39 1.100000 0.451000 0.505000 700 35 0.900000 1.220000 1.105000 600 42 1.000000 0.051000 0.051000 1.200000 0.025000 0.030000
1560159011873403841	1100 39 1.100000 0.452000 0.506000 700 35 0.900000 1.221000 1.106000 600 42 1.000000 0.051000 0.051000 1.200000 0.026000 0.031000
1560159012437356841	1100 39 1.100000 0.451000 0.505000 700 35 0.900000 1.222000 1.107000 600 42 1.000000 0.051000 0.051000 1.200000 0.026000 0.031000
1560159013005304924	1100 39 1.100000 0.452000 0.506000 700 35 0.900000 1.221000 1.106000 600 42 1.000000 0.051000 0.051000 1.200000 0.033000 0.039000
1560159013573257133	1100 39 1.100000 0.451000 0.505000 700 35 0.900000 1.213000 1.098000 600 42 1.000000 0.051000 0.051000 1.200000 0.028000 0.033000
1560159014137359633	1100 39 1.100000 0.449000 0.503000 700 35 0.900000 1.213000 1.098000 600 42 1.000000 0.051000 0.051000 1.200000 0.025000 0.030000
1560159014697272008	1100 39 1.100000 0.452000 0.506000 700 35 0.900000 1.221000 1.106000 600 42 1.000000 0.051000 0.051000 1.200000 0.024000 0.028000
1560159015261329716	1100 39 1.100000 0.451000 0.505000 700 35 0.900000 1.223000 1.108000 600 42 1.000000 0.051000 0.051000 1.200000 0.030000 0.036000
1560159015821326675	1100 39 1.100000 0.451000 0.505000 700 35 0.900000 1.221000 1.106000 600 42 1.000000 0.051000 0.051000 1.200000 0.026000 0.031000
1560159016385307133	1100 39 1.100000 0.448000 0.502000 700 35 0.900000 1.207000 1.093000 600 42 1.000000 0.051000 0.051000 1.200000 0.030000 0.036000
1560159016949352342	1100 39 1.100000 0.449000 0.503000 700 35 0.900000 1.218000 1.103000 600 42 1.000000 0.051000 0.051000 1.200000 0.028000 0.033000
1560159017513304258	1100 39 1.100000 0.451000 0.505000 700 35 0.900000 1.204000 1.090000 600 42 1.000000 0.051000 0.051000 1.200000 0.026000 0.031000
1560159018073208008	1100 39 1.100000 0.452000 0.506000 700 35 0.900000 1.224000 1.108000 600 42 1.000000 0.051000 0.051000 1.200000 0.024000 0.028000
1560159018633309300	1100 39 1.100000 0.452000 0.506000 700 35 0.900000 1.223000 1.108000 600 42 1.000000 0.051000 0.051000 1.200000 0.025000 0.030000
1560159019193335467	1100 39 1.100000 0.449000 0.503000 700 35 0.900000 1.216000 1.101000 600 42 1.000000 0.051000 0.051000 1.200000 0.029000 0.035000
1560159019753305092	1100 39 1.100000 0.448000 0.502000 700 35 0.900000 1.195000 1.082000 600 42 1.000000 0.051000 0.051000 1.200000 0.036000 0.043000
1560159020317258050	1100 39 1.100000 0.452000 0.506000 700 35 0.900000 1.223000 1.108000 600 42 1.000000 0.051000 0.051000 1.200000 0.024000 0.028000
1560159020877285842	1100 39 1.100000 0.452000 0.506000 700 35 0.900000 1.222000 1.107000 600 42 1.000000 0.051000 0.051000 1.200000 0.025000 0.030000
1560159021429334259	1100 39 1.100000 0.452000 0.506000 700 35 0.900000 1.223000 1.108000 600 42 1.000000 0.051000 0.051000 1.200000 0.024000 0.028000
1560159022001431176	1100 39 1.100000 0.451000 0.505000 700 35 0.900000 1.212000 1.098000 600 42 1.000000 0.051000 0.051000 1.200000 0.029000 0.035000
1560159022565217842	1100 39 1.100000 0.450000 0.504000 700 35 0.900000 1.216000 1.101000 600 42 1.000000 0.051000 0.051000 1.200000 0.029000 0.035000
1560159023121259134	1100 39 1.100000 0.450000 0.504000 700 35 0.900000 1.217000 1.102000 600 42 1.000000 0.051000 0.051000 1.200000 0.032000 0.038000
1560159023685344176	1100 39 1.100000 0.453000 0.507000 700 35 0.900000 1.220000 1.105000 600 42 1.000000 0.051000 0.051000 1.200000 0.026000 0.031000
1560159024253329259	1100 39 1.100000 0.452000 0.506000 700 35 0.900000 1.206000 1.092000 600 42 1.000000 0.051000 0.051000 1.200000 0.029000 0.035000
1560159024817605301	1100 39 1.100000 0.452000 0.506000 700 35 0.900000 1.228000 1.112000 600 42 1.000000 0.051000 0.051000 1.200000 0.026000 0.031000
1560159025381264384	1100 39 1.100000 0.450000 0.504000 700 35 0.900000 1.227000 1.111000 600 42 1.000000 0.051000 0.051000 1.200000 0.029000 0.035000
1560159025941363301	1100 39 1.100000 0.449000 0.503000 700 35 0.900000 1.213000 1.098000 600 42 1.000000 0.051000 0.051000 1.200000 0.032000 0.038000
1560159026501306134	1100 39 1.100000 0.450000 0.504000 700 35 0.900000 1.227000 1.111000 600 42 1.000000 0.051000 0.051000 1.200000 0.030000 0.036000
1560159027053335468	1100 39 1.100000 0.451000 0.505000 700 35 0.900000 1.228000 1.112000 600 42 1.000000 0.051000 0.051000 1.200000 0.025000 0.030000
1560159027613302051	1100 39 1.100000 0.451000 0.505000 700 35 0.900000 1.228000 1.112000 600 42 1.000000 0.051000 0.051000 1.200000 0.026000 0.031000
1560159028181206676	1100 38 1.100000 0.450000 0.504000 700 35 0.900000 1.228000 1.112000 600 42 1.000000 0.051000 0.051000 1.200000 0.026000 0.031000
1560159028749249676	1100 39 1.100000 0.449000 0.503000 700 35 0.900000 1.204000 1.090000 600 42 1.000000 0.051000 0.051000 1.200000 0.036000 0.043000
1560159029309272926	1100 39 1.100000 0.452000 0.506000 700 35 0.900000 1.218000 1.103000 600 42 1.000000 0.051000 0.051000 1.200000 0.029000 0.035000
1560159029857243301	1100 39 1.100000 0.451000 0.505000 700 35 0.900000 1.226000 1.110000 600 42 1.000000 0.051000 0.051000 1.200000 0.025000 0.030000
1560159030421440177	1100 39 1.100000 0.451000 0.505000 700 35 0.900000 1.230000 1.114000 600 42 1.000000 0.051000 0.051000 1.200000 0.024000 0.028000
1560159030977343343	1100 39 1.100000 0.450000 0.504000 700 35 0.900000 1.229000 1.113000 600 42 1.000000 0.051000 0.051000 1.200000 0.025000 0.030000
1560159031537296510	1100 39 1.100000 0.450000 0.504000 700 35 0.900000 1.206000 1.092000 600 42 1.000000 0.051000 0.051000 1.200000 0.029000 0.035000
1560159032105315635	1100 39 1.100000 0.451000 0.505000 700 35 0.900000 1.223000 1.108000 600 42 1.000000 0.051000 0.051000 1.200000 0.029000 0.035000
1560159032669303802	1100 39 1.100000 0.452000 0.506000 700 35 0.900000 1.233000 1.117000 600 42 1.000000 0.051000 0.051000 1.200000 0.026000 0.031000
1560159033233314802	1100 39 1.100000 0.452000 0.506000 700 35 0.900000 1.229000 1.113000 600 42 1.000000 0.051000 0.051000 1.200000 0.029000 0.035000
1560159033801292927	1100 39 1.100000 0.452000 0.506000 700 35 0.900000 1.229000 1.113000 600 42 1.000000 0.051000 0.051000 1.200000 0.026000 0.031000
1560159034365298094	1100 39 1.100000 0.450000 0.504000 700 35 0.900000 1.212000 1.098000 600 42 1.000000 0.051000 0.051000 1.200000 0.027000 0.032000
1560159034929249135	1100 39 1.100000 0.449000 0.503000 700 35 0.900000 1.209000 1.095000 600 42 1.000000 0.051000 0.051000 1.200000 0.028000 0.033000
1560159035489351052	1100 39 1.100000 0.451000 0.505000 700 35 0.900000 1.230000 1.114000 600 42 1.000000 0.051000 0.051000 1.200000 0.025000 0.030000
1560159036049281927	1100 39 1.100000 0.452000 0.506000 700 35 0.900000 1.228000 1.112000 600 42 1.000000 0.051000 0.051000 1.200000 0.026000 0.031000
1560159036609273052	1100 39 1.100000 0.452000 0.506000 700 35 0.900000 1.231000 1.115000 600 42 1.000000 0.051000 0.051000 1.200000 0.026000 0.031000
1560159037169326552	1100 39 1.100000 0.450000 0.504000 700 35 0.900000 1.226000 1.110000 600 42 1.000000 0.051000 0.051000 1.200000 0.026000 0.031000
1560159037737301386	1100 39 1.100000 0.449000 0.503000 700 35 0.900000 1.222000 1.107000 600 42 1.000000 0.051000 0.051000 1.200000 0.027000 0.032000
1560159038293304011	1100 39 1.100000 0.451000 0.505000 700 35 0.900000 1.222000 1.107000 600 42 1.000000 0.051000 0.051000 1.200000 0.031000 0.037000
1560159038845307969	1100 39 1.100000 0.451000 0.505000 700 35 0.900000 1.229000 1.113000 600 42 1.000000 0.051000 0.051000 1.200000 0.025000 0.030000
1560159039409325386	1100 39 1.100000 0.451000 0.505000 700 35 0.900000 1.210000 1.096000 600 42 1.000000 0.051000 0.051000 1.200000 0.030000 0.036000
1560159039969368969	1100 39 1.100000 0.451000 0.505000 700 35 0.900000 1.225000 1.109000 600 42 1.000000 0.051000 0.051000 1.200000 0.025000 0.030000
1560159040533316303	1100 39 1.100000 0.450000 0.504000 700 35 0.900000 1.223000 1.108000 600 42 1.000000 0.051000 0.051000 1.200000 0.028000 0.033000
1560159041097273553	1100 39 1.100000 0.449000 0.503000 700 35 0.900000 1.212000 1.098000 600 42 1.000000 0.051000 0.051000 1.200000 0.032000 0.038000
1560159041607206011	1100 35 1.100000 0.451000 0.505000 700 34 0.900000 1.193000 1.080000 600 39 1.000000 0.051000 0.051000 1.200000 0.028000 0.033000
1560159042116835386	1100 34 1.100000 0.052000 0.059000 700 33 0.900000 0.073000 0.066000 600 37 1.000000 0.051000 0.051000 1.200000 0.023000 0.027000
