#Timestamp	CPU(0) Frequency(MHz)	CPU(0) Temperature(C)	A7 Voltage(V)	A7 Current(A)	A7 Power(W)	CPU(4) Frequency(MHz)	CPU(4) Temperature(C)	A15 Voltage(V)	A15 Current(A)	A15 Power(W)	GPU Frequency(MHz)	GPU Temperature(C)	GPU Voltage(V)	GPU Current(A)	GPU Power(W)	RAM Voltage(V)	RAM Current(A)	RAM Power(W)
1517184660058023940	800 39 1.000000 0.036000 0.036000 1600 33 1.100000 0.907000 1.025000 600 37 1.000000 0.051000 0.051000 1.200000 0.051000 0.061000
1517184660563675274	800 40 1.000000 0.034000 0.034000 1600 33 1.100000 1.061000 1.201000 600 38 1.000000 0.051000 0.051000 1.200000 0.032000 0.038000
1517184661069313232	800 40 1.000000 0.034000 0.034000 1600 34 1.100000 1.071000 1.212000 600 38 1.000000 0.050000 0.050000 1.200000 0.033000 0.039000
1517184661575031066	800 41 1.000000 0.036000 0.036000 1600 34 1.100000 1.076000 1.218000 600 39 1.000000 0.051000 0.051000 1.200000 0.035000 0.042000
1517184662081884274	800 42 1.000000 0.045000 0.046000 1600 35 1.100000 1.085000 1.228000 600 46 1.000000 0.051000 0.051000 1.200000 0.042000 0.050000
1517184662588136191	800 44 1.000000 0.310000 0.313000 1600 36 1.100000 2.404000 2.735000 600 48 1.000000 0.051000 0.051000 1.200000 0.041000 0.049000
1517184663097741274	800 45 1.000000 0.309000 0.312000 1600 37 1.100000 2.432000 2.767000 600 49 1.000000 0.051000 0.051000 1.200000 0.044000 0.053000
1517184663603538316	800 46 1.000000 0.311000 0.314000 1600 38 1.100000 2.464000 2.804000 600 51 1.000000 0.051000 0.051000 1.200000 0.049000 0.059000
1517184664110524733	800 47 1.000000 0.303000 0.306000 1600 39 1.100000 2.419000 2.752000 600 52 1.000000 0.051000 0.051000 1.200000 0.039000 0.047000
1517184664616578858	800 47 1.000000 0.319000 0.322000 1600 39 1.100000 2.446000 2.783000 600 52 1.000000 0.052000 0.052000 1.200000 0.044000 0.053000
1517184665122425733	800 48 1.000000 0.314000 0.317000 1600 39 1.100000 2.424000 2.758000 600 52 1.000000 0.051000 0.051000 1.200000 0.042000 0.050000
1517184665627871024	800 49 1.000000 0.323000 0.326000 1600 40 1.100000 2.467000 2.807000 600 53 1.000000 0.051000 0.051000 1.200000 0.045000 0.054000
1517184666133516816	800 48 1.000000 0.320000 0.323000 1600 40 1.100000 2.439000 2.775000 600 53 1.000000 0.052000 0.052000 1.200000 0.046000 0.055000
1517184666643057524	800 49 1.000000 0.308000 0.311000 1600 41 1.100000 2.454000 2.792000 600 54 1.000000 0.052000 0.052000 1.200000 0.043000 0.052000
1517184667149751775	800 49 1.000000 0.305000 0.308000 1600 41 1.100000 2.442000 2.778000 600 54 1.000000 0.052000 0.052000 1.200000 0.046000 0.055000
1517184667662749983	800 49 1.000000 0.315000 0.318000 1600 41 1.100000 2.459000 2.798000 600 54 1.000000 0.051000 0.051000 1.200000 0.045000 0.054000
1517184668169626233	800 50 1.000000 0.308000 0.311000 1600 41 1.100000 2.718000 3.098000 600 55 1.000000 0.052000 0.052000 1.200000 0.051000 0.061000
1517184668675576941	800 49 1.000000 0.317000 0.320000 1600 41 1.100000 2.447000 2.784000 600 54 1.000000 0.052000 0.052000 1.200000 0.044000 0.053000
1517184669181292941	800 50 1.000000 0.317000 0.320000 1600 42 1.100000 2.454000 2.792000 600 55 1.000000 0.052000 0.052000 1.200000 0.043000 0.051000
1517184669687169400	800 50 1.000000 0.318000 0.321000 1600 42 1.100000 2.439000 2.775000 600 55 1.000000 0.052000 0.052000 1.200000 0.044000 0.053000
1517184670192905275	800 50 1.000000 0.308000 0.311000 1600 42 1.100000 2.651000 3.022000 600 55 1.000000 0.052000 0.052000 1.200000 0.044000 0.053000
1517184670698935567	800 49 1.000000 0.311000 0.314000 1600 42 1.100000 2.443000 2.780000 600 55 1.000000 0.052000 0.052000 1.200000 0.044000 0.053000
1517184671204990817	800 50 1.000000 0.319000 0.322000 1600 42 1.100000 2.452000 2.795000 600 55 1.000000 0.052000 0.052000 1.200000 0.044000 0.053000
1517184671713401108	800 51 1.000000 0.309000 0.312000 1600 42 1.100000 2.436000 2.777000 600 56 1.000000 0.052000 0.052000 1.200000 0.042000 0.050000
1517184672219322192	800 51 1.000000 0.312000 0.315000 1600 42 1.100000 2.623000 2.990000 600 56 1.000000 0.052000 0.052000 1.200000 0.047000 0.056000
1517184672726941234	800 50 1.000000 0.307000 0.310000 1600 42 1.100000 2.441000 2.782000 600 55 1.000000 0.052000 0.052000 1.200000 0.044000 0.053000
1517184673232927775	800 51 1.000000 0.315000 0.318000 1600 43 1.100000 2.442000 2.783000 600 56 1.000000 0.052000 0.052000 1.200000 0.038000 0.045000
1517184673760129942	800 50 1.000000 0.318000 0.321000 1600 43 1.100000 2.442000 2.783000 600 55 1.000000 0.052000 0.052000 1.200000 0.043000 0.052000
1517184674268920359	800 51 1.000000 0.308000 0.311000 1600 43 1.100000 2.532000 2.886000 600 56 1.000000 0.052000 0.052000 1.200000 0.047000 0.056000
1517184674775545359	800 51 1.000000 0.312000 0.315000 1600 43 1.100000 2.446000 2.788000 600 56 1.000000 0.052000 0.052000 1.200000 0.044000 0.053000
1517184675281412484	800 51 1.000000 0.321000 0.324000 1600 43 1.100000 2.458000 2.797000 600 56 1.000000 0.052000 0.052000 1.200000 0.042000 0.050000
1517184675800127442	800 51 1.000000 0.313000 0.316000 1600 43 1.100000 2.441000 2.777000 600 56 1.000000 0.052000 0.052000 1.200000 0.045000 0.054000
1517184676309601776	800 51 1.000000 0.322000 0.325000 1600 43 1.100000 2.526000 2.879000 600 57 1.000000 0.052000 0.052000 1.200000 0.048000 0.058000
1517184676816438401	800 52 1.000000 0.317000 0.320000 1600 43 1.100000 2.517000 2.869000 600 57 1.000000 0.052000 0.052000 1.200000 0.041000 0.049000
1517184677323425734	800 51 1.000000 0.320000 0.323000 1600 43 1.100000 2.496000 2.840000 600 56 1.000000 0.052000 0.052000 1.200000 0.043000 0.051000
1517184677848138692	800 52 1.000000 0.318000 0.321000 1600 43 1.100000 2.496000 2.845000 600 57 1.000000 0.052000 0.052000 1.200000 0.044000 0.053000
1517184678353861484	800 52 1.000000 0.323000 0.326000 1600 43 1.100000 2.515000 2.867000 600 57 1.000000 0.052000 0.052000 1.200000 0.048000 0.057000
1517184678859748443	800 52 1.000000 0.324000 0.327000 1600 43 1.100000 2.500000 2.850000 600 57 1.000000 0.052000 0.052000 1.200000 0.043000 0.051000
1517184679365624443	800 52 1.000000 0.326000 0.329000 1600 43 1.100000 2.501000 2.851000 600 57 1.000000 0.052000 0.052000 1.200000 0.045000 0.054000
1517184679899407234	800 52 1.000000 0.327000 0.330000 1600 44 1.100000 2.496000 2.845000 600 57 1.000000 0.053000 0.053000 1.200000 0.043000 0.051000
1517184680404890443	800 52 1.000000 0.319000 0.322000 1600 44 1.100000 2.574000 2.934000 600 57 1.000000 0.052000 0.052000 1.200000 0.041000 0.049000
1517184680910879985	800 51 1.000000 0.325000 0.328000 1600 44 1.100000 2.497000 2.846000 600 57 1.000000 0.052000 0.052000 1.200000 0.043000 0.052000
1517184681416767443	800 52 1.000000 0.331000 0.334000 1600 44 1.100000 2.493000 2.842000 600 57 1.000000 0.052000 0.052000 1.200000 0.044000 0.053000
1517184681938639401	800 52 1.000000 0.325000 0.328000 1600 44 1.100000 2.485000 2.827000 600 57 1.000000 0.052000 0.052000 1.200000 0.045000 0.054000
1517184682453394735	800 52 1.000000 0.317000 0.320000 1600 44 1.100000 2.611000 2.976000 600 57 1.000000 0.052000 0.052000 1.200000 0.043000 0.051000
1517184682963301943	800 52 1.000000 0.315000 0.318000 1600 44 1.100000 2.647000 3.017000 600 58 1.000000 0.053000 0.053000 1.200000 0.048000 0.058000
1517184683472922193	800 52 1.000000 0.315000 0.318000 1600 44 1.100000 2.489000 2.837000 600 57 1.000000 0.052000 0.052000 1.200000 0.045000 0.054000
1517184683992130652	800 52 1.000000 0.317000 0.320000 1600 44 1.100000 2.513000 2.864000 600 57 1.000000 0.053000 0.053000 1.200000 0.042000 0.050000
1517184684499994735	800 52 1.000000 0.320000 0.323000 1600 44 1.100000 2.605000 2.964000 600 58 1.000000 0.052000 0.052000 1.200000 0.046000 0.055000
1517184685005727902	800 53 1.000000 0.308000 0.311000 1600 44 1.100000 2.583000 2.944000 600 58 1.000000 0.052000 0.052000 1.200000 0.050000 0.060000
1517184685511588818	800 53 1.000000 0.326000 0.329000 1600 44 1.100000 2.488000 2.831000 600 58 1.000000 0.053000 0.053000 1.200000 0.043000 0.051000
1517184686038479610	800 53 1.000000 0.315000 0.318000 1600 44 1.100000 2.479000 2.821000 600 58 1.000000 0.052000 0.052000 1.200000 0.040000 0.048000
1517184686548965694	800 53 1.000000 0.314000 0.317000 1600 44 1.100000 2.593000 2.956000 600 58 1.000000 0.052000 0.052000 1.200000 0.048000 0.057000
1517184687055424069	800 51 1.000000 0.304000 0.307000 1600 44 1.100000 2.589000 2.951000 600 57 1.000000 0.052000 0.052000 1.200000 0.050000 0.060000
1517184687561388277	800 53 1.000000 0.321000 0.324000 1600 44 1.100000 2.465000 2.810000 600 58 1.000000 0.052000 0.052000 1.200000 0.042000 0.050000
1517184688068137735	800 52 1.000000 0.317000 0.320000 1600 44 1.100000 2.508000 2.859000 600 57 1.000000 0.053000 0.053000 1.200000 0.043000 0.051000
1517184688574138652	800 53 1.000000 0.313000 0.316000 1600 44 1.100000 2.575000 2.935000 600 58 1.000000 0.053000 0.053000 1.200000 0.044000 0.053000
1517184689080001860	800 53 1.000000 0.321000 0.324000 1600 44 1.100000 2.611000 2.976000 600 58 1.000000 0.053000 0.053000 1.200000 0.046000 0.055000
1517184689586350694	800 53 1.000000 0.315000 0.318000 1600 44 1.100000 2.472000 2.813000 600 58 1.000000 0.053000 0.053000 1.200000 0.038000 0.045000
1517184690092154694	800 53 1.000000 0.320000 0.323000 1600 44 1.100000 2.502000 2.847000 600 58 1.000000 0.053000 0.053000 1.200000 0.044000 0.053000
1517184690598516986	800 53 1.000000 0.323000 0.326000 1600 44 1.100000 2.533000 2.887000 600 58 1.000000 0.053000 0.053000 1.200000 0.049000 0.059000
1517184691104835569	800 53 1.000000 0.319000 0.322000 1600 44 1.100000 2.497000 2.841000 600 58 1.000000 0.052000 0.052000 1.200000 0.044000 0.053000
1517184691611867652	800 53 1.000000 0.311000 0.314000 1600 44 1.100000 2.505000 2.855000 600 58 1.000000 0.052000 0.052000 1.200000 0.038000 0.045000
1517184692118039486	800 53 1.000000 0.315000 0.318000 1600 45 1.100000 2.465000 2.810000 600 58 1.000000 0.053000 0.053000 1.200000 0.044000 0.053000
1517184692628234028	800 53 1.000000 0.327000 0.330000 1600 45 1.100000 2.560000 2.918000 600 58 1.000000 0.052000 0.052000 1.200000 0.047000 0.056000
1517184693133729194	800 53 1.000000 0.323000 0.326000 1600 45 1.100000 2.469000 2.814000 600 58 1.000000 0.052000 0.052000 1.200000 0.043000 0.051000
1517184693639560861	800 52 1.000000 0.309000 0.312000 1600 45 1.100000 2.525000 2.878000 600 57 1.000000 0.052000 0.052000 1.200000 0.043000 0.051000
1517184694145492528	800 53 1.000000 0.309000 0.312000 1600 45 1.100000 2.457000 2.796000 600 58 1.000000 0.052000 0.052000 1.200000 0.043000 0.051000
1517184694651485819	800 53 1.000000 0.312000 0.315000 1600 45 1.100000 2.546000 2.902000 600 58 1.000000 0.052000 0.052000 1.200000 0.042000 0.050000
1517184695164431445	800 53 1.000000 0.313000 0.316000 1600 45 1.100000 2.464000 2.808000 600 58 1.000000 0.053000 0.053000 1.200000 0.039000 0.047000
1517184695670470945	800 53 1.000000 0.306000 0.309000 1600 45 1.100000 2.447000 2.784000 600 58 1.000000 0.053000 0.053000 1.200000 0.043000 0.051000
1517184696176418528	800 53 1.000000 0.325000 0.328000 1600 45 1.100000 2.455000 2.793000 600 58 1.000000 0.053000 0.053000 1.200000 0.042000 0.050000
1517184696682360903	800 53 1.000000 0.313000 0.316000 1600 45 1.100000 2.472000 2.818000 600 58 1.000000 0.053000 0.053000 1.200000 0.046000 0.055000
1517184697189268361	800 53 1.000000 0.308000 0.311000 1600 45 1.100000 2.436000 2.772000 600 58 1.000000 0.053000 0.053000 1.200000 0.038000 0.045000
1517184697695511820	800 53 1.000000 0.296000 0.299000 1600 45 1.100000 2.636000 3.005000 600 58 1.000000 0.052000 0.052000 1.200000 0.050000 0.060000
1517184698206096237	800 53 1.000000 0.318000 0.321000 1600 45 1.100000 2.465000 2.805000 600 58 1.000000 0.053000 0.053000 1.200000 0.043000 0.051000
1517184698712718278	800 53 1.000000 0.311000 0.314000 1600 45 1.100000 2.543000 2.899000 600 58 1.000000 0.053000 0.053000 1.200000 0.045000 0.054000
1517184699218666820	800 52 1.000000 0.308000 0.311000 1600 45 1.100000 2.478000 2.819000 600 58 1.000000 0.053000 0.053000 1.200000 0.043000 0.051000
1517184699724618903	800 53 1.000000 0.303000 0.306000 1600 45 1.100000 2.634000 3.002000 600 58 1.000000 0.053000 0.053000 1.200000 0.047000 0.056000
1517184700230669778	800 53 1.000000 0.316000 0.319000 1600 45 1.100000 2.462000 2.801000 600 58 1.000000 0.053000 0.053000 1.200000 0.043000 0.052000
1517184700736543945	800 53 1.000000 0.315000 0.318000 1600 45 1.100000 2.515000 2.867000 600 58 1.000000 0.052000 0.052000 1.200000 0.040000 0.048000
1517184701242354029	800 53 1.000000 0.313000 0.316000 1600 45 1.100000 2.429000 2.764000 600 58 1.000000 0.053000 0.053000 1.200000 0.043000 0.051000
1517184701748017487	800 53 1.000000 0.298000 0.301000 1600 45 1.100000 2.648000 3.018000 600 58 1.000000 0.053000 0.053000 1.200000 0.048000 0.057000
1517184702253952237	800 53 1.000000 0.311000 0.314000 1600 45 1.100000 2.429000 2.764000 600 58 1.000000 0.053000 0.053000 1.200000 0.041000 0.049000
1517184702760586320	800 53 1.000000 0.307000 0.310000 1600 45 1.100000 2.461000 2.800000 600 58 1.000000 0.053000 0.053000 1.200000 0.043000 0.051000
1517184703267062612	800 53 1.000000 0.310000 0.313000 1600 45 1.100000 2.429000 2.764000 600 58 1.000000 0.053000 0.053000 1.200000 0.045000 0.054000
1517184703773666821	800 53 1.000000 0.321000 0.324000 1600 45 1.100000 2.468000 2.808000 600 59 1.000000 0.053000 0.053000 1.200000 0.042000 0.050000
1517184704279661071	800 53 1.000000 0.307000 0.310000 1600 45 1.100000 2.427000 2.761000 600 58 1.000000 0.052000 0.052000 1.200000 0.041000 0.049000
1517184704789326321	800 53 1.000000 0.304000 0.307000 1600 45 1.100000 2.541000 2.896000 600 58 1.000000 0.052000 0.052000 1.200000 0.049000 0.059000
1517184705295260196	800 53 1.000000 0.302000 0.305000 1600 45 1.100000 2.433000 2.773000 600 58 1.000000 0.053000 0.053000 1.200000 0.043000 0.052000
1517184705801296071	800 53 1.000000 0.306000 0.309000 1600 45 1.100000 2.453000 2.791000 600 58 1.000000 0.053000 0.053000 1.200000 0.044000 0.053000
1517184706307126904	800 53 1.000000 0.308000 0.311000 1600 45 1.100000 2.433000 2.768000 600 58 1.000000 0.053000 0.053000 1.200000 0.044000 0.053000
1517184706813059738	800 53 1.000000 0.304000 0.307000 1600 45 1.100000 2.512000 2.863000 600 58 1.000000 0.052000 0.052000 1.200000 0.044000 0.053000
1517184707319074071	800 53 1.000000 0.311000 0.314000 1600 45 1.100000 2.428000 2.763000 600 58 1.000000 0.053000 0.053000 1.200000 0.044000 0.053000
1517184707831725029	800 53 1.000000 0.305000 0.308000 1600 45 1.100000 2.430000 2.770000 600 58 1.000000 0.053000 0.053000 1.200000 0.043000 0.052000
1517184708337496488	800 53 1.000000 0.298000 0.301000 1600 45 1.100000 2.450000 2.788000 600 58 1.000000 0.053000 0.053000 1.200000 0.043000 0.051000
1517184708843404405	800 53 1.000000 0.303000 0.306000 1600 45 1.100000 2.523000 2.876000 600 58 1.000000 0.053000 0.053000 1.200000 0.047000 0.056000
1517184709350448446	800 53 1.000000 0.313000 0.316000 1600 45 1.100000 2.446000 2.788000 600 58 1.000000 0.053000 0.053000 1.200000 0.043000 0.052000
1517184709856577780	800 53 1.000000 0.310000 0.313000 1600 45 1.100000 2.442000 2.778000 600 58 1.000000 0.052000 0.052000 1.200000 0.044000 0.053000
1517184710367152488	800 53 1.000000 0.303000 0.306000 1600 45 1.100000 2.670000 3.043000 600 59 1.000000 0.052000 0.052000 1.200000 0.040000 0.048000
1517184710873885071	800 53 1.000000 0.313000 0.316000 1600 45 1.100000 2.528000 2.881000 600 58 1.000000 0.053000 0.053000 1.200000 0.044000 0.053000
1517184711379829738	800 53 1.000000 0.312000 0.315000 1600 45 1.100000 2.459000 2.798000 600 58 1.000000 0.053000 0.053000 1.200000 0.043000 0.052000
1517184711885800072	800 53 1.000000 0.309000 0.312000 1600 45 1.100000 2.433000 2.768000 600 59 1.000000 0.053000 0.053000 1.200000 0.042000 0.050000
1517184712391626947	800 53 1.000000 0.297000 0.300000 1600 45 1.100000 2.630000 2.998000 600 58 1.000000 0.053000 0.053000 1.200000 0.047000 0.056000
1517184712897634405	800 54 1.000000 0.308000 0.311000 1600 45 1.100000 2.546000 2.902000 600 59 1.000000 0.052000 0.052000 1.200000 0.044000 0.053000
1517184713403596447	800 53 1.000000 0.307000 0.310000 1600 45 1.100000 2.432000 2.767000 600 59 1.000000 0.053000 0.053000 1.200000 0.043000 0.051000
1517184713909611988	800 54 1.000000 0.311000 0.314000 1600 45 1.100000 2.449000 2.786000 600 59 1.000000 0.052000 0.052000 1.200000 0.040000 0.048000
1517184714415558239	800 54 1.000000 0.308000 0.311000 1600 45 1.100000 2.607000 2.971000 600 59 1.000000 0.053000 0.053000 1.200000 0.044000 0.053000
1517184714922045489	800 54 1.000000 0.310000 0.313000 1600 45 1.100000 2.529000 2.878000 600 59 1.000000 0.053000 0.053000 1.200000 0.047000 0.056000
1517184715428667239	800 53 1.000000 0.307000 0.310000 1600 45 1.100000 2.442000 2.778000 600 59 1.000000 0.053000 0.053000 1.200000 0.043000 0.051000
1517184715938835114	800 53 1.000000 0.305000 0.308000 1600 45 1.100000 2.460000 2.799000 600 58 1.000000 0.053000 0.053000 1.200000 0.041000 0.049000
1517184716445664614	800 54 1.000000 0.305000 0.308000 1600 45 1.100000 2.454000 2.792000 600 59 1.000000 0.053000 0.053000 1.200000 0.044000 0.053000
1517184716952680864	800 53 1.000000 0.310000 0.313000 1600 45 1.100000 2.491000 2.834000 600 58 1.000000 0.053000 0.053000 1.200000 0.045000 0.054000
1517184717458641239	800 54 1.000000 0.309000 0.312000 1600 45 1.100000 2.425000 2.759000 600 59 1.000000 0.053000 0.053000 1.200000 0.041000 0.049000
1517184717964659614	800 53 1.000000 0.306000 0.309000 1600 45 1.100000 2.429000 2.764000 600 58 1.000000 0.053000 0.053000 1.200000 0.044000 0.053000
1517184718469991197	800 54 1.000000 0.315000 0.318000 1600 45 1.100000 2.429000 2.764000 600 59 1.000000 0.053000 0.053000 1.200000 0.043000 0.052000
1517184718975363614	800 50 1.000000 0.305000 0.308000 1600 45 1.100000 2.522000 2.875000 600 55 1.000000 0.053000 0.053000 1.200000 0.044000 0.053000
1517184719480598614	800 44 1.000000 0.037000 0.037000 1600 42 1.100000 0.223000 0.253000 600 49 1.000000 0.052000 0.052000 1.200000 0.024000 0.028000
