#Timestamp	CPU(0) Frequency(MHz)	CPU(0) Temperature(C)	A7 Voltage(V)	A7 Current(A)	A7 Power(W)	CPU(4) Frequency(MHz)	CPU(4) Temperature(C)	A15 Voltage(V)	A15 Current(A)	A15 Power(W)	GPU Frequency(MHz)	GPU Temperature(C)	GPU Voltage(V)	GPU Current(A)	GPU Power(W)	RAM Voltage(V)	RAM Current(A)	RAM Power(W)
1560017891684155226	1000 39 0.900000 0.047000 0.045000 1000 37 0.900000 0.164000 0.157000 600 41 1.000000 0.051000 0.051000 1.200000 0.051000 0.061000
1560017892192448352	1000 39 1.000000 0.048000 0.052000 1000 37 0.900000 0.524000 0.506000 600 42 1.000000 0.051000 0.051000 1.200000 0.049000 0.059000
1560017892700667602	1000 39 1.000000 0.046000 0.050000 1000 37 0.900000 0.480000 0.463000 600 42 1.000000 0.051000 0.051000 1.200000 0.035000 0.042000
1560017893208814977	1000 39 1.000000 0.047000 0.051000 1000 37 0.900000 0.465000 0.449000 600 41 1.000000 0.051000 0.051000 1.200000 0.035000 0.042000
1560017893717475810	1000 39 1.000000 0.046000 0.050000 1000 37 0.900000 0.477000 0.460000 600 42 1.000000 0.051000 0.051000 1.200000 0.038000 0.045000
1560017894225308102	1000 42 1.000000 0.119000 0.130000 1000 38 0.900000 1.368000 1.326000 600 46 1.000000 0.051000 0.051000 1.200000 0.036000 0.043000
1560017894733094852	1000 43 1.000000 0.136000 0.149000 1000 39 0.900000 1.451000 1.407000 600 48 1.000000 0.051000 0.051000 1.200000 0.024000 0.028000
1560017895240744102	1000 43 1.000000 0.137000 0.150000 1000 39 0.900000 1.457000 1.413000 600 48 1.000000 0.051000 0.051000 1.200000 0.024000 0.028000
1560017895748407810	1000 44 1.000000 0.146000 0.160000 1000 39 0.900000 1.470000 1.427000 600 49 1.000000 0.052000 0.052000 1.200000 0.030000 0.036000
1560017896257000185	1000 44 1.000000 0.148000 0.162000 1000 40 0.900000 1.481000 1.438000 600 49 1.000000 0.051000 0.051000 1.200000 0.034000 0.041000
1560017896765053227	1000 44 1.000000 0.137000 0.150000 1000 40 0.900000 1.455000 1.412000 600 49 1.000000 0.051000 0.051000 1.200000 0.024000 0.028000
1560017897272813019	1000 44 1.000000 0.137000 0.150000 1000 40 0.900000 1.454000 1.411000 600 49 1.000000 0.052000 0.052000 1.200000 0.024000 0.028000
1560017897780679102	1000 45 1.000000 0.137000 0.150000 1000 40 0.900000 1.468000 1.425000 600 49 1.000000 0.051000 0.051000 1.200000 0.024000 0.028000
1560017898288685144	1000 45 1.000000 0.150000 0.164000 1000 40 0.900000 1.456000 1.412000 600 49 1.000000 0.052000 0.052000 1.200000 0.025000 0.030000
1560017898796589269	1000 45 1.000000 0.155000 0.169000 1000 41 0.900000 1.550000 1.505000 600 50 1.000000 0.051000 0.051000 1.200000 0.036000 0.043000
1560017899304318977	1000 45 1.000000 0.138000 0.151000 1000 41 0.900000 1.465000 1.421000 600 50 1.000000 0.051000 0.051000 1.200000 0.024000 0.028000
1560017899812064394	1000 45 1.000000 0.138000 0.151000 1000 41 0.900000 1.459000 1.415000 600 50 1.000000 0.052000 0.052000 1.200000 0.025000 0.030000
1560017900319893769	1000 45 1.000000 0.137000 0.150000 1000 41 0.900000 1.453000 1.409000 600 50 1.000000 0.052000 0.052000 1.200000 0.029000 0.035000
1560017900827523186	1000 45 1.000000 0.159000 0.174000 1000 41 0.900000 1.553000 1.507000 600 50 1.000000 0.052000 0.052000 1.200000 0.025000 0.030000
1560017901335424519	1000 45 1.000000 0.137000 0.150000 1000 41 0.900000 1.455000 1.412000 600 50 1.000000 0.052000 0.052000 1.200000 0.025000 0.030000
1560017901843128894	1000 45 1.000000 0.137000 0.150000 1000 41 0.900000 1.458000 1.415000 600 50 1.000000 0.052000 0.052000 1.200000 0.025000 0.030000
1560017902350939228	1000 45 1.000000 0.137000 0.150000 1000 41 0.900000 1.455000 1.411000 600 50 1.000000 0.052000 0.052000 1.200000 0.029000 0.035000
1560017902858611186	1000 46 1.000000 0.162000 0.177000 1000 41 0.900000 1.553000 1.507000 600 50 1.000000 0.052000 0.052000 1.200000 0.024000 0.028000
1560017903366423936	1000 46 1.000000 0.138000 0.151000 1000 41 0.900000 1.458000 1.414000 600 51 1.000000 0.052000 0.052000 1.200000 0.026000 0.031000
1560017903874274061	1000 46 1.000000 0.138000 0.151000 1000 41 0.900000 1.462000 1.418000 600 51 1.000000 0.052000 0.052000 1.200000 0.024000 0.028000
1560017904382073228	1000 46 1.000000 0.146000 0.160000 1000 41 0.900000 1.499000 1.455000 600 51 1.000000 0.052000 0.052000 1.200000 0.030000 0.036000
1560017904892352561	1000 46 1.000000 0.138000 0.151000 1000 42 0.900000 1.476000 1.433000 600 51 1.000000 0.052000 0.052000 1.200000 0.024000 0.028000
1560017905400624270	1000 46 1.000000 0.162000 0.177000 1000 41 0.900000 1.472000 1.429000 600 51 1.000000 0.052000 0.052000 1.200000 0.041000 0.049000
1560017905908476562	1000 46 1.000000 0.138000 0.151000 1000 41 0.900000 1.457000 1.414000 600 51 1.000000 0.052000 0.052000 1.200000 0.025000 0.030000
1560017906416320353	1000 46 1.000000 0.149000 0.163000 1000 41 0.900000 1.465000 1.422000 600 51 1.000000 0.051000 0.051000 1.200000 0.030000 0.036000
1560017906926934395	1000 46 1.000000 0.139000 0.152000 1000 41 0.900000 1.463000 1.420000 600 51 1.000000 0.052000 0.052000 1.200000 0.025000 0.030000
1560017907435291520	1000 46 1.000000 0.164000 0.179000 1000 42 0.900000 1.520000 1.475000 600 51 1.000000 0.052000 0.052000 1.200000 0.040000 0.048000
1560017907943073103	1000 46 1.000000 0.137000 0.150000 1000 42 0.900000 1.469000 1.426000 600 51 1.000000 0.052000 0.052000 1.200000 0.024000 0.028000
1560017908450941353	1000 46 1.000000 0.137000 0.150000 1000 42 0.900000 1.474000 1.431000 600 51 1.000000 0.052000 0.052000 1.200000 0.032000 0.038000
1560017908958685270	1000 46 1.000000 0.138000 0.151000 1000 41 0.900000 1.473000 1.428000 600 51 1.000000 0.052000 0.052000 1.200000 0.025000 0.030000
1560017909466437062	1000 46 1.000000 0.157000 0.172000 1000 42 0.900000 1.497000 1.453000 600 51 1.000000 0.052000 0.052000 1.200000 0.036000 0.043000
1560017909974216770	1000 46 1.000000 0.138000 0.151000 1000 42 0.900000 1.477000 1.434000 600 51 1.000000 0.052000 0.052000 1.200000 0.025000 0.030000
1560017910482017562	1000 46 1.000000 0.158000 0.173000 1000 42 0.900000 1.473000 1.430000 600 51 1.000000 0.052000 0.052000 1.200000 0.029000 0.035000
1560017910989879854	1000 46 1.000000 0.138000 0.151000 1000 42 0.900000 1.475000 1.430000 600 51 1.000000 0.052000 0.052000 1.200000 0.024000 0.028000
1560017911497549396	1000 46 1.000000 0.139000 0.152000 1000 42 0.900000 1.468000 1.423000 600 51 1.000000 0.052000 0.052000 1.200000 0.025000 0.030000
1560017912005443062	1000 46 1.000000 0.151000 0.165000 1000 42 0.900000 1.537000 1.492000 600 51 1.000000 0.052000 0.052000 1.200000 0.033000 0.039000
1560017912513150854	1000 46 1.000000 0.155000 0.169000 1000 42 0.900000 1.475000 1.432000 600 51 1.000000 0.052000 0.052000 1.200000 0.029000 0.035000
1560017913020956021	1000 46 1.000000 0.138000 0.151000 1000 42 0.900000 1.470000 1.427000 600 51 1.000000 0.052000 0.052000 1.200000 0.024000 0.028000
1560017913528854854	1000 46 1.000000 0.138000 0.151000 1000 42 0.900000 1.471000 1.428000 600 51 1.000000 0.052000 0.052000 1.200000 0.025000 0.030000
1560017914036630646	1000 46 1.000000 0.147000 0.161000 1000 42 0.900000 1.548000 1.503000 600 51 1.000000 0.052000 0.052000 1.200000 0.039000 0.047000
1560017914544442063	1000 46 1.000000 0.157000 0.171000 1000 42 0.900000 1.473000 1.428000 600 51 1.000000 0.052000 0.052000 1.200000 0.031000 0.037000
1560017915052207688	1000 46 1.000000 0.138000 0.151000 1000 42 0.900000 1.478000 1.433000 600 51 1.000000 0.052000 0.052000 1.200000 0.025000 0.030000
1560017915561033813	1000 46 1.000000 0.137000 0.150000 1000 42 0.900000 1.464000 1.420000 600 51 1.000000 0.052000 0.052000 1.200000 0.024000 0.028000
1560017916068982938	1000 46 1.000000 0.168000 0.183000 1000 42 0.900000 1.506000 1.462000 600 51 1.000000 0.052000 0.052000 1.200000 0.044000 0.053000
1560017916576721438	1000 46 1.000000 0.152000 0.166000 1000 42 0.900000 1.478000 1.433000 600 51 1.000000 0.052000 0.052000 1.200000 0.031000 0.037000
1560017917084322521	1000 46 1.000000 0.137000 0.150000 1000 42 0.900000 1.462000 1.418000 600 51 1.000000 0.052000 0.052000 1.200000 0.024000 0.028000
1560017917592020605	1000 46 1.000000 0.138000 0.151000 1000 42 0.900000 1.460000 1.417000 600 51 1.000000 0.052000 0.052000 1.200000 0.024000 0.028000
1560017918099662730	1000 46 1.000000 0.138000 0.151000 1000 42 0.900000 1.463000 1.420000 600 51 1.000000 0.052000 0.052000 1.200000 0.024000 0.028000
1560017918607386355	1000 46 1.000000 0.139000 0.152000 1000 42 0.900000 1.487000 1.442000 600 51 1.000000 0.052000 0.052000 1.200000 0.025000 0.030000
1560017919115074646	1000 46 1.000000 0.138000 0.151000 1000 42 0.900000 1.462000 1.419000 600 51 1.000000 0.052000 0.052000 1.200000 0.025000 0.030000
1560017919622716438	1000 46 1.000000 0.138000 0.151000 1000 42 0.900000 1.471000 1.426000 600 51 1.000000 0.052000 0.052000 1.200000 0.024000 0.028000
1560017920130333522	1000 46 1.000000 0.138000 0.151000 1000 42 0.900000 1.465000 1.421000 600 51 1.000000 0.052000 0.052000 1.200000 0.025000 0.030000
1560017920637901230	1000 46 1.000000 0.149000 0.163000 1000 42 0.900000 1.494000 1.449000 600 51 1.000000 0.052000 0.052000 1.200000 0.024000 0.028000
1560017921145589813	1000 46 1.000000 0.138000 0.151000 1000 42 0.900000 1.465000 1.421000 600 51 1.000000 0.052000 0.052000 1.200000 0.026000 0.031000
1560017921653223063	1000 46 1.000000 0.138000 0.151000 1000 42 0.900000 1.460000 1.416000 600 51 1.000000 0.052000 0.052000 1.200000 0.025000 0.030000
1560017922161151147	1000 46 1.000000 0.138000 0.151000 1000 42 0.900000 1.477000 1.432000 600 51 1.000000 0.052000 0.052000 1.200000 0.024000 0.028000
1560017922669007814	1000 46 1.000000 0.173000 0.189000 1000 42 0.900000 1.486000 1.442000 600 51 1.000000 0.052000 0.052000 1.200000 0.034000 0.041000
1560017923176669314	1000 46 1.000000 0.138000 0.151000 1000 42 0.900000 1.458000 1.414000 600 51 1.000000 0.052000 0.052000 1.200000 0.024000 0.028000
1560017923684309605	1000 46 1.000000 0.139000 0.152000 1000 42 0.900000 1.460000 1.416000 600 51 1.000000 0.052000 0.052000 1.200000 0.024000 0.028000
1560017924191984939	1000 46 1.000000 0.138000 0.151000 1000 42 0.900000 1.459000 1.415000 600 51 1.000000 0.052000 0.052000 1.200000 0.024000 0.028000
1560017924699694480	1000 46 1.000000 0.139000 0.152000 1000 42 0.900000 1.480000 1.435000 600 51 1.000000 0.052000 0.052000 1.200000 0.035000 0.042000
1560017925207495189	1000 46 1.000000 0.148000 0.162000 1000 42 0.900000 1.458000 1.414000 600 51 1.000000 0.052000 0.052000 1.200000 0.025000 0.030000
1560017925715119147	1000 46 1.000000 0.139000 0.152000 1000 42 0.900000 1.475000 1.430000 600 51 1.000000 0.052000 0.052000 1.200000 0.025000 0.030000
1560017926222834856	1000 46 1.000000 0.138000 0.151000 1000 42 0.900000 1.467000 1.422000 600 51 1.000000 0.052000 0.052000 1.200000 0.025000 0.030000
1560017926730503856	1000 47 1.000000 0.146000 0.160000 1000 42 0.900000 1.474000 1.429000 600 51 1.000000 0.052000 0.052000 1.200000 0.028000 0.033000
1560017927238412606	1000 46 1.000000 0.138000 0.151000 1000 42 0.900000 1.470000 1.425000 600 51 1.000000 0.052000 0.052000 1.200000 0.026000 0.031000
1560017927746115981	1000 46 1.000000 0.138000 0.151000 1000 42 0.900000 1.468000 1.423000 600 52 1.000000 0.052000 0.052000 1.200000 0.024000 0.028000
1560017928253893356	1000 46 1.000000 0.138000 0.151000 1000 42 0.900000 1.476000 1.431000 600 51 1.000000 0.052000 0.052000 1.200000 0.024000 0.028000
1560017928761664564	1000 47 1.000000 0.139000 0.152000 1000 42 0.900000 1.461000 1.417000 600 51 1.000000 0.052000 0.052000 1.200000 0.024000 0.028000
1560017929269327023	1000 46 1.000000 0.170000 0.185000 1000 42 0.900000 1.461000 1.417000 600 51 1.000000 0.052000 0.052000 1.200000 0.024000 0.028000
1560017929777102023	1000 47 1.000000 0.139000 0.152000 1000 42 0.900000 1.460000 1.417000 600 52 1.000000 0.052000 0.052000 1.200000 0.024000 0.028000
1560017930284769481	1000 47 1.000000 0.138000 0.151000 1000 42 0.900000 1.460000 1.416000 600 52 1.000000 0.052000 0.052000 1.200000 0.023000 0.027000
1560017930792897064	1000 47 1.000000 0.137000 0.150000 1000 42 0.900000 1.465000 1.421000 600 51 1.000000 0.052000 0.052000 1.200000 0.024000 0.028000
1560017931300713981	1000 47 1.000000 0.147000 0.161000 1000 42 0.900000 1.462000 1.419000 600 52 1.000000 0.052000 0.052000 1.200000 0.025000 0.030000
1560017931808468273	1000 47 1.000000 0.139000 0.152000 1000 42 0.900000 1.477000 1.432000 600 52 1.000000 0.052000 0.052000 1.200000 0.025000 0.030000
1560017932316227731	1000 46 1.000000 0.139000 0.152000 1000 42 0.900000 1.459000 1.415000 600 52 1.000000 0.052000 0.052000 1.200000 0.025000 0.030000
1560017932823888273	1000 47 1.000000 0.139000 0.152000 1000 42 0.900000 1.481000 1.436000 600 51 1.000000 0.052000 0.052000 1.200000 0.024000 0.028000
1560017933331637065	1000 47 1.000000 0.177000 0.193000 1000 42 0.900000 1.541000 1.496000 600 52 1.000000 0.052000 0.052000 1.200000 0.045000 0.054000
1560017933839298607	1000 47 1.000000 0.138000 0.151000 1000 42 0.900000 1.474000 1.429000 600 51 1.000000 0.052000 0.052000 1.200000 0.024000 0.028000
1560017934347000190	1000 47 1.000000 0.138000 0.151000 1000 42 0.900000 1.458000 1.414000 600 51 1.000000 0.052000 0.052000 1.200000 0.024000 0.028000
1560017934854791982	1000 46 1.000000 0.138000 0.151000 1000 42 0.900000 1.465000 1.421000 600 51 1.000000 0.052000 0.052000 1.200000 0.024000 0.028000
1560017935362340898	1000 47 1.000000 0.150000 0.164000 1000 42 0.900000 1.515000 1.471000 600 52 1.000000 0.052000 0.052000 1.200000 0.038000 0.045000
1560017935870023148	1000 47 1.000000 0.139000 0.152000 1000 42 0.900000 1.456000 1.412000 600 52 1.000000 0.052000 0.052000 1.200000 0.024000 0.028000
1560017936377770565	1000 47 1.000000 0.138000 0.151000 1000 42 0.900000 1.460000 1.416000 600 51 1.000000 0.052000 0.052000 1.200000 0.024000 0.028000
1560017936885566190	1000 47 1.000000 0.139000 0.152000 1000 42 0.900000 1.460000 1.416000 600 52 1.000000 0.052000 0.052000 1.200000 0.024000 0.028000
1560017937395596649	1000 47 1.000000 0.157000 0.171000 1000 42 0.900000 1.491000 1.446000 600 52 1.000000 0.052000 0.052000 1.200000 0.034000 0.041000
1560017937903904232	1000 47 1.000000 0.138000 0.151000 1000 42 0.900000 1.457000 1.413000 600 52 1.000000 0.052000 0.052000 1.200000 0.024000 0.028000
1560017938411695232	1000 47 1.000000 0.138000 0.151000 1000 42 0.900000 1.457000 1.413000 600 52 1.000000 0.052000 0.052000 1.200000 0.025000 0.030000
1560017938919360315	1000 47 1.000000 0.139000 0.152000 1000 42 0.900000 1.473000 1.428000 600 52 1.000000 0.052000 0.052000 1.200000 0.025000 0.030000
1560017939428048524	1000 47 1.000000 0.157000 0.171000 1000 42 0.900000 1.465000 1.422000 600 52 1.000000 0.052000 0.052000 1.200000 0.024000 0.028000
1560017939936087566	1000 47 1.000000 0.173000 0.189000 1000 42 0.900000 1.523000 1.478000 600 52 1.000000 0.052000 0.052000 1.200000 0.031000 0.037000
1560017940443941232	1000 47 1.000000 0.138000 0.151000 1000 42 0.900000 1.459000 1.415000 600 52 1.000000 0.052000 0.052000 1.200000 0.024000 0.028000
1560017940951585732	1000 47 1.000000 0.137000 0.150000 1000 42 0.900000 1.463000 1.419000 600 52 1.000000 0.052000 0.052000 1.200000 0.025000 0.030000
1560017941459394399	1000 47 1.000000 0.137000 0.150000 1000 42 0.900000 1.464000 1.420000 600 52 1.000000 0.052000 0.052000 1.200000 0.024000 0.028000
1560017941967145982	1000 47 1.000000 0.143000 0.156000 1000 43 0.900000 1.529000 1.484000 600 52 1.000000 0.052000 0.052000 1.200000 0.026000 0.031000
1560017942474959774	1000 47 1.000000 0.138000 0.151000 1000 42 0.900000 1.452000 1.409000 600 52 1.000000 0.052000 0.052000 1.200000 0.025000 0.030000
1560017942982731649	1000 47 1.000000 0.139000 0.152000 1000 42 0.900000 1.457000 1.413000 600 52 1.000000 0.052000 0.052000 1.200000 0.024000 0.028000
1560017943490442274	1000 47 1.000000 0.157000 0.171000 1000 42 0.900000 1.463000 1.420000 600 52 1.000000 0.052000 0.052000 1.200000 0.028000 0.033000
1560017943998201358	1000 47 1.000000 0.149000 0.163000 1000 43 0.900000 1.529000 1.484000 600 52 1.000000 0.052000 0.052000 1.200000 0.024000 0.028000
1560017944505970316	1000 47 1.000000 0.138000 0.151000 1000 43 0.900000 1.468000 1.423000 600 52 1.000000 0.052000 0.052000 1.200000 0.024000 0.028000
1560017945015041441	1000 47 1.000000 0.139000 0.152000 1000 42 0.900000 1.469000 1.426000 600 52 1.000000 0.052000 0.052000 1.200000 0.025000 0.030000
1560017945523044650	1000 47 1.000000 0.139000 0.152000 1000 42 0.900000 1.461000 1.417000 600 52 1.000000 0.052000 0.052000 1.200000 0.024000 0.028000
1560017946032181400	1000 47 1.000000 0.138000 0.151000 1000 42 0.900000 1.476000 1.431000 600 52 1.000000 0.052000 0.052000 1.200000 0.025000 0.030000
1560017946540457900	1000 47 1.000000 0.155000 0.169000 1000 42 0.900000 1.523000 1.478000 600 52 1.000000 0.052000 0.052000 1.200000 0.043000 0.051000
1560017947048213525	1000 47 1.000000 0.137000 0.150000 1000 43 0.900000 1.467000 1.424000 600 52 1.000000 0.052000 0.052000 1.200000 0.024000 0.028000
1560017947555938275	1000 47 1.000000 0.138000 0.151000 1000 43 0.900000 1.477000 1.432000 600 52 1.000000 0.052000 0.052000 1.200000 0.025000 0.030000
1560017948063658733	1000 47 1.000000 0.138000 0.151000 1000 42 0.900000 1.468000 1.423000 600 52 1.000000 0.052000 0.052000 1.200000 0.024000 0.028000
1560017948571380525	1000 47 1.000000 0.157000 0.172000 1000 43 0.900000 1.527000 1.482000 600 52 1.000000 0.052000 0.052000 1.200000 0.040000 0.048000
1560017949079115942	1000 47 1.000000 0.139000 0.152000 1000 42 0.900000 1.473000 1.428000 600 52 1.000000 0.052000 0.052000 1.200000 0.025000 0.030000
1560017949586743108	1000 47 1.000000 0.139000 0.152000 1000 43 0.900000 1.470000 1.425000 600 52 1.000000 0.052000 0.052000 1.200000 0.024000 0.028000
1560017950094453483	1000 47 1.000000 0.137000 0.150000 1000 42 0.900000 1.469000 1.424000 600 52 1.000000 0.052000 0.052000 1.200000 0.025000 0.030000
1560017950602009025	1000 47 1.000000 0.160000 0.175000 1000 43 0.900000 1.499000 1.454000 600 52 1.000000 0.052000 0.052000 1.200000 0.035000 0.042000
1560017951109752025	1000 47 1.000000 0.139000 0.152000 1000 42 0.900000 1.476000 1.431000 600 52 1.000000 0.052000 0.052000 1.200000 0.024000 0.028000
1560017951617428775	1000 47 1.000000 0.157000 0.171000 1000 43 0.900000 1.464000 1.420000 600 52 1.000000 0.052000 0.052000 1.200000 0.024000 0.028000
1560017952125216775	1000 47 1.000000 0.139000 0.152000 1000 43 0.900000 1.475000 1.430000 600 52 1.000000 0.052000 0.052000 1.200000 0.031000 0.037000
1560017952632814734	1000 47 1.000000 0.139000 0.152000 1000 43 0.900000 1.474000 1.429000 600 52 1.000000 0.052000 0.052000 1.200000 0.025000 0.030000
1560017953140509275	1000 47 1.000000 0.139000 0.152000 1000 43 0.900000 1.542000 1.497000 600 52 1.000000 0.052000 0.052000 1.200000 0.034000 0.041000
1560017953648237692	1000 47 1.000000 0.138000 0.151000 1000 42 0.900000 1.474000 1.429000 600 52 1.000000 0.052000 0.052000 1.200000 0.025000 0.030000
1560017954155948442	1000 47 1.000000 0.158000 0.173000 1000 42 0.900000 1.466000 1.422000 600 52 1.000000 0.052000 0.052000 1.200000 0.027000 0.032000
1560017954665429359	1000 47 1.000000 0.139000 0.152000 1000 43 0.900000 1.475000 1.430000 600 52 1.000000 0.052000 0.052000 1.200000 0.025000 0.030000
1560017955173876276	1000 47 1.000000 0.164000 0.179000 1000 42 0.900000 1.552000 1.506000 600 52 1.000000 0.052000 0.052000 1.200000 0.039000 0.047000
1560017955681600859	1000 47 1.000000 0.138000 0.151000 1000 43 0.900000 1.467000 1.422000 600 52 1.000000 0.052000 0.052000 1.200000 0.024000 0.028000
1560017956189470401	1000 47 1.000000 0.140000 0.153000 1000 43 0.900000 1.476000 1.431000 600 52 1.000000 0.052000 0.052000 1.200000 0.025000 0.030000
1560017956697272068	1000 47 1.000000 0.138000 0.151000 1000 42 0.900000 1.464000 1.421000 600 52 1.000000 0.052000 0.052000 1.200000 0.024000 0.028000
1560017957205001401	1000 47 1.000000 0.161000 0.176000 1000 43 0.900000 1.556000 1.510000 600 52 1.000000 0.052000 0.052000 1.200000 0.040000 0.048000
1560017957712783484	1000 47 1.000000 0.137000 0.150000 1000 43 0.900000 1.463000 1.419000 600 52 1.000000 0.052000 0.052000 1.200000 0.024000 0.028000
1560017958220591984	1000 47 1.000000 0.138000 0.151000 1000 43 0.900000 1.460000 1.416000 600 52 1.000000 0.052000 0.052000 1.200000 0.024000 0.028000
1560017958728440109	1000 47 1.000000 0.139000 0.152000 1000 43 0.900000 1.460000 1.416000 600 52 1.000000 0.052000 0.052000 1.200000 0.025000 0.030000
1560017959236131443	1000 47 1.000000 0.144000 0.157000 1000 43 0.900000 1.467000 1.422000 600 52 1.000000 0.052000 0.052000 1.200000 0.024000 0.028000
1560017959743843443	1000 47 1.000000 0.139000 0.152000 1000 43 0.900000 1.483000 1.438000 600 52 1.000000 0.052000 0.052000 1.200000 0.025000 0.030000
1560017960251630235	1000 47 1.000000 0.152000 0.166000 1000 42 0.900000 1.466000 1.422000 600 52 1.000000 0.052000 0.052000 1.200000 0.032000 0.038000
1560017960759327568	1000 47 1.000000 0.138000 0.151000 1000 42 0.900000 1.479000 1.434000 600 52 1.000000 0.052000 0.052000 1.200000 0.025000 0.030000
1560017961266875735	1000 47 1.000000 0.137000 0.150000 1000 43 0.900000 1.469000 1.424000 600 52 1.000000 0.052000 0.052000 1.200000 0.025000 0.030000
1560017961774688443	1000 47 1.000000 0.152000 0.166000 1000 43 0.900000 1.480000 1.435000 600 52 1.000000 0.052000 0.052000 1.200000 0.024000 0.028000
1560017962282493527	1000 47 1.000000 0.157000 0.171000 1000 43 0.900000 1.480000 1.437000 600 52 1.000000 0.052000 0.052000 1.200000 0.030000 0.036000
1560017962790316652	1000 47 1.000000 0.139000 0.152000 1000 43 0.900000 1.471000 1.426000 600 52 1.000000 0.052000 0.052000 1.200000 0.024000 0.028000
1560017963300363068	1000 47 1.000000 0.138000 0.151000 1000 43 0.900000 1.456000 1.413000 600 52 1.000000 0.052000 0.052000 1.200000 0.024000 0.028000
1560017963809336235	1000 47 1.000000 0.144000 0.157000 1000 43 0.900000 1.490000 1.446000 600 52 1.000000 0.052000 0.052000 1.200000 0.027000 0.032000
1560017964317097652	1000 47 1.000000 0.148000 0.162000 1000 43 0.900000 1.460000 1.417000 600 52 1.000000 0.052000 0.052000 1.200000 0.026000 0.031000
1560017964824872777	1000 47 1.000000 0.139000 0.152000 1000 43 0.900000 1.461000 1.418000 600 52 1.000000 0.052000 0.052000 1.200000 0.024000 0.028000
1560017965332593902	1000 47 1.000000 0.139000 0.152000 1000 43 0.900000 1.461000 1.418000 600 52 1.000000 0.052000 0.052000 1.200000 0.024000 0.028000
1560017965840324985	1000 47 1.000000 0.162000 0.177000 1000 43 0.900000 1.519000 1.473000 600 52 1.000000 0.052000 0.052000 1.200000 0.035000 0.042000
1560017966348093402	1000 47 1.000000 0.157000 0.171000 1000 43 0.900000 1.465000 1.422000 600 52 1.000000 0.052000 0.052000 1.200000 0.032000 0.038000
1560017966855820652	1000 47 1.000000 0.138000 0.151000 1000 43 0.900000 1.468000 1.423000 600 52 1.000000 0.052000 0.052000 1.200000 0.025000 0.030000
1560017967363608110	1000 47 1.000000 0.138000 0.151000 1000 43 0.900000 1.469000 1.424000 600 52 1.000000 0.052000 0.052000 1.200000 0.025000 0.030000
1560017967871262944	1000 47 1.000000 0.138000 0.151000 1000 43 0.900000 1.489000 1.445000 600 52 1.000000 0.052000 0.052000 1.200000 0.032000 0.038000
1560017968379052444	1000 47 1.000000 0.146000 0.160000 1000 43 0.900000 1.507000 1.463000 600 52 1.000000 0.052000 0.052000 1.200000 0.030000 0.036000
1560017968886880486	1000 47 1.000000 0.138000 0.151000 1000 43 0.900000 1.462000 1.419000 600 52 1.000000 0.052000 0.052000 1.200000 0.024000 0.028000
1560017969394770652	1000 47 1.000000 0.139000 0.152000 1000 43 0.900000 1.456000 1.413000 600 52 1.000000 0.052000 0.052000 1.200000 0.024000 0.028000
1560017969902236777	1000 47 1.000000 0.138000 0.151000 1000 43 0.900000 1.460000 1.417000 600 52 1.000000 0.052000 0.052000 1.200000 0.027000 0.032000
1560017970410230236	1000 47 1.000000 0.150000 0.164000 1000 43 0.900000 1.499000 1.455000 600 52 1.000000 0.052000 0.052000 1.200000 0.030000 0.036000
1560017970918185028	1000 47 1.000000 0.138000 0.151000 1000 43 0.900000 1.465000 1.422000 600 52 1.000000 0.052000 0.052000 1.200000 0.024000 0.028000
1560017971425972028	1000 47 1.000000 0.138000 0.151000 1000 43 0.900000 1.468000 1.425000 600 52 1.000000 0.052000 0.052000 1.200000 0.024000 0.028000
1560017971934130403	1000 47 1.000000 0.138000 0.151000 1000 43 0.900000 1.462000 1.419000 600 52 1.000000 0.052000 0.052000 1.200000 0.024000 0.028000
1560017972442144986	1000 47 1.000000 0.173000 0.189000 1000 43 0.900000 1.544000 1.499000 600 52 1.000000 0.052000 0.052000 1.200000 0.043000 0.051000
1560017972949996486	1000 47 1.000000 0.139000 0.152000 1000 43 0.900000 1.474000 1.429000 600 52 1.000000 0.052000 0.052000 1.200000 0.025000 0.030000
1560017973457912195	1000 47 1.000000 0.139000 0.152000 1000 43 0.900000 1.466000 1.422000 600 52 1.000000 0.052000 0.052000 1.200000 0.025000 0.030000
1560017973965804403	1000 47 1.000000 0.138000 0.151000 1000 43 0.900000 1.470000 1.425000 600 52 1.000000 0.052000 0.052000 1.200000 0.024000 0.028000
1560017974473658278	1000 47 1.000000 0.144000 0.157000 1000 43 0.900000 1.552000 1.506000 600 52 1.000000 0.052000 0.052000 1.200000 0.045000 0.054000
1560017974981373111	1000 47 1.000000 0.138000 0.151000 1000 43 0.900000 1.465000 1.421000 600 52 1.000000 0.052000 0.052000 1.200000 0.024000 0.028000
1560017975489289986	1000 47 1.000000 0.138000 0.151000 1000 43 0.900000 1.463000 1.419000 600 52 1.000000 0.052000 0.052000 1.200000 0.024000 0.028000
1560017975997091737	1000 47 1.000000 0.137000 0.150000 1000 43 0.900000 1.467000 1.422000 600 52 1.000000 0.052000 0.052000 1.200000 0.024000 0.028000
1560017976504854278	1000 47 1.000000 0.156000 0.170000 1000 43 0.900000 1.552000 1.506000 600 52 1.000000 0.052000 0.052000 1.200000 0.045000 0.054000
1560017977012456028	1000 47 1.000000 0.138000 0.151000 1000 43 0.900000 1.453000 1.409000 600 52 1.000000 0.052000 0.052000 1.200000 0.024000 0.028000
1560017977520262653	1000 47 1.000000 0.137000 0.150000 1000 43 0.900000 1.461000 1.418000 600 52 1.000000 0.052000 0.052000 1.200000 0.024000 0.028000
1560017978027977403	1000 47 1.000000 0.138000 0.151000 1000 43 0.900000 1.466000 1.422000 600 52 1.000000 0.052000 0.052000 1.200000 0.024000 0.028000
1560017978535976487	1000 47 1.000000 0.172000 0.188000 1000 43 0.900000 1.520000 1.475000 600 52 1.000000 0.052000 0.052000 1.200000 0.042000 0.050000
1560017979043957279	1000 47 1.000000 0.147000 0.160000 1000 43 0.900000 1.507000 1.463000 600 52 1.000000 0.052000 0.052000 1.200000 0.042000 0.050000
1560017979551762404	1000 47 1.000000 0.139000 0.152000 1000 43 0.900000 1.468000 1.425000 600 52 1.000000 0.052000 0.052000 1.200000 0.024000 0.028000
1560017980059598445	1000 47 1.000000 0.138000 0.151000 1000 43 0.900000 1.463000 1.420000 600 52 1.000000 0.052000 0.052000 1.200000 0.025000 0.030000
1560017980569613862	1000 47 1.000000 0.139000 0.152000 1000 43 0.900000 1.464000 1.420000 600 52 1.000000 0.052000 0.052000 1.200000 0.024000 0.028000
1560017981078713987	1000 47 1.000000 0.177000 0.193000 1000 43 0.900000 1.525000 1.480000 600 52 1.000000 0.052000 0.052000 1.200000 0.039000 0.047000
1560017981586489904	1000 47 1.000000 0.139000 0.152000 1000 43 0.900000 1.471000 1.426000 600 52 1.000000 0.052000 0.052000 1.200000 0.025000 0.030000
1560017982094161862	1000 47 1.000000 0.138000 0.151000 1000 43 0.900000 1.463000 1.420000 600 52 1.000000 0.052000 0.052000 1.200000 0.024000 0.028000
1560017982601811612	1000 47 1.000000 0.138000 0.151000 1000 43 0.900000 1.472000 1.429000 600 52 1.000000 0.052000 0.052000 1.200000 0.025000 0.030000
1560017983109466612	1000 47 1.000000 0.163000 0.178000 1000 43 0.900000 1.490000 1.446000 600 52 1.000000 0.052000 0.052000 1.200000 0.034000 0.041000
1560017983617232862	1000 47 1.000000 0.138000 0.151000 1000 43 0.900000 1.466000 1.423000 600 52 1.000000 0.052000 0.052000 1.200000 0.025000 0.030000
1560017984125046987	1000 47 1.000000 0.139000 0.152000 1000 43 0.900000 1.475000 1.432000 600 52 1.000000 0.052000 0.052000 1.200000 0.025000 0.030000
1560017984632983946	1000 47 1.000000 0.139000 0.152000 1000 43 0.900000 1.460000 1.417000 600 52 1.000000 0.052000 0.052000 1.200000 0.024000 0.028000
1560017985140534154	1000 47 1.000000 0.158000 0.173000 1000 43 0.900000 1.476000 1.433000 600 52 1.000000 0.052000 0.052000 1.200000 0.026000 0.031000
1560017985648197571	1000 47 1.000000 0.138000 0.151000 1000 43 0.900000 1.462000 1.419000 600 52 1.000000 0.052000 0.052000 1.200000 0.024000 0.028000
1560017986155930654	1000 47 1.000000 0.138000 0.151000 1000 43 0.900000 1.476000 1.433000 600 52 1.000000 0.052000 0.052000 1.200000 0.025000 0.030000
1560017986664662196	1000 47 1.000000 0.139000 0.152000 1000 43 0.900000 1.475000 1.432000 600 52 1.000000 0.052000 0.052000 1.200000 0.025000 0.030000
1560017987173557321	1000 47 1.000000 0.157000 0.171000 1000 43 0.900000 1.470000 1.427000 600 52 1.000000 0.052000 0.052000 1.200000 0.030000 0.036000
1560017987682377405	1000 47 1.000000 0.163000 0.178000 1000 43 0.900000 1.556000 1.510000 600 52 1.000000 0.052000 0.052000 1.200000 0.042000 0.050000
1560017988190135905	1000 47 1.000000 0.139000 0.152000 1000 43 0.900000 1.475000 1.432000 600 52 1.000000 0.052000 0.052000 1.200000 0.025000 0.030000
1560017988698043280	1000 47 1.000000 0.138000 0.151000 1000 43 0.900000 1.474000 1.431000 600 52 1.000000 0.052000 0.052000 1.200000 0.025000 0.030000
1560017989205730613	1000 47 1.000000 0.158000 0.173000 1000 43 0.900000 1.471000 1.428000 600 52 1.000000 0.052000 0.052000 1.200000 0.031000 0.037000
1560017989713582530	1000 47 1.000000 0.159000 0.174000 1000 43 0.900000 1.559000 1.513000 600 52 1.000000 0.052000 0.052000 1.200000 0.040000 0.048000
1560017990221420238	1000 47 1.000000 0.139000 0.152000 1000 43 0.900000 1.479000 1.436000 600 52 1.000000 0.052000 0.052000 1.200000 0.025000 0.030000
1560017990729098072	1000 47 1.000000 0.138000 0.151000 1000 43 0.900000 1.466000 1.423000 600 52 1.000000 0.052000 0.052000 1.200000 0.025000 0.030000
1560017991236782363	1000 47 1.000000 0.138000 0.151000 1000 43 0.900000 1.482000 1.439000 600 52 1.000000 0.052000 0.052000 1.200000 0.030000 0.036000
1560017991744464947	1000 47 1.000000 0.148000 0.162000 1000 43 0.900000 1.537000 1.492000 600 52 1.000000 0.052000 0.052000 1.200000 0.039000 0.047000
1560017992252347947	1000 47 1.000000 0.139000 0.152000 1000 43 0.900000 1.462000 1.419000 600 52 1.000000 0.052000 0.052000 1.200000 0.024000 0.028000
1560017992760097905	1000 47 1.000000 0.139000 0.152000 1000 43 0.900000 1.477000 1.434000 600 52 1.000000 0.053000 0.053000 1.200000 0.026000 0.031000
1560017993268894197	1000 47 1.000000 0.139000 0.152000 1000 43 0.900000 1.464000 1.421000 600 52 1.000000 0.052000 0.052000 1.200000 0.026000 0.031000
1560017993777295989	1000 47 1.000000 0.139000 0.152000 1000 43 0.900000 1.461000 1.418000 600 52 1.000000 0.052000 0.052000 1.200000 0.025000 0.030000
1560017994285153447	1000 47 1.000000 0.147000 0.161000 1000 43 0.900000 1.508000 1.462000 600 52 1.000000 0.052000 0.052000 1.200000 0.031000 0.037000
1560017994792927905	1000 47 1.000000 0.139000 0.152000 1000 43 0.900000 1.463000 1.420000 600 52 1.000000 0.052000 0.052000 1.200000 0.024000 0.028000
1560017995300725405	1000 47 1.000000 0.158000 0.173000 1000 43 0.900000 1.481000 1.436000 600 52 1.000000 0.052000 0.052000 1.200000 0.031000 0.037000
1560017995811312197	1000 47 1.000000 0.137000 0.150000 1000 43 0.900000 1.465000 1.421000 600 52 1.000000 0.052000 0.052000 1.200000 0.025000 0.030000
1560017996319624197	1000 47 1.000000 0.142000 0.155000 1000 43 0.900000 1.521000 1.476000 600 52 1.000000 0.052000 0.052000 1.200000 0.034000 0.041000
1560017996827510947	1000 47 1.000000 0.139000 0.152000 1000 43 0.900000 1.471000 1.428000 600 52 1.000000 0.052000 0.052000 1.200000 0.025000 0.030000
1560017997335307947	1000 47 1.000000 0.157000 0.171000 1000 43 0.900000 1.480000 1.437000 600 52 1.000000 0.052000 0.052000 1.200000 0.030000 0.036000
1560017997843084697	1000 47 1.000000 0.138000 0.151000 1000 43 0.900000 1.465000 1.421000 600 52 1.000000 0.052000 0.052000 1.200000 0.024000 0.028000
1560017998351034198	1000 47 1.000000 0.168000 0.183000 1000 43 0.900000 1.525000 1.479000 600 52 1.000000 0.052000 0.052000 1.200000 0.039000 0.047000
1560017998858833406	1000 47 1.000000 0.138000 0.151000 1000 43 0.900000 1.462000 1.418000 600 52 1.000000 0.052000 0.052000 1.200000 0.024000 0.028000
1560017999366660781	1000 47 1.000000 0.139000 0.152000 1000 43 0.900000 1.472000 1.427000 600 52 1.000000 0.052000 0.052000 1.200000 0.030000 0.036000
1560017999874336656	1000 47 1.000000 0.138000 0.151000 1000 43 0.900000 1.470000 1.425000 600 52 1.000000 0.052000 0.052000 1.200000 0.025000 0.030000
1560018000382151489	1000 47 1.000000 0.138000 0.151000 1000 43 0.900000 1.475000 1.432000 600 52 1.000000 0.052000 0.052000 1.200000 0.025000 0.030000
1560018000889882906	1000 47 1.000000 0.139000 0.152000 1000 43 0.900000 1.472000 1.429000 600 52 1.000000 0.052000 0.052000 1.200000 0.025000 0.030000
1560018001397695865	1000 47 1.000000 0.139000 0.152000 1000 43 0.900000 1.480000 1.437000 600 52 1.000000 0.052000 0.052000 1.200000 0.024000 0.028000
1560018001905506656	1000 47 1.000000 0.138000 0.151000 1000 43 0.900000 1.461000 1.418000 600 52 1.000000 0.052000 0.052000 1.200000 0.025000 0.030000
1560018002413068948	1000 47 1.000000 0.138000 0.151000 1000 43 0.900000 1.473000 1.430000 600 52 1.000000 0.052000 0.052000 1.200000 0.024000 0.028000
1560018002920818531	1000 47 1.000000 0.138000 0.151000 1000 43 0.900000 1.463000 1.419000 600 52 1.000000 0.052000 0.052000 1.200000 0.024000 0.028000
1560018003428662448	1000 47 1.000000 0.157000 0.171000 1000 43 0.900000 1.469000 1.424000 600 52 1.000000 0.052000 0.052000 1.200000 0.026000 0.031000
1560018003936365032	1000 47 1.000000 0.139000 0.152000 1000 43 0.900000 1.461000 1.418000 600 52 1.000000 0.052000 0.052000 1.200000 0.024000 0.028000
1560018004444486323	1000 47 1.000000 0.139000 0.152000 1000 43 0.900000 1.460000 1.417000 600 52 1.000000 0.052000 0.052000 1.200000 0.024000 0.028000
1560018004952393490	1000 47 1.000000 0.168000 0.183000 1000 43 0.900000 1.465000 1.421000 600 52 1.000000 0.052000 0.052000 1.200000 0.024000 0.028000
1560018005460158657	1000 47 1.000000 0.139000 0.152000 1000 43 0.900000 1.471000 1.426000 600 52 1.000000 0.052000 0.052000 1.200000 0.029000 0.035000
1560018005967885532	1000 47 1.000000 0.138000 0.151000 1000 43 0.900000 1.468000 1.423000 600 52 1.000000 0.052000 0.052000 1.200000 0.024000 0.028000
1560018006475688365	1000 47 1.000000 0.139000 0.152000 1000 43 0.900000 1.471000 1.426000 600 52 1.000000 0.052000 0.052000 1.200000 0.024000 0.028000
1560018006983462657	1000 47 1.000000 0.147000 0.161000 1000 43 0.900000 1.512000 1.468000 600 52 1.000000 0.052000 0.052000 1.200000 0.039000 0.047000
1560018007491256199	1000 47 1.000000 0.138000 0.151000 1000 43 0.900000 1.471000 1.426000 600 52 1.000000 0.052000 0.052000 1.200000 0.025000 0.030000
1560018007999020074	1000 47 1.000000 0.139000 0.152000 1000 43 0.900000 1.463000 1.419000 600 52 1.000000 0.052000 0.052000 1.200000 0.026000 0.031000
1560018008506685032	1000 47 1.000000 0.139000 0.152000 1000 43 0.900000 1.479000 1.436000 600 52 1.000000 0.052000 0.052000 1.200000 0.024000 0.028000
1560018009014421449	1000 47 1.000000 0.153000 0.167000 1000 43 0.900000 1.486000 1.441000 600 52 1.000000 0.052000 0.052000 1.200000 0.034000 0.041000
1560018009522073241	1000 47 1.000000 0.139000 0.152000 1000 43 0.900000 1.457000 1.413000 600 52 1.000000 0.052000 0.052000 1.200000 0.024000 0.028000
1560018010029866824	1000 47 1.000000 0.139000 0.152000 1000 43 0.900000 1.457000 1.413000 600 52 1.000000 0.052000 0.052000 1.200000 0.024000 0.028000
1560018010537531116	1000 47 1.000000 0.139000 0.152000 1000 43 0.900000 1.465000 1.421000 600 52 1.000000 0.052000 0.052000 1.200000 0.024000 0.028000
1560018011045654782	1000 47 1.000000 0.139000 0.152000 1000 43 0.900000 1.476000 1.431000 600 52 1.000000 0.052000 0.052000 1.200000 0.027000 0.032000
1560018011554348199	1000 47 1.000000 0.151000 0.165000 1000 43 0.900000 1.465000 1.422000 600 52 1.000000 0.052000 0.052000 1.200000 0.024000 0.028000
1560018012062414741	1000 47 1.000000 0.141000 0.154000 1000 43 0.900000 1.466000 1.423000 600 52 1.000000 0.052000 0.052000 1.200000 0.024000 0.028000
1560018012570188616	1000 47 1.000000 0.139000 0.152000 1000 43 0.900000 1.467000 1.424000 600 52 1.000000 0.052000 0.052000 1.200000 0.024000 0.028000
1560018013078264241	1000 47 1.000000 0.139000 0.152000 1000 43 0.900000 1.470000 1.427000 600 52 1.000000 0.052000 0.052000 1.200000 0.025000 0.030000
1560018013586227949	1000 47 1.000000 0.160000 0.175000 1000 43 0.900000 1.559000 1.513000 600 52 1.000000 0.052000 0.052000 1.200000 0.041000 0.049000
1560018014094105699	1000 47 1.000000 0.158000 0.173000 1000 43 0.900000 1.465000 1.422000 600 52 1.000000 0.052000 0.052000 1.200000 0.029000 0.035000
1560018014601899116	1000 47 1.000000 0.138000 0.151000 1000 43 0.900000 1.459000 1.415000 600 52 1.000000 0.052000 0.052000 1.200000 0.024000 0.028000
1560018015109702491	1000 47 1.000000 0.139000 0.152000 1000 43 0.900000 1.467000 1.422000 600 52 1.000000 0.052000 0.052000 1.200000 0.024000 0.028000
1560018015617378533	1000 47 1.000000 0.163000 0.178000 1000 43 0.900000 1.552000 1.506000 600 52 1.000000 0.052000 0.052000 1.200000 0.040000 0.048000
1560018016125102491	1000 47 1.000000 0.143000 0.156000 1000 43 0.900000 1.467000 1.422000 600 52 1.000000 0.052000 0.052000 1.200000 0.024000 0.028000
1560018016632902783	1000 47 1.000000 0.138000 0.151000 1000 43 0.900000 1.466000 1.422000 600 52 1.000000 0.052000 0.052000 1.200000 0.024000 0.028000
1560018017140716033	1000 47 1.000000 0.138000 0.151000 1000 43 0.900000 1.454000 1.410000 600 52 1.000000 0.052000 0.052000 1.200000 0.024000 0.028000
1560018017648489033	1000 47 1.000000 0.139000 0.152000 1000 43 0.900000 1.551000 1.506000 600 52 1.000000 0.052000 0.052000 1.200000 0.040000 0.048000
1560018018156323200	1000 47 1.000000 0.159000 0.174000 1000 43 0.900000 1.466000 1.422000 600 52 1.000000 0.052000 0.052000 1.200000 0.025000 0.030000
1560018018664119658	1000 47 1.000000 0.139000 0.152000 1000 43 0.900000 1.471000 1.428000 600 52 1.000000 0.052000 0.052000 1.200000 0.024000 0.028000
1560018019171811950	1000 47 1.000000 0.139000 0.152000 1000 43 0.900000 1.474000 1.431000 600 52 1.000000 0.052000 0.052000 1.200000 0.025000 0.030000
1560018019681436117	1000 47 1.000000 0.139000 0.152000 1000 43 0.900000 1.460000 1.416000 600 52 1.000000 0.052000 0.052000 1.200000 0.024000 0.028000
1560018020189367158	1000 47 1.000000 0.172000 0.188000 1000 43 0.900000 1.538000 1.493000 600 52 1.000000 0.052000 0.052000 1.200000 0.038000 0.045000
1560018020697128909	1000 47 1.000000 0.138000 0.151000 1000 43 0.900000 1.482000 1.439000 600 52 1.000000 0.052000 0.052000 1.200000 0.026000 0.031000
1560018021204906492	1000 47 1.000000 0.139000 0.152000 1000 43 0.900000 1.456000 1.413000 600 52 1.000000 0.053000 0.053000 1.200000 0.024000 0.028000
1560018021713476950	1000 47 1.000000 0.139000 0.152000 1000 43 0.900000 1.482000 1.437000 600 52 1.000000 0.052000 0.052000 1.200000 0.025000 0.030000
1560018022221377742	1000 47 1.000000 0.178000 0.194000 1000 43 0.900000 1.525000 1.480000 600 52 1.000000 0.052000 0.052000 1.200000 0.034000 0.041000
1560018022729266325	1000 47 1.000000 0.138000 0.151000 1000 43 0.900000 1.468000 1.425000 600 52 1.000000 0.052000 0.052000 1.200000 0.024000 0.028000
1560018023237052367	1000 47 1.000000 0.139000 0.152000 1000 43 0.900000 1.471000 1.426000 600 52 1.000000 0.052000 0.052000 1.200000 0.025000 0.030000
1560018023744813367	1000 47 1.000000 0.138000 0.151000 1000 43 0.900000 1.470000 1.425000 600 52 1.000000 0.052000 0.052000 1.200000 0.024000 0.028000
1560018024252789784	1000 47 1.000000 0.152000 0.166000 1000 43 0.900000 1.502000 1.456000 600 52 1.000000 0.052000 0.052000 1.200000 0.032000 0.038000
1560018024760628284	1000 47 1.000000 0.138000 0.151000 1000 43 0.900000 1.471000 1.426000 600 52 1.000000 0.052000 0.052000 1.200000 0.025000 0.030000
1560018025268349034	1000 47 1.000000 0.138000 0.151000 1000 43 0.900000 1.470000 1.425000 600 52 1.000000 0.052000 0.052000 1.200000 0.024000 0.028000
1560018025776127742	1000 47 1.000000 0.139000 0.152000 1000 43 0.900000 1.472000 1.429000 600 52 1.000000 0.052000 0.052000 1.200000 0.025000 0.030000
1560018026284770326	1000 47 1.000000 0.175000 0.191000 1000 43 0.900000 1.469000 1.426000 600 52 1.000000 0.052000 0.052000 1.200000 0.030000 0.036000
1560018026792860826	1000 47 1.000000 0.155000 0.169000 1000 43 0.900000 1.508000 1.464000 600 52 1.000000 0.052000 0.052000 1.200000 0.046000 0.055000
1560018027301293368	1000 47 1.000000 0.139000 0.152000 1000 43 0.900000 1.469000 1.424000 600 52 1.000000 0.052000 0.052000 1.200000 0.024000 0.028000
1560018027809263493	1000 47 1.000000 0.139000 0.152000 1000 43 0.900000 1.479000 1.434000 600 52 1.000000 0.052000 0.052000 1.200000 0.025000 0.030000
1560018028317745701	1000 47 1.000000 0.139000 0.152000 1000 43 0.900000 1.473000 1.430000 600 52 1.000000 0.052000 0.052000 1.200000 0.026000 0.031000
1560018028825808701	1000 47 1.000000 0.149000 0.163000 1000 43 0.900000 1.539000 1.494000 600 52 1.000000 0.052000 0.052000 1.200000 0.043000 0.051000
1560018029333656118	1000 47 1.000000 0.139000 0.152000 1000 43 0.900000 1.472000 1.429000 600 52 1.000000 0.052000 0.052000 1.200000 0.025000 0.030000
1560018029841357201	1000 47 1.000000 0.138000 0.151000 1000 43 0.900000 1.465000 1.421000 600 52 1.000000 0.052000 0.052000 1.200000 0.025000 0.030000
1560018030349045410	1000 47 1.000000 0.139000 0.152000 1000 43 0.900000 1.469000 1.426000 600 52 1.000000 0.052000 0.052000 1.200000 0.024000 0.028000
1560018030856888868	1000 47 1.000000 0.169000 0.185000 1000 43 0.900000 1.534000 1.489000 600 52 1.000000 0.052000 0.052000 1.200000 0.045000 0.054000
1560018031364609285	1000 47 1.000000 0.139000 0.152000 1000 43 0.900000 1.460000 1.417000 600 52 1.000000 0.052000 0.052000 1.200000 0.024000 0.028000
1560018031872315202	1000 47 1.000000 0.139000 0.152000 1000 43 0.900000 1.461000 1.418000 600 52 1.000000 0.052000 0.052000 1.200000 0.024000 0.028000
1560018032380073368	1000 47 1.000000 0.139000 0.152000 1000 43 0.900000 1.462000 1.418000 600 52 1.000000 0.052000 0.052000 1.200000 0.024000 0.028000
1560018032887823493	1000 47 1.000000 0.170000 0.186000 1000 43 0.900000 1.512000 1.468000 600 52 1.000000 0.053000 0.053000 1.200000 0.040000 0.048000
1560018033395626035	1000 47 1.000000 0.139000 0.152000 1000 43 0.900000 1.486000 1.441000 600 52 1.000000 0.052000 0.052000 1.200000 0.031000 0.037000
1560018033903460910	1000 47 1.000000 0.139000 0.152000 1000 43 0.900000 1.473000 1.428000 600 52 1.000000 0.052000 0.052000 1.200000 0.024000 0.028000
1560018034411144702	1000 47 1.000000 0.139000 0.152000 1000 43 0.900000 1.470000 1.425000 600 52 1.000000 0.052000 0.052000 1.200000 0.025000 0.030000
1560018034918744410	1000 47 1.000000 0.139000 0.152000 1000 43 0.900000 1.477000 1.434000 600 52 1.000000 0.052000 0.052000 1.200000 0.031000 0.037000
1560018035426614285	1000 47 1.000000 0.138000 0.151000 1000 43 0.900000 1.503000 1.459000 600 52 1.000000 0.052000 0.052000 1.200000 0.035000 0.042000
1560018035934271202	1000 47 1.000000 0.139000 0.152000 1000 43 0.900000 1.456000 1.413000 600 52 1.000000 0.052000 0.052000 1.200000 0.025000 0.030000
1560018036441917619	1000 47 1.000000 0.139000 0.152000 1000 43 0.900000 1.480000 1.435000 600 52 1.000000 0.052000 0.052000 1.200000 0.024000 0.028000
1560018036951460785	1000 47 1.000000 0.157000 0.171000 1000 43 0.900000 1.463000 1.420000 600 52 1.000000 0.052000 0.052000 1.200000 0.026000 0.031000
1560018037459783452	1000 47 1.000000 0.174000 0.190000 1000 43 0.900000 1.496000 1.452000 600 52 1.000000 0.052000 0.052000 1.200000 0.040000 0.048000
1560018037967557577	1000 47 1.000000 0.139000 0.152000 1000 43 0.900000 1.459000 1.415000 600 52 1.000000 0.052000 0.052000 1.200000 0.024000 0.028000
1560018038475270786	1000 47 1.000000 0.138000 0.151000 1000 43 0.900000 1.466000 1.423000 600 52 1.000000 0.052000 0.052000 1.200000 0.024000 0.028000
1560018038983054994	1000 47 1.000000 0.138000 0.151000 1000 43 0.900000 1.465000 1.421000 600 52 1.000000 0.052000 0.052000 1.200000 0.024000 0.028000
1560018039490839452	1000 47 1.000000 0.172000 0.188000 1000 43 0.900000 1.529000 1.484000 600 52 1.000000 0.052000 0.052000 1.200000 0.044000 0.053000
1560018039998601411	1000 47 1.000000 0.138000 0.151000 1000 43 0.900000 1.462000 1.418000 600 52 1.000000 0.052000 0.052000 1.200000 0.024000 0.028000
1560018040506397911	1000 47 1.000000 0.139000 0.152000 1000 43 0.900000 1.470000 1.425000 600 52 1.000000 0.052000 0.052000 1.200000 0.025000 0.030000
1560018041014238536	1000 47 1.000000 0.157000 0.171000 1000 43 0.900000 1.471000 1.428000 600 52 1.000000 0.052000 0.052000 1.200000 0.031000 0.037000
1560018041521932994	1000 47 1.000000 0.145000 0.158000 1000 43 0.900000 1.473000 1.430000 600 52 1.000000 0.052000 0.052000 1.200000 0.024000 0.028000
1560018042029758286	1000 47 1.000000 0.167000 0.182000 1000 43 0.900000 1.464000 1.421000 600 52 1.000000 0.052000 0.052000 1.200000 0.025000 0.030000
1560018042537607869	1000 47 1.000000 0.139000 0.152000 1000 43 0.900000 1.476000 1.431000 600 52 1.000000 0.053000 0.053000 1.200000 0.025000 0.030000
1560018043045435620	1000 47 1.000000 0.158000 0.173000 1000 43 0.900000 1.476000 1.431000 600 52 1.000000 0.052000 0.052000 1.200000 0.033000 0.039000
1560018043553564411	1000 47 1.000000 0.138000 0.151000 1000 43 0.900000 1.458000 1.414000 600 52 1.000000 0.052000 0.052000 1.200000 0.023000 0.027000
1560018044061529411	1000 47 1.000000 0.159000 0.174000 1000 43 0.900000 1.460000 1.416000 600 52 1.000000 0.052000 0.052000 1.200000 0.027000 0.032000
1560018044569304703	1000 47 1.000000 0.138000 0.151000 1000 43 0.900000 1.455000 1.411000 600 52 1.000000 0.052000 0.052000 1.200000 0.024000 0.028000
1560018045077099411	1000 47 1.000000 0.157000 0.172000 1000 43 0.900000 1.470000 1.427000 600 52 1.000000 0.052000 0.052000 1.200000 0.029000 0.035000
1560018045584989578	1000 47 1.000000 0.153000 0.167000 1000 43 0.900000 1.539000 1.494000 600 52 1.000000 0.052000 0.052000 1.200000 0.040000 0.048000
1560018046092982953	1000 47 1.000000 0.153000 0.167000 1000 43 0.900000 1.474000 1.431000 600 52 1.000000 0.052000 0.052000 1.200000 0.031000 0.037000
1560018046600888162	1000 47 1.000000 0.139000 0.152000 1000 43 0.900000 1.452000 1.409000 600 52 1.000000 0.052000 0.052000 1.200000 0.024000 0.028000
1560018047108726162	1000 47 1.000000 0.158000 0.173000 1000 43 0.900000 1.474000 1.431000 600 52 1.000000 0.052000 0.052000 1.200000 0.031000 0.037000
1560018047616536328	1000 47 1.000000 0.138000 0.151000 1000 43 0.900000 1.476000 1.433000 600 52 1.000000 0.052000 0.052000 1.200000 0.024000 0.028000
1560018048124436870	1000 47 1.000000 0.163000 0.178000 1000 43 0.900000 1.495000 1.451000 600 52 1.000000 0.052000 0.052000 1.200000 0.033000 0.039000
1560018048632191912	1000 47 1.000000 0.147000 0.161000 1000 43 0.900000 1.471000 1.426000 600 52 1.000000 0.052000 0.052000 1.200000 0.024000 0.028000
1560018049139926079	1000 47 1.000000 0.139000 0.152000 1000 43 0.900000 1.468000 1.425000 600 52 1.000000 0.052000 0.052000 1.200000 0.030000 0.036000
1560018049647680954	1000 47 1.000000 0.138000 0.151000 1000 43 0.900000 1.466000 1.423000 600 52 1.000000 0.052000 0.052000 1.200000 0.024000 0.028000
1560018050155448162	1000 47 1.000000 0.137000 0.150000 1000 43 0.900000 1.477000 1.432000 600 52 1.000000 0.052000 0.052000 1.200000 0.026000 0.031000
1560018050663300370	1000 47 1.000000 0.142000 0.155000 1000 43 0.900000 1.467000 1.422000 600 52 1.000000 0.052000 0.052000 1.200000 0.024000 0.028000
1560018051171042162	1000 47 1.000000 0.158000 0.173000 1000 43 0.900000 1.466000 1.423000 600 52 1.000000 0.052000 0.052000 1.200000 0.031000 0.037000
1560018051678802287	1000 47 1.000000 0.138000 0.151000 1000 43 0.900000 1.457000 1.413000 600 52 1.000000 0.052000 0.052000 1.200000 0.024000 0.028000
1560018052186976037	1000 47 1.000000 0.139000 0.152000 1000 43 0.900000 1.457000 1.414000 600 52 1.000000 0.052000 0.052000 1.200000 0.024000 0.028000
1560018052694890412	1000 47 1.000000 0.139000 0.152000 1000 43 0.900000 1.462000 1.419000 600 52 1.000000 0.053000 0.053000 1.200000 0.024000 0.028000
1560018053202740454	1000 47 1.000000 0.157000 0.171000 1000 43 0.900000 1.471000 1.428000 600 52 1.000000 0.052000 0.052000 1.200000 0.032000 0.038000
1560018053710499412	1000 47 1.000000 0.139000 0.152000 1000 43 0.900000 1.470000 1.427000 600 52 1.000000 0.052000 0.052000 1.200000 0.024000 0.028000
1560018054218314871	1000 47 1.000000 0.139000 0.152000 1000 43 0.900000 1.466000 1.423000 600 52 1.000000 0.053000 0.053000 1.200000 0.025000 0.030000
1560018054726159413	1000 47 1.000000 0.138000 0.151000 1000 43 0.900000 1.508000 1.464000 600 52 1.000000 0.052000 0.052000 1.200000 0.047000 0.056000
1560018055234017621	1000 47 1.000000 0.139000 0.152000 1000 43 0.900000 1.459000 1.415000 600 52 1.000000 0.052000 0.052000 1.200000 0.026000 0.031000
1560018055742013163	1000 47 1.000000 0.139000 0.152000 1000 43 0.900000 1.483000 1.438000 600 52 1.000000 0.052000 0.052000 1.200000 0.025000 0.030000
1560018056249736496	1000 47 1.000000 0.139000 0.152000 1000 43 0.900000 1.466000 1.422000 600 52 1.000000 0.052000 0.052000 1.200000 0.024000 0.028000
1560018056757520246	1000 47 1.000000 0.138000 0.151000 1000 43 0.900000 1.465000 1.421000 600 52 1.000000 0.052000 0.052000 1.200000 0.041000 0.049000
1560018057265143705	1000 47 1.000000 0.138000 0.151000 1000 43 0.900000 1.471000 1.426000 600 52 1.000000 0.052000 0.052000 1.200000 0.030000 0.036000
1560018057772914330	1000 47 1.000000 0.138000 0.151000 1000 43 0.900000 1.464000 1.420000 600 52 1.000000 0.052000 0.052000 1.200000 0.025000 0.030000
1560018058280553080	1000 47 1.000000 0.138000 0.151000 1000 43 0.900000 1.480000 1.435000 600 52 1.000000 0.052000 0.052000 1.200000 0.025000 0.030000
1560018058788513038	1000 47 1.000000 0.141000 0.154000 1000 43 0.900000 1.463000 1.419000 600 52 1.000000 0.052000 0.052000 1.200000 0.024000 0.028000
1560018059296297371	1000 47 1.000000 0.152000 0.166000 1000 43 0.900000 1.481000 1.438000 600 52 1.000000 0.052000 0.052000 1.200000 0.032000 0.038000
1560018059804201955	1000 47 1.000000 0.139000 0.152000 1000 43 0.900000 1.470000 1.425000 600 52 1.000000 0.052000 0.052000 1.200000 0.025000 0.030000
1560018060313044122	1000 47 1.000000 0.138000 0.151000 1000 43 0.900000 1.465000 1.421000 600 52 1.000000 0.052000 0.052000 1.200000 0.024000 0.028000
1560018060821453913	1000 47 1.000000 0.139000 0.152000 1000 43 0.900000 1.457000 1.413000 600 52 1.000000 0.052000 0.052000 1.200000 0.026000 0.031000
1560018061329215955	1000 47 1.000000 0.148000 0.162000 1000 43 0.900000 1.500000 1.456000 600 52 1.000000 0.052000 0.052000 1.200000 0.030000 0.036000
1560018061836958122	1000 47 1.000000 0.157000 0.172000 1000 43 0.900000 1.480000 1.435000 600 52 1.000000 0.052000 0.052000 1.200000 0.033000 0.039000
1560018062344604372	1000 47 1.000000 0.139000 0.152000 1000 43 0.900000 1.466000 1.423000 600 52 1.000000 0.052000 0.052000 1.200000 0.025000 0.030000
1560018062852345747	1000 47 1.000000 0.138000 0.151000 1000 43 0.900000 1.478000 1.433000 600 52 1.000000 0.052000 0.052000 1.200000 0.025000 0.030000
1560018063359911455	1000 47 1.000000 0.154000 0.168000 1000 43 0.900000 1.479000 1.436000 600 52 1.000000 0.052000 0.052000 1.200000 0.027000 0.032000
1560018063867676372	1000 47 1.000000 0.145000 0.158000 1000 43 0.900000 1.481000 1.436000 600 52 1.000000 0.053000 0.053000 1.200000 0.030000 0.036000
1560018064375498080	1000 47 1.000000 0.138000 0.151000 1000 43 0.900000 1.473000 1.428000 600 52 1.000000 0.052000 0.052000 1.200000 0.026000 0.031000
1560018064883160414	1000 47 1.000000 0.138000 0.151000 1000 43 0.900000 1.465000 1.422000 600 52 1.000000 0.052000 0.052000 1.200000 0.025000 0.030000
1560018065392016497	1000 47 1.000000 0.160000 0.175000 1000 43 0.900000 1.468000 1.423000 600 52 1.000000 0.052000 0.052000 1.200000 0.024000 0.028000
1560018065900270622	1000 47 1.000000 0.139000 0.152000 1000 43 0.900000 1.491000 1.447000 600 52 1.000000 0.052000 0.052000 1.200000 0.030000 0.036000
1560018066409164414	1000 47 1.000000 0.138000 0.151000 1000 43 0.900000 1.463000 1.419000 600 52 1.000000 0.052000 0.052000 1.200000 0.024000 0.028000
1560018066917144747	1000 47 1.000000 0.141000 0.154000 1000 43 0.900000 1.464000 1.420000 600 52 1.000000 0.052000 0.052000 1.200000 0.024000 0.028000
1560018067426621122	1000 47 1.000000 0.138000 0.151000 1000 43 0.900000 1.466000 1.422000 600 52 1.000000 0.052000 0.052000 1.200000 0.025000 0.030000
1560018067934964956	1000 47 1.000000 0.177000 0.193000 1000 43 0.900000 1.556000 1.509000 600 52 1.000000 0.052000 0.052000 1.200000 0.047000 0.056000
1560018068442806831	1000 47 1.000000 0.138000 0.151000 1000 43 0.900000 1.469000 1.424000 600 52 1.000000 0.052000 0.052000 1.200000 0.025000 0.030000
1560018068950385539	1000 47 1.000000 0.139000 0.152000 1000 43 0.900000 1.472000 1.427000 600 52 1.000000 0.053000 0.053000 1.200000 0.025000 0.030000
1560018069458045123	1000 47 1.000000 0.139000 0.152000 1000 43 0.900000 1.484000 1.439000 600 52 1.000000 0.052000 0.052000 1.200000 0.025000 0.030000
1560018069965841289	1000 47 1.000000 0.183000 0.200000 1000 43 0.900000 1.543000 1.498000 600 52 1.000000 0.052000 0.052000 1.200000 0.043000 0.052000
1560018070473783164	1000 47 1.000000 0.138000 0.151000 1000 43 0.900000 1.476000 1.433000 600 52 1.000000 0.052000 0.052000 1.200000 0.024000 0.028000
1560018070981521831	1000 47 1.000000 0.138000 0.151000 1000 43 0.900000 1.462000 1.418000 600 52 1.000000 0.052000 0.052000 1.200000 0.026000 0.031000
1560018071489096123	1000 47 1.000000 0.137000 0.150000 1000 43 0.900000 1.476000 1.431000 600 52 1.000000 0.052000 0.052000 1.200000 0.025000 0.030000
1560018071996828040	1000 48 1.000000 0.180000 0.197000 1000 43 0.900000 1.529000 1.484000 600 53 1.000000 0.052000 0.052000 1.200000 0.040000 0.048000
1560018072504700623	1000 47 1.000000 0.139000 0.152000 1000 43 0.900000 1.464000 1.420000 600 52 1.000000 0.052000 0.052000 1.200000 0.025000 0.030000
1560018073012490540	1000 47 1.000000 0.138000 0.151000 1000 43 0.900000 1.464000 1.420000 600 52 1.000000 0.052000 0.052000 1.200000 0.024000 0.028000
1560018073520174373	1000 47 1.000000 0.139000 0.152000 1000 43 0.900000 1.468000 1.423000 600 52 1.000000 0.052000 0.052000 1.200000 0.024000 0.028000
1560018074028845582	1000 47 1.000000 0.139000 0.152000 1000 43 0.900000 1.478000 1.433000 600 52 1.000000 0.052000 0.052000 1.200000 0.024000 0.028000
1560018074537032540	1000 47 1.000000 0.172000 0.188000 1000 43 0.900000 1.483000 1.439000 600 52 1.000000 0.052000 0.052000 1.200000 0.041000 0.049000
1560018075044687373	1000 47 1.000000 0.139000 0.152000 1000 43 0.900000 1.467000 1.422000 600 52 1.000000 0.052000 0.052000 1.200000 0.025000 0.030000
1560018075552410665	1000 47 1.000000 0.138000 0.151000 1000 43 0.900000 1.479000 1.434000 600 52 1.000000 0.052000 0.052000 1.200000 0.024000 0.028000
1560018076060439707	1000 47 1.000000 0.144000 0.157000 1000 43 0.900000 1.509000 1.465000 600 52 1.000000 0.052000 0.052000 1.200000 0.030000 0.036000
1560018076568311499	1000 47 1.000000 0.172000 0.188000 1000 43 0.900000 1.522000 1.477000 600 52 1.000000 0.052000 0.052000 1.200000 0.046000 0.055000
1560018077077075915	1000 47 1.000000 0.139000 0.152000 1000 43 0.900000 1.468000 1.425000 600 52 1.000000 0.052000 0.052000 1.200000 0.025000 0.030000
1560018077585075499	1000 47 1.000000 0.139000 0.152000 1000 43 0.900000 1.466000 1.422000 600 52 1.000000 0.052000 0.052000 1.200000 0.025000 0.030000
1560018078092989499	1000 47 1.000000 0.145000 0.158000 1000 43 0.900000 1.512000 1.468000 600 52 1.000000 0.052000 0.052000 1.200000 0.030000 0.036000
1560018078601008165	1000 47 1.000000 0.168000 0.183000 1000 43 0.900000 1.533000 1.488000 600 52 1.000000 0.052000 0.052000 1.200000 0.044000 0.053000
1560018079108809457	1000 47 1.000000 0.138000 0.151000 1000 43 0.900000 1.463000 1.419000 600 52 1.000000 0.052000 0.052000 1.200000 0.024000 0.028000
1560018079616552291	1000 47 1.000000 0.138000 0.151000 1000 43 0.900000 1.460000 1.416000 600 52 1.000000 0.053000 0.053000 1.200000 0.024000 0.028000
1560018080124361041	1000 47 1.000000 0.145000 0.158000 1000 43 0.900000 1.496000 1.452000 600 52 1.000000 0.052000 0.052000 1.200000 0.029000 0.035000
1560018080633136291	1000 47 1.000000 0.149000 0.163000 1000 43 0.900000 1.539000 1.494000 600 52 1.000000 0.052000 0.052000 1.200000 0.043000 0.051000
1560018081141291666	1000 47 1.000000 0.164000 0.179000 1000 43 0.900000 1.461000 1.417000 600 52 1.000000 0.052000 0.052000 1.200000 0.026000 0.031000
1560018081649039832	1000 47 1.000000 0.138000 0.151000 1000 43 0.900000 1.476000 1.431000 600 52 1.000000 0.052000 0.052000 1.200000 0.025000 0.030000
1560018082156900916	1000 47 1.000000 0.138000 0.151000 1000 43 0.900000 1.465000 1.421000 600 52 1.000000 0.052000 0.052000 1.200000 0.025000 0.030000
1560018082666487916	1000 47 1.000000 0.138000 0.151000 1000 43 0.900000 1.485000 1.440000 600 52 1.000000 0.052000 0.052000 1.200000 0.025000 0.030000
1560018083174316708	1000 47 1.000000 0.156000 0.170000 1000 43 0.900000 1.469000 1.424000 600 52 1.000000 0.052000 0.052000 1.200000 0.030000 0.036000
1560018083682198249	1000 47 1.000000 0.140000 0.153000 1000 43 0.900000 1.462000 1.418000 600 52 1.000000 0.052000 0.052000 1.200000 0.025000 0.030000
1560018084190163291	1000 47 1.000000 0.145000 0.158000 1000 43 0.900000 1.497000 1.452000 600 52 1.000000 0.052000 0.052000 1.200000 0.027000 0.032000
1560018084698301749	1000 47 1.000000 0.138000 0.151000 1000 43 0.900000 1.470000 1.425000 600 52 1.000000 0.052000 0.052000 1.200000 0.024000 0.028000
1560018085206217250	1000 47 1.000000 0.149000 0.163000 1000 43 0.900000 1.479000 1.434000 600 52 1.000000 0.052000 0.052000 1.200000 0.036000 0.043000
1560018085714106750	1000 47 1.000000 0.138000 0.151000 1000 43 0.900000 1.468000 1.423000 600 52 1.000000 0.052000 0.052000 1.200000 0.024000 0.028000
1560018086221820500	1000 47 1.000000 0.138000 0.151000 1000 43 0.900000 1.506000 1.462000 600 52 1.000000 0.052000 0.052000 1.200000 0.030000 0.036000
1560018086729557041	1000 47 1.000000 0.139000 0.152000 1000 43 0.900000 1.462000 1.418000 600 52 1.000000 0.052000 0.052000 1.200000 0.024000 0.028000
1560018087237203666	1000 47 1.000000 0.167000 0.182000 1000 43 0.900000 1.498000 1.453000 600 53 1.000000 0.052000 0.052000 1.200000 0.042000 0.050000
1560018087745015333	1000 47 1.000000 0.143000 0.156000 1000 43 0.900000 1.480000 1.435000 600 52 1.000000 0.052000 0.052000 1.200000 0.025000 0.030000
1560018088252749833	1000 47 1.000000 0.138000 0.151000 1000 43 0.900000 1.464000 1.420000 600 52 1.000000 0.052000 0.052000 1.200000 0.024000 0.028000
1560018088760530167	1000 47 1.000000 0.142000 0.155000 1000 43 0.900000 1.470000 1.427000 600 52 1.000000 0.052000 0.052000 1.200000 0.025000 0.030000
1560018089268293250	1000 47 1.000000 0.138000 0.151000 1000 43 0.900000 1.470000 1.425000 600 52 1.000000 0.052000 0.052000 1.200000 0.024000 0.028000
1560018089776017083	1000 47 1.000000 0.139000 0.152000 1000 43 0.900000 1.470000 1.425000 600 52 1.000000 0.052000 0.052000 1.200000 0.024000 0.028000
1560018090283792167	1000 47 1.000000 0.138000 0.151000 1000 43 0.900000 1.463000 1.419000 600 52 1.000000 0.052000 0.052000 1.200000 0.024000 0.028000
1560018090791563834	1000 47 1.000000 0.138000 0.151000 1000 43 0.900000 1.461000 1.417000 600 52 1.000000 0.052000 0.052000 1.200000 0.024000 0.028000
1560018091299802084	1000 47 1.000000 0.139000 0.152000 1000 43 0.900000 1.468000 1.423000 600 52 1.000000 0.052000 0.052000 1.200000 0.024000 0.028000
1560018091807723084	1000 47 1.000000 0.138000 0.151000 1000 43 0.900000 1.465000 1.422000 600 52 1.000000 0.052000 0.052000 1.200000 0.024000 0.028000
1560018092315525000	1000 47 1.000000 0.138000 0.151000 1000 43 0.900000 1.470000 1.427000 600 52 1.000000 0.052000 0.052000 1.200000 0.024000 0.028000
1560018092823423042	1000 47 1.000000 0.139000 0.152000 1000 43 0.900000 1.505000 1.461000 600 52 1.000000 0.052000 0.052000 1.200000 0.024000 0.028000
1560018093331143667	1000 47 1.000000 0.138000 0.151000 1000 43 0.900000 1.470000 1.425000 600 52 1.000000 0.052000 0.052000 1.200000 0.024000 0.028000
1560018093838938709	1000 47 1.000000 0.171000 0.187000 1000 43 0.900000 1.548000 1.503000 600 52 1.000000 0.052000 0.052000 1.200000 0.027000 0.032000
1560018094346699959	1000 47 1.000000 0.139000 0.152000 1000 43 0.900000 1.465000 1.422000 600 52 1.000000 0.052000 0.052000 1.200000 0.030000 0.036000
1560018094854413167	1000 47 1.000000 0.151000 0.165000 1000 43 0.900000 1.507000 1.463000 600 52 1.000000 0.052000 0.052000 1.200000 0.026000 0.031000
1560018095362130792	1000 47 1.000000 0.138000 0.151000 1000 43 0.900000 1.467000 1.424000 600 52 1.000000 0.052000 0.052000 1.200000 0.024000 0.028000
1560018095870018917	1000 47 1.000000 0.139000 0.152000 1000 43 0.900000 1.478000 1.435000 600 52 1.000000 0.052000 0.052000 1.200000 0.037000 0.044000
1560018096378719251	1000 48 1.000000 0.138000 0.151000 1000 43 0.900000 1.484000 1.440000 600 52 1.000000 0.052000 0.052000 1.200000 0.024000 0.028000
1560018096886675293	1000 47 1.000000 0.144000 0.157000 1000 43 0.900000 1.507000 1.463000 600 52 1.000000 0.052000 0.052000 1.200000 0.024000 0.028000
1560018097394380209	1000 47 1.000000 0.138000 0.151000 1000 43 0.900000 1.477000 1.434000 600 52 1.000000 0.052000 0.052000 1.200000 0.026000 0.031000
1560018097902013168	1000 47 1.000000 0.144000 0.157000 1000 43 0.900000 1.455000 1.412000 600 52 1.000000 0.052000 0.052000 1.200000 0.024000 0.028000
1560018098409904043	1000 47 1.000000 0.166000 0.181000 1000 43 0.900000 1.499000 1.454000 600 52 1.000000 0.052000 0.052000 1.200000 0.038000 0.045000
1560018098917937960	1000 47 1.000000 0.150000 0.164000 1000 43 0.900000 1.510000 1.464000 600 53 1.000000 0.052000 0.052000 1.200000 0.030000 0.036000
1560018099425704251	1000 47 1.000000 0.139000 0.152000 1000 43 0.900000 1.469000 1.424000 600 52 1.000000 0.052000 0.052000 1.200000 0.024000 0.028000
1560018099933975668	1000 47 1.000000 0.139000 0.152000 1000 43 0.900000 1.474000 1.429000 600 52 1.000000 0.052000 0.052000 1.200000 0.025000 0.030000
1560018100441959085	1000 47 1.000000 0.159000 0.174000 1000 43 0.900000 1.513000 1.469000 600 52 1.000000 0.052000 0.052000 1.200000 0.043000 0.051000
1560018100949940876	1000 47 1.000000 0.143000 0.156000 1000 43 0.900000 1.471000 1.426000 600 52 1.000000 0.052000 0.052000 1.200000 0.031000 0.037000
1560018101457805043	1000 47 1.000000 0.139000 0.152000 1000 43 0.900000 1.463000 1.419000 600 52 1.000000 0.052000 0.052000 1.200000 0.025000 0.030000
1560018101965449085	1000 47 1.000000 0.139000 0.152000 1000 43 0.900000 1.474000 1.429000 600 52 1.000000 0.052000 0.052000 1.200000 0.024000 0.028000
1560018102473206377	1000 47 1.000000 0.159000 0.174000 1000 43 0.900000 1.466000 1.422000 600 52 1.000000 0.052000 0.052000 1.200000 0.025000 0.030000
1560018102981116418	1000 47 1.000000 0.157000 0.172000 1000 43 0.900000 1.479000 1.434000 600 52 1.000000 0.052000 0.052000 1.200000 0.028000 0.033000
1560018103488867293	1000 47 1.000000 0.139000 0.152000 1000 43 0.900000 1.473000 1.428000 600 52 1.000000 0.052000 0.052000 1.200000 0.025000 0.030000
1560018103996562460	1000 47 1.000000 0.139000 0.152000 1000 43 0.900000 1.466000 1.422000 600 52 1.000000 0.052000 0.052000 1.200000 0.025000 0.030000
1560018104504190960	1000 47 1.000000 0.163000 0.178000 1000 43 0.900000 1.483000 1.439000 600 52 1.000000 0.052000 0.052000 1.200000 0.024000 0.028000
1560018105012101502	1000 47 1.000000 0.156000 0.170000 1000 43 0.900000 1.473000 1.430000 600 52 1.000000 0.052000 0.052000 1.200000 0.033000 0.039000
1560018105519836627	1000 47 1.000000 0.139000 0.152000 1000 43 0.900000 1.480000 1.435000 600 52 1.000000 0.052000 0.052000 1.200000 0.025000 0.030000
1560018106027484335	1000 47 1.000000 0.139000 0.152000 1000 43 0.900000 1.467000 1.422000 600 52 1.000000 0.052000 0.052000 1.200000 0.025000 0.030000
1560018106536656210	1000 47 1.000000 0.139000 0.152000 1000 43 0.900000 1.457000 1.414000 600 52 1.000000 0.052000 0.052000 1.200000 0.025000 0.030000
1560018107044930544	1000 47 1.000000 0.157000 0.171000 1000 43 0.900000 1.473000 1.430000 600 53 1.000000 0.052000 0.052000 1.200000 0.034000 0.041000
1560018107552605377	1000 47 1.000000 0.138000 0.151000 1000 43 0.900000 1.462000 1.418000 600 52 1.000000 0.052000 0.052000 1.200000 0.024000 0.028000
1560018108060453169	1000 47 1.000000 0.139000 0.152000 1000 43 0.900000 1.471000 1.428000 600 52 1.000000 0.052000 0.052000 1.200000 0.024000 0.028000
1560018108569636461	1000 47 1.000000 0.139000 0.152000 1000 43 0.900000 1.466000 1.423000 600 52 1.000000 0.052000 0.052000 1.200000 0.025000 0.030000
1560018109078191044	1000 47 1.000000 0.174000 0.190000 1000 43 0.900000 1.542000 1.497000 600 52 1.000000 0.052000 0.052000 1.200000 0.036000 0.043000
1560018109585917586	1000 47 1.000000 0.139000 0.152000 1000 43 0.900000 1.477000 1.434000 600 52 1.000000 0.052000 0.052000 1.200000 0.024000 0.028000
1560018110093793544	1000 47 1.000000 0.139000 0.152000 1000 43 0.900000 1.468000 1.423000 600 52 1.000000 0.052000 0.052000 1.200000 0.025000 0.030000
1560018110601451128	1000 47 1.000000 0.138000 0.151000 1000 43 0.900000 1.476000 1.431000 600 52 1.000000 0.052000 0.052000 1.200000 0.024000 0.028000
1560018111109280961	1000 47 1.000000 0.138000 0.151000 1000 43 0.900000 1.546000 1.501000 600 52 1.000000 0.052000 0.052000 1.200000 0.032000 0.038000
1560018111617087878	1000 47 1.000000 0.139000 0.152000 1000 43 0.900000 1.476000 1.433000 600 52 1.000000 0.052000 0.052000 1.200000 0.026000 0.031000
1560018112124840711	1000 47 1.000000 0.138000 0.151000 1000 43 0.900000 1.463000 1.419000 600 52 1.000000 0.052000 0.052000 1.200000 0.024000 0.028000
1560018112632592211	1000 47 1.000000 0.138000 0.151000 1000 43 0.900000 1.462000 1.418000 600 52 1.000000 0.053000 0.053000 1.200000 0.025000 0.030000
1560018113140376295	1000 47 1.000000 0.140000 0.153000 1000 43 0.900000 1.485000 1.441000 600 53 1.000000 0.052000 0.052000 1.200000 0.028000 0.033000
1560018113648205128	1000 47 1.000000 0.138000 0.151000 1000 43 0.900000 1.470000 1.425000 600 52 1.000000 0.052000 0.052000 1.200000 0.024000 0.028000
1560018114156987878	1000 47 1.000000 0.139000 0.152000 1000 43 0.900000 1.457000 1.413000 600 52 1.000000 0.052000 0.052000 1.200000 0.023000 0.027000
1560018114665146086	1000 47 1.000000 0.138000 0.151000 1000 43 0.900000 1.462000 1.419000 600 52 1.000000 0.052000 0.052000 1.200000 0.024000 0.028000
1560018115173635170	1000 47 1.000000 0.138000 0.151000 1000 43 0.900000 1.468000 1.425000 600 52 1.000000 0.052000 0.052000 1.200000 0.025000 0.030000
1560018115681745628	1000 47 1.000000 0.165000 0.180000 1000 43 0.900000 1.539000 1.494000 600 53 1.000000 0.052000 0.052000 1.200000 0.045000 0.054000
1560018116189491878	1000 47 1.000000 0.138000 0.151000 1000 43 0.900000 1.467000 1.422000 600 52 1.000000 0.052000 0.052000 1.200000 0.025000 0.030000
1560018116697181253	1000 47 1.000000 0.138000 0.151000 1000 43 0.900000 1.471000 1.428000 600 52 1.000000 0.052000 0.052000 1.200000 0.025000 0.030000
1560018117204946295	1000 47 1.000000 0.138000 0.151000 1000 43 0.900000 1.471000 1.426000 600 52 1.000000 0.052000 0.052000 1.200000 0.024000 0.028000
1560018117712803878	1000 47 1.000000 0.170000 0.186000 1000 43 0.900000 1.529000 1.484000 600 52 1.000000 0.053000 0.053000 1.200000 0.045000 0.054000
1560018118220556462	1000 47 1.000000 0.138000 0.151000 1000 43 0.900000 1.469000 1.424000 600 52 1.000000 0.052000 0.052000 1.200000 0.025000 0.030000
1560018118728166420	1000 47 1.000000 0.139000 0.152000 1000 43 0.900000 1.459000 1.415000 600 52 1.000000 0.052000 0.052000 1.200000 0.024000 0.028000
1560018119235785295	1000 47 1.000000 0.138000 0.151000 1000 43 0.900000 1.464000 1.420000 600 52 1.000000 0.052000 0.052000 1.200000 0.024000 0.028000
1560018119743566462	1000 47 1.000000 0.157000 0.172000 1000 43 0.900000 1.531000 1.486000 600 53 1.000000 0.052000 0.052000 1.200000 0.042000 0.050000
1560018120251465504	1000 47 1.000000 0.138000 0.151000 1000 43 0.900000 1.468000 1.425000 600 52 1.000000 0.053000 0.053000 1.200000 0.024000 0.028000
1560018120759129129	1000 47 1.000000 0.138000 0.151000 1000 43 0.900000 1.459000 1.415000 600 52 1.000000 0.052000 0.052000 1.200000 0.025000 0.030000
1560018121266823712	1000 48 1.000000 0.138000 0.151000 1000 43 0.900000 1.462000 1.419000 600 52 1.000000 0.052000 0.052000 1.200000 0.024000 0.028000
1560018121774954087	1000 48 1.000000 0.158000 0.173000 1000 43 0.900000 1.473000 1.428000 600 53 1.000000 0.052000 0.052000 1.200000 0.031000 0.037000
1560018122282819462	1000 47 1.000000 0.149000 0.163000 1000 43 0.900000 1.480000 1.435000 600 52 1.000000 0.052000 0.052000 1.200000 0.034000 0.041000
1560018122790482671	1000 47 1.000000 0.139000 0.152000 1000 43 0.900000 1.481000 1.436000 600 52 1.000000 0.052000 0.052000 1.200000 0.025000 0.030000
1560018123298659254	1000 47 1.000000 0.137000 0.150000 1000 43 0.900000 1.465000 1.421000 600 52 1.000000 0.052000 0.052000 1.200000 0.024000 0.028000
1560018123807589587	1000 47 1.000000 0.158000 0.173000 1000 43 0.900000 1.466000 1.422000 600 52 1.000000 0.052000 0.052000 1.200000 0.031000 0.037000
1560018124317527504	1000 47 1.000000 0.163000 0.178000 1000 43 0.900000 1.507000 1.461000 600 52 1.000000 0.052000 0.052000 1.200000 0.037000 0.044000
1560018124825290171	1000 47 1.000000 0.138000 0.151000 1000 43 0.900000 1.465000 1.421000 600 52 1.000000 0.052000 0.052000 1.200000 0.024000 0.028000
1560018125333046046	1000 47 1.000000 0.139000 0.152000 1000 43 0.900000 1.468000 1.423000 600 52 1.000000 0.052000 0.052000 1.200000 0.024000 0.028000
1560018125841081421	1000 47 1.000000 0.152000 0.166000 1000 43 0.900000 1.465000 1.421000 600 52 1.000000 0.052000 0.052000 1.200000 0.024000 0.028000
1560018126348815629	1000 47 1.000000 0.162000 0.177000 1000 43 0.900000 1.522000 1.476000 600 52 1.000000 0.052000 0.052000 1.200000 0.040000 0.048000
1560018126856591046	1000 47 1.000000 0.139000 0.152000 1000 43 0.900000 1.460000 1.416000 600 52 1.000000 0.052000 0.052000 1.200000 0.024000 0.028000
1560018127364264963	1000 47 1.000000 0.138000 0.151000 1000 43 0.900000 1.465000 1.421000 600 52 1.000000 0.052000 0.052000 1.200000 0.024000 0.028000
1560018127872090421	1000 47 1.000000 0.138000 0.151000 1000 43 0.900000 1.463000 1.419000 600 52 1.000000 0.052000 0.052000 1.200000 0.024000 0.028000
1560018128379794380	1000 47 1.000000 0.138000 0.151000 1000 43 0.900000 1.475000 1.430000 600 52 1.000000 0.052000 0.052000 1.200000 0.024000 0.028000
1560018128887565755	1000 47 1.000000 0.139000 0.152000 1000 43 0.900000 1.474000 1.431000 600 52 1.000000 0.052000 0.052000 1.200000 0.026000 0.031000
1560018129395258463	1000 47 1.000000 0.139000 0.152000 1000 43 0.900000 1.468000 1.423000 600 52 1.000000 0.052000 0.052000 1.200000 0.024000 0.028000
1560018129903067630	1000 47 1.000000 0.157000 0.172000 1000 43 0.900000 1.462000 1.418000 600 52 1.000000 0.052000 0.052000 1.200000 0.032000 0.038000
1560018130410618422	1000 47 1.000000 0.138000 0.151000 1000 43 0.900000 1.477000 1.432000 600 52 1.000000 0.052000 0.052000 1.200000 0.024000 0.028000
1560018130918314672	1000 47 1.000000 0.163000 0.178000 1000 43 0.900000 1.560000 1.514000 600 52 1.000000 0.052000 0.052000 1.200000 0.024000 0.028000
1560018131426126672	1000 47 1.000000 0.139000 0.152000 1000 43 0.900000 1.481000 1.436000 600 52 1.000000 0.052000 0.052000 1.200000 0.024000 0.028000
1560018131933984963	1000 47 1.000000 0.157000 0.171000 1000 43 0.900000 1.469000 1.424000 600 52 1.000000 0.052000 0.052000 1.200000 0.031000 0.037000
1560018132442001172	1000 47 1.000000 0.139000 0.152000 1000 43 0.900000 1.474000 1.429000 600 52 1.000000 0.052000 0.052000 1.200000 0.024000 0.028000
1560018132949953089	1000 47 1.000000 0.157000 0.172000 1000 43 0.900000 1.565000 1.519000 600 52 1.000000 0.052000 0.052000 1.200000 0.025000 0.030000
1560018133457769630	1000 47 1.000000 0.137000 0.150000 1000 43 0.900000 1.464000 1.420000 600 52 1.000000 0.052000 0.052000 1.200000 0.024000 0.028000
1560018133965595255	1000 47 1.000000 0.157000 0.171000 1000 43 0.900000 1.476000 1.431000 600 52 1.000000 0.052000 0.052000 1.200000 0.028000 0.033000
1560018134473276380	1000 47 1.000000 0.138000 0.151000 1000 43 0.900000 1.467000 1.422000 600 52 1.000000 0.052000 0.052000 1.200000 0.024000 0.028000
1560018134981200922	1000 47 1.000000 0.151000 0.165000 1000 43 0.900000 1.550000 1.505000 600 52 1.000000 0.052000 0.052000 1.200000 0.029000 0.035000
1560018135488948672	1000 47 1.000000 0.138000 0.151000 1000 43 0.900000 1.470000 1.425000 600 52 1.000000 0.052000 0.052000 1.200000 0.025000 0.030000
1560018135996760214	1000 47 1.000000 0.142000 0.155000 1000 43 0.900000 1.473000 1.428000 600 52 1.000000 0.052000 0.052000 1.200000 0.028000 0.033000
1560018136504507047	1000 47 1.000000 0.139000 0.152000 1000 43 0.900000 1.477000 1.432000 600 53 1.000000 0.052000 0.052000 1.200000 0.024000 0.028000
1560018137012102214	1000 47 1.000000 0.138000 0.151000 1000 43 0.900000 1.471000 1.426000 600 53 1.000000 0.052000 0.052000 1.200000 0.024000 0.028000
1560018137519957672	1000 47 1.000000 0.147000 0.161000 1000 43 0.900000 1.502000 1.456000 600 52 1.000000 0.052000 0.052000 1.200000 0.034000 0.041000
1560018138027688006	1000 47 1.000000 0.138000 0.151000 1000 43 0.900000 1.464000 1.420000 600 52 1.000000 0.052000 0.052000 1.200000 0.025000 0.030000
1560018138535499964	1000 47 1.000000 0.139000 0.152000 1000 43 0.900000 1.477000 1.434000 600 52 1.000000 0.052000 0.052000 1.200000 0.025000 0.030000
1560018139043621714	1000 47 1.000000 0.139000 0.152000 1000 43 0.900000 1.469000 1.424000 600 52 1.000000 0.052000 0.052000 1.200000 0.026000 0.031000
1560018139551505756	1000 47 1.000000 0.141000 0.154000 1000 43 0.900000 1.505000 1.461000 600 52 1.000000 0.052000 0.052000 1.200000 0.037000 0.044000
1560018140059332839	1000 47 1.000000 0.157000 0.171000 1000 43 0.900000 1.476000 1.431000 600 52 1.000000 0.052000 0.052000 1.200000 0.025000 0.030000
1560018140567205089	1000 47 1.000000 0.138000 0.151000 1000 43 0.900000 1.458000 1.415000 600 52 1.000000 0.052000 0.052000 1.200000 0.025000 0.030000
1560018141075309881	1000 47 1.000000 0.138000 0.151000 1000 43 0.900000 1.461000 1.418000 600 52 1.000000 0.052000 0.052000 1.200000 0.025000 0.030000
1560018141583130256	1000 47 1.000000 0.138000 0.151000 1000 43 0.900000 1.528000 1.483000 600 52 1.000000 0.052000 0.052000 1.200000 0.042000 0.050000
1560018142090880548	1000 47 1.000000 0.139000 0.152000 1000 43 0.900000 1.480000 1.437000 600 52 1.000000 0.052000 0.052000 1.200000 0.024000 0.028000
1560018142598695048	1000 47 1.000000 0.158000 0.173000 1000 43 0.900000 1.473000 1.430000 600 52 1.000000 0.052000 0.052000 1.200000 0.032000 0.038000
1560018143106571465	1000 47 1.000000 0.138000 0.151000 1000 43 0.900000 1.471000 1.426000 600 52 1.000000 0.052000 0.052000 1.200000 0.024000 0.028000
1560018143614206382	1000 47 1.000000 0.139000 0.152000 1000 43 0.900000 1.476000 1.431000 600 52 1.000000 0.052000 0.052000 1.200000 0.025000 0.030000
1560018144121993048	1000 47 1.000000 0.138000 0.151000 1000 43 0.900000 1.473000 1.428000 600 52 1.000000 0.052000 0.052000 1.200000 0.026000 0.031000
1560018144629752673	1000 47 1.000000 0.143000 0.156000 1000 43 0.900000 1.483000 1.438000 600 52 1.000000 0.052000 0.052000 1.200000 0.026000 0.031000
1560018145137423965	1000 47 1.000000 0.138000 0.151000 1000 43 0.900000 1.470000 1.425000 600 52 1.000000 0.052000 0.052000 1.200000 0.026000 0.031000
1560018145645014548	1000 47 1.000000 0.139000 0.152000 1000 43 0.900000 1.476000 1.431000 600 52 1.000000 0.052000 0.052000 1.200000 0.024000 0.028000
1560018146152831548	1000 47 1.000000 0.138000 0.151000 1000 43 0.900000 1.476000 1.431000 600 52 1.000000 0.052000 0.052000 1.200000 0.025000 0.030000
1560018146661245632	1000 47 1.000000 0.139000 0.152000 1000 43 0.900000 1.467000 1.422000 600 52 1.000000 0.052000 0.052000 1.200000 0.026000 0.031000
1560018147169120799	1000 47 1.000000 0.138000 0.151000 1000 43 0.900000 1.468000 1.423000 600 52 1.000000 0.052000 0.052000 1.200000 0.024000 0.028000
1560018147678786007	1000 48 1.000000 0.143000 0.156000 1000 43 0.900000 1.462000 1.418000 600 52 1.000000 0.052000 0.052000 1.200000 0.024000 0.028000
1560018148187143965	1000 48 1.000000 0.150000 0.164000 1000 43 0.900000 1.473000 1.428000 600 52 1.000000 0.053000 0.053000 1.200000 0.026000 0.031000
1560018148694949882	1000 47 1.000000 0.146000 0.160000 1000 43 0.900000 1.478000 1.433000 600 53 1.000000 0.052000 0.052000 1.200000 0.032000 0.038000
1560018149202879549	1000 47 1.000000 0.139000 0.152000 1000 43 0.900000 1.470000 1.425000 600 52 1.000000 0.052000 0.052000 1.200000 0.026000 0.031000
1560018149710724007	1000 47 1.000000 0.138000 0.151000 1000 43 0.900000 1.473000 1.428000 600 52 1.000000 0.052000 0.052000 1.200000 0.024000 0.028000
1560018150218436841	1000 47 1.000000 0.148000 0.162000 1000 43 0.900000 1.553000 1.507000 600 53 1.000000 0.052000 0.052000 1.200000 0.037000 0.044000
1560018150726326466	1000 47 1.000000 0.157000 0.171000 1000 43 0.900000 1.497000 1.452000 600 52 1.000000 0.052000 0.052000 1.200000 0.032000 0.038000
1560018151234124216	1000 47 1.000000 0.139000 0.152000 1000 43 0.900000 1.474000 1.429000 600 52 1.000000 0.052000 0.052000 1.200000 0.025000 0.030000
1560018151741973507	1000 47 1.000000 0.138000 0.151000 1000 43 0.900000 1.477000 1.432000 600 52 1.000000 0.052000 0.052000 1.200000 0.025000 0.030000
1560018152249938133	1000 47 1.000000 0.156000 0.170000 1000 43 0.900000 1.537000 1.492000 600 52 1.000000 0.052000 0.052000 1.200000 0.033000 0.039000
1560018152757762091	1000 47 1.000000 0.148000 0.162000 1000 43 0.900000 1.471000 1.426000 600 52 1.000000 0.052000 0.052000 1.200000 0.031000 0.037000
1560018153265548133	1000 47 1.000000 0.138000 0.151000 1000 43 0.900000 1.465000 1.421000 600 52 1.000000 0.052000 0.052000 1.200000 0.025000 0.030000
1560018153773254299	1000 47 1.000000 0.138000 0.151000 1000 43 0.900000 1.465000 1.421000 600 52 1.000000 0.052000 0.052000 1.200000 0.024000 0.028000
1560018154280978633	1000 47 1.000000 0.161000 0.176000 1000 43 0.900000 1.522000 1.477000 600 52 1.000000 0.052000 0.052000 1.200000 0.028000 0.033000
1560018154788686716	1000 47 1.000000 0.138000 0.151000 1000 43 0.900000 1.462000 1.418000 600 53 1.000000 0.052000 0.052000 1.200000 0.027000 0.032000
1560018155297498800	1000 47 1.000000 0.138000 0.151000 1000 43 0.900000 1.468000 1.423000 600 53 1.000000 0.053000 0.053000 1.200000 0.024000 0.028000
1560018155805557425	1000 47 1.000000 0.141000 0.154000 1000 43 0.900000 1.472000 1.427000 600 52 1.000000 0.052000 0.052000 1.200000 0.025000 0.030000
1560018156315106425	1000 47 1.000000 0.138000 0.151000 1000 43 0.900000 1.465000 1.421000 600 52 1.000000 0.052000 0.052000 1.200000 0.025000 0.030000
1560018156823519966	1000 47 1.000000 0.165000 0.180000 1000 43 0.900000 1.542000 1.495000 600 52 1.000000 0.052000 0.052000 1.200000 0.049000 0.059000
1560018157331207133	1000 47 1.000000 0.139000 0.152000 1000 43 0.900000 1.477000 1.432000 600 52 1.000000 0.052000 0.052000 1.200000 0.024000 0.028000
1560018157839070342	1000 47 1.000000 0.139000 0.152000 1000 43 0.900000 1.454000 1.410000 600 52 1.000000 0.052000 0.052000 1.200000 0.025000 0.030000
1560018158346794758	1000 47 1.000000 0.139000 0.152000 1000 43 0.900000 1.465000 1.421000 600 52 1.000000 0.052000 0.052000 1.200000 0.025000 0.030000
1560018158854631800	1000 47 1.000000 0.188000 0.205000 1000 43 0.900000 1.539000 1.494000 600 52 1.000000 0.052000 0.052000 1.200000 0.048000 0.058000
1560018159362353800	1000 47 1.000000 0.138000 0.151000 1000 43 0.900000 1.458000 1.414000 600 52 1.000000 0.052000 0.052000 1.200000 0.024000 0.028000
1560018159870069092	1000 47 1.000000 0.138000 0.151000 1000 43 0.900000 1.462000 1.418000 600 52 1.000000 0.052000 0.052000 1.200000 0.024000 0.028000
1560018160377808050	1000 47 1.000000 0.138000 0.151000 1000 43 0.900000 1.462000 1.418000 600 52 1.000000 0.052000 0.052000 1.200000 0.024000 0.028000
1560018160885628759	1000 47 1.000000 0.189000 0.206000 1000 43 0.900000 1.517000 1.473000 600 52 1.000000 0.052000 0.052000 1.200000 0.048000 0.057000
1560018161393444675	1000 47 1.000000 0.139000 0.152000 1000 43 0.900000 1.463000 1.419000 600 52 1.000000 0.052000 0.052000 1.200000 0.024000 0.028000
1560018161901211675	1000 47 1.000000 0.139000 0.152000 1000 43 0.900000 1.462000 1.418000 600 52 1.000000 0.052000 0.052000 1.200000 0.024000 0.028000
1560018162409073675	1000 47 1.000000 0.139000 0.152000 1000 43 0.900000 1.466000 1.423000 600 52 1.000000 0.052000 0.052000 1.200000 0.024000 0.028000
1560018162917192759	1000 48 1.000000 0.139000 0.152000 1000 43 0.900000 1.478000 1.433000 600 52 1.000000 0.052000 0.052000 1.200000 0.025000 0.030000
1560018163425167384	1000 47 1.000000 0.171000 0.187000 1000 43 0.900000 1.466000 1.422000 600 52 1.000000 0.052000 0.052000 1.200000 0.031000 0.037000
1560018163932841259	1000 47 1.000000 0.139000 0.152000 1000 43 0.900000 1.463000 1.419000 600 52 1.000000 0.052000 0.052000 1.200000 0.025000 0.030000
1560018164441178717	1000 47 1.000000 0.139000 0.152000 1000 43 0.900000 1.463000 1.419000 600 52 1.000000 0.052000 0.052000 1.200000 0.025000 0.030000
1560018164950665176	1000 47 1.000000 0.139000 0.152000 1000 43 0.900000 1.471000 1.426000 600 52 1.000000 0.052000 0.052000 1.200000 0.026000 0.031000
1560018165459056842	1000 47 1.000000 0.163000 0.178000 1000 43 0.900000 1.473000 1.430000 600 52 1.000000 0.052000 0.052000 1.200000 0.035000 0.042000
1560018165966846634	1000 47 1.000000 0.138000 0.151000 1000 43 0.900000 1.470000 1.425000 600 52 1.000000 0.052000 0.052000 1.200000 0.024000 0.028000
1560018166474578259	1000 47 1.000000 0.138000 0.151000 1000 43 0.900000 1.466000 1.423000 600 52 1.000000 0.052000 0.052000 1.200000 0.024000 0.028000
1560018166982096384	1000 45 1.000000 0.157000 0.171000 1000 43 0.900000 1.477000 1.434000 600 50 1.000000 0.052000 0.052000 1.200000 0.032000 0.038000
1560018167489649259	1000 42 1.000000 0.067000 0.073000 1000 42 0.900000 0.289000 0.281000 600 47 1.000000 0.052000 0.052000 1.200000 0.039000 0.047000
