#Timestamp	CPU(0) Frequency(MHz)	CPU(0) Temperature(C)	A7 Voltage(V)	A7 Current(A)	A7 Power(W)	CPU(4) Frequency(MHz)	CPU(4) Temperature(C)	A15 Voltage(V)	A15 Current(A)	A15 Power(W)	GPU Frequency(MHz)	GPU Temperature(C)	GPU Voltage(V)	GPU Current(A)	GPU Power(W)	RAM Voltage(V)	RAM Current(A)	RAM Power(W)
1560043647306959838	200 41 0.900000 0.013000 0.011000 1500 37 1.000000 0.527000 0.552000 600 43 1.000000 0.051000 0.051000 1.200000 0.048000 0.058000
1560043647817257672	200 41 0.900000 0.014000 0.012000 1500 38 1.000000 1.009000 1.104000 600 43 1.000000 0.051000 0.051000 1.200000 0.046000 0.055000
1560043648326912880	200 42 0.900000 0.012000 0.010000 1500 38 1.000000 0.801000 0.875000 600 43 1.000000 0.051000 0.051000 1.200000 0.038000 0.045000
1560043648836661922	200 42 0.900000 0.012000 0.010000 1500 38 1.000000 0.804000 0.878000 600 43 1.000000 0.051000 0.051000 1.200000 0.039000 0.047000
1560043649345369214	200 46 0.900000 0.013000 0.011000 1500 39 1.000000 1.289000 1.414000 600 45 1.000000 0.051000 0.051000 1.200000 0.038000 0.046000
1560043649853994422	200 48 0.900000 0.014000 0.012000 1500 40 1.100000 1.994000 2.193000 600 46 1.000000 0.051000 0.051000 1.200000 0.039000 0.047000
1560043650362363672	200 48 0.900000 0.016000 0.014000 1500 41 1.000000 1.845000 2.025000 600 47 1.000000 0.052000 0.052000 1.200000 0.027000 0.032000
1560043650870777339	200 49 0.900000 0.013000 0.011000 1500 41 1.000000 1.766000 1.939000 600 47 1.000000 0.051000 0.051000 1.200000 0.025000 0.030000
1560043651379500214	200 49 0.900000 0.013000 0.011000 1500 42 1.000000 1.788000 1.963000 600 48 1.000000 0.052000 0.052000 1.200000 0.024000 0.028000
1560043651887842381	200 50 0.900000 0.014000 0.012000 1500 42 1.000000 1.878000 2.062000 600 49 1.000000 0.052000 0.052000 1.200000 0.030000 0.036000
1560043652396556714	200 50 0.900000 0.017000 0.015000 1500 42 1.100000 1.988000 2.186000 600 48 1.000000 0.052000 0.052000 1.200000 0.033000 0.039000
1560043652905029839	200 50 0.900000 0.013000 0.011000 1500 43 1.000000 1.785000 1.959000 600 48 1.000000 0.052000 0.052000 1.200000 0.024000 0.028000
1560043653413236714	200 50 0.900000 0.014000 0.012000 1500 43 1.000000 1.765000 1.937000 600 49 1.000000 0.052000 0.052000 1.200000 0.025000 0.030000
1560043653926779756	200 50 0.900000 0.013000 0.011000 1500 43 1.000000 1.853000 2.034000 600 49 1.000000 0.052000 0.052000 1.200000 0.025000 0.030000
1560043654435274214	200 51 0.900000 0.019000 0.017000 1500 43 1.100000 2.088000 2.296000 600 49 1.000000 0.052000 0.052000 1.200000 0.040000 0.048000
1560043654943658214	200 51 0.900000 0.014000 0.012000 1500 43 1.000000 1.778000 1.952000 600 49 1.000000 0.052000 0.052000 1.200000 0.024000 0.028000
1560043655452200506	200 51 0.900000 0.014000 0.012000 1500 43 1.000000 1.784000 1.958000 600 49 1.000000 0.052000 0.052000 1.200000 0.023000 0.027000
1560043655960859423	200 51 0.900000 0.020000 0.018000 1500 43 1.000000 1.834000 2.013000 600 49 1.000000 0.052000 0.052000 1.200000 0.027000 0.032000
1560043656469263048	200 51 0.900000 0.016000 0.014000 1500 44 1.000000 1.916000 2.103000 600 50 1.000000 0.052000 0.052000 1.200000 0.033000 0.039000
1560043656977683423	200 51 0.900000 0.014000 0.012000 1500 44 1.000000 1.764000 1.936000 600 49 1.000000 0.052000 0.052000 1.200000 0.024000 0.028000
1560043657486247631	200 51 0.900000 0.014000 0.012000 1500 44 1.000000 1.778000 1.952000 600 49 1.000000 0.052000 0.052000 1.200000 0.024000 0.028000
1560043657995181423	200 51 0.900000 0.015000 0.013000 1500 44 1.100000 1.885000 2.073000 600 50 1.000000 0.052000 0.052000 1.200000 0.030000 0.036000
1560043658508927923	200 52 0.900000 0.014000 0.012000 1500 44 1.000000 1.809000 1.986000 600 51 1.000000 0.052000 0.052000 1.200000 0.025000 0.030000
1560043659017490757	200 52 0.900000 0.022000 0.020000 1500 44 1.100000 2.077000 2.284000 600 50 1.000000 0.052000 0.052000 1.200000 0.039000 0.047000
1560043659525925632	200 52 0.900000 0.014000 0.012000 1500 44 1.000000 1.769000 1.942000 600 50 1.000000 0.053000 0.053000 1.200000 0.024000 0.028000
1560043660034585923	200 52 0.900000 0.015000 0.013000 1500 44 1.000000 1.897000 2.082000 600 50 1.000000 0.053000 0.053000 1.200000 0.030000 0.036000
1560043660543066340	200 52 0.900000 0.014000 0.012000 1500 44 1.000000 1.781000 1.955000 600 50 1.000000 0.052000 0.052000 1.200000 0.024000 0.028000
1560043661051661757	200 52 0.900000 0.023000 0.020000 1500 44 1.100000 1.985000 2.183000 600 50 1.000000 0.053000 0.053000 1.200000 0.037000 0.044000
1560043661560304757	200 52 0.900000 0.014000 0.012000 1500 44 1.000000 1.791000 1.966000 600 50 1.000000 0.052000 0.052000 1.200000 0.024000 0.028000
1560043662078490632	200 52 0.900000 0.015000 0.013000 1500 44 1.000000 1.879000 2.063000 600 50 1.000000 0.052000 0.052000 1.200000 0.028000 0.033000
1560043662587169382	200 52 0.900000 0.015000 0.013000 1500 44 1.000000 1.763000 1.935000 600 50 1.000000 0.052000 0.052000 1.200000 0.024000 0.028000
1560043663095405299	200 52 0.900000 0.013000 0.011000 1500 44 1.000000 1.834000 2.013000 600 51 1.000000 0.053000 0.053000 1.200000 0.028000 0.033000
1560043663603741382	200 52 0.900000 0.014000 0.012000 1500 45 1.000000 1.756000 1.928000 600 50 1.000000 0.052000 0.052000 1.200000 0.024000 0.028000
1560043664112533674	200 52 0.900000 0.014000 0.012000 1500 45 1.000000 1.794000 1.969000 600 50 1.000000 0.053000 0.053000 1.200000 0.024000 0.028000
1560043664621140882	200 52 0.900000 0.014000 0.012000 1500 45 1.000000 1.774000 1.947000 600 50 1.000000 0.052000 0.052000 1.200000 0.025000 0.030000
1560043665129924507	200 52 0.900000 0.014000 0.012000 1500 45 1.000000 1.798000 1.974000 600 51 1.000000 0.052000 0.052000 1.200000 0.025000 0.030000
1560043665638625174	200 52 0.900000 0.023000 0.020000 1500 45 1.100000 2.039000 2.242000 600 51 1.000000 0.052000 0.052000 1.200000 0.039000 0.047000
1560043666147307966	200 52 0.900000 0.015000 0.013000 1500 45 1.000000 1.895000 2.080000 600 51 1.000000 0.053000 0.053000 1.200000 0.030000 0.036000
1560043666656008757	200 52 0.900000 0.014000 0.012000 1500 45 1.000000 1.781000 1.955000 600 50 1.000000 0.052000 0.052000 1.200000 0.024000 0.028000
1560043667164490007	200 52 0.900000 0.014000 0.012000 1500 45 1.000000 1.768000 1.941000 600 50 1.000000 0.053000 0.053000 1.200000 0.024000 0.028000
1560043667673191966	200 53 0.900000 0.021000 0.019000 1500 45 1.100000 1.934000 2.127000 600 51 1.000000 0.053000 0.053000 1.200000 0.031000 0.037000
1560043668181834883	200 53 0.900000 0.014000 0.012000 1500 45 1.100000 1.887000 2.075000 600 51 1.000000 0.052000 0.052000 1.200000 0.028000 0.033000
1560043668690573758	200 52 0.900000 0.014000 0.012000 1500 45 1.000000 1.773000 1.946000 600 51 1.000000 0.053000 0.053000 1.200000 0.024000 0.028000
1560043669199059924	200 53 0.900000 0.015000 0.013000 1500 45 1.000000 1.779000 1.953000 600 51 1.000000 0.053000 0.053000 1.200000 0.024000 0.028000
1560043669707566716	200 53 0.900000 0.014000 0.012000 1500 45 1.000000 1.768000 1.941000 600 52 1.000000 0.053000 0.053000 1.200000 0.025000 0.030000
1560043670216314300	200 53 0.900000 0.019000 0.017000 1500 45 1.000000 1.880000 2.064000 600 51 1.000000 0.052000 0.052000 1.200000 0.028000 0.033000
1560043670724999550	200 53 0.900000 0.014000 0.012000 1500 45 1.000000 1.773000 1.946000 600 51 1.000000 0.053000 0.053000 1.200000 0.023000 0.027000
1560043671233527008	200 53 0.900000 0.014000 0.012000 1500 45 1.000000 1.775000 1.948000 600 51 1.000000 0.052000 0.052000 1.200000 0.024000 0.028000
1560043671741795508	200 53 0.900000 0.014000 0.012000 1500 45 1.000000 1.802000 1.978000 600 51 1.000000 0.052000 0.052000 1.200000 0.025000 0.030000
1560043672250356091	200 53 0.900000 0.019000 0.017000 1500 45 1.100000 2.040000 2.244000 600 51 1.000000 0.052000 0.052000 1.200000 0.039000 0.047000
1560043672759070466	200 53 0.900000 0.014000 0.012000 1500 45 1.000000 1.785000 1.959000 600 51 1.000000 0.053000 0.053000 1.200000 0.025000 0.030000
1560043673267331883	200 53 0.900000 0.014000 0.012000 1500 45 1.000000 1.790000 1.965000 600 51 1.000000 0.053000 0.053000 1.200000 0.025000 0.030000
1560043673775769425	200 53 0.900000 0.014000 0.012000 1500 45 1.000000 1.778000 1.952000 600 51 1.000000 0.053000 0.053000 1.200000 0.024000 0.028000
1560043674285173175	200 53 0.900000 0.017000 0.015000 1500 45 1.000000 1.885000 2.069000 600 52 1.000000 0.053000 0.053000 1.200000 0.030000 0.036000
1560043674793671717	200 53 0.900000 0.022000 0.020000 1500 45 1.000000 1.773000 1.946000 600 51 1.000000 0.052000 0.052000 1.200000 0.024000 0.028000
1560043675302270467	200 53 0.900000 0.014000 0.012000 1500 45 1.000000 1.771000 1.944000 600 51 1.000000 0.053000 0.053000 1.200000 0.024000 0.028000
1560043675810770342	200 53 0.900000 0.015000 0.013000 1500 45 1.000000 1.762000 1.934000 600 51 1.000000 0.053000 0.053000 1.200000 0.024000 0.028000
1560043676320099967	200 53 0.900000 0.015000 0.013000 1500 45 1.000000 1.888000 2.073000 600 51 1.000000 0.053000 0.053000 1.200000 0.028000 0.033000
1560043676837736425	200 53 0.900000 0.024000 0.021000 1500 45 1.000000 1.882000 2.066000 600 51 1.000000 0.053000 0.053000 1.200000 0.029000 0.035000
1560043677346587592	200 53 0.900000 0.014000 0.012000 1500 45 1.000000 1.770000 1.943000 600 51 1.000000 0.053000 0.053000 1.200000 0.023000 0.027000
1560043677855034967	200 53 0.900000 0.014000 0.012000 1500 45 1.000000 1.774000 1.947000 600 51 1.000000 0.053000 0.053000 1.200000 0.024000 0.028000
1560043678363546675	200 53 0.900000 0.015000 0.013000 1500 45 1.000000 1.795000 1.969000 600 51 1.000000 0.053000 0.053000 1.200000 0.024000 0.028000
1560043678872272509	200 53 0.900000 0.015000 0.013000 1500 45 1.000000 1.816000 1.993000 600 52 1.000000 0.053000 0.053000 1.200000 0.028000 0.033000
1560043679390082384	200 53 0.900000 0.015000 0.013000 1500 45 1.000000 1.797000 1.973000 600 51 1.000000 0.053000 0.053000 1.200000 0.024000 0.028000
1560043679900218884	200 53 0.900000 0.015000 0.013000 1500 45 1.000000 1.763000 1.935000 600 51 1.000000 0.053000 0.053000 1.200000 0.024000 0.028000
1560043680408746759	200 53 0.900000 0.015000 0.013000 1500 45 1.000000 1.889000 2.074000 600 51 1.000000 0.053000 0.053000 1.200000 0.024000 0.028000
1560043680922646801	200 53 0.900000 0.014000 0.012000 1500 45 1.000000 1.778000 1.952000 600 52 1.000000 0.053000 0.053000 1.200000 0.025000 0.030000
1560043681431536676	200 53 0.900000 0.022000 0.020000 1500 46 1.100000 1.845000 2.029000 600 51 1.000000 0.053000 0.053000 1.200000 0.038000 0.045000
1560043681940139426	200 53 0.900000 0.015000 0.013000 1500 45 1.000000 1.810000 1.987000 600 51 1.000000 0.053000 0.053000 1.200000 0.025000 0.030000
1560043682457876301	200 53 0.900000 0.014000 0.012000 1500 46 1.000000 1.784000 1.958000 600 51 1.000000 0.053000 0.053000 1.200000 0.025000 0.030000
1560043682966752009	200 53 0.900000 0.015000 0.013000 1500 45 1.000000 1.799000 1.975000 600 51 1.000000 0.053000 0.053000 1.200000 0.025000 0.030000
1560043683475339009	200 53 0.900000 0.020000 0.018000 1500 46 1.000000 1.868000 2.051000 600 52 1.000000 0.053000 0.053000 1.200000 0.030000 0.036000
1560043683983961843	200 53 0.900000 0.015000 0.013000 1500 46 1.000000 1.795000 1.970000 600 51 1.000000 0.052000 0.052000 1.200000 0.025000 0.030000
1560043684492486551	200 53 0.900000 0.020000 0.018000 1500 46 1.000000 1.791000 1.966000 600 51 1.000000 0.053000 0.053000 1.200000 0.025000 0.030000
1560043685000885635	200 53 0.900000 0.014000 0.012000 1500 46 1.000000 1.785000 1.959000 600 51 1.000000 0.053000 0.053000 1.200000 0.025000 0.030000
1560043685513342760	200 53 0.900000 0.019000 0.017000 1500 46 1.000000 1.805000 1.981000 600 53 1.000000 0.053000 0.053000 1.200000 0.024000 0.028000
1560043686021872551	200 53 0.900000 0.015000 0.013000 1500 46 1.000000 1.810000 1.987000 600 51 1.000000 0.053000 0.053000 1.200000 0.026000 0.031000
1560043686530486426	200 53 0.900000 0.015000 0.013000 1500 46 1.000000 1.759000 1.931000 600 52 1.000000 0.053000 0.053000 1.200000 0.024000 0.028000
1560043687039170052	200 53 0.900000 0.014000 0.012000 1500 46 1.000000 1.902000 2.088000 600 51 1.000000 0.053000 0.053000 1.200000 0.029000 0.035000
1560043687553027052	200 53 0.900000 0.015000 0.013000 1500 46 1.000000 1.770000 1.943000 600 52 1.000000 0.053000 0.053000 1.200000 0.025000 0.030000
1560043688061847677	200 53 0.900000 0.018000 0.016000 1500 46 1.100000 1.901000 2.091000 600 52 1.000000 0.053000 0.053000 1.200000 0.031000 0.037000
1560043688570347427	200 53 0.900000 0.014000 0.012000 1500 46 1.000000 1.776000 1.948000 600 52 1.000000 0.053000 0.053000 1.200000 0.025000 0.030000
1560043689078984968	200 53 0.900000 0.015000 0.013000 1500 46 1.000000 1.797000 1.973000 600 51 1.000000 0.053000 0.053000 1.200000 0.024000 0.028000
1560043689587658593	200 53 0.900000 0.015000 0.013000 1500 46 1.000000 1.773000 1.946000 600 51 1.000000 0.053000 0.053000 1.200000 0.025000 0.030000
1560043690096214552	200 53 0.900000 0.016000 0.014000 1500 46 1.000000 1.797000 1.973000 600 52 1.000000 0.053000 0.053000 1.200000 0.024000 0.028000
1560043690614271052	200 53 0.900000 0.014000 0.012000 1500 46 1.000000 1.787000 1.962000 600 52 1.000000 0.053000 0.053000 1.200000 0.024000 0.028000
1560043691124363927	200 53 0.900000 0.015000 0.013000 1500 46 1.000000 1.791000 1.966000 600 51 1.000000 0.053000 0.053000 1.200000 0.026000 0.031000
1560043691632852677	200 53 0.900000 0.014000 0.012000 1500 46 1.000000 1.784000 1.958000 600 52 1.000000 0.053000 0.053000 1.200000 0.025000 0.030000
1560043692144753302	200 53 0.900000 0.015000 0.013000 1500 46 1.000000 1.791000 1.966000 600 53 1.000000 0.053000 0.053000 1.200000 0.025000 0.030000
1560043692653540802	200 54 0.900000 0.015000 0.013000 1500 46 1.000000 1.903000 2.089000 600 52 1.000000 0.053000 0.053000 1.200000 0.030000 0.036000
1560043693162291344	200 53 0.900000 0.014000 0.012000 1500 46 1.000000 1.769000 1.942000 600 52 1.000000 0.053000 0.053000 1.200000 0.024000 0.028000
1560043693670968594	200 53 0.900000 0.015000 0.013000 1500 46 1.000000 1.763000 1.935000 600 52 1.000000 0.053000 0.053000 1.200000 0.024000 0.028000
1560043694179415469	200 53 0.900000 0.014000 0.012000 1500 46 1.000000 1.775000 1.948000 600 51 1.000000 0.053000 0.053000 1.200000 0.024000 0.028000
1560043694688144844	200 54 0.900000 0.015000 0.013000 1500 46 1.000000 1.830000 2.009000 600 52 1.000000 0.053000 0.053000 1.200000 0.028000 0.033000
1560043695205700761	200 53 0.900000 0.015000 0.013000 1500 46 1.000000 1.870000 2.053000 600 52 1.000000 0.053000 0.053000 1.200000 0.028000 0.033000
1560043695714414428	200 53 0.900000 0.015000 0.013000 1500 46 1.000000 1.766000 1.939000 600 52 1.000000 0.053000 0.053000 1.200000 0.025000 0.030000
1560043696223094386	200 53 0.900000 0.015000 0.013000 1500 46 1.000000 1.797000 1.973000 600 51 1.000000 0.053000 0.053000 1.200000 0.024000 0.028000
1560043696734664136	200 54 0.900000 0.014000 0.012000 1500 46 1.000000 1.782000 1.956000 600 53 1.000000 0.053000 0.053000 1.200000 0.024000 0.028000
1560043697243531928	200 53 0.900000 0.017000 0.015000 1500 46 1.000000 1.918000 2.105000 600 52 1.000000 0.053000 0.053000 1.200000 0.032000 0.038000
1560043697752094803	200 54 0.900000 0.015000 0.013000 1500 46 1.000000 1.805000 1.981000 600 52 1.000000 0.053000 0.053000 1.200000 0.025000 0.030000
1560043698260591095	200 53 0.900000 0.015000 0.013000 1500 46 1.000000 1.779000 1.953000 600 52 1.000000 0.053000 0.053000 1.200000 0.024000 0.028000
1560043698772717178	200 53 0.900000 0.014000 0.012000 1500 46 1.000000 1.787000 1.962000 600 53 1.000000 0.053000 0.053000 1.200000 0.025000 0.030000
1560043699281369595	200 54 0.900000 0.022000 0.020000 1500 46 1.100000 2.028000 2.230000 600 52 1.000000 0.053000 0.053000 1.200000 0.041000 0.049000
1560043699789960095	200 54 0.900000 0.015000 0.013000 1500 46 1.000000 1.763000 1.935000 600 52 1.000000 0.053000 0.053000 1.200000 0.024000 0.028000
1560043700298423636	200 54 0.900000 0.015000 0.013000 1500 46 1.000000 1.769000 1.942000 600 52 1.000000 0.053000 0.053000 1.200000 0.024000 0.028000
1560043700806910970	200 53 0.900000 0.014000 0.012000 1500 46 1.000000 1.761000 1.933000 600 52 1.000000 0.053000 0.053000 1.200000 0.024000 0.028000
1560043701315510470	200 54 0.900000 0.023000 0.020000 1500 46 1.100000 2.060000 2.266000 600 52 1.000000 0.053000 0.053000 1.200000 0.042000 0.050000
1560043701824182845	200 54 0.900000 0.023000 0.020000 1500 46 1.000000 1.863000 2.045000 600 52 1.000000 0.053000 0.053000 1.200000 0.030000 0.036000
1560043702341975137	200 54 0.900000 0.015000 0.013000 1500 46 1.000000 1.792000 1.967000 600 52 1.000000 0.053000 0.053000 1.200000 0.025000 0.030000
1560043702850742053	200 53 0.900000 0.015000 0.013000 1500 46 1.000000 1.797000 1.973000 600 52 1.000000 0.053000 0.053000 1.200000 0.025000 0.030000
1560043703360349262	200 54 0.900000 0.015000 0.013000 1500 46 1.000000 1.789000 1.964000 600 53 1.000000 0.053000 0.053000 1.200000 0.024000 0.028000
1560043703869069137	200 54 0.900000 0.022000 0.020000 1500 46 1.100000 2.019000 2.220000 600 52 1.000000 0.053000 0.053000 1.200000 0.037000 0.044000
1560043704377630679	200 54 0.900000 0.015000 0.013000 1500 46 1.000000 1.810000 1.987000 600 52 1.000000 0.053000 0.053000 1.200000 0.025000 0.030000
1560043704886073429	200 54 0.900000 0.014000 0.012000 1500 46 1.000000 1.785000 1.959000 600 52 1.000000 0.053000 0.053000 1.200000 0.024000 0.028000
1560043705394581554	200 54 0.900000 0.014000 0.012000 1500 46 1.000000 1.775000 1.948000 600 52 1.000000 0.053000 0.053000 1.200000 0.023000 0.027000
1560043705903079429	200 54 0.900000 0.023000 0.020000 1500 46 1.100000 2.045000 2.249000 600 52 1.000000 0.053000 0.053000 1.200000 0.037000 0.044000
1560043706411750179	200 54 0.900000 0.015000 0.013000 1500 46 1.000000 1.759000 1.931000 600 52 1.000000 0.053000 0.053000 1.200000 0.024000 0.028000
1560043706920578679	200 54 0.900000 0.015000 0.013000 1500 46 1.000000 1.759000 1.931000 600 52 1.000000 0.053000 0.053000 1.200000 0.023000 0.027000
1560043707428947929	200 54 0.900000 0.015000 0.013000 1500 46 1.000000 1.759000 1.931000 600 52 1.000000 0.053000 0.053000 1.200000 0.023000 0.027000
1560043707940247054	200 54 0.900000 0.015000 0.013000 1500 46 1.000000 1.879000 2.063000 600 53 1.000000 0.053000 0.053000 1.200000 0.031000 0.037000
1560043708448969846	200 54 0.900000 0.015000 0.013000 1500 46 1.000000 1.778000 1.952000 600 52 1.000000 0.053000 0.053000 1.200000 0.024000 0.028000
1560043708957357471	200 54 0.900000 0.014000 0.012000 1500 46 1.000000 1.773000 1.946000 600 52 1.000000 0.053000 0.053000 1.200000 0.024000 0.028000
1560043709465953179	200 54 0.900000 0.015000 0.013000 1500 46 1.000000 1.788000 1.963000 600 52 1.000000 0.053000 0.053000 1.200000 0.024000 0.028000
1560043709977282721	200 54 0.900000 0.016000 0.014000 1500 46 1.000000 1.795000 1.970000 600 52 1.000000 0.053000 0.053000 1.200000 0.026000 0.031000
1560043710485783596	200 54 0.900000 0.023000 0.020000 1500 46 1.100000 2.072000 2.279000 600 52 1.000000 0.053000 0.053000 1.200000 0.040000 0.048000
1560043710994263804	200 54 0.900000 0.015000 0.013000 1500 46 1.000000 1.777000 1.951000 600 52 1.000000 0.053000 0.053000 1.200000 0.024000 0.028000
1560043711502912846	200 54 0.900000 0.014000 0.012000 1500 46 1.000000 1.760000 1.932000 600 52 1.000000 0.053000 0.053000 1.200000 0.023000 0.027000
1560043712011380471	200 54 0.900000 0.015000 0.013000 1500 46 1.000000 1.761000 1.933000 600 52 1.000000 0.053000 0.053000 1.200000 0.024000 0.028000
1560043712519806138	200 54 0.900000 0.015000 0.013000 1500 46 1.100000 1.923000 2.115000 600 53 1.000000 0.053000 0.053000 1.200000 0.031000 0.037000
1560043713028342430	200 54 0.900000 0.017000 0.015000 1500 46 1.000000 1.767000 1.940000 600 52 1.000000 0.053000 0.053000 1.200000 0.024000 0.028000
1560043713536592013	200 54 0.900000 0.015000 0.013000 1500 46 1.000000 1.756000 1.928000 600 52 1.000000 0.053000 0.053000 1.200000 0.024000 0.028000
1560043714045149596	200 54 0.900000 0.015000 0.013000 1500 46 1.000000 1.758000 1.930000 600 52 1.000000 0.053000 0.053000 1.200000 0.024000 0.028000
1560043714555991930	200 54 0.900000 0.015000 0.013000 1500 46 1.000000 1.776000 1.950000 600 53 1.000000 0.053000 0.053000 1.200000 0.025000 0.030000
1560043715064637888	200 54 0.900000 0.017000 0.015000 1500 46 1.000000 1.762000 1.934000 600 52 1.000000 0.053000 0.053000 1.200000 0.024000 0.028000
1560043715574494472	200 54 0.900000 0.014000 0.012000 1500 46 1.000000 1.765000 1.937000 600 52 1.000000 0.053000 0.053000 1.200000 0.024000 0.028000
1560043716083382513	200 54 0.900000 0.015000 0.013000 1500 46 1.000000 1.774000 1.947000 600 52 1.000000 0.053000 0.053000 1.200000 0.024000 0.028000
1560043716591905138	200 54 0.900000 0.015000 0.013000 1500 46 1.000000 1.793000 1.968000 600 52 1.000000 0.053000 0.053000 1.200000 0.024000 0.028000
1560043717100253847	200 54 0.900000 0.019000 0.017000 1500 46 1.100000 2.032000 2.235000 600 52 1.000000 0.053000 0.053000 1.200000 0.035000 0.042000
1560043717611693764	200 54 0.900000 0.015000 0.013000 1500 46 1.000000 1.780000 1.954000 600 52 1.000000 0.053000 0.053000 1.200000 0.024000 0.028000
1560043718120514889	200 54 0.900000 0.015000 0.013000 1500 46 1.100000 1.908000 2.098000 600 52 1.000000 0.053000 0.053000 1.200000 0.024000 0.028000
1560043718638274222	200 54 0.900000 0.015000 0.013000 1500 46 1.000000 1.801000 1.977000 600 52 1.000000 0.053000 0.053000 1.200000 0.023000 0.027000
1560043719150356430	200 54 0.900000 0.015000 0.013000 1500 46 1.000000 1.777000 1.951000 600 53 1.000000 0.053000 0.053000 1.200000 0.027000 0.032000
1560043719663028555	200 54 0.900000 0.020000 0.018000 1500 46 1.100000 2.021000 2.223000 600 52 1.000000 0.053000 0.053000 1.200000 0.036000 0.043000
1560043720172022555	200 54 0.900000 0.015000 0.013000 1500 46 1.000000 1.886000 2.070000 600 52 1.000000 0.053000 0.053000 1.200000 0.030000 0.036000
1560043720680564639	200 54 0.900000 0.015000 0.013000 1500 46 1.000000 1.761000 1.933000 600 52 1.000000 0.053000 0.053000 1.200000 0.026000 0.031000
1560043721192924014	200 54 0.900000 0.014000 0.012000 1500 46 1.000000 1.788000 1.963000 600 53 1.000000 0.053000 0.053000 1.200000 0.024000 0.028000
1560043721704055264	200 54 0.900000 0.023000 0.020000 1500 46 1.100000 2.062000 2.268000 600 52 1.000000 0.053000 0.053000 1.200000 0.039000 0.047000
1560043722221853097	200 54 0.900000 0.014000 0.012000 1500 46 1.000000 1.894000 2.079000 600 52 1.000000 0.053000 0.053000 1.200000 0.030000 0.036000
1560043722730636222	200 54 0.900000 0.015000 0.013000 1500 46 1.000000 1.791000 1.966000 600 52 1.000000 0.053000 0.053000 1.200000 0.025000 0.030000
1560043723238826723	200 54 0.900000 0.014000 0.012000 1500 46 1.000000 1.766000 1.939000 600 52 1.000000 0.053000 0.053000 1.200000 0.025000 0.030000
1560043723752243598	200 54 0.900000 0.024000 0.021000 1500 46 1.100000 1.924000 2.116000 600 53 1.000000 0.053000 0.053000 1.200000 0.030000 0.036000
1560043724260925764	200 54 0.900000 0.015000 0.013000 1500 46 1.000000 1.839000 2.019000 600 52 1.000000 0.053000 0.053000 1.200000 0.029000 0.035000
1560043724769799973	200 54 0.900000 0.014000 0.012000 1500 46 1.000000 1.778000 1.952000 600 52 1.000000 0.053000 0.053000 1.200000 0.025000 0.030000
1560043725278673348	200 54 0.900000 0.015000 0.013000 1500 46 1.000000 1.775000 1.948000 600 52 1.000000 0.053000 0.053000 1.200000 0.025000 0.030000
1560043725788930973	200 54 0.900000 0.014000 0.012000 1500 46 1.000000 1.798000 1.974000 600 53 1.000000 0.053000 0.053000 1.200000 0.024000 0.028000
1560043726297699348	200 54 0.900000 0.027000 0.024000 1500 46 1.100000 2.065000 2.271000 600 52 1.000000 0.053000 0.053000 1.200000 0.042000 0.050000
1560043726806225181	200 54 0.900000 0.015000 0.013000 1500 47 1.000000 1.792000 1.967000 600 52 1.000000 0.053000 0.053000 1.200000 0.026000 0.031000
1560043727314980223	200 54 0.900000 0.015000 0.013000 1500 46 1.000000 1.798000 1.974000 600 52 1.000000 0.053000 0.053000 1.200000 0.024000 0.028000
1560043727823766723	200 54 0.900000 0.015000 0.013000 1500 46 1.000000 1.762000 1.934000 600 52 1.000000 0.053000 0.053000 1.200000 0.025000 0.030000
1560043728332133890	200 54 0.900000 0.023000 0.020000 1500 47 1.100000 1.974000 2.171000 600 53 1.000000 0.053000 0.053000 1.200000 0.033000 0.039000
1560043728840737348	200 54 0.900000 0.014000 0.012000 1500 46 1.000000 1.791000 1.966000 600 52 1.000000 0.053000 0.053000 1.200000 0.024000 0.028000
1560043729349206640	200 54 0.900000 0.015000 0.013000 1500 46 1.000000 1.774000 1.947000 600 52 1.000000 0.053000 0.053000 1.200000 0.025000 0.030000
1560043729857913015	200 54 0.900000 0.014000 0.012000 1500 47 1.000000 1.795000 1.970000 600 52 1.000000 0.053000 0.053000 1.200000 0.024000 0.028000
1560043730369385598	200 54 0.900000 0.020000 0.018000 1500 47 1.000000 1.866000 2.048000 600 53 1.000000 0.053000 0.053000 1.200000 0.029000 0.035000
1560043730877989182	200 54 0.900000 0.015000 0.013000 1500 47 1.000000 1.779000 1.953000 600 52 1.000000 0.053000 0.053000 1.200000 0.025000 0.030000
1560043731386353098	200 54 0.900000 0.015000 0.013000 1500 47 1.000000 1.775000 1.948000 600 52 1.000000 0.053000 0.053000 1.200000 0.024000 0.028000
1560043731894730599	200 54 0.900000 0.014000 0.012000 1500 46 1.000000 1.778000 1.952000 600 52 1.000000 0.053000 0.053000 1.200000 0.024000 0.028000
1560043732403631390	200 54 0.900000 0.015000 0.013000 1500 46 1.000000 1.783000 1.957000 600 52 1.000000 0.053000 0.053000 1.200000 0.025000 0.030000
1560043732912083140	200 54 0.900000 0.018000 0.016000 1500 47 1.100000 1.947000 2.141000 600 53 1.000000 0.053000 0.053000 1.200000 0.032000 0.038000
1560043733420636515	200 54 0.900000 0.015000 0.013000 1500 47 1.000000 1.769000 1.942000 600 52 1.000000 0.053000 0.053000 1.200000 0.025000 0.030000
1560043733929089682	200 54 0.900000 0.015000 0.013000 1500 46 1.000000 1.786000 1.961000 600 52 1.000000 0.053000 0.053000 1.200000 0.025000 0.030000
1560043734438110349	200 54 0.900000 0.015000 0.013000 1500 47 1.000000 1.767000 1.940000 600 52 1.000000 0.053000 0.053000 1.200000 0.024000 0.028000
1560043734946364849	200 54 0.900000 0.017000 0.015000 1500 47 1.000000 1.802000 1.978000 600 53 1.000000 0.053000 0.053000 1.200000 0.025000 0.030000
1560043735455059599	200 54 0.900000 0.015000 0.013000 1500 46 1.000000 1.810000 1.987000 600 52 1.000000 0.053000 0.053000 1.200000 0.025000 0.030000
1560043735963701391	200 54 0.900000 0.014000 0.012000 1500 47 1.000000 1.772000 1.945000 600 52 1.000000 0.053000 0.053000 1.200000 0.024000 0.028000
1560043736472368057	200 54 0.900000 0.015000 0.013000 1500 46 1.000000 1.856000 2.037000 600 52 1.000000 0.053000 0.053000 1.200000 0.027000 0.032000
1560043736980813641	200 54 0.900000 0.016000 0.014000 1500 47 1.000000 1.761000 1.933000 600 53 1.000000 0.053000 0.053000 1.200000 0.024000 0.028000
1560043737489957766	200 54 0.900000 0.023000 0.020000 1500 47 1.000000 1.829000 2.008000 600 52 1.000000 0.053000 0.053000 1.200000 0.028000 0.033000
1560043737998390224	200 54 0.900000 0.015000 0.013000 1500 47 1.000000 1.767000 1.938000 600 52 1.000000 0.053000 0.053000 1.200000 0.024000 0.028000
1560043738507009308	200 54 0.900000 0.015000 0.013000 1500 47 1.000000 1.868000 2.051000 600 52 1.000000 0.053000 0.053000 1.200000 0.029000 0.035000
1560043739015728974	200 54 0.900000 0.015000 0.013000 1500 46 1.000000 1.779000 1.953000 600 52 1.000000 0.053000 0.053000 1.200000 0.025000 0.030000
1560043739524396266	200 54 0.900000 0.015000 0.013000 1500 47 1.000000 1.887000 2.071000 600 53 1.000000 0.053000 0.053000 1.200000 0.029000 0.035000
1560043740032879975	200 54 0.900000 0.015000 0.013000 1500 46 1.000000 1.778000 1.952000 600 52 1.000000 0.053000 0.053000 1.200000 0.024000 0.028000
1560043740541448475	200 54 0.900000 0.015000 0.013000 1500 47 1.000000 1.790000 1.965000 600 52 1.000000 0.053000 0.053000 1.200000 0.025000 0.030000
1560043741050071058	200 54 0.900000 0.015000 0.013000 1500 46 1.000000 1.780000 1.954000 600 52 1.000000 0.053000 0.053000 1.200000 0.025000 0.030000
1560043741558864891	200 54 0.900000 0.015000 0.013000 1500 47 1.000000 1.770000 1.943000 600 53 1.000000 0.053000 0.053000 1.200000 0.024000 0.028000
1560043742069586016	200 54 0.900000 0.015000 0.013000 1500 47 1.000000 1.777000 1.951000 600 52 1.000000 0.053000 0.053000 1.200000 0.028000 0.033000
1560043742577943266	200 54 0.900000 0.015000 0.013000 1500 47 1.000000 1.774000 1.947000 600 52 1.000000 0.053000 0.053000 1.200000 0.024000 0.028000
1560043743086722600	200 54 0.900000 0.014000 0.012000 1500 47 1.000000 1.775000 1.948000 600 52 1.000000 0.053000 0.053000 1.200000 0.024000 0.028000
1560043743598258725	200 54 0.900000 0.015000 0.013000 1500 46 1.000000 1.760000 1.932000 600 53 1.000000 0.053000 0.053000 1.200000 0.024000 0.028000
1560043744107551350	200 54 0.900000 0.023000 0.020000 1500 47 1.100000 1.949000 2.143000 600 53 1.000000 0.053000 0.053000 1.200000 0.035000 0.042000
1560043744616174975	200 54 0.900000 0.015000 0.013000 1500 47 1.000000 1.879000 2.063000 600 53 1.000000 0.053000 0.053000 1.200000 0.029000 0.035000
1560043745133672100	200 54 0.900000 0.015000 0.013000 1500 47 1.000000 1.771000 1.944000 600 52 1.000000 0.053000 0.053000 1.200000 0.024000 0.028000
1560043745642443725	200 54 0.900000 0.015000 0.013000 1500 47 1.000000 1.762000 1.934000 600 52 1.000000 0.053000 0.053000 1.200000 0.024000 0.028000
1560043746150911559	200 54 0.900000 0.015000 0.013000 1500 47 1.000000 1.791000 1.966000 600 53 1.000000 0.053000 0.053000 1.200000 0.025000 0.030000
1560043746659413434	200 54 0.900000 0.018000 0.016000 1500 47 1.000000 1.773000 1.946000 600 53 1.000000 0.053000 0.053000 1.200000 0.025000 0.030000
1560043747168077184	200 54 0.900000 0.015000 0.013000 1500 47 1.000000 1.797000 1.973000 600 52 1.000000 0.053000 0.053000 1.200000 0.025000 0.030000
1560043747676637350	200 54 0.900000 0.015000 0.013000 1500 46 1.000000 1.781000 1.955000 600 52 1.000000 0.053000 0.053000 1.200000 0.025000 0.030000
1560043748187472642	200 54 0.900000 0.015000 0.013000 1500 47 1.000000 1.768000 1.941000 600 53 1.000000 0.053000 0.053000 1.200000 0.024000 0.028000
1560043748696279017	200 54 0.900000 0.020000 0.018000 1500 47 1.000000 1.905000 2.091000 600 53 1.000000 0.053000 0.053000 1.200000 0.032000 0.038000
1560043749214023476	200 54 0.900000 0.015000 0.013000 1500 47 1.000000 1.768000 1.941000 600 52 1.000000 0.053000 0.053000 1.200000 0.024000 0.028000
1560043749724262767	200 54 0.900000 0.015000 0.013000 1500 47 1.000000 1.770000 1.943000 600 52 1.000000 0.053000 0.053000 1.200000 0.024000 0.028000
1560043750232787059	200 54 0.900000 0.014000 0.012000 1500 47 1.000000 1.767000 1.940000 600 52 1.000000 0.053000 0.053000 1.200000 0.024000 0.028000
1560043750741244309	200 54 0.900000 0.018000 0.016000 1500 47 1.100000 2.084000 2.292000 600 53 1.000000 0.053000 0.053000 1.200000 0.039000 0.047000
1560043751249985351	200 54 0.900000 0.015000 0.013000 1500 47 1.000000 1.773000 1.946000 600 53 1.000000 0.053000 0.053000 1.200000 0.024000 0.028000
1560043751758421059	200 54 0.900000 0.015000 0.013000 1500 47 1.000000 1.781000 1.955000 600 52 1.000000 0.053000 0.053000 1.200000 0.025000 0.030000
1560043752267106434	200 54 0.900000 0.014000 0.012000 1500 47 1.000000 1.764000 1.936000 600 52 1.000000 0.053000 0.053000 1.200000 0.024000 0.028000
1560043752778365226	200 54 0.900000 0.016000 0.014000 1500 47 1.100000 2.043000 2.247000 600 54 1.000000 0.053000 0.053000 1.200000 0.037000 0.044000
1560043753287789559	200 54 0.900000 0.015000 0.013000 1500 47 1.000000 1.764000 1.936000 600 53 1.000000 0.053000 0.053000 1.200000 0.023000 0.027000
1560043753796392726	200 54 0.900000 0.015000 0.013000 1500 47 1.000000 1.796000 1.972000 600 52 1.000000 0.053000 0.053000 1.200000 0.025000 0.030000
1560043754305039185	200 54 0.900000 0.015000 0.013000 1500 47 1.000000 1.787000 1.962000 600 52 1.000000 0.053000 0.053000 1.200000 0.025000 0.030000
1560043754813402393	200 54 0.900000 0.015000 0.013000 1500 47 1.000000 1.776000 1.950000 600 53 1.000000 0.053000 0.053000 1.200000 0.025000 0.030000
1560043755321990060	200 54 0.900000 0.024000 0.021000 1500 47 1.000000 1.949000 2.140000 600 53 1.000000 0.053000 0.053000 1.200000 0.039000 0.047000
1560043755830674226	200 54 0.900000 0.015000 0.013000 1500 47 1.000000 1.779000 1.953000 600 52 1.000000 0.053000 0.053000 1.200000 0.024000 0.028000
1560043756339246768	200 54 0.900000 0.015000 0.013000 1500 47 1.000000 1.791000 1.966000 600 52 1.000000 0.053000 0.053000 1.200000 0.025000 0.030000
1560043756847680352	200 54 0.900000 0.015000 0.013000 1500 47 1.000000 1.791000 1.966000 600 53 1.000000 0.053000 0.053000 1.200000 0.024000 0.028000
1560043757356131143	200 54 0.900000 0.015000 0.013000 1500 47 1.000000 1.882000 2.066000 600 53 1.000000 0.053000 0.053000 1.200000 0.034000 0.041000
1560043757864734768	200 54 0.900000 0.016000 0.014000 1500 47 1.000000 1.890000 2.075000 600 53 1.000000 0.053000 0.053000 1.200000 0.030000 0.036000
1560043758373169935	200 54 0.900000 0.015000 0.013000 1500 47 1.000000 1.783000 1.957000 600 52 1.000000 0.053000 0.053000 1.200000 0.025000 0.030000
1560043758881609602	200 54 0.900000 0.014000 0.012000 1500 47 1.000000 1.786000 1.961000 600 53 1.000000 0.053000 0.053000 1.200000 0.025000 0.030000
1560043759403646060	200 54 0.900000 0.015000 0.013000 1500 47 1.000000 1.842000 2.022000 600 53 1.000000 0.053000 0.053000 1.200000 0.029000 0.035000
1560043759915581269	200 54 0.900000 0.018000 0.016000 1500 47 1.100000 2.011000 2.212000 600 53 1.000000 0.053000 0.053000 1.200000 0.039000 0.047000
1560043760424037685	200 54 0.900000 0.015000 0.013000 1500 47 1.000000 1.794000 1.969000 600 52 1.000000 0.053000 0.053000 1.200000 0.025000 0.030000
1560043760932665560	200 54 0.900000 0.015000 0.013000 1500 47 1.000000 1.770000 1.943000 600 53 1.000000 0.053000 0.053000 1.200000 0.024000 0.028000
1560043761441054185	200 54 0.900000 0.016000 0.014000 1500 47 1.000000 1.878000 2.062000 600 52 1.000000 0.053000 0.053000 1.200000 0.031000 0.037000
1560043761949462560	200 55 0.900000 0.019000 0.017000 1500 47 1.000000 1.801000 1.977000 600 53 1.000000 0.053000 0.053000 1.200000 0.025000 0.030000
1560043762458069561	200 54 0.900000 0.015000 0.013000 1500 47 1.000000 1.824000 2.002000 600 52 1.000000 0.053000 0.053000 1.200000 0.029000 0.035000
1560043762970459644	200 54 0.900000 0.015000 0.013000 1500 47 1.000000 1.791000 1.966000 600 53 1.000000 0.053000 0.053000 1.200000 0.025000 0.030000
1560043763479192727	200 54 0.900000 0.016000 0.014000 1500 47 1.000000 1.892000 2.077000 600 53 1.000000 0.053000 0.053000 1.200000 0.030000 0.036000
1560043763991276769	200 55 0.900000 0.015000 0.013000 1500 47 1.000000 1.787000 1.962000 600 54 1.000000 0.053000 0.053000 1.200000 0.024000 0.028000
1560043764499811894	200 54 0.900000 0.020000 0.018000 1500 47 1.000000 1.977000 2.170000 600 53 1.000000 0.053000 0.053000 1.200000 0.036000 0.043000
1560043765010238977	200 54 0.900000 0.015000 0.013000 1500 47 1.000000 1.794000 1.968000 600 53 1.000000 0.053000 0.053000 1.200000 0.025000 0.030000
1560043765518900311	200 54 0.900000 0.023000 0.020000 1500 47 1.000000 1.845000 2.025000 600 53 1.000000 0.053000 0.053000 1.200000 0.033000 0.039000
1560043766027281353	200 54 0.900000 0.014000 0.012000 1500 47 1.000000 1.776000 1.950000 600 53 1.000000 0.053000 0.053000 1.200000 0.025000 0.030000
1560043766535758519	200 54 0.900000 0.022000 0.020000 1500 47 1.100000 2.105000 2.315000 600 53 1.000000 0.053000 0.053000 1.200000 0.040000 0.048000
1560043767044321644	200 54 0.900000 0.014000 0.012000 1500 47 1.000000 1.768000 1.941000 600 53 1.000000 0.053000 0.053000 1.200000 0.024000 0.028000
1560043767562481311	200 54 0.900000 0.015000 0.013000 1500 47 1.000000 1.871000 2.054000 600 53 1.000000 0.053000 0.053000 1.200000 0.030000 0.036000
1560043768071207395	200 54 0.900000 0.015000 0.013000 1500 47 1.000000 1.766000 1.939000 600 53 1.000000 0.053000 0.053000 1.200000 0.024000 0.028000
1560043768579719395	200 55 0.900000 0.015000 0.013000 1500 47 1.000000 1.949000 2.140000 600 53 1.000000 0.053000 0.053000 1.200000 0.031000 0.037000
1560043769088183478	200 54 0.900000 0.024000 0.021000 1500 47 1.000000 1.923000 2.111000 600 53 1.000000 0.053000 0.053000 1.200000 0.034000 0.041000
1560043769596850811	200 54 0.900000 0.015000 0.013000 1500 47 1.000000 1.781000 1.955000 600 53 1.000000 0.053000 0.053000 1.200000 0.025000 0.030000
1560043770106400436	200 54 0.900000 0.015000 0.013000 1500 47 1.000000 1.797000 1.971000 600 53 1.000000 0.053000 0.053000 1.200000 0.025000 0.030000
1560043770618334561	200 54 0.900000 0.015000 0.013000 1500 47 1.000000 1.784000 1.957000 600 53 1.000000 0.053000 0.053000 1.200000 0.024000 0.028000
1560043771127006353	200 54 0.900000 0.024000 0.021000 1500 47 1.100000 2.043000 2.247000 600 53 1.000000 0.053000 0.053000 1.200000 0.040000 0.048000
1560043771635654478	200 54 0.900000 0.015000 0.013000 1500 47 1.000000 1.890000 2.075000 600 53 1.000000 0.053000 0.053000 1.200000 0.027000 0.032000
1560043772144475687	200 54 0.900000 0.015000 0.013000 1500 47 1.000000 1.787000 1.962000 600 53 1.000000 0.053000 0.053000 1.200000 0.025000 0.030000
1560043772662321312	200 54 0.900000 0.015000 0.013000 1500 47 1.000000 1.784000 1.958000 600 53 1.000000 0.053000 0.053000 1.200000 0.025000 0.030000
1560043773172420645	200 55 0.900000 0.023000 0.020000 1500 47 1.100000 1.985000 2.183000 600 53 1.000000 0.053000 0.053000 1.200000 0.035000 0.042000
1560043773681145729	200 54 0.900000 0.015000 0.013000 1500 47 1.000000 1.873000 2.056000 600 53 1.000000 0.053000 0.053000 1.200000 0.030000 0.036000
1560043774189494312	200 54 0.900000 0.015000 0.013000 1500 47 1.000000 1.773000 1.946000 600 53 1.000000 0.053000 0.053000 1.200000 0.024000 0.028000
1560043774698266145	200 54 0.900000 0.015000 0.013000 1500 47 1.000000 1.768000 1.941000 600 52 1.000000 0.053000 0.053000 1.200000 0.024000 0.028000
1560043775206614895	200 55 0.900000 0.014000 0.012000 1500 47 1.000000 1.836000 2.015000 600 54 1.000000 0.053000 0.053000 1.200000 0.025000 0.030000
1560043775715278645	200 55 0.900000 0.018000 0.016000 1500 47 1.000000 1.881000 2.065000 600 53 1.000000 0.053000 0.053000 1.200000 0.030000 0.036000
1560043776223879187	200 54 0.900000 0.014000 0.012000 1500 47 1.000000 1.777000 1.951000 600 53 1.000000 0.053000 0.053000 1.200000 0.024000 0.028000
1560043776732458396	200 54 0.900000 0.015000 0.013000 1500 47 1.000000 1.803000 1.979000 600 52 1.000000 0.053000 0.053000 1.200000 0.025000 0.030000
1560043777260477396	200 54 0.900000 0.015000 0.013000 1500 47 1.000000 1.774000 1.947000 600 52 1.000000 0.053000 0.053000 1.200000 0.025000 0.030000
1560043777772285604	200 55 0.900000 0.021000 0.019000 1500 47 1.100000 2.051000 2.256000 600 53 1.000000 0.053000 0.053000 1.200000 0.036000 0.043000
1560043778289623021	200 54 0.900000 0.015000 0.013000 1500 47 1.000000 1.789000 1.964000 600 53 1.000000 0.053000 0.053000 1.200000 0.025000 0.030000
1560043778798234187	200 54 0.900000 0.015000 0.013000 1500 47 1.000000 1.773000 1.946000 600 53 1.000000 0.053000 0.053000 1.200000 0.025000 0.030000
1560043779306707104	200 54 0.900000 0.015000 0.013000 1500 47 1.000000 1.804000 1.980000 600 52 1.000000 0.053000 0.053000 1.200000 0.025000 0.030000
1560043779817294188	200 55 0.900000 0.018000 0.016000 1500 47 1.000000 1.872000 2.055000 600 55 1.000000 0.053000 0.053000 1.200000 0.027000 0.032000
1560043780325728271	200 54 0.900000 0.015000 0.013000 1500 47 1.000000 1.771000 1.944000 600 53 1.000000 0.053000 0.053000 1.200000 0.027000 0.032000
1560043780834451646	200 54 0.900000 0.015000 0.013000 1500 47 1.000000 1.768000 1.941000 600 53 1.000000 0.053000 0.053000 1.200000 0.024000 0.028000
1560043781342702188	200 54 0.900000 0.015000 0.013000 1500 47 1.000000 1.767000 1.940000 600 52 1.000000 0.053000 0.053000 1.200000 0.024000 0.028000
1560043781876039396	200 54 0.900000 0.014000 0.012000 1500 47 1.000000 1.771000 1.944000 600 54 1.000000 0.053000 0.053000 1.200000 0.024000 0.028000
1560043782397811730	200 54 0.900000 0.024000 0.021000 1500 47 1.000000 1.810000 1.987000 600 53 1.000000 0.053000 0.053000 1.200000 0.026000 0.031000
1560043782908017938	200 54 0.900000 0.015000 0.013000 1500 47 1.000000 1.765000 1.937000 600 53 1.000000 0.053000 0.053000 1.200000 0.024000 0.028000
1560043783416486605	200 54 0.900000 0.015000 0.013000 1500 47 1.000000 1.764000 1.936000 600 52 1.000000 0.053000 0.053000 1.200000 0.024000 0.028000
1560043783927966980	200 54 0.900000 0.015000 0.013000 1500 47 1.000000 1.768000 1.939000 600 53 1.000000 0.053000 0.053000 1.200000 0.024000 0.028000
1560043784436866230	200 55 0.900000 0.019000 0.017000 1500 47 1.000000 1.907000 2.093000 600 53 1.000000 0.053000 0.053000 1.200000 0.029000 0.035000
1560043784945631605	200 54 0.900000 0.015000 0.013000 1500 47 1.000000 1.769000 1.942000 600 53 1.000000 0.053000 0.053000 1.200000 0.024000 0.028000
1560043785454078688	200 54 0.900000 0.015000 0.013000 1500 47 1.000000 1.798000 1.974000 600 53 1.000000 0.053000 0.053000 1.200000 0.024000 0.028000
1560043785965559522	200 54 0.900000 0.015000 0.013000 1500 47 1.000000 1.786000 1.961000 600 53 1.000000 0.053000 0.053000 1.200000 0.026000 0.031000
1560043786474075480	200 55 0.900000 0.017000 0.015000 1500 47 1.100000 2.000000 2.200000 600 53 1.000000 0.053000 0.053000 1.200000 0.031000 0.037000
1560043786982470730	200 54 0.900000 0.015000 0.013000 1500 47 1.000000 1.765000 1.937000 600 53 1.000000 0.053000 0.053000 1.200000 0.025000 0.030000
1560043787491037897	200 54 0.900000 0.015000 0.013000 1500 47 1.000000 1.764000 1.936000 600 53 1.000000 0.053000 0.053000 1.200000 0.025000 0.030000
1560043787999499689	200 54 0.900000 0.015000 0.013000 1500 47 1.000000 1.771000 1.944000 600 53 1.000000 0.053000 0.053000 1.200000 0.024000 0.028000
1560043788509258772	200 55 0.900000 0.015000 0.013000 1500 47 1.000000 1.795000 1.970000 600 54 1.000000 0.053000 0.053000 1.200000 0.026000 0.031000
1560043789017865355	200 55 0.900000 0.021000 0.019000 1500 47 1.000000 1.760000 1.932000 600 53 1.000000 0.053000 0.053000 1.200000 0.024000 0.028000
1560043789526312189	200 54 0.900000 0.015000 0.013000 1500 47 1.000000 1.762000 1.934000 600 53 1.000000 0.053000 0.053000 1.200000 0.024000 0.028000
1560043790034852272	200 54 0.900000 0.015000 0.013000 1500 47 1.000000 1.771000 1.944000 600 53 1.000000 0.053000 0.053000 1.200000 0.023000 0.027000
1560043790543674397	200 54 0.900000 0.016000 0.014000 1500 47 1.000000 1.888000 2.073000 600 53 1.000000 0.053000 0.053000 1.200000 0.024000 0.028000
1560043791052338564	200 55 0.900000 0.022000 0.020000 1500 47 1.100000 2.027000 2.229000 600 53 1.000000 0.053000 0.053000 1.200000 0.030000 0.036000
1560043791570165356	200 54 0.900000 0.015000 0.013000 1500 47 1.000000 1.777000 1.949000 600 53 1.000000 0.053000 0.053000 1.200000 0.023000 0.027000
1560043792080162772	200 54 0.900000 0.015000 0.013000 1500 47 1.000000 1.797000 1.973000 600 53 1.000000 0.053000 0.053000 1.200000 0.024000 0.028000
1560043792597812939	200 54 0.900000 0.015000 0.013000 1500 47 1.000000 1.876000 2.059000 600 53 1.000000 0.053000 0.053000 1.200000 0.024000 0.028000
1560043793106654814	200 55 0.900000 0.016000 0.014000 1500 47 1.000000 1.778000 1.952000 600 53 1.000000 0.053000 0.053000 1.200000 0.027000 0.032000
1560043793615263189	200 54 0.900000 0.015000 0.013000 1500 47 1.100000 2.025000 2.227000 600 53 1.000000 0.053000 0.053000 1.200000 0.025000 0.030000
1560043794123428314	200 54 0.900000 0.014000 0.012000 1500 47 1.000000 1.801000 1.975000 600 53 1.000000 0.053000 0.053000 1.200000 0.024000 0.028000
1560043794632234398	200 55 0.900000 0.015000 0.013000 1500 47 1.000000 1.810000 1.987000 600 53 1.000000 0.053000 0.053000 1.200000 0.029000 0.035000
1560043795141504106	200 55 0.900000 0.015000 0.013000 1500 47 1.000000 1.785000 1.959000 600 54 1.000000 0.053000 0.053000 1.200000 0.023000 0.027000
1560043795649842481	200 54 0.900000 0.021000 0.019000 1500 47 1.100000 2.111000 2.322000 600 53 1.000000 0.053000 0.053000 1.200000 0.024000 0.028000
1560043796158206023	200 54 0.900000 0.015000 0.013000 1500 47 1.000000 1.769000 1.942000 600 53 1.000000 0.053000 0.053000 1.200000 0.024000 0.028000
1560043796667081231	200 54 0.900000 0.016000 0.014000 1500 47 1.000000 1.904000 2.090000 600 53 1.000000 0.053000 0.053000 1.200000 0.029000 0.035000
1560043797175587440	200 54 0.900000 0.015000 0.013000 1500 47 1.000000 1.780000 1.954000 600 53 1.000000 0.053000 0.053000 1.200000 0.024000 0.028000
1560043797683898773	200 55 0.900000 0.017000 0.015000 1500 47 1.100000 2.113000 2.324000 600 53 1.000000 0.053000 0.053000 1.200000 0.031000 0.037000
1560043798192537815	200 54 0.900000 0.015000 0.013000 1500 47 1.000000 1.791000 1.966000 600 53 1.000000 0.053000 0.053000 1.200000 0.024000 0.028000
1560043798701136565	200 54 0.900000 0.015000 0.013000 1500 47 1.000000 1.877000 2.060000 600 53 1.000000 0.053000 0.053000 1.200000 0.030000 0.036000
1560043799209751982	200 54 0.900000 0.014000 0.012000 1500 47 1.000000 1.760000 1.932000 600 53 1.000000 0.053000 0.053000 1.200000 0.025000 0.030000
1560043799718463857	200 55 0.900000 0.018000 0.016000 1500 47 1.100000 2.054000 2.259000 600 53 1.000000 0.053000 0.053000 1.200000 0.029000 0.035000
1560043800227247398	200 54 0.900000 0.015000 0.013000 1500 47 1.000000 1.825000 2.003000 600 53 1.000000 0.053000 0.053000 1.200000 0.027000 0.032000
1560043800735844982	200 54 0.900000 0.015000 0.013000 1500 47 1.000000 1.795000 1.970000 600 53 1.000000 0.053000 0.053000 1.200000 0.025000 0.030000
1560043801244232773	200 54 0.900000 0.015000 0.013000 1500 47 1.000000 1.781000 1.955000 600 53 1.000000 0.053000 0.053000 1.200000 0.024000 0.028000
1560043801753372649	200 55 0.900000 0.015000 0.013000 1500 47 1.000000 1.783000 1.957000 600 54 1.000000 0.053000 0.053000 1.200000 0.025000 0.030000
1560043802261866607	200 54 0.900000 0.021000 0.019000 1500 47 1.100000 1.950000 2.145000 600 53 1.000000 0.053000 0.053000 1.200000 0.036000 0.043000
1560043802770654315	200 54 0.900000 0.016000 0.014000 1500 47 1.000000 1.854000 2.035000 600 53 1.000000 0.053000 0.053000 1.200000 0.025000 0.030000
1560043803279363065	200 55 0.900000 0.015000 0.013000 1500 47 1.000000 1.787000 1.962000 600 53 1.000000 0.053000 0.053000 1.200000 0.026000 0.031000
1560043803789241565	200 54 0.900000 0.015000 0.013000 1500 47 1.000000 1.787000 1.962000 600 53 1.000000 0.053000 0.053000 1.200000 0.024000 0.028000
1560043804297920441	200 55 0.900000 0.022000 0.020000 1500 47 1.100000 2.070000 2.277000 600 53 1.000000 0.053000 0.053000 1.200000 0.039000 0.047000
1560043804806762482	200 55 0.900000 0.015000 0.013000 1500 47 1.000000 1.904000 2.090000 600 53 1.000000 0.053000 0.053000 1.200000 0.030000 0.036000
1560043805315163316	200 55 0.900000 0.015000 0.013000 1500 47 1.000000 1.772000 1.945000 600 53 1.000000 0.053000 0.053000 1.200000 0.024000 0.028000
1560043805823668899	200 54 0.900000 0.015000 0.013000 1500 47 1.000000 1.774000 1.947000 600 53 1.000000 0.053000 0.053000 1.200000 0.024000 0.028000
1560043806332100482	200 55 0.900000 0.015000 0.013000 1500 47 1.000000 1.947000 2.137000 600 53 1.000000 0.053000 0.053000 1.200000 0.030000 0.036000
1560043806840850066	200 55 0.900000 0.016000 0.014000 1500 47 1.000000 1.873000 2.056000 600 53 1.000000 0.053000 0.053000 1.200000 0.029000 0.035000
1560043807349418274	200 54 0.900000 0.015000 0.013000 1500 47 1.000000 1.788000 1.963000 600 53 1.000000 0.053000 0.053000 1.200000 0.025000 0.030000
1560043807857978233	200 54 0.900000 0.014000 0.012000 1500 47 1.000000 1.788000 1.963000 600 53 1.000000 0.053000 0.053000 1.200000 0.024000 0.028000
1560043808369498191	200 55 0.900000 0.015000 0.013000 1500 47 1.000000 1.774000 1.947000 600 54 1.000000 0.053000 0.053000 1.200000 0.024000 0.028000
1560043808878472691	200 55 0.900000 0.019000 0.017000 1500 47 1.100000 2.045000 2.249000 600 53 1.000000 0.053000 0.053000 1.200000 0.033000 0.039000
1560043809387104524	200 54 0.900000 0.015000 0.013000 1500 47 1.000000 1.793000 1.968000 600 53 1.000000 0.053000 0.053000 1.200000 0.025000 0.030000
1560043809895621400	200 55 0.900000 0.015000 0.013000 1500 47 1.000000 1.768000 1.941000 600 53 1.000000 0.053000 0.053000 1.200000 0.024000 0.028000
1560043810404181650	200 54 0.900000 0.015000 0.013000 1500 47 1.000000 1.793000 1.968000 600 53 1.000000 0.053000 0.053000 1.200000 0.025000 0.030000
1560043810912861441	200 55 0.900000 0.020000 0.018000 1500 47 1.100000 2.222000 2.446000 600 53 1.000000 0.053000 0.053000 1.200000 0.035000 0.042000
1560043811421712400	200 55 0.900000 0.014000 0.012000 1500 47 1.000000 1.761000 1.933000 600 53 1.000000 0.053000 0.053000 1.200000 0.024000 0.028000
1560043811930202025	200 54 0.900000 0.015000 0.013000 1500 47 1.000000 1.767000 1.940000 600 53 1.000000 0.053000 0.053000 1.200000 0.025000 0.030000
1560043812438840275	200 55 0.900000 0.015000 0.013000 1500 47 1.000000 1.770000 1.943000 600 53 1.000000 0.053000 0.053000 1.200000 0.024000 0.028000
1560043812947232983	200 55 0.900000 0.016000 0.014000 1500 47 1.100000 2.082000 2.292000 600 54 1.000000 0.053000 0.053000 1.200000 0.033000 0.039000
1560043813455878317	200 55 0.900000 0.015000 0.013000 1500 47 1.000000 1.767000 1.940000 600 53 1.000000 0.053000 0.053000 1.200000 0.024000 0.028000
1560043813964293775	200 55 0.900000 0.015000 0.013000 1500 47 1.000000 1.766000 1.939000 600 53 1.000000 0.053000 0.053000 1.200000 0.023000 0.027000
1560043814472783275	200 55 0.900000 0.015000 0.013000 1500 47 1.000000 1.793000 1.968000 600 53 1.000000 0.053000 0.053000 1.200000 0.025000 0.030000
1560043814984773483	200 55 0.900000 0.015000 0.013000 1500 47 1.000000 1.781000 1.955000 600 54 1.000000 0.053000 0.053000 1.200000 0.024000 0.028000
1560043815493564817	200 55 0.900000 0.023000 0.020000 1500 47 1.100000 1.946000 2.140000 600 53 1.000000 0.053000 0.053000 1.200000 0.037000 0.044000
1560043816002268817	200 55 0.900000 0.015000 0.013000 1500 47 1.000000 1.792000 1.967000 600 53 1.000000 0.053000 0.053000 1.200000 0.025000 0.030000
1560043816510715734	200 55 0.900000 0.015000 0.013000 1500 47 1.000000 1.784000 1.958000 600 53 1.000000 0.053000 0.053000 1.200000 0.025000 0.030000
1560043817019437234	200 55 0.900000 0.015000 0.013000 1500 47 1.000000 1.764000 1.936000 600 53 1.000000 0.053000 0.053000 1.200000 0.024000 0.028000
1560043817528242192	200 55 0.900000 0.023000 0.020000 1500 47 1.100000 2.070000 2.277000 600 53 1.000000 0.053000 0.053000 1.200000 0.039000 0.047000
1560043818036806484	200 55 0.900000 0.015000 0.013000 1500 47 1.000000 1.768000 1.941000 600 53 1.000000 0.053000 0.053000 1.200000 0.025000 0.030000
1560043818545562026	200 54 0.900000 0.014000 0.012000 1500 47 1.000000 1.767000 1.940000 600 53 1.000000 0.053000 0.053000 1.200000 0.023000 0.027000
1560043819054062109	200 55 0.900000 0.015000 0.013000 1500 47 1.000000 1.767000 1.940000 600 53 1.000000 0.053000 0.053000 1.200000 0.024000 0.028000
1560043819564404276	200 55 0.900000 0.015000 0.013000 1500 47 1.100000 1.980000 2.178000 600 53 1.000000 0.053000 0.053000 1.200000 0.032000 0.038000
1560043820072681901	200 55 0.900000 0.015000 0.013000 1500 47 1.000000 1.770000 1.943000 600 53 1.000000 0.053000 0.053000 1.200000 0.024000 0.028000
1560043820581999734	200 55 0.900000 0.015000 0.013000 1500 47 1.000000 1.767000 1.940000 600 53 1.000000 0.053000 0.053000 1.200000 0.023000 0.027000
1560043821090688151	200 55 0.900000 0.015000 0.013000 1500 47 1.000000 1.831000 2.010000 600 54 1.000000 0.053000 0.053000 1.200000 0.023000 0.027000
1560043821601944651	200 55 0.900000 0.015000 0.013000 1500 47 1.000000 1.840000 2.020000 600 54 1.000000 0.053000 0.053000 1.200000 0.029000 0.035000
1560043822110827193	200 55 0.900000 0.023000 0.020000 1500 47 1.100000 2.013000 2.214000 600 53 1.000000 0.053000 0.053000 1.200000 0.041000 0.049000
1560043822619498484	200 55 0.900000 0.015000 0.013000 1500 47 1.000000 1.764000 1.936000 600 53 1.000000 0.053000 0.053000 1.200000 0.025000 0.030000
1560043823135419026	200 55 0.900000 0.015000 0.013000 1500 47 1.000000 1.762000 1.934000 600 53 1.000000 0.053000 0.053000 1.200000 0.024000 0.028000
1560043823646029818	200 55 0.900000 0.015000 0.013000 1500 47 1.000000 1.767000 1.940000 600 53 1.000000 0.053000 0.053000 1.200000 0.026000 0.031000
1560043824154910735	200 55 0.900000 0.022000 0.020000 1500 47 1.100000 2.040000 2.244000 600 53 1.000000 0.053000 0.053000 1.200000 0.035000 0.042000
1560043824663371610	200 55 0.900000 0.015000 0.013000 1500 47 1.000000 1.771000 1.944000 600 53 1.000000 0.053000 0.053000 1.200000 0.024000 0.028000
1560043825171795651	200 55 0.900000 0.015000 0.013000 1500 47 1.000000 1.763000 1.935000 600 54 1.000000 0.053000 0.053000 1.200000 0.024000 0.028000
1560043825680374651	200 55 0.900000 0.015000 0.013000 1500 47 1.000000 1.768000 1.941000 600 53 1.000000 0.053000 0.053000 1.200000 0.024000 0.028000
1560043826189993568	200 55 0.900000 0.015000 0.013000 1500 47 1.000000 1.906000 2.092000 600 54 1.000000 0.053000 0.053000 1.200000 0.026000 0.031000
1560043826698724402	200 55 0.900000 0.018000 0.016000 1500 47 1.100000 1.968000 2.164000 600 53 1.000000 0.053000 0.053000 1.200000 0.024000 0.028000
1560043827214674985	200 55 0.900000 0.015000 0.013000 1500 47 1.000000 1.779000 1.953000 600 53 1.000000 0.053000 0.053000 1.200000 0.024000 0.028000
1560043827725239027	200 55 0.900000 0.015000 0.013000 1500 47 1.000000 1.899000 2.085000 600 53 1.000000 0.053000 0.053000 1.200000 0.024000 0.028000
1560043828237011527	200 54 0.900000 0.015000 0.013000 1500 47 1.000000 1.771000 1.944000 600 53 1.000000 0.053000 0.053000 1.200000 0.023000 0.027000
1560043828745833610	200 55 0.900000 0.020000 0.018000 1500 47 1.100000 2.095000 2.304000 600 53 1.000000 0.053000 0.053000 1.200000 0.026000 0.031000
1560043829263757318	200 55 0.900000 0.015000 0.013000 1500 47 1.000000 1.773000 1.946000 600 53 1.000000 0.053000 0.053000 1.200000 0.024000 0.028000
1560043829772555402	200 55 0.900000 0.022000 0.020000 1500 47 1.000000 1.784000 1.958000 600 53 1.000000 0.053000 0.053000 1.200000 0.032000 0.038000
1560043830281319985	200 55 0.900000 0.015000 0.013000 1500 47 1.000000 1.781000 1.955000 600 53 1.000000 0.053000 0.053000 1.200000 0.025000 0.030000
1560043830789770985	200 55 0.900000 0.018000 0.016000 1500 47 1.000000 1.778000 1.952000 600 53 1.000000 0.053000 0.053000 1.200000 0.031000 0.037000
1560043831298205819	200 54 0.900000 0.015000 0.013000 1500 47 1.000000 1.919000 2.107000 600 53 1.000000 0.053000 0.053000 1.200000 0.024000 0.028000
1560043831806904485	200 55 0.900000 0.015000 0.013000 1500 47 1.000000 1.884000 2.068000 600 53 1.000000 0.053000 0.053000 1.200000 0.029000 0.035000
1560043832315457277	200 55 0.900000 0.015000 0.013000 1500 47 1.000000 1.784000 1.958000 600 53 1.000000 0.053000 0.053000 1.200000 0.024000 0.028000
1560043832823750319	200 55 0.900000 0.015000 0.013000 1500 47 1.000000 1.796000 1.972000 600 54 1.000000 0.052000 0.052000 1.200000 0.024000 0.028000
1560043833332668361	200 55 0.900000 0.022000 0.020000 1500 47 1.100000 2.032000 2.235000 600 53 1.000000 0.053000 0.053000 1.200000 0.024000 0.028000
1560043833841600402	200 55 0.900000 0.015000 0.013000 1500 47 1.100000 1.915000 2.106000 600 53 1.000000 0.053000 0.053000 1.200000 0.025000 0.030000
1560043834350163861	200 54 0.900000 0.015000 0.013000 1500 47 1.000000 1.786000 1.961000 600 53 1.000000 0.053000 0.053000 1.200000 0.024000 0.028000
1560043834858774319	200 55 0.900000 0.015000 0.013000 1500 47 1.000000 1.785000 1.959000 600 53 1.000000 0.053000 0.053000 1.200000 0.024000 0.028000
1560043835367527153	200 55 0.900000 0.023000 0.020000 1500 47 1.100000 2.066000 2.272000 600 53 1.000000 0.053000 0.053000 1.200000 0.033000 0.039000
1560043835876193569	200 55 0.900000 0.015000 0.013000 1500 47 1.100000 1.885000 2.073000 600 53 1.000000 0.053000 0.053000 1.200000 0.030000 0.036000
1560043836393863528	200 55 0.900000 0.014000 0.012000 1500 47 1.000000 1.764000 1.936000 600 53 1.000000 0.053000 0.053000 1.200000 0.025000 0.030000
1560043836902699444	200 55 0.900000 0.015000 0.013000 1500 47 1.000000 1.765000 1.937000 600 53 1.000000 0.053000 0.053000 1.200000 0.024000 0.028000
1560043837411282694	200 55 0.900000 0.015000 0.013000 1500 47 1.000000 1.792000 1.967000 600 54 1.000000 0.053000 0.053000 1.200000 0.025000 0.030000
1560043837920289778	200 55 0.900000 0.024000 0.021000 1500 47 1.100000 1.999000 2.198000 600 53 1.000000 0.053000 0.053000 1.200000 0.037000 0.044000
1560043838438379778	200 55 0.900000 0.015000 0.013000 1500 47 1.000000 1.784000 1.958000 600 53 1.000000 0.053000 0.053000 1.200000 0.025000 0.030000
1560043838946873236	200 55 0.900000 0.015000 0.013000 1500 47 1.000000 1.775000 1.948000 600 53 1.000000 0.053000 0.053000 1.200000 0.025000 0.030000
1560043839468171945	200 55 0.900000 0.015000 0.013000 1500 47 1.000000 1.799000 1.975000 600 54 1.000000 0.053000 0.053000 1.200000 0.025000 0.030000
1560043839979012611	200 55 0.900000 0.027000 0.024000 1500 47 1.100000 2.125000 2.337000 600 53 1.000000 0.053000 0.053000 1.200000 0.038000 0.045000
1560043840487758403	200 55 0.900000 0.015000 0.013000 1500 47 1.000000 1.797000 1.973000 600 53 1.000000 0.053000 0.053000 1.200000 0.026000 0.031000
1560043840996113237	200 54 0.900000 0.015000 0.013000 1500 47 1.000000 1.788000 1.963000 600 53 1.000000 0.053000 0.053000 1.200000 0.025000 0.030000
1560043841513875695	200 55 0.900000 0.015000 0.013000 1500 47 1.000000 1.782000 1.956000 600 53 1.000000 0.053000 0.053000 1.200000 0.024000 0.028000
1560043842024045945	200 55 0.900000 0.023000 0.020000 1500 47 1.100000 1.959000 2.154000 600 53 1.000000 0.053000 0.053000 1.200000 0.029000 0.035000
1560043842532564612	200 55 0.900000 0.015000 0.013000 1500 47 1.000000 1.773000 1.946000 600 53 1.000000 0.053000 0.053000 1.200000 0.025000 0.030000
1560043843050386528	200 55 0.900000 0.014000 0.012000 1500 47 1.000000 1.761000 1.933000 600 53 1.000000 0.053000 0.053000 1.200000 0.025000 0.030000
1560043843559285612	200 55 0.900000 0.015000 0.013000 1500 47 1.000000 1.766000 1.939000 600 53 1.000000 0.053000 0.053000 1.200000 0.025000 0.030000
1560043844067791404	200 55 0.900000 0.015000 0.013000 1500 47 1.000000 1.883000 2.067000 600 54 1.000000 0.053000 0.053000 1.200000 0.025000 0.030000
1560043844576441737	200 55 0.900000 0.020000 0.018000 1500 47 1.000000 1.768000 1.941000 600 53 1.000000 0.053000 0.053000 1.200000 0.028000 0.033000
1560043845093142070	200 55 0.900000 0.015000 0.013000 1500 47 1.000000 1.807000 1.984000 600 53 1.000000 0.053000 0.053000 1.200000 0.025000 0.030000
1560043845603847654	200 55 0.900000 0.015000 0.013000 1500 47 1.000000 1.770000 1.943000 600 53 1.000000 0.053000 0.053000 1.200000 0.025000 0.030000
1560043846112376945	200 55 0.900000 0.015000 0.013000 1500 47 1.000000 1.791000 1.966000 600 53 1.000000 0.053000 0.053000 1.200000 0.024000 0.028000
1560043846629887196	200 55 0.900000 0.018000 0.016000 1500 47 1.100000 1.964000 2.160000 600 53 1.000000 0.053000 0.053000 1.200000 0.029000 0.035000
1560043847140121279	200 55 0.900000 0.015000 0.013000 1500 47 1.000000 1.781000 1.955000 600 53 1.000000 0.053000 0.053000 1.200000 0.026000 0.031000
1560043847648707946	200 55 0.900000 0.015000 0.013000 1500 47 1.000000 1.778000 1.952000 600 53 1.000000 0.053000 0.053000 1.200000 0.024000 0.028000
1560043848157353612	200 55 0.900000 0.015000 0.013000 1500 47 1.000000 1.794000 1.969000 600 53 1.000000 0.053000 0.053000 1.200000 0.025000 0.030000
1560043848665826821	200 55 0.900000 0.016000 0.014000 1500 47 1.000000 1.796000 1.972000 600 54 1.000000 0.053000 0.053000 1.200000 0.024000 0.028000
1560043849174473279	200 55 0.900000 0.015000 0.013000 1500 47 1.000000 1.772000 1.945000 600 53 1.000000 0.053000 0.053000 1.200000 0.027000 0.032000
1560043849683149779	200 55 0.900000 0.015000 0.013000 1500 47 1.000000 1.771000 1.944000 600 53 1.000000 0.053000 0.053000 1.200000 0.025000 0.030000
1560043850191844863	200 55 0.900000 0.015000 0.013000 1500 47 1.000000 1.834000 2.013000 600 53 1.000000 0.053000 0.053000 1.200000 0.024000 0.028000
1560043850704802529	200 54 0.900000 0.015000 0.013000 1500 47 1.000000 1.767000 1.940000 600 54 1.000000 0.053000 0.053000 1.200000 0.024000 0.028000
1560043851213763238	200 55 0.900000 0.024000 0.021000 1500 47 1.000000 1.864000 2.046000 600 53 1.000000 0.053000 0.053000 1.200000 0.033000 0.039000
1560043851722447071	200 55 0.900000 0.015000 0.013000 1500 47 1.000000 1.767000 1.940000 600 53 1.000000 0.053000 0.053000 1.200000 0.024000 0.028000
1560043852231139113	200 55 0.900000 0.015000 0.013000 1500 47 1.000000 1.875000 2.058000 600 53 1.000000 0.053000 0.053000 1.200000 0.028000 0.033000
1560043852740939155	200 55 0.900000 0.015000 0.013000 1500 47 1.000000 1.788000 1.963000 600 53 1.000000 0.053000 0.053000 1.200000 0.026000 0.031000
1560043853249313446	200 55 0.900000 0.015000 0.013000 1500 47 1.100000 1.850000 2.035000 600 53 1.000000 0.053000 0.053000 1.200000 0.025000 0.030000
1560043853758176196	200 55 0.900000 0.015000 0.013000 1500 47 1.000000 1.800000 1.976000 600 53 1.000000 0.053000 0.053000 1.200000 0.025000 0.030000
1560043854266819780	200 55 0.900000 0.015000 0.013000 1500 47 1.000000 1.784000 1.958000 600 53 1.000000 0.053000 0.053000 1.200000 0.025000 0.030000
1560043854775477405	200 55 0.900000 0.015000 0.013000 1500 47 1.000000 1.778000 1.952000 600 53 1.000000 0.053000 0.053000 1.200000 0.024000 0.028000
1560043855297632655	200 55 0.900000 0.015000 0.013000 1500 47 1.000000 1.771000 1.944000 600 54 1.000000 0.053000 0.053000 1.200000 0.025000 0.030000
1560043855818583655	200 55 0.900000 0.015000 0.013000 1500 47 1.000000 1.799000 1.975000 600 53 1.000000 0.053000 0.053000 1.200000 0.031000 0.037000
1560043856327325155	200 55 0.900000 0.015000 0.013000 1500 47 1.000000 1.771000 1.944000 600 53 1.000000 0.053000 0.053000 1.200000 0.025000 0.030000
1560043856835921655	200 54 0.900000 0.015000 0.013000 1500 47 1.000000 1.767000 1.940000 600 53 1.000000 0.053000 0.053000 1.200000 0.025000 0.030000
1560043857348465738	200 54 0.900000 0.015000 0.013000 1500 47 1.000000 1.773000 1.946000 600 53 1.000000 0.053000 0.053000 1.200000 0.024000 0.028000
1560043857857068697	200 55 0.900000 0.022000 0.020000 1500 47 1.000000 1.949000 2.140000 600 53 1.000000 0.053000 0.053000 1.200000 0.038000 0.045000
1560043858365601739	200 55 0.900000 0.015000 0.013000 1500 47 1.000000 1.882000 2.066000 600 53 1.000000 0.053000 0.053000 1.200000 0.024000 0.028000
1560043858874154989	200 55 0.900000 0.015000 0.013000 1500 47 1.000000 1.762000 1.934000 600 53 1.000000 0.053000 0.053000 1.200000 0.024000 0.028000
1560043859382571364	200 55 0.900000 0.015000 0.013000 1500 47 1.000000 1.769000 1.942000 600 53 1.000000 0.053000 0.053000 1.200000 0.024000 0.028000
1560043859892707447	200 55 0.900000 0.020000 0.018000 1500 47 1.100000 2.086000 2.294000 600 53 1.000000 0.053000 0.053000 1.200000 0.035000 0.042000
1560043860401322864	200 55 0.900000 0.018000 0.016000 1500 47 1.000000 1.843000 2.023000 600 53 1.000000 0.053000 0.053000 1.200000 0.028000 0.033000
1560043860909957697	200 55 0.900000 0.017000 0.015000 1500 47 1.000000 1.783000 1.957000 600 53 1.000000 0.053000 0.053000 1.200000 0.030000 0.036000
1560043861418253739	200 55 0.900000 0.015000 0.013000 1500 47 1.000000 1.786000 1.961000 600 53 1.000000 0.053000 0.053000 1.200000 0.024000 0.028000
1560043861930128156	200 55 0.900000 0.015000 0.013000 1500 47 1.000000 1.771000 1.944000 600 54 1.000000 0.053000 0.053000 1.200000 0.025000 0.030000
1560043862438655281	200 55 0.900000 0.019000 0.017000 1500 47 1.100000 1.901000 2.091000 600 53 1.000000 0.053000 0.053000 1.200000 0.035000 0.042000
1560043862947369156	200 55 0.900000 0.021000 0.019000 1500 47 1.000000 1.816000 1.993000 600 53 1.000000 0.053000 0.053000 1.200000 0.030000 0.036000
1560043863455940489	200 55 0.900000 0.015000 0.013000 1500 47 1.000000 1.792000 1.967000 600 53 1.000000 0.053000 0.053000 1.200000 0.024000 0.028000
1560043863964461739	200 55 0.900000 0.015000 0.013000 1500 47 1.000000 1.767000 1.940000 600 53 1.000000 0.053000 0.053000 1.200000 0.024000 0.028000
1560043864472918239	200 55 0.900000 0.018000 0.016000 1500 47 1.000000 1.834000 2.013000 600 53 1.000000 0.053000 0.053000 1.200000 0.038000 0.045000
1560043864981873656	200 55 0.900000 0.015000 0.013000 1500 47 1.000000 1.908000 2.094000 600 53 1.000000 0.053000 0.053000 1.200000 0.025000 0.030000
1560043865490431781	200 55 0.900000 0.015000 0.013000 1500 47 1.000000 1.776000 1.950000 600 53 1.000000 0.053000 0.053000 1.200000 0.024000 0.028000
1560043865999089073	200 55 0.900000 0.015000 0.013000 1500 47 1.000000 1.808000 1.985000 600 53 1.000000 0.053000 0.053000 1.200000 0.024000 0.028000
1560043866507333156	200 55 0.900000 0.017000 0.015000 1500 47 1.000000 1.780000 1.954000 600 54 1.000000 0.053000 0.053000 1.200000 0.032000 0.038000
1560043867026104906	200 55 0.900000 0.015000 0.013000 1500 47 1.000000 1.956000 2.147000 600 53 1.000000 0.053000 0.053000 1.200000 0.024000 0.028000
1560043867536526531	200 55 0.900000 0.015000 0.013000 1500 47 1.000000 1.779000 1.953000 600 53 1.000000 0.053000 0.053000 1.200000 0.024000 0.028000
1560043868053851323	200 55 0.900000 0.015000 0.013000 1500 47 1.000000 1.767000 1.940000 600 53 1.000000 0.053000 0.053000 1.200000 0.024000 0.028000
1560043868562616448	200 55 0.900000 0.015000 0.013000 1500 47 1.000000 1.767000 1.940000 600 53 1.000000 0.053000 0.053000 1.200000 0.025000 0.030000
1560043869071502365	200 55 0.900000 0.026000 0.023000 1500 47 1.000000 1.889000 2.074000 600 53 1.000000 0.053000 0.053000 1.200000 0.045000 0.054000
1560043869580009490	200 55 0.900000 0.015000 0.013000 1500 47 1.000000 1.781000 1.955000 600 53 1.000000 0.053000 0.053000 1.200000 0.025000 0.030000
1560043870088551865	200 55 0.900000 0.015000 0.013000 1500 47 1.000000 1.787000 1.962000 600 53 1.000000 0.053000 0.053000 1.200000 0.024000 0.028000
1560043870606665365	200 55 0.900000 0.015000 0.013000 1500 47 1.000000 1.786000 1.961000 600 53 1.000000 0.053000 0.053000 1.200000 0.024000 0.028000
1560043871115201240	200 55 0.900000 0.016000 0.014000 1500 47 1.000000 1.900000 2.086000 600 54 1.000000 0.053000 0.053000 1.200000 0.037000 0.044000
1560043871624102740	200 55 0.900000 0.016000 0.014000 1500 47 1.000000 1.853000 2.034000 600 53 1.000000 0.053000 0.053000 1.200000 0.024000 0.028000
1560043872132406115	200 55 0.900000 0.015000 0.013000 1500 47 1.000000 1.790000 1.965000 600 53 1.000000 0.053000 0.053000 1.200000 0.024000 0.028000
1560043872640962657	200 55 0.900000 0.015000 0.013000 1500 47 1.000000 1.794000 1.969000 600 53 1.000000 0.053000 0.053000 1.200000 0.024000 0.028000
1560043873155005324	200 55 0.900000 0.015000 0.013000 1500 47 1.000000 1.883000 2.067000 600 54 1.000000 0.053000 0.053000 1.200000 0.024000 0.028000
1560043873663695824	200 55 0.900000 0.017000 0.015000 1500 47 1.100000 1.987000 2.185000 600 53 1.000000 0.053000 0.053000 1.200000 0.024000 0.028000
1560043874172286990	200 55 0.900000 0.015000 0.013000 1500 47 1.000000 1.791000 1.966000 600 53 1.000000 0.053000 0.053000 1.200000 0.025000 0.030000
1560043874680852907	200 55 0.900000 0.014000 0.012000 1500 47 1.000000 1.767000 1.940000 600 53 1.000000 0.053000 0.053000 1.200000 0.024000 0.028000
1560043875189567532	200 55 0.900000 0.015000 0.013000 1500 47 1.000000 1.880000 2.064000 600 53 1.000000 0.053000 0.053000 1.200000 0.030000 0.036000
1560043875698275074	200 55 0.900000 0.020000 0.018000 1500 47 1.100000 2.088000 2.296000 600 53 1.000000 0.053000 0.053000 1.200000 0.035000 0.042000
1560043876207124074	200 55 0.900000 0.018000 0.016000 1500 47 1.000000 1.791000 1.966000 600 53 1.000000 0.053000 0.053000 1.200000 0.030000 0.036000
1560043876715506491	200 55 0.900000 0.015000 0.013000 1500 47 1.000000 1.794000 1.969000 600 53 1.000000 0.053000 0.053000 1.200000 0.025000 0.030000
1560043877224295866	200 55 0.900000 0.015000 0.013000 1500 47 1.000000 1.859000 2.041000 600 53 1.000000 0.053000 0.053000 1.200000 0.024000 0.028000
1560043877734317783	200 55 0.900000 0.015000 0.013000 1500 47 1.000000 1.780000 1.954000 600 54 1.000000 0.053000 0.053000 1.200000 0.024000 0.028000
1560043878243296283	200 55 0.900000 0.020000 0.018000 1500 47 1.000000 1.946000 2.136000 600 53 1.000000 0.053000 0.053000 1.200000 0.038000 0.045000
1560043878751944949	200 55 0.900000 0.015000 0.013000 1500 47 1.000000 1.786000 1.961000 600 53 1.000000 0.053000 0.053000 1.200000 0.024000 0.028000
1560043879260555949	200 55 0.900000 0.015000 0.013000 1500 47 1.000000 1.893000 2.078000 600 53 1.000000 0.053000 0.053000 1.200000 0.026000 0.031000
1560043879772098949	200 55 0.900000 0.015000 0.013000 1500 47 1.000000 1.801000 1.977000 600 53 1.000000 0.053000 0.053000 1.200000 0.025000 0.030000
1560043880290060325	200 55 0.900000 0.018000 0.016000 1500 47 1.100000 2.109000 2.319000 600 53 1.000000 0.053000 0.053000 1.200000 0.034000 0.041000
1560043880800519033	200 55 0.900000 0.015000 0.013000 1500 47 1.000000 1.772000 1.945000 600 53 1.000000 0.053000 0.053000 1.200000 0.026000 0.031000
1560043881309184825	200 55 0.900000 0.015000 0.013000 1500 47 1.100000 1.877000 2.064000 600 53 1.000000 0.053000 0.053000 1.200000 0.030000 0.036000
1560043881817706950	200 55 0.900000 0.015000 0.013000 1500 47 1.000000 1.761000 1.933000 600 53 1.000000 0.053000 0.053000 1.200000 0.024000 0.028000
1560043882326079408	200 55 0.900000 0.017000 0.015000 1500 47 1.100000 2.096000 2.305000 600 53 1.000000 0.053000 0.053000 1.200000 0.031000 0.037000
1560043882834857867	200 55 0.900000 0.015000 0.013000 1500 47 1.000000 1.768000 1.941000 600 53 1.000000 0.053000 0.053000 1.200000 0.024000 0.028000
1560043883343797450	200 55 0.900000 0.015000 0.013000 1500 47 1.000000 1.794000 1.969000 600 53 1.000000 0.053000 0.053000 1.200000 0.024000 0.028000
1560043883852487283	200 55 0.900000 0.015000 0.013000 1500 47 1.000000 1.790000 1.965000 600 53 1.000000 0.053000 0.053000 1.200000 0.025000 0.030000
1560043884360734158	200 55 0.900000 0.015000 0.013000 1500 47 1.000000 1.768000 1.941000 600 54 1.000000 0.053000 0.053000 1.200000 0.024000 0.028000
1560043884868960492	200 55 0.900000 0.017000 0.015000 1500 47 1.000000 1.850000 2.031000 600 53 1.000000 0.053000 0.053000 1.200000 0.030000 0.036000
1560043885377519075	200 55 0.900000 0.015000 0.013000 1500 47 1.100000 1.889000 2.077000 600 53 1.000000 0.053000 0.053000 1.200000 0.025000 0.030000
1560043885886050659	200 55 0.900000 0.015000 0.013000 1500 47 1.000000 1.781000 1.955000 600 53 1.000000 0.053000 0.053000 1.200000 0.024000 0.028000
1560043886425923492	200 55 0.900000 0.015000 0.013000 1500 47 1.000000 1.789000 1.964000 600 54 1.000000 0.053000 0.053000 1.200000 0.025000 0.030000
1560043886938193409	200 55 0.900000 0.015000 0.013000 1500 47 1.100000 1.905000 2.095000 600 53 1.000000 0.053000 0.053000 1.200000 0.033000 0.039000
1560043887446838909	200 55 0.900000 0.015000 0.013000 1500 47 1.000000 1.886000 2.070000 600 53 1.000000 0.053000 0.053000 1.200000 0.029000 0.035000
1560043887955403117	200 55 0.900000 0.015000 0.013000 1500 47 1.000000 1.771000 1.944000 600 53 1.000000 0.053000 0.053000 1.200000 0.026000 0.031000
1560043888463952409	200 55 0.900000 0.015000 0.013000 1500 47 1.000000 1.770000 1.943000 600 53 1.000000 0.053000 0.053000 1.200000 0.024000 0.028000
1560043888972623284	200 55 0.900000 0.019000 0.017000 1500 47 1.100000 2.007000 2.207000 600 53 1.000000 0.053000 0.053000 1.200000 0.034000 0.041000
1560043889481286659	200 55 0.900000 0.015000 0.013000 1500 47 1.100000 1.884000 2.072000 600 53 1.000000 0.053000 0.053000 1.200000 0.029000 0.035000
1560043889989952242	200 55 0.900000 0.015000 0.013000 1500 47 1.000000 1.770000 1.943000 600 53 1.000000 0.053000 0.053000 1.200000 0.024000 0.028000
1560043890498729159	200 55 0.900000 0.015000 0.013000 1500 47 1.000000 1.766000 1.939000 600 53 1.000000 0.053000 0.053000 1.200000 0.024000 0.028000
1560043891007091159	200 55 0.900000 0.019000 0.017000 1500 47 1.100000 2.099000 2.308000 600 53 1.000000 0.053000 0.053000 1.200000 0.032000 0.038000
1560043891515670118	200 55 0.900000 0.015000 0.013000 1500 47 1.000000 1.867000 2.049000 600 53 1.000000 0.053000 0.053000 1.200000 0.024000 0.028000
1560043892024264868	200 55 0.900000 0.015000 0.013000 1500 47 1.000000 1.788000 1.963000 600 53 1.000000 0.053000 0.053000 1.200000 0.025000 0.030000
1560043892532696618	200 55 0.900000 0.015000 0.013000 1500 47 1.000000 1.777000 1.951000 600 53 1.000000 0.053000 0.053000 1.200000 0.024000 0.028000
1560043893040972909	200 55 0.900000 0.015000 0.013000 1500 47 1.000000 1.806000 1.982000 600 54 1.000000 0.053000 0.053000 1.200000 0.024000 0.028000
1560043893549788701	200 55 0.900000 0.015000 0.013000 1500 47 1.000000 1.896000 2.081000 600 53 1.000000 0.053000 0.053000 1.200000 0.028000 0.033000
1560043894058270993	200 55 0.900000 0.015000 0.013000 1500 47 1.000000 1.776000 1.950000 600 53 1.000000 0.053000 0.053000 1.200000 0.024000 0.028000
1560043894566849285	200 55 0.900000 0.015000 0.013000 1500 47 1.000000 1.774000 1.947000 600 53 1.000000 0.053000 0.053000 1.200000 0.025000 0.030000
1560043895075421410	200 55 0.900000 0.015000 0.013000 1500 47 1.000000 1.771000 1.944000 600 54 1.000000 0.053000 0.053000 1.200000 0.025000 0.030000
1560043895584000160	200 55 0.900000 0.020000 0.018000 1500 47 1.000000 1.893000 2.078000 600 53 1.000000 0.053000 0.053000 1.200000 0.034000 0.041000
1560043896092621993	200 55 0.900000 0.015000 0.013000 1500 47 1.000000 1.768000 1.941000 600 53 1.000000 0.053000 0.053000 1.200000 0.023000 0.027000
1560043896601004493	200 55 0.900000 0.015000 0.013000 1500 47 1.000000 1.772000 1.945000 600 53 1.000000 0.053000 0.053000 1.200000 0.024000 0.028000
1560043897109549577	200 55 0.900000 0.015000 0.013000 1500 47 1.000000 1.766000 1.939000 600 53 1.000000 0.053000 0.053000 1.200000 0.024000 0.028000
1560043897617996952	200 55 0.900000 0.021000 0.019000 1500 47 1.100000 1.961000 2.157000 600 53 1.000000 0.053000 0.053000 1.200000 0.037000 0.044000
1560043898126883785	200 55 0.900000 0.015000 0.013000 1500 47 1.000000 1.771000 1.944000 600 53 1.000000 0.053000 0.053000 1.200000 0.024000 0.028000
1560043898635430077	200 55 0.900000 0.015000 0.013000 1500 47 1.000000 1.796000 1.972000 600 53 1.000000 0.053000 0.053000 1.200000 0.024000 0.028000
1560043899143986993	200 55 0.900000 0.015000 0.013000 1500 47 1.000000 1.774000 1.947000 600 53 1.000000 0.053000 0.053000 1.200000 0.025000 0.030000
1560043899652391744	200 55 0.900000 0.017000 0.015000 1500 47 1.000000 1.797000 1.973000 600 54 1.000000 0.053000 0.053000 1.200000 0.024000 0.028000
1560043900169999285	200 55 0.900000 0.015000 0.013000 1500 47 1.100000 2.104000 2.314000 600 53 1.000000 0.053000 0.053000 1.200000 0.025000 0.030000
1560043900678840535	200 55 0.900000 0.015000 0.013000 1500 47 1.000000 1.793000 1.968000 600 53 1.000000 0.053000 0.053000 1.200000 0.025000 0.030000
1560043901187234244	200 55 0.900000 0.015000 0.013000 1500 47 1.000000 1.770000 1.943000 600 53 1.000000 0.053000 0.053000 1.200000 0.025000 0.030000
1560043901699634327	200 55 0.900000 0.015000 0.013000 1500 47 1.000000 1.797000 1.973000 600 55 1.000000 0.053000 0.053000 1.200000 0.024000 0.028000
1560043902208529119	200 55 0.900000 0.022000 0.020000 1500 47 1.100000 2.189000 2.410000 600 53 1.000000 0.053000 0.053000 1.200000 0.029000 0.035000
1560043902717189244	200 55 0.900000 0.015000 0.013000 1500 47 1.000000 1.776000 1.950000 600 53 1.000000 0.053000 0.053000 1.200000 0.024000 0.028000
1560043903225673327	200 55 0.900000 0.015000 0.013000 1500 47 1.000000 1.801000 1.977000 600 53 1.000000 0.053000 0.053000 1.200000 0.024000 0.028000
1560043903734194577	200 55 0.900000 0.015000 0.013000 1500 47 1.000000 1.785000 1.959000 600 53 1.000000 0.053000 0.053000 1.200000 0.023000 0.027000
1560043904243295369	200 55 0.900000 0.023000 0.020000 1500 47 1.100000 1.983000 2.181000 600 53 1.000000 0.053000 0.053000 1.200000 0.035000 0.042000
1560043904752029661	200 55 0.900000 0.015000 0.013000 1500 47 1.000000 1.808000 1.985000 600 53 1.000000 0.053000 0.053000 1.200000 0.024000 0.028000
1560043905260267036	200 55 0.900000 0.015000 0.013000 1500 47 1.000000 1.787000 1.962000 600 53 1.000000 0.053000 0.053000 1.200000 0.023000 0.027000
1560043905778704369	200 55 0.900000 0.015000 0.013000 1500 47 1.000000 1.785000 1.959000 600 53 1.000000 0.053000 0.053000 1.200000 0.025000 0.030000
1560043906287363203	200 55 0.900000 0.015000 0.013000 1500 47 1.100000 1.886000 2.074000 600 54 1.000000 0.053000 0.053000 1.200000 0.025000 0.030000
1560043906796039161	200 55 0.900000 0.015000 0.013000 1500 47 1.100000 2.045000 2.249000 600 53 1.000000 0.053000 0.053000 1.200000 0.026000 0.031000
1560043907304539619	200 55 0.900000 0.015000 0.013000 1500 47 1.000000 1.780000 1.954000 600 53 1.000000 0.053000 0.053000 1.200000 0.025000 0.030000
1560043907812981786	200 55 0.900000 0.015000 0.013000 1500 47 1.000000 1.780000 1.954000 600 53 1.000000 0.053000 0.053000 1.200000 0.024000 0.028000
1560043908341017703	200 55 0.900000 0.015000 0.013000 1500 47 1.100000 1.912000 2.103000 600 54 1.000000 0.053000 0.053000 1.200000 0.024000 0.028000
1560043908861970745	200 55 0.900000 0.022000 0.020000 1500 47 1.100000 2.112000 2.323000 600 53 1.000000 0.053000 0.053000 1.200000 0.029000 0.035000
1560043909372124953	200 55 0.900000 0.015000 0.013000 1500 47 1.000000 1.793000 1.968000 600 53 1.000000 0.053000 0.053000 1.200000 0.024000 0.028000
1560043909889539245	200 55 0.900000 0.015000 0.013000 1500 47 1.000000 1.793000 1.968000 600 53 1.000000 0.053000 0.053000 1.200000 0.024000 0.028000
1560043910398627786	200 55 0.900000 0.015000 0.013000 1500 47 1.000000 1.805000 1.981000 600 53 1.000000 0.053000 0.053000 1.200000 0.023000 0.027000
1560043910907146412	200 55 0.900000 0.020000 0.018000 1500 47 1.100000 2.019000 2.220000 600 53 1.000000 0.053000 0.053000 1.200000 0.031000 0.037000
1560043911415590453	200 55 0.900000 0.015000 0.013000 1500 47 1.000000 1.797000 1.973000 600 53 1.000000 0.053000 0.053000 1.200000 0.024000 0.028000
1560043911924015120	200 55 0.900000 0.015000 0.013000 1500 47 1.000000 1.785000 1.959000 600 53 1.000000 0.053000 0.053000 1.200000 0.027000 0.032000
1560043912432723412	200 55 0.900000 0.015000 0.013000 1500 47 1.000000 1.767000 1.940000 600 53 1.000000 0.053000 0.053000 1.200000 0.023000 0.027000
1560043912943090870	200 55 0.900000 0.015000 0.013000 1500 47 1.100000 1.878000 2.065000 600 53 1.000000 0.053000 0.053000 1.200000 0.025000 0.030000
1560043913451669287	200 55 0.900000 0.015000 0.013000 1500 47 1.000000 1.766000 1.939000 600 53 1.000000 0.053000 0.053000 1.200000 0.025000 0.030000
1560043913967757537	200 55 0.900000 0.014000 0.012000 1500 47 1.000000 1.767000 1.940000 600 53 1.000000 0.053000 0.053000 1.200000 0.025000 0.030000
1560043914478054037	200 55 0.900000 0.016000 0.014000 1500 47 1.000000 1.765000 1.937000 600 53 1.000000 0.053000 0.053000 1.200000 0.029000 0.035000
1560043914997000329	200 55 0.900000 0.015000 0.013000 1500 47 1.000000 1.793000 1.968000 600 54 1.000000 0.053000 0.053000 1.200000 0.024000 0.028000
1560043915505781120	200 55 0.900000 0.022000 0.020000 1500 47 1.100000 2.095000 2.304000 600 53 1.000000 0.053000 0.053000 1.200000 0.033000 0.039000
1560043916014196370	200 55 0.900000 0.015000 0.013000 1500 47 1.000000 1.804000 1.980000 600 53 1.000000 0.053000 0.053000 1.200000 0.025000 0.030000
1560043916523000746	200 55 0.900000 0.015000 0.013000 1500 47 1.000000 1.860000 2.042000 600 53 1.000000 0.053000 0.053000 1.200000 0.030000 0.036000
1560043917031658537	200 55 0.900000 0.015000 0.013000 1500 47 1.000000 1.787000 1.962000 600 53 1.000000 0.053000 0.053000 1.200000 0.025000 0.030000
1560043917540191537	200 55 0.900000 0.019000 0.017000 1500 47 1.100000 2.080000 2.288000 600 53 1.000000 0.053000 0.053000 1.200000 0.028000 0.033000
1560043918048610704	200 55 0.900000 0.014000 0.012000 1500 47 1.000000 1.770000 1.943000 600 54 1.000000 0.053000 0.053000 1.200000 0.024000 0.028000
1560043918557133746	200 55 0.900000 0.015000 0.013000 1500 47 1.000000 1.797000 1.973000 600 53 1.000000 0.053000 0.053000 1.200000 0.029000 0.035000
1560043919065737871	200 55 0.900000 0.015000 0.013000 1500 47 1.000000 1.770000 1.943000 600 53 1.000000 0.053000 0.053000 1.200000 0.025000 0.030000
1560043919574413996	200 55 0.900000 0.015000 0.013000 1500 47 1.100000 1.945000 2.139000 600 53 1.000000 0.053000 0.053000 1.200000 0.024000 0.028000
1560043920082864496	200 55 0.900000 0.015000 0.013000 1500 47 1.000000 1.762000 1.934000 600 53 1.000000 0.053000 0.053000 1.200000 0.025000 0.030000
1560043920591581621	200 55 0.900000 0.015000 0.013000 1500 47 1.000000 1.765000 1.937000 600 53 1.000000 0.053000 0.053000 1.200000 0.025000 0.030000
1560043921100242496	200 55 0.900000 0.015000 0.013000 1500 47 1.000000 1.770000 1.943000 600 53 1.000000 0.053000 0.053000 1.200000 0.024000 0.028000
1560043921609223079	200 55 0.900000 0.015000 0.013000 1500 47 1.000000 1.824000 2.002000 600 54 1.000000 0.053000 0.053000 1.200000 0.024000 0.028000
1560043922117503205	200 55 0.900000 0.022000 0.020000 1500 47 1.100000 2.040000 2.244000 600 54 1.000000 0.053000 0.053000 1.200000 0.037000 0.044000
1560043922626027663	200 55 0.900000 0.015000 0.013000 1500 47 1.000000 1.912000 2.099000 600 53 1.000000 0.053000 0.053000 1.200000 0.029000 0.035000
1560043923134942871	200 55 0.900000 0.015000 0.013000 1500 47 1.000000 1.781000 1.955000 600 53 1.000000 0.053000 0.053000 1.200000 0.025000 0.030000
1560043923643443830	200 55 0.900000 0.015000 0.013000 1500 47 1.000000 1.782000 1.956000 600 53 1.000000 0.053000 0.053000 1.200000 0.024000 0.028000
1560043924151954288	200 55 0.900000 0.023000 0.020000 1500 47 1.100000 2.086000 2.294000 600 54 1.000000 0.053000 0.053000 1.200000 0.031000 0.037000
1560043924660649413	200 55 0.900000 0.015000 0.013000 1500 47 1.000000 1.766000 1.939000 600 53 1.000000 0.053000 0.053000 1.200000 0.030000 0.036000
1560043925169452747	200 55 0.900000 0.015000 0.013000 1500 47 1.000000 1.767000 1.940000 600 53 1.000000 0.053000 0.053000 1.200000 0.024000 0.028000
1560043925678113247	200 55 0.900000 0.015000 0.013000 1500 47 1.000000 1.775000 1.948000 600 53 1.000000 0.053000 0.053000 1.200000 0.025000 0.030000
1560043926191320997	200 55 0.900000 0.015000 0.013000 1500 47 1.000000 1.922000 2.110000 600 55 1.000000 0.053000 0.053000 1.200000 0.025000 0.030000
1560043926700159788	200 55 0.900000 0.017000 0.015000 1500 47 1.000000 1.766000 1.939000 600 53 1.000000 0.053000 0.053000 1.200000 0.026000 0.031000
1560043927208909622	200 55 0.900000 0.015000 0.013000 1500 47 1.000000 1.773000 1.946000 600 53 1.000000 0.053000 0.053000 1.200000 0.024000 0.028000
1560043927717398580	200 55 0.900000 0.015000 0.013000 1500 47 1.000000 1.769000 1.942000 600 53 1.000000 0.053000 0.053000 1.200000 0.024000 0.028000
1560043928226098122	200 55 0.900000 0.015000 0.013000 1500 47 1.000000 1.768000 1.941000 600 54 1.000000 0.053000 0.053000 1.200000 0.023000 0.027000
1560043928735058955	200 55 0.900000 0.020000 0.018000 1500 47 1.000000 1.787000 1.962000 600 53 1.000000 0.053000 0.053000 1.200000 0.034000 0.041000
1560043929243775997	200 55 0.900000 0.015000 0.013000 1500 47 1.000000 1.772000 1.945000 600 53 1.000000 0.053000 0.053000 1.200000 0.025000 0.030000
1560043929752248497	200 55 0.900000 0.015000 0.013000 1500 47 1.000000 1.802000 1.978000 600 53 1.000000 0.053000 0.053000 1.200000 0.024000 0.028000
1560043930260629372	200 55 0.900000 0.015000 0.013000 1500 47 1.000000 1.781000 1.955000 600 53 1.000000 0.053000 0.053000 1.200000 0.025000 0.030000
1560043930768954622	200 55 0.900000 0.020000 0.018000 1500 47 1.100000 2.054000 2.259000 600 54 1.000000 0.053000 0.053000 1.200000 0.028000 0.033000
1560043931277443539	200 55 0.900000 0.015000 0.013000 1500 47 1.000000 1.770000 1.943000 600 53 1.000000 0.053000 0.053000 1.200000 0.024000 0.028000
1560043931785861372	200 55 0.900000 0.015000 0.013000 1500 47 1.000000 1.761000 1.933000 600 53 1.000000 0.053000 0.053000 1.200000 0.025000 0.030000
1560043932294488706	200 55 0.900000 0.015000 0.013000 1500 47 1.000000 1.770000 1.943000 600 53 1.000000 0.053000 0.053000 1.200000 0.025000 0.030000
1560043932802768164	200 55 0.900000 0.015000 0.013000 1500 47 1.100000 1.993000 2.192000 600 54 1.000000 0.053000 0.053000 1.200000 0.029000 0.035000
1560043933311299706	200 55 0.900000 0.015000 0.013000 1500 47 1.000000 1.772000 1.945000 600 53 1.000000 0.053000 0.053000 1.200000 0.025000 0.030000
1560043933819909498	200 55 0.900000 0.015000 0.013000 1500 47 1.000000 1.770000 1.943000 600 53 1.000000 0.053000 0.053000 1.200000 0.024000 0.028000
1560043934328269914	200 55 0.900000 0.015000 0.013000 1500 47 1.000000 1.767000 1.940000 600 53 1.000000 0.053000 0.053000 1.200000 0.024000 0.028000
1560043934839024123	200 55 0.900000 0.021000 0.019000 1500 47 1.000000 1.869000 2.052000 600 54 1.000000 0.053000 0.053000 1.200000 0.032000 0.038000
1560043935347598081	200 55 0.900000 0.015000 0.013000 1500 47 1.100000 2.101000 2.311000 600 53 1.000000 0.053000 0.053000 1.200000 0.025000 0.030000
1560043935855971081	200 55 0.900000 0.015000 0.013000 1500 47 1.000000 1.777000 1.951000 600 53 1.000000 0.053000 0.053000 1.200000 0.024000 0.028000
1560043936364532831	200 55 0.900000 0.015000 0.013000 1500 47 1.000000 1.770000 1.943000 600 53 1.000000 0.053000 0.053000 1.200000 0.025000 0.030000
1560043936873010040	200 55 0.900000 0.015000 0.013000 1500 47 1.000000 1.777000 1.951000 600 53 1.000000 0.053000 0.053000 1.200000 0.024000 0.028000
1560043937381511956	200 55 0.900000 0.021000 0.019000 1500 47 1.100000 1.893000 2.082000 600 53 1.000000 0.053000 0.053000 1.200000 0.032000 0.038000
1560043937890191790	200 55 0.900000 0.015000 0.013000 1500 47 1.000000 1.832000 2.011000 600 53 1.000000 0.053000 0.053000 1.200000 0.024000 0.028000
1560043938398770915	200 55 0.900000 0.015000 0.013000 1500 47 1.000000 1.773000 1.946000 600 53 1.000000 0.053000 0.053000 1.200000 0.024000 0.028000
1560043938907302290	200 55 0.900000 0.015000 0.013000 1500 47 1.000000 1.794000 1.969000 600 53 1.000000 0.053000 0.053000 1.200000 0.024000 0.028000
1560043939415557415	200 55 0.900000 0.015000 0.013000 1500 47 1.000000 1.796000 1.972000 600 54 1.000000 0.053000 0.053000 1.200000 0.024000 0.028000
1560043939924103040	200 55 0.900000 0.015000 0.013000 1500 47 1.000000 1.909000 2.096000 600 53 1.000000 0.053000 0.053000 1.200000 0.024000 0.028000
1560043940432676873	200 55 0.900000 0.015000 0.013000 1500 47 1.000000 1.802000 1.978000 600 53 1.000000 0.053000 0.053000 1.200000 0.024000 0.028000
1560043940941214873	200 55 0.900000 0.015000 0.013000 1500 47 1.000000 1.783000 1.957000 600 53 1.000000 0.053000 0.053000 1.200000 0.025000 0.030000
1560043941449568374	200 55 0.900000 0.015000 0.013000 1500 47 1.000000 1.794000 1.969000 600 54 1.000000 0.053000 0.053000 1.200000 0.024000 0.028000
1560043941958402665	200 55 0.900000 0.016000 0.014000 1500 47 1.100000 1.997000 2.196000 600 53 1.000000 0.053000 0.053000 1.200000 0.025000 0.030000
1560043942466984332	200 55 0.900000 0.015000 0.013000 1500 47 1.000000 1.773000 1.946000 600 53 1.000000 0.053000 0.053000 1.200000 0.024000 0.028000
1560043942975513790	200 55 0.900000 0.015000 0.013000 1500 47 1.000000 1.768000 1.941000 600 53 1.000000 0.053000 0.053000 1.200000 0.029000 0.035000
1560043943483915415	200 55 0.900000 0.015000 0.013000 1500 47 1.100000 1.897000 2.086000 600 53 1.000000 0.053000 0.053000 1.200000 0.025000 0.030000
1560043943992340874	200 55 0.900000 0.021000 0.019000 1500 47 1.000000 1.781000 1.955000 600 53 1.000000 0.053000 0.053000 1.200000 0.034000 0.041000
1560043944501039541	200 55 0.900000 0.018000 0.016000 1500 47 1.000000 1.813000 1.990000 600 53 1.000000 0.053000 0.053000 1.200000 0.025000 0.030000
1560043945009649541	200 55 0.900000 0.015000 0.013000 1500 47 1.000000 1.775000 1.948000 600 53 1.000000 0.053000 0.053000 1.200000 0.024000 0.028000
1560043945518353041	200 55 0.900000 0.015000 0.013000 1500 47 1.000000 1.873000 2.056000 600 53 1.000000 0.053000 0.053000 1.200000 0.024000 0.028000
1560043946029214624	200 55 0.900000 0.015000 0.013000 1500 47 1.000000 1.787000 1.962000 600 54 1.000000 0.053000 0.053000 1.200000 0.025000 0.030000
1560043946537773874	200 55 0.900000 0.019000 0.017000 1500 47 1.100000 1.922000 2.114000 600 53 1.000000 0.053000 0.053000 1.200000 0.024000 0.028000
1560043947046302583	200 55 0.900000 0.015000 0.013000 1500 47 1.000000 1.793000 1.968000 600 53 1.000000 0.053000 0.053000 1.200000 0.024000 0.028000
1560043947555070374	200 55 0.900000 0.015000 0.013000 1500 47 1.000000 1.795000 1.970000 600 53 1.000000 0.053000 0.053000 1.200000 0.024000 0.028000
1560043948064794708	200 55 0.900000 0.015000 0.013000 1500 47 1.000000 1.781000 1.955000 600 53 1.000000 0.053000 0.053000 1.200000 0.024000 0.028000
1560043948573477041	200 55 0.900000 0.017000 0.015000 1500 47 1.100000 2.105000 2.315000 600 53 1.000000 0.053000 0.053000 1.200000 0.025000 0.030000
1560043949081965249	200 55 0.900000 0.015000 0.013000 1500 47 1.000000 1.768000 1.941000 600 53 1.000000 0.053000 0.053000 1.200000 0.029000 0.035000
1560043949590637291	200 55 0.900000 0.015000 0.013000 1500 47 1.000000 1.768000 1.941000 600 53 1.000000 0.053000 0.053000 1.200000 0.024000 0.028000
1560043950098998083	200 55 0.900000 0.015000 0.013000 1500 47 1.000000 1.764000 1.936000 600 53 1.000000 0.053000 0.053000 1.200000 0.024000 0.028000
1560043950607596041	200 55 0.900000 0.017000 0.015000 1500 47 1.000000 1.778000 1.952000 600 53 1.000000 0.053000 0.053000 1.200000 0.030000 0.036000
1560043951116216625	200 55 0.900000 0.018000 0.016000 1500 47 1.000000 1.792000 1.967000 600 53 1.000000 0.053000 0.053000 1.200000 0.024000 0.028000
1560043951633933125	200 55 0.900000 0.015000 0.013000 1500 47 1.000000 1.903000 2.089000 600 53 1.000000 0.053000 0.053000 1.200000 0.030000 0.036000
1560043952144155000	200 55 0.900000 0.015000 0.013000 1500 47 1.000000 1.794000 1.969000 600 53 1.000000 0.053000 0.053000 1.200000 0.026000 0.031000
1560043952652329375	200 55 0.900000 0.015000 0.013000 1500 47 1.000000 1.784000 1.958000 600 55 1.000000 0.053000 0.053000 1.200000 0.024000 0.028000
1560043953160799583	200 55 0.900000 0.017000 0.015000 1500 47 1.000000 1.894000 2.079000 600 54 1.000000 0.053000 0.053000 1.200000 0.035000 0.042000
1560043953669334583	200 55 0.900000 0.015000 0.013000 1500 47 1.000000 1.794000 1.969000 600 53 1.000000 0.053000 0.053000 1.200000 0.031000 0.037000
1560043954177802417	200 55 0.900000 0.015000 0.013000 1500 47 1.000000 1.764000 1.936000 600 53 1.000000 0.053000 0.053000 1.200000 0.024000 0.028000
1560043954715001250	200 55 0.900000 0.015000 0.013000 1500 47 1.000000 1.767000 1.940000 600 54 1.000000 0.053000 0.053000 1.200000 0.025000 0.030000
1560043955226712125	200 55 0.900000 0.017000 0.015000 1500 47 1.100000 1.964000 2.160000 600 54 1.000000 0.053000 0.053000 1.200000 0.034000 0.041000
1560043955735540584	200 55 0.900000 0.014000 0.012000 1500 47 1.000000 1.768000 1.941000 600 53 1.000000 0.053000 0.053000 1.200000 0.028000 0.033000
1560043956243925875	200 55 0.900000 0.015000 0.013000 1500 47 1.000000 1.763000 1.935000 600 53 1.000000 0.053000 0.053000 1.200000 0.025000 0.030000
1560043956752384584	200 55 0.900000 0.015000 0.013000 1500 47 1.000000 1.770000 1.943000 600 53 1.000000 0.053000 0.053000 1.200000 0.024000 0.028000
1560043957268214500	200 55 0.900000 0.019000 0.017000 1500 47 1.100000 2.051000 2.256000 600 54 1.000000 0.053000 0.053000 1.200000 0.033000 0.039000
1560043957778465209	200 55 0.900000 0.015000 0.013000 1500 47 1.000000 1.769000 1.942000 600 53 1.000000 0.053000 0.053000 1.200000 0.025000 0.030000
1560043958287011626	200 55 0.900000 0.015000 0.013000 1500 47 1.000000 1.767000 1.940000 600 53 1.000000 0.053000 0.053000 1.200000 0.024000 0.028000
1560043958795737584	200 55 0.900000 0.015000 0.013000 1500 47 1.000000 1.762000 1.934000 600 53 1.000000 0.053000 0.053000 1.200000 0.024000 0.028000
1560043959304207126	200 55 0.900000 0.015000 0.013000 1500 47 1.000000 1.784000 1.958000 600 54 1.000000 0.053000 0.053000 1.200000 0.024000 0.028000
1560043959822268542	200 55 0.900000 0.016000 0.014000 1500 47 1.000000 1.862000 2.044000 600 53 1.000000 0.053000 0.053000 1.200000 0.032000 0.038000
1560043960332366751	200 55 0.900000 0.015000 0.013000 1500 47 1.000000 1.787000 1.962000 600 53 1.000000 0.053000 0.053000 1.200000 0.026000 0.031000
1560043960840882084	200 55 0.900000 0.015000 0.013000 1500 47 1.000000 1.784000 1.958000 600 53 1.000000 0.053000 0.053000 1.200000 0.026000 0.031000
1560043961352776459	200 55 0.900000 0.015000 0.013000 1500 47 1.000000 1.790000 1.965000 600 54 1.000000 0.053000 0.053000 1.200000 0.024000 0.028000
1560043961861733959	200 55 0.900000 0.018000 0.016000 1500 47 1.100000 1.863000 2.049000 600 53 1.000000 0.053000 0.053000 1.200000 0.039000 0.047000
1560043962370323334	200 55 0.900000 0.015000 0.013000 1500 47 1.000000 1.764000 1.936000 600 53 1.000000 0.053000 0.053000 1.200000 0.025000 0.030000
1560043962878972043	200 55 0.900000 0.015000 0.013000 1500 47 1.000000 1.768000 1.941000 600 53 1.000000 0.053000 0.053000 1.200000 0.025000 0.030000
1560043963389532668	200 55 0.900000 0.015000 0.013000 1500 47 1.000000 1.772000 1.945000 600 53 1.000000 0.053000 0.053000 1.200000 0.025000 0.030000
1560043963898286376	200 55 0.900000 0.027000 0.024000 1500 47 1.100000 2.011000 2.212000 600 53 1.000000 0.053000 0.053000 1.200000 0.045000 0.054000
1560043964406801960	200 55 0.900000 0.015000 0.013000 1500 47 1.000000 1.766000 1.939000 600 53 1.000000 0.053000 0.053000 1.200000 0.025000 0.030000
1560043964915309418	200 55 0.900000 0.014000 0.012000 1500 47 1.000000 1.764000 1.936000 600 53 1.000000 0.053000 0.053000 1.200000 0.024000 0.028000
1560043965423743710	200 55 0.900000 0.015000 0.013000 1500 47 1.000000 1.763000 1.935000 600 53 1.000000 0.053000 0.053000 1.200000 0.024000 0.028000
1560043965931930251	200 55 0.900000 0.019000 0.017000 1500 47 1.100000 2.218000 2.442000 600 54 1.000000 0.053000 0.053000 1.200000 0.034000 0.041000
1560043966440420293	200 55 0.900000 0.017000 0.015000 1500 47 1.000000 1.793000 1.968000 600 53 1.000000 0.053000 0.053000 1.200000 0.028000 0.033000
1560043966949126460	200 55 0.900000 0.015000 0.013000 1500 47 1.000000 1.777000 1.951000 600 53 1.000000 0.053000 0.053000 1.200000 0.024000 0.028000
1560043967457384543	200 55 0.900000 0.015000 0.013000 1500 47 1.000000 1.794000 1.969000 600 53 1.000000 0.053000 0.053000 1.200000 0.024000 0.028000
1560043967969086418	200 49 0.900000 0.015000 0.013000 1500 47 1.000000 1.873000 2.056000 600 54 1.000000 0.053000 0.053000 1.200000 0.025000 0.030000
1560043968477439043	200 46 0.900000 0.018000 0.016000 1500 45 1.100000 0.350000 0.385000 600 50 1.000000 0.053000 0.053000 1.200000 0.038000 0.045000
