#Timestamp	CPU(0) Frequency(MHz)	CPU(0) Temperature(C)	A7 Voltage(V)	A7 Current(A)	A7 Power(W)	CPU(4) Frequency(MHz)	CPU(4) Temperature(C)	A15 Voltage(V)	A15 Current(A)	A15 Power(W)	GPU Frequency(MHz)	GPU Temperature(C)	GPU Voltage(V)	GPU Current(A)	GPU Power(W)	RAM Voltage(V)	RAM Current(A)	RAM Power(W)
1517156834502288207	300 47 1.000000 0.044000 0.046000 1100 42 0.900000 1.631000 1.626000 600 52 1.000000 0.053000 0.053000 1.200000 0.034000 0.041000
1517156835051976873	300 49 0.900000 0.125000 0.114000 1100 43 1.000000 2.598000 2.600000 600 54 1.000000 0.052000 0.052000 1.200000 0.028000 0.033000
1517156835610245707	300 49 0.900000 0.123000 0.112000 1100 43 1.000000 2.555000 2.557000 600 56 1.000000 0.052000 0.052000 1.200000 0.028000 0.033000
1517156836162272998	300 50 0.900000 0.128000 0.116000 1100 44 1.000000 2.619000 2.621000 600 56 1.000000 0.053000 0.053000 1.200000 0.023000 0.027000
1517156836730305874	300 50 0.900000 0.127000 0.115000 1100 44 1.000000 2.629000 2.631000 600 56 1.000000 0.053000 0.053000 1.200000 0.023000 0.027000
1517156837294136874	300 50 0.900000 0.128000 0.116000 1100 44 1.000000 2.628000 2.630000 600 57 1.000000 0.053000 0.053000 1.200000 0.025000 0.030000
1517156837850273207	300 50 0.900000 0.129000 0.117000 1100 44 1.000000 2.627000 2.629000 600 57 1.000000 0.053000 0.053000 1.200000 0.024000 0.028000
1517156838397674540	300 50 0.900000 0.128000 0.116000 1100 44 1.000000 2.631000 2.633000 600 57 1.000000 0.053000 0.053000 1.200000 0.024000 0.028000
1517156838966201665	300 50 0.900000 0.125000 0.114000 1100 44 1.000000 2.565000 2.567000 600 57 1.000000 0.053000 0.053000 1.200000 0.027000 0.032000
1517156839530270249	300 51 0.900000 0.126000 0.114000 1100 44 1.000000 2.535000 2.537000 600 57 1.000000 0.053000 0.053000 1.200000 0.027000 0.032000
1517156840094211874	300 50 0.900000 0.127000 0.115000 1100 44 1.000000 2.598000 2.600000 600 57 1.000000 0.053000 0.053000 1.200000 0.024000 0.028000
1517156840654277124	300 50 0.900000 0.129000 0.117000 1100 44 1.000000 2.619000 2.621000 600 57 1.000000 0.053000 0.053000 1.200000 0.023000 0.027000
1517156841222128874	300 51 0.900000 0.128000 0.116000 1100 44 1.000000 2.622000 2.624000 600 57 1.000000 0.053000 0.053000 1.200000 0.024000 0.028000
1517156841782112041	300 51 0.900000 0.129000 0.117000 1100 44 1.000000 2.611000 2.613000 600 57 1.000000 0.053000 0.053000 1.200000 0.023000 0.027000
1517156842334208791	300 50 0.900000 0.127000 0.115000 1100 44 1.000000 2.618000 2.620000 600 57 1.000000 0.053000 0.053000 1.200000 0.024000 0.028000
1517156842890689874	300 50 0.900000 0.125000 0.114000 1100 44 1.000000 2.544000 2.544000 600 57 1.000000 0.053000 0.053000 1.200000 0.027000 0.032000
1517156843458232583	300 50 0.900000 0.126000 0.114000 1100 44 1.000000 2.563000 2.565000 600 57 1.000000 0.053000 0.053000 1.200000 0.029000 0.035000
1517156844026209916	300 50 0.900000 0.128000 0.116000 1100 44 1.000000 2.612000 2.614000 600 57 1.000000 0.053000 0.053000 1.200000 0.024000 0.028000
1517156844594190083	300 51 0.900000 0.129000 0.117000 1100 44 1.000000 2.631000 2.631000 600 57 1.000000 0.053000 0.053000 1.200000 0.023000 0.027000
1517156845162178041	300 51 0.900000 0.128000 0.116000 1100 44 1.000000 2.594000 2.596000 600 57 1.000000 0.053000 0.053000 1.200000 0.024000 0.028000
1517156845738250750	300 50 0.900000 0.127000 0.115000 1100 44 1.000000 2.611000 2.613000 600 57 1.000000 0.053000 0.053000 1.200000 0.023000 0.027000
1517156846285775458	300 50 0.900000 0.127000 0.115000 1100 44 1.000000 2.600000 2.602000 600 57 1.000000 0.053000 0.053000 1.200000 0.023000 0.027000
1517156846845916833	300 50 0.900000 0.125000 0.114000 1100 44 1.000000 2.539000 2.541000 600 57 1.000000 0.053000 0.053000 1.200000 0.027000 0.032000
1517156847394256666	300 50 0.900000 0.124000 0.113000 1100 44 1.000000 2.567000 2.569000 600 57 1.000000 0.053000 0.053000 1.200000 0.027000 0.032000
1517156847946204292	300 50 0.900000 0.128000 0.116000 1100 44 1.000000 2.593000 2.595000 600 57 1.000000 0.053000 0.053000 1.200000 0.024000 0.028000
1517156848510109417	300 50 0.900000 0.128000 0.116000 1100 44 1.000000 2.604000 2.606000 600 57 1.000000 0.053000 0.053000 1.200000 0.024000 0.028000
1517156849074099667	300 50 0.900000 0.127000 0.115000 1100 44 1.000000 2.606000 2.608000 600 57 1.000000 0.053000 0.053000 1.200000 0.023000 0.027000
1517156849582099333	300 43 0.900000 0.017000 0.015000 1100 42 1.000000 0.172000 0.172000 600 48 1.000000 0.053000 0.053000 1.200000 0.023000 0.027000
1517156850090000167	300 42 0.900000 0.016000 0.014000 1100 41 1.000000 0.158000 0.158000 600 46 1.000000 0.052000 0.052000 1.200000 0.023000 0.027000
