#Timestamp	CPU(0) Frequency(MHz)	CPU(0) Temperature(C)	A7 Voltage(V)	A7 Current(A)	A7 Power(W)	CPU(4) Frequency(MHz)	CPU(4) Temperature(C)	A15 Voltage(V)	A15 Current(A)	A15 Power(W)	GPU Frequency(MHz)	GPU Temperature(C)	GPU Voltage(V)	GPU Current(A)	GPU Power(W)	RAM Voltage(V)	RAM Current(A)	RAM Power(W)
1553301311501387616	700 32 0.900000 0.022000 0.020000 200 31 0.900000 0.136000 0.124000 600 36 1.000000 0.050000 0.050000 1.200000 0.032000 0.038000
1553301312038630783	700 32 0.900000 0.032000 0.031000 200 31 0.900000 0.193000 0.175000 600 36 1.000000 0.050000 0.050000 1.200000 0.038000 0.045000
1553301312571674866	700 32 0.900000 0.029000 0.028000 200 31 0.900000 0.181000 0.165000 600 36 1.000000 0.050000 0.050000 1.200000 0.028000 0.033000
1553301313104793825	700 32 0.900000 0.028000 0.027000 200 31 0.900000 0.133000 0.121000 600 35 1.000000 0.050000 0.050000 1.200000 0.028000 0.033000
1553301313637744367	700 32 0.900000 0.029000 0.028000 200 31 0.900000 0.132000 0.120000 600 35 1.000000 0.050000 0.050000 1.200000 0.028000 0.033000
1553301314177024325	700 32 0.900000 0.028000 0.027000 200 31 0.900000 0.148000 0.134000 600 35 1.000000 0.050000 0.050000 1.200000 0.028000 0.033000
1553301314711831450	700 32 0.900000 0.032000 0.031000 200 31 0.900000 0.206000 0.187000 600 35 1.000000 0.050000 0.050000 1.200000 0.037000 0.044000
1553301315245066492	700 32 0.900000 0.029000 0.028000 200 31 0.900000 0.133000 0.121000 600 35 1.000000 0.050000 0.050000 1.200000 0.033000 0.039000
1553301315777987492	700 32 0.900000 0.028000 0.027000 200 31 0.900000 0.133000 0.121000 600 35 1.000000 0.050000 0.050000 1.200000 0.029000 0.035000
1553301316310521575	700 32 0.900000 0.029000 0.028000 200 31 0.900000 0.132000 0.120000 600 35 1.000000 0.050000 0.050000 1.200000 0.029000 0.035000
1553301316870956242	700 32 0.900000 0.030000 0.029000 200 31 0.900000 0.140000 0.127000 600 35 1.000000 0.050000 0.050000 1.200000 0.028000 0.033000
1553301317402940075	700 33 0.900000 0.201000 0.197000 200 31 0.900000 0.285000 0.259000 600 35 1.000000 0.051000 0.051000 1.200000 0.040000 0.048000
1553301317934651200	700 33 0.900000 0.225000 0.221000 200 32 0.900000 0.218000 0.198000 600 35 1.000000 0.050000 0.050000 1.200000 0.030000 0.036000
1553301318466929409	700 33 0.900000 0.224000 0.220000 200 32 0.900000 0.206000 0.187000 600 35 1.000000 0.051000 0.051000 1.200000 0.030000 0.036000
1553301318998731867	700 33 0.900000 0.224000 0.220000 200 32 0.900000 0.204000 0.185000 600 35 1.000000 0.050000 0.050000 1.200000 0.031000 0.037000
1553301319534754367	700 33 0.900000 0.225000 0.221000 200 32 0.900000 0.204000 0.185000 600 36 1.000000 0.051000 0.051000 1.200000 0.032000 0.038000
1553301320066827451	700 33 0.900000 0.226000 0.221000 200 32 0.900000 0.263000 0.239000 600 36 1.000000 0.051000 0.051000 1.200000 0.035000 0.042000
1553301320598439909	700 33 0.900000 0.224000 0.220000 200 32 0.900000 0.209000 0.190000 600 35 1.000000 0.051000 0.051000 1.200000 0.030000 0.036000
1553301321130483034	700 33 0.900000 0.224000 0.220000 200 32 0.900000 0.206000 0.187000 600 35 1.000000 0.051000 0.051000 1.200000 0.030000 0.036000
1553301321664293868	700 33 0.900000 0.225000 0.221000 200 32 0.900000 0.205000 0.186000 600 36 1.000000 0.050000 0.050000 1.200000 0.030000 0.036000
1553301322199081618	700 33 0.900000 0.224000 0.220000 200 32 0.900000 0.237000 0.215000 600 36 1.000000 0.050000 0.050000 1.200000 0.032000 0.038000
1553301322731100951	700 33 0.900000 0.226000 0.222000 200 32 0.900000 0.265000 0.241000 600 36 1.000000 0.050000 0.050000 1.200000 0.034000 0.041000
1553301323262635368	700 33 0.900000 0.224000 0.220000 200 32 0.900000 0.206000 0.187000 600 36 1.000000 0.050000 0.050000 1.200000 0.030000 0.036000
1553301323798866409	700 33 0.900000 0.225000 0.221000 200 32 0.900000 0.206000 0.187000 600 36 1.000000 0.051000 0.051000 1.200000 0.030000 0.036000
1553301324331259368	700 33 0.900000 0.225000 0.221000 200 32 0.900000 0.267000 0.243000 600 36 1.000000 0.050000 0.050000 1.200000 0.036000 0.043000
1553301324868255701	700 33 0.900000 0.225000 0.221000 200 32 0.900000 0.205000 0.186000 600 36 1.000000 0.050000 0.050000 1.200000 0.030000 0.036000
1553301325400871451	700 33 0.900000 0.226000 0.221000 200 32 0.900000 0.264000 0.240000 600 36 1.000000 0.051000 0.051000 1.200000 0.034000 0.041000
1553301325933723201	700 33 0.900000 0.224000 0.220000 200 32 0.900000 0.206000 0.187000 600 36 1.000000 0.050000 0.050000 1.200000 0.031000 0.037000
1553301326466114868	700 33 0.900000 0.224000 0.220000 200 32 0.900000 0.234000 0.213000 600 36 1.000000 0.050000 0.050000 1.200000 0.034000 0.041000
1553301326997855868	700 33 0.900000 0.224000 0.220000 200 32 0.900000 0.206000 0.187000 600 36 1.000000 0.051000 0.051000 1.200000 0.029000 0.035000
1553301327534930243	700 32 0.900000 0.033000 0.032000 200 31 0.900000 0.205000 0.186000 600 36 1.000000 0.051000 0.051000 1.200000 0.026000 0.031000
1553301328066542743	700 32 0.900000 0.032000 0.031000 200 31 0.900000 0.263000 0.239000 600 36 1.000000 0.050000 0.050000 1.200000 0.030000 0.036000
1553301328598657660	700 32 0.900000 0.030000 0.029000 200 31 0.900000 0.203000 0.184000 600 36 1.000000 0.051000 0.051000 1.200000 0.027000 0.032000
1553301329130908410	700 32 0.900000 0.030000 0.029000 200 31 0.900000 0.203000 0.185000 600 35 1.000000 0.050000 0.050000 1.200000 0.025000 0.030000
1553301329662860785	700 32 0.900000 0.030000 0.029000 200 31 0.900000 0.202000 0.184000 600 35 1.000000 0.050000 0.050000 1.200000 0.025000 0.030000
1553301330202782410	700 32 0.900000 0.030000 0.029000 200 31 0.900000 0.204000 0.186000 600 36 1.000000 0.050000 0.050000 1.200000 0.028000 0.033000
1553301330734994744	700 32 0.900000 0.032000 0.031000 200 31 0.900000 0.263000 0.239000 600 36 1.000000 0.050000 0.050000 1.200000 0.030000 0.036000
1553301331267220410	700 32 0.900000 0.030000 0.029000 200 31 0.900000 0.237000 0.215000 600 35 1.000000 0.051000 0.051000 1.200000 0.027000 0.032000
1553301331799252035	700 32 0.900000 0.030000 0.029000 200 31 0.900000 0.203000 0.184000 600 35 1.000000 0.050000 0.050000 1.200000 0.025000 0.030000
1553301332331276119	700 32 0.900000 0.030000 0.029000 200 31 0.900000 0.203000 0.184000 600 35 1.000000 0.050000 0.050000 1.200000 0.025000 0.030000
1553301332881813661	700 32 0.900000 0.030000 0.029000 200 31 0.900000 0.210000 0.191000 600 36 1.000000 0.050000 0.050000 1.200000 0.027000 0.032000
1553301333413865369	700 32 0.900000 0.030000 0.029000 200 31 0.900000 0.227000 0.207000 600 35 1.000000 0.051000 0.051000 1.200000 0.025000 0.030000
1553301333945342202	700 32 0.900000 0.030000 0.029000 200 31 0.900000 0.196000 0.178000 600 35 1.000000 0.050000 0.050000 1.200000 0.024000 0.028000
1553301334476952869	700 32 0.900000 0.030000 0.029000 200 31 0.900000 0.195000 0.177000 600 35 1.000000 0.050000 0.050000 1.200000 0.024000 0.028000
1553301335008408827	700 32 0.900000 0.030000 0.029000 200 31 0.900000 0.196000 0.178000 600 35 1.000000 0.050000 0.050000 1.200000 0.025000 0.030000
1553301335546497328	700 32 0.900000 0.032000 0.031000 200 31 0.900000 0.300000 0.273000 600 36 1.000000 0.051000 0.051000 1.200000 0.035000 0.042000
1553301336078392744	700 32 0.900000 0.030000 0.029000 200 31 0.900000 0.213000 0.194000 600 35 1.000000 0.050000 0.050000 1.200000 0.024000 0.028000
1553301336610270119	700 32 0.900000 0.030000 0.029000 200 31 0.900000 0.195000 0.177000 600 35 1.000000 0.050000 0.050000 1.200000 0.024000 0.029000
1553301337142785869	700 32 0.900000 0.030000 0.029000 200 31 0.900000 0.195000 0.177000 600 35 1.000000 0.050000 0.050000 1.200000 0.024000 0.028000
1553301337675115161	700 32 0.900000 0.030000 0.029000 200 31 0.900000 0.213000 0.194000 600 35 1.000000 0.050000 0.050000 1.200000 0.032000 0.038000
1553301338215044953	700 32 0.900000 0.031000 0.030000 200 31 0.900000 0.203000 0.185000 600 35 1.000000 0.050000 0.050000 1.200000 0.034000 0.041000
1553301338747499036	700 32 0.900000 0.030000 0.029000 200 31 0.900000 0.150000 0.136000 600 35 1.000000 0.051000 0.051000 1.200000 0.024000 0.028000
1553301339280549245	700 32 0.900000 0.029000 0.028000 200 31 0.900000 0.140000 0.127000 600 35 1.000000 0.051000 0.051000 1.200000 0.024000 0.028000
1553301339814072120	700 32 0.900000 0.029000 0.028000 200 31 0.900000 0.138000 0.125000 600 35 1.000000 0.050000 0.050000 1.200000 0.028000 0.033000
1553301340361774745	700 32 0.900000 0.029000 0.028000 200 31 0.900000 0.140000 0.127000 600 35 1.000000 0.050000 0.050000 1.200000 0.024000 0.028000
1553301340901378537	700 32 0.900000 0.031000 0.030000 200 31 0.900000 0.203000 0.185000 600 35 1.000000 0.050000 0.050000 1.200000 0.034000 0.041000
1553301341434351620	700 32 0.900000 0.029000 0.028000 200 31 0.900000 0.146000 0.133000 600 35 1.000000 0.050000 0.050000 1.200000 0.024000 0.028000
1553301341968184203	700 32 0.900000 0.028000 0.027000 200 31 0.900000 0.138000 0.125000 600 35 1.000000 0.050000 0.050000 1.200000 0.024000 0.028000
1553301342502344912	700 32 0.900000 0.028000 0.027000 200 31 0.900000 0.172000 0.156000 600 35 1.000000 0.050000 0.050000 1.200000 0.028000 0.033000
1553301343048001953	700 32 0.900000 0.029000 0.028000 200 30 0.900000 0.140000 0.127000 600 35 1.000000 0.050000 0.050000 1.200000 0.025000 0.030000
1553301343589395537	700 32 0.900000 0.031000 0.030000 200 31 0.900000 0.203000 0.185000 600 35 1.000000 0.050000 0.050000 1.200000 0.035000 0.042000
1553301344125911620	700 32 0.900000 0.030000 0.029000 200 31 0.900000 0.142000 0.129000 600 35 1.000000 0.050000 0.050000 1.200000 0.024000 0.028000
1553301344659397954	700 32 0.900000 0.030000 0.029000 200 31 0.900000 0.204000 0.186000 600 35 1.000000 0.050000 0.050000 1.200000 0.033000 0.039000
1553301345192487454	700 32 0.900000 0.029000 0.028000 200 30 0.900000 0.144000 0.131000 600 35 1.000000 0.050000 0.050000 1.200000 0.024000 0.028000
1553301345734161829	700 32 0.900000 0.028000 0.027000 200 30 0.900000 0.146000 0.133000 600 35 1.000000 0.050000 0.050000 1.200000 0.024000 0.028000
1553301346266523954	700 32 0.900000 0.032000 0.031000 200 31 0.900000 0.206000 0.187000 600 35 1.000000 0.051000 0.051000 1.200000 0.035000 0.042000
1553301346799237996	700 32 0.900000 0.030000 0.029000 200 30 0.900000 0.175000 0.159000 600 35 1.000000 0.050000 0.050000 1.200000 0.033000 0.039000
1553301347331430412	700 31 0.900000 0.029000 0.028000 200 31 0.900000 0.147000 0.134000 600 35 1.000000 0.050000 0.050000 1.200000 0.025000 0.030000
1553301347864565162	700 31 0.900000 0.029000 0.028000 200 30 0.900000 0.148000 0.134000 600 35 1.000000 0.050000 0.050000 1.200000 0.025000 0.030000
1553301348401999912	700 31 0.900000 0.028000 0.027000 200 30 0.900000 0.148000 0.134000 600 35 1.000000 0.050000 0.050000 1.200000 0.025000 0.030000
1553301348936725579	700 32 0.900000 0.031000 0.030000 200 30 0.900000 0.206000 0.187000 600 35 1.000000 0.050000 0.050000 1.200000 0.036000 0.043000
1553301349470141246	700 32 0.900000 0.032000 0.031000 200 31 0.900000 0.154000 0.140000 600 35 1.000000 0.050000 0.050000 1.200000 0.041000 0.049000
1553301350003165246	700 32 0.900000 0.029000 0.028000 200 30 0.900000 0.146000 0.133000 600 35 1.000000 0.050000 0.050000 1.200000 0.026000 0.031000
1553301350536553704	700 32 0.900000 0.029000 0.028000 200 30 0.900000 0.147000 0.134000 600 35 1.000000 0.050000 0.050000 1.200000 0.026000 0.031000
1553301351087109288	700 31 0.900000 0.029000 0.028000 200 30 0.900000 0.149000 0.135000 600 35 1.000000 0.050000 0.050000 1.200000 0.026000 0.031000
1553301351626872496	700 31 0.900000 0.031000 0.030000 200 30 0.900000 0.202000 0.184000 600 35 1.000000 0.050000 0.050000 1.200000 0.041000 0.049000
1553301352159174080	700 32 0.900000 0.028000 0.027000 200 30 0.900000 0.138000 0.125000 600 35 1.000000 0.050000 0.050000 1.200000 0.026000 0.031000
1553301352691855746	700 32 0.900000 0.028000 0.027000 200 30 0.900000 0.139000 0.126000 600 35 1.000000 0.050000 0.050000 1.200000 0.026000 0.031000
1553301353230302455	700 31 0.900000 0.029000 0.028000 200 30 0.900000 0.157000 0.143000 600 35 1.000000 0.050000 0.050000 1.200000 0.026000 0.031000
1553301353775022913	700 32 0.900000 0.030000 0.029000 200 30 0.900000 0.201000 0.183000 600 35 1.000000 0.050000 0.050000 1.200000 0.040000 0.048000
1553301354307065913	700 32 0.900000 0.030000 0.029000 200 30 0.900000 0.195000 0.177000 600 35 1.000000 0.050000 0.050000 1.200000 0.037000 0.044000
1553301354839455205	700 32 0.900000 0.028000 0.027000 200 30 0.900000 0.139000 0.126000 600 35 1.000000 0.051000 0.051000 1.200000 0.026000 0.031000
1553301355371993080	700 32 0.900000 0.028000 0.027000 200 30 0.900000 0.140000 0.127000 600 35 1.000000 0.050000 0.050000 1.200000 0.026000 0.031000
1553301355904724497	700 32 0.900000 0.029000 0.028000 200 30 0.900000 0.200000 0.182000 600 35 1.000000 0.050000 0.050000 1.200000 0.030000 0.036000
1553301356446874455	700 32 0.900000 0.029000 0.028000 200 30 0.900000 0.176000 0.160000 600 35 1.000000 0.051000 0.051000 1.200000 0.026000 0.031000
1553301356979835372	700 32 0.900000 0.032000 0.031000 200 30 0.900000 0.206000 0.187000 600 35 1.000000 0.050000 0.050000 1.200000 0.036000 0.043000
1553301357512003455	700 32 0.900000 0.029000 0.028000 200 30 0.900000 0.147000 0.134000 600 35 1.000000 0.050000 0.050000 1.200000 0.026000 0.031000
1553301358048731039	700 32 0.900000 0.029000 0.028000 200 30 0.900000 0.147000 0.134000 600 35 1.000000 0.050000 0.050000 1.200000 0.026000 0.031000
1553301358581518539	700 32 0.900000 0.029000 0.028000 200 30 0.900000 0.176000 0.160000 600 35 1.000000 0.050000 0.050000 1.200000 0.028000 0.033000
1553301359121042789	700 32 0.900000 0.029000 0.028000 200 30 0.900000 0.147000 0.134000 600 35 1.000000 0.050000 0.050000 1.200000 0.026000 0.031000
1553301359654437164	700 32 0.900000 0.031000 0.030000 200 30 0.900000 0.207000 0.188000 600 35 1.000000 0.050000 0.050000 1.200000 0.036000 0.043000
1553301360188570039	700 32 0.900000 0.028000 0.027000 200 30 0.900000 0.149000 0.135000 600 35 1.000000 0.050000 0.050000 1.200000 0.026000 0.031000
1553301360721948789	700 31 0.900000 0.029000 0.028000 200 30 0.900000 0.207000 0.188000 600 35 1.000000 0.050000 0.050000 1.200000 0.035000 0.042000
1553301361254352831	700 31 0.900000 0.028000 0.027000 200 30 0.900000 0.147000 0.134000 600 35 1.000000 0.050000 0.050000 1.200000 0.026000 0.031000
1553301361791976622	700 32 0.900000 0.029000 0.028000 200 30 0.900000 0.147000 0.134000 600 35 1.000000 0.050000 0.050000 1.200000 0.026000 0.031000
1553301362336372122	700 32 0.900000 0.031000 0.030000 200 30 0.900000 0.207000 0.188000 600 35 1.000000 0.050000 0.050000 1.200000 0.036000 0.043000
1553301362868760164	700 32 0.900000 0.030000 0.029000 200 30 0.900000 0.180000 0.164000 600 35 1.000000 0.050000 0.050000 1.200000 0.034000 0.041000
1553301363401453248	700 31 0.900000 0.029000 0.028000 200 30 0.900000 0.148000 0.134000 600 35 1.000000 0.050000 0.050000 1.200000 0.027000 0.032000
1553301363934078164	700 32 0.900000 0.029000 0.028000 200 30 0.900000 0.148000 0.134000 600 35 1.000000 0.050000 0.050000 1.200000 0.026000 0.031000
1553301364475959998	700 31 0.900000 0.029000 0.028000 200 30 0.900000 0.149000 0.135000 600 35 1.000000 0.050000 0.050000 1.200000 0.027000 0.032000
1553301365008658914	700 32 0.900000 0.032000 0.031000 200 30 0.900000 0.209000 0.190000 600 35 1.000000 0.050000 0.050000 1.200000 0.037000 0.044000
1553301365541742373	700 32 0.900000 0.029000 0.028000 200 30 0.900000 0.154000 0.140000 600 35 1.000000 0.050000 0.050000 1.200000 0.026000 0.031000
1553301366073987248	700 32 0.900000 0.029000 0.028000 200 30 0.900000 0.150000 0.136000 600 35 1.000000 0.050000 0.050000 1.200000 0.026000 0.031000
1553301366606627665	700 31 0.900000 0.029000 0.028000 200 30 0.900000 0.150000 0.136000 600 35 1.000000 0.050000 0.050000 1.200000 0.026000 0.031000
1553301367146750373	700 32 0.900000 0.030000 0.029000 200 30 0.900000 0.149000 0.135000 600 35 1.000000 0.050000 0.050000 1.200000 0.028000 0.033000
1553301367683179790	700 31 0.900000 0.032000 0.031000 200 30 0.900000 0.241000 0.219000 600 35 1.000000 0.050000 0.050000 1.200000 0.040000 0.048000
1553301368216777331	700 31 0.900000 0.029000 0.028000 200 30 0.900000 0.148000 0.134000 600 35 1.000000 0.050000 0.050000 1.200000 0.026000 0.031000
1553301368749981915	700 31 0.900000 0.029000 0.028000 200 30 0.900000 0.149000 0.135000 600 34 1.000000 0.050000 0.050000 1.200000 0.026000 0.031000
1553301369301567207	700 31 0.900000 0.029000 0.028000 200 30 0.900000 0.148000 0.134000 600 35 1.000000 0.050000 0.050000 1.200000 0.026000 0.031000
1553301369839793748	700 31 0.900000 0.031000 0.030000 200 30 0.900000 0.214000 0.194000 600 35 1.000000 0.050000 0.050000 1.200000 0.036000 0.043000
1553301370375374373	700 32 0.900000 0.030000 0.029000 200 30 0.900000 0.172000 0.156000 600 35 1.000000 0.050000 0.050000 1.200000 0.028000 0.033000
1553301370908348207	700 31 0.900000 0.028000 0.027000 200 30 0.900000 0.141000 0.128000 600 35 1.000000 0.050000 0.050000 1.200000 0.024000 0.028000
1553301371442049957	700 31 0.900000 0.029000 0.028000 200 30 0.900000 0.140000 0.127000 600 35 1.000000 0.050000 0.050000 1.200000 0.024000 0.028000
1553301371975494082	700 32 0.900000 0.029000 0.028000 200 30 0.900000 0.195000 0.177000 600 35 1.000000 0.050000 0.050000 1.200000 0.032000 0.038000
1553301372516959957	700 32 0.900000 0.031000 0.030000 200 30 0.900000 0.201000 0.183000 600 35 1.000000 0.050000 0.050000 1.200000 0.035000 0.042000
1553301373049623874	700 31 0.900000 0.029000 0.028000 200 30 0.900000 0.165000 0.150000 600 35 1.000000 0.050000 0.050000 1.200000 0.027000 0.032000
1553301373581725915	700 31 0.900000 0.028000 0.027000 200 30 0.900000 0.143000 0.130000 600 35 1.000000 0.050000 0.050000 1.200000 0.023000 0.027000
1553301374114488624	700 31 0.900000 0.030000 0.029000 200 30 0.900000 0.180000 0.164000 600 35 1.000000 0.050000 0.050000 1.200000 0.034000 0.041000
1553301374682276832	700 31 0.900000 0.029000 0.028000 200 30 0.900000 0.140000 0.127000 600 35 1.000000 0.050000 0.050000 1.200000 0.024000 0.028000
1553301375218879541	700 31 0.900000 0.033000 0.032000 200 30 0.900000 0.136000 0.124000 600 35 1.000000 0.050000 0.050000 1.200000 0.032000 0.038000
