#Timestamp	CPU(0) Frequency(MHz)	CPU(0) Temperature(C)	A7 Voltage(V)	A7 Current(A)	A7 Power(W)	CPU(4) Frequency(MHz)	CPU(4) Temperature(C)	A15 Voltage(V)	A15 Current(A)	A15 Power(W)	GPU Frequency(MHz)	GPU Temperature(C)	GPU Voltage(V)	GPU Current(A)	GPU Power(W)	RAM Voltage(V)	RAM Current(A)	RAM Power(W)
1560115548956709160	1300 44 1.200000 0.071000 0.086000 1400 40 1.000000 0.778000 0.830000 600 45 1.000000 0.052000 0.052000 1.200000 0.041000 0.049000
1560115549463756868	1300 44 1.200000 0.072000 0.087000 1400 40 1.000000 0.806000 0.860000 600 45 1.000000 0.052000 0.052000 1.200000 0.040000 0.048000
1560115549970655660	1300 43 1.200000 0.071000 0.086000 1400 40 1.000000 0.716000 0.764000 600 44 1.000000 0.052000 0.052000 1.200000 0.036000 0.043000
1560115550477774702	1300 44 1.200000 0.072000 0.087000 1400 40 1.000000 0.735000 0.784000 600 45 1.000000 0.052000 0.052000 1.200000 0.038000 0.045000
1560115550983997493	1300 49 1.200000 0.081000 0.098000 1400 42 1.000000 1.163000 1.245000 600 46 1.000000 0.052000 0.052000 1.200000 0.037000 0.044000
1560115551489934077	1300 50 1.200000 0.461000 0.556000 1400 43 1.000000 1.607000 1.722000 600 46 1.000000 0.052000 0.052000 1.200000 0.025000 0.030000
1560115551996011285	1300 51 1.200000 0.462000 0.557000 1400 44 1.000000 1.588000 1.703000 600 47 1.000000 0.052000 0.052000 1.200000 0.025000 0.030000
1560115552501919160	1300 51 1.200000 0.462000 0.557000 1400 44 1.000000 1.609000 1.724000 600 48 1.000000 0.052000 0.052000 1.200000 0.026000 0.031000
1560115553007839994	1300 51 1.200000 0.462000 0.557000 1400 44 1.000000 1.608000 1.723000 600 47 1.000000 0.052000 0.052000 1.200000 0.025000 0.030000
1560115553513871910	1300 52 1.200000 0.462000 0.557000 1400 44 1.000000 1.606000 1.721000 600 48 1.000000 0.052000 0.052000 1.200000 0.028000 0.033000
1560115554019826535	1300 52 1.200000 0.462000 0.557000 1400 44 1.000000 1.593000 1.707000 600 48 1.000000 0.053000 0.053000 1.200000 0.025000 0.030000
1560115554525525744	1300 52 1.200000 0.464000 0.560000 1400 45 1.000000 1.596000 1.710000 600 49 1.000000 0.052000 0.052000 1.200000 0.024000 0.028000
1560115555031464119	1300 52 1.200000 0.465000 0.561000 1400 45 1.000000 1.596000 1.710000 600 48 1.000000 0.053000 0.053000 1.200000 0.025000 0.030000
1560115555537441536	1300 52 1.200000 0.463000 0.558000 1400 45 1.000000 1.687000 1.810000 600 48 1.000000 0.053000 0.053000 1.200000 0.029000 0.035000
1560115556043473827	1300 52 1.200000 0.464000 0.560000 1400 45 1.000000 1.586000 1.700000 600 48 1.000000 0.053000 0.053000 1.200000 0.025000 0.030000
1560115556550236286	1300 52 1.200000 0.463000 0.558000 1400 45 1.000000 1.590000 1.704000 600 49 1.000000 0.052000 0.052000 1.200000 0.026000 0.031000
1560115557056954077	1300 52 1.200000 0.464000 0.560000 1400 45 1.000000 1.825000 1.958000 600 48 1.000000 0.052000 0.052000 1.200000 0.032000 0.038000
1560115557563137661	1300 52 1.200000 0.465000 0.561000 1400 45 1.000000 1.604000 1.719000 600 48 1.000000 0.053000 0.053000 1.200000 0.025000 0.030000
1560115558069174453	1300 52 1.200000 0.464000 0.560000 1400 45 1.000000 1.623000 1.739000 600 48 1.000000 0.052000 0.052000 1.200000 0.025000 0.030000
1560115558575177703	1300 52 1.200000 0.465000 0.561000 1400 45 1.000000 1.599000 1.714000 600 48 1.000000 0.052000 0.052000 1.200000 0.025000 0.030000
1560115559080954703	1300 53 1.200000 0.466000 0.562000 1400 45 1.000000 1.819000 1.951000 600 49 1.000000 0.052000 0.052000 1.200000 0.031000 0.037000
1560115559586954703	1300 53 1.200000 0.464000 0.560000 1400 45 1.000000 1.596000 1.710000 600 49 1.000000 0.052000 0.052000 1.200000 0.029000 0.035000
1560115560092899786	1300 52 1.200000 0.464000 0.560000 1400 45 1.000000 1.609000 1.724000 600 49 1.000000 0.053000 0.053000 1.200000 0.025000 0.030000
1560115560598829286	1300 52 1.200000 0.465000 0.561000 1400 45 1.000000 1.589000 1.703000 600 48 1.000000 0.053000 0.053000 1.200000 0.025000 0.030000
1560115561104749953	1300 53 1.200000 0.465000 0.561000 1400 45 1.000000 1.816000 1.948000 600 49 1.000000 0.053000 0.053000 1.200000 0.031000 0.037000
1560115561611585911	1300 53 1.200000 0.464000 0.560000 1400 45 1.000000 1.685000 1.808000 600 49 1.000000 0.053000 0.053000 1.200000 0.030000 0.036000
1560115562117621620	1300 53 1.200000 0.464000 0.560000 1400 45 1.000000 1.614000 1.730000 600 49 1.000000 0.053000 0.053000 1.200000 0.025000 0.030000
1560115562623679661	1300 52 1.200000 0.464000 0.560000 1400 45 1.000000 1.626000 1.743000 600 49 1.000000 0.053000 0.053000 1.200000 0.025000 0.030000
1560115563129506661	1300 53 1.200000 0.464000 0.560000 1400 45 1.000000 1.607000 1.724000 600 49 1.000000 0.053000 0.053000 1.200000 0.028000 0.033000
1560115563635439995	1300 53 1.200000 0.464000 0.560000 1400 45 1.000000 1.626000 1.743000 600 49 1.000000 0.053000 0.053000 1.200000 0.025000 0.030000
1560115564141345912	1300 53 1.200000 0.464000 0.560000 1400 45 1.000000 1.600000 1.715000 600 49 1.000000 0.052000 0.052000 1.200000 0.031000 0.037000
1560115564647309287	1300 53 1.200000 0.463000 0.558000 1400 45 1.000000 1.601000 1.716000 600 49 1.000000 0.052000 0.052000 1.200000 0.026000 0.031000
1560115565153142412	1300 53 1.200000 0.464000 0.560000 1400 45 1.000000 1.596000 1.712000 600 49 1.000000 0.053000 0.053000 1.200000 0.026000 0.031000
1560115565659018162	1300 53 1.200000 0.464000 0.560000 1400 45 1.000000 1.605000 1.720000 600 49 1.000000 0.052000 0.052000 1.200000 0.033000 0.039000
1560115566165585079	1300 53 1.200000 0.464000 0.560000 1400 45 1.000000 1.597000 1.711000 600 49 1.000000 0.053000 0.053000 1.200000 0.029000 0.035000
1560115566671702537	1300 53 1.200000 0.463000 0.558000 1400 45 1.000000 1.619000 1.735000 600 49 1.000000 0.052000 0.052000 1.200000 0.025000 0.030000
1560115567178710579	1300 53 1.200000 0.463000 0.558000 1400 45 1.000000 1.614000 1.730000 600 50 1.000000 0.052000 0.052000 1.200000 0.026000 0.031000
1560115567684722620	1300 53 1.200000 0.463000 0.558000 1400 45 1.000000 1.666000 1.785000 600 49 1.000000 0.052000 0.052000 1.200000 0.030000 0.036000
1560115568191706245	1300 53 1.200000 0.464000 0.560000 1400 45 1.000000 1.599000 1.714000 600 49 1.000000 0.052000 0.052000 1.200000 0.027000 0.032000
1560115568697705037	1300 52 1.200000 0.464000 0.560000 1400 45 1.000000 1.600000 1.715000 600 49 1.000000 0.052000 0.052000 1.200000 0.026000 0.031000
1560115569204574121	1300 53 1.200000 0.464000 0.560000 1400 45 1.000000 1.604000 1.719000 600 49 1.000000 0.052000 0.052000 1.200000 0.026000 0.031000
1560115569711673704	1300 53 1.200000 0.466000 0.562000 1400 45 1.000000 1.629000 1.746000 600 49 1.000000 0.052000 0.052000 1.200000 0.029000 0.035000
1560115570217541537	1300 53 1.200000 0.465000 0.561000 1400 45 1.000000 1.674000 1.796000 600 49 1.000000 0.053000 0.053000 1.200000 0.031000 0.037000
1560115570723440954	1300 53 1.200000 0.464000 0.560000 1400 45 1.000000 1.619000 1.735000 600 49 1.000000 0.053000 0.053000 1.200000 0.026000 0.031000
1560115571229306121	1300 53 1.200000 0.463000 0.558000 1400 45 1.000000 1.597000 1.711000 600 49 1.000000 0.052000 0.052000 1.200000 0.026000 0.031000
1560115571735154996	1300 53 1.200000 0.465000 0.561000 1400 45 1.000000 1.681000 1.802000 600 49 1.000000 0.053000 0.053000 1.200000 0.029000 0.035000
1560115572240986621	1300 53 1.200000 0.464000 0.560000 1400 45 1.000000 1.671000 1.792000 600 49 1.000000 0.052000 0.052000 1.200000 0.029000 0.035000
1560115572746893746	1300 53 1.200000 0.464000 0.560000 1400 45 1.000000 1.614000 1.730000 600 49 1.000000 0.053000 0.053000 1.200000 0.025000 0.030000
1560115573252830163	1300 52 1.200000 0.465000 0.561000 1400 45 1.000000 1.604000 1.719000 600 49 1.000000 0.053000 0.053000 1.200000 0.027000 0.032000
1560115573758859621	1300 53 1.200000 0.464000 0.560000 1400 45 1.000000 1.705000 1.829000 600 49 1.000000 0.052000 0.052000 1.200000 0.030000 0.036000
1560115574264909163	1300 53 1.200000 0.465000 0.561000 1400 45 1.000000 1.616000 1.732000 600 49 1.000000 0.052000 0.052000 1.200000 0.025000 0.030000
1560115574770878121	1300 53 1.200000 0.464000 0.560000 1400 45 1.000000 1.613000 1.729000 600 49 1.000000 0.053000 0.053000 1.200000 0.025000 0.030000
1560115575276657788	1300 53 1.200000 0.465000 0.561000 1400 45 1.000000 1.625000 1.743000 600 49 1.000000 0.053000 0.053000 1.200000 0.026000 0.031000
1560115575782634246	1300 53 1.200000 0.464000 0.560000 1400 45 1.000000 1.612000 1.728000 600 51 1.000000 0.053000 0.053000 1.200000 0.026000 0.031000
1560115576288459330	1300 53 1.200000 0.464000 0.560000 1400 45 1.000000 1.811000 1.943000 600 49 1.000000 0.053000 0.053000 1.200000 0.030000 0.036000
1560115576794327955	1300 53 1.200000 0.464000 0.560000 1400 45 1.000000 1.590000 1.704000 600 49 1.000000 0.052000 0.052000 1.200000 0.025000 0.030000
1560115577300378830	1300 52 1.200000 0.463000 0.558000 1400 45 1.000000 1.613000 1.729000 600 49 1.000000 0.053000 0.053000 1.200000 0.026000 0.031000
1560115577806842372	1300 53 1.200000 0.464000 0.560000 1400 45 1.000000 1.597000 1.711000 600 51 1.000000 0.052000 0.052000 1.200000 0.026000 0.031000
1560115578312952997	1300 53 1.200000 0.464000 0.560000 1400 45 1.000000 1.766000 1.894000 600 49 1.000000 0.053000 0.053000 1.200000 0.029000 0.035000
1560115578818987163	1300 53 1.200000 0.464000 0.560000 1400 45 1.000000 1.590000 1.704000 600 49 1.000000 0.052000 0.052000 1.200000 0.025000 0.030000
1560115579324930663	1300 52 1.200000 0.464000 0.560000 1400 45 1.000000 1.613000 1.729000 600 49 1.000000 0.053000 0.053000 1.200000 0.026000 0.031000
1560115579833103580	1300 52 1.200000 0.464000 0.560000 1400 45 1.000000 1.605000 1.720000 600 50 1.000000 0.053000 0.053000 1.200000 0.025000 0.030000
1560115580339437997	1300 53 1.200000 0.465000 0.561000 1400 46 1.000000 1.679000 1.799000 600 49 1.000000 0.052000 0.052000 1.200000 0.026000 0.031000
1560115580845467122	1300 53 1.200000 0.463000 0.558000 1400 45 1.000000 1.596000 1.710000 600 49 1.000000 0.053000 0.053000 1.200000 0.025000 0.030000
1560115581351495205	1300 53 1.200000 0.464000 0.560000 1400 45 1.000000 1.616000 1.732000 600 49 1.000000 0.053000 0.053000 1.200000 0.026000 0.031000
1560115581857500080	1300 52 1.200000 0.464000 0.560000 1400 45 1.000000 1.587000 1.701000 600 49 1.000000 0.052000 0.052000 1.200000 0.025000 0.030000
1560115582363550955	1300 53 1.200000 0.467000 0.563000 1400 45 1.000000 1.824000 1.957000 600 49 1.000000 0.053000 0.053000 1.200000 0.041000 0.049000
1560115582869449664	1300 53 1.200000 0.464000 0.560000 1400 45 1.000000 1.615000 1.731000 600 49 1.000000 0.052000 0.052000 1.200000 0.026000 0.031000
1560115583375366122	1300 52 1.200000 0.463000 0.558000 1400 45 1.000000 1.620000 1.736000 600 49 1.000000 0.052000 0.052000 1.200000 0.026000 0.031000
1560115583881358706	1300 52 1.200000 0.464000 0.560000 1400 45 1.000000 1.612000 1.728000 600 49 1.000000 0.052000 0.052000 1.200000 0.026000 0.031000
1560115584387359206	1300 53 1.200000 0.470000 0.567000 1400 45 1.000000 1.875000 2.011000 600 49 1.000000 0.052000 0.052000 1.200000 0.041000 0.049000
1560115584893161122	1300 53 1.200000 0.464000 0.560000 1400 45 1.000000 1.615000 1.731000 600 49 1.000000 0.052000 0.052000 1.200000 0.025000 0.030000
1560115585399253664	1300 53 1.200000 0.464000 0.560000 1400 45 1.000000 1.596000 1.710000 600 49 1.000000 0.052000 0.052000 1.200000 0.025000 0.030000
1560115585905151539	1300 52 1.200000 0.464000 0.560000 1400 45 1.000000 1.592000 1.706000 600 49 1.000000 0.053000 0.053000 1.200000 0.026000 0.031000
1560115586411172748	1300 53 1.200000 0.472000 0.569000 1400 45 1.000000 1.885000 2.022000 600 49 1.000000 0.053000 0.053000 1.200000 0.036000 0.043000
1560115586916956873	1300 53 1.200000 0.464000 0.560000 1400 45 1.000000 1.600000 1.715000 600 49 1.000000 0.053000 0.053000 1.200000 0.025000 0.030000
1560115587423135706	1300 52 1.200000 0.464000 0.560000 1400 45 1.000000 1.601000 1.716000 600 49 1.000000 0.053000 0.053000 1.200000 0.026000 0.031000
1560115587929210998	1300 52 1.200000 0.465000 0.561000 1400 45 1.000000 1.611000 1.726000 600 48 1.000000 0.052000 0.052000 1.200000 0.026000 0.031000
1560115588435202748	1300 53 1.200000 0.464000 0.560000 1400 45 1.000000 1.691000 1.814000 600 49 1.000000 0.052000 0.052000 1.200000 0.029000 0.035000
1560115588941094915	1300 53 1.200000 0.472000 0.569000 1400 45 1.000000 1.610000 1.725000 600 49 1.000000 0.053000 0.053000 1.200000 0.026000 0.031000
1560115589447079498	1300 53 1.200000 0.464000 0.560000 1400 45 1.000000 1.596000 1.710000 600 49 1.000000 0.053000 0.053000 1.200000 0.025000 0.030000
1560115589953078540	1300 53 1.200000 0.464000 0.560000 1400 45 1.000000 1.614000 1.730000 600 48 1.000000 0.052000 0.052000 1.200000 0.026000 0.031000
1560115590458942956	1300 53 1.200000 0.465000 0.561000 1400 45 1.000000 1.697000 1.819000 600 50 1.000000 0.052000 0.052000 1.200000 0.028000 0.033000
1560115590964745123	1300 53 1.200000 0.466000 0.562000 1400 45 1.000000 1.588000 1.702000 600 49 1.000000 0.053000 0.053000 1.200000 0.025000 0.030000
1560115591471689165	1300 53 1.200000 0.463000 0.558000 1400 45 1.000000 1.603000 1.718000 600 49 1.000000 0.052000 0.052000 1.200000 0.025000 0.030000
1560115591977623040	1300 52 1.200000 0.463000 0.558000 1400 46 1.000000 1.599000 1.714000 600 49 1.000000 0.052000 0.052000 1.200000 0.025000 0.030000
1560115592483771957	1300 52 1.200000 0.464000 0.560000 1400 45 1.000000 1.691000 1.814000 600 49 1.000000 0.052000 0.052000 1.200000 0.029000 0.035000
1560115592989875082	1300 53 1.200000 0.464000 0.560000 1400 45 1.000000 1.589000 1.703000 600 49 1.000000 0.052000 0.052000 1.200000 0.025000 0.030000
1560115593496954082	1300 53 1.200000 0.464000 0.560000 1400 45 1.000000 1.594000 1.708000 600 49 1.000000 0.053000 0.053000 1.200000 0.025000 0.030000
1560115594003266624	1300 52 1.200000 0.465000 0.561000 1400 45 1.000000 1.591000 1.705000 600 49 1.000000 0.053000 0.053000 1.200000 0.027000 0.032000
1560115594509384082	1300 53 1.200000 0.474000 0.572000 1400 45 1.000000 1.672000 1.792000 600 49 1.000000 0.053000 0.053000 1.200000 0.030000 0.036000
1560115595015443999	1300 53 1.200000 0.464000 0.560000 1400 45 1.000000 1.807000 1.938000 600 49 1.000000 0.052000 0.052000 1.200000 0.036000 0.043000
1560115595521450165	1300 53 1.200000 0.464000 0.560000 1400 45 1.000000 1.605000 1.720000 600 49 1.000000 0.052000 0.052000 1.200000 0.025000 0.030000
1560115596027467082	1300 52 1.200000 0.464000 0.560000 1400 45 1.000000 1.604000 1.719000 600 49 1.000000 0.053000 0.053000 1.200000 0.026000 0.031000
1560115596533545665	1300 53 1.200000 0.463000 0.558000 1400 45 1.000000 1.696000 1.818000 600 49 1.000000 0.052000 0.052000 1.200000 0.029000 0.035000
1560115597039545332	1300 53 1.200000 0.468000 0.564000 1400 45 1.000000 1.800000 1.931000 600 49 1.000000 0.053000 0.053000 1.200000 0.035000 0.042000
1560115597545370832	1300 52 1.200000 0.463000 0.558000 1400 45 1.000000 1.595000 1.709000 600 49 1.000000 0.052000 0.052000 1.200000 0.026000 0.031000
1560115598051444457	1300 52 1.200000 0.464000 0.560000 1400 45 1.000000 1.596000 1.710000 600 48 1.000000 0.052000 0.052000 1.200000 0.026000 0.031000
1560115598557337416	1300 52 1.200000 0.464000 0.560000 1400 45 1.000000 1.692000 1.813000 600 49 1.000000 0.052000 0.052000 1.200000 0.029000 0.035000
1560115599063324499	1300 53 1.200000 0.471000 0.568000 1400 45 1.000000 1.791000 1.921000 600 49 1.000000 0.053000 0.053000 1.200000 0.035000 0.042000
1560115599569207749	1300 52 1.200000 0.464000 0.560000 1400 45 1.000000 1.602000 1.717000 600 49 1.000000 0.053000 0.053000 1.200000 0.027000 0.032000
1560115600075165708	1300 52 1.200000 0.463000 0.558000 1400 45 1.000000 1.602000 1.717000 600 48 1.000000 0.053000 0.053000 1.200000 0.027000 0.032000
1560115600581077333	1300 52 1.200000 0.465000 0.561000 1400 45 1.000000 1.683000 1.804000 600 49 1.000000 0.052000 0.052000 1.200000 0.029000 0.035000
1560115601087111708	1300 53 1.200000 0.464000 0.560000 1400 45 1.000000 1.603000 1.720000 600 49 1.000000 0.052000 0.052000 1.200000 0.026000 0.031000
1560115601593006458	1300 52 1.200000 0.471000 0.568000 1400 45 1.000000 1.585000 1.699000 600 49 1.000000 0.053000 0.053000 1.200000 0.025000 0.030000
1560115602099011416	1300 52 1.200000 0.463000 0.558000 1400 45 1.000000 1.598000 1.713000 600 48 1.000000 0.052000 0.052000 1.200000 0.025000 0.030000
1560115602604916000	1300 52 1.200000 0.463000 0.558000 1400 45 1.000000 1.697000 1.819000 600 49 1.000000 0.052000 0.052000 1.200000 0.029000 0.035000
1560115603111585666	1300 52 1.200000 0.463000 0.558000 1400 45 1.000000 1.596000 1.710000 600 49 1.000000 0.053000 0.053000 1.200000 0.025000 0.030000
1560115603617597875	1300 53 1.200000 0.468000 0.564000 1400 45 1.000000 1.593000 1.707000 600 49 1.000000 0.052000 0.052000 1.200000 0.026000 0.031000
1560115604123577041	1300 52 1.200000 0.464000 0.560000 1400 45 1.000000 1.599000 1.714000 600 49 1.000000 0.052000 0.052000 1.200000 0.026000 0.031000
1560115604629451416	1300 53 1.200000 0.464000 0.560000 1400 45 1.000000 1.694000 1.817000 600 49 1.000000 0.052000 0.052000 1.200000 0.025000 0.030000
1560115605135480583	1300 52 1.200000 0.464000 0.560000 1400 45 1.000000 1.587000 1.701000 600 49 1.000000 0.053000 0.053000 1.200000 0.026000 0.031000
1560115605641602000	1300 53 1.200000 0.463000 0.558000 1400 45 1.000000 1.585000 1.699000 600 49 1.000000 0.053000 0.053000 1.200000 0.035000 0.042000
1560115606147541292	1300 53 1.200000 0.464000 0.560000 1400 45 1.000000 1.613000 1.729000 600 49 1.000000 0.053000 0.053000 1.200000 0.026000 0.031000
1560115606653438833	1300 52 1.200000 0.464000 0.560000 1400 45 1.000000 1.627000 1.744000 600 49 1.000000 0.053000 0.053000 1.200000 0.025000 0.030000
1560115607159545458	1300 52 1.200000 0.465000 0.561000 1400 45 1.000000 1.684000 1.805000 600 48 1.000000 0.053000 0.053000 1.200000 0.027000 0.032000
1560115607665674958	1300 53 1.200000 0.463000 0.558000 1400 45 1.000000 1.587000 1.701000 600 49 1.000000 0.052000 0.052000 1.200000 0.025000 0.030000
1560115608171713792	1300 52 1.200000 0.465000 0.561000 1400 45 1.000000 1.614000 1.730000 600 49 1.000000 0.052000 0.052000 1.200000 0.026000 0.031000
1560115608677623709	1300 53 1.200000 0.464000 0.560000 1400 45 1.000000 1.604000 1.719000 600 49 1.000000 0.052000 0.052000 1.200000 0.026000 0.031000
1560115609183729834	1300 53 1.200000 0.464000 0.560000 1400 45 1.000000 1.625000 1.742000 600 48 1.000000 0.052000 0.052000 1.200000 0.026000 0.031000
1560115609689673542	1300 53 1.200000 0.467000 0.563000 1400 45 1.000000 1.597000 1.711000 600 49 1.000000 0.053000 0.053000 1.200000 0.026000 0.031000
1560115610195608209	1300 53 1.200000 0.463000 0.558000 1400 45 1.000000 1.605000 1.720000 600 49 1.000000 0.052000 0.052000 1.200000 0.026000 0.031000
1560115610701529834	1300 53 1.200000 0.463000 0.558000 1400 45 1.000000 1.603000 1.718000 600 49 1.000000 0.053000 0.053000 1.200000 0.026000 0.031000
1560115611207639626	1300 53 1.200000 0.463000 0.558000 1400 45 1.000000 1.609000 1.724000 600 49 1.000000 0.053000 0.053000 1.200000 0.026000 0.031000
1560115611713583251	1300 53 1.200000 0.472000 0.569000 1400 45 1.000000 1.610000 1.725000 600 49 1.000000 0.053000 0.053000 1.200000 0.025000 0.030000
1560115612219738959	1300 52 1.200000 0.463000 0.558000 1400 45 1.000000 1.790000 1.920000 600 49 1.000000 0.053000 0.053000 1.200000 0.035000 0.042000
1560115612725700917	1300 53 1.200000 0.463000 0.558000 1400 45 1.000000 1.622000 1.738000 600 49 1.000000 0.052000 0.052000 1.200000 0.026000 0.031000
1560115613231714751	1300 52 1.200000 0.464000 0.560000 1400 45 1.000000 1.682000 1.804000 600 49 1.000000 0.053000 0.053000 1.200000 0.028000 0.033000
1560115613737445959	1300 53 1.200000 0.464000 0.560000 1400 45 1.000000 1.613000 1.729000 600 49 1.000000 0.053000 0.053000 1.200000 0.026000 0.031000
1560115614243378709	1300 53 1.200000 0.472000 0.569000 1400 45 1.000000 1.799000 1.930000 600 49 1.000000 0.052000 0.052000 1.200000 0.035000 0.042000
1560115614749223709	1300 53 1.200000 0.464000 0.560000 1400 45 1.000000 1.617000 1.733000 600 49 1.000000 0.053000 0.053000 1.200000 0.026000 0.031000
1560115615255325959	1300 53 1.200000 0.463000 0.558000 1400 45 1.000000 1.600000 1.715000 600 48 1.000000 0.052000 0.052000 1.200000 0.025000 0.030000
1560115615761853584	1300 52 1.200000 0.464000 0.560000 1400 45 1.000000 1.622000 1.738000 600 49 1.000000 0.052000 0.052000 1.200000 0.026000 0.031000
1560115616267884626	1300 53 1.200000 0.471000 0.568000 1400 45 1.000000 1.792000 1.922000 600 49 1.000000 0.053000 0.053000 1.200000 0.034000 0.041000
1560115616773933668	1300 53 1.200000 0.464000 0.560000 1400 45 1.000000 1.605000 1.720000 600 49 1.000000 0.052000 0.052000 1.200000 0.026000 0.031000
1560115617279875168	1300 53 1.200000 0.464000 0.560000 1400 45 1.000000 1.600000 1.715000 600 49 1.000000 0.052000 0.052000 1.200000 0.026000 0.031000
1560115617785783835	1300 52 1.200000 0.463000 0.558000 1400 45 1.000000 1.598000 1.713000 600 49 1.000000 0.052000 0.052000 1.200000 0.026000 0.031000
1560115618291906960	1300 53 1.200000 0.472000 0.569000 1400 45 1.000000 1.603000 1.718000 600 49 1.000000 0.052000 0.052000 1.200000 0.027000 0.032000
1560115618797850210	1300 53 1.200000 0.464000 0.560000 1400 45 1.000000 1.607000 1.722000 600 49 1.000000 0.053000 0.053000 1.200000 0.026000 0.031000
1560115619303961543	1300 53 1.200000 0.463000 0.558000 1400 45 1.000000 1.680000 1.802000 600 49 1.000000 0.053000 0.053000 1.200000 0.029000 0.035000
1560115619809829252	1300 52 1.200000 0.464000 0.560000 1400 45 1.000000 1.585000 1.699000 600 48 1.000000 0.052000 0.052000 1.200000 0.025000 0.030000
1560115620315802460	1300 53 1.200000 0.463000 0.558000 1400 45 1.000000 1.634000 1.751000 600 49 1.000000 0.052000 0.052000 1.200000 0.028000 0.033000
1560115620821697585	1300 53 1.200000 0.464000 0.560000 1400 45 1.000000 1.602000 1.717000 600 49 1.000000 0.052000 0.052000 1.200000 0.026000 0.031000
1560115621327651585	1300 53 1.200000 0.463000 0.558000 1400 45 1.000000 1.618000 1.736000 600 49 1.000000 0.053000 0.053000 1.200000 0.027000 0.032000
1560115621833613252	1300 53 1.200000 0.463000 0.558000 1400 45 1.000000 1.597000 1.711000 600 48 1.000000 0.053000 0.053000 1.200000 0.025000 0.030000
1560115622339660669	1300 53 1.200000 0.465000 0.561000 1400 45 1.000000 1.651000 1.769000 600 49 1.000000 0.052000 0.052000 1.200000 0.028000 0.033000
1560115622845522044	1300 53 1.200000 0.463000 0.558000 1400 45 1.000000 1.596000 1.710000 600 49 1.000000 0.052000 0.052000 1.200000 0.026000 0.031000
1560115623351468585	1300 53 1.200000 0.464000 0.560000 1400 45 1.000000 1.600000 1.715000 600 49 1.000000 0.053000 0.053000 1.200000 0.025000 0.030000
1560115623857396752	1300 52 1.200000 0.465000 0.561000 1400 45 1.000000 1.599000 1.714000 600 48 1.000000 0.052000 0.052000 1.200000 0.024000 0.028000
1560115624363304544	1300 53 1.200000 0.464000 0.560000 1400 45 1.000000 1.644000 1.762000 600 49 1.000000 0.053000 0.053000 1.200000 0.026000 0.031000
1560115624869112086	1300 53 1.200000 0.465000 0.561000 1400 45 1.000000 1.748000 1.875000 600 49 1.000000 0.052000 0.052000 1.200000 0.031000 0.037000
1560115625375132877	1300 53 1.200000 0.464000 0.560000 1400 45 1.000000 1.701000 1.825000 600 49 1.000000 0.052000 0.052000 1.200000 0.032000 0.038000
1560115625881052377	1300 52 1.200000 0.464000 0.560000 1400 45 1.000000 1.601000 1.716000 600 48 1.000000 0.053000 0.053000 1.200000 0.025000 0.030000
1560115626387295002	1300 52 1.200000 0.464000 0.560000 1400 45 1.000000 1.604000 1.719000 600 50 1.000000 0.053000 0.053000 1.200000 0.026000 0.031000
1560115626893145961	1300 53 1.200000 0.471000 0.568000 1400 45 1.000000 1.730000 1.856000 600 49 1.000000 0.052000 0.052000 1.200000 0.031000 0.037000
1560115627399179877	1300 52 1.200000 0.465000 0.561000 1400 45 1.000000 1.628000 1.745000 600 48 1.000000 0.052000 0.052000 1.200000 0.026000 0.031000
1560115627905084253	1300 52 1.200000 0.464000 0.560000 1400 45 1.000000 1.592000 1.706000 600 49 1.000000 0.053000 0.053000 1.200000 0.025000 0.030000
1560115628410961628	1300 52 1.200000 0.465000 0.561000 1400 45 1.000000 1.594000 1.710000 600 49 1.000000 0.053000 0.053000 1.200000 0.025000 0.030000
1560115628917276294	1300 53 1.200000 0.470000 0.567000 1400 46 1.000000 1.708000 1.832000 600 50 1.000000 0.052000 0.052000 1.200000 0.029000 0.035000
1560115629423274753	1300 53 1.200000 0.465000 0.561000 1400 45 1.000000 1.599000 1.714000 600 49 1.000000 0.053000 0.053000 1.200000 0.025000 0.030000
1560115629929305628	1300 52 1.200000 0.463000 0.559000 1400 45 1.000000 1.600000 1.716000 600 49 1.000000 0.052000 0.052000 1.200000 0.026000 0.031000
1560115630435316086	1300 52 1.200000 0.464000 0.560000 1400 45 1.000000 1.590000 1.706000 600 49 1.000000 0.053000 0.053000 1.200000 0.025000 0.030000
1560115630941620961	1300 53 1.200000 0.470000 0.567000 1400 45 1.000000 1.726000 1.851000 600 49 1.000000 0.053000 0.053000 1.200000 0.032000 0.038000
1560115631447679711	1300 53 1.200000 0.465000 0.561000 1400 45 1.000000 1.695000 1.818000 600 49 1.000000 0.053000 0.053000 1.200000 0.029000 0.035000
1560115631953643378	1300 52 1.200000 0.465000 0.561000 1400 45 1.000000 1.633000 1.752000 600 49 1.000000 0.052000 0.052000 1.200000 0.025000 0.030000
1560115632459532628	1300 52 1.200000 0.465000 0.561000 1400 45 1.000000 1.600000 1.716000 600 49 1.000000 0.052000 0.052000 1.200000 0.025000 0.030000
1560115632965572378	1300 53 1.200000 0.464000 0.560000 1400 45 1.000000 1.744000 1.871000 600 49 1.000000 0.053000 0.053000 1.200000 0.032000 0.038000
1560115633471725670	1300 53 1.200000 0.465000 0.561000 1400 45 1.000000 1.666000 1.787000 600 49 1.000000 0.053000 0.053000 1.200000 0.026000 0.031000
1560115633977774837	1300 53 1.200000 0.464000 0.560000 1400 45 1.000000 1.605000 1.720000 600 49 1.000000 0.052000 0.052000 1.200000 0.025000 0.030000
1560115634483739170	1300 52 1.200000 0.465000 0.561000 1400 45 1.000000 1.614000 1.731000 600 49 1.000000 0.053000 0.053000 1.200000 0.025000 0.030000
1560115634989624212	1300 53 1.200000 0.463000 0.558000 1400 45 1.000000 1.743000 1.870000 600 49 1.000000 0.052000 0.052000 1.200000 0.034000 0.041000
1560115635495667420	1300 53 1.200000 0.464000 0.560000 1400 45 1.000000 1.604000 1.721000 600 49 1.000000 0.053000 0.053000 1.200000 0.025000 0.030000
1560115636001656504	1300 53 1.200000 0.464000 0.560000 1400 45 1.000000 1.602000 1.718000 600 49 1.000000 0.053000 0.053000 1.200000 0.025000 0.030000
1560115636507657754	1300 53 1.200000 0.465000 0.561000 1400 45 1.000000 1.607000 1.722000 600 49 1.000000 0.053000 0.053000 1.200000 0.024000 0.028000
1560115637013380754	1300 53 1.200000 0.464000 0.560000 1400 45 1.000000 1.611000 1.726000 600 49 1.000000 0.053000 0.053000 1.200000 0.026000 0.031000
1560115637519471212	1300 53 1.200000 0.466000 0.562000 1400 45 1.000000 1.763000 1.891000 600 49 1.000000 0.053000 0.053000 1.200000 0.031000 0.037000
1560115638025461545	1300 53 1.200000 0.464000 0.560000 1400 45 1.000000 1.609000 1.726000 600 49 1.000000 0.053000 0.053000 1.200000 0.026000 0.031000
1560115638531471087	1300 52 1.200000 0.464000 0.560000 1400 45 1.000000 1.605000 1.722000 600 49 1.000000 0.052000 0.052000 1.200000 0.026000 0.031000
1560115639038808421	1300 52 1.200000 0.463000 0.558000 1400 45 1.000000 1.602000 1.718000 600 49 1.000000 0.052000 0.052000 1.200000 0.025000 0.030000
1560115639544873921	1300 53 1.200000 0.476000 0.574000 1400 45 1.000000 1.663000 1.784000 600 49 1.000000 0.053000 0.053000 1.200000 0.029000 0.035000
1560115640050980962	1300 53 1.200000 0.465000 0.561000 1400 45 1.000000 1.602000 1.717000 600 49 1.000000 0.053000 0.053000 1.200000 0.025000 0.030000
1560115640556972712	1300 52 1.200000 0.465000 0.561000 1400 45 1.000000 1.606000 1.721000 600 49 1.000000 0.052000 0.052000 1.200000 0.025000 0.030000
1560115641063062921	1300 53 1.200000 0.464000 0.560000 1400 45 1.000000 1.621000 1.737000 600 49 1.000000 0.053000 0.053000 1.200000 0.025000 0.030000
1560115641569151254	1300 53 1.200000 0.485000 0.585000 1400 45 1.000000 1.615000 1.731000 600 49 1.000000 0.052000 0.052000 1.200000 0.025000 0.030000
1560115642075159879	1300 53 1.200000 0.465000 0.561000 1400 45 1.000000 1.614000 1.730000 600 49 1.000000 0.053000 0.053000 1.200000 0.025000 0.030000
1560115642580994463	1300 53 1.200000 0.465000 0.561000 1400 45 1.000000 1.617000 1.733000 600 49 1.000000 0.052000 0.052000 1.200000 0.025000 0.030000
1560115643086999879	1300 52 1.200000 0.463000 0.558000 1400 45 1.000000 1.616000 1.733000 600 49 1.000000 0.053000 0.053000 1.200000 0.027000 0.032000
1560115643593016171	1300 53 1.200000 0.483000 0.582000 1400 45 1.000000 1.855000 1.988000 600 49 1.000000 0.053000 0.053000 1.200000 0.025000 0.030000
1560115644099011629	1300 53 1.200000 0.464000 0.560000 1400 45 1.000000 1.619000 1.735000 600 49 1.000000 0.052000 0.052000 1.200000 0.027000 0.032000
1560115644604848880	1300 53 1.200000 0.464000 0.560000 1400 45 1.000000 1.620000 1.738000 600 49 1.000000 0.052000 0.052000 1.200000 0.025000 0.030000
1560115645110756963	1300 52 1.200000 0.465000 0.561000 1400 45 1.000000 1.623000 1.739000 600 49 1.000000 0.052000 0.052000 1.200000 0.027000 0.032000
1560115645616706380	1300 53 1.200000 0.465000 0.561000 1400 45 1.000000 1.616000 1.732000 600 49 1.000000 0.053000 0.053000 1.200000 0.025000 0.030000
1560115646122823796	1300 53 1.200000 0.464000 0.560000 1400 45 1.000000 1.627000 1.744000 600 49 1.000000 0.053000 0.053000 1.200000 0.026000 0.031000
1560115646628719880	1300 53 1.200000 0.464000 0.560000 1400 45 1.000000 1.599000 1.714000 600 49 1.000000 0.053000 0.053000 1.200000 0.025000 0.030000
1560115647134704005	1300 52 1.200000 0.465000 0.561000 1400 45 1.000000 1.627000 1.745000 600 49 1.000000 0.053000 0.053000 1.200000 0.026000 0.031000
1560115647640461880	1300 53 1.200000 0.465000 0.561000 1400 45 1.000000 1.606000 1.723000 600 49 1.000000 0.053000 0.053000 1.200000 0.026000 0.031000
1560115648146416088	1300 53 1.200000 0.464000 0.560000 1400 45 1.000000 1.621000 1.737000 600 49 1.000000 0.053000 0.053000 1.200000 0.026000 0.031000
1560115648652473338	1300 53 1.200000 0.464000 0.560000 1400 45 1.000000 1.606000 1.721000 600 49 1.000000 0.053000 0.053000 1.200000 0.026000 0.031000
1560115649158585255	1300 53 1.200000 0.465000 0.561000 1400 45 1.000000 1.636000 1.755000 600 49 1.000000 0.052000 0.052000 1.200000 0.027000 0.032000
1560115649664707755	1300 53 1.200000 0.464000 0.560000 1400 45 1.000000 1.603000 1.718000 600 50 1.000000 0.052000 0.052000 1.200000 0.025000 0.030000
1560115650170656839	1300 53 1.200000 0.471000 0.568000 1400 45 1.000000 1.815000 1.947000 600 49 1.000000 0.053000 0.053000 1.200000 0.036000 0.043000
1560115650676782172	1300 53 1.200000 0.463000 0.558000 1400 45 1.000000 1.620000 1.736000 600 49 1.000000 0.052000 0.052000 1.200000 0.025000 0.030000
1560115651183670839	1300 53 1.200000 0.464000 0.560000 1400 45 1.000000 1.622000 1.740000 600 49 1.000000 0.053000 0.053000 1.200000 0.026000 0.031000
1560115651689589797	1300 53 1.200000 0.466000 0.562000 1400 45 1.000000 1.607000 1.722000 600 49 1.000000 0.052000 0.052000 1.200000 0.025000 0.030000
1560115652195655880	1300 53 1.200000 0.473000 0.570000 1400 45 1.000000 1.818000 1.950000 600 49 1.000000 0.053000 0.053000 1.200000 0.036000 0.043000
1560115652701653505	1300 52 1.200000 0.464000 0.560000 1400 45 1.000000 1.625000 1.743000 600 49 1.000000 0.053000 0.053000 1.200000 0.026000 0.031000
1560115653207546297	1300 52 1.200000 0.464000 0.560000 1400 45 1.000000 1.612000 1.729000 600 49 1.000000 0.052000 0.052000 1.200000 0.026000 0.031000
1560115653713469214	1300 53 1.200000 0.464000 0.560000 1400 45 1.000000 1.618000 1.734000 600 49 1.000000 0.053000 0.053000 1.200000 0.025000 0.030000
1560115654219574006	1300 53 1.200000 0.473000 0.570000 1400 45 1.000000 1.808000 1.939000 600 49 1.000000 0.052000 0.052000 1.200000 0.035000 0.042000
1560115654725492922	1300 53 1.200000 0.464000 0.560000 1400 45 1.000000 1.602000 1.717000 600 49 1.000000 0.053000 0.053000 1.200000 0.024000 0.028000
1560115655231561881	1300 53 1.200000 0.464000 0.560000 1400 45 1.000000 1.611000 1.726000 600 49 1.000000 0.052000 0.052000 1.200000 0.026000 0.031000
1560115655737570131	1300 53 1.200000 0.463000 0.558000 1400 45 1.000000 1.634000 1.751000 600 49 1.000000 0.052000 0.052000 1.200000 0.026000 0.031000
1560115656243623714	1300 53 1.200000 0.466000 0.562000 1400 45 1.000000 1.608000 1.723000 600 49 1.000000 0.052000 0.052000 1.200000 0.025000 0.030000
1560115656749480131	1300 53 1.200000 0.464000 0.560000 1400 45 1.000000 1.615000 1.731000 600 49 1.000000 0.052000 0.052000 1.200000 0.026000 0.031000
1560115657255449548	1300 53 1.200000 0.464000 0.560000 1400 45 1.000000 1.599000 1.714000 600 49 1.000000 0.053000 0.053000 1.200000 0.025000 0.030000
1560115657761471839	1300 53 1.200000 0.464000 0.560000 1400 45 1.000000 1.640000 1.758000 600 49 1.000000 0.053000 0.053000 1.200000 0.026000 0.031000
1560115658267461256	1300 53 1.200000 0.464000 0.560000 1400 46 1.000000 1.597000 1.711000 600 49 1.000000 0.052000 0.052000 1.200000 0.025000 0.030000
1560115658773376798	1300 53 1.200000 0.463000 0.558000 1400 45 1.000000 1.619000 1.735000 600 49 1.000000 0.052000 0.052000 1.200000 0.026000 0.031000
1560115659279453673	1300 53 1.200000 0.465000 0.561000 1400 45 1.000000 1.603000 1.718000 600 49 1.000000 0.053000 0.053000 1.200000 0.025000 0.030000
1560115659785381590	1300 53 1.200000 0.464000 0.560000 1400 45 1.000000 1.607000 1.722000 600 49 1.000000 0.052000 0.052000 1.200000 0.025000 0.030000
1560115660291163340	1300 53 1.200000 0.465000 0.561000 1400 45 1.000000 1.605000 1.720000 600 50 1.000000 0.053000 0.053000 1.200000 0.025000 0.030000
1560115660797059090	1300 53 1.200000 0.465000 0.561000 1400 45 1.000000 1.598000 1.713000 600 49 1.000000 0.053000 0.053000 1.200000 0.025000 0.030000
1560115661302972007	1300 53 1.200000 0.464000 0.560000 1400 45 1.000000 1.616000 1.732000 600 49 1.000000 0.053000 0.053000 1.200000 0.025000 0.030000
1560115661808996632	1300 53 1.200000 0.465000 0.561000 1400 45 1.000000 1.617000 1.733000 600 49 1.000000 0.052000 0.052000 1.200000 0.026000 0.031000
1560115662315560382	1300 52 1.200000 0.465000 0.561000 1400 45 1.000000 1.623000 1.739000 600 49 1.000000 0.052000 0.052000 1.200000 0.025000 0.030000
1560115662821581132	1300 53 1.200000 0.470000 0.567000 1400 45 1.000000 1.801000 1.932000 600 49 1.000000 0.052000 0.052000 1.200000 0.036000 0.043000
1560115663327582257	1300 53 1.200000 0.464000 0.560000 1400 45 1.000000 1.629000 1.746000 600 49 1.000000 0.053000 0.053000 1.200000 0.025000 0.030000
1560115663833540882	1300 53 1.200000 0.464000 0.560000 1400 45 1.000000 1.617000 1.733000 600 49 1.000000 0.052000 0.052000 1.200000 0.026000 0.031000
1560115664339469257	1300 53 1.200000 0.464000 0.560000 1400 45 1.000000 1.628000 1.745000 600 49 1.000000 0.052000 0.052000 1.200000 0.026000 0.031000
1560115664845391799	1300 53 1.200000 0.463000 0.558000 1400 45 1.000000 1.825000 1.958000 600 49 1.000000 0.052000 0.052000 1.200000 0.032000 0.038000
1560115665351374840	1300 53 1.200000 0.464000 0.560000 1400 45 1.000000 1.599000 1.714000 600 49 1.000000 0.053000 0.053000 1.200000 0.025000 0.030000
1560115665857284924	1300 53 1.200000 0.463000 0.558000 1400 45 1.000000 1.600000 1.715000 600 49 1.000000 0.052000 0.052000 1.200000 0.025000 0.030000
1560115666363289549	1300 53 1.200000 0.464000 0.560000 1400 45 1.000000 1.610000 1.725000 600 49 1.000000 0.053000 0.053000 1.200000 0.025000 0.030000
1560115666869242591	1300 53 1.200000 0.471000 0.568000 1400 45 1.000000 1.805000 1.936000 600 49 1.000000 0.052000 0.052000 1.200000 0.035000 0.042000
1560115667375233007	1300 53 1.200000 0.464000 0.560000 1400 45 1.000000 1.598000 1.713000 600 49 1.000000 0.052000 0.052000 1.200000 0.025000 0.030000
1560115667881094924	1300 53 1.200000 0.463000 0.558000 1400 45 1.000000 1.616000 1.732000 600 49 1.000000 0.052000 0.052000 1.200000 0.025000 0.030000
1560115668387030341	1300 53 1.200000 0.465000 0.561000 1400 45 1.000000 1.656000 1.775000 600 49 1.000000 0.052000 0.052000 1.200000 0.028000 0.033000
1560115668893071841	1300 53 1.200000 0.465000 0.561000 1400 45 1.000000 1.616000 1.732000 600 49 1.000000 0.052000 0.052000 1.200000 0.026000 0.031000
1560115669399107049	1300 53 1.200000 0.463000 0.558000 1400 45 1.000000 1.611000 1.726000 600 49 1.000000 0.053000 0.053000 1.200000 0.026000 0.031000
1560115669905054841	1300 53 1.200000 0.464000 0.560000 1400 45 1.000000 1.630000 1.747000 600 49 1.000000 0.053000 0.053000 1.200000 0.026000 0.031000
1560115670411025049	1300 53 1.200000 0.464000 0.560000 1400 45 1.000000 1.597000 1.711000 600 49 1.000000 0.052000 0.052000 1.200000 0.025000 0.030000
1560115670916968841	1300 53 1.200000 0.463000 0.558000 1400 45 1.000000 1.598000 1.713000 600 49 1.000000 0.053000 0.053000 1.200000 0.025000 0.030000
1560115671423158758	1300 53 1.200000 0.465000 0.561000 1400 45 1.000000 1.607000 1.722000 600 49 1.000000 0.053000 0.053000 1.200000 0.024000 0.028000
1560115671929088591	1300 53 1.200000 0.464000 0.560000 1400 45 1.000000 1.604000 1.719000 600 49 1.000000 0.053000 0.053000 1.200000 0.025000 0.030000
1560115672435106675	1300 53 1.200000 0.464000 0.560000 1400 45 1.000000 1.602000 1.717000 600 49 1.000000 0.053000 0.053000 1.200000 0.025000 0.030000
1560115672942284383	1300 53 1.200000 0.464000 0.560000 1400 45 1.000000 1.616000 1.732000 600 50 1.000000 0.053000 0.053000 1.200000 0.025000 0.030000
1560115673448492758	1300 53 1.200000 0.465000 0.561000 1400 45 1.000000 1.607000 1.722000 600 49 1.000000 0.053000 0.053000 1.200000 0.025000 0.030000
1560115673954401466	1300 53 1.200000 0.464000 0.560000 1400 45 1.000000 1.627000 1.744000 600 49 1.000000 0.052000 0.052000 1.200000 0.025000 0.030000
1560115674460495300	1300 53 1.200000 0.465000 0.561000 1400 45 1.000000 1.670000 1.791000 600 49 1.000000 0.053000 0.053000 1.200000 0.031000 0.037000
1560115674967257300	1300 53 1.200000 0.464000 0.560000 1400 45 1.000000 1.632000 1.749000 600 49 1.000000 0.053000 0.053000 1.200000 0.025000 0.030000
1560115675473371092	1300 53 1.200000 0.474000 0.572000 1400 45 1.000000 1.792000 1.922000 600 49 1.000000 0.052000 0.052000 1.200000 0.036000 0.043000
1560115675979758092	1300 52 1.200000 0.464000 0.560000 1400 45 1.000000 1.607000 1.722000 600 49 1.000000 0.052000 0.052000 1.200000 0.025000 0.030000
1560115676485772258	1300 52 1.200000 0.464000 0.560000 1400 45 1.000000 1.606000 1.721000 600 49 1.000000 0.053000 0.053000 1.200000 0.024000 0.028000
1560115676991709967	1300 52 1.200000 0.464000 0.560000 1400 45 1.000000 1.595000 1.709000 600 49 1.000000 0.052000 0.052000 1.200000 0.025000 0.030000
1560115677497704675	1300 53 1.200000 0.470000 0.567000 1400 45 1.000000 1.772000 1.901000 600 49 1.000000 0.052000 0.052000 1.200000 0.035000 0.042000
1560115678004252717	1300 53 1.200000 0.464000 0.560000 1400 45 1.000000 1.605000 1.720000 600 49 1.000000 0.053000 0.053000 1.200000 0.025000 0.030000
1560115678510353342	1300 53 1.200000 0.465000 0.561000 1400 45 1.000000 1.614000 1.731000 600 49 1.000000 0.053000 0.053000 1.200000 0.025000 0.030000
1560115679016441884	1300 53 1.200000 0.464000 0.560000 1400 45 1.000000 1.613000 1.729000 600 49 1.000000 0.052000 0.052000 1.200000 0.025000 0.030000
1560115679522592759	1300 53 1.200000 0.471000 0.568000 1400 45 1.000000 1.748000 1.875000 600 49 1.000000 0.053000 0.053000 1.200000 0.033000 0.039000
1560115680028493967	1300 53 1.200000 0.464000 0.560000 1400 45 1.000000 1.614000 1.730000 600 49 1.000000 0.053000 0.053000 1.200000 0.025000 0.030000
1560115680534427509	1300 53 1.200000 0.464000 0.560000 1400 45 1.000000 1.716000 1.841000 600 49 1.000000 0.052000 0.052000 1.200000 0.030000 0.036000
1560115681040488301	1300 53 1.200000 0.464000 0.560000 1400 45 1.000000 1.613000 1.729000 600 49 1.000000 0.053000 0.053000 1.200000 0.025000 0.030000
1560115681546454967	1300 53 1.200000 0.463000 0.558000 1400 45 1.000000 1.630000 1.747000 600 49 1.000000 0.053000 0.053000 1.200000 0.028000 0.033000
1560115682052576176	1300 53 1.200000 0.464000 0.560000 1400 45 1.000000 1.748000 1.875000 600 49 1.000000 0.053000 0.053000 1.200000 0.025000 0.030000
1560115682558612801	1300 53 1.200000 0.464000 0.560000 1400 45 1.000000 1.722000 1.845000 600 49 1.000000 0.053000 0.053000 1.200000 0.026000 0.031000
1560115683064578467	1300 53 1.200000 0.464000 0.560000 1400 45 1.000000 1.613000 1.729000 600 49 1.000000 0.053000 0.053000 1.200000 0.026000 0.031000
1560115683570315009	1300 53 1.200000 0.465000 0.561000 1400 45 1.000000 1.640000 1.758000 600 49 1.000000 0.053000 0.053000 1.200000 0.026000 0.031000
1560115684076251176	1300 53 1.200000 0.466000 0.562000 1400 45 1.000000 1.714000 1.839000 600 49 1.000000 0.052000 0.052000 1.200000 0.032000 0.038000
1560115684582120468	1300 53 1.200000 0.465000 0.561000 1400 45 1.000000 1.719000 1.844000 600 49 1.000000 0.053000 0.053000 1.200000 0.029000 0.035000
1560115685088866759	1300 53 1.200000 0.464000 0.560000 1400 45 1.000000 1.615000 1.731000 600 49 1.000000 0.053000 0.053000 1.200000 0.026000 0.031000
1560115685596046884	1300 53 1.200000 0.465000 0.561000 1400 45 1.000000 1.622000 1.738000 600 49 1.000000 0.053000 0.053000 1.200000 0.026000 0.031000
1560115686102357218	1300 53 1.200000 0.464000 0.560000 1400 45 1.000000 1.697000 1.819000 600 49 1.000000 0.052000 0.052000 1.200000 0.031000 0.037000
1560115686608378135	1300 53 1.200000 0.465000 0.561000 1400 45 1.000000 1.622000 1.738000 600 49 1.000000 0.053000 0.053000 1.200000 0.026000 0.031000
1560115687114352093	1300 53 1.200000 0.464000 0.560000 1400 45 1.000000 1.604000 1.719000 600 49 1.000000 0.052000 0.052000 1.200000 0.025000 0.030000
1560115687620319760	1300 52 1.200000 0.463000 0.558000 1400 45 1.000000 1.638000 1.755000 600 49 1.000000 0.052000 0.052000 1.200000 0.026000 0.031000
1560115688126393468	1300 53 1.200000 0.471000 0.568000 1400 45 1.000000 1.731000 1.857000 600 49 1.000000 0.052000 0.052000 1.200000 0.030000 0.036000
1560115688632477718	1300 52 1.200000 0.465000 0.561000 1400 45 1.000000 1.712000 1.836000 600 49 1.000000 0.052000 0.052000 1.200000 0.029000 0.035000
1560115689138335885	1300 53 1.200000 0.463000 0.558000 1400 45 1.000000 1.620000 1.736000 600 49 1.000000 0.052000 0.052000 1.200000 0.026000 0.031000
1560115689644372968	1300 53 1.200000 0.464000 0.560000 1400 45 1.000000 1.628000 1.745000 600 49 1.000000 0.053000 0.053000 1.200000 0.026000 0.031000
1560115690150472552	1300 53 1.200000 0.468000 0.564000 1400 45 1.000000 1.759000 1.887000 600 49 1.000000 0.053000 0.053000 1.200000 0.032000 0.038000
1560115690656537552	1300 53 1.200000 0.465000 0.561000 1400 45 1.000000 1.714000 1.837000 600 49 1.000000 0.053000 0.053000 1.200000 0.031000 0.037000
1560115691162497677	1300 53 1.200000 0.463000 0.558000 1400 45 1.000000 1.622000 1.738000 600 49 1.000000 0.052000 0.052000 1.200000 0.025000 0.030000
1560115691668517510	1300 53 1.200000 0.464000 0.560000 1400 45 1.000000 1.603000 1.718000 600 49 1.000000 0.052000 0.052000 1.200000 0.025000 0.030000
1560115692174382510	1300 53 1.200000 0.473000 0.570000 1400 45 1.000000 1.751000 1.878000 600 49 1.000000 0.053000 0.053000 1.200000 0.031000 0.037000
1560115692680468969	1300 53 1.200000 0.464000 0.560000 1400 45 1.000000 1.656000 1.775000 600 49 1.000000 0.052000 0.052000 1.200000 0.030000 0.036000
1560115693186311677	1300 53 1.200000 0.464000 0.560000 1400 45 1.000000 1.630000 1.747000 600 49 1.000000 0.052000 0.052000 1.200000 0.026000 0.031000
1560115693692232635	1300 53 1.200000 0.465000 0.561000 1400 45 1.000000 1.604000 1.719000 600 49 1.000000 0.052000 0.052000 1.200000 0.025000 0.030000
1560115694198151427	1300 53 1.200000 0.464000 0.560000 1400 45 1.000000 1.619000 1.735000 600 49 1.000000 0.052000 0.052000 1.200000 0.026000 0.031000
1560115694704211261	1300 52 1.200000 0.464000 0.560000 1400 45 1.000000 1.690000 1.811000 600 49 1.000000 0.053000 0.053000 1.200000 0.029000 0.035000
1560115695210106761	1300 53 1.200000 0.464000 0.560000 1400 45 1.000000 1.627000 1.744000 600 49 1.000000 0.052000 0.052000 1.200000 0.026000 0.031000
1560115695716954469	1300 52 1.200000 0.463000 0.558000 1400 45 1.000000 1.614000 1.731000 600 49 1.000000 0.053000 0.053000 1.200000 0.026000 0.031000
1560115696223540969	1300 52 1.200000 0.465000 0.561000 1400 45 1.000000 1.621000 1.737000 600 50 1.000000 0.053000 0.053000 1.200000 0.027000 0.032000
1560115696729708302	1300 53 1.200000 0.472000 0.569000 1400 45 1.000000 1.710000 1.833000 600 49 1.000000 0.053000 0.053000 1.200000 0.031000 0.037000
1560115697235647511	1300 53 1.200000 0.465000 0.561000 1400 45 1.000000 1.602000 1.717000 600 49 1.000000 0.053000 0.053000 1.200000 0.025000 0.030000
1560115697741542261	1300 52 1.200000 0.463000 0.558000 1400 45 1.000000 1.603000 1.718000 600 49 1.000000 0.053000 0.053000 1.200000 0.026000 0.031000
1560115698247797386	1300 52 1.200000 0.465000 0.561000 1400 45 1.000000 1.600000 1.715000 600 49 1.000000 0.052000 0.052000 1.200000 0.025000 0.030000
1560115698753816969	1300 52 1.200000 0.465000 0.561000 1400 45 1.000000 1.828000 1.961000 600 49 1.000000 0.052000 0.052000 1.200000 0.030000 0.036000
1560115699259866261	1300 53 1.200000 0.464000 0.560000 1400 45 1.000000 1.610000 1.725000 600 49 1.000000 0.053000 0.053000 1.200000 0.026000 0.031000
1560115699765815303	1300 52 1.200000 0.465000 0.561000 1400 45 1.000000 1.614000 1.730000 600 49 1.000000 0.053000 0.053000 1.200000 0.025000 0.030000
1560115700271800928	1300 52 1.200000 0.464000 0.560000 1400 45 1.000000 1.599000 1.714000 600 49 1.000000 0.052000 0.052000 1.200000 0.026000 0.031000
1560115700777807970	1300 53 1.200000 0.464000 0.560000 1400 45 1.000000 1.852000 1.987000 600 49 1.000000 0.053000 0.053000 1.200000 0.031000 0.037000
1560115701283726720	1300 52 1.200000 0.463000 0.558000 1400 45 1.000000 1.599000 1.714000 600 49 1.000000 0.052000 0.052000 1.200000 0.026000 0.031000
1560115701789666970	1300 53 1.200000 0.463000 0.558000 1400 45 1.000000 1.627000 1.744000 600 49 1.000000 0.053000 0.053000 1.200000 0.026000 0.031000
1560115702295523178	1300 53 1.200000 0.464000 0.560000 1400 45 1.000000 1.599000 1.714000 600 49 1.000000 0.053000 0.053000 1.200000 0.026000 0.031000
1560115702801475386	1300 53 1.200000 0.464000 0.560000 1400 45 1.000000 1.835000 1.968000 600 49 1.000000 0.052000 0.052000 1.200000 0.037000 0.044000
1560115703307523887	1300 53 1.200000 0.464000 0.560000 1400 45 1.000000 1.594000 1.708000 600 49 1.000000 0.052000 0.052000 1.200000 0.025000 0.030000
1560115703813436220	1300 52 1.200000 0.465000 0.561000 1400 45 1.000000 1.607000 1.722000 600 49 1.000000 0.052000 0.052000 1.200000 0.025000 0.030000
1560115704319389928	1300 52 1.200000 0.464000 0.560000 1400 45 1.000000 1.596000 1.710000 600 48 1.000000 0.053000 0.053000 1.200000 0.025000 0.030000
1560115704825603678	1300 53 1.200000 0.465000 0.561000 1400 45 1.000000 1.614000 1.730000 600 49 1.000000 0.053000 0.053000 1.200000 0.025000 0.030000
1560115705331618012	1300 52 1.200000 0.464000 0.560000 1400 45 1.000000 1.601000 1.716000 600 49 1.000000 0.053000 0.053000 1.200000 0.025000 0.030000
1560115705837549012	1300 53 1.200000 0.464000 0.560000 1400 45 1.000000 1.621000 1.737000 600 49 1.000000 0.053000 0.053000 1.200000 0.026000 0.031000
1560115706343481720	1300 52 1.200000 0.464000 0.560000 1400 45 1.000000 1.602000 1.717000 600 49 1.000000 0.053000 0.053000 1.200000 0.025000 0.030000
1560115706849305304	1300 53 1.200000 0.465000 0.561000 1400 45 1.000000 1.607000 1.722000 600 49 1.000000 0.053000 0.053000 1.200000 0.026000 0.031000
1560115707355236262	1300 53 1.200000 0.465000 0.561000 1400 45 1.000000 1.591000 1.705000 600 49 1.000000 0.053000 0.053000 1.200000 0.025000 0.030000
1560115707861181220	1300 52 1.200000 0.465000 0.561000 1400 45 1.000000 1.597000 1.711000 600 49 1.000000 0.053000 0.053000 1.200000 0.025000 0.030000
1560115708367141929	1300 52 1.200000 0.464000 0.560000 1400 45 1.000000 1.602000 1.717000 600 49 1.000000 0.052000 0.052000 1.200000 0.026000 0.031000
1560115708873425637	1300 53 1.200000 0.464000 0.560000 1400 45 1.000000 1.697000 1.820000 600 50 1.000000 0.053000 0.053000 1.200000 0.027000 0.032000
1560115709379407096	1300 53 1.200000 0.470000 0.567000 1400 45 1.000000 1.592000 1.706000 600 49 1.000000 0.053000 0.053000 1.200000 0.025000 0.030000
1560115709885291846	1300 52 1.200000 0.463000 0.558000 1400 45 1.000000 1.590000 1.704000 600 49 1.000000 0.052000 0.052000 1.200000 0.026000 0.031000
1560115710391310637	1300 53 1.200000 0.464000 0.560000 1400 45 1.000000 1.598000 1.713000 600 49 1.000000 0.053000 0.053000 1.200000 0.025000 0.030000
1560115710897397262	1300 53 1.200000 0.463000 0.558000 1400 45 1.000000 1.596000 1.710000 600 49 1.000000 0.053000 0.053000 1.200000 0.027000 0.032000
1560115711403376762	1300 53 1.200000 0.467000 0.563000 1400 45 1.000000 1.833000 1.966000 600 49 1.000000 0.053000 0.053000 1.200000 0.033000 0.039000
1560115711909194054	1300 53 1.200000 0.464000 0.560000 1400 45 1.000000 1.598000 1.713000 600 49 1.000000 0.052000 0.052000 1.200000 0.026000 0.031000
1560115712415228513	1300 52 1.200000 0.464000 0.560000 1400 45 1.000000 1.614000 1.730000 600 48 1.000000 0.053000 0.053000 1.200000 0.026000 0.031000
1560115712921192013	1300 53 1.200000 0.464000 0.560000 1400 45 1.000000 1.600000 1.715000 600 49 1.000000 0.053000 0.053000 1.200000 0.026000 0.031000
1560115713427178888	1300 53 1.200000 0.474000 0.572000 1400 45 1.000000 1.779000 1.908000 600 49 1.000000 0.052000 0.052000 1.200000 0.036000 0.043000
1560115713933077429	1300 53 1.200000 0.464000 0.560000 1400 45 1.000000 1.602000 1.717000 600 49 1.000000 0.053000 0.053000 1.200000 0.025000 0.030000
1560115714439062596	1300 52 1.200000 0.463000 0.558000 1400 45 1.000000 1.590000 1.704000 600 49 1.000000 0.053000 0.053000 1.200000 0.025000 0.030000
1560115714944958888	1300 53 1.200000 0.463000 0.558000 1400 45 1.000000 1.647000 1.765000 600 49 1.000000 0.053000 0.053000 1.200000 0.025000 0.030000
1560115715451003305	1300 53 1.200000 0.464000 0.560000 1400 45 1.000000 1.794000 1.924000 600 49 1.000000 0.053000 0.053000 1.200000 0.035000 0.042000
1560115715956914596	1300 52 1.200000 0.465000 0.561000 1400 45 1.000000 1.601000 1.716000 600 49 1.000000 0.053000 0.053000 1.200000 0.025000 0.030000
1560115716462865096	1300 52 1.200000 0.463000 0.558000 1400 45 1.000000 1.595000 1.709000 600 49 1.000000 0.052000 0.052000 1.200000 0.025000 0.030000
1560115716968786513	1300 53 1.200000 0.464000 0.560000 1400 45 1.000000 1.687000 1.808000 600 49 1.000000 0.053000 0.053000 1.200000 0.029000 0.035000
1560115717474656430	1300 53 1.200000 0.463000 0.558000 1400 45 1.000000 1.598000 1.713000 600 49 1.000000 0.053000 0.053000 1.200000 0.025000 0.030000
1560115717980583722	1300 53 1.200000 0.466000 0.562000 1400 45 1.000000 1.594000 1.708000 600 49 1.000000 0.052000 0.052000 1.200000 0.025000 0.030000
1560115718486582930	1300 52 1.200000 0.464000 0.560000 1400 45 1.000000 1.605000 1.720000 600 49 1.000000 0.052000 0.052000 1.200000 0.025000 0.030000
1560115718992540597	1300 53 1.200000 0.464000 0.560000 1400 45 1.000000 1.614000 1.730000 600 49 1.000000 0.053000 0.053000 1.200000 0.025000 0.030000
1560115719498612597	1300 53 1.200000 0.464000 0.560000 1400 45 1.000000 1.695000 1.818000 600 50 1.000000 0.053000 0.053000 1.200000 0.025000 0.030000
1560115720004469555	1300 53 1.200000 0.464000 0.560000 1400 45 1.000000 1.812000 1.944000 600 49 1.000000 0.053000 0.053000 1.200000 0.025000 0.030000
1560115720510328680	1300 53 1.200000 0.464000 0.560000 1400 45 1.000000 1.610000 1.725000 600 49 1.000000 0.052000 0.052000 1.200000 0.025000 0.030000
1560115721016245014	1300 53 1.200000 0.464000 0.560000 1400 45 1.000000 1.617000 1.733000 600 49 1.000000 0.053000 0.053000 1.200000 0.025000 0.030000
1560115721522685764	1300 52 1.200000 0.464000 0.560000 1400 45 1.000000 1.684000 1.805000 600 49 1.000000 0.052000 0.052000 1.200000 0.025000 0.030000
1560115722028614555	1300 53 1.200000 0.467000 0.563000 1400 45 1.000000 1.817000 1.949000 600 49 1.000000 0.053000 0.053000 1.200000 0.025000 0.030000
1560115722534487347	1300 52 1.200000 0.463000 0.558000 1400 45 1.000000 1.613000 1.729000 600 49 1.000000 0.053000 0.053000 1.200000 0.026000 0.031000
1560115723040388681	1300 52 1.200000 0.464000 0.560000 1400 45 1.000000 1.603000 1.718000 600 49 1.000000 0.053000 0.053000 1.200000 0.026000 0.031000
1560115723546380722	1300 52 1.200000 0.464000 0.560000 1400 45 1.000000 1.697000 1.820000 600 49 1.000000 0.053000 0.053000 1.200000 0.029000 0.035000
1560115724052461389	1300 53 1.200000 0.465000 0.561000 1400 45 1.000000 1.602000 1.717000 600 49 1.000000 0.053000 0.053000 1.200000 0.025000 0.030000
1560115724558315056	1300 53 1.200000 0.464000 0.560000 1400 45 1.000000 1.611000 1.726000 600 49 1.000000 0.053000 0.053000 1.200000 0.026000 0.031000
1560115725064208639	1300 53 1.200000 0.464000 0.560000 1400 45 1.000000 1.605000 1.720000 600 50 1.000000 0.052000 0.052000 1.200000 0.026000 0.031000
1560115725570269681	1300 52 1.200000 0.464000 0.560000 1400 45 1.000000 1.707000 1.829000 600 49 1.000000 0.052000 0.052000 1.200000 0.030000 0.036000
1560115726076978598	1300 53 1.200000 0.470000 0.567000 1400 45 1.000000 1.591000 1.705000 600 49 1.000000 0.052000 0.052000 1.200000 0.025000 0.030000
1560115726583114681	1300 53 1.200000 0.464000 0.560000 1400 45 1.000000 1.614000 1.730000 600 49 1.000000 0.053000 0.053000 1.200000 0.027000 0.032000
1560115727089547056	1300 52 1.200000 0.463000 0.558000 1400 45 1.000000 1.602000 1.717000 600 49 1.000000 0.053000 0.053000 1.200000 0.026000 0.031000
1560115727595595139	1300 52 1.200000 0.463000 0.558000 1400 45 1.000000 1.701000 1.823000 600 49 1.000000 0.053000 0.053000 1.200000 0.029000 0.035000
1560115728101608014	1300 53 1.200000 0.465000 0.561000 1400 45 1.000000 1.619000 1.735000 600 49 1.000000 0.053000 0.053000 1.200000 0.026000 0.031000
1560115728607535640	1300 53 1.200000 0.465000 0.561000 1400 45 1.000000 1.591000 1.705000 600 49 1.000000 0.052000 0.052000 1.200000 0.026000 0.031000
1560115729113928806	1300 52 1.200000 0.463000 0.558000 1400 45 1.000000 1.602000 1.717000 600 49 1.000000 0.052000 0.052000 1.200000 0.025000 0.030000
1560115729620032306	1300 52 1.200000 0.465000 0.561000 1400 45 1.000000 1.688000 1.811000 600 49 1.000000 0.053000 0.053000 1.200000 0.029000 0.035000
1560115730125900973	1300 53 1.200000 0.464000 0.560000 1400 45 1.000000 1.608000 1.723000 600 49 1.000000 0.053000 0.053000 1.200000 0.025000 0.030000
1560115730631931265	1300 53 1.200000 0.467000 0.563000 1400 45 1.000000 1.782000 1.912000 600 49 1.000000 0.053000 0.053000 1.200000 0.036000 0.043000
1560115731137803932	1300 53 1.200000 0.463000 0.558000 1400 45 1.000000 1.618000 1.734000 600 49 1.000000 0.053000 0.053000 1.200000 0.025000 0.030000
1560115731643892390	1300 52 1.200000 0.464000 0.560000 1400 45 1.000000 1.688000 1.811000 600 49 1.000000 0.052000 0.052000 1.200000 0.029000 0.035000
1560115732152301973	1300 53 1.200000 0.464000 0.560000 1400 45 1.000000 1.612000 1.728000 600 50 1.000000 0.052000 0.052000 1.200000 0.026000 0.031000
1560115732658224182	1300 53 1.200000 0.465000 0.561000 1400 45 1.000000 1.746000 1.873000 600 49 1.000000 0.053000 0.053000 1.200000 0.035000 0.042000
1560115733164902057	1300 52 1.200000 0.463000 0.558000 1400 45 1.000000 1.610000 1.725000 600 49 1.000000 0.052000 0.052000 1.200000 0.026000 0.031000
1560115733671204723	1300 53 1.200000 0.464000 0.560000 1400 45 1.000000 1.683000 1.805000 600 49 1.000000 0.052000 0.052000 1.200000 0.031000 0.037000
1560115734177211057	1300 53 1.200000 0.464000 0.560000 1400 45 1.000000 1.608000 1.723000 600 49 1.000000 0.053000 0.053000 1.200000 0.025000 0.030000
1560115734683228974	1300 53 1.200000 0.463000 0.558000 1400 45 1.000000 1.734000 1.860000 600 49 1.000000 0.052000 0.052000 1.200000 0.030000 0.036000
1560115735189186640	1300 53 1.200000 0.463000 0.558000 1400 45 1.000000 1.592000 1.706000 600 49 1.000000 0.053000 0.053000 1.200000 0.025000 0.030000
1560115735696363432	1300 53 1.200000 0.463000 0.558000 1400 45 1.000000 1.687000 1.810000 600 49 1.000000 0.052000 0.052000 1.200000 0.028000 0.033000
1560115736202389390	1300 53 1.200000 0.464000 0.560000 1400 45 1.000000 1.610000 1.725000 600 49 1.000000 0.053000 0.053000 1.200000 0.025000 0.030000
1560115736708382016	1300 53 1.200000 0.464000 0.560000 1400 45 1.000000 1.726000 1.851000 600 49 1.000000 0.053000 0.053000 1.200000 0.028000 0.033000
1560115737214257391	1300 52 1.200000 0.464000 0.560000 1400 45 1.000000 1.613000 1.729000 600 49 1.000000 0.052000 0.052000 1.200000 0.025000 0.030000
1560115737720360849	1300 52 1.200000 0.463000 0.558000 1400 45 1.000000 1.681000 1.803000 600 49 1.000000 0.053000 0.053000 1.200000 0.030000 0.036000
1560115738226179307	1300 53 1.200000 0.464000 0.560000 1400 45 1.000000 1.620000 1.736000 600 49 1.000000 0.053000 0.053000 1.200000 0.025000 0.030000
1560115738732119516	1300 53 1.200000 0.464000 0.560000 1400 45 1.000000 1.751000 1.878000 600 49 1.000000 0.052000 0.052000 1.200000 0.028000 0.033000
1560115739237950599	1300 53 1.200000 0.464000 0.560000 1400 45 1.000000 1.596000 1.710000 600 49 1.000000 0.053000 0.053000 1.200000 0.024000 0.028000
1560115739743977391	1300 53 1.200000 0.463000 0.558000 1400 45 1.000000 1.673000 1.795000 600 49 1.000000 0.053000 0.053000 1.200000 0.031000 0.037000
1560115740250003058	1300 53 1.200000 0.464000 0.560000 1400 45 1.000000 1.603000 1.718000 600 49 1.000000 0.052000 0.052000 1.200000 0.025000 0.030000
1560115740755928141	1300 53 1.200000 0.464000 0.560000 1400 45 1.000000 1.782000 1.912000 600 49 1.000000 0.053000 0.053000 1.200000 0.028000 0.033000
1560115741261806683	1300 53 1.200000 0.465000 0.561000 1400 45 1.000000 1.599000 1.714000 600 49 1.000000 0.052000 0.052000 1.200000 0.025000 0.030000
1560115741767918683	1300 53 1.200000 0.464000 0.560000 1400 45 1.000000 1.686000 1.809000 600 49 1.000000 0.052000 0.052000 1.200000 0.026000 0.031000
1560115742273753475	1300 52 1.200000 0.464000 0.560000 1400 45 1.000000 1.614000 1.730000 600 49 1.000000 0.052000 0.052000 1.200000 0.026000 0.031000
1560115742779605891	1300 53 1.200000 0.463000 0.558000 1400 45 1.000000 1.610000 1.725000 600 50 1.000000 0.053000 0.053000 1.200000 0.026000 0.031000
1560115743285520933	1300 53 1.200000 0.464000 0.560000 1400 45 1.000000 1.612000 1.728000 600 49 1.000000 0.053000 0.053000 1.200000 0.027000 0.032000
1560115743791729641	1300 53 1.200000 0.463000 0.558000 1400 45 1.000000 1.699000 1.823000 600 49 1.000000 0.053000 0.053000 1.200000 0.030000 0.036000
1560115744297640558	1300 52 1.200000 0.464000 0.560000 1400 45 1.000000 1.610000 1.725000 600 49 1.000000 0.053000 0.053000 1.200000 0.026000 0.031000
1560115744803633975	1300 53 1.200000 0.463000 0.558000 1400 45 1.000000 1.596000 1.710000 600 50 1.000000 0.052000 0.052000 1.200000 0.025000 0.030000
1560115745310255558	1300 53 1.200000 0.463000 0.558000 1400 45 1.000000 1.600000 1.715000 600 49 1.000000 0.052000 0.052000 1.200000 0.027000 0.032000
1560115745816361058	1300 53 1.200000 0.463000 0.558000 1400 45 1.000000 1.686000 1.807000 600 49 1.000000 0.053000 0.053000 1.200000 0.029000 0.035000
1560115746322377975	1300 53 1.200000 0.464000 0.560000 1400 45 1.000000 1.596000 1.710000 600 48 1.000000 0.053000 0.053000 1.200000 0.025000 0.030000
1560115746828374308	1300 52 1.200000 0.464000 0.560000 1400 45 1.000000 1.592000 1.706000 600 48 1.000000 0.053000 0.053000 1.200000 0.025000 0.030000
1560115747334388183	1300 53 1.200000 0.467000 0.563000 1400 45 1.000000 1.594000 1.708000 600 49 1.000000 0.053000 0.053000 1.200000 0.027000 0.032000
1560115747840488434	1300 53 1.200000 0.465000 0.561000 1400 45 1.000000 1.646000 1.764000 600 49 1.000000 0.053000 0.053000 1.200000 0.028000 0.033000
1560115748346378934	1300 53 1.200000 0.464000 0.560000 1400 45 1.000000 1.598000 1.713000 600 49 1.000000 0.053000 0.053000 1.200000 0.026000 0.031000
1560115748852409934	1300 52 1.200000 0.465000 0.561000 1400 45 1.000000 1.618000 1.734000 600 49 1.000000 0.053000 0.053000 1.200000 0.025000 0.030000
1560115749358338350	1300 53 1.200000 0.470000 0.567000 1400 45 1.000000 1.794000 1.924000 600 49 1.000000 0.052000 0.052000 1.200000 0.036000 0.043000
1560115749864388725	1300 53 1.200000 0.464000 0.560000 1400 45 1.000000 1.684000 1.805000 600 49 1.000000 0.053000 0.053000 1.200000 0.029000 0.035000
1560115750370367017	1300 53 1.200000 0.464000 0.560000 1400 45 1.000000 1.605000 1.720000 600 49 1.000000 0.053000 0.053000 1.200000 0.026000 0.031000
1560115750876429267	1300 52 1.200000 0.464000 0.560000 1400 45 1.000000 1.594000 1.708000 600 49 1.000000 0.053000 0.053000 1.200000 0.025000 0.030000
1560115751382339017	1300 53 1.200000 0.473000 0.570000 1400 45 1.000000 1.790000 1.920000 600 49 1.000000 0.053000 0.053000 1.200000 0.035000 0.042000
1560115751888143309	1300 46 1.200000 0.464000 0.560000 1400 44 1.000000 1.682000 1.804000 600 48 1.000000 0.052000 0.052000 1.200000 0.028000 0.033000
1560115752393759601	1300 43 1.200000 0.074000 0.090000 1400 42 1.000000 0.178000 0.191000 600 46 1.000000 0.052000 0.052000 1.200000 0.023000 0.027000
