#Timestamp	CPU(0) Frequency(MHz)	CPU(0) Temperature(C)	A7 Voltage(V)	A7 Current(A)	A7 Power(W)	CPU(4) Frequency(MHz)	CPU(4) Temperature(C)	A15 Voltage(V)	A15 Current(A)	A15 Power(W)	GPU Frequency(MHz)	GPU Temperature(C)	GPU Voltage(V)	GPU Current(A)	GPU Power(W)	RAM Voltage(V)	RAM Current(A)	RAM Power(W)
1559809282550278816	300 29 0.900000 0.047000 0.042000 1400 28 1.000000 0.189000 0.197000 600 33 1.000000 0.050000 0.050000 1.200000 0.053000 0.064000
1559809283074335483	300 34 0.900000 0.038000 0.034000 1400 29 1.000000 0.307000 0.330000 600 34 1.000000 0.050000 0.050000 1.200000 0.041000 0.049000
1559809283598056525	300 35 0.900000 0.016000 0.014000 1400 30 1.000000 0.865000 0.923000 600 34 1.000000 0.050000 0.050000 1.200000 0.055000 0.066000
1559809284121668067	300 36 0.900000 0.017000 0.015000 1400 30 1.000000 0.859000 0.917000 600 35 1.000000 0.050000 0.050000 1.200000 0.055000 0.066000
1559809284646498733	300 36 0.900000 0.030000 0.027000 1400 31 1.000000 0.864000 0.922000 600 35 1.000000 0.051000 0.051000 1.200000 0.038000 0.045000
1559809285170142817	300 36 0.900000 0.026000 0.023000 1400 31 1.000000 0.865000 0.922000 600 35 1.000000 0.050000 0.050000 1.200000 0.039000 0.047000
1559809285693383900	300 36 0.900000 0.015000 0.013000 1400 31 1.000000 0.864000 0.921000 600 35 1.000000 0.050000 0.050000 1.200000 0.030000 0.036000
1559809286217218025	300 36 0.900000 0.016000 0.014000 1400 31 1.000000 0.868000 0.927000 600 35 1.000000 0.050000 0.050000 1.200000 0.029000 0.035000
1559809286743395108	300 36 0.900000 0.025000 0.022000 1400 31 1.000000 0.867000 0.925000 600 35 1.000000 0.050000 0.050000 1.200000 0.038000 0.045000
1559809287266895900	300 37 0.900000 0.038000 0.034000 1400 31 1.000000 0.869000 0.928000 600 35 1.000000 0.050000 0.050000 1.200000 0.045000 0.054000
1559809287790532275	300 37 0.900000 0.026000 0.023000 1400 31 1.000000 0.865000 0.923000 600 35 1.000000 0.050000 0.050000 1.200000 0.030000 0.036000
1559809288315474984	300 37 0.900000 0.016000 0.014000 1400 31 1.000000 0.867000 0.925000 600 36 1.000000 0.050000 0.050000 1.200000 0.030000 0.036000
1559809288839222567	300 37 0.900000 0.022000 0.020000 1400 31 1.000000 0.869000 0.927000 600 36 1.000000 0.051000 0.051000 1.200000 0.037000 0.044000
1559809289367404984	300 37 0.900000 0.016000 0.014000 1400 31 1.000000 0.865000 0.922000 600 36 1.000000 0.050000 0.050000 1.200000 0.030000 0.036000
1559809289891444067	300 37 0.900000 0.038000 0.034000 1400 31 1.000000 0.870000 0.929000 600 36 1.000000 0.050000 0.050000 1.200000 0.046000 0.055000
1559809290414408526	300 37 0.900000 0.016000 0.014000 1400 31 1.000000 0.866000 0.924000 600 36 1.000000 0.050000 0.050000 1.200000 0.030000 0.036000
1559809290938004192	300 37 0.900000 0.021000 0.019000 1400 31 1.000000 0.871000 0.930000 600 36 1.000000 0.050000 0.050000 1.200000 0.034000 0.041000
1559809291461656817	300 37 0.900000 0.016000 0.014000 1400 31 1.000000 0.866000 0.924000 600 36 1.000000 0.050000 0.050000 1.200000 0.030000 0.036000
1559809291987139401	300 37 0.900000 0.024000 0.021000 1400 31 1.000000 0.866000 0.924000 600 36 1.000000 0.050000 0.050000 1.200000 0.036000 0.043000
1559809292511485484	300 37 0.900000 0.023000 0.021000 1400 31 1.000000 0.865000 0.923000 600 36 1.000000 0.051000 0.051000 1.200000 0.036000 0.043000
1559809293034480651	300 37 0.900000 0.020000 0.018000 1400 32 1.000000 0.866000 0.924000 600 36 1.000000 0.051000 0.051000 1.200000 0.031000 0.037000
1559809293557203776	300 37 0.900000 0.014000 0.012000 1400 32 1.000000 0.868000 0.927000 600 36 1.000000 0.050000 0.050000 1.200000 0.030000 0.036000
1559809294084993776	300 37 0.900000 0.017000 0.015000 1400 32 1.000000 0.865000 0.923000 600 36 1.000000 0.051000 0.051000 1.200000 0.030000 0.036000
1559809294609209651	300 37 0.900000 0.023000 0.021000 1400 32 1.000000 0.868000 0.927000 600 36 1.000000 0.050000 0.050000 1.200000 0.047000 0.056000
1559809295132836526	300 37 0.900000 0.022000 0.020000 1400 32 1.000000 0.865000 0.923000 600 36 1.000000 0.051000 0.051000 1.200000 0.030000 0.036000
1559809295656186610	300 37 0.900000 0.027000 0.024000 1400 32 1.000000 0.868000 0.926000 600 36 1.000000 0.050000 0.050000 1.200000 0.028000 0.033000
1559809296179393943	300 37 0.900000 0.017000 0.015000 1400 32 1.000000 0.868000 0.927000 600 36 1.000000 0.050000 0.050000 1.200000 0.028000 0.033000
1559809296707266360	300 37 0.900000 0.016000 0.014000 1400 32 1.000000 0.865000 0.923000 600 36 1.000000 0.050000 0.050000 1.200000 0.028000 0.033000
1559809297232065860	300 37 0.900000 0.038000 0.034000 1400 32 1.000000 0.871000 0.930000 600 36 1.000000 0.050000 0.050000 1.200000 0.044000 0.053000
1559809297755511401	300 37 0.900000 0.027000 0.024000 1400 32 1.000000 0.868000 0.927000 600 36 1.000000 0.050000 0.050000 1.200000 0.031000 0.037000
1559809298278814318	300 37 0.900000 0.017000 0.015000 1400 32 1.000000 0.868000 0.926000 600 36 1.000000 0.051000 0.051000 1.200000 0.028000 0.033000
1559809298801886318	300 37 0.900000 0.014000 0.012000 1400 32 1.000000 0.867000 0.925000 600 36 1.000000 0.050000 0.050000 1.200000 0.029000 0.035000
1559809299327840443	300 37 0.900000 0.025000 0.022000 1400 32 1.000000 0.866000 0.924000 600 36 1.000000 0.051000 0.051000 1.200000 0.036000 0.043000
1559809299851898818	300 37 0.900000 0.030000 0.027000 1400 32 1.000000 0.872000 0.930000 600 36 1.000000 0.050000 0.050000 1.200000 0.038000 0.045000
1559809300375194985	300 37 0.900000 0.016000 0.014000 1400 32 1.000000 0.866000 0.924000 600 36 1.000000 0.050000 0.050000 1.200000 0.027000 0.032000
1559809300898139902	300 37 0.900000 0.016000 0.014000 1400 32 1.000000 0.869000 0.928000 600 36 1.000000 0.051000 0.051000 1.200000 0.028000 0.033000
1559809301421607652	300 37 0.900000 0.016000 0.014000 1400 32 1.000000 0.868000 0.927000 600 36 1.000000 0.050000 0.050000 1.200000 0.028000 0.033000
1559809301944657027	300 37 0.900000 0.032000 0.029000 1400 32 1.000000 0.869000 0.928000 600 36 1.000000 0.050000 0.050000 1.200000 0.050000 0.060000
1559809302467812485	300 37 0.900000 0.019000 0.017000 1400 32 1.000000 0.868000 0.927000 600 36 1.000000 0.050000 0.050000 1.200000 0.029000 0.035000
1559809302990978735	300 37 0.900000 0.016000 0.014000 1400 32 1.000000 0.867000 0.925000 600 36 1.000000 0.050000 0.050000 1.200000 0.029000 0.035000
1559809303514105152	300 37 0.900000 0.016000 0.014000 1400 32 1.000000 0.869000 0.928000 600 36 1.000000 0.050000 0.050000 1.200000 0.029000 0.035000
1559809304038933902	300 37 0.900000 0.015000 0.013000 1400 32 1.000000 0.866000 0.924000 600 36 1.000000 0.050000 0.050000 1.200000 0.033000 0.039000
1559809304562278736	300 37 0.900000 0.036000 0.032000 1400 32 1.000000 0.871000 0.930000 600 36 1.000000 0.051000 0.051000 1.200000 0.043000 0.051000
1559809305085730111	300 37 0.900000 0.014000 0.012000 1400 32 1.000000 0.865000 0.922000 600 36 1.000000 0.050000 0.050000 1.200000 0.029000 0.035000
1559809305608874319	300 37 0.900000 0.014000 0.012000 1400 32 1.000000 0.869000 0.927000 600 36 1.000000 0.051000 0.051000 1.200000 0.028000 0.033000
1559809306132914527	300 37 0.900000 0.014000 0.012000 1400 32 1.000000 0.867000 0.925000 600 36 1.000000 0.050000 0.050000 1.200000 0.029000 0.035000
1559809306663528819	300 37 0.900000 0.033000 0.030000 1400 32 1.000000 0.868000 0.926000 600 36 1.000000 0.051000 0.051000 1.200000 0.039000 0.047000
1559809307187295819	300 37 0.900000 0.038000 0.034000 1400 32 1.000000 0.874000 0.933000 600 36 1.000000 0.050000 0.050000 1.200000 0.047000 0.056000
1559809307710499236	300 37 0.900000 0.016000 0.014000 1400 32 1.000000 0.866000 0.924000 600 36 1.000000 0.051000 0.051000 1.200000 0.029000 0.035000
1559809308234977736	300 37 0.900000 0.015000 0.013000 1400 32 1.000000 0.869000 0.927000 600 36 1.000000 0.051000 0.051000 1.200000 0.030000 0.036000
1559809308758600153	300 37 0.900000 0.033000 0.030000 1400 32 1.000000 0.870000 0.929000 600 36 1.000000 0.051000 0.051000 1.200000 0.036000 0.043000
1559809309284099278	300 37 0.900000 0.030000 0.027000 1400 32 1.000000 0.868000 0.926000 600 36 1.000000 0.051000 0.051000 1.200000 0.035000 0.042000
1559809309807738570	300 37 0.900000 0.015000 0.013000 1400 32 1.000000 0.867000 0.925000 600 36 1.000000 0.051000 0.051000 1.200000 0.037000 0.044000
1559809310330940653	300 37 0.900000 0.014000 0.012000 1400 32 1.000000 0.867000 0.925000 600 36 1.000000 0.051000 0.051000 1.200000 0.030000 0.036000
1559809310854229736	300 37 0.900000 0.030000 0.027000 1400 32 1.000000 0.871000 0.930000 600 36 1.000000 0.050000 0.050000 1.200000 0.034000 0.041000
1559809311379705486	300 37 0.900000 0.014000 0.012000 1400 32 1.000000 0.865000 0.923000 600 36 1.000000 0.050000 0.050000 1.200000 0.030000 0.036000
1559809311903630903	300 38 0.900000 0.035000 0.032000 1400 32 1.000000 0.870000 0.929000 600 36 1.000000 0.050000 0.050000 1.200000 0.046000 0.055000
1559809312426958695	300 37 0.900000 0.014000 0.012000 1400 32 1.000000 0.866000 0.924000 600 36 1.000000 0.050000 0.050000 1.200000 0.030000 0.036000
1559809312950239987	300 38 0.900000 0.016000 0.014000 1400 32 1.000000 0.870000 0.929000 600 36 1.000000 0.050000 0.050000 1.200000 0.031000 0.037000
1559809313473623903	300 37 0.900000 0.017000 0.015000 1400 32 1.000000 0.867000 0.925000 600 36 1.000000 0.051000 0.051000 1.200000 0.032000 0.038000
1559809313998908403	300 37 0.900000 0.015000 0.013000 1400 32 1.000000 0.865000 0.923000 600 36 1.000000 0.051000 0.051000 1.200000 0.030000 0.036000
1559809314522845195	300 38 0.900000 0.037000 0.033000 1400 32 1.000000 0.870000 0.929000 600 36 1.000000 0.051000 0.051000 1.200000 0.046000 0.055000
1559809315046250029	300 38 0.900000 0.015000 0.013000 1400 32 1.000000 0.867000 0.925000 600 36 1.000000 0.051000 0.051000 1.200000 0.030000 0.036000
1559809315569152612	300 38 0.900000 0.014000 0.012000 1400 32 1.000000 0.869000 0.928000 600 36 1.000000 0.050000 0.050000 1.200000 0.029000 0.035000
1559809316092522737	300 38 0.900000 0.014000 0.012000 1400 32 1.000000 0.867000 0.925000 600 36 1.000000 0.050000 0.050000 1.200000 0.029000 0.035000
1559809316617573112	300 38 0.900000 0.032000 0.029000 1400 32 1.000000 0.868000 0.927000 600 36 1.000000 0.050000 0.050000 1.200000 0.037000 0.044000
1559809317142781029	300 38 0.900000 0.015000 0.013000 1400 32 1.000000 0.870000 0.929000 600 36 1.000000 0.051000 0.051000 1.200000 0.033000 0.039000
1559809317666208737	300 38 0.900000 0.014000 0.012000 1400 32 1.000000 0.869000 0.928000 600 36 1.000000 0.050000 0.050000 1.200000 0.031000 0.037000
1559809318189526821	300 38 0.900000 0.014000 0.012000 1400 32 1.000000 0.869000 0.928000 600 36 1.000000 0.050000 0.050000 1.200000 0.028000 0.033000
1559809318716305612	300 38 0.900000 0.014000 0.012000 1400 32 1.000000 0.866000 0.924000 600 36 1.000000 0.051000 0.051000 1.200000 0.028000 0.033000
1559809319241134362	300 38 0.900000 0.035000 0.032000 1400 32 1.000000 0.872000 0.931000 600 36 1.000000 0.050000 0.050000 1.200000 0.046000 0.055000
1559809319765469821	300 38 0.900000 0.032000 0.029000 1400 32 1.000000 0.867000 0.925000 600 36 1.000000 0.051000 0.051000 1.200000 0.033000 0.039000
1559809320288996612	300 36 0.900000 0.015000 0.013000 1400 32 1.000000 0.869000 0.928000 600 37 1.000000 0.050000 0.050000 1.200000 0.029000 0.035000
1559809320814300446	300 39 0.900000 0.019000 0.017000 1400 33 1.000000 1.659000 1.778000 600 43 1.000000 0.051000 0.051000 1.200000 0.095000 0.115000
1559809321345780529	300 41 0.900000 0.039000 0.035000 1400 34 1.000000 2.820000 3.039000 600 47 1.000000 0.051000 0.051000 1.200000 0.099000 0.119000
1559809321871644113	300 43 0.900000 0.070000 0.063000 1400 35 1.000000 2.817000 3.036000 600 49 1.000000 0.051000 0.051000 1.200000 0.110000 0.133000
1559809322396353029	300 43 0.900000 0.038000 0.034000 1400 36 1.000000 2.828000 3.045000 600 50 1.000000 0.051000 0.051000 1.200000 0.100000 0.121000
1559809322921216363	300 44 0.900000 0.040000 0.036000 1400 36 1.000000 2.827000 3.044000 600 51 1.000000 0.051000 0.051000 1.200000 0.100000 0.121000
1559809323446750571	300 45 0.900000 0.040000 0.036000 1400 37 1.000000 2.827000 3.044000 600 51 1.000000 0.051000 0.051000 1.200000 0.101000 0.122000
1559809323973454655	300 45 0.900000 0.040000 0.036000 1400 38 1.000000 2.830000 3.047000 600 52 1.000000 0.051000 0.051000 1.200000 0.101000 0.122000
1559809324498816780	300 46 0.900000 0.063000 0.057000 1400 38 1.000000 2.821000 3.038000 600 52 1.000000 0.051000 0.051000 1.200000 0.110000 0.133000
1559809325023690780	300 46 0.900000 0.040000 0.036000 1400 38 1.000000 2.833000 3.051000 600 52 1.000000 0.051000 0.051000 1.200000 0.101000 0.122000
1559809325548922071	300 46 0.900000 0.041000 0.037000 1400 38 1.000000 2.824000 3.041000 600 53 1.000000 0.051000 0.051000 1.200000 0.100000 0.121000
1559809326074826988	300 47 0.900000 0.039000 0.035000 1400 39 1.000000 2.836000 3.054000 600 53 1.000000 0.051000 0.051000 1.200000 0.101000 0.122000
1559809326600915780	300 47 0.900000 0.050000 0.045000 1400 39 1.000000 2.830000 3.047000 600 54 1.000000 0.051000 0.051000 1.200000 0.105000 0.127000
1559809327126404655	300 47 0.900000 0.060000 0.054000 1400 39 1.000000 2.833000 3.051000 600 54 1.000000 0.051000 0.051000 1.200000 0.107000 0.129000
1559809327651076822	300 47 0.900000 0.041000 0.037000 1400 39 1.000000 2.836000 3.057000 600 54 1.000000 0.051000 0.051000 1.200000 0.100000 0.121000
1559809328179691238	300 47 0.900000 0.040000 0.036000 1400 40 1.000000 2.839000 3.057000 600 54 1.000000 0.051000 0.051000 1.200000 0.101000 0.122000
1559809328711122197	300 48 0.900000 0.050000 0.045000 1400 40 1.000000 2.834000 3.052000 600 54 1.000000 0.051000 0.051000 1.200000 0.103000 0.124000
1559809329236106322	300 48 0.900000 0.054000 0.049000 1400 40 1.000000 2.835000 3.056000 600 55 1.000000 0.052000 0.052000 1.200000 0.106000 0.128000
1559809329761783905	300 48 0.900000 0.045000 0.041000 1400 40 1.000000 2.833000 3.053000 600 55 1.000000 0.051000 0.051000 1.200000 0.102000 0.123000
1559809330286781655	300 48 0.900000 0.042000 0.038000 1400 40 1.000000 2.841000 3.062000 600 55 1.000000 0.052000 0.052000 1.200000 0.101000 0.122000
1559809330812060780	300 48 0.900000 0.048000 0.043000 1400 40 1.000000 2.835000 3.053000 600 55 1.000000 0.051000 0.051000 1.200000 0.102000 0.123000
1559809331338792530	300 48 0.900000 0.041000 0.037000 1400 41 1.000000 2.840000 3.061000 600 55 1.000000 0.052000 0.052000 1.200000 0.101000 0.122000
1559809331863629447	300 48 0.900000 0.061000 0.055000 1400 41 1.000000 2.833000 3.053000 600 55 1.000000 0.052000 0.052000 1.200000 0.108000 0.130000
1559809332388585114	300 48 0.900000 0.045000 0.041000 1400 41 1.000000 2.843000 3.064000 600 55 1.000000 0.052000 0.052000 1.200000 0.101000 0.122000
1559809332913469114	300 49 0.900000 0.043000 0.039000 1400 41 1.000000 2.842000 3.063000 600 55 1.000000 0.052000 0.052000 1.200000 0.101000 0.122000
1559809333438263114	300 49 0.900000 0.051000 0.046000 1400 41 1.000000 2.841000 3.059000 600 56 1.000000 0.052000 0.052000 1.200000 0.101000 0.122000
1559809333965545322	300 49 0.900000 0.041000 0.037000 1400 41 1.000000 2.841000 3.062000 600 56 1.000000 0.052000 0.052000 1.200000 0.100000 0.121000
1559809334491030781	300 49 0.900000 0.060000 0.054000 1400 41 1.000000 2.840000 3.061000 600 56 1.000000 0.052000 0.052000 1.200000 0.108000 0.130000
1559809335016410906	300 49 0.900000 0.042000 0.038000 1400 41 1.000000 2.842000 3.063000 600 56 1.000000 0.052000 0.052000 1.200000 0.101000 0.122000
1559809335542488531	300 49 0.900000 0.051000 0.046000 1400 41 1.000000 2.844000 3.065000 600 56 1.000000 0.052000 0.052000 1.200000 0.102000 0.123000
1559809336067567448	300 49 0.900000 0.041000 0.037000 1400 41 1.000000 2.847000 3.069000 600 56 1.000000 0.052000 0.052000 1.200000 0.100000 0.121000
1559809336595996239	300 49 0.900000 0.051000 0.046000 1400 42 1.000000 2.834000 3.055000 600 56 1.000000 0.052000 0.052000 1.200000 0.105000 0.127000
1559809337121985864	300 49 0.900000 0.047000 0.042000 1400 42 1.000000 2.842000 3.063000 600 56 1.000000 0.052000 0.052000 1.200000 0.103000 0.124000
1559809337647843156	300 49 0.900000 0.053000 0.048000 1400 42 1.000000 2.841000 3.062000 600 56 1.000000 0.052000 0.052000 1.200000 0.103000 0.124000
1559809338172985365	300 49 0.900000 0.040000 0.036000 1400 42 1.000000 2.846000 3.065000 600 56 1.000000 0.052000 0.052000 1.200000 0.100000 0.121000
1559809338700514156	300 49 0.900000 0.041000 0.037000 1400 42 1.000000 2.836000 3.054000 600 56 1.000000 0.052000 0.052000 1.200000 0.100000 0.121000
1559809339226581698	300 50 0.900000 0.049000 0.044000 1400 42 1.000000 2.844000 3.062000 600 56 1.000000 0.052000 0.052000 1.200000 0.108000 0.130000
1559809339751902740	300 50 0.900000 0.052000 0.047000 1400 42 1.000000 2.834000 3.055000 600 56 1.000000 0.052000 0.052000 1.200000 0.104000 0.126000
1559809340277570198	300 50 0.900000 0.041000 0.037000 1400 42 1.000000 2.847000 3.066000 600 57 1.000000 0.052000 0.052000 1.200000 0.101000 0.122000
1559809340802632948	300 50 0.900000 0.041000 0.037000 1400 42 1.000000 2.846000 3.065000 600 57 1.000000 0.052000 0.052000 1.200000 0.100000 0.121000
1559809341329422948	300 50 0.900000 0.041000 0.037000 1400 42 1.000000 2.845000 3.066000 600 57 1.000000 0.052000 0.052000 1.200000 0.100000 0.121000
1559809341854650532	300 50 0.900000 0.062000 0.056000 1400 42 1.000000 2.842000 3.063000 600 57 1.000000 0.052000 0.052000 1.200000 0.110000 0.133000
1559809342379097365	300 50 0.900000 0.041000 0.037000 1400 42 1.000000 2.844000 3.065000 600 57 1.000000 0.052000 0.052000 1.200000 0.100000 0.121000
1559809342904200490	300 50 0.900000 0.041000 0.037000 1400 42 1.000000 2.849000 3.071000 600 57 1.000000 0.052000 0.052000 1.200000 0.100000 0.121000
1559809343429663907	300 50 0.900000 0.042000 0.038000 1400 42 1.000000 2.847000 3.069000 600 57 1.000000 0.052000 0.052000 1.200000 0.100000 0.121000
1559809343956413199	300 50 0.900000 0.045000 0.041000 1400 42 1.000000 2.849000 3.071000 600 57 1.000000 0.052000 0.052000 1.200000 0.102000 0.123000
1559809344482492157	300 50 0.900000 0.051000 0.046000 1400 42 1.000000 2.841000 3.062000 600 57 1.000000 0.052000 0.052000 1.200000 0.105000 0.127000
1559809345007934824	300 50 0.900000 0.042000 0.038000 1400 42 1.000000 2.849000 3.071000 600 57 1.000000 0.053000 0.053000 1.200000 0.100000 0.121000
1559809345533131615	300 50 0.900000 0.041000 0.037000 1400 42 1.000000 2.849000 3.071000 600 57 1.000000 0.052000 0.052000 1.200000 0.100000 0.121000
1559809346058311491	300 50 0.900000 0.042000 0.038000 1400 42 1.000000 2.851000 3.073000 600 57 1.000000 0.052000 0.052000 1.200000 0.100000 0.121000
1559809346585108657	300 50 0.900000 0.059000 0.053000 1400 43 1.000000 2.844000 3.065000 600 57 1.000000 0.052000 0.052000 1.200000 0.108000 0.130000
1559809347111286491	300 50 0.900000 0.054000 0.049000 1400 43 1.000000 2.840000 3.061000 600 57 1.000000 0.052000 0.052000 1.200000 0.100000 0.121000
1559809347636712407	300 50 0.900000 0.041000 0.037000 1400 43 1.000000 2.849000 3.071000 600 57 1.000000 0.052000 0.052000 1.200000 0.100000 0.121000
1559809348161476907	300 47 0.900000 0.042000 0.038000 1400 43 1.000000 2.850000 3.072000 600 54 1.000000 0.052000 0.052000 1.200000 0.100000 0.121000
1559809348688598116	300 42 0.900000 0.038000 0.034000 1400 40 1.000000 0.803000 0.863000 600 47 1.000000 0.052000 0.052000 1.200000 0.067000 0.081000
1559809349214700616	300 40 0.900000 0.040000 0.036000 1400 39 1.000000 0.208000 0.223000 600 44 1.000000 0.052000 0.052000 1.200000 0.034000 0.041000
