#Timestamp	CPU(0) Frequency(MHz)	CPU(0) Temperature(C)	A7 Voltage(V)	A7 Current(A)	A7 Power(W)	CPU(4) Frequency(MHz)	CPU(4) Temperature(C)	A15 Voltage(V)	A15 Current(A)	A15 Power(W)	GPU Frequency(MHz)	GPU Temperature(C)	GPU Voltage(V)	GPU Current(A)	GPU Power(W)	RAM Voltage(V)	RAM Current(A)	RAM Power(W)
1517195901810296364	300 30 0.900000 0.037000 0.034000 1700 29 1.000000 0.252000 0.268000 600 34 1.000000 0.050000 0.050000 1.200000 0.041000 0.049000
1517195902319009114	300 38 0.900000 0.027000 0.024000 1700 31 1.100000 0.378000 0.441000 600 35 1.000000 0.050000 0.050000 1.200000 0.049000 0.059000
1517195902827597614	300 39 0.900000 0.015000 0.013000 1700 31 1.100000 1.138000 1.331000 600 36 1.000000 0.050000 0.050000 1.200000 0.032000 0.038000
1517195903336267072	300 39 0.900000 0.028000 0.025000 1700 32 1.100000 1.200000 1.405000 600 36 1.000000 0.051000 0.051000 1.200000 0.046000 0.055000
1517195903844941197	300 40 0.900000 0.014000 0.012000 1700 32 1.100000 1.134000 1.327000 600 37 1.000000 0.051000 0.051000 1.200000 0.032000 0.038000
1517195904353714947	300 41 0.900000 0.015000 0.013000 1700 33 1.100000 2.118000 2.488000 600 46 1.000000 0.051000 0.051000 1.200000 0.029000 0.035000
1517195904862673656	300 43 0.900000 0.015000 0.013000 1700 34 1.100000 2.649000 3.117000 600 49 1.000000 0.051000 0.051000 1.200000 0.029000 0.035000
1517195905377703948	300 44 0.900000 0.023000 0.021000 1700 35 1.100000 2.688000 3.166000 600 50 1.000000 0.051000 0.051000 1.200000 0.036000 0.043000
1517195905889224614	300 44 0.900000 0.020000 0.018000 1700 36 1.100000 2.698000 3.178000 600 51 1.000000 0.051000 0.051000 1.200000 0.033000 0.039000
1517195906398517698	300 45 0.900000 0.016000 0.014000 1700 36 1.100000 2.651000 3.122000 600 52 1.000000 0.051000 0.051000 1.200000 0.028000 0.033000
1517195906907862323	300 45 0.900000 0.016000 0.014000 1700 37 1.100000 2.681000 3.155000 600 52 1.000000 0.051000 0.051000 1.200000 0.029000 0.035000
1517195907416491906	300 46 0.900000 0.016000 0.014000 1700 37 1.100000 2.663000 3.137000 600 53 1.000000 0.051000 0.051000 1.200000 0.035000 0.042000
1517195907925614156	300 47 0.900000 0.021000 0.019000 1700 37 1.100000 2.679000 3.155000 600 53 1.000000 0.051000 0.051000 1.200000 0.039000 0.047000
1517195908435325198	300 47 0.900000 0.033000 0.030000 1700 38 1.100000 2.729000 3.214000 600 54 1.000000 0.051000 0.051000 1.200000 0.032000 0.038000
1517195908944430281	300 47 0.900000 0.017000 0.015000 1700 38 1.100000 2.675000 3.151000 600 54 1.000000 0.051000 0.051000 1.200000 0.029000 0.035000
1517195909453349281	300 48 0.900000 0.017000 0.015000 1700 38 1.100000 2.688000 3.166000 600 54 1.000000 0.051000 0.051000 1.200000 0.032000 0.038000
1517195909962149573	300 48 0.900000 0.022000 0.020000 1700 39 1.100000 2.699000 3.179000 600 54 1.000000 0.051000 0.051000 1.200000 0.040000 0.048000
1517195910470803240	300 48 0.900000 0.035000 0.031000 1700 39 1.100000 2.714000 3.197000 600 55 1.000000 0.051000 0.051000 1.200000 0.037000 0.044000
1517195910980220240	300 48 0.900000 0.016000 0.014000 1700 39 1.100000 2.691000 3.169000 600 55 1.000000 0.051000 0.051000 1.200000 0.034000 0.041000
1517195911489540907	300 48 0.900000 0.017000 0.015000 1700 39 1.100000 2.690000 3.168000 600 55 1.000000 0.052000 0.052000 1.200000 0.030000 0.036000
1517195911998763365	300 49 0.900000 0.022000 0.020000 1700 40 1.100000 2.679000 3.155000 600 55 1.000000 0.051000 0.051000 1.200000 0.040000 0.048000
1517195912519610073	300 49 0.900000 0.023000 0.021000 1700 39 1.100000 2.688000 3.166000 600 55 1.000000 0.051000 0.051000 1.200000 0.031000 0.037000
1517195913031874573	300 49 0.900000 0.039000 0.035000 1700 40 1.100000 2.710000 3.192000 600 55 1.000000 0.051000 0.051000 1.200000 0.050000 0.060000
1517195913541097282	300 49 0.900000 0.017000 0.015000 1700 40 1.100000 2.669000 3.144000 600 55 1.000000 0.052000 0.052000 1.200000 0.035000 0.042000
1517195914049811490	300 49 0.900000 0.027000 0.024000 1700 40 1.100000 2.694000 3.173000 600 56 1.000000 0.052000 0.052000 1.200000 0.037000 0.044000
1517195914559048574	300 49 0.900000 0.022000 0.020000 1700 40 1.100000 2.690000 3.168000 600 56 1.000000 0.052000 0.052000 1.200000 0.039000 0.047000
1517195915067992115	300 49 0.900000 0.017000 0.015000 1700 40 1.100000 2.686000 3.164000 600 56 1.000000 0.052000 0.052000 1.200000 0.032000 0.038000
1517195915577010365	300 49 0.900000 0.030000 0.027000 1700 40 1.100000 2.725000 3.210000 600 56 1.000000 0.052000 0.052000 1.200000 0.048000 0.058000
1517195916085676491	300 50 0.900000 0.017000 0.015000 1700 40 1.100000 2.693000 3.172000 600 56 1.000000 0.052000 0.052000 1.200000 0.036000 0.043000
1517195916594410532	300 50 0.900000 0.023000 0.021000 1700 41 1.100000 2.677000 3.153000 600 56 1.000000 0.052000 0.052000 1.200000 0.037000 0.044000
1517195917103331991	300 50 0.900000 0.017000 0.015000 1700 41 1.100000 2.704000 3.185000 600 56 1.000000 0.052000 0.052000 1.200000 0.031000 0.037000
1517195917611953866	300 50 0.900000 0.037000 0.033000 1700 41 1.100000 2.757000 3.247000 600 56 1.000000 0.052000 0.052000 1.200000 0.044000 0.053000
1517195918121063532	300 50 0.900000 0.017000 0.015000 1700 41 1.100000 2.692000 3.171000 600 57 1.000000 0.052000 0.052000 1.200000 0.029000 0.035000
1517195918629894157	300 50 0.900000 0.023000 0.021000 1700 41 1.100000 2.679000 3.155000 600 57 1.000000 0.052000 0.052000 1.200000 0.045000 0.054000
1517195919138599741	300 50 0.900000 0.017000 0.015000 1700 41 1.100000 2.673000 3.148000 600 57 1.000000 0.052000 0.052000 1.200000 0.031000 0.037000
1517195919660191616	300 50 0.900000 0.017000 0.015000 1700 41 1.100000 2.679000 3.155000 600 57 1.000000 0.052000 0.052000 1.200000 0.029000 0.035000
1517195920170855949	300 50 0.900000 0.037000 0.033000 1700 41 1.100000 2.706000 3.187000 600 57 1.000000 0.052000 0.052000 1.200000 0.051000 0.061000
1517195920680940283	300 50 0.900000 0.026000 0.023000 1700 41 1.100000 2.714000 3.197000 600 57 1.000000 0.052000 0.052000 1.200000 0.037000 0.044000
1517195921189842074	300 50 0.900000 0.017000 0.015000 1700 41 1.100000 2.679000 3.155000 600 57 1.000000 0.052000 0.052000 1.200000 0.028000 0.033000
1517195921698843658	300 50 0.900000 0.017000 0.015000 1700 41 1.100000 2.664000 3.138000 600 57 1.000000 0.052000 0.052000 1.200000 0.032000 0.038000
1517195922213996408	300 50 0.900000 0.017000 0.015000 1700 41 1.100000 2.693000 3.172000 600 57 1.000000 0.052000 0.052000 1.200000 0.029000 0.035000
1517195922724645825	300 51 0.900000 0.028000 0.025000 1700 41 1.100000 2.716000 3.199000 600 57 1.000000 0.052000 0.052000 1.200000 0.049000 0.059000
1517195923233564991	300 51 0.900000 0.024000 0.021000 1700 41 1.100000 2.714000 3.197000 600 57 1.000000 0.052000 0.052000 1.200000 0.037000 0.044000
1517195923742625200	300 51 0.900000 0.017000 0.015000 1700 41 1.100000 2.759000 3.250000 600 57 1.000000 0.052000 0.052000 1.200000 0.032000 0.038000
1517195924263953450	300 50 0.900000 0.017000 0.015000 1700 41 1.100000 2.741000 3.228000 600 57 1.000000 0.052000 0.052000 1.200000 0.034000 0.041000
1517195924776149158	300 51 0.900000 0.037000 0.033000 1700 42 1.100000 2.855000 3.368000 600 58 1.000000 0.052000 0.052000 1.200000 0.044000 0.053000
1517195925284999450	300 51 0.900000 0.029000 0.026000 1700 42 1.100000 2.757000 3.247000 600 58 1.000000 0.052000 0.052000 1.200000 0.041000 0.049000
1517195925794246950	300 51 0.900000 0.017000 0.015000 1700 42 1.100000 2.759000 3.250000 600 58 1.000000 0.052000 0.052000 1.200000 0.032000 0.038000
1517195926303104867	300 51 0.900000 0.017000 0.015000 1700 42 1.100000 2.743000 3.231000 600 58 1.000000 0.052000 0.052000 1.200000 0.035000 0.042000
1517195926818456992	300 51 0.900000 0.017000 0.015000 1700 42 1.100000 2.776000 3.270000 600 58 1.000000 0.052000 0.052000 1.200000 0.029000 0.035000
1517195927328940700	300 51 0.900000 0.041000 0.037000 1700 42 1.100000 2.770000 3.263000 600 58 1.000000 0.052000 0.052000 1.200000 0.048000 0.058000
1517195927837829117	300 51 0.900000 0.017000 0.015000 1700 42 1.100000 2.747000 3.235000 600 58 1.000000 0.052000 0.052000 1.200000 0.033000 0.039000
1517195928347067700	300 51 0.900000 0.017000 0.015000 1700 42 1.100000 2.749000 3.238000 600 58 1.000000 0.052000 0.052000 1.200000 0.029000 0.035000
1517195928856029659	300 51 0.900000 0.017000 0.015000 1700 42 1.100000 2.761000 3.252000 600 58 1.000000 0.052000 0.052000 1.200000 0.029000 0.035000
1517195929365204034	300 51 0.900000 0.044000 0.040000 1700 42 1.100000 2.824000 3.326000 600 58 1.000000 0.052000 0.052000 1.200000 0.051000 0.061000
1517195929873961450	300 52 0.900000 0.017000 0.015000 1700 42 1.100000 2.754000 3.244000 600 58 1.000000 0.052000 0.052000 1.200000 0.031000 0.037000
1517195930382794742	300 52 0.900000 0.017000 0.015000 1700 42 1.100000 2.773000 3.266000 600 58 1.000000 0.052000 0.052000 1.200000 0.033000 0.039000
1517195930891516742	300 52 0.900000 0.018000 0.016000 1700 42 1.100000 2.747000 3.235000 600 58 1.000000 0.052000 0.052000 1.200000 0.036000 0.043000
1517195931406339659	300 52 0.900000 0.017000 0.015000 1700 42 1.100000 2.762000 3.253000 600 58 1.000000 0.052000 0.052000 1.200000 0.029000 0.035000
1517195931916513242	300 51 0.900000 0.030000 0.027000 1700 42 1.100000 2.824000 3.326000 600 58 1.000000 0.052000 0.052000 1.200000 0.053000 0.064000
1517195932425295867	300 52 0.900000 0.018000 0.016000 1700 42 1.100000 2.733000 3.219000 600 58 1.000000 0.052000 0.052000 1.200000 0.036000 0.043000
1517195932933906284	300 52 0.900000 0.017000 0.015000 1700 42 1.100000 2.738000 3.225000 600 58 1.000000 0.052000 0.052000 1.200000 0.030000 0.036000
1517195933442700243	300 52 0.900000 0.017000 0.015000 1700 43 1.100000 2.750000 3.239000 600 58 1.000000 0.052000 0.052000 1.200000 0.031000 0.037000
1517195933963720993	300 52 0.900000 0.020000 0.018000 1700 43 1.100000 2.761000 3.252000 600 58 1.000000 0.052000 0.052000 1.200000 0.036000 0.043000
1517195934475684243	300 52 0.900000 0.031000 0.028000 1700 43 1.100000 2.745000 3.233000 600 59 1.000000 0.052000 0.052000 1.200000 0.039000 0.047000
1517195934984582493	300 52 0.900000 0.017000 0.015000 1700 43 1.100000 2.739000 3.226000 600 59 1.000000 0.052000 0.052000 1.200000 0.028000 0.033000
1517195935493510909	300 52 0.900000 0.017000 0.015000 1700 43 1.100000 2.730000 3.215000 600 59 1.000000 0.052000 0.052000 1.200000 0.032000 0.038000
1517195936002517660	300 52 0.900000 0.018000 0.016000 1700 43 1.100000 2.770000 3.263000 600 59 1.000000 0.052000 0.052000 1.200000 0.031000 0.037000
1517195936511521660	300 52 0.900000 0.037000 0.033000 1700 43 1.100000 2.781000 3.276000 600 59 1.000000 0.052000 0.052000 1.200000 0.048000 0.057000
1517195937020399326	300 51 0.900000 0.017000 0.015000 1700 43 1.100000 2.736000 3.223000 600 58 1.000000 0.052000 0.052000 1.200000 0.030000 0.036000
1517195937529306826	300 52 0.900000 0.017000 0.015000 1700 43 1.100000 2.772000 3.265000 600 59 1.000000 0.053000 0.053000 1.200000 0.032000 0.038000
1517195938038692951	300 52 0.900000 0.017000 0.015000 1700 43 1.100000 2.717000 3.200000 600 59 1.000000 0.052000 0.052000 1.200000 0.031000 0.037000
1517195938560785327	300 52 0.900000 0.018000 0.016000 1700 43 1.100000 2.773000 3.266000 600 59 1.000000 0.052000 0.052000 1.200000 0.040000 0.048000
1517195939073379285	300 52 0.900000 0.028000 0.025000 1700 43 1.100000 2.765000 3.257000 600 59 1.000000 0.052000 0.052000 1.200000 0.050000 0.060000
1517195939582131785	300 52 0.900000 0.018000 0.016000 1700 43 1.100000 2.734000 3.220000 600 59 1.000000 0.052000 0.052000 1.200000 0.030000 0.036000
1517195940090774202	300 52 0.900000 0.017000 0.015000 1700 43 1.100000 2.732000 3.218000 600 59 1.000000 0.052000 0.052000 1.200000 0.032000 0.038000
1517195940599870368	300 52 0.900000 0.023000 0.021000 1700 43 1.100000 2.769000 3.261000 600 59 1.000000 0.053000 0.053000 1.200000 0.043000 0.051000
1517195941114711160	300 52 0.900000 0.017000 0.015000 1700 43 1.100000 2.739000 3.226000 600 59 1.000000 0.053000 0.053000 1.200000 0.033000 0.039000
1517195941625468327	300 52 0.900000 0.027000 0.024000 1700 43 1.100000 2.758000 3.248000 600 59 1.000000 0.052000 0.052000 1.200000 0.035000 0.042000
1517195942134394952	300 52 0.900000 0.017000 0.015000 1700 43 1.100000 2.736000 3.223000 600 59 1.000000 0.052000 0.052000 1.200000 0.032000 0.038000
1517195942643187827	300 52 0.900000 0.023000 0.021000 1700 43 1.100000 2.740000 3.227000 600 59 1.000000 0.052000 0.052000 1.200000 0.036000 0.043000
1517195943151913827	300 52 0.900000 0.017000 0.015000 1700 43 1.100000 2.730000 3.215000 600 59 1.000000 0.052000 0.052000 1.200000 0.027000 0.032000
1517195943661000119	300 52 0.900000 0.037000 0.033000 1700 43 1.100000 2.768000 3.260000 600 59 1.000000 0.053000 0.053000 1.200000 0.053000 0.064000
1517195944170030327	300 52 0.900000 0.019000 0.017000 1700 43 1.100000 2.758000 3.248000 600 59 1.000000 0.052000 0.052000 1.200000 0.030000 0.036000
1517195944679143161	300 51 0.900000 0.024000 0.021000 1700 43 1.100000 2.724000 3.208000 600 59 1.000000 0.052000 0.052000 1.200000 0.030000 0.036000
1517195945187975369	300 52 0.900000 0.028000 0.025000 1700 43 1.100000 2.721000 3.205000 600 59 1.000000 0.052000 0.052000 1.200000 0.030000 0.036000
1517195945697369327	300 52 0.900000 0.018000 0.016000 1700 43 1.100000 2.699000 3.179000 600 59 1.000000 0.052000 0.052000 1.200000 0.030000 0.036000
1517195946206450702	300 52 0.900000 0.031000 0.028000 1700 43 1.100000 2.739000 3.226000 600 59 1.000000 0.052000 0.052000 1.200000 0.050000 0.060000
1517195946715146286	300 52 0.900000 0.018000 0.016000 1700 43 1.100000 2.731000 3.214000 600 59 1.000000 0.053000 0.053000 1.200000 0.033000 0.039000
1517195947225042328	300 52 0.900000 0.023000 0.021000 1700 43 1.100000 2.752000 3.241000 600 59 1.000000 0.052000 0.052000 1.200000 0.039000 0.047000
1517195947733740244	300 52 0.900000 0.017000 0.015000 1700 43 1.100000 2.691000 3.169000 600 59 1.000000 0.052000 0.052000 1.200000 0.029000 0.035000
1517195948250834203	300 52 0.900000 0.019000 0.017000 1700 43 1.100000 2.735000 3.221000 600 59 1.000000 0.053000 0.053000 1.200000 0.039000 0.047000
1517195948765628494	300 52 0.900000 0.023000 0.021000 1700 43 1.100000 2.747000 3.235000 600 59 1.000000 0.053000 0.053000 1.200000 0.030000 0.036000
1517195949274533244	300 52 0.900000 0.022000 0.020000 1700 43 1.100000 2.707000 3.188000 600 59 1.000000 0.052000 0.052000 1.200000 0.035000 0.042000
1517195949783514620	300 51 0.900000 0.017000 0.015000 1700 43 1.100000 2.722000 3.206000 600 59 1.000000 0.052000 0.052000 1.200000 0.032000 0.038000
1517195950292208536	300 52 0.900000 0.017000 0.015000 1700 43 1.100000 2.712000 3.194000 600 59 1.000000 0.053000 0.053000 1.200000 0.031000 0.037000
1517195950801186828	300 52 0.900000 0.027000 0.024000 1700 43 1.100000 2.821000 3.323000 600 59 1.000000 0.052000 0.052000 1.200000 0.040000 0.048000
1517195951310005578	300 52 0.900000 0.018000 0.016000 1700 43 1.100000 2.677000 3.150000 600 59 1.000000 0.052000 0.052000 1.200000 0.037000 0.044000
1517195951818968120	300 52 0.900000 0.028000 0.025000 1700 43 1.100000 2.673000 3.148000 600 59 1.000000 0.052000 0.052000 1.200000 0.037000 0.044000
1517195952329394412	300 52 0.900000 0.017000 0.015000 1700 43 1.100000 2.719000 3.202000 600 59 1.000000 0.052000 0.052000 1.200000 0.031000 0.037000
1517195952838471453	300 52 0.900000 0.020000 0.018000 1700 43 1.100000 2.715000 3.198000 600 59 1.000000 0.052000 0.052000 1.200000 0.032000 0.038000
1517195953347317995	300 53 0.900000 0.036000 0.032000 1700 43 1.100000 2.811000 3.311000 600 59 1.000000 0.053000 0.053000 1.200000 0.044000 0.053000
1517195953856072995	300 53 0.900000 0.022000 0.020000 1700 43 1.100000 2.706000 3.187000 600 59 1.000000 0.053000 0.053000 1.200000 0.035000 0.042000
1517195954364968078	300 52 0.900000 0.018000 0.016000 1700 43 1.100000 2.718000 3.201000 600 59 1.000000 0.052000 0.052000 1.200000 0.031000 0.037000
1517195954875235453	300 52 0.900000 0.017000 0.015000 1700 43 1.100000 2.690000 3.168000 600 59 1.000000 0.052000 0.052000 1.200000 0.032000 0.038000
1517195955384497245	300 52 0.900000 0.031000 0.028000 1700 43 1.100000 2.725000 3.210000 600 59 1.000000 0.052000 0.052000 1.200000 0.030000 0.036000
1517195955893278579	300 53 0.900000 0.022000 0.020000 1700 43 1.100000 2.692000 3.171000 600 60 1.000000 0.052000 0.052000 1.200000 0.039000 0.047000
1517195956401865412	300 52 0.900000 0.017000 0.015000 1700 43 1.100000 2.702000 3.182000 600 59 1.000000 0.052000 0.052000 1.200000 0.035000 0.042000
1517195956910782495	300 53 0.900000 0.018000 0.016000 1700 43 1.100000 2.696000 3.175000 600 59 1.000000 0.052000 0.052000 1.200000 0.029000 0.035000
1517195957422569620	300 53 0.900000 0.017000 0.015000 1700 43 1.100000 2.662000 3.135000 600 59 1.000000 0.052000 0.052000 1.200000 0.034000 0.041000
1517195957932994621	300 53 0.900000 0.038000 0.034000 1700 43 1.100000 2.754000 3.244000 600 59 1.000000 0.052000 0.052000 1.200000 0.049000 0.059000
1517195958441752121	300 53 0.900000 0.029000 0.026000 1700 43 1.100000 2.677000 3.153000 600 59 1.000000 0.053000 0.053000 1.200000 0.039000 0.047000
1517195958950437996	300 52 0.900000 0.017000 0.015000 1700 43 1.100000 2.693000 3.172000 600 59 1.000000 0.052000 0.052000 1.200000 0.032000 0.038000
1517195959459357829	300 53 0.900000 0.017000 0.015000 1700 43 1.100000 2.650000 3.121000 600 59 1.000000 0.052000 0.052000 1.200000 0.036000 0.043000
1517195959968182454	300 53 0.900000 0.026000 0.023000 1700 44 1.100000 2.764000 3.255000 600 60 1.000000 0.053000 0.053000 1.200000 0.034000 0.041000
1517195960477266287	300 53 0.900000 0.028000 0.025000 1700 44 1.100000 2.685000 3.162000 600 59 1.000000 0.052000 0.052000 1.200000 0.040000 0.048000
1517195960985913329	300 52 0.900000 0.018000 0.016000 1700 44 1.100000 2.673000 3.148000 600 59 1.000000 0.052000 0.052000 1.200000 0.032000 0.038000
1517195961495943163	300 53 0.900000 0.018000 0.016000 1700 44 1.100000 2.735000 3.221000 600 59 1.000000 0.053000 0.053000 1.200000 0.030000 0.036000
1517195962005270371	300 53 0.900000 0.018000 0.016000 1700 43 1.100000 2.698000 3.178000 600 60 1.000000 0.053000 0.053000 1.200000 0.036000 0.043000
1517195962513941788	300 53 0.900000 0.038000 0.034000 1700 43 1.100000 2.806000 3.305000 600 60 1.000000 0.052000 0.052000 1.200000 0.039000 0.047000
1517195963033952038	300 53 0.900000 0.017000 0.015000 1700 43 1.100000 2.681000 3.158000 600 59 1.000000 0.053000 0.053000 1.200000 0.031000 0.037000
1517195963554039788	300 53 0.900000 0.019000 0.017000 1700 44 1.100000 2.676000 3.152000 600 60 1.000000 0.053000 0.053000 1.200000 0.035000 0.042000
1517195964064322205	300 53 0.900000 0.019000 0.017000 1700 43 1.100000 2.652000 3.124000 600 59 1.000000 0.053000 0.053000 1.200000 0.035000 0.042000
1517195964579487788	300 53 0.900000 0.018000 0.016000 1700 44 1.100000 2.722000 3.206000 600 60 1.000000 0.053000 0.053000 1.200000 0.030000 0.036000
1517195965091222080	300 53 0.900000 0.037000 0.033000 1700 44 1.100000 2.712000 3.194000 600 60 1.000000 0.053000 0.053000 1.200000 0.039000 0.047000
1517195965600810080	300 53 0.900000 0.018000 0.016000 1700 44 1.100000 2.679000 3.155000 600 60 1.000000 0.053000 0.053000 1.200000 0.036000 0.043000
1517195966109727038	300 53 0.900000 0.017000 0.015000 1700 44 1.100000 2.673000 3.148000 600 60 1.000000 0.052000 0.052000 1.200000 0.030000 0.036000
1517195966619142622	300 53 0.900000 0.017000 0.015000 1700 44 1.100000 2.689000 3.167000 600 60 1.000000 0.052000 0.052000 1.200000 0.031000 0.037000
1517195967128206955	300 53 0.900000 0.040000 0.036000 1700 44 1.100000 2.759000 3.250000 600 60 1.000000 0.052000 0.052000 1.200000 0.055000 0.066000
1517195967637631538	300 53 0.900000 0.017000 0.015000 1700 44 1.100000 2.655000 3.127000 600 60 1.000000 0.052000 0.052000 1.200000 0.028000 0.033000
1517195968146809830	300 53 0.900000 0.017000 0.015000 1700 44 1.100000 2.694000 3.173000 600 60 1.000000 0.053000 0.053000 1.200000 0.029000 0.035000
1517195968655619580	300 53 0.900000 0.018000 0.016000 1700 44 1.100000 2.659000 3.132000 600 60 1.000000 0.052000 0.052000 1.200000 0.030000 0.036000
1517195969175683330	300 53 0.900000 0.027000 0.024000 1700 44 1.100000 2.705000 3.186000 600 60 1.000000 0.053000 0.053000 1.200000 0.032000 0.038000
1517195969685824289	300 53 0.900000 0.039000 0.035000 1700 44 1.100000 2.755000 3.245000 600 60 1.000000 0.052000 0.052000 1.200000 0.050000 0.060000
1517195970195824330	300 53 0.900000 0.018000 0.016000 1700 44 1.100000 2.663000 3.137000 600 60 1.000000 0.052000 0.052000 1.200000 0.034000 0.041000
1517195970704950330	300 53 0.900000 0.017000 0.015000 1700 44 1.100000 2.681000 3.158000 600 60 1.000000 0.052000 0.052000 1.200000 0.031000 0.037000
1517195971213840580	300 53 0.900000 0.018000 0.016000 1700 44 1.100000 2.672000 3.147000 600 60 1.000000 0.053000 0.053000 1.200000 0.029000 0.035000
1517195971722124164	300 53 0.900000 0.028000 0.025000 1700 44 1.100000 2.741000 3.228000 600 60 1.000000 0.052000 0.052000 1.200000 0.045000 0.054000
1517195972230866706	300 53 0.900000 0.020000 0.018000 1700 44 1.100000 2.659000 3.132000 600 60 1.000000 0.052000 0.052000 1.200000 0.030000 0.036000
1517195972739859622	300 53 0.900000 0.018000 0.016000 1700 44 1.100000 2.694000 3.173000 600 60 1.000000 0.053000 0.053000 1.200000 0.031000 0.037000
1517195973248954164	300 53 0.900000 0.017000 0.015000 1700 44 1.100000 2.686000 3.164000 600 60 1.000000 0.052000 0.052000 1.200000 0.031000 0.037000
1517195973758785997	300 53 0.900000 0.025000 0.022000 1700 44 1.100000 2.695000 3.174000 600 60 1.000000 0.052000 0.052000 1.200000 0.038000 0.045000
1517195974267970664	300 53 0.900000 0.027000 0.024000 1700 44 1.100000 2.778000 3.278000 600 60 1.000000 0.053000 0.053000 1.200000 0.042000 0.050000
1517195974776900414	300 53 0.900000 0.017000 0.015000 1700 44 1.100000 2.672000 3.147000 600 60 1.000000 0.053000 0.053000 1.200000 0.029000 0.035000
1517195975285550039	300 53 0.900000 0.017000 0.015000 1700 44 1.100000 2.690000 3.168000 600 60 1.000000 0.052000 0.052000 1.200000 0.034000 0.041000
1517195975794413998	300 53 0.900000 0.027000 0.024000 1700 44 1.100000 2.682000 3.159000 600 60 1.000000 0.052000 0.052000 1.200000 0.037000 0.044000
1517195976310328581	300 52 0.900000 0.025000 0.022000 1700 44 1.100000 2.715000 3.198000 600 60 1.000000 0.052000 0.052000 1.200000 0.046000 0.055000
1517195976820889248	300 53 0.900000 0.038000 0.034000 1700 44 1.100000 2.775000 3.268000 600 60 1.000000 0.052000 0.052000 1.200000 0.042000 0.050000
1517195977330063414	300 53 0.900000 0.017000 0.015000 1700 44 1.100000 2.676000 3.152000 600 60 1.000000 0.053000 0.053000 1.200000 0.030000 0.036000
1517195977839048331	300 53 0.900000 0.018000 0.016000 1700 44 1.100000 2.676000 3.152000 600 60 1.000000 0.053000 0.053000 1.200000 0.037000 0.044000
1517195978347829165	300 53 0.900000 0.025000 0.022000 1700 44 1.100000 2.695000 3.174000 600 60 1.000000 0.053000 0.053000 1.200000 0.031000 0.037000
1517195978858378748	300 53 0.900000 0.030000 0.027000 1700 44 1.100000 2.709000 3.191000 600 60 1.000000 0.052000 0.052000 1.200000 0.048000 0.058000
1517195979367264915	300 53 0.900000 0.018000 0.016000 1700 44 1.100000 2.689000 3.167000 600 60 1.000000 0.053000 0.053000 1.200000 0.032000 0.038000
1517195979876452748	300 53 0.900000 0.018000 0.016000 1700 44 1.100000 2.678000 3.154000 600 60 1.000000 0.053000 0.053000 1.200000 0.032000 0.038000
1517195980385553832	300 53 0.900000 0.018000 0.016000 1700 44 1.100000 2.763000 3.254000 600 60 1.000000 0.052000 0.052000 1.200000 0.030000 0.036000
1517195980894684623	300 53 0.900000 0.017000 0.015000 1700 44 1.100000 2.659000 3.132000 600 60 1.000000 0.053000 0.053000 1.200000 0.029000 0.035000
1517195981404805623	300 53 0.900000 0.026000 0.023000 1700 44 1.100000 2.764000 3.255000 600 60 1.000000 0.053000 0.053000 1.200000 0.045000 0.054000
1517195981924815207	300 53 0.900000 0.018000 0.016000 1700 44 1.100000 2.694000 3.173000 600 60 1.000000 0.052000 0.052000 1.200000 0.029000 0.035000
1517195982435298373	300 53 0.900000 0.034000 0.031000 1700 44 1.100000 2.676000 3.152000 600 60 1.000000 0.053000 0.053000 1.200000 0.033000 0.039000
1517195982943701415	300 44 0.900000 0.020000 0.018000 1700 42 1.100000 1.597000 1.871000 600 50 1.000000 0.053000 0.053000 1.200000 0.027000 0.032000
1517195983452214124	300 42 0.900000 0.035000 0.032000 1700 41 1.100000 0.427000 0.498000 600 47 1.000000 0.052000 0.052000 1.200000 0.047000 0.056000
