#Timestamp	CPU(0) Frequency(MHz)	CPU(0) Temperature(C)	A7 Voltage(V)	A7 Current(A)	A7 Power(W)	CPU(4) Frequency(MHz)	CPU(4) Temperature(C)	A15 Voltage(V)	A15 Current(A)	A15 Power(W)	GPU Frequency(MHz)	GPU Temperature(C)	GPU Voltage(V)	GPU Current(A)	GPU Power(W)	RAM Voltage(V)	RAM Current(A)	RAM Power(W)
1553297483947606118	1000 35 1.000000 0.108000 0.115000 1000 32 0.900000 0.289000 0.280000 600 36 1.000000 0.050000 0.050000 1.200000 0.045000 0.054000
1553297484455651702	1000 36 1.100000 0.045000 0.049000 1000 32 0.900000 0.647000 0.624000 600 37 1.000000 0.050000 0.050000 1.200000 0.045000 0.054000
1553297484963760369	1000 37 1.100000 0.061000 0.067000 1000 33 0.900000 0.913000 0.881000 600 40 1.000000 0.051000 0.051000 1.200000 0.032000 0.038000
1553297485471749244	1000 37 1.000000 0.126000 0.138000 1000 33 0.900000 1.317000 1.274000 600 42 1.000000 0.050000 0.050000 1.200000 0.030000 0.036000
1553297485979712369	1000 38 1.000000 0.127000 0.139000 1000 34 0.900000 1.319000 1.276000 600 42 1.000000 0.051000 0.051000 1.200000 0.031000 0.037000
1553297486487917577	1000 38 1.000000 0.139000 0.152000 1000 34 0.900000 1.349000 1.305000 600 43 1.000000 0.051000 0.051000 1.200000 0.036000 0.043000
1553297486998744327	1000 39 1.000000 0.164000 0.179000 1000 34 0.900000 1.362000 1.318000 600 43 1.000000 0.051000 0.051000 1.200000 0.047000 0.056000
1553297487506734244	1000 39 1.000000 0.127000 0.139000 1000 35 0.900000 1.326000 1.283000 600 43 1.000000 0.051000 0.051000 1.200000 0.033000 0.039000
1553297488014694411	1000 39 1.000000 0.127000 0.139000 1000 35 0.900000 1.334000 1.291000 600 44 1.000000 0.051000 0.051000 1.200000 0.031000 0.037000
1553297488522600161	1000 39 1.000000 0.127000 0.139000 1000 35 0.900000 1.323000 1.280000 600 44 1.000000 0.051000 0.051000 1.200000 0.031000 0.037000
1553297489030595161	1000 40 1.000000 0.138000 0.151000 1000 35 0.900000 1.381000 1.336000 600 44 1.000000 0.051000 0.051000 1.200000 0.047000 0.056000
1553297489538532619	1000 39 1.000000 0.127000 0.139000 1000 35 0.900000 1.324000 1.281000 600 44 1.000000 0.051000 0.051000 1.200000 0.030000 0.036000
1553297490046480202	1000 40 1.000000 0.127000 0.139000 1000 36 0.900000 1.324000 1.281000 600 44 1.000000 0.051000 0.051000 1.200000 0.030000 0.036000
1553297490554320453	1000 40 1.000000 0.127000 0.139000 1000 36 0.900000 1.325000 1.282000 600 44 1.000000 0.051000 0.051000 1.200000 0.031000 0.037000
1553297491062046453	1000 36 1.000000 0.135000 0.148000 1000 35 0.900000 0.281000 0.273000 600 40 1.000000 0.051000 0.051000 1.200000 0.045000 0.054000
1553297491569463328	1000 35 1.000000 0.126000 0.138000 1000 34 0.900000 0.106000 0.103000 600 39 1.000000 0.051000 0.051000 1.200000 0.025000 0.030000
1553297492076831244	1000 35 1.000000 0.126000 0.138000 1000 34 0.900000 0.107000 0.104000 600 38 1.000000 0.051000 0.051000 1.200000 0.025000 0.030000
1553297492584356453	1000 34 1.000000 0.125000 0.137000 1000 34 0.900000 0.143000 0.139000 600 38 1.000000 0.051000 0.051000 1.200000 0.030000 0.036000
1553297493093365953	1000 34 1.000000 0.139000 0.152000 1000 34 0.900000 0.183000 0.178000 600 38 1.000000 0.051000 0.051000 1.200000 0.039000 0.047000
1553297493601035536	1000 34 1.000000 0.124000 0.136000 1000 33 0.900000 0.104000 0.101000 600 37 1.000000 0.051000 0.051000 1.200000 0.025000 0.030000
1553297494108403245	1000 34 1.000000 0.125000 0.137000 1000 33 0.900000 0.124000 0.121000 600 37 1.000000 0.051000 0.051000 1.200000 0.025000 0.030000
1553297494616045286	1000 34 1.000000 0.125000 0.137000 1000 33 0.900000 0.107000 0.104000 600 37 1.000000 0.051000 0.051000 1.200000 0.025000 0.030000
1553297495124661786	1000 33 1.000000 0.137000 0.150000 1000 33 0.900000 0.108000 0.105000 600 37 1.000000 0.051000 0.051000 1.200000 0.024000 0.028000
1553297495634016745	1000 36 1.000000 0.147000 0.161000 1000 33 0.900000 0.529000 0.511000 600 37 1.000000 0.051000 0.051000 1.200000 0.039000 0.047000
1553297496142231162	1000 37 1.100000 0.048000 0.052000 1000 33 0.900000 0.634000 0.612000 600 38 1.000000 0.051000 0.051000 1.200000 0.028000 0.033000
1553297496650189828	1000 37 1.100000 0.045000 0.049000 1000 33 0.900000 0.637000 0.615000 600 38 1.000000 0.051000 0.051000 1.200000 0.029000 0.035000
1553297497158015370	1000 37 1.100000 0.057000 0.062000 1000 34 0.900000 0.641000 0.618000 600 38 1.000000 0.051000 0.051000 1.200000 0.034000 0.041000
1553297497666045162	1000 37 1.100000 0.074000 0.081000 1000 34 0.900000 0.694000 0.669000 600 38 1.000000 0.051000 0.051000 1.200000 0.032000 0.038000
1553297498174017412	1000 37 1.100000 0.045000 0.049000 1000 34 0.900000 0.651000 0.628000 600 38 1.000000 0.051000 0.051000 1.200000 0.029000 0.035000
1553297498682047328	1000 37 1.100000 0.045000 0.049000 1000 34 0.900000 0.643000 0.620000 600 38 1.000000 0.051000 0.051000 1.200000 0.028000 0.033000
1553297499190046162	1000 37 1.100000 0.046000 0.050000 1000 34 0.900000 0.689000 0.664000 600 38 1.000000 0.051000 0.051000 1.200000 0.034000 0.041000
1553297499697949204	1000 37 1.000000 0.080000 0.087000 1000 34 0.900000 0.646000 0.623000 600 38 1.000000 0.051000 0.051000 1.200000 0.028000 0.033000
1553297500205862287	1000 37 1.100000 0.046000 0.050000 1000 34 0.900000 0.652000 0.629000 600 38 1.000000 0.051000 0.051000 1.200000 0.028000 0.033000
1553297500714246329	1000 37 1.100000 0.045000 0.049000 1000 34 0.900000 0.644000 0.622000 600 38 1.000000 0.051000 0.051000 1.200000 0.029000 0.035000
1553297501222375954	1000 37 1.100000 0.046000 0.050000 1000 34 0.900000 0.656000 0.633000 600 38 1.000000 0.051000 0.051000 1.200000 0.030000 0.036000
1553297501730672496	1000 37 1.100000 0.046000 0.050000 1000 34 0.900000 0.661000 0.637000 600 38 1.000000 0.051000 0.051000 1.200000 0.028000 0.033000
1553297502238807787	1000 37 1.000000 0.084000 0.092000 1000 34 0.900000 0.715000 0.689000 600 38 1.000000 0.051000 0.051000 1.200000 0.047000 0.056000
1553297502746562871	1000 34 1.100000 0.046000 0.050000 1000 33 0.900000 0.660000 0.636000 600 38 1.000000 0.051000 0.051000 1.200000 0.027000 0.032000
1553297503254188787	1000 34 1.100000 0.050000 0.055000 1000 33 0.900000 0.183000 0.178000 600 37 1.000000 0.051000 0.051000 1.200000 0.036000 0.043000
