#Timestamp	CPU(0) Frequency(MHz)	CPU(0) Temperature(C)	A7 Voltage(V)	A7 Current(A)	A7 Power(W)	CPU(4) Frequency(MHz)	CPU(4) Temperature(C)	A15 Voltage(V)	A15 Current(A)	A15 Power(W)	GPU Frequency(MHz)	GPU Temperature(C)	GPU Voltage(V)	GPU Current(A)	GPU Power(W)	RAM Voltage(V)	RAM Current(A)	RAM Power(W)
1553301766033098671	1200 32 1.100000 0.068000 0.079000 600 31 0.900000 0.261000 0.237000 600 35 1.000000 0.050000 0.050000 1.200000 0.048000 0.058000
1553301766543198754	1200 32 1.100000 0.183000 0.214000 600 31 0.900000 0.088000 0.080000 600 35 1.000000 0.050000 0.050000 1.200000 0.042000 0.050000
1553301767054119379	1200 32 1.100000 0.183000 0.214000 600 31 0.900000 0.082000 0.074000 600 35 1.000000 0.050000 0.050000 1.200000 0.042000 0.050000
1553301767564372171	1200 33 1.100000 0.255000 0.296000 600 32 0.900000 0.139000 0.126000 600 35 1.000000 0.051000 0.051000 1.200000 0.030000 0.036000
1553301768075211421	1200 33 1.100000 0.262000 0.304000 600 32 0.900000 0.082000 0.074000 600 35 1.000000 0.050000 0.050000 1.200000 0.031000 0.037000
1553301768585508504	1200 33 1.100000 0.270000 0.313000 600 32 0.900000 0.103000 0.093000 600 35 1.000000 0.050000 0.050000 1.200000 0.027000 0.032000
1553301769096460296	1200 33 1.100000 0.262000 0.304000 600 32 0.900000 0.072000 0.065000 600 35 1.000000 0.051000 0.051000 1.200000 0.028000 0.033000
1553301769606822504	1200 33 1.100000 0.263000 0.305000 600 32 0.900000 0.095000 0.086000 600 35 1.000000 0.050000 0.050000 1.200000 0.027000 0.032000
1553301770117650213	1200 33 1.100000 0.262000 0.303000 600 32 0.900000 0.066000 0.060000 600 35 1.000000 0.050000 0.050000 1.200000 0.028000 0.033000
1553301770627963879	1200 33 1.100000 0.269000 0.312000 600 32 0.900000 0.148000 0.134000 600 35 1.000000 0.050000 0.050000 1.200000 0.039000 0.047000
1553301771138063754	1200 33 1.100000 0.262000 0.304000 600 32 0.900000 0.068000 0.062000 600 35 1.000000 0.050000 0.050000 1.200000 0.028000 0.033000
1553301771648333630	1200 33 1.100000 0.264000 0.306000 600 32 0.900000 0.154000 0.140000 600 35 1.000000 0.051000 0.051000 1.200000 0.027000 0.032000
1553301772158231838	1200 33 1.100000 0.262000 0.304000 600 32 0.900000 0.083000 0.075000 600 36 1.000000 0.051000 0.051000 1.200000 0.028000 0.033000
1553301772668384463	1200 33 1.100000 0.269000 0.312000 600 32 0.900000 0.101000 0.092000 600 36 1.000000 0.051000 0.051000 1.200000 0.028000 0.033000
1553301773178392046	1200 33 1.100000 0.262000 0.304000 600 32 0.900000 0.071000 0.064000 600 36 1.000000 0.050000 0.050000 1.200000 0.029000 0.035000
1553301773688716296	1200 33 1.100000 0.263000 0.305000 600 32 0.900000 0.157000 0.143000 600 36 1.000000 0.050000 0.050000 1.200000 0.029000 0.035000
1553301774198796921	1200 33 1.100000 0.262000 0.304000 600 32 0.900000 0.082000 0.074000 600 36 1.000000 0.050000 0.050000 1.200000 0.028000 0.033000
1553301774709074130	1200 33 1.100000 0.262000 0.304000 600 32 0.900000 0.073000 0.066000 600 36 1.000000 0.050000 0.050000 1.200000 0.028000 0.033000
1553301775219098088	1200 33 1.100000 0.267000 0.309000 600 32 0.900000 0.073000 0.066000 600 36 1.000000 0.051000 0.051000 1.200000 0.031000 0.037000
1553301775729526422	1200 33 1.100000 0.264000 0.306000 600 32 0.900000 0.146000 0.133000 600 36 1.000000 0.050000 0.050000 1.200000 0.031000 0.037000
1553301776239673297	1200 33 1.100000 0.262000 0.304000 600 32 0.900000 0.071000 0.064000 600 36 1.000000 0.051000 0.051000 1.200000 0.029000 0.035000
1553301776750133713	1200 33 1.100000 0.262000 0.304000 600 32 0.900000 0.068000 0.062000 600 36 1.000000 0.050000 0.050000 1.200000 0.028000 0.033000
1553301777260609047	1200 33 1.100000 0.267000 0.309000 600 32 0.900000 0.082000 0.074000 600 36 1.000000 0.050000 0.050000 1.200000 0.036000 0.043000
1553301777770932547	1200 33 1.100000 0.264000 0.306000 600 32 0.900000 0.143000 0.130000 600 36 1.000000 0.051000 0.051000 1.200000 0.032000 0.038000
1553301778281124214	1200 33 1.100000 0.262000 0.303000 600 32 0.900000 0.069000 0.062000 600 36 1.000000 0.051000 0.051000 1.200000 0.029000 0.035000
1553301778791357297	1200 33 1.100000 0.261000 0.302000 600 32 0.900000 0.073000 0.066000 600 36 1.000000 0.051000 0.051000 1.200000 0.028000 0.033000
1553301779301833172	1200 33 1.100000 0.271000 0.314000 600 32 0.900000 0.161000 0.146000 600 36 1.000000 0.050000 0.050000 1.200000 0.028000 0.033000
1553301779812258755	1200 33 1.100000 0.264000 0.306000 600 32 0.900000 0.083000 0.075000 600 36 1.000000 0.050000 0.050000 1.200000 0.028000 0.033000
1553301780322289964	1200 33 1.100000 0.262000 0.304000 600 32 0.900000 0.076000 0.069000 600 36 1.000000 0.050000 0.050000 1.200000 0.028000 0.033000
1553301780832372714	1200 33 1.100000 0.262000 0.304000 600 32 0.900000 0.072000 0.065000 600 36 1.000000 0.051000 0.051000 1.200000 0.029000 0.035000
1553301781342474214	1200 33 1.100000 0.262000 0.303000 600 32 0.900000 0.113000 0.103000 600 36 1.000000 0.050000 0.050000 1.200000 0.028000 0.033000
1553301781852967297	1200 33 1.100000 0.264000 0.306000 600 32 0.900000 0.110000 0.100000 600 36 1.000000 0.050000 0.050000 1.200000 0.027000 0.032000
1553301782362996006	1200 33 1.100000 0.262000 0.304000 600 32 0.900000 0.067000 0.061000 600 36 1.000000 0.050000 0.050000 1.200000 0.028000 0.033000
1553301782873110673	1200 33 1.100000 0.262000 0.304000 600 32 0.900000 0.067000 0.061000 600 36 1.000000 0.050000 0.050000 1.200000 0.030000 0.036000
1553301783384055631	1200 34 1.100000 0.262000 0.304000 600 32 0.900000 0.069000 0.062000 600 36 1.000000 0.050000 0.050000 1.200000 0.027000 0.032000
1553301783894426173	1200 33 1.100000 0.263000 0.305000 600 32 0.900000 0.129000 0.117000 600 36 1.000000 0.050000 0.050000 1.200000 0.032000 0.038000
1553301784404507256	1200 33 1.100000 0.261000 0.302000 600 32 0.900000 0.067000 0.061000 600 36 1.000000 0.051000 0.051000 1.200000 0.027000 0.032000
1553301784915222923	1200 33 1.100000 0.223000 0.259000 600 32 0.900000 0.073000 0.066000 600 36 1.000000 0.050000 0.050000 1.200000 0.027000 0.032000
1553301785426922923	1200 33 1.100000 0.185000 0.216000 600 32 0.900000 0.086000 0.078000 600 36 1.000000 0.051000 0.051000 1.200000 0.046000 0.055000
1553301785938286965	1200 33 1.100000 0.186000 0.217000 600 32 0.900000 0.188000 0.171000 600 36 1.000000 0.050000 0.050000 1.200000 0.055000 0.066000
1553301786449273006	1200 33 1.100000 0.185000 0.216000 600 32 0.900000 0.086000 0.078000 600 36 1.000000 0.051000 0.051000 1.200000 0.046000 0.055000
1553301786960288840	1200 33 1.100000 0.184000 0.215000 600 32 0.900000 0.086000 0.078000 600 36 1.000000 0.050000 0.050000 1.200000 0.046000 0.055000
1553301787471129798	1200 33 1.100000 0.186000 0.217000 600 32 0.900000 0.093000 0.084000 600 36 1.000000 0.050000 0.050000 1.200000 0.046000 0.055000
1553301787982399090	1200 33 1.100000 0.186000 0.217000 600 32 0.900000 0.161000 0.146000 600 36 1.000000 0.051000 0.051000 1.200000 0.047000 0.056000
1553301788493501590	1200 33 1.100000 0.186000 0.217000 600 32 0.900000 0.098000 0.089000 600 36 1.000000 0.050000 0.050000 1.200000 0.049000 0.059000
1553301789004887382	1200 33 1.100000 0.185000 0.216000 600 32 0.900000 0.097000 0.088000 600 36 1.000000 0.051000 0.051000 1.200000 0.047000 0.056000
1553301789515939048	1200 33 1.100000 0.185000 0.216000 600 32 0.900000 0.087000 0.079000 600 36 1.000000 0.050000 0.050000 1.200000 0.050000 0.060000
1553301790027736923	1200 33 1.100000 0.185000 0.216000 600 32 0.900000 0.083000 0.075000 600 37 1.000000 0.051000 0.051000 1.200000 0.046000 0.055000
1553301790538936090	1200 33 1.100000 0.187000 0.218000 600 32 0.900000 0.086000 0.078000 600 36 1.000000 0.050000 0.050000 1.200000 0.052000 0.062000
1553301791049328548	1200 33 1.100000 0.185000 0.216000 600 32 0.900000 0.086000 0.078000 600 36 1.000000 0.050000 0.050000 1.200000 0.046000 0.055000
1553301791559264632	1200 32 1.100000 0.188000 0.220000 600 32 0.900000 0.083000 0.075000 600 36 1.000000 0.051000 0.051000 1.200000 0.045000 0.054000
1553301792070457757	1200 33 1.100000 0.188000 0.220000 600 32 0.900000 0.089000 0.081000 600 36 1.000000 0.051000 0.051000 1.200000 0.044000 0.053000
1553301792580809215	1200 33 1.100000 0.189000 0.221000 600 32 0.900000 0.285000 0.259000 600 36 1.000000 0.050000 0.050000 1.200000 0.055000 0.066000
1553301793090872590	1200 33 1.100000 0.186000 0.217000 600 32 0.900000 0.096000 0.087000 600 36 1.000000 0.050000 0.050000 1.200000 0.045000 0.054000
1553301793600910965	1200 32 1.100000 0.188000 0.220000 600 32 0.900000 0.089000 0.081000 600 36 1.000000 0.050000 0.050000 1.200000 0.045000 0.054000
1553301794112753632	1200 32 1.100000 0.186000 0.217000 600 32 0.900000 0.092000 0.083000 600 36 1.000000 0.051000 0.051000 1.200000 0.044000 0.053000
1553301794624077091	1200 32 1.100000 0.069000 0.080000 600 32 0.900000 0.201000 0.183000 600 36 1.000000 0.051000 0.051000 1.200000 0.035000 0.042000
