#Timestamp	CPU(0) Frequency(MHz)	CPU(0) Temperature(C)	A7 Voltage(V)	A7 Current(A)	A7 Power(W)	CPU(4) Frequency(MHz)	CPU(4) Temperature(C)	A15 Voltage(V)	A15 Current(A)	A15 Power(W)	GPU Frequency(MHz)	GPU Temperature(C)	GPU Voltage(V)	GPU Current(A)	GPU Power(W)	RAM Voltage(V)	RAM Current(A)	RAM Power(W)
1553833699287629491	800 34 1.000000 0.102000 0.109000 900 32 0.900000 0.184000 0.172000 600 36 1.000000 0.052000 0.052000 1.200000 0.050000 0.060000
1553833699799930491	800 35 1.000000 0.109000 0.111000 900 33 0.900000 0.432000 0.409000 600 37 1.000000 0.052000 0.052000 1.200000 0.082000 0.099000
1553833700311848283	800 35 1.000000 0.050000 0.051000 900 33 0.900000 0.463000 0.438000 600 37 1.000000 0.052000 0.052000 1.200000 0.068000 0.082000
1553833700823365658	800 35 1.000000 0.050000 0.051000 900 33 0.900000 0.458000 0.434000 600 37 1.000000 0.051000 0.051000 1.200000 0.070000 0.084000
1553833701335193492	800 35 1.000000 0.048000 0.049000 900 33 0.900000 0.409000 0.387000 600 37 1.000000 0.052000 0.052000 1.200000 0.072000 0.087000
1553833701846261367	800 36 1.000000 0.086000 0.088000 900 33 0.900000 0.411000 0.389000 600 38 1.000000 0.052000 0.052000 1.200000 0.091000 0.110000
1553833702356888700	800 34 1.000000 0.034000 0.034000 900 33 0.900000 0.643000 0.604000 600 38 1.000000 0.052000 0.052000 1.200000 0.044000 0.053000
1553833702867380033	800 34 1.000000 0.037000 0.037000 900 33 0.900000 0.616000 0.579000 600 38 1.000000 0.052000 0.052000 1.200000 0.045000 0.054000
1553833703377571075	800 34 1.000000 0.038000 0.038000 900 33 0.900000 0.617000 0.580000 600 38 1.000000 0.052000 0.052000 1.200000 0.045000 0.054000
1553833703891186367	800 35 1.000000 0.054000 0.055000 900 33 0.900000 0.618000 0.581000 600 38 1.000000 0.051000 0.051000 1.200000 0.047000 0.056000
1553833704401834575	800 34 1.000000 0.048000 0.049000 900 33 0.900000 0.604000 0.567000 600 38 1.000000 0.052000 0.052000 1.200000 0.050000 0.060000
1553833704912326117	800 34 1.000000 0.038000 0.038000 900 33 0.900000 0.612000 0.575000 600 38 1.000000 0.052000 0.052000 1.200000 0.042000 0.050000
1553833705422627117	800 34 1.000000 0.036000 0.036000 900 33 0.900000 0.614000 0.577000 600 38 1.000000 0.052000 0.052000 1.200000 0.042000 0.050000
1553833705933107700	800 35 1.000000 0.040000 0.041000 900 33 0.900000 0.613000 0.576000 600 38 1.000000 0.052000 0.052000 1.200000 0.044000 0.053000
1553833706443521117	800 35 1.000000 0.065000 0.066000 900 33 0.900000 0.607000 0.571000 600 38 1.000000 0.052000 0.052000 1.200000 0.055000 0.066000
1553833706953771034	800 35 1.000000 0.036000 0.036000 900 33 0.900000 0.618000 0.581000 600 38 1.000000 0.052000 0.052000 1.200000 0.044000 0.053000
1553833707464192242	800 35 1.000000 0.036000 0.036000 900 33 0.900000 0.617000 0.580000 600 38 1.000000 0.052000 0.052000 1.200000 0.044000 0.053000
1553833707975748701	800 36 1.000000 0.062000 0.063000 900 34 0.900000 0.865000 0.814000 600 42 1.000000 0.052000 0.052000 1.200000 0.081000 0.098000
1553833708487885659	800 38 1.000000 0.151000 0.154000 900 35 0.900000 1.429000 1.350000 600 43 1.000000 0.052000 0.052000 1.200000 0.098000 0.118000
1553833709000321951	800 38 1.000000 0.167000 0.170000 900 35 0.900000 1.653000 1.563000 600 43 1.000000 0.052000 0.052000 1.200000 0.060000 0.072000
1553833709512277451	800 39 1.000000 0.156000 0.159000 900 35 0.900000 1.059000 0.997000 600 42 1.000000 0.052000 0.052000 1.200000 0.051000 0.061000
1553833710025491284	800 38 1.000000 0.194000 0.198000 900 35 0.900000 0.755000 0.710000 600 43 1.000000 0.052000 0.052000 1.200000 0.074000 0.089000
1553833710539393826	800 38 1.000000 0.185000 0.189000 900 36 0.900000 1.323000 1.247000 600 43 1.000000 0.052000 0.052000 1.200000 0.061000 0.073000
1553833711054433659	800 37 1.000000 0.199000 0.203000 900 35 0.900000 0.757000 0.713000 600 41 1.000000 0.052000 0.052000 1.200000 0.064000 0.077000
1553833711566458659	800 37 1.000000 0.174000 0.177000 900 35 0.900000 0.641000 0.604000 600 41 1.000000 0.052000 0.052000 1.200000 0.044000 0.053000
1553833712078580035	800 38 1.000000 0.175000 0.178000 900 35 0.900000 0.622000 0.587000 600 41 1.000000 0.052000 0.052000 1.200000 0.047000 0.056000
1553833712591390410	800 39 1.000000 0.183000 0.187000 900 35 0.900000 0.740000 0.699000 600 43 1.000000 0.052000 0.052000 1.200000 0.055000 0.066000
1553833713103333743	800 40 1.000000 0.170000 0.173000 900 36 0.900000 1.594000 1.506000 600 44 1.000000 0.052000 0.052000 1.200000 0.092000 0.111000
1553833713615505118	800 39 1.000000 0.174000 0.177000 900 36 0.900000 1.664000 1.572000 600 42 1.000000 0.052000 0.052000 1.200000 0.072000 0.087000
1553833714127472243	800 39 1.000000 0.171000 0.174000 900 36 0.900000 0.951000 0.894000 600 42 1.000000 0.052000 0.052000 1.200000 0.054000 0.065000
1553833714640217910	800 41 1.000000 0.161000 0.164000 900 36 0.900000 1.266000 1.193000 600 45 1.000000 0.053000 0.053000 1.200000 0.067000 0.081000
1553833715153286577	800 41 1.000000 0.138000 0.141000 900 37 0.900000 1.744000 1.649000 600 45 1.000000 0.052000 0.052000 1.200000 0.074000 0.089000
1553833715666663785	800 41 1.000000 0.142000 0.145000 900 37 0.900000 1.715000 1.622000 600 44 1.000000 0.052000 0.052000 1.200000 0.079000 0.095000
1553833716180915535	800 41 1.000000 0.174000 0.177000 900 37 0.900000 1.384000 1.305000 600 45 1.000000 0.052000 0.052000 1.200000 0.086000 0.104000
1553833716694822160	800 42 1.000000 0.155000 0.158000 900 37 0.900000 1.481000 1.399000 600 46 1.000000 0.052000 0.052000 1.200000 0.071000 0.085000
1553833717208558368	800 42 1.000000 0.134000 0.136000 900 38 0.900000 1.739000 1.645000 600 47 1.000000 0.052000 0.052000 1.200000 0.085000 0.102000
1553833717720771327	800 42 1.000000 0.177000 0.180000 900 38 0.900000 1.716000 1.623000 600 47 1.000000 0.052000 0.052000 1.200000 0.088000 0.106000
1553833718233777910	800 42 1.000000 0.164000 0.167000 900 38 0.900000 1.650000 1.560000 600 46 1.000000 0.053000 0.053000 1.200000 0.069000 0.083000
1553833718746718994	800 43 1.000000 0.173000 0.176000 900 38 0.900000 1.696000 1.604000 600 47 1.000000 0.052000 0.052000 1.200000 0.070000 0.084000
1553833719259413077	800 43 1.000000 0.167000 0.170000 900 38 0.900000 1.761000 1.665000 600 47 1.000000 0.053000 0.053000 1.200000 0.074000 0.089000
1553833719772476744	800 43 1.000000 0.195000 0.199000 900 38 0.900000 1.460000 1.379000 600 47 1.000000 0.052000 0.052000 1.200000 0.075000 0.090000
1553833720286544494	800 43 1.000000 0.182000 0.186000 900 38 0.900000 1.672000 1.581000 600 47 1.000000 0.053000 0.053000 1.200000 0.078000 0.094000
1553833720799383786	800 43 1.000000 0.172000 0.175000 900 38 0.900000 1.684000 1.593000 600 47 1.000000 0.053000 0.053000 1.200000 0.086000 0.104000
1553833721312876577	800 43 1.000000 0.122000 0.124000 900 39 0.900000 1.745000 1.650000 600 48 1.000000 0.053000 0.053000 1.200000 0.071000 0.085000
1553833721830180036	800 43 1.000000 0.140000 0.143000 900 39 0.900000 1.713000 1.620000 600 47 1.000000 0.053000 0.053000 1.200000 0.082000 0.099000
1553833722343636994	800 43 1.000000 0.185000 0.189000 900 39 0.900000 1.722000 1.629000 600 48 1.000000 0.053000 0.053000 1.200000 0.094000 0.113000
1553833722856522411	800 43 1.000000 0.186000 0.189000 900 39 0.900000 1.684000 1.591000 600 48 1.000000 0.053000 0.053000 1.200000 0.079000 0.095000
1553833723369388203	800 43 1.000000 0.149000 0.152000 900 39 0.900000 1.730000 1.636000 600 48 1.000000 0.053000 0.053000 1.200000 0.087000 0.105000
1553833723881358911	800 43 1.000000 0.171000 0.174000 900 39 0.900000 1.696000 1.604000 600 48 1.000000 0.053000 0.053000 1.200000 0.069000 0.083000
1553833724394002078	800 43 1.000000 0.186000 0.190000 900 39 0.900000 1.614000 1.526000 600 48 1.000000 0.053000 0.053000 1.200000 0.079000 0.095000
1553833724906367203	800 43 1.000000 0.175000 0.178000 900 39 0.900000 1.747000 1.652000 600 48 1.000000 0.053000 0.053000 1.200000 0.094000 0.113000
1553833725418588578	800 42 1.000000 0.169000 0.172000 900 39 0.900000 1.509000 1.426000 600 47 1.000000 0.053000 0.053000 1.200000 0.080000 0.096000
1553833725931644578	800 43 1.000000 0.167000 0.170000 900 39 0.900000 1.519000 1.435000 600 46 1.000000 0.053000 0.053000 1.200000 0.084000 0.101000
1553833726443116620	800 41 1.000000 0.175000 0.178000 900 38 0.900000 0.644000 0.608000 600 44 1.000000 0.053000 0.053000 1.200000 0.058000 0.070000
1553833726954184203	800 39 1.000000 0.124000 0.126000 900 38 0.900000 0.751000 0.707000 600 44 1.000000 0.052000 0.052000 1.200000 0.048000 0.058000
1553833727465551953	800 39 1.000000 0.105000 0.107000 900 37 0.900000 0.811000 0.763000 600 43 1.000000 0.053000 0.053000 1.200000 0.043000 0.051000
1553833727976699161	800 38 1.000000 0.104000 0.106000 900 37 0.900000 0.706000 0.664000 600 42 1.000000 0.052000 0.052000 1.200000 0.040000 0.048000
1553833728489233286	800 38 1.000000 0.109000 0.111000 900 37 0.900000 0.769000 0.724000 600 42 1.000000 0.052000 0.052000 1.200000 0.041000 0.049000
1553833729001313578	800 38 1.000000 0.174000 0.177000 900 37 0.900000 0.676000 0.637000 600 42 1.000000 0.052000 0.052000 1.200000 0.056000 0.067000
1553833729513922328	800 40 1.000000 0.171000 0.174000 900 37 0.900000 0.664000 0.627000 600 43 1.000000 0.052000 0.052000 1.200000 0.050000 0.060000
1553833730026172995	800 41 1.000000 0.157000 0.160000 900 37 0.900000 1.340000 1.263000 600 45 1.000000 0.053000 0.053000 1.200000 0.079000 0.095000
1553833730538330078	800 42 1.000000 0.172000 0.175000 900 38 0.900000 1.761000 1.665000 600 45 1.000000 0.052000 0.052000 1.200000 0.073000 0.088000
1553833731050588953	800 42 1.000000 0.172000 0.175000 900 38 0.900000 1.382000 1.303000 600 46 1.000000 0.052000 0.052000 1.200000 0.072000 0.087000
1553833731563926912	800 42 1.000000 0.175000 0.178000 900 38 0.900000 1.722000 1.629000 600 46 1.000000 0.053000 0.053000 1.200000 0.074000 0.089000
1553833732076246912	800 43 1.000000 0.172000 0.175000 900 38 0.900000 1.747000 1.652000 600 47 1.000000 0.053000 0.053000 1.200000 0.099000 0.120000
1553833732588466620	800 43 1.000000 0.170000 0.173000 900 39 0.900000 1.771000 1.675000 600 48 1.000000 0.053000 0.053000 1.200000 0.081000 0.098000
1553833733103892620	800 43 1.000000 0.174000 0.177000 900 39 0.900000 1.575000 1.488000 600 47 1.000000 0.053000 0.053000 1.200000 0.067000 0.081000
1553833733615941620	800 43 1.000000 0.177000 0.180000 900 39 0.900000 1.656000 1.566000 600 47 1.000000 0.053000 0.053000 1.200000 0.093000 0.112000
1553833734128072079	800 41 1.000000 0.170000 0.173000 900 38 0.900000 1.070000 1.009000 600 47 1.000000 0.053000 0.053000 1.200000 0.058000 0.070000
1553833734640232246	800 42 1.000000 0.171000 0.174000 900 38 0.900000 1.536000 1.451000 600 47 1.000000 0.053000 0.053000 1.200000 0.064000 0.077000
1553833735152637371	800 42 1.000000 0.190000 0.194000 900 39 0.900000 1.559000 1.474000 600 46 1.000000 0.053000 0.053000 1.200000 0.093000 0.112000
1553833735665125746	800 41 1.000000 0.178000 0.181000 900 38 0.900000 0.994000 0.939000 600 44 1.000000 0.053000 0.053000 1.200000 0.071000 0.085000
1553833736177120954	800 40 1.000000 0.173000 0.176000 900 38 0.900000 0.634000 0.600000 600 44 1.000000 0.052000 0.052000 1.200000 0.050000 0.060000
1553833736688906996	800 39 1.000000 0.172000 0.175000 900 37 0.900000 0.532000 0.503000 600 43 1.000000 0.053000 0.053000 1.200000 0.049000 0.059000
1553833737200632746	800 39 1.000000 0.174000 0.177000 900 37 0.900000 0.583000 0.552000 600 42 1.000000 0.053000 0.053000 1.200000 0.047000 0.056000
1553833737712617163	800 39 1.000000 0.194000 0.198000 900 37 0.900000 0.578000 0.546000 600 42 1.000000 0.052000 0.052000 1.200000 0.069000 0.083000
1553833738224562579	800 38 1.000000 0.183000 0.187000 900 37 0.900000 0.578000 0.546000 600 42 1.000000 0.052000 0.052000 1.200000 0.047000 0.056000
1553833738736817663	800 39 1.000000 0.170000 0.173000 900 37 0.900000 0.743000 0.700000 600 44 1.000000 0.052000 0.052000 1.200000 0.052000 0.062000
1553833739248903329	800 42 1.000000 0.155000 0.158000 900 37 0.900000 1.317000 1.244000 600 46 1.000000 0.052000 0.052000 1.200000 0.088000 0.106000
1553833739762782288	800 40 1.000000 0.189000 0.193000 900 38 0.900000 1.749000 1.654000 600 45 1.000000 0.052000 0.052000 1.200000 0.071000 0.085000
1553833740275277871	800 40 1.000000 0.186000 0.190000 900 38 0.900000 1.042000 0.981000 600 44 1.000000 0.052000 0.052000 1.200000 0.065000 0.078000
1553833740787832163	800 42 1.000000 0.168000 0.171000 900 38 0.900000 1.062000 1.000000 600 45 1.000000 0.053000 0.053000 1.200000 0.061000 0.073000
1553833741300727705	800 43 1.000000 0.159000 0.162000 900 38 0.900000 1.609000 1.522000 600 47 1.000000 0.052000 0.052000 1.200000 0.081000 0.098000
1553833741813811580	800 43 1.000000 0.164000 0.167000 900 38 0.900000 1.752000 1.657000 600 47 1.000000 0.053000 0.053000 1.200000 0.076000 0.092000
1553833742327918246	800 43 1.000000 0.190000 0.194000 900 39 0.900000 1.681000 1.590000 600 47 1.000000 0.053000 0.053000 1.200000 0.090000 0.109000
1553833742841066038	800 43 1.000000 0.164000 0.167000 900 39 0.900000 1.693000 1.601000 600 48 1.000000 0.053000 0.053000 1.200000 0.091000 0.110000
1553833743354109163	800 43 1.000000 0.158000 0.161000 900 39 0.900000 1.717000 1.624000 600 48 1.000000 0.053000 0.053000 1.200000 0.071000 0.085000
1553833743866671705	800 43 1.000000 0.190000 0.193000 900 39 0.900000 1.720000 1.627000 600 48 1.000000 0.053000 0.053000 1.200000 0.065000 0.078000
1553833744379287663	800 43 1.000000 0.153000 0.156000 900 39 0.900000 1.572000 1.485000 600 48 1.000000 0.053000 0.053000 1.200000 0.082000 0.099000
1553833744891906830	800 44 1.000000 0.178000 0.181000 900 39 0.900000 1.673000 1.582000 600 48 1.000000 0.053000 0.053000 1.200000 0.075000 0.090000
1553833745404428163	800 44 1.000000 0.155000 0.158000 900 39 0.900000 1.570000 1.483000 600 48 1.000000 0.053000 0.053000 1.200000 0.087000 0.105000
1553833745916737539	800 44 1.000000 0.182000 0.186000 900 39 0.900000 1.759000 1.664000 600 48 1.000000 0.053000 0.053000 1.200000 0.078000 0.094000
1553833746429798580	800 44 1.000000 0.177000 0.180000 900 40 0.900000 1.662000 1.572000 600 48 1.000000 0.053000 0.053000 1.200000 0.079000 0.095000
1553833746942571705	800 43 1.000000 0.171000 0.174000 900 39 0.900000 1.587000 1.499000 600 47 1.000000 0.053000 0.053000 1.200000 0.061000 0.073000
1553833747455349705	800 43 1.000000 0.172000 0.175000 900 39 0.900000 1.356000 1.278000 600 46 1.000000 0.053000 0.053000 1.200000 0.063000 0.076000
1553833747968996039	800 44 1.000000 0.189000 0.192000 900 39 0.900000 1.311000 1.236000 600 48 1.000000 0.053000 0.053000 1.200000 0.081000 0.098000
1553833748480986372	800 44 1.000000 0.155000 0.158000 900 40 0.900000 1.733000 1.639000 600 48 1.000000 0.053000 0.053000 1.200000 0.076000 0.092000
1553833748993093122	800 44 1.000000 0.154000 0.157000 900 40 0.900000 1.740000 1.646000 600 48 1.000000 0.053000 0.053000 1.200000 0.092000 0.111000
1553833749505373497	800 44 1.000000 0.172000 0.175000 900 40 0.900000 1.676000 1.585000 600 49 1.000000 0.053000 0.053000 1.200000 0.086000 0.104000
1553833750017474581	800 44 1.000000 0.141000 0.144000 900 40 0.900000 1.761000 1.665000 600 48 1.000000 0.053000 0.053000 1.200000 0.077000 0.093000
1553833750529227664	800 44 1.000000 0.176000 0.179000 900 40 0.900000 1.652000 1.562000 600 49 1.000000 0.053000 0.053000 1.200000 0.082000 0.099000
1553833751041370997	800 44 1.000000 0.135000 0.138000 900 40 0.900000 1.764000 1.668000 600 49 1.000000 0.053000 0.053000 1.200000 0.080000 0.096000
1553833751553421914	800 43 1.000000 0.169000 0.172000 900 39 0.900000 1.460000 1.379000 600 48 1.000000 0.053000 0.053000 1.200000 0.055000 0.066000
1553833752070472081	800 43 1.000000 0.189000 0.193000 900 39 0.900000 1.184000 1.116000 600 47 1.000000 0.053000 0.053000 1.200000 0.055000 0.066000
1553833752582490914	800 44 1.000000 0.175000 0.178000 900 39 0.900000 1.596000 1.508000 600 48 1.000000 0.053000 0.053000 1.200000 0.093000 0.112000
1553833753096554998	800 41 1.000000 0.172000 0.175000 900 39 0.900000 0.974000 0.917000 600 46 1.000000 0.053000 0.053000 1.200000 0.067000 0.081000
1553833753609815498	800 40 1.000000 0.178000 0.181000 900 38 0.900000 0.483000 0.456000 600 44 1.000000 0.053000 0.053000 1.200000 0.072000 0.087000
1553833754121784081	800 39 1.000000 0.187000 0.191000 900 38 0.900000 0.416000 0.393000 600 43 1.000000 0.053000 0.053000 1.200000 0.049000 0.059000
1553833754633716248	800 40 1.000000 0.170000 0.173000 900 37 0.900000 0.514000 0.486000 600 43 1.000000 0.052000 0.052000 1.200000 0.050000 0.060000
1553833755145717331	800 42 1.000000 0.170000 0.173000 900 38 0.900000 1.434000 1.355000 600 46 1.000000 0.053000 0.053000 1.200000 0.075000 0.090000
1553833755657808373	800 42 1.000000 0.163000 0.166000 900 38 0.900000 1.686000 1.594000 600 46 1.000000 0.052000 0.052000 1.200000 0.087000 0.105000
1553833756169578790	800 42 1.000000 0.185000 0.189000 900 38 0.900000 0.863000 0.812000 600 43 1.000000 0.052000 0.052000 1.200000 0.051000 0.061000
1553833756681346540	800 42 1.000000 0.157000 0.160000 900 38 0.900000 0.869000 0.817000 600 44 1.000000 0.053000 0.053000 1.200000 0.054000 0.065000
1553833757193241498	800 41 1.000000 0.173000 0.176000 900 38 0.900000 0.858000 0.809000 600 44 1.000000 0.052000 0.052000 1.200000 0.052000 0.062000
1553833757705640540	800 42 1.000000 0.152000 0.155000 900 38 0.900000 1.316000 1.243000 600 47 1.000000 0.052000 0.052000 1.200000 0.067000 0.081000
1553833758218138957	800 43 1.000000 0.189000 0.192000 900 39 0.900000 1.736000 1.642000 600 47 1.000000 0.052000 0.052000 1.200000 0.089000 0.107000
1553833758730165832	800 42 1.000000 0.171000 0.174000 900 39 0.900000 1.499000 1.416000 600 47 1.000000 0.053000 0.053000 1.200000 0.071000 0.085000
1553833759242208290	800 42 1.000000 0.175000 0.178000 900 39 0.900000 1.296000 1.222000 600 47 1.000000 0.053000 0.053000 1.200000 0.073000 0.088000
1553833759755868832	800 43 1.000000 0.162000 0.165000 900 39 0.900000 1.506000 1.423000 600 47 1.000000 0.053000 0.053000 1.200000 0.066000 0.079000
1553833760269313624	800 43 1.000000 0.151000 0.154000 900 39 0.900000 1.692000 1.600000 600 48 1.000000 0.053000 0.053000 1.200000 0.097000 0.117000
1553833760782162374	800 44 1.000000 0.165000 0.168000 900 39 0.900000 1.767000 1.671000 600 48 1.000000 0.053000 0.053000 1.200000 0.078000 0.094000
1553833761295819249	800 42 1.000000 0.170000 0.173000 900 39 0.900000 1.670000 1.579000 600 48 1.000000 0.053000 0.053000 1.200000 0.081000 0.098000
1553833761808158165	800 44 1.000000 0.173000 0.176000 900 39 0.900000 1.360000 1.282000 600 48 1.000000 0.053000 0.053000 1.200000 0.067000 0.081000
1553833762320168499	800 44 1.000000 0.176000 0.179000 900 40 0.900000 1.648000 1.559000 600 48 1.000000 0.053000 0.053000 1.200000 0.076000 0.092000
1553833762832544207	800 44 1.000000 0.173000 0.176000 900 40 0.900000 1.602000 1.513000 600 48 1.000000 0.053000 0.053000 1.200000 0.065000 0.078000
1553833763345986624	800 44 1.000000 0.159000 0.162000 900 40 0.900000 1.630000 1.540000 600 48 1.000000 0.053000 0.053000 1.200000 0.075000 0.090000
1553833763858531332	800 44 1.000000 0.150000 0.153000 900 40 0.900000 1.738000 1.644000 600 49 1.000000 0.053000 0.053000 1.200000 0.084000 0.101000
1553833764381359041	800 44 1.000000 0.156000 0.159000 900 40 0.900000 1.727000 1.633000 600 49 1.000000 0.053000 0.053000 1.200000 0.083000 0.100000
1553833764897372541	800 44 1.000000 0.153000 0.156000 900 40 0.900000 1.761000 1.665000 600 49 1.000000 0.053000 0.053000 1.200000 0.087000 0.105000
1553833765410079333	800 44 1.000000 0.134000 0.137000 900 40 0.900000 1.678000 1.587000 600 49 1.000000 0.053000 0.053000 1.200000 0.068000 0.082000
1553833765922888333	800 44 1.000000 0.162000 0.165000 900 40 0.900000 1.664000 1.574000 600 49 1.000000 0.053000 0.053000 1.200000 0.072000 0.087000
1553833766434866249	800 44 1.000000 0.150000 0.153000 900 40 0.900000 1.738000 1.644000 600 49 1.000000 0.053000 0.053000 1.200000 0.088000 0.106000
1553833766947599749	800 44 1.000000 0.173000 0.176000 900 40 0.900000 1.678000 1.587000 600 49 1.000000 0.053000 0.053000 1.200000 0.082000 0.099000
1553833767460012708	800 44 1.000000 0.160000 0.163000 900 40 0.900000 1.662000 1.572000 600 48 1.000000 0.053000 0.053000 1.200000 0.063000 0.076000
1553833767974364166	800 44 1.000000 0.167000 0.170000 900 40 0.900000 1.608000 1.519000 600 49 1.000000 0.053000 0.053000 1.200000 0.074000 0.089000
1553833768487325291	800 44 1.000000 0.176000 0.179000 900 40 0.900000 1.722000 1.629000 600 49 1.000000 0.053000 0.053000 1.200000 0.086000 0.104000
1553833768999565791	800 45 1.000000 0.176000 0.179000 900 40 0.900000 1.710000 1.617000 600 49 1.000000 0.053000 0.053000 1.200000 0.091000 0.110000
1553833769512524541	800 45 1.000000 0.173000 0.176000 900 40 0.900000 1.726000 1.632000 600 49 1.000000 0.053000 0.053000 1.200000 0.071000 0.085000
1553833770025969958	800 44 1.000000 0.172000 0.175000 900 40 0.900000 1.700000 1.608000 600 49 1.000000 0.053000 0.053000 1.200000 0.069000 0.083000
1553833770540674416	800 44 1.000000 0.175000 0.178000 900 40 0.900000 1.736000 1.642000 600 49 1.000000 0.053000 0.053000 1.200000 0.073000 0.088000
1553833771054047292	800 44 1.000000 0.190000 0.193000 900 40 0.900000 1.759000 1.664000 600 49 1.000000 0.053000 0.053000 1.200000 0.082000 0.099000
1553833771566825042	800 43 1.000000 0.161000 0.164000 900 40 0.900000 1.354000 1.276000 600 49 1.000000 0.053000 0.053000 1.200000 0.069000 0.083000
1553833772079581375	800 43 1.000000 0.175000 0.178000 900 40 0.900000 1.271000 1.198000 600 48 1.000000 0.053000 0.053000 1.200000 0.079000 0.095000
1553833772603714875	800 42 1.000000 0.170000 0.173000 900 40 0.900000 1.146000 1.079000 600 46 1.000000 0.053000 0.053000 1.200000 0.061000 0.073000
1553833773116126792	800 43 1.000000 0.184000 0.187000 900 39 0.900000 1.558000 1.472000 600 48 1.000000 0.053000 0.053000 1.200000 0.070000 0.084000
1553833773628536500	800 41 1.000000 0.195000 0.199000 900 39 0.900000 0.845000 0.795000 600 47 1.000000 0.053000 0.053000 1.200000 0.075000 0.090000
1553833774141000709	800 41 1.000000 0.172000 0.175000 900 39 0.900000 0.949000 0.893000 600 47 1.000000 0.053000 0.053000 1.200000 0.052000 0.062000
1553833774653380459	800 43 1.000000 0.155000 0.158000 900 39 0.900000 1.571000 1.484000 600 48 1.000000 0.052000 0.052000 1.200000 0.093000 0.112000
1553833775166175667	800 44 1.000000 0.172000 0.175000 900 39 0.900000 1.747000 1.652000 600 48 1.000000 0.053000 0.053000 1.200000 0.071000 0.085000
1553833775684133625	800 43 1.000000 0.175000 0.178000 900 39 0.900000 1.733000 1.639000 600 47 1.000000 0.053000 0.053000 1.200000 0.070000 0.084000
1553833776199656792	800 43 1.000000 0.198000 0.202000 900 39 0.900000 1.454000 1.371000 600 48 1.000000 0.053000 0.053000 1.200000 0.091000 0.110000
1553833776719147001	800 44 1.000000 0.172000 0.175000 900 40 0.900000 1.425000 1.346000 600 49 1.000000 0.053000 0.053000 1.200000 0.081000 0.098000
1553833777232690042	800 44 1.000000 0.158000 0.161000 900 40 0.900000 1.762000 1.666000 600 49 1.000000 0.053000 0.053000 1.200000 0.093000 0.112000
1553833777746672876	800 44 1.000000 0.149000 0.152000 900 40 0.900000 1.717000 1.624000 600 49 1.000000 0.053000 0.053000 1.200000 0.083000 0.100000
1553833778260599084	800 44 1.000000 0.189000 0.193000 900 40 0.900000 1.737000 1.643000 600 49 1.000000 0.053000 0.053000 1.200000 0.091000 0.110000
1553833778773277251	800 44 1.000000 0.144000 0.147000 900 40 0.900000 1.645000 1.556000 600 49 1.000000 0.053000 0.053000 1.200000 0.084000 0.101000
1553833779285456001	800 44 1.000000 0.130000 0.132000 900 40 0.900000 1.767000 1.671000 600 49 1.000000 0.053000 0.053000 1.200000 0.067000 0.081000
1553833779798024418	800 44 1.000000 0.138000 0.141000 900 40 0.900000 1.670000 1.579000 600 49 1.000000 0.053000 0.053000 1.200000 0.061000 0.073000
1553833780310805376	800 44 1.000000 0.189000 0.193000 900 40 0.900000 1.700000 1.608000 600 49 1.000000 0.053000 0.053000 1.200000 0.077000 0.093000
1553833780823549584	800 45 1.000000 0.164000 0.167000 900 40 0.900000 1.677000 1.586000 600 49 1.000000 0.053000 0.053000 1.200000 0.090000 0.109000
1553833781336521334	800 45 1.000000 0.146000 0.149000 900 40 0.900000 1.768000 1.672000 600 49 1.000000 0.053000 0.053000 1.200000 0.076000 0.092000
1553833781848647876	800 44 1.000000 0.171000 0.174000 900 40 0.900000 1.359000 1.281000 600 48 1.000000 0.053000 0.053000 1.200000 0.071000 0.085000
1553833782368488710	800 45 1.000000 0.173000 0.176000 900 40 0.900000 1.745000 1.650000 600 49 1.000000 0.053000 0.053000 1.200000 0.086000 0.104000
1553833782881532960	800 43 1.000000 0.184000 0.188000 900 40 0.900000 1.231000 1.160000 600 46 1.000000 0.053000 0.053000 1.200000 0.056000 0.067000
1553833783393997876	800 42 1.000000 0.159000 0.162000 900 40 0.900000 0.922000 0.869000 600 48 1.000000 0.053000 0.053000 1.200000 0.068000 0.082000
1553833783905963543	800 41 1.000000 0.160000 0.163000 900 39 0.900000 0.955000 0.902000 600 45 1.000000 0.053000 0.053000 1.200000 0.045000 0.054000
1553833784417698251	800 41 1.000000 0.105000 0.107000 900 38 0.900000 0.659000 0.621000 600 44 1.000000 0.053000 0.053000 1.200000 0.040000 0.048000
1553833784930363668	800 40 1.000000 0.130000 0.132000 900 38 0.900000 0.709000 0.667000 600 44 1.000000 0.053000 0.053000 1.200000 0.049000 0.059000
1553833785442112335	800 40 1.000000 0.106000 0.108000 900 38 0.900000 0.754000 0.709000 600 43 1.000000 0.053000 0.053000 1.200000 0.042000 0.050000
1553833785954047627	800 40 1.000000 0.115000 0.117000 900 38 0.900000 0.697000 0.655000 600 43 1.000000 0.052000 0.052000 1.200000 0.042000 0.050000
1553833786466258627	800 40 1.000000 0.156000 0.159000 900 38 0.900000 0.762000 0.717000 600 44 1.000000 0.053000 0.053000 1.200000 0.047000 0.056000
1553833786978385543	800 39 1.000000 0.172000 0.175000 900 38 0.900000 0.688000 0.650000 600 43 1.000000 0.053000 0.053000 1.200000 0.056000 0.067000
1553833787491954877	800 42 1.000000 0.190000 0.194000 900 38 0.900000 0.865000 0.814000 600 46 1.000000 0.052000 0.052000 1.200000 0.076000 0.092000
1553833788005031585	800 43 1.000000 0.177000 0.180000 900 39 0.900000 1.716000 1.621000 600 47 1.000000 0.052000 0.052000 1.200000 0.075000 0.090000
1553833788517880960	800 43 1.000000 0.172000 0.175000 900 39 0.900000 1.678000 1.587000 600 48 1.000000 0.052000 0.052000 1.200000 0.066000 0.079000
1553833789032405335	800 43 1.000000 0.174000 0.177000 900 39 0.900000 1.725000 1.631000 600 47 1.000000 0.053000 0.053000 1.200000 0.074000 0.089000
1553833789556133544	800 44 1.000000 0.200000 0.204000 900 39 0.900000 1.481000 1.399000 600 48 1.000000 0.053000 0.053000 1.200000 0.086000 0.104000
1553833790068985252	800 44 1.000000 0.187000 0.190000 900 40 0.900000 1.585000 1.497000 600 47 1.000000 0.053000 0.053000 1.200000 0.065000 0.078000
1553833790581992294	800 44 1.000000 0.166000 0.169000 900 40 0.900000 1.465000 1.384000 600 48 1.000000 0.053000 0.053000 1.200000 0.066000 0.079000
1553833791094698294	800 44 1.000000 0.166000 0.169000 900 40 0.900000 1.710000 1.617000 600 48 1.000000 0.053000 0.053000 1.200000 0.072000 0.087000
1553833791607773961	800 44 1.000000 0.204000 0.208000 900 40 0.900000 1.670000 1.579000 600 48 1.000000 0.053000 0.053000 1.200000 0.087000 0.105000
1553833792120449627	800 44 1.000000 0.155000 0.158000 900 40 0.900000 1.657000 1.567000 600 49 1.000000 0.053000 0.053000 1.200000 0.073000 0.088000
1553833792633635002	800 44 1.000000 0.174000 0.177000 900 40 0.900000 1.719000 1.626000 600 49 1.000000 0.053000 0.053000 1.200000 0.079000 0.095000
1553833793146647336	800 45 1.000000 0.153000 0.156000 900 40 0.900000 1.751000 1.656000 600 49 1.000000 0.053000 0.053000 1.200000 0.082000 0.099000
1553833793660129336	800 44 1.000000 0.155000 0.158000 900 40 0.900000 1.677000 1.584000 600 49 1.000000 0.053000 0.053000 1.200000 0.071000 0.085000
1553833794172976169	800 44 1.000000 0.180000 0.183000 900 40 0.900000 1.616000 1.528000 600 49 1.000000 0.053000 0.053000 1.200000 0.074000 0.089000
1553833794685875919	800 45 1.000000 0.177000 0.180000 900 40 0.900000 1.693000 1.601000 600 49 1.000000 0.053000 0.053000 1.200000 0.077000 0.093000
1553833795198454253	800 45 1.000000 0.161000 0.164000 900 41 0.900000 1.768000 1.672000 600 49 1.000000 0.053000 0.053000 1.200000 0.073000 0.088000
1553833795711926044	800 45 1.000000 0.170000 0.173000 900 40 0.900000 1.732000 1.638000 600 49 1.000000 0.053000 0.053000 1.200000 0.067000 0.081000
1553833796224746503	800 45 1.000000 0.198000 0.202000 900 41 0.900000 1.679000 1.588000 600 49 1.000000 0.053000 0.053000 1.200000 0.086000 0.104000
1553833796737787295	800 45 1.000000 0.172000 0.175000 900 41 0.900000 1.751000 1.656000 600 50 1.000000 0.053000 0.053000 1.200000 0.089000 0.107000
1553833797250599503	800 45 1.000000 0.140000 0.143000 900 41 0.900000 1.752000 1.657000 600 50 1.000000 0.053000 0.053000 1.200000 0.085000 0.103000
1553833797763402086	800 45 1.000000 0.165000 0.168000 900 41 0.900000 1.717000 1.624000 600 48 1.000000 0.053000 0.053000 1.200000 0.075000 0.090000
1553833798276313920	800 45 1.000000 0.194000 0.197000 900 41 0.900000 1.633000 1.544000 600 49 1.000000 0.053000 0.053000 1.200000 0.065000 0.078000
1553833798788527712	800 45 1.000000 0.175000 0.178000 900 41 0.900000 1.670000 1.579000 600 49 1.000000 0.053000 0.053000 1.200000 0.080000 0.096000
1553833799301371337	800 45 1.000000 0.140000 0.143000 900 41 0.900000 1.765000 1.669000 600 50 1.000000 0.053000 0.053000 1.200000 0.073000 0.088000
1553833799819774628	800 43 1.000000 0.160000 0.163000 900 40 0.900000 1.411000 1.330000 600 49 1.000000 0.053000 0.053000 1.200000 0.066000 0.079000
1553833800332176837	800 44 1.000000 0.173000 0.176000 900 41 0.900000 1.467000 1.386000 600 49 1.000000 0.053000 0.053000 1.200000 0.065000 0.078000
1553833800844423170	800 45 1.000000 0.163000 0.166000 900 41 0.900000 1.751000 1.656000 600 49 1.000000 0.053000 0.053000 1.200000 0.081000 0.098000
1553833801356621420	800 42 1.000000 0.150000 0.153000 900 40 0.900000 1.166000 1.098000 600 46 1.000000 0.053000 0.053000 1.200000 0.065000 0.078000
1553833801869379462	800 43 1.000000 0.170000 0.173000 900 40 0.900000 0.877000 0.825000 600 47 1.000000 0.053000 0.053000 1.200000 0.055000 0.066000
1553833802381457295	800 44 1.000000 0.160000 0.163000 900 40 0.900000 1.722000 1.629000 600 49 1.000000 0.053000 0.053000 1.200000 0.090000 0.109000
1553833802893656504	800 45 1.000000 0.187000 0.191000 900 40 0.900000 1.702000 1.608000 600 49 1.000000 0.053000 0.053000 1.200000 0.092000 0.111000
1553833803408333295	800 44 1.000000 0.165000 0.168000 900 40 0.900000 1.412000 1.334000 600 49 1.000000 0.053000 0.053000 1.200000 0.064000 0.077000
1553833803921348087	800 45 1.000000 0.156000 0.159000 900 41 0.900000 1.709000 1.616000 600 49 1.000000 0.053000 0.053000 1.200000 0.084000 0.101000
1553833804434050837	800 45 1.000000 0.173000 0.176000 900 41 0.900000 1.744000 1.648000 600 49 1.000000 0.053000 0.053000 1.200000 0.089000 0.107000
1553833804946267296	800 45 1.000000 0.155000 0.158000 900 41 0.900000 1.748000 1.653000 600 49 1.000000 0.053000 0.053000 1.200000 0.087000 0.105000
1553833805458541421	800 45 1.000000 0.170000 0.173000 900 41 0.900000 1.684000 1.591000 600 50 1.000000 0.053000 0.053000 1.200000 0.086000 0.104000
1553833805970833754	800 45 1.000000 0.167000 0.170000 900 41 0.900000 1.729000 1.635000 600 50 1.000000 0.053000 0.053000 1.200000 0.068000 0.082000
1553833806482460712	800 45 1.000000 0.175000 0.178000 900 41 0.900000 1.725000 1.631000 600 50 1.000000 0.053000 0.053000 1.200000 0.080000 0.096000
1553833806997070421	800 44 1.000000 0.125000 0.127000 900 41 0.900000 1.767000 1.671000 600 50 1.000000 0.053000 0.053000 1.200000 0.073000 0.088000
1553833807515504171	800 45 1.000000 0.193000 0.197000 900 41 0.900000 1.632000 1.542000 600 50 1.000000 0.053000 0.053000 1.200000 0.093000 0.112000
1553833808027384254	800 45 1.000000 0.170000 0.173000 900 41 0.900000 1.716000 1.623000 600 50 1.000000 0.053000 0.053000 1.200000 0.078000 0.094000
1553833808539730129	800 45 1.000000 0.137000 0.140000 900 41 0.900000 1.772000 1.676000 600 50 1.000000 0.053000 0.053000 1.200000 0.072000 0.087000
1553833809052058254	800 45 1.000000 0.167000 0.170000 900 41 0.900000 1.746000 1.651000 600 50 1.000000 0.053000 0.053000 1.200000 0.093000 0.112000
1553833809564693213	800 45 1.000000 0.145000 0.148000 900 41 0.900000 1.710000 1.617000 600 49 1.000000 0.053000 0.053000 1.200000 0.082000 0.099000
1553833810077298671	800 45 1.000000 0.166000 0.169000 900 41 0.900000 1.677000 1.586000 600 50 1.000000 0.053000 0.053000 1.200000 0.070000 0.084000
1553833810588614755	800 45 1.000000 0.167000 0.170000 900 41 0.900000 1.499000 1.416000 600 49 1.000000 0.053000 0.053000 1.200000 0.072000 0.087000
1553833811100198880	800 44 1.000000 0.079000 0.080000 900 40 0.900000 1.291000 1.217000 600 47 1.000000 0.053000 0.053000 1.200000 0.059000 0.071000
1553833811612694255	800 43 1.000000 0.142000 0.145000 900 40 0.900000 0.985000 0.927000 600 48 1.000000 0.053000 0.053000 1.200000 0.061000 0.073000
1553833812125358546	800 43 1.000000 0.169000 0.172000 900 40 0.900000 1.497000 1.414000 600 49 1.000000 0.053000 0.053000 1.200000 0.091000 0.110000
1553833812637671380	800 44 1.000000 0.167000 0.170000 900 40 0.900000 1.574000 1.487000 600 48 1.000000 0.053000 0.053000 1.200000 0.079000 0.095000
1553833813149838838	800 43 1.000000 0.174000 0.177000 900 40 0.900000 1.393000 1.313000 600 47 1.000000 0.053000 0.053000 1.200000 0.071000 0.085000
1553833813663888922	800 42 1.000000 0.175000 0.178000 900 40 0.900000 1.076000 1.013000 600 46 1.000000 0.053000 0.053000 1.200000 0.055000 0.066000
1553833814176945297	800 43 1.000000 0.172000 0.175000 900 40 0.900000 0.785000 0.739000 600 47 1.000000 0.053000 0.053000 1.200000 0.063000 0.076000
1553833814689038130	800 41 1.000000 0.178000 0.181000 900 39 0.900000 1.224000 1.154000 600 48 1.000000 0.053000 0.053000 1.200000 0.062000 0.075000
1553833815201014005	800 41 1.000000 0.185000 0.188000 900 39 0.900000 0.917000 0.863000 600 44 1.000000 0.053000 0.053000 1.200000 0.056000 0.067000
1553833815713140589	800 41 1.000000 0.174000 0.177000 900 39 0.900000 0.590000 0.557000 600 44 1.000000 0.053000 0.053000 1.200000 0.046000 0.055000
1553833816225657630	800 42 1.000000 0.184000 0.188000 900 39 0.900000 0.865000 0.817000 600 46 1.000000 0.053000 0.053000 1.200000 0.057000 0.068000
1553833816737896880	800 43 1.000000 0.137000 0.140000 900 39 0.900000 1.374000 1.295000 600 48 1.000000 0.053000 0.053000 1.200000 0.075000 0.090000
1553833817250057214	800 42 1.000000 0.188000 0.192000 900 39 0.900000 1.756000 1.661000 600 48 1.000000 0.053000 0.053000 1.200000 0.078000 0.094000
1553833817764821130	800 42 1.000000 0.160000 0.163000 900 39 0.900000 1.350000 1.273000 600 48 1.000000 0.052000 0.052000 1.200000 0.057000 0.068000
1553833818280065631	800 43 1.000000 0.170000 0.173000 900 40 0.900000 1.345000 1.268000 600 48 1.000000 0.053000 0.053000 1.200000 0.079000 0.095000
1553833818803185672	800 44 1.000000 0.203000 0.207000 900 40 0.900000 1.709000 1.616000 600 49 1.000000 0.053000 0.053000 1.200000 0.080000 0.096000
1553833819316084922	800 44 1.000000 0.167000 0.170000 900 40 0.900000 1.723000 1.629000 600 49 1.000000 0.053000 0.053000 1.200000 0.093000 0.112000
1553833819828594381	800 44 1.000000 0.158000 0.161000 900 40 0.900000 1.766000 1.670000 600 49 1.000000 0.053000 0.053000 1.200000 0.074000 0.089000
1553833820341353339	800 45 1.000000 0.176000 0.179000 900 40 0.900000 1.684000 1.593000 600 49 1.000000 0.053000 0.053000 1.200000 0.077000 0.093000
1553833820854244506	800 45 1.000000 0.191000 0.195000 900 40 0.900000 1.586000 1.498000 600 49 1.000000 0.053000 0.053000 1.200000 0.102000 0.123000
1553833821366809673	800 44 1.000000 0.168000 0.171000 900 40 0.900000 1.741000 1.646000 600 49 1.000000 0.053000 0.053000 1.200000 0.070000 0.084000
1553833821879304631	800 44 1.000000 0.170000 0.173000 900 40 0.900000 1.679000 1.588000 600 49 1.000000 0.053000 0.053000 1.200000 0.071000 0.085000
1553833822402683964	800 45 1.000000 0.173000 0.176000 900 40 0.900000 1.664000 1.572000 600 49 1.000000 0.053000 0.053000 1.200000 0.076000 0.092000
1553833822915317089	800 45 1.000000 0.175000 0.178000 900 41 0.900000 1.731000 1.637000 600 49 1.000000 0.053000 0.053000 1.200000 0.073000 0.088000
1553833823427561548	800 44 1.000000 0.179000 0.182000 900 41 0.900000 1.680000 1.589000 600 49 1.000000 0.053000 0.053000 1.200000 0.090000 0.109000
1553833823939340965	800 44 1.000000 0.167000 0.170000 900 41 0.900000 1.357000 1.279000 600 49 1.000000 0.053000 0.053000 1.200000 0.067000 0.081000
1553833824451451381	800 43 1.000000 0.178000 0.181000 900 40 0.900000 1.666000 1.576000 600 47 1.000000 0.053000 0.053000 1.200000 0.092000 0.111000
1553833824965723090	800 42 1.000000 0.172000 0.175000 900 40 0.900000 0.748000 0.705000 600 46 1.000000 0.053000 0.053000 1.200000 0.057000 0.068000
1553833825477724006	800 42 1.000000 0.193000 0.197000 900 40 0.900000 0.972000 0.915000 600 46 1.000000 0.053000 0.053000 1.200000 0.069000 0.083000
1553833825989288173	800 41 1.000000 0.180000 0.183000 900 39 0.900000 0.644000 0.607000 600 45 1.000000 0.053000 0.053000 1.200000 0.049000 0.059000
1553833826500482965	800 41 1.000000 0.118000 0.120000 900 39 0.900000 0.760000 0.715000 600 45 1.000000 0.053000 0.053000 1.200000 0.043000 0.051000
1553833827011925840	800 40 1.000000 0.108000 0.110000 900 38 0.900000 0.696000 0.654000 600 44 1.000000 0.052000 0.052000 1.200000 0.040000 0.048000
1553833827523388798	800 41 1.000000 0.127000 0.129000 900 38 0.900000 0.697000 0.656000 600 44 1.000000 0.053000 0.053000 1.200000 0.063000 0.076000
1553833828034889173	800 40 1.000000 0.172000 0.175000 900 38 0.900000 0.639000 0.604000 600 44 1.000000 0.053000 0.053000 1.200000 0.048000 0.057000
1553833828546843048	800 41 1.000000 0.170000 0.173000 900 38 0.900000 0.575000 0.543000 600 43 1.000000 0.053000 0.053000 1.200000 0.050000 0.060000
1553833829059163423	800 42 1.000000 0.166000 0.169000 900 38 0.900000 1.282000 1.208000 600 46 1.000000 0.053000 0.053000 1.200000 0.074000 0.089000
1553833829588987632	800 43 1.000000 0.183000 0.187000 900 39 0.900000 1.764000 1.668000 600 47 1.000000 0.053000 0.053000 1.200000 0.087000 0.105000
1553833830101442090	800 43 1.000000 0.167000 0.170000 900 39 0.900000 1.497000 1.414000 600 48 1.000000 0.053000 0.053000 1.200000 0.082000 0.099000
1553833830614391174	800 43 1.000000 0.171000 0.174000 900 39 0.900000 1.716000 1.623000 600 47 1.000000 0.053000 0.053000 1.200000 0.070000 0.084000
1553833831126725507	800 44 1.000000 0.168000 0.171000 900 40 0.900000 1.681000 1.590000 600 48 1.000000 0.053000 0.053000 1.200000 0.069000 0.083000
1553833831652910424	800 44 1.000000 0.170000 0.173000 900 40 0.900000 1.276000 1.203000 600 48 1.000000 0.053000 0.053000 1.200000 0.074000 0.089000
1553833832165150382	800 44 1.000000 0.209000 0.213000 900 40 0.900000 1.733000 1.639000 600 49 1.000000 0.053000 0.053000 1.200000 0.075000 0.090000
1553833832677427257	800 44 1.000000 0.173000 0.176000 900 40 0.900000 1.718000 1.623000 600 49 1.000000 0.053000 0.053000 1.200000 0.085000 0.102000
1553833833189724091	800 45 1.000000 0.173000 0.176000 900 40 0.900000 1.742000 1.647000 600 49 1.000000 0.053000 0.053000 1.200000 0.078000 0.094000
1553833833701844007	800 44 1.000000 0.152000 0.155000 900 40 0.900000 1.769000 1.673000 600 49 1.000000 0.053000 0.053000 1.200000 0.079000 0.095000
1553833834218809049	800 45 1.000000 0.149000 0.152000 900 40 0.900000 1.608000 1.519000 600 49 1.000000 0.053000 0.053000 1.200000 0.063000 0.076000
1553833834731676966	800 45 1.000000 0.174000 0.177000 900 41 0.900000 1.705000 1.611000 600 49 1.000000 0.053000 0.053000 1.200000 0.091000 0.110000
1553833835256371924	800 44 1.000000 0.172000 0.175000 900 40 0.900000 1.741000 1.646000 600 49 1.000000 0.053000 0.053000 1.200000 0.074000 0.089000
1553833835769313883	800 45 1.000000 0.173000 0.176000 900 41 0.900000 1.489000 1.407000 600 49 1.000000 0.053000 0.053000 1.200000 0.074000 0.089000
1553833836283672174	800 45 1.000000 0.188000 0.191000 900 41 0.900000 1.742000 1.647000 600 49 1.000000 0.053000 0.053000 1.200000 0.087000 0.105000
1553833836797000258	800 45 1.000000 0.175000 0.178000 900 41 0.900000 1.689000 1.597000 600 49 1.000000 0.053000 0.053000 1.200000 0.091000 0.110000
1553833837309411299	800 45 1.000000 0.171000 0.174000 900 41 0.900000 1.731000 1.637000 600 50 1.000000 0.053000 0.053000 1.200000 0.083000 0.100000
1553833837821964966	800 45 1.000000 0.158000 0.161000 900 40 0.900000 1.755000 1.660000 600 50 1.000000 0.053000 0.053000 1.200000 0.073000 0.088000
1553833838336670550	800 45 1.000000 0.147000 0.150000 900 41 0.900000 1.676000 1.585000 600 49 1.000000 0.053000 0.053000 1.200000 0.062000 0.075000
1553833838849024925	800 45 1.000000 0.187000 0.190000 900 41 0.900000 1.639000 1.550000 600 49 1.000000 0.053000 0.053000 1.200000 0.078000 0.094000
1553833839361550508	800 45 1.000000 0.165000 0.168000 900 41 0.900000 1.702000 1.610000 600 50 1.000000 0.053000 0.053000 1.200000 0.076000 0.092000
1553833839873932216	800 45 1.000000 0.156000 0.159000 900 41 0.900000 1.744000 1.649000 600 50 1.000000 0.053000 0.053000 1.200000 0.074000 0.089000
1553833840386573050	800 45 1.000000 0.172000 0.175000 900 41 0.900000 1.724000 1.630000 600 50 1.000000 0.053000 0.053000 1.200000 0.089000 0.107000
1553833840898849217	800 45 1.000000 0.197000 0.201000 900 41 0.900000 1.693000 1.601000 600 50 1.000000 0.053000 0.053000 1.200000 0.091000 0.110000
1553833841412988467	800 45 1.000000 0.165000 0.168000 900 41 0.900000 1.498000 1.415000 600 49 1.000000 0.053000 0.053000 1.200000 0.067000 0.081000
1553833841925194758	800 45 1.000000 0.142000 0.145000 900 41 0.900000 1.768000 1.672000 600 50 1.000000 0.053000 0.053000 1.200000 0.089000 0.107000
1553833842438094717	800 45 1.000000 0.127000 0.129000 900 41 0.900000 1.748000 1.653000 600 50 1.000000 0.053000 0.053000 1.200000 0.069000 0.083000
1553833842952258675	800 43 1.000000 0.165000 0.168000 900 41 0.900000 1.707000 1.614000 600 49 1.000000 0.053000 0.053000 1.200000 0.065000 0.078000
1553833843465931092	800 45 1.000000 0.188000 0.192000 900 41 0.900000 1.376000 1.300000 600 49 1.000000 0.053000 0.053000 1.200000 0.088000 0.106000
1553833843979199050	800 45 1.000000 0.176000 0.179000 900 41 0.900000 1.753000 1.658000 600 48 1.000000 0.053000 0.053000 1.200000 0.075000 0.090000
1553833844492192967	800 44 1.000000 0.173000 0.176000 900 41 0.900000 1.386000 1.306000 600 48 1.000000 0.053000 0.053000 1.200000 0.076000 0.092000
1553833845005402592	800 44 1.000000 0.171000 0.174000 900 41 0.900000 1.346000 1.269000 600 49 1.000000 0.053000 0.053000 1.200000 0.066000 0.079000
1553833845518151259	800 45 1.000000 0.172000 0.175000 900 41 0.900000 1.716000 1.623000 600 48 1.000000 0.053000 0.053000 1.200000 0.093000 0.112000
1553833846030795634	800 45 1.000000 0.174000 0.177000 900 41 0.900000 1.534000 1.449000 600 48 1.000000 0.053000 0.053000 1.200000 0.066000 0.079000
1553833846543810092	800 45 1.000000 0.170000 0.173000 900 41 0.900000 1.481000 1.399000 600 49 1.000000 0.053000 0.053000 1.200000 0.066000 0.079000
1553833847056529342	800 45 1.000000 0.161000 0.164000 900 41 0.900000 1.763000 1.667000 600 50 1.000000 0.053000 0.053000 1.200000 0.078000 0.094000
1553833847574193551	800 45 1.000000 0.166000 0.169000 900 41 0.900000 1.701000 1.609000 600 50 1.000000 0.053000 0.053000 1.200000 0.077000 0.093000
1553833848087140801	800 45 1.000000 0.154000 0.157000 900 41 0.900000 1.759000 1.664000 600 50 1.000000 0.053000 0.053000 1.200000 0.092000 0.111000
1553833848599785759	800 45 1.000000 0.176000 0.179000 900 41 0.900000 1.664000 1.574000 600 50 1.000000 0.053000 0.053000 1.200000 0.085000 0.103000
1553833849112025676	800 45 1.000000 0.158000 0.161000 900 41 0.900000 1.715000 1.622000 600 50 1.000000 0.053000 0.053000 1.200000 0.069000 0.083000
1553833849625783676	800 45 1.000000 0.153000 0.156000 900 41 0.900000 1.648000 1.559000 600 50 1.000000 0.053000 0.053000 1.200000 0.071000 0.085000
1553833850139456718	800 45 1.000000 0.204000 0.208000 900 41 0.900000 1.464000 1.383000 600 49 1.000000 0.053000 0.053000 1.200000 0.077000 0.093000
1553833850651806843	800 43 1.000000 0.172000 0.175000 900 41 0.900000 1.038000 0.977000 600 47 1.000000 0.053000 0.053000 1.200000 0.063000 0.076000
1553833851164147009	800 45 1.000000 0.171000 0.174000 900 41 0.900000 1.722000 1.629000 600 49 1.000000 0.053000 0.053000 1.200000 0.083000 0.100000
1553833851676571843	800 45 1.000000 0.176000 0.179000 900 41 0.900000 1.617000 1.529000 600 48 1.000000 0.053000 0.053000 1.200000 0.088000 0.106000
1553833852188732635	800 43 1.000000 0.172000 0.175000 900 40 0.900000 0.667000 0.628000 600 45 1.000000 0.053000 0.053000 1.200000 0.061000 0.073000
1553833852700895760	800 42 1.000000 0.165000 0.168000 900 40 0.900000 0.887000 0.838000 600 46 1.000000 0.053000 0.053000 1.200000 0.069000 0.083000
1553833853212672718	800 41 1.000000 0.190000 0.193000 900 39 0.900000 0.889000 0.837000 600 45 1.000000 0.053000 0.053000 1.200000 0.057000 0.068000
1553833853724714010	800 41 1.000000 0.174000 0.177000 900 39 0.900000 0.704000 0.663000 600 44 1.000000 0.052000 0.052000 1.200000 0.051000 0.061000
1553833854240495468	800 40 1.000000 0.172000 0.175000 900 39 0.900000 0.561000 0.529000 600 44 1.000000 0.053000 0.053000 1.200000 0.049000 0.059000
1553833854752754427	800 40 1.000000 0.180000 0.183000 900 38 0.900000 0.488000 0.461000 600 44 1.000000 0.053000 0.053000 1.200000 0.057000 0.068000
1553833855265732177	800 41 1.000000 0.176000 0.179000 900 38 0.900000 0.675000 0.635000 600 45 1.000000 0.053000 0.053000 1.200000 0.056000 0.067000
1553833855778444093	800 42 1.000000 0.170000 0.173000 900 39 0.900000 0.963000 0.907000 600 45 1.000000 0.053000 0.053000 1.200000 0.054000 0.065000
1553833856291554218	800 43 1.000000 0.175000 0.178000 900 39 0.900000 1.225000 1.155000 600 46 1.000000 0.052000 0.052000 1.200000 0.071000 0.085000
1553833856804529635	800 43 1.000000 0.195000 0.199000 900 39 0.900000 1.479000 1.397000 600 47 1.000000 0.053000 0.053000 1.200000 0.095000 0.115000
1553833857317086010	800 44 1.000000 0.173000 0.176000 900 40 0.900000 1.646000 1.557000 600 48 1.000000 0.053000 0.053000 1.200000 0.096000 0.116000
1553833857829624219	800 42 1.000000 0.172000 0.175000 900 40 0.900000 1.770000 1.674000 600 48 1.000000 0.053000 0.053000 1.200000 0.072000 0.087000
1553833858342277344	800 42 1.000000 0.147000 0.150000 900 39 0.900000 1.392000 1.312000 600 46 1.000000 0.053000 0.053000 1.200000 0.055000 0.066000
1553833858854817552	800 44 1.000000 0.185000 0.189000 900 40 0.900000 1.430000 1.351000 600 48 1.000000 0.053000 0.053000 1.200000 0.102000 0.123000
1553833859367542719	800 44 1.000000 0.186000 0.189000 900 40 0.900000 1.756000 1.661000 600 49 1.000000 0.053000 0.053000 1.200000 0.074000 0.089000
1553833859884612219	800 44 1.000000 0.173000 0.176000 900 40 0.900000 1.536000 1.451000 600 49 1.000000 0.053000 0.053000 1.200000 0.075000 0.090000
1553833860398892177	800 44 1.000000 0.171000 0.174000 900 40 0.900000 1.753000 1.658000 600 49 1.000000 0.053000 0.053000 1.200000 0.073000 0.088000
1553833860916367511	800 42 1.000000 0.165000 0.168000 900 40 0.900000 1.730000 1.636000 600 48 1.000000 0.053000 0.053000 1.200000 0.072000 0.087000
1553833861429001052	800 41 1.000000 0.200000 0.204000 900 39 0.900000 0.855000 0.804000 600 45 1.000000 0.053000 0.053000 1.200000 0.074000 0.089000
1553833861941817594	800 41 1.000000 0.173000 0.176000 900 39 0.900000 0.729000 0.687000 600 46 1.000000 0.053000 0.053000 1.200000 0.050000 0.060000
1553833862454660427	800 42 1.000000 0.170000 0.173000 900 39 0.900000 0.905000 0.851000 600 46 1.000000 0.053000 0.053000 1.200000 0.053000 0.064000
1553833862967214844	800 42 1.000000 0.172000 0.175000 900 39 0.900000 1.169000 1.102000 600 47 1.000000 0.053000 0.053000 1.200000 0.078000 0.094000
1553833863480119969	800 43 1.000000 0.174000 0.177000 900 39 0.900000 0.964000 0.908000 600 47 1.000000 0.053000 0.053000 1.200000 0.097000 0.117000
1553833863994151053	800 44 1.000000 0.168000 0.171000 900 40 0.900000 1.687000 1.595000 600 47 1.000000 0.053000 0.053000 1.200000 0.088000 0.106000
1553833864506960803	800 44 1.000000 0.167000 0.170000 900 40 0.900000 1.694000 1.602000 600 48 1.000000 0.053000 0.053000 1.200000 0.073000 0.088000
1553833865029552428	800 44 1.000000 0.170000 0.173000 900 40 0.900000 1.480000 1.398000 600 48 1.000000 0.053000 0.053000 1.200000 0.063000 0.076000
1553833865546379719	800 44 1.000000 0.141000 0.144000 900 40 0.900000 1.663000 1.573000 600 49 1.000000 0.053000 0.053000 1.200000 0.084000 0.101000
1553833866060097261	800 45 1.000000 0.149000 0.152000 900 40 0.900000 1.736000 1.642000 600 49 1.000000 0.053000 0.053000 1.200000 0.069000 0.083000
1553833866573087595	800 45 1.000000 0.172000 0.175000 900 40 0.900000 1.745000 1.650000 600 49 1.000000 0.053000 0.053000 1.200000 0.069000 0.083000
1553833867086578470	800 45 1.000000 0.140000 0.143000 900 41 0.900000 1.704000 1.611000 600 49 1.000000 0.053000 0.053000 1.200000 0.084000 0.101000
1553833867603198095	800 45 1.000000 0.171000 0.174000 900 41 0.900000 1.758000 1.663000 600 49 1.000000 0.053000 0.053000 1.200000 0.076000 0.091000
1553833868116279803	800 45 1.000000 0.187000 0.191000 900 41 0.900000 1.639000 1.548000 600 50 1.000000 0.053000 0.053000 1.200000 0.082000 0.099000
1553833868629339387	800 44 1.000000 0.173000 0.176000 900 41 0.900000 1.455000 1.374000 600 49 1.000000 0.053000 0.053000 1.200000 0.067000 0.081000
1553833869142081095	800 45 1.000000 0.164000 0.167000 900 41 0.900000 1.770000 1.674000 600 49 1.000000 0.053000 0.053000 1.200000 0.072000 0.087000
1553833869658225637	800 45 1.000000 0.163000 0.166000 900 41 0.900000 1.703000 1.611000 600 50 1.000000 0.053000 0.053000 1.200000 0.083000 0.100000
1553833870171341970	800 45 1.000000 0.160000 0.163000 900 41 0.900000 1.727000 1.633000 600 50 1.000000 0.053000 0.053000 1.200000 0.091000 0.110000
1553833870684437053	800 45 1.000000 0.167000 0.170000 900 41 0.900000 1.677000 1.586000 600 50 1.000000 0.053000 0.053000 1.200000 0.078000 0.094000
1553833871196968637	800 45 1.000000 0.164000 0.167000 900 41 0.900000 1.675000 1.584000 600 50 1.000000 0.053000 0.053000 1.200000 0.072000 0.087000
1553833871709902304	800 45 1.000000 0.134000 0.137000 900 41 0.900000 1.752000 1.657000 600 50 1.000000 0.053000 0.053000 1.200000 0.070000 0.084000
1553833872237134220	800 45 1.000000 0.166000 0.169000 900 41 0.900000 1.747000 1.652000 600 49 1.000000 0.053000 0.053000 1.200000 0.068000 0.082000
1553833872750700554	800 45 1.000000 0.203000 0.207000 900 41 0.900000 1.451000 1.371000 600 50 1.000000 0.053000 0.053000 1.200000 0.081000 0.098000
1553833873264549929	800 45 1.000000 0.158000 0.161000 900 41 0.900000 1.736000 1.642000 600 50 1.000000 0.053000 0.053000 1.200000 0.085000 0.102000
1553833873777897554	800 45 1.000000 0.172000 0.175000 900 41 0.900000 1.740000 1.646000 600 50 1.000000 0.053000 0.053000 1.200000 0.075000 0.090000
1553833874290098971	800 45 1.000000 0.141000 0.144000 900 41 0.900000 1.707000 1.614000 600 50 1.000000 0.053000 0.053000 1.200000 0.083000 0.100000
1553833874802334762	800 45 1.000000 0.181000 0.184000 900 41 0.900000 1.711000 1.618000 600 50 1.000000 0.053000 0.053000 1.200000 0.070000 0.084000
1553833875315888054	800 45 1.000000 0.171000 0.174000 900 41 0.900000 1.599000 1.512000 600 50 1.000000 0.053000 0.053000 1.200000 0.069000 0.083000
1553833875828258846	800 45 1.000000 0.145000 0.148000 900 41 0.900000 1.743000 1.648000 600 50 1.000000 0.053000 0.053000 1.200000 0.086000 0.104000
1553833876340438679	800 45 1.000000 0.127000 0.129000 900 41 0.900000 1.757000 1.662000 600 50 1.000000 0.053000 0.053000 1.200000 0.075000 0.090000
1553833876852617929	800 45 1.000000 0.161000 0.164000 900 41 0.900000 1.647000 1.558000 600 49 1.000000 0.053000 0.053000 1.200000 0.067000 0.081000
1553833877364442721	800 45 1.000000 0.161000 0.164000 900 41 0.900000 1.702000 1.610000 600 50 1.000000 0.053000 0.053000 1.200000 0.084000 0.101000
1553833877876525013	800 45 1.000000 0.142000 0.145000 900 41 0.900000 1.761000 1.665000 600 50 1.000000 0.053000 0.053000 1.200000 0.073000 0.088000
1553833878388744721	800 45 1.000000 0.158000 0.161000 900 41 0.900000 1.718000 1.625000 600 50 1.000000 0.053000 0.053000 1.200000 0.090000 0.109000
1553833878904574304	800 45 1.000000 0.168000 0.171000 900 41 0.900000 1.735000 1.641000 600 50 1.000000 0.053000 0.053000 1.200000 0.070000 0.084000
1553833879416912346	800 45 1.000000 0.178000 0.181000 900 41 0.900000 1.734000 1.640000 600 50 1.000000 0.053000 0.053000 1.200000 0.082000 0.099000
1553833879928760305	800 45 1.000000 0.158000 0.161000 900 41 0.900000 1.724000 1.630000 600 50 1.000000 0.053000 0.053000 1.200000 0.069000 0.083000
1553833880440989555	800 45 1.000000 0.159000 0.162000 900 41 0.900000 1.755000 1.660000 600 50 1.000000 0.053000 0.053000 1.200000 0.080000 0.096000
1553833880953229513	800 45 1.000000 0.162000 0.165000 900 41 0.900000 1.734000 1.640000 600 50 1.000000 0.053000 0.053000 1.200000 0.072000 0.087000
1553833881464971096	800 45 1.000000 0.183000 0.187000 900 41 0.900000 1.649000 1.558000 600 50 1.000000 0.053000 0.053000 1.200000 0.075000 0.090000
1553833881977600596	800 45 1.000000 0.145000 0.148000 900 41 0.900000 1.764000 1.668000 600 50 1.000000 0.053000 0.053000 1.200000 0.087000 0.105000
1553833882490306846	800 44 1.000000 0.172000 0.175000 900 41 0.900000 1.583000 1.495000 600 49 1.000000 0.053000 0.053000 1.200000 0.082000 0.099000
1553833883002610347	800 45 1.000000 0.172000 0.175000 900 41 0.900000 1.460000 1.379000 600 50 1.000000 0.053000 0.053000 1.200000 0.070000 0.084000
1553833883516967305	800 44 1.000000 0.173000 0.176000 900 41 0.900000 1.516000 1.432000 600 49 1.000000 0.053000 0.053000 1.200000 0.069000 0.083000
1553833884029463097	800 44 1.000000 0.198000 0.202000 900 41 0.900000 1.565000 1.478000 600 48 1.000000 0.053000 0.053000 1.200000 0.100000 0.121000
1553833884541770513	800 43 1.000000 0.187000 0.191000 900 40 0.900000 0.845000 0.795000 600 46 1.000000 0.053000 0.053000 1.200000 0.061000 0.073000
1553833885053510263	800 41 1.000000 0.170000 0.173000 900 40 0.900000 0.611000 0.578000 600 45 1.000000 0.053000 0.053000 1.200000 0.051000 0.061000
1553833885567259305	800 42 1.000000 0.118000 0.120000 900 39 0.900000 0.782000 0.735000 600 45 1.000000 0.053000 0.053000 1.200000 0.047000 0.056000
1553833886079116180	800 40 1.000000 0.134000 0.137000 900 39 0.900000 0.620000 0.584000 600 44 1.000000 0.053000 0.053000 1.200000 0.065000 0.078000
1553833886590834597	800 40 1.000000 0.123000 0.125000 900 39 0.900000 0.712000 0.669000 600 44 1.000000 0.053000 0.053000 1.200000 0.044000 0.053000
1553833887102948222	800 40 1.000000 0.125000 0.127000 900 38 0.900000 0.663000 0.625000 600 44 1.000000 0.053000 0.053000 1.200000 0.041000 0.049000
1553833887615334889	800 40 1.000000 0.171000 0.174000 900 38 0.900000 0.637000 0.602000 600 44 1.000000 0.053000 0.053000 1.200000 0.047000 0.056000
1553833888127631472	800 42 1.000000 0.175000 0.178000 900 39 0.900000 1.325000 1.252000 600 46 1.000000 0.053000 0.053000 1.200000 0.073000 0.088000
1553833888639530306	800 43 1.000000 0.158000 0.161000 900 39 0.900000 1.753000 1.658000 600 47 1.000000 0.052000 0.052000 1.200000 0.074000 0.089000
1553833889152182389	800 43 1.000000 0.136000 0.139000 900 39 0.900000 1.729000 1.635000 600 48 1.000000 0.052000 0.052000 1.200000 0.068000 0.082000
1553833889665802806	800 44 1.000000 0.155000 0.158000 900 40 0.900000 1.547000 1.463000 600 48 1.000000 0.053000 0.053000 1.200000 0.067000 0.081000
1553833890183286764	800 44 1.000000 0.157000 0.160000 900 40 0.900000 1.704000 1.611000 600 49 1.000000 0.053000 0.053000 1.200000 0.094000 0.113000
1553833890697929764	800 45 1.000000 0.192000 0.196000 900 40 0.900000 1.713000 1.620000 600 49 1.000000 0.053000 0.053000 1.200000 0.111000 0.134000
1553833891210398181	800 44 1.000000 0.165000 0.168000 900 40 0.900000 1.727000 1.633000 600 49 1.000000 0.053000 0.053000 1.200000 0.074000 0.089000
1553833891722918056	800 44 1.000000 0.171000 0.174000 900 40 0.900000 1.475000 1.393000 600 49 1.000000 0.053000 0.053000 1.200000 0.066000 0.079000
1553833892240608806	800 45 1.000000 0.177000 0.180000 900 40 0.900000 1.639000 1.550000 600 49 1.000000 0.053000 0.053000 1.200000 0.096000 0.116000
1553833892752621348	800 44 1.000000 0.183000 0.187000 900 40 0.900000 1.759000 1.664000 600 49 1.000000 0.053000 0.053000 1.200000 0.083000 0.100000
1553833893265005389	800 43 1.000000 0.152000 0.155000 900 40 0.900000 1.249000 1.177000 600 49 1.000000 0.053000 0.053000 1.200000 0.055000 0.066000
1553833893777530265	800 44 1.000000 0.174000 0.177000 900 40 0.900000 1.250000 1.178000 600 49 1.000000 0.053000 0.053000 1.200000 0.084000 0.101000
1553833894289711640	800 43 1.000000 0.167000 0.170000 900 40 0.900000 1.676000 1.585000 600 49 1.000000 0.053000 0.053000 1.200000 0.070000 0.084000
1553833894801978015	800 41 1.000000 0.151000 0.154000 900 39 0.900000 0.898000 0.845000 600 45 1.000000 0.053000 0.053000 1.200000 0.050000 0.060000
1553833895313740890	800 40 1.000000 0.188000 0.191000 900 39 0.900000 0.492000 0.465000 600 44 1.000000 0.053000 0.053000 1.200000 0.045000 0.054000
1553833895825555931	800 40 1.000000 0.106000 0.108000 900 39 0.900000 0.715000 0.672000 600 44 1.000000 0.053000 0.053000 1.200000 0.039000 0.047000
1553833896337718473	800 40 1.000000 0.132000 0.135000 900 38 0.900000 0.718000 0.677000 600 45 1.000000 0.052000 0.052000 1.200000 0.044000 0.053000
1553833896862309973	800 40 1.000000 0.170000 0.173000 900 38 0.900000 0.561000 0.530000 600 43 1.000000 0.053000 0.053000 1.200000 0.050000 0.060000
1553833897375886807	800 41 1.000000 0.188000 0.192000 900 39 0.900000 0.908000 0.858000 600 45 1.000000 0.053000 0.053000 1.200000 0.088000 0.106000
1553833897888286682	800 43 1.000000 0.172000 0.175000 900 39 0.900000 1.754000 1.659000 600 47 1.000000 0.053000 0.053000 1.200000 0.071000 0.085000
1553833898400504390	800 43 1.000000 0.170000 0.173000 900 39 0.900000 1.476000 1.394000 600 45 1.000000 0.053000 0.053000 1.200000 0.058000 0.070000
1553833898914623140	800 43 1.000000 0.173000 0.176000 900 39 0.900000 1.527000 1.443000 600 47 1.000000 0.053000 0.053000 1.200000 0.073000 0.088000
1553833899427975432	800 44 1.000000 0.197000 0.201000 900 40 0.900000 1.634000 1.545000 600 47 1.000000 0.053000 0.053000 1.200000 0.083000 0.100000
1553833899945535390	800 44 1.000000 0.170000 0.173000 900 40 0.900000 1.659000 1.569000 600 46 1.000000 0.053000 0.053000 1.200000 0.070000 0.084000
1553833900458176849	800 44 1.000000 0.178000 0.181000 900 40 0.900000 1.462000 1.381000 600 48 1.000000 0.053000 0.053000 1.200000 0.084000 0.101000
1553833900970438224	800 44 1.000000 0.152000 0.155000 900 40 0.900000 1.741000 1.646000 600 49 1.000000 0.053000 0.053000 1.200000 0.077000 0.093000
1553833901484682265	800 44 1.000000 0.174000 0.177000 900 40 0.900000 1.727000 1.633000 600 49 1.000000 0.053000 0.053000 1.200000 0.093000 0.112000
1553833901997401682	800 44 1.000000 0.203000 0.207000 900 40 0.900000 1.214000 1.144000 600 49 1.000000 0.053000 0.053000 1.200000 0.086000 0.104000
1553833902509483891	800 45 1.000000 0.173000 0.176000 900 40 0.900000 1.764000 1.668000 600 49 1.000000 0.053000 0.053000 1.200000 0.086000 0.104000
1553833903021718516	800 45 1.000000 0.163000 0.166000 900 40 0.900000 1.665000 1.575000 600 49 1.000000 0.053000 0.053000 1.200000 0.086000 0.104000
1553833903533943016	800 45 1.000000 0.190000 0.193000 900 40 0.900000 1.722000 1.629000 600 47 1.000000 0.053000 0.053000 1.200000 0.077000 0.093000
1553833904045793266	800 44 1.000000 0.207000 0.211000 900 40 0.900000 1.122000 1.056000 600 47 1.000000 0.053000 0.053000 1.200000 0.074000 0.089000
1553833904557717807	800 43 1.000000 0.172000 0.175000 900 40 0.900000 1.035000 0.974000 600 47 1.000000 0.053000 0.053000 1.200000 0.061000 0.073000
1553833905069803266	800 44 1.000000 0.175000 0.178000 900 40 0.900000 1.574000 1.487000 600 48 1.000000 0.053000 0.053000 1.200000 0.076000 0.091000
1553833905581637058	800 43 1.000000 0.190000 0.194000 900 40 0.900000 1.194000 1.125000 600 46 1.000000 0.053000 0.053000 1.200000 0.059000 0.071000
1553833906093343849	800 41 1.000000 0.200000 0.204000 900 39 0.900000 0.494000 0.467000 600 45 1.000000 0.053000 0.053000 1.200000 0.066000 0.079000
1553833906604993766	800 40 1.000000 0.167000 0.170000 900 39 0.900000 0.575000 0.543000 600 44 1.000000 0.053000 0.053000 1.200000 0.046000 0.055000
1553833907116777933	800 40 1.000000 0.163000 0.166000 900 38 0.900000 0.634000 0.599000 600 44 1.000000 0.053000 0.053000 1.200000 0.044000 0.053000
1553833907628471266	800 40 1.000000 0.188000 0.192000 900 38 0.900000 0.674000 0.636000 600 43 1.000000 0.053000 0.053000 1.200000 0.057000 0.068000
1553833908142940600	800 43 1.000000 0.169000 0.172000 900 39 0.900000 0.901000 0.851000 600 47 1.000000 0.053000 0.053000 1.200000 0.080000 0.096000
1553833908655360975	800 44 1.000000 0.201000 0.205000 900 39 0.900000 1.693000 1.601000 600 48 1.000000 0.052000 0.052000 1.200000 0.086000 0.104000
1553833909168224891	800 43 1.000000 0.170000 0.173000 900 40 0.900000 1.666000 1.576000 600 47 1.000000 0.053000 0.053000 1.200000 0.068000 0.082000
1553833909686820058	800 43 1.000000 0.176000 0.179000 900 39 0.900000 1.423000 1.344000 600 47 1.000000 0.053000 0.053000 1.200000 0.067000 0.081000
1553833910199761850	800 44 1.000000 0.165000 0.168000 900 40 0.900000 1.626000 1.538000 600 48 1.000000 0.053000 0.053000 1.200000 0.076000 0.092000
1553833910712002850	800 44 1.000000 0.181000 0.184000 900 40 0.900000 1.690000 1.598000 600 49 1.000000 0.053000 0.053000 1.200000 0.100000 0.121000
1553833911223899350	800 44 1.000000 0.162000 0.165000 900 40 0.900000 1.763000 1.667000 600 49 1.000000 0.053000 0.053000 1.200000 0.071000 0.085000
1553833911736109142	800 45 1.000000 0.160000 0.163000 900 40 0.900000 1.687000 1.595000 600 49 1.000000 0.053000 0.053000 1.200000 0.077000 0.093000
1553833912251211433	800 45 1.000000 0.176000 0.179000 900 40 0.900000 1.666000 1.576000 600 49 1.000000 0.053000 0.053000 1.200000 0.084000 0.101000
1553833912763437850	800 44 1.000000 0.184000 0.188000 900 40 0.900000 1.751000 1.656000 600 48 1.000000 0.053000 0.053000 1.200000 0.082000 0.099000
1553833913275922017	800 43 1.000000 0.170000 0.173000 900 40 0.900000 1.285000 1.211000 600 46 1.000000 0.053000 0.053000 1.200000 0.055000 0.066000
1553833913788604434	800 43 1.000000 0.174000 0.177000 900 40 0.900000 1.326000 1.250000 600 48 1.000000 0.053000 0.053000 1.200000 0.060000 0.072000
1553833914301318725	800 42 1.000000 0.174000 0.177000 900 40 0.900000 1.520000 1.436000 600 49 1.000000 0.053000 0.053000 1.200000 0.073000 0.088000
1553833914815239142	800 42 1.000000 0.160000 0.163000 900 40 0.900000 1.161000 1.094000 600 48 1.000000 0.053000 0.053000 1.200000 0.075000 0.090000
1553833915326769809	800 41 1.000000 0.193000 0.197000 900 39 0.900000 0.914000 0.860000 600 48 1.000000 0.053000 0.053000 1.200000 0.082000 0.099000
1553833915838665975	800 42 1.000000 0.172000 0.175000 900 39 0.900000 0.913000 0.860000 600 47 1.000000 0.053000 0.053000 1.200000 0.057000 0.068000
1553833916350557559	800 42 1.000000 0.170000 0.173000 900 39 0.900000 1.001000 0.942000 600 47 1.000000 0.053000 0.053000 1.200000 0.060000 0.072000
1553833916863265476	800 43 1.000000 0.148000 0.151000 900 39 0.900000 1.536000 1.451000 600 48 1.000000 0.053000 0.053000 1.200000 0.078000 0.094000
1553833917376061017	800 43 1.000000 0.168000 0.171000 900 40 0.900000 1.704000 1.611000 600 47 1.000000 0.053000 0.053000 1.200000 0.088000 0.106000
1553833917889457851	800 44 1.000000 0.155000 0.158000 900 40 0.900000 1.200000 1.130000 600 48 1.000000 0.053000 0.053000 1.200000 0.068000 0.082000
1553833918402238059	800 44 1.000000 0.162000 0.165000 900 40 0.900000 1.741000 1.646000 600 49 1.000000 0.053000 0.053000 1.200000 0.092000 0.111000
1553833918914598559	800 44 1.000000 0.164000 0.167000 900 40 0.900000 1.717000 1.624000 600 49 1.000000 0.053000 0.053000 1.200000 0.069000 0.083000
1553833919427671851	800 43 1.000000 0.175000 0.178000 900 40 0.900000 1.271000 1.198000 600 48 1.000000 0.053000 0.053000 1.200000 0.058000 0.070000
1553833919942119726	800 42 1.000000 0.194000 0.198000 900 40 0.900000 1.223000 1.153000 600 46 1.000000 0.053000 0.053000 1.200000 0.081000 0.098000
1553833920454359934	800 41 1.000000 0.193000 0.197000 900 39 0.900000 0.936000 0.881000 600 46 1.000000 0.053000 0.053000 1.200000 0.054000 0.065000
1553833920967683476	800 42 1.000000 0.174000 0.177000 900 39 0.900000 0.735000 0.693000 600 46 1.000000 0.053000 0.053000 1.200000 0.049000 0.059000
1553833921484438893	800 44 1.000000 0.170000 0.173000 900 40 0.900000 1.730000 1.636000 600 48 1.000000 0.053000 0.053000 1.200000 0.089000 0.107000
1553833921998919101	800 44 1.000000 0.206000 0.210000 900 40 0.900000 1.506000 1.423000 600 48 1.000000 0.053000 0.053000 1.200000 0.089000 0.107000
1553833922511808768	800 44 1.000000 0.190000 0.194000 900 40 0.900000 1.336000 1.259000 600 48 1.000000 0.053000 0.053000 1.200000 0.067000 0.081000
1553833923023617060	800 44 1.000000 0.173000 0.176000 900 40 0.900000 1.497000 1.414000 600 48 1.000000 0.053000 0.053000 1.200000 0.084000 0.101000
1553833923536084935	800 44 1.000000 0.163000 0.166000 900 40 0.900000 1.758000 1.663000 600 49 1.000000 0.053000 0.053000 1.200000 0.076000 0.091000
1553833924049421018	800 44 1.000000 0.199000 0.203000 900 40 0.900000 1.683000 1.590000 600 49 1.000000 0.053000 0.053000 1.200000 0.087000 0.105000
1553833924561977352	800 45 1.000000 0.146000 0.149000 900 40 0.900000 1.756000 1.661000 600 49 1.000000 0.053000 0.053000 1.200000 0.093000 0.112000
1553833925074066268	800 45 1.000000 0.157000 0.160000 900 40 0.900000 1.700000 1.608000 600 49 1.000000 0.053000 0.053000 1.200000 0.096000 0.116000
1553833925586374185	800 45 1.000000 0.162000 0.165000 900 41 0.900000 1.562000 1.476000 600 49 1.000000 0.053000 0.053000 1.200000 0.073000 0.088000
1553833926101570143	800 44 1.000000 0.170000 0.173000 900 41 0.900000 1.387000 1.310000 600 48 1.000000 0.053000 0.053000 1.200000 0.062000 0.075000
1553833926614122102	800 44 1.000000 0.194000 0.198000 900 40 0.900000 1.302000 1.227000 600 47 1.000000 0.053000 0.053000 1.200000 0.082000 0.099000
1553833927126180977	800 44 1.000000 0.173000 0.176000 900 40 0.900000 1.519000 1.435000 600 48 1.000000 0.053000 0.053000 1.200000 0.072000 0.087000
1553833927638259769	800 42 1.000000 0.172000 0.175000 900 40 0.900000 1.591000 1.503000 600 46 1.000000 0.053000 0.053000 1.200000 0.070000 0.084000
1553833928150623935	800 43 1.000000 0.170000 0.173000 900 40 0.900000 0.626000 0.589000 600 47 1.000000 0.053000 0.053000 1.200000 0.057000 0.068000
1553833928662921269	800 44 1.000000 0.186000 0.189000 900 40 0.900000 1.546000 1.460000 600 48 1.000000 0.053000 0.053000 1.200000 0.088000 0.106000
1553833929175294769	800 44 1.000000 0.174000 0.177000 900 40 0.900000 1.726000 1.632000 600 49 1.000000 0.053000 0.053000 1.200000 0.082000 0.099000
1553833929687439727	800 44 1.000000 0.173000 0.176000 900 40 0.900000 1.685000 1.594000 600 49 1.000000 0.053000 0.053000 1.200000 0.096000 0.116000
1553833930199569394	800 45 1.000000 0.165000 0.168000 900 41 0.900000 1.689000 1.596000 600 49 1.000000 0.053000 0.053000 1.200000 0.089000 0.107000
1553833930711826477	800 45 1.000000 0.192000 0.195000 900 41 0.900000 1.768000 1.672000 600 48 1.000000 0.053000 0.053000 1.200000 0.073000 0.088000
1553833931223950894	800 44 1.000000 0.170000 0.173000 900 40 0.900000 1.396000 1.316000 600 47 1.000000 0.053000 0.053000 1.200000 0.063000 0.076000
1553833931736217477	800 44 1.000000 0.174000 0.177000 900 40 0.900000 1.340000 1.263000 600 49 1.000000 0.053000 0.053000 1.200000 0.065000 0.078000
1553833932248552769	800 44 1.000000 0.172000 0.175000 900 40 0.900000 1.670000 1.579000 600 49 1.000000 0.053000 0.053000 1.200000 0.069000 0.083000
1553833932772360769	800 45 1.000000 0.165000 0.168000 900 41 0.900000 1.700000 1.608000 600 49 1.000000 0.053000 0.053000 1.200000 0.085000 0.102000
1553833933284959519	800 45 1.000000 0.204000 0.208000 900 41 0.900000 1.683000 1.590000 600 49 1.000000 0.053000 0.053000 1.200000 0.100000 0.121000
1553833933797414019	800 45 1.000000 0.167000 0.170000 900 41 0.900000 1.246000 1.174000 600 49 1.000000 0.053000 0.053000 1.200000 0.073000 0.088000
1553833934309515936	800 44 1.000000 0.171000 0.174000 900 41 0.900000 1.683000 1.592000 600 49 1.000000 0.053000 0.053000 1.200000 0.069000 0.083000
1553833934821584936	800 44 1.000000 0.171000 0.174000 900 40 0.900000 1.403000 1.325000 600 49 1.000000 0.053000 0.053000 1.200000 0.066000 0.079000
1553833935333373269	800 45 1.000000 0.185000 0.189000 900 41 0.900000 1.688000 1.595000 600 49 1.000000 0.053000 0.053000 1.200000 0.091000 0.110000
1553833935845057186	800 45 1.000000 0.132000 0.135000 900 41 0.900000 1.721000 1.626000 600 50 1.000000 0.053000 0.053000 1.200000 0.066000 0.079000
1553833936355980270	800 45 1.000000 0.132000 0.135000 900 41 0.900000 1.741000 1.646000 600 49 1.000000 0.053000 0.053000 1.200000 0.068000 0.082000
1553833936867922811	800 45 1.000000 0.136000 0.139000 900 41 0.900000 1.696000 1.604000 600 50 1.000000 0.053000 0.053000 1.200000 0.066000 0.079000
1553833937382196103	800 45 1.000000 0.167000 0.170000 900 41 0.900000 1.730000 1.636000 600 50 1.000000 0.053000 0.053000 1.200000 0.072000 0.087000
1553833937896883436	800 45 1.000000 0.172000 0.175000 900 41 0.900000 1.688000 1.595000 600 50 1.000000 0.053000 0.053000 1.200000 0.080000 0.096000
1553833938408988228	800 45 1.000000 0.173000 0.176000 900 41 0.900000 1.700000 1.606000 600 50 1.000000 0.053000 0.053000 1.200000 0.066000 0.079000
1553833938921067728	800 45 1.000000 0.173000 0.176000 900 41 0.900000 1.702000 1.610000 600 50 1.000000 0.053000 0.053000 1.200000 0.069000 0.083000
1553833939435184562	800 45 1.000000 0.190000 0.193000 900 41 0.900000 1.724000 1.630000 600 50 1.000000 0.053000 0.053000 1.200000 0.068000 0.082000
1553833939947604437	800 45 1.000000 0.200000 0.204000 900 41 0.900000 1.687000 1.595000 600 50 1.000000 0.053000 0.053000 1.200000 0.086000 0.104000
1553833940459867228	800 45 1.000000 0.174000 0.177000 900 41 0.900000 1.725000 1.631000 600 50 1.000000 0.053000 0.053000 1.200000 0.073000 0.088000
1553833940972290728	800 45 1.000000 0.145000 0.148000 900 41 0.900000 1.742000 1.647000 600 50 1.000000 0.053000 0.053000 1.200000 0.070000 0.084000
1553833941484648729	800 45 1.000000 0.177000 0.180000 900 41 0.900000 1.728000 1.634000 600 50 1.000000 0.053000 0.053000 1.200000 0.073000 0.088000
1553833941996793145	800 45 1.000000 0.185000 0.189000 900 41 0.900000 1.708000 1.615000 600 49 1.000000 0.053000 0.053000 1.200000 0.087000 0.105000
1553833942509147520	800 45 1.000000 0.170000 0.173000 900 41 0.900000 1.490000 1.408000 600 49 1.000000 0.053000 0.053000 1.200000 0.064000 0.077000
1553833943022064895	800 45 1.000000 0.170000 0.173000 900 41 0.900000 1.714000 1.621000 600 50 1.000000 0.053000 0.053000 1.200000 0.072000 0.087000
1553833943534116187	800 45 1.000000 0.171000 0.174000 900 41 0.900000 1.458000 1.377000 600 47 1.000000 0.053000 0.053000 1.200000 0.065000 0.078000
1553833944046961645	800 42 1.000000 0.189000 0.193000 900 40 0.900000 0.927000 0.873000 600 46 1.000000 0.053000 0.053000 1.200000 0.064000 0.077000
1553833944559347479	800 41 1.000000 0.186000 0.190000 900 40 0.900000 0.581000 0.549000 600 45 1.000000 0.053000 0.053000 1.200000 0.054000 0.065000
1553833945070921854	800 41 1.000000 0.144000 0.147000 900 39 0.900000 1.111000 1.046000 600 45 1.000000 0.053000 0.053000 1.200000 0.055000 0.066000
1553833945582392521	800 41 1.000000 0.152000 0.155000 900 39 0.900000 0.719000 0.678000 600 45 1.000000 0.053000 0.053000 1.200000 0.052000 0.062000
1553833946093643979	800 41 1.000000 0.107000 0.109000 900 39 0.900000 0.771000 0.725000 600 44 1.000000 0.053000 0.053000 1.200000 0.043000 0.051000
1553833946604913229	800 40 1.000000 0.124000 0.126000 900 38 0.900000 0.749000 0.704000 600 44 1.000000 0.053000 0.053000 1.200000 0.065000 0.078000
1553833947116524104	800 40 1.000000 0.107000 0.109000 900 38 0.900000 0.694000 0.653000 600 43 1.000000 0.053000 0.053000 1.200000 0.042000 0.050000
1553833947628358438	800 40 1.000000 0.183000 0.186000 900 38 0.900000 0.500000 0.472000 600 43 1.000000 0.053000 0.053000 1.200000 0.054000 0.065000
1553833948140316896	800 41 1.000000 0.172000 0.175000 900 38 0.900000 0.665000 0.628000 600 45 1.000000 0.053000 0.053000 1.200000 0.048000 0.057000
1553833948652267896	800 42 1.000000 0.184000 0.188000 900 39 0.900000 1.667000 1.576000 600 47 1.000000 0.052000 0.052000 1.200000 0.081000 0.098000
1553833949164500104	800 42 1.000000 0.169000 0.172000 900 39 0.900000 1.667000 1.576000 600 46 1.000000 0.052000 0.052000 1.200000 0.070000 0.084000
1553833949676967146	800 43 1.000000 0.185000 0.189000 900 39 0.900000 1.181000 1.113000 600 47 1.000000 0.053000 0.053000 1.200000 0.067000 0.081000
1553833950188836980	800 43 1.000000 0.172000 0.175000 900 39 0.900000 1.555000 1.471000 600 47 1.000000 0.053000 0.053000 1.200000 0.067000 0.081000
1553833950701795980	800 43 1.000000 0.175000 0.178000 900 39 0.900000 1.456000 1.375000 600 47 1.000000 0.053000 0.053000 1.200000 0.070000 0.084000
1553833951214080480	800 43 1.000000 0.196000 0.200000 900 39 0.900000 1.262000 1.190000 600 46 1.000000 0.053000 0.053000 1.200000 0.064000 0.077000
1553833951726330480	800 43 1.000000 0.178000 0.181000 900 39 0.900000 1.158000 1.090000 600 45 1.000000 0.053000 0.053000 1.200000 0.068000 0.082000
1553833952238401480	800 43 1.000000 0.172000 0.175000 900 39 0.900000 1.056000 0.994000 600 45 1.000000 0.053000 0.053000 1.200000 0.063000 0.076000
1553833952750505105	800 43 1.000000 0.167000 0.170000 900 39 0.900000 1.167000 1.100000 600 47 1.000000 0.053000 0.053000 1.200000 0.066000 0.079000
1553833953262660313	800 44 1.000000 0.172000 0.175000 900 40 0.900000 1.700000 1.608000 600 48 1.000000 0.053000 0.053000 1.200000 0.092000 0.111000
1553833953774643647	800 41 1.000000 0.172000 0.175000 900 39 0.900000 1.571000 1.484000 600 46 1.000000 0.053000 0.053000 1.200000 0.074000 0.089000
1553833954286037647	800 40 1.000000 0.172000 0.175000 900 39 0.900000 0.551000 0.521000 600 47 1.000000 0.053000 0.053000 1.200000 0.061000 0.073000
1553833954797451188	800 40 1.000000 0.120000 0.122000 900 38 0.900000 0.658000 0.621000 600 44 1.000000 0.053000 0.053000 1.200000 0.053000 0.064000
1553833955308767897	800 40 1.000000 0.106000 0.108000 900 38 0.900000 0.814000 0.766000 600 43 1.000000 0.053000 0.053000 1.200000 0.044000 0.053000
1553833955820122022	800 40 1.000000 0.105000 0.107000 900 38 0.900000 0.658000 0.621000 600 43 1.000000 0.053000 0.053000 1.200000 0.057000 0.068000
1553833956331341897	800 40 1.000000 0.105000 0.107000 900 38 0.900000 0.541000 0.511000 600 43 1.000000 0.052000 0.052000 1.200000 0.044000 0.053000
1553833956842943730	800 40 1.000000 0.104000 0.106000 900 38 0.900000 0.756000 0.711000 600 44 1.000000 0.052000 0.052000 1.200000 0.043000 0.051000
1553833957358871439	800 40 1.000000 0.141000 0.144000 900 37 0.900000 0.571000 0.540000 600 42 1.000000 0.052000 0.052000 1.200000 0.051000 0.061000
1553833957870630980	800 41 1.000000 0.204000 0.208000 900 38 0.900000 1.045000 0.988000 600 45 1.000000 0.053000 0.053000 1.200000 0.076000 0.092000
1553833958382484397	800 41 1.000000 0.160000 0.163000 900 38 0.900000 1.105000 1.040000 600 46 1.000000 0.053000 0.053000 1.200000 0.063000 0.076000
1553833958893910397	800 39 1.000000 0.171000 0.174000 900 38 0.900000 0.828000 0.782000 600 43 1.000000 0.053000 0.053000 1.200000 0.056000 0.067000
1553833959404774981	800 40 1.000000 0.104000 0.106000 900 37 0.900000 0.346000 0.327000 600 42 1.000000 0.053000 0.053000 1.200000 0.042000 0.050000
1553833959915421439	800 37 1.000000 0.079000 0.080000 900 37 0.900000 0.323000 0.305000 600 41 1.000000 0.053000 0.053000 1.200000 0.055000 0.066000
1553833960426174689	800 37 1.000000 0.035000 0.035000 900 36 0.900000 0.099000 0.094000 600 40 1.000000 0.052000 0.052000 1.200000 0.025000 0.030000
