#Timestamp	CPU(0) Frequency(MHz)	CPU(0) Temperature(C)	A7 Voltage(V)	A7 Current(A)	A7 Power(W)	CPU(4) Frequency(MHz)	CPU(4) Temperature(C)	A15 Voltage(V)	A15 Current(A)	A15 Power(W)	GPU Frequency(MHz)	GPU Temperature(C)	GPU Voltage(V)	GPU Current(A)	GPU Power(W)	RAM Voltage(V)	RAM Current(A)	RAM Power(W)
1517280192225698745	1200 41 1.100000 0.112000 0.129000 1700 33 1.000000 0.693000 0.739000 600 39 1.000000 0.050000 0.050000 1.200000 0.047000 0.056000
1517280192730720245	1200 43 1.100000 0.157000 0.183000 1700 35 1.100000 1.950000 2.287000 600 40 1.000000 0.050000 0.050000 1.200000 0.028000 0.033000
1517280193235853787	1200 44 1.100000 0.158000 0.185000 1700 36 1.100000 1.906000 2.235000 600 41 1.000000 0.051000 0.051000 1.200000 0.023000 0.027000
1517280193740784912	1200 45 1.100000 0.158000 0.185000 1700 37 1.100000 1.919000 2.250000 600 42 1.000000 0.051000 0.051000 1.200000 0.024000 0.028000
1517280194245899912	1200 46 1.100000 0.173000 0.202000 1700 37 1.100000 2.012000 2.360000 600 43 1.000000 0.051000 0.051000 1.200000 0.026000 0.031000
1517280194750869912	1200 47 1.100000 0.160000 0.187000 1700 38 1.100000 1.914000 2.245000 600 43 1.000000 0.051000 0.051000 1.200000 0.024000 0.028000
1517280195255838496	1200 47 1.100000 0.159000 0.186000 1700 38 1.100000 1.936000 2.270000 600 44 1.000000 0.051000 0.051000 1.200000 0.024000 0.028000
1517280195760886871	1200 47 1.100000 0.160000 0.187000 1700 39 1.100000 1.918000 2.249000 600 44 1.000000 0.051000 0.051000 1.200000 0.023000 0.027000
1517280196266028996	1200 48 1.100000 0.160000 0.187000 1700 39 1.100000 1.936000 2.270000 600 45 1.000000 0.051000 0.051000 1.200000 0.024000 0.028000
1517280196770988329	1200 48 1.100000 0.167000 0.195000 1700 39 1.100000 2.123000 2.494000 600 45 1.000000 0.051000 0.051000 1.200000 0.032000 0.038000
1517280197276012913	1200 48 1.100000 0.160000 0.187000 1700 40 1.100000 1.929000 2.262000 600 45 1.000000 0.051000 0.051000 1.200000 0.024000 0.028000
1517280197781107454	1200 48 1.100000 0.160000 0.187000 1700 40 1.100000 1.942000 2.277000 600 45 1.000000 0.051000 0.051000 1.200000 0.023000 0.027000
1517280198286085579	1200 49 1.100000 0.160000 0.187000 1700 40 1.100000 1.925000 2.258000 600 47 1.000000 0.052000 0.052000 1.200000 0.024000 0.028000
1517280198791032454	1200 49 1.100000 0.160000 0.187000 1700 40 1.100000 2.033000 2.388000 600 46 1.000000 0.052000 0.052000 1.200000 0.031000 0.037000
1517280199295978955	1200 49 1.100000 0.160000 0.187000 1700 40 1.100000 1.920000 2.252000 600 46 1.000000 0.051000 0.051000 1.200000 0.023000 0.027000
1517280199800961455	1200 49 1.100000 0.160000 0.187000 1700 40 1.100000 1.938000 2.273000 600 46 1.000000 0.052000 0.052000 1.200000 0.024000 0.028000
1517280200306981205	1200 49 1.100000 0.160000 0.187000 1700 41 1.100000 1.923000 2.255000 600 48 1.000000 0.052000 0.052000 1.200000 0.023000 0.027000
1517280200812243830	1200 50 1.100000 0.160000 0.187000 1700 41 1.100000 1.974000 2.315000 600 46 1.000000 0.051000 0.051000 1.200000 0.029000 0.035000
1517280201317247455	1200 50 1.100000 0.160000 0.187000 1700 41 1.100000 1.945000 2.281000 600 46 1.000000 0.051000 0.051000 1.200000 0.023000 0.027000
1517280201822181330	1200 50 1.100000 0.162000 0.189000 1700 41 1.100000 1.921000 2.253000 600 46 1.000000 0.052000 0.052000 1.200000 0.024000 0.028000
1517280202327140872	1200 50 1.100000 0.161000 0.188000 1700 41 1.100000 1.947000 2.283000 600 47 1.000000 0.051000 0.051000 1.200000 0.023000 0.027000
1517280202832278038	1200 50 1.100000 0.167000 0.195000 1700 41 1.100000 2.237000 2.630000 600 47 1.000000 0.052000 0.052000 1.200000 0.036000 0.043000
1517280203337258788	1200 50 1.100000 0.161000 0.188000 1700 41 1.100000 1.940000 2.275000 600 47 1.000000 0.052000 0.052000 1.200000 0.024000 0.028000
1517280203842328288	1200 50 1.100000 0.161000 0.188000 1700 41 1.100000 1.940000 2.275000 600 47 1.000000 0.052000 0.052000 1.200000 0.024000 0.028000
1517280204348180455	1200 50 1.100000 0.160000 0.187000 1700 42 1.100000 1.924000 2.256000 600 49 1.000000 0.052000 0.052000 1.200000 0.024000 0.028000
1517280204853413330	1200 50 1.100000 0.173000 0.202000 1700 42 1.100000 2.206000 2.592000 600 47 1.000000 0.052000 0.052000 1.200000 0.035000 0.042000
1517280205358498914	1200 50 1.100000 0.161000 0.188000 1700 42 1.100000 1.928000 2.261000 600 47 1.000000 0.052000 0.052000 1.200000 0.024000 0.028000
1517280205863355955	1200 50 1.100000 0.161000 0.188000 1700 42 1.100000 1.921000 2.253000 600 47 1.000000 0.052000 0.052000 1.200000 0.023000 0.027000
1517280206370006164	1200 50 1.100000 0.162000 0.189000 1700 42 1.100000 1.921000 2.253000 600 49 1.000000 0.052000 0.052000 1.200000 0.023000 0.027000
1517280206875473914	1200 51 1.100000 0.161000 0.188000 1700 42 1.100000 2.039000 2.391000 600 48 1.000000 0.052000 0.052000 1.200000 0.027000 0.032000
1517280207380447914	1200 51 1.100000 0.162000 0.189000 1700 42 1.100000 1.942000 2.277000 600 47 1.000000 0.052000 0.052000 1.200000 0.024000 0.028000
1517280207886338997	1200 51 1.100000 0.162000 0.189000 1700 42 1.100000 1.932000 2.266000 600 47 1.000000 0.052000 0.052000 1.200000 0.024000 0.028000
1517280208392430872	1200 51 1.100000 0.162000 0.189000 1700 42 1.100000 1.942000 2.277000 600 47 1.000000 0.052000 0.052000 1.200000 0.024000 0.028000
1517280208897646997	1200 51 1.100000 0.165000 0.193000 1700 42 1.100000 2.025000 2.379000 600 48 1.000000 0.052000 0.052000 1.200000 0.028000 0.033000
1517280209402913164	1200 51 1.100000 0.165000 0.193000 1700 42 1.100000 1.950000 2.287000 600 48 1.000000 0.052000 0.052000 1.200000 0.024000 0.028000
1517280209908010289	1200 51 1.100000 0.161000 0.188000 1700 42 1.100000 1.938000 2.273000 600 48 1.000000 0.052000 0.052000 1.200000 0.024000 0.028000
1517280210412954206	1200 51 1.100000 0.162000 0.189000 1700 42 1.100000 1.926000 2.259000 600 48 1.000000 0.052000 0.052000 1.200000 0.023000 0.027000
1517280210917942039	1200 51 1.100000 0.161000 0.188000 1700 42 1.100000 1.973000 2.314000 600 49 1.000000 0.052000 0.052000 1.200000 0.028000 0.033000
1517280211422966831	1200 51 1.100000 0.162000 0.189000 1700 42 1.100000 1.926000 2.259000 600 48 1.000000 0.052000 0.052000 1.200000 0.023000 0.027000
1517280211927819914	1200 51 1.100000 0.161000 0.188000 1700 42 1.100000 1.927000 2.260000 600 48 1.000000 0.052000 0.052000 1.200000 0.023000 0.027000
1517280212432729164	1200 51 1.100000 0.161000 0.188000 1700 42 1.100000 1.933000 2.267000 600 48 1.000000 0.052000 0.052000 1.200000 0.023000 0.027000
1517280212938387623	1200 51 1.100000 0.163000 0.190000 1700 42 1.100000 2.056000 2.415000 600 49 1.000000 0.051000 0.051000 1.200000 0.026000 0.031000
1517280213443573790	1200 51 1.100000 0.177000 0.207000 1700 43 1.100000 2.154000 2.530000 600 48 1.000000 0.052000 0.052000 1.200000 0.036000 0.043000
1517280213948702206	1200 51 1.100000 0.161000 0.188000 1700 42 1.100000 1.944000 2.280000 600 48 1.000000 0.052000 0.052000 1.200000 0.023000 0.027000
1517280214453554456	1200 51 1.100000 0.162000 0.189000 1700 43 1.100000 1.938000 2.273000 600 48 1.000000 0.052000 0.052000 1.200000 0.024000 0.028000
1517280214958663998	1200 51 1.100000 0.163000 0.190000 1700 43 1.100000 2.034000 2.389000 600 48 1.000000 0.052000 0.052000 1.200000 0.026000 0.031000
1517280215463777706	1200 51 1.100000 0.170000 0.199000 1700 43 1.100000 2.142000 2.516000 600 48 1.000000 0.052000 0.052000 1.200000 0.034000 0.041000
1517280215968841707	1200 51 1.100000 0.162000 0.189000 1700 43 1.100000 1.924000 2.256000 600 48 1.000000 0.052000 0.052000 1.200000 0.023000 0.027000
1517280216473704707	1200 51 1.100000 0.162000 0.189000 1700 43 1.100000 1.926000 2.259000 600 48 1.000000 0.052000 0.052000 1.200000 0.023000 0.027000
1517280216978979082	1200 51 1.100000 0.161000 0.188000 1700 43 1.100000 1.977000 2.319000 600 48 1.000000 0.052000 0.052000 1.200000 0.028000 0.033000
1517280217484187248	1200 52 1.100000 0.174000 0.203000 1700 43 1.100000 2.166000 2.545000 600 48 1.000000 0.052000 0.052000 1.200000 0.033000 0.039000
1517280217989170915	1200 51 1.100000 0.161000 0.188000 1700 43 1.100000 1.916000 2.247000 600 48 1.000000 0.052000 0.052000 1.200000 0.023000 0.027000
1517280218494215373	1200 51 1.100000 0.162000 0.189000 1700 43 1.100000 1.925000 2.258000 600 48 1.000000 0.052000 0.052000 1.200000 0.023000 0.027000
1517280218999448290	1200 51 1.100000 0.165000 0.193000 1700 43 1.100000 2.049000 2.407000 600 48 1.000000 0.052000 0.052000 1.200000 0.029000 0.035000
1517280219504663457	1200 52 1.100000 0.162000 0.189000 1700 43 1.100000 1.932000 2.266000 600 49 1.000000 0.052000 0.052000 1.200000 0.024000 0.028000
1517280220009741040	1200 52 1.100000 0.162000 0.189000 1700 43 1.100000 1.942000 2.277000 600 48 1.000000 0.052000 0.052000 1.200000 0.023000 0.027000
1517280220514637082	1200 51 1.100000 0.162000 0.189000 1700 43 1.100000 1.923000 2.255000 600 48 1.000000 0.052000 0.052000 1.200000 0.024000 0.028000
1517280221019844499	1200 52 1.100000 0.161000 0.188000 1700 43 1.100000 2.035000 2.391000 600 48 1.000000 0.052000 0.052000 1.200000 0.027000 0.032000
1517280221525063749	1200 52 1.100000 0.163000 0.190000 1700 43 1.100000 1.951000 2.288000 600 49 1.000000 0.052000 0.052000 1.200000 0.024000 0.028000
1517280222030144416	1200 52 1.100000 0.162000 0.189000 1700 43 1.100000 1.930000 2.263000 600 48 1.000000 0.052000 0.052000 1.200000 0.023000 0.027000
1517280222535128749	1200 52 1.100000 0.161000 0.188000 1700 43 1.100000 1.907000 2.236000 600 48 1.000000 0.052000 0.052000 1.200000 0.023000 0.027000
1517280223040358124	1200 52 1.100000 0.162000 0.189000 1700 43 1.100000 1.979000 2.321000 600 48 1.000000 0.052000 0.052000 1.200000 0.026000 0.031000
1517280223545326874	1200 52 1.100000 0.162000 0.189000 1700 43 1.100000 1.998000 2.347000 600 50 1.000000 0.052000 0.052000 1.200000 0.024000 0.028000
1517280224050257666	1200 52 1.100000 0.162000 0.189000 1700 43 1.100000 1.923000 2.255000 600 49 1.000000 0.052000 0.052000 1.200000 0.023000 0.027000
1517280224555177958	1200 52 1.100000 0.162000 0.189000 1700 43 1.100000 1.923000 2.255000 600 48 1.000000 0.052000 0.052000 1.200000 0.023000 0.027000
1517280225060473041	1200 52 1.100000 0.164000 0.192000 1700 43 1.100000 2.050000 2.404000 600 48 1.000000 0.052000 0.052000 1.200000 0.028000 0.033000
1517280225566008624	1200 51 1.100000 0.162000 0.189000 1700 43 1.100000 1.913000 2.243000 600 49 1.000000 0.052000 0.052000 1.200000 0.023000 0.027000
1517280226071226666	1200 52 1.100000 0.173000 0.202000 1700 43 1.100000 2.036000 2.388000 600 48 1.000000 0.052000 0.052000 1.200000 0.031000 0.037000
1517280226576338583	1200 52 1.100000 0.162000 0.189000 1700 43 1.100000 1.923000 2.255000 600 48 1.000000 0.052000 0.052000 1.200000 0.023000 0.027000
1517280227081529416	1200 52 1.100000 0.162000 0.189000 1700 43 1.100000 1.936000 2.270000 600 49 1.000000 0.052000 0.052000 1.200000 0.028000 0.033000
1517280227586570916	1200 52 1.100000 0.162000 0.189000 1700 43 1.100000 1.927000 2.260000 600 48 1.000000 0.052000 0.052000 1.200000 0.023000 0.027000
1517280228091714833	1200 52 1.100000 0.174000 0.203000 1700 43 1.100000 2.096000 2.462000 600 49 1.000000 0.052000 0.052000 1.200000 0.029000 0.035000
1517280228596655708	1200 52 1.100000 0.162000 0.189000 1700 43 1.100000 1.941000 2.276000 600 48 1.000000 0.052000 0.052000 1.200000 0.023000 0.027000
1517280229101861750	1200 52 1.100000 0.164000 0.192000 1700 43 1.100000 1.977000 2.319000 600 49 1.000000 0.052000 0.052000 1.200000 0.027000 0.032000
1517280229606889500	1200 52 1.100000 0.161000 0.188000 1700 43 1.100000 1.930000 2.263000 600 49 1.000000 0.052000 0.052000 1.200000 0.023000 0.027000
1517280230112028417	1200 52 1.100000 0.174000 0.203000 1700 43 1.100000 2.164000 2.542000 600 49 1.000000 0.052000 0.052000 1.200000 0.026000 0.031000
1517280230617035292	1200 52 1.100000 0.162000 0.189000 1700 43 1.100000 1.910000 2.240000 600 49 1.000000 0.052000 0.052000 1.200000 0.023000 0.027000
1517280231122279792	1200 52 1.100000 0.161000 0.188000 1700 43 1.100000 1.955000 2.293000 600 49 1.000000 0.052000 0.052000 1.200000 0.026000 0.031000
1517280231627253375	1200 52 1.100000 0.162000 0.189000 1700 43 1.100000 1.903000 2.232000 600 49 1.000000 0.052000 0.052000 1.200000 0.023000 0.027000
1517280232132357917	1200 52 1.100000 0.167000 0.195000 1700 43 1.100000 1.949000 2.286000 600 49 1.000000 0.052000 0.052000 1.200000 0.024000 0.028000
1517280232637281917	1200 52 1.100000 0.162000 0.189000 1700 43 1.100000 1.920000 2.252000 600 49 1.000000 0.052000 0.052000 1.200000 0.025000 0.030000
1517280233142465625	1200 52 1.100000 0.162000 0.189000 1700 43 1.100000 1.936000 2.270000 600 49 1.000000 0.052000 0.052000 1.200000 0.024000 0.028000
1517280233647373750	1200 52 1.100000 0.162000 0.189000 1700 43 1.100000 1.943000 2.279000 600 49 1.000000 0.053000 0.053000 1.200000 0.024000 0.028000
1517280234152401500	1200 52 1.100000 0.162000 0.189000 1700 43 1.100000 1.928000 2.265000 600 49 1.000000 0.052000 0.052000 1.200000 0.023000 0.027000
1517280234658152042	1200 52 1.100000 0.161000 0.188000 1700 43 1.100000 1.940000 2.275000 600 49 1.000000 0.052000 0.052000 1.200000 0.024000 0.028000
1517280235164929875	1200 52 1.100000 0.164000 0.192000 1700 43 1.100000 1.982000 2.328000 600 49 1.000000 0.052000 0.052000 1.200000 0.023000 0.027000
1517280235669975501	1200 52 1.100000 0.162000 0.189000 1700 43 1.100000 1.937000 2.272000 600 49 1.000000 0.052000 0.052000 1.200000 0.025000 0.030000
1517280236174922917	1200 52 1.100000 0.161000 0.188000 1700 43 1.100000 1.926000 2.259000 600 50 1.000000 0.052000 0.052000 1.200000 0.023000 0.027000
1517280236679948251	1200 52 1.100000 0.173000 0.202000 1700 44 1.100000 2.149000 2.525000 600 49 1.000000 0.052000 0.052000 1.200000 0.034000 0.041000
1517280237185006459	1200 52 1.100000 0.162000 0.189000 1700 43 1.100000 1.952000 2.289000 600 49 1.000000 0.052000 0.052000 1.200000 0.023000 0.027000
1517280237690041417	1200 52 1.100000 0.163000 0.190000 1700 43 1.100000 1.907000 2.236000 600 49 1.000000 0.052000 0.052000 1.200000 0.024000 0.028000
1517280238195845084	1200 52 1.100000 0.162000 0.189000 1700 43 1.100000 1.958000 2.296000 600 50 1.000000 0.052000 0.052000 1.200000 0.023000 0.027000
1517280238700980418	1200 52 1.100000 0.166000 0.194000 1700 44 1.100000 2.128000 2.500000 600 49 1.000000 0.052000 0.052000 1.200000 0.034000 0.041000
1517280239206180043	1200 52 1.100000 0.164000 0.192000 1700 44 1.100000 1.945000 2.281000 600 49 1.000000 0.052000 0.052000 1.200000 0.024000 0.028000
1517280239711193626	1200 52 1.100000 0.161000 0.188000 1700 44 1.100000 1.919000 2.250000 600 49 1.000000 0.052000 0.052000 1.200000 0.023000 0.027000
1517280240216098376	1200 52 1.100000 0.162000 0.189000 1700 44 1.100000 1.937000 2.272000 600 49 1.000000 0.052000 0.052000 1.200000 0.024000 0.028000
1517280240721218334	1200 52 1.100000 0.175000 0.204000 1700 44 1.100000 2.158000 2.535000 600 49 1.000000 0.052000 0.052000 1.200000 0.033000 0.039000
1517280241226467876	1200 52 1.100000 0.162000 0.189000 1700 44 1.100000 1.970000 2.310000 600 49 1.000000 0.052000 0.052000 1.200000 0.024000 0.028000
1517280241731421126	1200 52 1.100000 0.162000 0.189000 1700 44 1.100000 1.907000 2.236000 600 49 1.000000 0.052000 0.052000 1.200000 0.023000 0.027000
1517280242236397793	1200 52 1.100000 0.162000 0.189000 1700 44 1.100000 1.928000 2.261000 600 49 1.000000 0.052000 0.052000 1.200000 0.023000 0.027000
1517280242741366960	1200 52 1.100000 0.162000 0.189000 1700 44 1.100000 1.927000 2.260000 600 49 1.000000 0.052000 0.052000 1.200000 0.024000 0.028000
1517280243246490626	1200 52 1.100000 0.162000 0.189000 1700 44 1.100000 1.955000 2.293000 600 49 1.000000 0.053000 0.053000 1.200000 0.023000 0.027000
1517280243751519668	1200 52 1.100000 0.162000 0.189000 1700 44 1.100000 1.914000 2.245000 600 49 1.000000 0.052000 0.052000 1.200000 0.024000 0.028000
1517280244256420543	1200 52 1.100000 0.161000 0.188000 1700 44 1.100000 1.953000 2.290000 600 49 1.000000 0.052000 0.052000 1.200000 0.023000 0.027000
1517280244761499502	1200 52 1.100000 0.172000 0.201000 1700 44 1.100000 1.918000 2.249000 600 49 1.000000 0.052000 0.052000 1.200000 0.024000 0.028000
1517280245266589085	1200 52 1.100000 0.165000 0.193000 1700 44 1.100000 1.951000 2.288000 600 49 1.000000 0.052000 0.052000 1.200000 0.023000 0.027000
1517280245771682293	1200 52 1.100000 0.162000 0.189000 1700 44 1.100000 1.932000 2.266000 600 49 1.000000 0.052000 0.052000 1.200000 0.024000 0.028000
1517280246276758585	1200 52 1.100000 0.162000 0.189000 1700 44 1.100000 1.929000 2.262000 600 49 1.000000 0.052000 0.052000 1.200000 0.024000 0.028000
1517280246781768044	1200 52 1.100000 0.162000 0.189000 1700 44 1.100000 1.912000 2.242000 600 50 1.000000 0.052000 0.052000 1.200000 0.023000 0.027000
1517280247286903127	1200 52 1.100000 0.162000 0.189000 1700 44 1.100000 1.971000 2.311000 600 49 1.000000 0.052000 0.052000 1.200000 0.023000 0.027000
1517280247792009502	1200 52 1.100000 0.162000 0.189000 1700 44 1.100000 1.913000 2.243000 600 49 1.000000 0.052000 0.052000 1.200000 0.023000 0.027000
1517280248296969835	1200 52 1.100000 0.162000 0.189000 1700 44 1.100000 1.924000 2.256000 600 49 1.000000 0.052000 0.052000 1.200000 0.024000 0.028000
1517280248801807669	1200 52 1.100000 0.162000 0.189000 1700 44 1.100000 1.934000 2.268000 600 50 1.000000 0.052000 0.052000 1.200000 0.023000 0.027000
1517280249306907835	1200 53 1.100000 0.175000 0.204000 1700 44 1.100000 2.116000 2.486000 600 49 1.000000 0.052000 0.052000 1.200000 0.034000 0.041000
1517280249812009752	1200 52 1.100000 0.162000 0.189000 1700 44 1.100000 1.934000 2.268000 600 49 1.000000 0.053000 0.053000 1.200000 0.024000 0.028000
1517280250316831044	1200 52 1.100000 0.162000 0.189000 1700 44 1.100000 1.939000 2.274000 600 49 1.000000 0.053000 0.053000 1.200000 0.023000 0.027000
1517280250822107711	1200 52 1.100000 0.162000 0.189000 1700 44 1.100000 1.934000 2.268000 600 50 1.000000 0.052000 0.052000 1.200000 0.024000 0.028000
1517280251327497586	1200 53 1.100000 0.163000 0.190000 1700 44 1.100000 2.058000 2.414000 600 49 1.000000 0.052000 0.052000 1.200000 0.034000 0.041000
1517280251832601669	1200 52 1.100000 0.162000 0.189000 1700 44 1.100000 1.931000 2.265000 600 49 1.000000 0.052000 0.052000 1.200000 0.024000 0.028000
1517280252337589961	1200 52 1.100000 0.162000 0.189000 1700 44 1.100000 1.910000 2.240000 600 49 1.000000 0.053000 0.053000 1.200000 0.023000 0.027000
1517280252842370169	1200 52 1.100000 0.162000 0.189000 1700 44 1.100000 1.927000 2.260000 600 49 1.000000 0.052000 0.052000 1.200000 0.023000 0.027000
1517280253348726169	1200 53 1.100000 0.175000 0.204000 1700 44 1.100000 2.039000 2.395000 600 50 1.000000 0.052000 0.052000 1.200000 0.031000 0.037000
1517280253853923294	1200 52 1.100000 0.162000 0.189000 1700 44 1.100000 1.931000 2.265000 600 49 1.000000 0.052000 0.052000 1.200000 0.023000 0.027000
1517280254358988378	1200 52 1.100000 0.162000 0.189000 1700 44 1.100000 1.935000 2.269000 600 49 1.000000 0.053000 0.053000 1.200000 0.025000 0.030000
1517280254863956794	1200 52 1.100000 0.162000 0.189000 1700 44 1.100000 1.937000 2.272000 600 49 1.000000 0.052000 0.052000 1.200000 0.023000 0.027000
1517280255369094670	1200 53 1.100000 0.163000 0.190000 1700 44 1.100000 2.122000 2.493000 600 50 1.000000 0.052000 0.052000 1.200000 0.026000 0.031000
1517280255874338711	1200 53 1.100000 0.162000 0.189000 1700 44 1.100000 1.924000 2.256000 600 49 1.000000 0.052000 0.052000 1.200000 0.023000 0.027000
1517280256379363461	1200 52 1.100000 0.162000 0.189000 1700 44 1.100000 1.922000 2.254000 600 49 1.000000 0.052000 0.052000 1.200000 0.024000 0.028000
1517280256884374628	1200 53 1.100000 0.162000 0.189000 1700 44 1.100000 1.928000 2.261000 600 49 1.000000 0.052000 0.052000 1.200000 0.023000 0.027000
1517280257389450545	1200 53 1.100000 0.173000 0.202000 1700 44 1.100000 2.142000 2.516000 600 50 1.000000 0.052000 0.052000 1.200000 0.028000 0.033000
1517280257894408878	1200 53 1.100000 0.162000 0.189000 1700 44 1.100000 1.918000 2.249000 600 49 1.000000 0.052000 0.052000 1.200000 0.023000 0.027000
1517280258400650337	1200 53 1.100000 0.162000 0.189000 1700 44 1.100000 1.923000 2.255000 600 49 1.000000 0.052000 0.052000 1.200000 0.023000 0.027000
1517280258905520045	1200 53 1.100000 0.164000 0.192000 1700 44 1.100000 1.923000 2.255000 600 49 1.000000 0.052000 0.052000 1.200000 0.023000 0.027000
1517280259410700045	1200 53 1.100000 0.162000 0.189000 1700 44 1.100000 2.175000 2.555000 600 50 1.000000 0.052000 0.052000 1.200000 0.031000 0.037000
1517280259915703045	1200 53 1.100000 0.162000 0.189000 1700 44 1.100000 1.916000 2.247000 600 49 1.000000 0.052000 0.052000 1.200000 0.023000 0.027000
1517280260420815337	1200 53 1.100000 0.162000 0.189000 1700 44 1.100000 1.937000 2.272000 600 49 1.000000 0.052000 0.052000 1.200000 0.023000 0.027000
1517280260925666462	1200 53 1.100000 0.162000 0.189000 1700 44 1.100000 1.922000 2.254000 600 49 1.000000 0.052000 0.052000 1.200000 0.023000 0.027000
1517280261433805920	1200 53 1.100000 0.162000 0.189000 1700 44 1.100000 1.931000 2.265000 600 52 1.000000 0.052000 0.052000 1.200000 0.024000 0.028000
1517280261938763129	1200 53 1.100000 0.180000 0.210000 1700 44 1.100000 1.915000 2.246000 600 49 1.000000 0.052000 0.052000 1.200000 0.025000 0.030000
1517280262443635379	1200 53 1.100000 0.162000 0.189000 1700 44 1.100000 1.927000 2.260000 600 49 1.000000 0.052000 0.052000 1.200000 0.023000 0.027000
1517280262948687837	1200 53 1.100000 0.162000 0.189000 1700 44 1.100000 1.912000 2.242000 600 49 1.000000 0.052000 0.052000 1.200000 0.023000 0.027000
1517280263455332837	1200 53 1.100000 0.162000 0.189000 1700 44 1.100000 1.928000 2.261000 600 50 1.000000 0.052000 0.052000 1.200000 0.023000 0.027000
1517280263963120504	1200 53 1.100000 0.162000 0.189000 1700 44 1.100000 1.923000 2.259000 600 50 1.000000 0.052000 0.052000 1.200000 0.024000 0.028000
1517280264468160504	1200 53 1.100000 0.162000 0.189000 1700 44 1.100000 1.941000 2.276000 600 49 1.000000 0.053000 0.053000 1.200000 0.023000 0.027000
1517280264973140254	1200 53 1.100000 0.162000 0.189000 1700 44 1.100000 1.928000 2.261000 600 49 1.000000 0.052000 0.052000 1.200000 0.023000 0.027000
1517280265479033046	1200 53 1.100000 0.162000 0.189000 1700 44 1.100000 1.941000 2.276000 600 50 1.000000 0.053000 0.053000 1.200000 0.023000 0.027000
1517280265984209421	1200 53 1.100000 0.175000 0.204000 1700 44 1.100000 2.254000 2.648000 600 50 1.000000 0.052000 0.052000 1.200000 0.023000 0.027000
1517280266489294796	1200 53 1.100000 0.162000 0.189000 1700 44 1.100000 1.923000 2.255000 600 49 1.000000 0.052000 0.052000 1.200000 0.024000 0.028000
1517280266994178879	1200 53 1.100000 0.162000 0.189000 1700 44 1.100000 1.945000 2.281000 600 49 1.000000 0.052000 0.052000 1.200000 0.023000 0.027000
1517280267500934421	1200 53 1.100000 0.162000 0.189000 1700 44 1.100000 1.921000 2.253000 600 49 1.000000 0.052000 0.052000 1.200000 0.023000 0.027000
1517280268006342796	1200 53 1.100000 0.166000 0.194000 1700 44 1.100000 2.044000 2.397000 600 50 1.000000 0.052000 0.052000 1.200000 0.032000 0.038000
1517280268511336838	1200 53 1.100000 0.162000 0.189000 1700 44 1.100000 1.931000 2.265000 600 49 1.000000 0.052000 0.052000 1.200000 0.023000 0.027000
1517280269016317921	1200 53 1.100000 0.162000 0.189000 1700 44 1.100000 1.946000 2.282000 600 49 1.000000 0.052000 0.052000 1.200000 0.023000 0.027000
1517280269523027130	1200 53 1.100000 0.162000 0.189000 1700 44 1.100000 1.934000 2.268000 600 49 1.000000 0.052000 0.052000 1.200000 0.023000 0.027000
1517280270028574671	1200 53 1.100000 0.173000 0.202000 1700 44 1.100000 2.027000 2.377000 600 50 1.000000 0.052000 0.052000 1.200000 0.033000 0.039000
1517280270533600546	1200 53 1.100000 0.162000 0.189000 1700 44 1.100000 1.946000 2.282000 600 49 1.000000 0.052000 0.052000 1.200000 0.023000 0.027000
1517280271038546755	1200 53 1.100000 0.162000 0.189000 1700 44 1.100000 1.927000 2.260000 600 49 1.000000 0.052000 0.052000 1.200000 0.023000 0.027000
1517280271543483380	1200 53 1.100000 0.163000 0.190000 1700 44 1.100000 1.953000 2.290000 600 49 1.000000 0.052000 0.052000 1.200000 0.023000 0.027000
1517280272048605213	1200 53 1.100000 0.162000 0.189000 1700 44 1.100000 2.011000 2.358000 600 50 1.000000 0.052000 0.052000 1.200000 0.029000 0.035000
1517280272553582338	1200 53 1.100000 0.178000 0.208000 1700 44 1.100000 2.168000 2.547000 600 49 1.000000 0.052000 0.052000 1.200000 0.034000 0.041000
1517280273058482463	1200 53 1.100000 0.162000 0.189000 1700 44 1.100000 1.927000 2.260000 600 49 1.000000 0.052000 0.052000 1.200000 0.023000 0.027000
1517280273563475047	1200 53 1.100000 0.162000 0.189000 1700 44 1.100000 1.941000 2.276000 600 49 1.000000 0.052000 0.052000 1.200000 0.024000 0.028000
1517280274069013005	1200 53 1.100000 0.166000 0.194000 1700 44 1.100000 2.042000 2.395000 600 51 1.000000 0.052000 0.052000 1.200000 0.026000 0.031000
1517280274574113338	1200 53 1.100000 0.170000 0.199000 1700 44 1.100000 2.147000 2.522000 600 49 1.000000 0.053000 0.053000 1.200000 0.034000 0.041000
1517280275079097380	1200 53 1.100000 0.162000 0.189000 1700 44 1.100000 1.951000 2.288000 600 49 1.000000 0.052000 0.052000 1.200000 0.023000 0.027000
1517280275584077255	1200 53 1.100000 0.162000 0.189000 1700 44 1.100000 1.926000 2.259000 600 49 1.000000 0.052000 0.052000 1.200000 0.023000 0.027000
1517280276089612422	1200 53 1.100000 0.162000 0.189000 1700 44 1.100000 2.050000 2.404000 600 50 1.000000 0.053000 0.053000 1.200000 0.026000 0.031000
1517280276594968172	1200 53 1.100000 0.162000 0.189000 1700 44 1.100000 2.136000 2.509000 600 50 1.000000 0.052000 0.052000 1.200000 0.033000 0.039000
1517280277100078214	1200 53 1.100000 0.162000 0.189000 1700 44 1.100000 1.933000 2.267000 600 50 1.000000 0.053000 0.053000 1.200000 0.024000 0.028000
1517280277604987214	1200 53 1.100000 0.162000 0.189000 1700 44 1.100000 1.921000 2.253000 600 49 1.000000 0.052000 0.052000 1.200000 0.023000 0.027000
1517280278110423172	1200 53 1.100000 0.162000 0.189000 1700 44 1.100000 2.033000 2.384000 600 50 1.000000 0.053000 0.053000 1.200000 0.024000 0.028000
1517280278616726464	1200 53 1.100000 0.163000 0.190000 1700 44 1.100000 2.002000 2.348000 600 50 1.000000 0.052000 0.052000 1.200000 0.023000 0.027000
1517280279121740714	1200 53 1.100000 0.162000 0.189000 1700 44 1.100000 1.934000 2.268000 600 50 1.000000 0.053000 0.053000 1.200000 0.024000 0.028000
1517280279626742964	1200 53 1.100000 0.162000 0.189000 1700 44 1.100000 1.936000 2.270000 600 50 1.000000 0.052000 0.052000 1.200000 0.023000 0.027000
1517280280132017256	1200 53 1.100000 0.165000 0.193000 1700 44 1.100000 2.045000 2.402000 600 50 1.000000 0.053000 0.053000 1.200000 0.027000 0.032000
1517280280637148298	1200 53 1.100000 0.170000 0.199000 1700 44 1.100000 2.023000 2.377000 600 50 1.000000 0.052000 0.052000 1.200000 0.023000 0.027000
1517280281142250964	1200 53 1.100000 0.163000 0.190000 1700 44 1.100000 1.954000 2.292000 600 50 1.000000 0.052000 0.052000 1.200000 0.023000 0.027000
1517280281647091214	1200 53 1.100000 0.162000 0.189000 1700 44 1.100000 1.920000 2.252000 600 50 1.000000 0.053000 0.053000 1.200000 0.024000 0.028000
1517280282152329423	1200 53 1.100000 0.162000 0.189000 1700 44 1.100000 2.036000 2.392000 600 50 1.000000 0.052000 0.052000 1.200000 0.027000 0.032000
1517280282658352798	1200 53 1.100000 0.174000 0.203000 1700 44 1.100000 2.076000 2.439000 600 50 1.000000 0.052000 0.052000 1.200000 0.025000 0.030000
1517280283163751506	1200 53 1.100000 0.162000 0.189000 1700 44 1.100000 1.921000 2.253000 600 50 1.000000 0.053000 0.053000 1.200000 0.023000 0.027000
1517280283668778881	1200 53 1.100000 0.162000 0.189000 1700 44 1.100000 1.924000 2.256000 600 50 1.000000 0.053000 0.053000 1.200000 0.023000 0.027000
1517280284174132923	1200 53 1.100000 0.162000 0.189000 1700 44 1.100000 1.917000 2.248000 600 50 1.000000 0.053000 0.053000 1.200000 0.023000 0.027000
1517280284679312506	1200 53 1.100000 0.162000 0.189000 1700 44 1.100000 1.959000 2.297000 600 50 1.000000 0.052000 0.052000 1.200000 0.023000 0.027000
1517280285184300881	1200 53 1.100000 0.176000 0.206000 1700 44 1.100000 1.959000 2.297000 600 50 1.000000 0.052000 0.052000 1.200000 0.031000 0.037000
1517280285689297423	1200 53 1.100000 0.163000 0.191000 1700 44 1.100000 1.954000 2.292000 600 50 1.000000 0.052000 0.052000 1.200000 0.023000 0.027000
1517280286194560090	1200 53 1.100000 0.163000 0.190000 1700 44 1.100000 2.025000 2.379000 600 50 1.000000 0.052000 0.052000 1.200000 0.026000 0.031000
1517280286699807923	1200 53 1.100000 0.162000 0.189000 1700 44 1.100000 1.943000 2.279000 600 51 1.000000 0.053000 0.053000 1.200000 0.023000 0.027000
1517280287204906007	1200 53 1.100000 0.165000 0.193000 1700 45 1.100000 1.928000 2.261000 600 50 1.000000 0.052000 0.052000 1.200000 0.029000 0.035000
1517280287709749965	1200 53 1.100000 0.162000 0.189000 1700 44 1.100000 1.925000 2.258000 600 50 1.000000 0.052000 0.052000 1.200000 0.023000 0.027000
1517280288214903173	1200 53 1.100000 0.163000 0.190000 1700 44 1.100000 2.024000 2.374000 600 50 1.000000 0.053000 0.053000 1.200000 0.029000 0.035000
1517280288720684382	1200 53 1.100000 0.162000 0.189000 1700 44 1.100000 1.923000 2.255000 600 50 1.000000 0.053000 0.053000 1.200000 0.023000 0.027000
1517280289225901924	1200 53 1.100000 0.162000 0.189000 1700 44 1.100000 1.934000 2.268000 600 50 1.000000 0.053000 0.053000 1.200000 0.027000 0.032000
1517280289730973424	1200 53 1.100000 0.162000 0.189000 1700 44 1.100000 1.921000 2.253000 600 50 1.000000 0.053000 0.053000 1.200000 0.023000 0.027000
1517280290236182215	1200 53 1.100000 0.162000 0.189000 1700 44 1.100000 1.939000 2.274000 600 50 1.000000 0.053000 0.053000 1.200000 0.023000 0.027000
1517280290741185965	1200 53 1.100000 0.162000 0.189000 1700 44 1.100000 1.938000 2.273000 600 50 1.000000 0.052000 0.052000 1.200000 0.024000 0.028000
1517280291246308507	1200 53 1.100000 0.164000 0.192000 1700 44 1.100000 2.157000 2.534000 600 50 1.000000 0.052000 0.052000 1.200000 0.031000 0.037000
1517280291751233966	1200 53 1.100000 0.162000 0.189000 1700 44 1.100000 1.945000 2.281000 600 50 1.000000 0.052000 0.052000 1.200000 0.024000 0.028000
1517280292256408632	1200 53 1.100000 0.162000 0.189000 1700 44 1.100000 2.031000 2.386000 600 50 1.000000 0.053000 0.053000 1.200000 0.025000 0.030000
1517280292761409132	1200 53 1.100000 0.162000 0.189000 1700 44 1.100000 1.916000 2.247000 600 50 1.000000 0.052000 0.052000 1.200000 0.023000 0.027000
1517280293266586466	1200 53 1.100000 0.175000 0.204000 1700 44 1.100000 2.146000 2.521000 600 50 1.000000 0.052000 0.052000 1.200000 0.033000 0.039000
1517280293771500507	1200 53 1.100000 0.162000 0.189000 1700 45 1.100000 1.920000 2.252000 600 50 1.000000 0.052000 0.052000 1.200000 0.023000 0.027000
1517280294276781049	1200 53 1.100000 0.165000 0.193000 1700 45 1.100000 2.032000 2.383000 600 50 1.000000 0.053000 0.053000 1.200000 0.027000 0.032000
1517280294781761799	1200 53 1.100000 0.162000 0.189000 1700 45 1.100000 1.918000 2.249000 600 50 1.000000 0.053000 0.053000 1.200000 0.023000 0.027000
1517280295286829591	1200 53 1.100000 0.174000 0.203000 1700 45 1.100000 2.148000 2.523000 600 50 1.000000 0.053000 0.053000 1.200000 0.033000 0.039000
1517280295791855924	1200 53 1.100000 0.162000 0.189000 1700 45 1.100000 1.924000 2.256000 600 50 1.000000 0.053000 0.053000 1.200000 0.023000 0.027000
1517280296297140716	1200 53 1.100000 0.162000 0.189000 1700 44 1.100000 1.920000 2.252000 600 50 1.000000 0.053000 0.053000 1.200000 0.023000 0.027000
1517280296802209299	1200 53 1.100000 0.162000 0.189000 1700 44 1.100000 1.959000 2.297000 600 50 1.000000 0.052000 0.052000 1.200000 0.024000 0.028000
1517280297307276258	1200 53 1.100000 0.162000 0.189000 1700 44 1.100000 1.912000 2.242000 600 50 1.000000 0.053000 0.053000 1.200000 0.023000 0.027000
1517280297812381508	1200 53 1.100000 0.172000 0.201000 1700 45 1.100000 1.930000 2.263000 600 50 1.000000 0.053000 0.053000 1.200000 0.024000 0.028000
1517280298317586508	1200 53 1.100000 0.163000 0.190000 1700 45 1.100000 2.018000 2.367000 600 50 1.000000 0.052000 0.052000 1.200000 0.025000 0.030000
1517280298822644841	1200 53 1.100000 0.162000 0.189000 1700 44 1.100000 1.935000 2.269000 600 50 1.000000 0.052000 0.052000 1.200000 0.023000 0.027000
1517280299328558508	1200 53 1.100000 0.161000 0.188000 1700 45 1.100000 1.909000 2.239000 600 51 1.000000 0.052000 0.052000 1.200000 0.023000 0.027000
1517280299833653508	1200 53 1.100000 0.162000 0.189000 1700 45 1.100000 1.928000 2.261000 600 50 1.000000 0.052000 0.052000 1.200000 0.023000 0.027000
1517280300338748633	1200 53 1.100000 0.165000 0.193000 1700 45 1.100000 2.013000 2.361000 600 50 1.000000 0.052000 0.052000 1.200000 0.026000 0.031000
1517280300843623092	1200 53 1.100000 0.162000 0.189000 1700 44 1.100000 1.934000 2.268000 600 50 1.000000 0.053000 0.053000 1.200000 0.023000 0.027000
1517280301349212633	1200 53 1.100000 0.162000 0.189000 1700 44 1.100000 1.911000 2.241000 600 50 1.000000 0.053000 0.053000 1.200000 0.023000 0.027000
1517280301854408092	1200 53 1.100000 0.174000 0.203000 1700 45 1.100000 1.911000 2.241000 600 50 1.000000 0.052000 0.052000 1.200000 0.033000 0.039000
1517280302360807258	1200 53 1.100000 0.162000 0.189000 1700 45 1.100000 1.932000 2.266000 600 50 1.000000 0.052000 0.052000 1.200000 0.024000 0.028000
1517280302865884092	1200 53 1.100000 0.163000 0.190000 1700 45 1.100000 2.033000 2.384000 600 50 1.000000 0.053000 0.053000 1.200000 0.024000 0.028000
1517280303370866134	1200 53 1.100000 0.162000 0.189000 1700 45 1.100000 1.936000 2.270000 600 50 1.000000 0.053000 0.053000 1.200000 0.023000 0.027000
1517280303875991884	1200 53 1.100000 0.168000 0.196000 1700 45 1.100000 1.941000 2.276000 600 50 1.000000 0.052000 0.052000 1.200000 0.032000 0.038000
1517280304381260342	1200 53 1.100000 0.162000 0.189000 1700 45 1.100000 1.933000 2.267000 600 50 1.000000 0.052000 0.052000 1.200000 0.025000 0.030000
1517280304886377759	1200 53 1.100000 0.162000 0.189000 1700 45 1.100000 1.936000 2.270000 600 50 1.000000 0.053000 0.053000 1.200000 0.023000 0.027000
1517280305391364051	1200 53 1.100000 0.162000 0.189000 1700 45 1.100000 1.949000 2.286000 600 50 1.000000 0.053000 0.053000 1.200000 0.023000 0.027000
1517280305896504176	1200 53 1.100000 0.175000 0.204000 1700 45 1.100000 1.977000 2.319000 600 50 1.000000 0.052000 0.052000 1.200000 0.032000 0.038000
1517280306401697009	1200 53 1.100000 0.162000 0.189000 1700 45 1.100000 1.958000 2.296000 600 50 1.000000 0.052000 0.052000 1.200000 0.028000 0.033000
1517280306906853967	1200 53 1.100000 0.162000 0.189000 1700 45 1.100000 1.912000 2.242000 600 50 1.000000 0.052000 0.052000 1.200000 0.023000 0.027000
1517280307411806342	1200 53 1.100000 0.162000 0.189000 1700 44 1.100000 1.960000 2.299000 600 50 1.000000 0.052000 0.052000 1.200000 0.023000 0.027000
1517280307917134926	1200 53 1.100000 0.161000 0.188000 1700 45 1.100000 1.933000 2.267000 600 50 1.000000 0.053000 0.053000 1.200000 0.023000 0.027000
1517280308422377301	1200 53 1.100000 0.162000 0.189000 1700 45 1.100000 2.071000 2.433000 600 50 1.000000 0.053000 0.053000 1.200000 0.024000 0.028000
1517280308928828384	1200 53 1.100000 0.163000 0.190000 1700 45 1.100000 2.048000 2.406000 600 50 1.000000 0.053000 0.053000 1.200000 0.023000 0.027000
1517280309433774843	1200 53 1.100000 0.163000 0.190000 1700 45 1.100000 1.941000 2.276000 600 50 1.000000 0.052000 0.052000 1.200000 0.023000 0.027000
1517280309938764593	1200 53 1.100000 0.163000 0.190000 1700 45 1.100000 1.950000 2.287000 600 50 1.000000 0.052000 0.052000 1.200000 0.023000 0.027000
1517280310444048509	1200 53 1.100000 0.166000 0.194000 1700 45 1.100000 2.017000 2.369000 600 50 1.000000 0.052000 0.052000 1.200000 0.024000 0.028000
1517280310949047926	1200 53 1.100000 0.162000 0.189000 1700 45 1.100000 1.951000 2.288000 600 50 1.000000 0.052000 0.052000 1.200000 0.023000 0.027000
1517280311453990593	1200 53 1.100000 0.162000 0.189000 1700 45 1.100000 1.937000 2.272000 600 50 1.000000 0.052000 0.052000 1.200000 0.023000 0.027000
1517280311959848010	1200 53 1.100000 0.162000 0.189000 1700 45 1.100000 1.934000 2.268000 600 51 1.000000 0.052000 0.052000 1.200000 0.024000 0.028000
1517280312465185093	1200 53 1.100000 0.163000 0.190000 1700 45 1.100000 1.985000 2.328000 600 50 1.000000 0.053000 0.053000 1.200000 0.031000 0.037000
1517280312970188510	1200 53 1.100000 0.162000 0.189000 1700 45 1.100000 1.918000 2.249000 600 50 1.000000 0.052000 0.052000 1.200000 0.024000 0.028000
1517280313475059968	1200 53 1.100000 0.162000 0.189000 1700 45 1.100000 1.931000 2.265000 600 50 1.000000 0.053000 0.053000 1.200000 0.023000 0.027000
1517280313980866635	1200 53 1.100000 0.162000 0.189000 1700 45 1.100000 1.931000 2.265000 600 50 1.000000 0.052000 0.052000 1.200000 0.023000 0.027000
1517280314486057385	1200 53 1.100000 0.175000 0.204000 1700 45 1.100000 2.170000 2.549000 600 50 1.000000 0.052000 0.052000 1.200000 0.026000 0.031000
1517280314991137760	1200 53 1.100000 0.163000 0.190000 1700 45 1.100000 2.045000 2.402000 600 50 1.000000 0.052000 0.052000 1.200000 0.029000 0.035000
1517280315496164843	1200 53 1.100000 0.162000 0.189000 1700 45 1.100000 1.941000 2.276000 600 50 1.000000 0.052000 0.052000 1.200000 0.023000 0.027000
1517280316001106218	1200 53 1.100000 0.161000 0.188000 1700 45 1.100000 1.949000 2.286000 600 50 1.000000 0.052000 0.052000 1.200000 0.023000 0.027000
1517280316506321135	1200 53 1.100000 0.172000 0.201000 1700 45 1.100000 2.162000 2.540000 600 50 1.000000 0.052000 0.052000 1.200000 0.028000 0.033000
1517280317011436802	1200 53 1.100000 0.163000 0.190000 1700 45 1.100000 1.954000 2.292000 600 50 1.000000 0.052000 0.052000 1.200000 0.026000 0.031000
1517280317516454052	1200 53 1.100000 0.162000 0.189000 1700 45 1.100000 1.936000 2.270000 600 50 1.000000 0.052000 0.052000 1.200000 0.024000 0.028000
1517280318021328552	1200 53 1.100000 0.162000 0.189000 1700 45 1.100000 1.916000 2.247000 600 50 1.000000 0.052000 0.052000 1.200000 0.023000 0.027000
1517280318526444552	1200 53 1.100000 0.176000 0.206000 1700 45 1.100000 2.152000 2.528000 600 50 1.000000 0.052000 0.052000 1.200000 0.031000 0.037000
1517280319031485344	1200 53 1.100000 0.162000 0.189000 1700 45 1.100000 1.913000 2.243000 600 50 1.000000 0.052000 0.052000 1.200000 0.024000 0.028000
1517280319536475969	1200 53 1.100000 0.162000 0.189000 1700 45 1.100000 1.935000 2.269000 600 50 1.000000 0.052000 0.052000 1.200000 0.023000 0.027000
1517280320042322761	1200 53 1.100000 0.163000 0.190000 1700 45 1.100000 1.933000 2.267000 600 50 1.000000 0.052000 0.052000 1.200000 0.024000 0.028000
1517280320547703052	1200 54 1.100000 0.162000 0.189000 1700 45 1.100000 1.944000 2.280000 600 51 1.000000 0.052000 0.052000 1.200000 0.023000 0.027000
1517280321052928886	1200 53 1.100000 0.162000 0.189000 1700 45 1.100000 2.027000 2.381000 600 50 1.000000 0.052000 0.052000 1.200000 0.031000 0.037000
1517280321557878136	1200 53 1.100000 0.162000 0.189000 1700 45 1.100000 1.946000 2.282000 600 50 1.000000 0.053000 0.053000 1.200000 0.023000 0.027000
1517280322062751636	1200 53 1.100000 0.163000 0.190000 1700 45 1.100000 1.940000 2.275000 600 50 1.000000 0.053000 0.053000 1.200000 0.024000 0.028000
1517280322567782469	1200 53 1.100000 0.162000 0.189000 1700 45 1.100000 1.938000 2.277000 600 51 1.000000 0.052000 0.052000 1.200000 0.023000 0.027000
1517280323072838428	1200 53 1.100000 0.162000 0.189000 1700 45 1.100000 1.926000 2.259000 600 50 1.000000 0.052000 0.052000 1.200000 0.028000 0.033000
1517280323577766094	1200 53 1.100000 0.162000 0.189000 1700 45 1.100000 1.936000 2.270000 600 50 1.000000 0.053000 0.053000 1.200000 0.024000 0.028000
1517280324082559636	1200 53 1.100000 0.162000 0.189000 1700 45 1.100000 1.937000 2.272000 600 50 1.000000 0.052000 0.052000 1.200000 0.023000 0.027000
1517280324590604261	1200 53 1.100000 0.162000 0.189000 1700 45 1.100000 1.926000 2.259000 600 53 1.000000 0.053000 0.053000 1.200000 0.023000 0.027000
1517280325096591845	1200 53 1.100000 0.163000 0.190000 1700 45 1.100000 1.933000 2.267000 600 50 1.000000 0.053000 0.053000 1.200000 0.023000 0.027000
1517280325601573011	1200 53 1.100000 0.162000 0.189000 1700 45 1.100000 1.933000 2.267000 600 50 1.000000 0.052000 0.052000 1.200000 0.023000 0.027000
1517280326106544428	1200 53 1.100000 0.162000 0.189000 1700 45 1.100000 1.940000 2.275000 600 50 1.000000 0.052000 0.052000 1.200000 0.023000 0.027000
1517280326613547470	1200 53 1.100000 0.162000 0.189000 1700 45 1.100000 1.962000 2.301000 600 51 1.000000 0.053000 0.053000 1.200000 0.024000 0.028000
1517280327118909761	1200 53 1.100000 0.178000 0.208000 1700 45 1.100000 2.245000 2.640000 600 50 1.000000 0.053000 0.053000 1.200000 0.032000 0.038000
1517280327623971678	1200 53 1.100000 0.163000 0.191000 1700 45 1.100000 1.960000 2.299000 600 50 1.000000 0.052000 0.052000 1.200000 0.024000 0.028000
1517280328128849762	1200 53 1.100000 0.163000 0.190000 1700 45 1.100000 1.937000 2.272000 600 50 1.000000 0.052000 0.052000 1.200000 0.023000 0.027000
1517280328633842387	1200 53 1.100000 0.163000 0.190000 1700 45 1.100000 1.939000 2.274000 600 50 1.000000 0.053000 0.053000 1.200000 0.023000 0.027000
1517280329138905387	1200 53 1.100000 0.168000 0.196000 1700 45 1.100000 2.205000 2.590000 600 50 1.000000 0.053000 0.053000 1.200000 0.033000 0.039000
1517280329643819762	1200 53 1.100000 0.163000 0.190000 1700 45 1.100000 1.934000 2.268000 600 50 1.000000 0.052000 0.052000 1.200000 0.023000 0.027000
1517280330148766595	1200 53 1.100000 0.162000 0.189000 1700 45 1.100000 1.931000 2.265000 600 50 1.000000 0.052000 0.052000 1.200000 0.023000 0.027000
1517280330653533345	1200 53 1.100000 0.162000 0.189000 1700 45 1.100000 1.934000 2.268000 600 50 1.000000 0.053000 0.053000 1.200000 0.023000 0.027000
1517280331158753345	1200 53 1.100000 0.169000 0.197000 1700 45 1.100000 2.165000 2.543000 600 51 1.000000 0.053000 0.053000 1.200000 0.029000 0.035000
1517280331665244679	1200 53 1.100000 0.162000 0.189000 1700 45 1.100000 1.952000 2.289000 600 50 1.000000 0.053000 0.053000 1.200000 0.024000 0.028000
1517280332170273595	1200 53 1.100000 0.163000 0.190000 1700 45 1.100000 1.951000 2.288000 600 50 1.000000 0.052000 0.052000 1.200000 0.024000 0.028000
1517280332675189429	1200 53 1.100000 0.162000 0.189000 1700 45 1.100000 1.956000 2.298000 600 50 1.000000 0.053000 0.053000 1.200000 0.024000 0.028000
1517280333180281012	1200 54 1.100000 0.167000 0.195000 1700 45 1.100000 2.114000 2.483000 600 51 1.000000 0.052000 0.052000 1.200000 0.027000 0.032000
1517280333685179096	1200 53 1.100000 0.162000 0.189000 1700 45 1.100000 1.939000 2.274000 600 50 1.000000 0.052000 0.052000 1.200000 0.024000 0.028000
1517280334190032512	1200 53 1.100000 0.163000 0.190000 1700 45 1.100000 1.933000 2.267000 600 50 1.000000 0.052000 0.052000 1.200000 0.023000 0.027000
1517280334695029637	1200 53 1.100000 0.163000 0.190000 1700 45 1.100000 1.934000 2.268000 600 50 1.000000 0.053000 0.053000 1.200000 0.024000 0.028000
1517280335200129721	1200 54 1.100000 0.166000 0.194000 1700 45 1.100000 2.061000 2.421000 600 51 1.000000 0.053000 0.053000 1.200000 0.026000 0.031000
1517280335704988762	1200 54 1.100000 0.162000 0.189000 1700 45 1.100000 1.937000 2.272000 600 50 1.000000 0.053000 0.053000 1.200000 0.023000 0.027000
1517280336209775846	1200 53 1.100000 0.162000 0.189000 1700 45 1.100000 1.936000 2.270000 600 50 1.000000 0.052000 0.052000 1.200000 0.023000 0.027000
1517280336714722971	1200 53 1.100000 0.162000 0.189000 1700 45 1.100000 1.932000 2.266000 600 50 1.000000 0.053000 0.053000 1.200000 0.023000 0.027000
1517280337220187138	1200 54 1.100000 0.163000 0.190000 1700 45 1.100000 2.110000 2.479000 600 52 1.000000 0.052000 0.052000 1.200000 0.023000 0.027000
1517280337725247554	1200 53 1.100000 0.176000 0.206000 1700 45 1.100000 2.013000 2.361000 600 50 1.000000 0.053000 0.053000 1.200000 0.034000 0.041000
1517280338230169679	1200 53 1.100000 0.163000 0.191000 1700 45 1.100000 1.944000 2.280000 600 50 1.000000 0.053000 0.053000 1.200000 0.024000 0.028000
1517280338735007971	1200 53 1.100000 0.162000 0.189000 1700 45 1.100000 1.961000 2.300000 600 50 1.000000 0.052000 0.052000 1.200000 0.024000 0.028000
1517280339240568180	1200 53 1.100000 0.163000 0.190000 1700 45 1.100000 1.936000 2.274000 600 51 1.000000 0.052000 0.052000 1.200000 0.029000 0.035000
1517280339745731346	1200 53 1.100000 0.167000 0.195000 1700 45 1.100000 2.148000 2.523000 600 50 1.000000 0.052000 0.052000 1.200000 0.033000 0.039000
1517280340250668680	1200 53 1.100000 0.162000 0.189000 1700 45 1.100000 1.948000 2.285000 600 50 1.000000 0.053000 0.053000 1.200000 0.023000 0.027000
1517280340755641971	1200 53 1.100000 0.163000 0.190000 1700 45 1.100000 1.950000 2.287000 600 50 1.000000 0.053000 0.053000 1.200000 0.023000 0.027000
1517280341260821180	1200 53 1.100000 0.165000 0.193000 1700 45 1.100000 2.055000 2.414000 600 50 1.000000 0.053000 0.053000 1.200000 0.027000 0.032000
1517280341766001430	1200 53 1.100000 0.175000 0.204000 1700 45 1.100000 2.157000 2.534000 600 50 1.000000 0.052000 0.052000 1.200000 0.030000 0.036000
1517280342270916597	1200 53 1.100000 0.163000 0.190000 1700 45 1.100000 1.964000 2.303000 600 50 1.000000 0.052000 0.052000 1.200000 0.023000 0.027000
1517280342775810305	1200 53 1.100000 0.163000 0.190000 1700 45 1.100000 1.943000 2.283000 600 50 1.000000 0.053000 0.053000 1.200000 0.023000 0.027000
1517280343281063972	1200 53 1.100000 0.162000 0.189000 1700 45 1.100000 2.059000 2.419000 600 50 1.000000 0.053000 0.053000 1.200000 0.023000 0.027000
1517280343786178805	1200 54 1.100000 0.162000 0.189000 1700 45 1.100000 1.954000 2.292000 600 50 1.000000 0.052000 0.052000 1.200000 0.027000 0.032000
1517280344291175513	1200 53 1.100000 0.162000 0.189000 1700 45 1.100000 1.938000 2.273000 600 50 1.000000 0.052000 0.052000 1.200000 0.024000 0.028000
1517280344796012680	1200 53 1.100000 0.162000 0.189000 1700 45 1.100000 1.964000 2.303000 600 50 1.000000 0.052000 0.052000 1.200000 0.023000 0.027000
1517280345301086139	1200 53 1.100000 0.165000 0.193000 1700 45 1.100000 1.938000 2.273000 600 50 1.000000 0.052000 0.052000 1.200000 0.027000 0.032000
1517280345806177430	1200 54 1.100000 0.172000 0.201000 1700 45 1.100000 1.957000 2.295000 600 51 1.000000 0.053000 0.053000 1.200000 0.029000 0.035000
1517280346311238764	1200 54 1.100000 0.163000 0.190000 1700 45 1.100000 1.951000 2.288000 600 50 1.000000 0.052000 0.052000 1.200000 0.024000 0.028000
1517280346816284055	1200 53 1.100000 0.163000 0.190000 1700 45 1.100000 1.941000 2.276000 600 50 1.000000 0.053000 0.053000 1.200000 0.023000 0.027000
1517280347322401347	1200 53 1.100000 0.163000 0.190000 1700 45 1.100000 2.062000 2.418000 600 50 1.000000 0.052000 0.052000 1.200000 0.028000 0.033000
1517280347827755764	1200 54 1.100000 0.163000 0.190000 1700 45 1.100000 1.935000 2.269000 600 51 1.000000 0.053000 0.053000 1.200000 0.032000 0.038000
1517280348332851597	1200 54 1.100000 0.162000 0.189000 1700 45 1.100000 1.967000 2.311000 600 50 1.000000 0.053000 0.053000 1.200000 0.023000 0.027000
1517280348837847806	1200 54 1.100000 0.162000 0.189000 1700 45 1.100000 1.940000 2.279000 600 50 1.000000 0.052000 0.052000 1.200000 0.023000 0.027000
1517280349343049264	1200 53 1.100000 0.162000 0.189000 1700 45 1.100000 1.953000 2.294000 600 50 1.000000 0.053000 0.053000 1.200000 0.027000 0.032000
1517280349848161847	1200 54 1.100000 0.162000 0.189000 1700 45 1.100000 1.957000 2.295000 600 52 1.000000 0.052000 0.052000 1.200000 0.023000 0.027000
1517280350353049639	1200 54 1.100000 0.174000 0.203000 1700 45 1.100000 2.156000 2.533000 600 50 1.000000 0.052000 0.052000 1.200000 0.023000 0.027000
1517280350858143681	1200 54 1.100000 0.163000 0.190000 1700 45 1.100000 1.961000 2.304000 600 50 1.000000 0.053000 0.053000 1.200000 0.023000 0.027000
1517280351363368014	1200 54 1.100000 0.165000 0.193000 1700 45 1.100000 1.938000 2.273000 600 50 1.000000 0.053000 0.053000 1.200000 0.026000 0.031000
1517280351868876598	1200 53 1.100000 0.162000 0.189000 1700 45 1.100000 1.960000 2.299000 600 51 1.000000 0.053000 0.053000 1.200000 0.023000 0.027000
1517280352374025389	1200 54 1.100000 0.162000 0.189000 1700 45 1.100000 2.198000 2.582000 600 50 1.000000 0.052000 0.052000 1.200000 0.030000 0.036000
1517280352878927306	1200 53 1.100000 0.162000 0.189000 1700 45 1.100000 1.945000 2.281000 600 50 1.000000 0.053000 0.053000 1.200000 0.023000 0.027000
1517280353384145015	1200 54 1.100000 0.163000 0.190000 1700 45 1.100000 2.057000 2.416000 600 50 1.000000 0.053000 0.053000 1.200000 0.024000 0.028000
1517280353889060848	1200 53 1.100000 0.163000 0.190000 1700 45 1.100000 1.940000 2.275000 600 50 1.000000 0.053000 0.053000 1.200000 0.024000 0.028000
1517280354394080848	1200 53 1.100000 0.166000 0.194000 1700 45 1.100000 2.188000 2.570000 600 50 1.000000 0.052000 0.052000 1.200000 0.028000 0.033000
1517280354899032848	1200 53 1.100000 0.162000 0.189000 1700 45 1.100000 1.937000 2.272000 600 50 1.000000 0.053000 0.053000 1.200000 0.024000 0.028000
1517280355404452765	1200 54 1.100000 0.163000 0.190000 1700 45 1.100000 1.949000 2.286000 600 50 1.000000 0.052000 0.052000 1.200000 0.023000 0.027000
1517280355909483848	1200 53 1.100000 0.162000 0.189000 1700 45 1.100000 1.955000 2.293000 600 50 1.000000 0.052000 0.052000 1.200000 0.025000 0.030000
1517280356414559348	1200 54 1.100000 0.165000 0.193000 1700 45 1.100000 1.981000 2.327000 600 50 1.000000 0.053000 0.053000 1.200000 0.023000 0.027000
1517280356919631515	1200 53 1.100000 0.163000 0.190000 1700 45 1.100000 1.965000 2.304000 600 50 1.000000 0.052000 0.052000 1.200000 0.023000 0.027000
1517280357424893140	1200 53 1.100000 0.163000 0.190000 1700 45 1.100000 1.941000 2.280000 600 50 1.000000 0.053000 0.053000 1.200000 0.024000 0.028000
1517280357929860390	1200 53 1.100000 0.162000 0.189000 1700 45 1.100000 1.956000 2.298000 600 50 1.000000 0.053000 0.053000 1.200000 0.023000 0.027000
1517280358434868973	1200 54 1.100000 0.168000 0.196000 1700 45 1.100000 2.079000 2.442000 600 51 1.000000 0.052000 0.052000 1.200000 0.024000 0.028000
1517280358939771265	1200 54 1.100000 0.162000 0.189000 1700 45 1.100000 1.942000 2.277000 600 50 1.000000 0.052000 0.052000 1.200000 0.023000 0.027000
1517280359445009807	1200 54 1.100000 0.162000 0.189000 1700 45 1.100000 2.031000 2.386000 600 50 1.000000 0.052000 0.052000 1.200000 0.024000 0.028000
1517280359950002140	1200 54 1.100000 0.162000 0.189000 1700 45 1.100000 1.934000 2.268000 600 50 1.000000 0.053000 0.053000 1.200000 0.023000 0.027000
1517280360454944849	1200 54 1.100000 0.162000 0.189000 1700 45 1.100000 2.136000 2.509000 600 51 1.000000 0.052000 0.052000 1.200000 0.023000 0.027000
1517280360959958015	1200 54 1.100000 0.162000 0.189000 1700 45 1.100000 1.939000 2.274000 600 50 1.000000 0.052000 0.052000 1.200000 0.023000 0.027000
1517280361465174766	1200 54 1.100000 0.163000 0.190000 1700 45 1.100000 1.951000 2.288000 600 50 1.000000 0.053000 0.053000 1.200000 0.023000 0.027000
1517280361970185182	1200 54 1.100000 0.163000 0.190000 1700 45 1.100000 1.961000 2.300000 600 50 1.000000 0.052000 0.052000 1.200000 0.026000 0.031000
1517280362475053974	1200 54 1.100000 0.162000 0.189000 1700 45 1.100000 1.937000 2.272000 600 51 1.000000 0.053000 0.053000 1.200000 0.023000 0.027000
1517280362980070349	1200 54 1.100000 0.163000 0.190000 1700 45 1.100000 1.967000 2.307000 600 50 1.000000 0.053000 0.053000 1.200000 0.028000 0.033000
1517280363485218974	1200 54 1.100000 0.163000 0.190000 1700 45 1.100000 1.945000 2.285000 600 50 1.000000 0.053000 0.053000 1.200000 0.023000 0.027000
1517280363990198974	1200 53 1.100000 0.163000 0.190000 1700 45 1.100000 1.941000 2.276000 600 50 1.000000 0.053000 0.053000 1.200000 0.024000 0.028000
1517280364497878183	1200 53 1.100000 0.163000 0.190000 1700 45 1.100000 1.936000 2.274000 600 52 1.000000 0.053000 0.053000 1.200000 0.024000 0.028000
1517280365003647933	1200 54 1.100000 0.163000 0.190000 1700 45 1.100000 1.939000 2.274000 600 50 1.000000 0.052000 0.052000 1.200000 0.027000 0.032000
1517280365508836683	1200 54 1.100000 0.163000 0.190000 1700 45 1.100000 2.034000 2.389000 600 51 1.000000 0.053000 0.053000 1.200000 0.024000 0.028000
1517280366013965849	1200 54 1.100000 0.162000 0.189000 1700 45 1.100000 1.938000 2.273000 600 50 1.000000 0.053000 0.053000 1.200000 0.023000 0.027000
1517280366518865599	1200 54 1.100000 0.162000 0.189000 1700 45 1.100000 1.937000 2.272000 600 50 1.000000 0.053000 0.053000 1.200000 0.023000 0.027000
1517280367024006183	1200 54 1.100000 0.166000 0.194000 1700 45 1.100000 1.936000 2.270000 600 51 1.000000 0.052000 0.052000 1.200000 0.025000 0.030000
1517280367529123725	1200 54 1.100000 0.162000 0.189000 1700 45 1.100000 1.959000 2.297000 600 51 1.000000 0.053000 0.053000 1.200000 0.024000 0.028000
1517280368034007183	1200 54 1.100000 0.165000 0.193000 1700 45 1.100000 1.956000 2.294000 600 50 1.000000 0.053000 0.053000 1.200000 0.025000 0.030000
1517280368538855183	1200 53 1.100000 0.163000 0.190000 1700 45 1.100000 1.944000 2.280000 600 50 1.000000 0.053000 0.053000 1.200000 0.023000 0.027000
1517280369044074141	1200 54 1.100000 0.167000 0.195000 1700 45 1.100000 2.193000 2.576000 600 50 1.000000 0.053000 0.053000 1.200000 0.029000 0.035000
1517280369549289850	1200 54 1.100000 0.163000 0.190000 1700 45 1.100000 1.934000 2.268000 600 51 1.000000 0.052000 0.052000 1.200000 0.023000 0.027000
1517280370054338142	1200 54 1.100000 0.163000 0.190000 1700 45 1.100000 1.939000 2.274000 600 50 1.000000 0.052000 0.052000 1.200000 0.024000 0.028000
1517280370559185850	1200 53 1.100000 0.162000 0.189000 1700 45 1.100000 1.939000 2.274000 600 50 1.000000 0.052000 0.052000 1.200000 0.023000 0.027000
1517280371064261058	1200 54 1.100000 0.167000 0.195000 1700 45 1.100000 2.182000 2.563000 600 51 1.000000 0.052000 0.052000 1.200000 0.029000 0.035000
1517280371570264308	1200 54 1.100000 0.163000 0.190000 1700 45 1.100000 2.028000 2.382000 600 51 1.000000 0.052000 0.052000 1.200000 0.023000 0.027000
1517280372075548017	1200 54 1.100000 0.162000 0.189000 1700 45 1.100000 1.937000 2.272000 600 50 1.000000 0.052000 0.052000 1.200000 0.023000 0.027000
1517280372580530975	1200 54 1.100000 0.163000 0.190000 1700 45 1.100000 1.935000 2.269000 600 50 1.000000 0.053000 0.053000 1.200000 0.023000 0.027000
1517280373085592850	1200 54 1.100000 0.163000 0.190000 1700 45 1.100000 1.941000 2.276000 600 51 1.000000 0.053000 0.053000 1.200000 0.023000 0.027000
1517280373590839684	1200 54 1.100000 0.165000 0.193000 1700 45 1.100000 1.954000 2.292000 600 51 1.000000 0.052000 0.052000 1.200000 0.024000 0.028000
1517280374095841142	1200 54 1.100000 0.165000 0.193000 1700 45 1.100000 1.936000 2.270000 600 50 1.000000 0.052000 0.052000 1.200000 0.025000 0.030000
1517280374600769434	1200 54 1.100000 0.163000 0.190000 1700 45 1.100000 1.936000 2.270000 600 50 1.000000 0.053000 0.053000 1.200000 0.024000 0.028000
1517280375105805600	1200 54 1.100000 0.163000 0.190000 1700 45 1.100000 1.980000 2.322000 600 51 1.000000 0.052000 0.052000 1.200000 0.023000 0.027000
1517280375610902476	1200 54 1.100000 0.163000 0.190000 1700 45 1.100000 1.938000 2.277000 600 51 1.000000 0.052000 0.052000 1.200000 0.024000 0.028000
1517280376115994184	1200 54 1.100000 0.163000 0.190000 1700 45 1.100000 2.067000 2.428000 600 50 1.000000 0.052000 0.052000 1.200000 0.023000 0.027000
1517280376620952434	1200 54 1.100000 0.163000 0.190000 1700 45 1.100000 1.947000 2.283000 600 50 1.000000 0.053000 0.053000 1.200000 0.023000 0.027000
1517280377125877267	1200 54 1.100000 0.162000 0.189000 1700 45 1.100000 1.949000 2.286000 600 52 1.000000 0.052000 0.052000 1.200000 0.023000 0.027000
1517280377630953184	1200 54 1.100000 0.163000 0.190000 1700 45 1.100000 2.090000 2.455000 600 51 1.000000 0.052000 0.052000 1.200000 0.023000 0.027000
1517280378135953434	1200 54 1.100000 0.165000 0.193000 1700 45 1.100000 1.950000 2.287000 600 50 1.000000 0.053000 0.053000 1.200000 0.023000 0.027000
1517280378640948309	1200 54 1.100000 0.162000 0.189000 1700 45 1.100000 1.958000 2.296000 600 50 1.000000 0.053000 0.053000 1.200000 0.023000 0.027000
1517280379146634184	1200 54 1.100000 0.163000 0.190000 1700 45 1.100000 1.941000 2.276000 600 51 1.000000 0.052000 0.052000 1.200000 0.023000 0.027000
1517280379651815018	1200 54 1.100000 0.172000 0.201000 1700 45 1.100000 2.093000 2.459000 600 51 1.000000 0.052000 0.052000 1.200000 0.031000 0.037000
1517280380157002393	1200 54 1.100000 0.163000 0.190000 1700 45 1.100000 2.060000 2.420000 600 50 1.000000 0.053000 0.053000 1.200000 0.026000 0.031000
1517280380661888809	1200 54 1.100000 0.163000 0.190000 1700 45 1.100000 1.939000 2.274000 600 50 1.000000 0.053000 0.053000 1.200000 0.024000 0.028000
1517280381166846393	1200 53 1.100000 0.162000 0.189000 1700 45 1.100000 1.959000 2.297000 600 50 1.000000 0.053000 0.053000 1.200000 0.023000 0.027000
1517280381672208935	1200 54 1.100000 0.168000 0.196000 1700 45 1.100000 2.183000 2.567000 600 51 1.000000 0.052000 0.052000 1.200000 0.028000 0.033000
1517280382177257101	1200 54 1.100000 0.162000 0.189000 1700 45 1.100000 2.067000 2.428000 600 50 1.000000 0.053000 0.053000 1.200000 0.023000 0.027000
1517280382682380268	1200 54 1.100000 0.162000 0.189000 1700 45 1.100000 1.950000 2.287000 600 50 1.000000 0.053000 0.053000 1.200000 0.023000 0.027000
1517280383188665185	1200 54 1.100000 0.163000 0.190000 1700 45 1.100000 1.943000 2.279000 600 50 1.000000 0.053000 0.053000 1.200000 0.023000 0.027000
1517280383694378518	1200 54 1.100000 0.166000 0.194000 1700 45 1.100000 2.205000 2.590000 600 51 1.000000 0.053000 0.053000 1.200000 0.028000 0.033000
1517280384200833602	1200 54 1.100000 0.166000 0.194000 1700 45 1.100000 1.957000 2.295000 600 51 1.000000 0.053000 0.053000 1.200000 0.023000 0.027000
1517280384705822768	1200 54 1.100000 0.163000 0.190000 1700 45 1.100000 1.938000 2.273000 600 50 1.000000 0.052000 0.052000 1.200000 0.023000 0.027000
1517280385210887810	1200 54 1.100000 0.163000 0.190000 1700 45 1.100000 1.942000 2.277000 600 50 1.000000 0.053000 0.053000 1.200000 0.024000 0.028000
1517280385717763393	1200 54 1.100000 0.162000 0.189000 1700 45 1.100000 1.966000 2.306000 600 51 1.000000 0.053000 0.053000 1.200000 0.025000 0.030000
1517280386223201768	1200 54 1.100000 0.163000 0.190000 1700 45 1.100000 2.042000 2.399000 600 50 1.000000 0.052000 0.052000 1.200000 0.028000 0.033000
1517280386728183477	1200 54 1.100000 0.163000 0.190000 1700 45 1.100000 1.963000 2.302000 600 50 1.000000 0.052000 0.052000 1.200000 0.023000 0.027000
1517280387233105519	1200 54 1.100000 0.163000 0.190000 1700 45 1.100000 1.948000 2.285000 600 50 1.000000 0.053000 0.053000 1.200000 0.023000 0.027000
1517280387738357394	1200 54 1.100000 0.162000 0.189000 1700 45 1.100000 1.948000 2.288000 600 51 1.000000 0.053000 0.053000 1.200000 0.026000 0.031000
1517280388243724019	1200 54 1.100000 0.169000 0.197000 1700 45 1.100000 2.036000 2.392000 600 51 1.000000 0.052000 0.052000 1.200000 0.023000 0.027000
1517280388748852144	1200 54 1.100000 0.163000 0.190000 1700 45 1.100000 1.943000 2.279000 600 50 1.000000 0.052000 0.052000 1.200000 0.023000 0.027000
1517280389253825811	1200 54 1.100000 0.163000 0.190000 1700 45 1.100000 1.969000 2.313000 600 50 1.000000 0.052000 0.052000 1.200000 0.023000 0.027000
1517280389758790811	1200 54 1.100000 0.166000 0.194000 1700 45 1.100000 1.937000 2.272000 600 51 1.000000 0.052000 0.052000 1.200000 0.028000 0.033000
1517280390263879061	1200 54 1.100000 0.163000 0.190000 1700 45 1.100000 1.990000 2.338000 600 51 1.000000 0.052000 0.052000 1.200000 0.023000 0.027000
1517280390768802436	1200 54 1.100000 0.162000 0.189000 1700 45 1.100000 1.939000 2.274000 600 50 1.000000 0.053000 0.053000 1.200000 0.023000 0.027000
1517280391273782936	1200 54 1.100000 0.163000 0.190000 1700 45 1.100000 1.940000 2.279000 600 50 1.000000 0.052000 0.052000 1.200000 0.023000 0.027000
1517280391779589811	1200 54 1.100000 0.162000 0.189000 1700 45 1.100000 1.966000 2.306000 600 52 1.000000 0.053000 0.053000 1.200000 0.023000 0.027000
1517280392284793519	1200 54 1.100000 0.176000 0.206000 1700 45 1.100000 2.268000 2.667000 600 51 1.000000 0.053000 0.053000 1.200000 0.034000 0.041000
1517280392789773061	1200 54 1.100000 0.163000 0.190000 1700 45 1.100000 1.962000 2.301000 600 50 1.000000 0.052000 0.052000 1.200000 0.023000 0.027000
1517280393294624603	1200 54 1.100000 0.162000 0.189000 1700 45 1.100000 1.951000 2.288000 600 50 1.000000 0.052000 0.052000 1.200000 0.024000 0.028000
1517280393799656311	1200 54 1.100000 0.162000 0.189000 1700 45 1.100000 1.947000 2.283000 600 50 1.000000 0.052000 0.052000 1.200000 0.023000 0.027000
1517280394304971144	1200 54 1.100000 0.174000 0.203000 1700 45 1.100000 2.272000 2.671000 600 51 1.000000 0.053000 0.053000 1.200000 0.035000 0.042000
1517280394810000811	1200 54 1.100000 0.162000 0.189000 1700 45 1.100000 1.936000 2.270000 600 50 1.000000 0.052000 0.052000 1.200000 0.023000 0.027000
1517280395315114186	1200 54 1.100000 0.162000 0.189000 1700 45 1.100000 1.934000 2.268000 600 50 1.000000 0.053000 0.053000 1.200000 0.024000 0.028000
1517280395820105228	1200 54 1.100000 0.163000 0.190000 1700 45 1.100000 1.939000 2.274000 600 50 1.000000 0.052000 0.052000 1.200000 0.024000 0.028000
1517280396325164895	1200 54 1.100000 0.162000 0.189000 1700 45 1.100000 2.221000 2.611000 600 51 1.000000 0.053000 0.053000 1.200000 0.033000 0.039000
1517280396830202561	1200 54 1.100000 0.162000 0.189000 1700 45 1.100000 1.961000 2.300000 600 50 1.000000 0.053000 0.053000 1.200000 0.024000 0.028000
1517280397335290311	1200 54 1.100000 0.163000 0.190000 1700 45 1.100000 1.937000 2.272000 600 50 1.000000 0.052000 0.052000 1.200000 0.023000 0.027000
1517280397840251645	1200 53 1.100000 0.163000 0.190000 1700 45 1.100000 1.963000 2.302000 600 50 1.000000 0.053000 0.053000 1.200000 0.024000 0.028000
1517280398345292562	1200 54 1.100000 0.163000 0.190000 1700 45 1.100000 2.102000 2.469000 600 51 1.000000 0.053000 0.053000 1.200000 0.023000 0.027000
1517280398850446895	1200 54 1.100000 0.162000 0.189000 1700 45 1.100000 1.954000 2.292000 600 51 1.000000 0.053000 0.053000 1.200000 0.024000 0.028000
1517280399355397395	1200 53 1.100000 0.163000 0.190000 1700 45 1.100000 1.956000 2.298000 600 50 1.000000 0.052000 0.052000 1.200000 0.024000 0.028000
1517280399860412062	1200 54 1.100000 0.163000 0.190000 1700 45 1.100000 1.939000 2.274000 600 50 1.000000 0.053000 0.053000 1.200000 0.023000 0.027000
1517280400365334062	1200 54 1.100000 0.165000 0.193000 1700 45 1.100000 2.182000 2.563000 600 51 1.000000 0.053000 0.053000 1.200000 0.028000 0.033000
1517280400870240895	1200 54 1.100000 0.162000 0.189000 1700 45 1.100000 1.943000 2.283000 600 51 1.000000 0.052000 0.052000 1.200000 0.023000 0.027000
1517280401375039395	1200 54 1.100000 0.162000 0.189000 1700 45 1.100000 1.938000 2.273000 600 50 1.000000 0.053000 0.053000 1.200000 0.024000 0.028000
1517280401880014312	1200 54 1.100000 0.162000 0.189000 1700 45 1.100000 1.934000 2.268000 600 50 1.000000 0.052000 0.052000 1.200000 0.023000 0.027000
1517280402385096395	1200 54 1.100000 0.168000 0.196000 1700 45 1.100000 2.218000 2.606000 600 51 1.000000 0.053000 0.053000 1.200000 0.027000 0.032000
1517280402890044270	1200 54 1.100000 0.163000 0.190000 1700 45 1.100000 2.015000 2.363000 600 51 1.000000 0.052000 0.052000 1.200000 0.029000 0.035000
1517280403394877521	1200 54 1.100000 0.163000 0.190000 1700 45 1.100000 1.942000 2.277000 600 50 1.000000 0.053000 0.053000 1.200000 0.023000 0.027000
1517280403899793396	1200 54 1.100000 0.163000 0.190000 1700 45 1.100000 1.955000 2.293000 600 50 1.000000 0.052000 0.052000 1.200000 0.024000 0.028000
1517280404405128854	1200 54 1.100000 0.163000 0.190000 1700 45 1.100000 2.053000 2.412000 600 52 1.000000 0.052000 0.052000 1.200000 0.023000 0.027000
1517280404910041229	1200 54 1.100000 0.171000 0.200000 1700 45 1.100000 1.943000 2.279000 600 50 1.000000 0.053000 0.053000 1.200000 0.031000 0.037000
1517280405414944979	1200 54 1.100000 0.162000 0.189000 1700 45 1.100000 1.942000 2.277000 600 50 1.000000 0.053000 0.053000 1.200000 0.024000 0.028000
1517280405919770979	1200 54 1.100000 0.162000 0.189000 1700 45 1.100000 1.937000 2.272000 600 50 1.000000 0.053000 0.053000 1.200000 0.023000 0.027000
1517280406425665313	1200 54 1.100000 0.163000 0.190000 1700 45 1.100000 2.048000 2.406000 600 51 1.000000 0.052000 0.052000 1.200000 0.027000 0.032000
1517280406930882646	1200 54 1.100000 0.164000 0.192000 1700 45 1.100000 1.941000 2.280000 600 51 1.000000 0.053000 0.053000 1.200000 0.028000 0.033000
1517280407435836271	1200 54 1.100000 0.162000 0.189000 1700 45 1.100000 1.942000 2.277000 600 50 1.000000 0.053000 0.053000 1.200000 0.023000 0.027000
1517280407940827979	1200 54 1.100000 0.162000 0.189000 1700 45 1.100000 1.938000 2.273000 600 50 1.000000 0.053000 0.053000 1.200000 0.023000 0.027000
1517280408446026771	1200 54 1.100000 0.162000 0.189000 1700 45 1.100000 1.988000 2.331000 600 50 1.000000 0.053000 0.053000 1.200000 0.028000 0.033000
1517280408951087480	1200 54 1.100000 0.171000 0.200000 1700 45 1.100000 2.208000 2.594000 600 51 1.000000 0.053000 0.053000 1.200000 0.026000 0.031000
1517280409456022063	1200 54 1.100000 0.163000 0.191000 1700 45 1.100000 1.939000 2.274000 600 50 1.000000 0.053000 0.053000 1.200000 0.023000 0.027000
1517280409960889730	1200 54 1.100000 0.162000 0.189000 1700 45 1.100000 1.941000 2.276000 600 50 1.000000 0.052000 0.052000 1.200000 0.024000 0.028000
1517280410466106605	1200 54 1.100000 0.163000 0.190000 1700 45 1.100000 2.040000 2.397000 600 50 1.000000 0.052000 0.052000 1.200000 0.023000 0.027000
1517280410971240230	1200 54 1.100000 0.163000 0.190000 1700 45 1.100000 2.153000 2.529000 600 51 1.000000 0.053000 0.053000 1.200000 0.030000 0.036000
1517280411476239896	1200 54 1.100000 0.163000 0.190000 1700 45 1.100000 1.937000 2.272000 600 50 1.000000 0.052000 0.052000 1.200000 0.023000 0.027000
1517280411981071272	1200 54 1.100000 0.163000 0.190000 1700 45 1.100000 1.937000 2.272000 600 50 1.000000 0.053000 0.053000 1.200000 0.024000 0.028000
1517280412486246438	1200 54 1.100000 0.163000 0.190000 1700 45 1.100000 2.053000 2.408000 600 50 1.000000 0.052000 0.052000 1.200000 0.026000 0.031000
1517280412991300188	1200 54 1.100000 0.173000 0.202000 1700 45 1.100000 1.950000 2.287000 600 51 1.000000 0.053000 0.053000 1.200000 0.031000 0.037000
1517280413496360772	1200 54 1.100000 0.163000 0.190000 1700 45 1.100000 1.945000 2.281000 600 51 1.000000 0.053000 0.053000 1.200000 0.023000 0.027000
1517280414002380647	1200 54 1.100000 0.162000 0.189000 1700 45 1.100000 1.964000 2.303000 600 50 1.000000 0.052000 0.052000 1.200000 0.023000 0.027000
1517280414507811439	1200 54 1.100000 0.165000 0.193000 1700 45 1.100000 1.941000 2.276000 600 51 1.000000 0.053000 0.053000 1.200000 0.024000 0.028000
1517280415012905189	1200 54 1.100000 0.163000 0.190000 1700 45 1.100000 2.014000 2.362000 600 51 1.000000 0.052000 0.052000 1.200000 0.023000 0.027000
1517280415517843397	1200 54 1.100000 0.163000 0.190000 1700 45 1.100000 2.170000 2.549000 600 50 1.000000 0.053000 0.053000 1.200000 0.024000 0.028000
1517280416022855397	1200 54 1.100000 0.163000 0.190000 1700 45 1.100000 1.954000 2.292000 600 50 1.000000 0.053000 0.053000 1.200000 0.023000 0.027000
1517280416528205980	1200 54 1.100000 0.162000 0.189000 1700 45 1.100000 1.954000 2.292000 600 51 1.000000 0.053000 0.053000 1.200000 0.023000 0.027000
1517280417033229730	1200 54 1.100000 0.163000 0.190000 1700 45 1.100000 1.944000 2.280000 600 52 1.000000 0.052000 0.052000 1.200000 0.024000 0.028000
1517280417538187856	1200 54 1.100000 0.173000 0.202000 1700 45 1.100000 2.176000 2.556000 600 50 1.000000 0.053000 0.053000 1.200000 0.023000 0.027000
1517280418043035272	1200 54 1.100000 0.163000 0.190000 1700 45 1.100000 1.937000 2.275000 600 50 1.000000 0.053000 0.053000 1.200000 0.023000 0.027000
1517280418548208981	1200 54 1.100000 0.163000 0.190000 1700 45 1.100000 1.961000 2.304000 600 51 1.000000 0.052000 0.052000 1.200000 0.026000 0.031000
1517280419053822314	1200 54 1.100000 0.162000 0.189000 1700 45 1.100000 1.954000 2.295000 600 51 1.000000 0.052000 0.052000 1.200000 0.023000 0.027000
1517280419558901689	1200 54 1.100000 0.162000 0.189000 1700 45 1.100000 2.179000 2.560000 600 51 1.000000 0.053000 0.053000 1.200000 0.023000 0.027000
1517280420063872106	1200 54 1.100000 0.163000 0.190000 1700 45 1.100000 1.937000 2.272000 600 50 1.000000 0.052000 0.052000 1.200000 0.023000 0.027000
1517280420569155773	1200 54 1.100000 0.162000 0.189000 1700 45 1.100000 1.934000 2.268000 600 51 1.000000 0.053000 0.053000 1.200000 0.024000 0.028000
1517280421074261064	1200 54 1.100000 0.162000 0.189000 1700 45 1.100000 2.020000 2.373000 600 50 1.000000 0.052000 0.052000 1.200000 0.023000 0.027000
1517280421579250606	1200 54 1.100000 0.167000 0.195000 1700 45 1.100000 2.031000 2.386000 600 51 1.000000 0.053000 0.053000 1.200000 0.029000 0.035000
1517280422084308481	1200 54 1.100000 0.163000 0.190000 1700 45 1.100000 1.955000 2.293000 600 50 1.000000 0.053000 0.053000 1.200000 0.023000 0.027000
1517280422589485939	1200 54 1.100000 0.162000 0.189000 1700 45 1.100000 1.954000 2.292000 600 51 1.000000 0.052000 0.052000 1.200000 0.023000 0.027000
1517280423094553523	1200 54 1.100000 0.162000 0.189000 1700 45 1.100000 1.941000 2.280000 600 50 1.000000 0.053000 0.053000 1.200000 0.023000 0.027000
1517280423599739856	1200 54 1.100000 0.169000 0.197000 1700 45 1.100000 2.106000 2.474000 600 51 1.000000 0.053000 0.053000 1.200000 0.032000 0.038000
1517280424104782773	1200 54 1.100000 0.162000 0.189000 1700 45 1.100000 1.946000 2.282000 600 50 1.000000 0.052000 0.052000 1.200000 0.023000 0.027000
1517280424609925106	1200 54 1.100000 0.163000 0.190000 1700 45 1.100000 1.957000 2.299000 600 51 1.000000 0.053000 0.053000 1.200000 0.026000 0.031000
1517280425114975898	1200 54 1.100000 0.162000 0.189000 1700 45 1.100000 1.940000 2.275000 600 50 1.000000 0.053000 0.053000 1.200000 0.023000 0.027000
1517280425620218565	1200 54 1.100000 0.175000 0.204000 1700 45 1.100000 2.119000 2.489000 600 51 1.000000 0.053000 0.053000 1.200000 0.032000 0.038000
1517280426125340023	1200 54 1.100000 0.163000 0.190000 1700 45 1.100000 1.943000 2.279000 600 51 1.000000 0.052000 0.052000 1.200000 0.023000 0.027000
1517280426630435565	1200 54 1.100000 0.162000 0.189000 1700 45 1.100000 1.944000 2.280000 600 51 1.000000 0.053000 0.053000 1.200000 0.023000 0.027000
1517280427135355232	1200 54 1.100000 0.162000 0.189000 1700 45 1.100000 2.016000 2.364000 600 50 1.000000 0.052000 0.052000 1.200000 0.023000 0.027000
1517280427640479523	1200 54 1.100000 0.163000 0.190000 1700 45 1.100000 1.943000 2.279000 600 51 1.000000 0.053000 0.053000 1.200000 0.023000 0.027000
1517280428145500565	1200 54 1.100000 0.162000 0.189000 1700 45 1.100000 1.956000 2.294000 600 51 1.000000 0.052000 0.052000 1.200000 0.024000 0.028000
1517280428650689107	1200 54 1.100000 0.162000 0.189000 1700 45 1.100000 1.961000 2.300000 600 51 1.000000 0.053000 0.053000 1.200000 0.023000 0.027000
1517280429155746982	1200 54 1.100000 0.163000 0.190000 1700 45 1.100000 1.941000 2.276000 600 50 1.000000 0.052000 0.052000 1.200000 0.023000 0.027000
1517280429660815315	1200 54 1.100000 0.163000 0.190000 1700 45 1.100000 1.963000 2.302000 600 52 1.000000 0.053000 0.053000 1.200000 0.023000 0.027000
1517280430165779690	1200 54 1.100000 0.167000 0.195000 1700 45 1.100000 1.940000 2.275000 600 51 1.000000 0.052000 0.052000 1.200000 0.023000 0.027000
1517280430670953399	1200 54 1.100000 0.163000 0.191000 1700 45 1.100000 1.939000 2.274000 600 51 1.000000 0.053000 0.053000 1.200000 0.027000 0.032000
1517280431176006565	1200 54 1.100000 0.162000 0.189000 1700 45 1.100000 1.937000 2.272000 600 50 1.000000 0.053000 0.053000 1.200000 0.024000 0.028000
1517280431682285941	1200 54 1.100000 0.162000 0.189000 1700 45 1.100000 1.933000 2.271000 600 51 1.000000 0.053000 0.053000 1.200000 0.023000 0.027000
1517280432187768441	1200 54 1.100000 0.162000 0.189000 1700 45 1.100000 1.937000 2.272000 600 50 1.000000 0.052000 0.052000 1.200000 0.034000 0.041000
1517280432692957816	1200 54 1.100000 0.162000 0.189000 1700 45 1.100000 1.940000 2.275000 600 51 1.000000 0.052000 0.052000 1.200000 0.023000 0.027000
1517280433197942899	1200 54 1.100000 0.162000 0.189000 1700 45 1.100000 2.020000 2.369000 600 50 1.000000 0.052000 0.052000 1.200000 0.027000 0.032000
1517280433702848149	1200 54 1.100000 0.162000 0.189000 1700 45 1.100000 1.937000 2.272000 600 50 1.000000 0.052000 0.052000 1.200000 0.023000 0.027000
1517280434208038441	1200 54 1.100000 0.175000 0.204000 1700 45 1.100000 2.182000 2.563000 600 51 1.000000 0.052000 0.052000 1.200000 0.027000 0.032000
1517280434713133108	1200 54 1.100000 0.162000 0.189000 1700 45 1.100000 1.953000 2.290000 600 51 1.000000 0.053000 0.053000 1.200000 0.024000 0.028000
1517280435218174858	1200 54 1.100000 0.163000 0.190000 1700 45 1.100000 1.943000 2.279000 600 50 1.000000 0.052000 0.052000 1.200000 0.028000 0.033000
1517280435723198566	1200 54 1.100000 0.162000 0.189000 1700 45 1.100000 1.938000 2.277000 600 50 1.000000 0.053000 0.053000 1.200000 0.024000 0.028000
1517280436228307149	1200 54 1.100000 0.174000 0.203000 1700 45 1.100000 2.152000 2.530000 600 51 1.000000 0.053000 0.053000 1.200000 0.028000 0.033000
1517280436733338316	1200 54 1.100000 0.163000 0.190000 1700 45 1.100000 1.932000 2.266000 600 51 1.000000 0.053000 0.053000 1.200000 0.024000 0.028000
1517280437238373525	1200 54 1.100000 0.163000 0.190000 1700 45 1.100000 1.937000 2.272000 600 50 1.000000 0.053000 0.053000 1.200000 0.023000 0.027000
1517280437743246191	1200 54 1.100000 0.162000 0.189000 1700 45 1.100000 1.937000 2.272000 600 50 1.000000 0.053000 0.053000 1.200000 0.023000 0.027000
1517280438248465733	1200 54 1.100000 0.162000 0.189000 1700 45 1.100000 1.962000 2.301000 600 51 1.000000 0.052000 0.052000 1.200000 0.024000 0.028000
1517280438753567108	1200 54 1.100000 0.162000 0.189000 1700 45 1.100000 1.939000 2.274000 600 51 1.000000 0.053000 0.053000 1.200000 0.026000 0.031000
1517280439258691900	1200 54 1.100000 0.163000 0.190000 1700 45 1.100000 2.014000 2.362000 600 50 1.000000 0.053000 0.053000 1.200000 0.027000 0.032000
1517280439763650858	1200 54 1.100000 0.162000 0.189000 1700 45 1.100000 1.944000 2.280000 600 50 1.000000 0.053000 0.053000 1.200000 0.023000 0.027000
1517280440268868233	1200 54 1.100000 0.162000 0.189000 1700 45 1.100000 1.950000 2.287000 600 51 1.000000 0.053000 0.053000 1.200000 0.024000 0.028000
1517280440773999650	1200 54 1.100000 0.162000 0.189000 1700 45 1.100000 1.934000 2.268000 600 52 1.000000 0.053000 0.053000 1.200000 0.025000 0.030000
1517280441279067608	1200 54 1.100000 0.163000 0.190000 1700 45 1.100000 1.937000 2.272000 600 50 1.000000 0.053000 0.053000 1.200000 0.027000 0.032000
1517280441784071358	1200 54 1.100000 0.163000 0.190000 1700 45 1.100000 1.934000 2.272000 600 50 1.000000 0.053000 0.053000 1.200000 0.024000 0.028000
1517280442289037608	1200 54 1.100000 0.162000 0.189000 1700 45 1.100000 1.937000 2.272000 600 52 1.000000 0.052000 0.052000 1.200000 0.023000 0.027000
1517280442794060942	1200 54 1.100000 0.162000 0.189000 1700 45 1.100000 1.934000 2.268000 600 51 1.000000 0.053000 0.053000 1.200000 0.024000 0.028000
1517280443299113359	1200 54 1.100000 0.163000 0.190000 1700 45 1.100000 1.932000 2.270000 600 51 1.000000 0.053000 0.053000 1.200000 0.023000 0.027000
1517280443804074775	1200 54 1.100000 0.162000 0.189000 1700 45 1.100000 1.933000 2.267000 600 50 1.000000 0.053000 0.053000 1.200000 0.023000 0.027000
1517280444310299192	1200 54 1.100000 0.162000 0.189000 1700 45 1.100000 1.961000 2.304000 600 51 1.000000 0.053000 0.053000 1.200000 0.023000 0.027000
1517280444816838234	1200 54 1.100000 0.171000 0.200000 1700 45 1.100000 2.190000 2.573000 600 52 1.000000 0.053000 0.053000 1.200000 0.031000 0.037000
1517280445322017734	1200 54 1.100000 0.163000 0.190000 1700 45 1.100000 2.010000 2.361000 600 50 1.000000 0.053000 0.053000 1.200000 0.027000 0.032000
1517280445827048526	1200 54 1.100000 0.163000 0.190000 1700 45 1.100000 1.932000 2.266000 600 50 1.000000 0.052000 0.052000 1.200000 0.023000 0.027000
1517280446332030776	1200 54 1.100000 0.163000 0.190000 1700 45 1.100000 1.935000 2.269000 600 50 1.000000 0.053000 0.053000 1.200000 0.024000 0.028000
1517280446837854359	1200 54 1.100000 0.166000 0.194000 1700 45 1.100000 2.118000 2.488000 600 51 1.000000 0.053000 0.053000 1.200000 0.028000 0.033000
1517280447343140276	1200 54 1.100000 0.164000 0.192000 1700 45 1.100000 1.935000 2.269000 600 50 1.000000 0.053000 0.053000 1.200000 0.027000 0.032000
1517280447848231359	1200 54 1.100000 0.162000 0.189000 1700 45 1.100000 1.931000 2.265000 600 50 1.000000 0.053000 0.053000 1.200000 0.023000 0.027000
1517280448353132151	1200 54 1.100000 0.162000 0.189000 1700 45 1.100000 1.932000 2.266000 600 50 1.000000 0.053000 0.053000 1.200000 0.023000 0.027000
1517280448858267526	1200 54 1.100000 0.167000 0.195000 1700 45 1.100000 2.050000 2.404000 600 51 1.000000 0.052000 0.052000 1.200000 0.028000 0.033000
1517280449363593693	1200 54 1.100000 0.162000 0.189000 1700 45 1.100000 1.935000 2.273000 600 50 1.000000 0.053000 0.053000 1.200000 0.023000 0.027000
1517280449868846193	1200 54 1.100000 0.162000 0.189000 1700 45 1.100000 1.952000 2.289000 600 50 1.000000 0.053000 0.053000 1.200000 0.023000 0.027000
1517280450373989734	1200 54 1.100000 0.162000 0.189000 1700 45 1.100000 1.933000 2.267000 600 50 1.000000 0.052000 0.052000 1.200000 0.024000 0.028000
1517280450879104193	1200 54 1.100000 0.162000 0.189000 1700 45 1.100000 1.933000 2.271000 600 51 1.000000 0.053000 0.053000 1.200000 0.024000 0.028000
1517280451384270860	1200 54 1.100000 0.162000 0.189000 1700 45 1.100000 2.062000 2.422000 600 51 1.000000 0.053000 0.053000 1.200000 0.027000 0.032000
1517280451890412651	1200 54 1.100000 0.163000 0.191000 1700 45 1.100000 1.937000 2.275000 600 50 1.000000 0.053000 0.053000 1.200000 0.025000 0.030000
1517280452395555110	1200 54 1.100000 0.163000 0.191000 1700 45 1.100000 1.950000 2.291000 600 50 1.000000 0.053000 0.053000 1.200000 0.023000 0.027000
1517280452900639860	1200 54 1.100000 0.165000 0.193000 1700 45 1.100000 1.938000 2.277000 600 51 1.000000 0.052000 0.052000 1.200000 0.024000 0.028000
1517280453405856193	1200 54 1.100000 0.165000 0.193000 1700 45 1.100000 2.068000 2.429000 600 51 1.000000 0.053000 0.053000 1.200000 0.026000 0.031000
1517280453910913693	1200 54 1.100000 0.162000 0.189000 1700 45 1.100000 1.961000 2.304000 600 50 1.000000 0.053000 0.053000 1.200000 0.023000 0.027000
1517280454415959068	1200 54 1.100000 0.162000 0.189000 1700 45 1.100000 1.936000 2.274000 600 50 1.000000 0.053000 0.053000 1.200000 0.023000 0.027000
1517280454920990985	1200 54 1.100000 0.163000 0.190000 1700 45 1.100000 1.957000 2.299000 600 51 1.000000 0.052000 0.052000 1.200000 0.023000 0.027000
1517280455426226902	1200 54 1.100000 0.162000 0.189000 1700 45 1.100000 2.040000 2.397000 600 51 1.000000 0.052000 0.052000 1.200000 0.023000 0.027000
1517280455931204693	1200 54 1.100000 0.163000 0.190000 1700 45 1.100000 1.937000 2.275000 600 51 1.000000 0.052000 0.052000 1.200000 0.023000 0.027000
1517280456436159444	1200 54 1.100000 0.163000 0.190000 1700 45 1.100000 1.952000 2.293000 600 50 1.000000 0.053000 0.053000 1.200000 0.024000 0.028000
1517280456941684694	1200 54 1.100000 0.162000 0.189000 1700 45 1.100000 1.937000 2.272000 600 52 1.000000 0.052000 0.052000 1.200000 0.023000 0.027000
1517280457446952027	1200 54 1.100000 0.169000 0.197000 1700 45 1.100000 2.258000 2.655000 600 51 1.000000 0.053000 0.053000 1.200000 0.033000 0.039000
1517280457952145735	1200 54 1.100000 0.162000 0.189000 1700 45 1.100000 1.938000 2.273000 600 50 1.000000 0.053000 0.053000 1.200000 0.024000 0.028000
1517280458457144027	1200 54 1.100000 0.162000 0.189000 1700 45 1.100000 1.961000 2.300000 600 50 1.000000 0.053000 0.053000 1.200000 0.023000 0.027000
1517280458962771110	1200 54 1.100000 0.162000 0.189000 1700 45 1.100000 1.943000 2.283000 600 50 1.000000 0.053000 0.053000 1.200000 0.023000 0.027000
1517280459467979069	1200 54 1.100000 0.163000 0.190000 1700 45 1.100000 2.279000 2.680000 600 51 1.000000 0.052000 0.052000 1.200000 0.029000 0.035000
1517280459973085277	1200 54 1.100000 0.162000 0.189000 1700 45 1.100000 1.954000 2.295000 600 50 1.000000 0.053000 0.053000 1.200000 0.023000 0.027000
1517280460477984652	1200 54 1.100000 0.162000 0.189000 1700 45 1.100000 1.937000 2.275000 600 50 1.000000 0.053000 0.053000 1.200000 0.023000 0.027000
1517280460982937236	1200 54 1.100000 0.162000 0.189000 1700 45 1.100000 1.937000 2.275000 600 50 1.000000 0.053000 0.053000 1.200000 0.023000 0.027000
1517280461488026652	1200 54 1.100000 0.186000 0.217000 1700 45 1.100000 2.198000 2.584000 600 51 1.000000 0.053000 0.053000 1.200000 0.027000 0.032000
1517280461993050236	1200 54 1.100000 0.163000 0.190000 1700 45 1.100000 1.953000 2.290000 600 50 1.000000 0.053000 0.053000 1.200000 0.023000 0.027000
1517280462497957361	1200 54 1.100000 0.163000 0.191000 1700 45 1.100000 1.948000 2.285000 600 50 1.000000 0.053000 0.053000 1.200000 0.024000 0.028000
1517280463002802028	1200 53 1.100000 0.162000 0.189000 1700 45 1.100000 1.937000 2.272000 600 50 1.000000 0.052000 0.052000 1.200000 0.023000 0.027000
1517280463507848028	1200 54 1.100000 0.170000 0.199000 1700 45 1.100000 1.960000 2.299000 600 51 1.000000 0.053000 0.053000 1.200000 0.032000 0.038000
1517280464012789153	1200 54 1.100000 0.163000 0.190000 1700 45 1.100000 1.934000 2.272000 600 50 1.000000 0.053000 0.053000 1.200000 0.023000 0.027000
1517280464517837069	1200 54 1.100000 0.162000 0.189000 1700 45 1.100000 1.952000 2.289000 600 50 1.000000 0.052000 0.052000 1.200000 0.023000 0.027000
1517280465022910778	1200 54 1.100000 0.162000 0.189000 1700 45 1.100000 1.948000 2.288000 600 50 1.000000 0.052000 0.052000 1.200000 0.023000 0.027000
1517280465528028570	1200 54 1.100000 0.168000 0.196000 1700 45 1.100000 2.041000 2.398000 600 51 1.000000 0.053000 0.053000 1.200000 0.031000 0.037000
1517280466032972445	1200 54 1.100000 0.162000 0.189000 1700 45 1.100000 1.934000 2.268000 600 50 1.000000 0.053000 0.053000 1.200000 0.023000 0.027000
1517280466537872528	1200 54 1.100000 0.163000 0.190000 1700 45 1.100000 1.930000 2.263000 600 50 1.000000 0.053000 0.053000 1.200000 0.023000 0.027000
1517280467042692903	1200 54 1.100000 0.162000 0.189000 1700 45 1.100000 1.930000 2.263000 600 50 1.000000 0.053000 0.053000 1.200000 0.023000 0.027000
1517280467547643820	1200 54 1.100000 0.165000 0.193000 1700 45 1.100000 2.127000 2.499000 600 51 1.000000 0.053000 0.053000 1.200000 0.030000 0.036000
1517280468052742528	1200 54 1.100000 0.167000 0.195000 1700 45 1.100000 2.132000 2.505000 600 51 1.000000 0.052000 0.052000 1.200000 0.023000 0.027000
1517280468557993820	1200 54 1.100000 0.162000 0.189000 1700 45 1.100000 1.957000 2.295000 600 50 1.000000 0.053000 0.053000 1.200000 0.024000 0.028000
1517280469062922862	1200 54 1.100000 0.162000 0.189000 1700 45 1.100000 1.930000 2.263000 600 50 1.000000 0.053000 0.053000 1.200000 0.023000 0.027000
1517280469568033695	1200 54 1.100000 0.162000 0.189000 1700 45 1.100000 1.959000 2.297000 600 52 1.000000 0.052000 0.052000 1.200000 0.027000 0.032000
1517280470072983195	1200 54 1.100000 0.163000 0.190000 1700 45 1.100000 2.037000 2.393000 600 51 1.000000 0.053000 0.053000 1.200000 0.023000 0.027000
1517280470577858529	1200 54 1.100000 0.163000 0.190000 1700 45 1.100000 1.948000 2.285000 600 50 1.000000 0.053000 0.053000 1.200000 0.023000 0.027000
1517280471082700654	1200 54 1.100000 0.162000 0.189000 1700 45 1.100000 1.931000 2.265000 600 50 1.000000 0.053000 0.053000 1.200000 0.023000 0.027000
1517280471588518154	1200 54 1.100000 0.165000 0.193000 1700 45 1.100000 2.032000 2.387000 600 52 1.000000 0.053000 0.053000 1.200000 0.023000 0.027000
1517280472093720362	1200 54 1.100000 0.162000 0.189000 1700 45 1.100000 1.974000 2.315000 600 51 1.000000 0.053000 0.053000 1.200000 0.029000 0.035000
1517280472598591529	1200 54 1.100000 0.162000 0.189000 1700 45 1.100000 1.933000 2.267000 600 50 1.000000 0.053000 0.053000 1.200000 0.023000 0.027000
1517280473103493195	1200 54 1.100000 0.162000 0.189000 1700 45 1.100000 1.933000 2.267000 600 50 1.000000 0.053000 0.053000 1.200000 0.024000 0.028000
1517280473608692696	1200 54 1.100000 0.163000 0.190000 1700 45 1.100000 2.036000 2.388000 600 50 1.000000 0.053000 0.053000 1.200000 0.025000 0.030000
1517280474113657987	1200 54 1.100000 0.163000 0.190000 1700 45 1.100000 2.207000 2.593000 600 51 1.000000 0.052000 0.052000 1.200000 0.025000 0.030000
1517280474618604196	1200 54 1.100000 0.163000 0.190000 1700 45 1.100000 1.962000 2.301000 600 50 1.000000 0.053000 0.053000 1.200000 0.024000 0.028000
1517280475123481321	1200 54 1.100000 0.163000 0.190000 1700 45 1.100000 1.936000 2.270000 600 50 1.000000 0.052000 0.052000 1.200000 0.023000 0.027000
1517280475628751654	1200 54 1.100000 0.163000 0.190000 1700 45 1.100000 1.954000 2.292000 600 51 1.000000 0.053000 0.053000 1.200000 0.024000 0.028000
1517280476133935571	1200 54 1.100000 0.167000 0.195000 1700 45 1.100000 2.204000 2.589000 600 51 1.000000 0.053000 0.053000 1.200000 0.023000 0.027000
1517280476638882154	1200 54 1.100000 0.162000 0.189000 1700 45 1.100000 1.934000 2.268000 600 50 1.000000 0.053000 0.053000 1.200000 0.024000 0.028000
1517280477143857529	1200 54 1.100000 0.163000 0.190000 1700 45 1.100000 1.939000 2.274000 600 50 1.000000 0.053000 0.053000 1.200000 0.023000 0.027000
1517280477649101571	1200 54 1.100000 0.165000 0.193000 1700 45 1.100000 2.029000 2.384000 600 50 1.000000 0.052000 0.052000 1.200000 0.023000 0.027000
1517280478154313821	1200 54 1.100000 0.167000 0.195000 1700 45 1.100000 2.183000 2.565000 600 51 1.000000 0.053000 0.053000 1.200000 0.025000 0.030000
1517280478659226363	1200 54 1.100000 0.163000 0.190000 1700 45 1.100000 1.932000 2.266000 600 50 1.000000 0.053000 0.053000 1.200000 0.023000 0.027000
1517280479164142280	1200 54 1.100000 0.163000 0.190000 1700 45 1.100000 1.935000 2.269000 600 51 1.000000 0.052000 0.052000 1.200000 0.023000 0.027000
1517280479669597363	1200 54 1.100000 0.163000 0.190000 1700 45 1.100000 1.960000 2.299000 600 50 1.000000 0.052000 0.052000 1.200000 0.023000 0.027000
1517280480174771280	1200 54 1.100000 0.163000 0.190000 1700 45 1.100000 1.934000 2.268000 600 51 1.000000 0.052000 0.052000 1.200000 0.026000 0.031000
1517280480679729780	1200 54 1.100000 0.165000 0.193000 1700 45 1.100000 1.958000 2.296000 600 51 1.000000 0.053000 0.053000 1.200000 0.026000 0.031000
1517280481184710030	1200 54 1.100000 0.163000 0.190000 1700 45 1.100000 1.935000 2.269000 600 50 1.000000 0.053000 0.053000 1.200000 0.024000 0.028000
1517280481689783030	1200 54 1.100000 0.162000 0.189000 1700 45 1.100000 1.892000 2.219000 600 50 1.000000 0.052000 0.052000 1.200000 0.024000 0.028000
1517280482194770947	1200 47 1.100000 0.162000 0.189000 1700 44 1.100000 1.849000 2.168000 600 51 1.000000 0.053000 0.053000 1.200000 0.023000 0.027000
1517280482699750863	1200 44 1.100000 0.161000 0.188000 1700 42 1.100000 0.246000 0.286000 600 47 1.000000 0.053000 0.053000 1.200000 0.024000 0.028000
1517280483205513072	1200 51 1.100000 0.063000 0.073000 1700 43 1.100000 1.343000 1.572000 600 48 1.000000 0.052000 0.052000 1.200000 0.032000 0.038000
1517280483711050947	1200 51 1.100000 0.066000 0.077000 1700 43 1.100000 1.438000 1.683000 600 48 1.000000 0.052000 0.052000 1.200000 0.035000 0.042000
1517280484217022488	1200 43 1.100000 0.063000 0.073000 1700 41 1.100000 0.260000 0.303000 600 48 1.000000 0.052000 0.052000 1.200000 0.034000 0.041000
1517280484722066947	1200 41 1.100000 0.061000 0.071000 1700 40 1.100000 0.233000 0.271000 600 45 1.000000 0.052000 0.052000 1.200000 0.022000 0.026000
