#Timestamp	CPU(0) Frequency(MHz)	CPU(0) Temperature(C)	A7 Voltage(V)	A7 Current(A)	A7 Power(W)	CPU(4) Frequency(MHz)	CPU(4) Temperature(C)	A15 Voltage(V)	A15 Current(A)	A15 Power(W)	GPU Frequency(MHz)	GPU Temperature(C)	GPU Voltage(V)	GPU Current(A)	GPU Power(W)	RAM Voltage(V)	RAM Current(A)	RAM Power(W)
1517350671699875855	800 42 1.000000 0.047000 0.051000 1600 34 0.900000 0.193000 0.182000 600 46 1.000000 0.051000 0.051000 1.200000 0.028000 0.033000
1517350672205242064	800 44 1.000000 0.253000 0.258000 1600 36 1.100000 2.569000 2.928000 600 49 1.000000 0.051000 0.051000 1.200000 0.024000 0.028000
1517350672710603939	800 45 1.000000 0.254000 0.259000 1600 37 1.100000 2.567000 2.926000 600 51 1.000000 0.051000 0.051000 1.200000 0.023000 0.027000
1517350673215804064	800 47 1.000000 0.254000 0.259000 1600 38 1.100000 2.589000 2.946000 600 52 1.000000 0.051000 0.051000 1.200000 0.024000 0.028000
1517350673721220231	800 48 1.000000 0.255000 0.259000 1600 39 1.100000 2.578000 2.938000 600 53 1.000000 0.051000 0.051000 1.200000 0.023000 0.027000
1517350674226474189	800 48 1.000000 0.255000 0.259000 1600 40 1.100000 2.603000 2.962000 600 54 1.000000 0.052000 0.052000 1.200000 0.025000 0.030000
1517350674731748981	800 49 1.000000 0.256000 0.261000 1600 40 1.100000 2.591000 2.948000 600 54 1.000000 0.051000 0.051000 1.200000 0.024000 0.028000
1517350675237104856	800 49 1.000000 0.256000 0.261000 1600 41 1.100000 2.595000 2.958000 600 55 1.000000 0.052000 0.052000 1.200000 0.024000 0.028000
1517350675742518314	800 50 1.000000 0.256000 0.260000 1600 41 1.100000 2.599000 2.962000 600 55 1.000000 0.052000 0.052000 1.200000 0.023000 0.027000
1517350676247801189	800 50 1.000000 0.256000 0.260000 1600 41 1.100000 2.595000 2.958000 600 56 1.000000 0.052000 0.052000 1.200000 0.024000 0.028000
1517350676753063814	800 50 1.000000 0.256000 0.261000 1600 42 1.100000 2.591000 2.953000 600 56 1.000000 0.052000 0.052000 1.200000 0.023000 0.027000
1517350677258339106	800 51 1.000000 0.256000 0.261000 1600 42 1.100000 2.592000 2.954000 600 56 1.000000 0.052000 0.052000 1.200000 0.024000 0.028000
1517350677763727440	800 51 1.000000 0.256000 0.261000 1600 42 1.100000 2.608000 2.973000 600 56 1.000000 0.052000 0.052000 1.200000 0.024000 0.028000
1517350678269066606	800 51 1.000000 0.257000 0.262000 1600 42 1.100000 2.637000 3.006000 600 57 1.000000 0.052000 0.052000 1.200000 0.024000 0.028000
1517350678774326065	800 51 1.000000 0.257000 0.262000 1600 43 1.100000 2.779000 3.170000 600 57 1.000000 0.052000 0.052000 1.200000 0.029000 0.035000
1517350679279578940	800 52 1.000000 0.257000 0.262000 1600 43 1.100000 2.607000 2.971000 600 57 1.000000 0.052000 0.052000 1.200000 0.023000 0.027000
1517350679785027981	800 52 1.000000 0.257000 0.262000 1600 43 1.100000 2.601000 2.965000 600 57 1.000000 0.052000 0.052000 1.200000 0.024000 0.028000
1517350680296607607	800 52 1.000000 0.256000 0.261000 1600 43 1.100000 2.613000 2.978000 600 57 1.000000 0.052000 0.052000 1.200000 0.023000 0.027000
1517350680802723273	800 52 1.000000 0.257000 0.262000 1600 43 1.100000 2.790000 3.183000 600 58 1.000000 0.052000 0.052000 1.200000 0.027000 0.032000
1517350681308167773	800 52 1.000000 0.257000 0.262000 1600 43 1.100000 2.599000 2.962000 600 58 1.000000 0.052000 0.052000 1.200000 0.023000 0.027000
1517350681813508398	800 52 1.000000 0.258000 0.263000 1600 44 1.100000 2.613000 2.978000 600 58 1.000000 0.053000 0.053000 1.200000 0.024000 0.028000
1517350682318951523	800 52 1.000000 0.257000 0.262000 1600 44 1.100000 2.598000 2.961000 600 58 1.000000 0.052000 0.052000 1.200000 0.023000 0.027000
1517350682824397565	800 53 1.000000 0.258000 0.263000 1600 44 1.100000 2.779000 3.170000 600 58 1.000000 0.052000 0.052000 1.200000 0.027000 0.032000
1517350683329504649	800 53 1.000000 0.257000 0.262000 1600 44 1.100000 2.614000 2.979000 600 58 1.000000 0.052000 0.052000 1.200000 0.023000 0.027000
1517350683834814899	800 53 1.000000 0.257000 0.262000 1600 44 1.100000 2.600000 2.964000 600 58 1.000000 0.052000 0.052000 1.200000 0.024000 0.028000
1517350684340289732	800 53 1.000000 0.257000 0.262000 1600 44 1.100000 2.677000 3.051000 600 58 1.000000 0.052000 0.052000 1.200000 0.026000 0.031000
1517350684845551899	800 53 1.000000 0.258000 0.263000 1600 44 1.100000 2.624000 2.991000 600 59 1.000000 0.052000 0.052000 1.200000 0.025000 0.030000
1517350685350820982	800 53 1.000000 0.257000 0.262000 1600 44 1.100000 2.617000 2.983000 600 59 1.000000 0.052000 0.052000 1.200000 0.024000 0.028000
1517350685856380232	800 53 1.000000 0.257000 0.262000 1600 44 1.100000 2.604000 2.968000 600 59 1.000000 0.053000 0.053000 1.200000 0.024000 0.028000
1517350686361703399	800 53 1.000000 0.257000 0.262000 1600 44 1.100000 2.611000 2.976000 600 59 1.000000 0.052000 0.052000 1.200000 0.024000 0.028000
1517350686867093524	800 53 1.000000 0.257000 0.262000 1600 45 1.100000 2.683000 3.058000 600 59 1.000000 0.052000 0.052000 1.200000 0.025000 0.030000
1517350687372305649	800 53 1.000000 0.257000 0.262000 1600 45 1.100000 2.603000 2.967000 600 59 1.000000 0.052000 0.052000 1.200000 0.023000 0.027000
1517350687877690024	800 54 1.000000 0.257000 0.262000 1600 45 1.100000 2.601000 2.965000 600 59 1.000000 0.053000 0.053000 1.200000 0.023000 0.027000
1517350688383182399	800 53 1.000000 0.257000 0.262000 1600 45 1.100000 2.598000 2.961000 600 59 1.000000 0.052000 0.052000 1.200000 0.023000 0.027000
1517350688888604774	800 54 1.000000 0.258000 0.263000 1600 45 1.100000 2.717000 3.100000 600 59 1.000000 0.053000 0.053000 1.200000 0.025000 0.030000
1517350689394010024	800 54 1.000000 0.257000 0.261000 1600 45 1.100000 2.679000 3.054000 600 59 1.000000 0.053000 0.053000 1.200000 0.026000 0.031000
1517350689899324608	800 54 1.000000 0.258000 0.263000 1600 45 1.100000 2.602000 2.966000 600 59 1.000000 0.053000 0.053000 1.200000 0.023000 0.027000
1517350690404809316	800 54 1.000000 0.257000 0.262000 1600 45 1.100000 2.698000 3.075000 600 59 1.000000 0.053000 0.053000 1.200000 0.028000 0.033000
1517350690909987399	800 54 1.000000 0.256000 0.261000 1600 45 1.100000 2.600000 2.964000 600 59 1.000000 0.052000 0.052000 1.200000 0.024000 0.028000
1517350691415293483	800 54 1.000000 0.258000 0.263000 1600 45 1.100000 2.651000 3.022000 600 59 1.000000 0.053000 0.053000 1.200000 0.024000 0.028000
1517350691920714858	800 54 1.000000 0.257000 0.262000 1600 45 1.100000 2.604000 2.968000 600 59 1.000000 0.053000 0.053000 1.200000 0.024000 0.028000
1517350692426210025	800 54 1.000000 0.258000 0.263000 1600 45 1.100000 2.597000 2.960000 600 59 1.000000 0.053000 0.053000 1.200000 0.023000 0.027000
1517350692939247650	800 54 1.000000 0.258000 0.263000 1600 45 1.100000 2.607000 2.971000 600 59 1.000000 0.053000 0.053000 1.200000 0.023000 0.027000
1517350693445642275	800 54 1.000000 0.257000 0.262000 1600 45 1.100000 2.594000 2.957000 600 60 1.000000 0.053000 0.053000 1.200000 0.023000 0.027000
1517350693951036525	800 54 1.000000 0.257000 0.262000 1600 45 1.100000 2.603000 2.967000 600 60 1.000000 0.053000 0.053000 1.200000 0.023000 0.027000
1517350694456583942	800 54 1.000000 0.256000 0.261000 1600 45 1.100000 2.594000 2.957000 600 59 1.000000 0.053000 0.053000 1.200000 0.023000 0.027000
1517350694961881775	800 54 1.000000 0.256000 0.260000 1600 45 1.100000 2.609000 2.974000 600 60 1.000000 0.053000 0.053000 1.200000 0.023000 0.027000
1517350695467253400	800 54 1.000000 0.257000 0.262000 1600 46 1.100000 2.805000 3.200000 600 60 1.000000 0.053000 0.053000 1.200000 0.027000 0.032000
1517350695972844567	800 54 1.000000 0.257000 0.262000 1600 45 1.100000 2.582000 2.943000 600 60 1.000000 0.053000 0.053000 1.200000 0.024000 0.028000
1517350696478281942	800 54 1.000000 0.258000 0.263000 1600 46 1.100000 2.707000 3.088000 600 60 1.000000 0.053000 0.053000 1.200000 0.028000 0.033000
1517350696983657484	800 54 1.000000 0.257000 0.262000 1600 46 1.100000 2.591000 2.953000 600 60 1.000000 0.053000 0.053000 1.200000 0.024000 0.028000
1517350697488913900	800 54 1.000000 0.258000 0.263000 1600 46 1.100000 2.795000 3.189000 600 60 1.000000 0.053000 0.053000 1.200000 0.027000 0.032000
1517350698010068067	800 54 1.000000 0.257000 0.262000 1600 46 1.100000 2.583000 2.944000 600 60 1.000000 0.053000 0.053000 1.200000 0.023000 0.027000
1517350698515493275	800 54 1.000000 0.256000 0.261000 1600 46 1.100000 2.609000 2.974000 600 60 1.000000 0.053000 0.053000 1.200000 0.023000 0.027000
1517350699020740109	800 54 1.000000 0.257000 0.262000 1600 46 1.100000 2.582000 2.943000 600 60 1.000000 0.053000 0.053000 1.200000 0.023000 0.027000
1517350699526044775	800 55 1.000000 0.258000 0.263000 1600 46 1.100000 2.790000 3.183000 600 60 1.000000 0.053000 0.053000 1.200000 0.027000 0.032000
1517350700045795109	800 55 1.000000 0.258000 0.263000 1600 46 1.100000 2.586000 2.948000 600 60 1.000000 0.053000 0.053000 1.200000 0.023000 0.027000
1517350700557248317	800 55 1.000000 0.258000 0.263000 1600 46 1.100000 2.609000 2.974000 600 60 1.000000 0.053000 0.053000 1.200000 0.023000 0.027000
1517350701062670317	800 55 1.000000 0.257000 0.262000 1600 46 1.100000 2.589000 2.951000 600 60 1.000000 0.053000 0.053000 1.200000 0.023000 0.027000
1517350701567980067	800 55 1.000000 0.258000 0.263000 1600 46 1.100000 2.783000 3.175000 600 60 1.000000 0.053000 0.053000 1.200000 0.027000 0.032000
1517350702089974067	800 55 1.000000 0.256000 0.261000 1600 46 1.100000 2.596000 2.959000 600 60 1.000000 0.053000 0.053000 1.200000 0.023000 0.027000
1517350702595874151	800 55 1.000000 0.257000 0.262000 1600 46 1.100000 2.681000 3.056000 600 60 1.000000 0.053000 0.053000 1.200000 0.027000 0.032000
1517350703101106693	800 55 1.000000 0.257000 0.262000 1600 46 1.100000 2.614000 2.979000 600 60 1.000000 0.053000 0.053000 1.200000 0.023000 0.027000
1517350703606251693	800 55 1.000000 0.258000 0.263000 1600 46 1.100000 2.604000 2.968000 600 61 1.000000 0.053000 0.053000 1.200000 0.024000 0.028000
1517350704125574943	800 55 1.000000 0.258000 0.263000 1600 46 1.100000 2.612000 2.977000 600 60 1.000000 0.053000 0.053000 1.200000 0.023000 0.027000
1517350704637274984	800 55 1.000000 0.259000 0.264000 1600 46 1.100000 2.590000 2.952000 600 60 1.000000 0.053000 0.053000 1.200000 0.024000 0.028000
1517350705142606318	800 55 1.000000 0.258000 0.263000 1600 46 1.100000 2.611000 2.976000 600 60 1.000000 0.053000 0.053000 1.200000 0.023000 0.027000
1517350705647683943	800 55 1.000000 0.258000 0.263000 1600 46 1.100000 2.589000 2.951000 600 61 1.000000 0.053000 0.053000 1.200000 0.023000 0.027000
1517350706169747693	800 55 1.000000 0.256000 0.261000 1600 46 1.100000 2.610000 2.975000 600 61 1.000000 0.053000 0.053000 1.200000 0.023000 0.027000
1517350706676575776	800 55 1.000000 0.256000 0.261000 1600 46 1.100000 2.599000 2.962000 600 60 1.000000 0.053000 0.053000 1.200000 0.023000 0.027000
1517350707181883485	800 55 1.000000 0.257000 0.262000 1600 46 1.100000 2.595000 2.958000 600 61 1.000000 0.053000 0.053000 1.200000 0.023000 0.027000
1517350707693193735	800 55 1.000000 0.258000 0.263000 1600 46 1.100000 2.622000 2.989000 600 61 1.000000 0.053000 0.053000 1.200000 0.023000 0.027000
1517350708216934860	800 55 1.000000 0.258000 0.263000 1600 46 1.100000 2.767000 3.157000 600 61 1.000000 0.053000 0.053000 1.200000 0.023000 0.027000
1517350708722436360	800 55 1.000000 0.258000 0.263000 1600 46 1.100000 2.705000 3.083000 600 61 1.000000 0.053000 0.053000 1.200000 0.023000 0.027000
1517350709227776360	800 55 1.000000 0.258000 0.263000 1600 46 1.100000 2.596000 2.959000 600 61 1.000000 0.053000 0.053000 1.200000 0.023000 0.027000
1517350709741333193	800 55 1.000000 0.258000 0.263000 1600 46 1.100000 2.629000 2.997000 600 61 1.000000 0.053000 0.053000 1.200000 0.024000 0.028000
1517350710263181652	800 55 1.000000 0.259000 0.264000 1600 47 1.100000 2.656000 3.027000 600 61 1.000000 0.053000 0.053000 1.200000 0.028000 0.033000
1517350710768865235	800 55 1.000000 0.257000 0.261000 1600 47 1.100000 2.634000 3.002000 600 61 1.000000 0.053000 0.053000 1.200000 0.023000 0.027000
1517350711274496902	800 55 1.000000 0.257000 0.262000 1600 47 1.100000 2.623000 2.990000 600 61 1.000000 0.053000 0.053000 1.200000 0.026000 0.031000
1517350711779821485	800 55 1.000000 0.257000 0.262000 1600 47 1.100000 2.604000 2.968000 600 61 1.000000 0.053000 0.053000 1.200000 0.023000 0.027000
1517350712285234610	800 55 1.000000 0.259000 0.264000 1600 47 1.100000 2.696000 3.073000 600 61 1.000000 0.053000 0.053000 1.200000 0.025000 0.030000
1517350712790822652	800 55 1.000000 0.259000 0.264000 1600 47 1.100000 2.689000 3.065000 600 61 1.000000 0.053000 0.053000 1.200000 0.027000 0.032000
1517350713296182985	800 55 1.000000 0.259000 0.264000 1600 47 1.100000 2.611000 2.976000 600 61 1.000000 0.053000 0.053000 1.200000 0.024000 0.028000
1517350713801259194	800 55 1.000000 0.258000 0.263000 1600 47 1.100000 2.623000 2.990000 600 61 1.000000 0.053000 0.053000 1.200000 0.023000 0.027000
1517350714306585527	800 56 1.000000 0.257000 0.262000 1600 47 1.100000 2.720000 3.100000 600 61 1.000000 0.053000 0.053000 1.200000 0.026000 0.031000
1517350714812109319	800 56 1.000000 0.258000 0.263000 1600 47 1.100000 2.696000 3.073000 600 61 1.000000 0.053000 0.053000 1.200000 0.028000 0.033000
1517350715317371611	800 55 1.000000 0.257000 0.262000 1600 47 1.100000 2.611000 2.976000 600 61 1.000000 0.053000 0.053000 1.200000 0.023000 0.027000
1517350715822664069	800 55 1.000000 0.257000 0.262000 1600 47 1.100000 2.616000 2.982000 600 61 1.000000 0.053000 0.053000 1.200000 0.024000 0.028000
1517350716328067152	800 56 1.000000 0.259000 0.264000 1600 47 1.100000 2.756000 3.144000 600 61 1.000000 0.053000 0.053000 1.200000 0.026000 0.031000
1517350716833535861	800 56 1.000000 0.258000 0.263000 1600 47 1.100000 2.644000 3.014000 600 61 1.000000 0.053000 0.053000 1.200000 0.025000 0.030000
1517350717341335111	800 56 1.000000 0.258000 0.263000 1600 47 1.100000 2.624000 2.991000 600 61 1.000000 0.053000 0.053000 1.200000 0.023000 0.027000
1517350717846625778	800 56 1.000000 0.258000 0.263000 1600 47 1.100000 2.606000 2.970000 600 61 1.000000 0.053000 0.053000 1.200000 0.024000 0.028000
1517350718352034611	800 56 1.000000 0.257000 0.262000 1600 47 1.100000 2.629000 2.997000 600 61 1.000000 0.053000 0.053000 1.200000 0.023000 0.027000
1517350718857373694	800 56 1.000000 0.259000 0.264000 1600 47 1.100000 2.691000 3.067000 600 61 1.000000 0.053000 0.053000 1.200000 0.028000 0.033000
1517350719362657320	800 56 1.000000 0.258000 0.263000 1600 47 1.100000 2.623000 2.990000 600 61 1.000000 0.053000 0.053000 1.200000 0.023000 0.027000
1517350719867768736	800 56 1.000000 0.257000 0.262000 1600 47 1.100000 2.606000 2.970000 600 61 1.000000 0.053000 0.053000 1.200000 0.023000 0.027000
1517350720373056653	800 56 1.000000 0.257000 0.262000 1600 47 1.100000 2.619000 2.985000 600 61 1.000000 0.053000 0.053000 1.200000 0.024000 0.028000
1517350720878575695	800 56 1.000000 0.258000 0.263000 1600 47 1.100000 2.709000 3.088000 600 61 1.000000 0.053000 0.053000 1.200000 0.026000 0.031000
1517350721383989736	800 56 1.000000 0.259000 0.264000 1600 47 1.100000 2.614000 2.979000 600 61 1.000000 0.053000 0.053000 1.200000 0.025000 0.030000
1517350721889097070	800 56 1.000000 0.258000 0.263000 1600 47 1.100000 2.603000 2.967000 600 61 1.000000 0.053000 0.053000 1.200000 0.024000 0.028000
1517350722401241778	800 56 1.000000 0.259000 0.264000 1600 47 1.100000 2.606000 2.970000 600 61 1.000000 0.053000 0.053000 1.200000 0.023000 0.027000
1517350722907567070	800 56 1.000000 0.259000 0.264000 1600 47 1.100000 2.804000 3.199000 600 62 1.000000 0.053000 0.053000 1.200000 0.027000 0.032000
1517350723412797695	800 56 1.000000 0.258000 0.263000 1600 47 1.100000 2.602000 2.966000 600 61 1.000000 0.053000 0.053000 1.200000 0.024000 0.028000
1517350723918100737	800 56 1.000000 0.257000 0.262000 1600 47 1.100000 2.631000 2.999000 600 61 1.000000 0.053000 0.053000 1.200000 0.024000 0.028000
1517350724423243695	800 56 1.000000 0.257000 0.261000 1600 47 1.100000 2.601000 2.965000 600 61 1.000000 0.053000 0.053000 1.200000 0.024000 0.028000
1517350724928735112	800 56 1.000000 0.259000 0.264000 1600 47 1.100000 2.883000 3.286000 600 62 1.000000 0.053000 0.053000 1.200000 0.029000 0.035000
1517350725434162237	800 56 1.000000 0.258000 0.263000 1600 47 1.100000 2.612000 2.977000 600 61 1.000000 0.053000 0.053000 1.200000 0.024000 0.028000
1517350725939521779	800 56 1.000000 0.259000 0.264000 1600 47 1.100000 2.611000 2.976000 600 62 1.000000 0.053000 0.053000 1.200000 0.023000 0.027000
1517350726444713779	800 56 1.000000 0.259000 0.264000 1600 47 1.100000 2.609000 2.974000 600 61 1.000000 0.053000 0.053000 1.200000 0.024000 0.028000
1517350726950154445	800 56 1.000000 0.259000 0.263000 1600 47 1.100000 2.853000 3.255000 600 62 1.000000 0.053000 0.053000 1.200000 0.032000 0.038000
1517350727455475612	800 56 1.000000 0.258000 0.263000 1600 47 1.100000 2.615000 2.981000 600 62 1.000000 0.053000 0.053000 1.200000 0.023000 0.027000
1517350727960641946	800 56 1.000000 0.258000 0.263000 1600 47 1.100000 2.599000 2.962000 600 61 1.000000 0.053000 0.053000 1.200000 0.023000 0.027000
1517350728466077071	800 56 1.000000 0.257000 0.262000 1600 47 1.100000 2.614000 2.979000 600 62 1.000000 0.053000 0.053000 1.200000 0.023000 0.027000
1517350728971503029	800 56 1.000000 0.258000 0.263000 1600 47 1.100000 2.615000 2.981000 600 62 1.000000 0.053000 0.053000 1.200000 0.024000 0.028000
1517350729476748654	800 56 1.000000 0.257000 0.261000 1600 47 1.100000 2.609000 2.974000 600 62 1.000000 0.053000 0.053000 1.200000 0.024000 0.028000
1517350729982029237	800 56 1.000000 0.258000 0.263000 1600 47 1.100000 2.628000 2.995000 600 62 1.000000 0.053000 0.053000 1.200000 0.024000 0.028000
1517350730487307154	800 56 1.000000 0.259000 0.264000 1600 47 1.100000 2.598000 2.961000 600 62 1.000000 0.053000 0.053000 1.200000 0.023000 0.027000
1517350730992578946	800 56 1.000000 0.259000 0.264000 1600 47 1.100000 2.717000 3.097000 600 62 1.000000 0.053000 0.053000 1.200000 0.026000 0.031000
1517350731497733238	800 56 1.000000 0.258000 0.263000 1600 47 1.100000 2.604000 2.968000 600 62 1.000000 0.053000 0.053000 1.200000 0.023000 0.027000
1517350732002981863	800 56 1.000000 0.259000 0.264000 1600 47 1.100000 2.612000 2.977000 600 62 1.000000 0.053000 0.053000 1.200000 0.024000 0.028000
1517350732508349113	800 56 1.000000 0.258000 0.263000 1600 47 1.100000 2.607000 2.971000 600 62 1.000000 0.053000 0.053000 1.200000 0.023000 0.027000
1517350733013457654	800 56 1.000000 0.258000 0.263000 1600 47 1.100000 2.687000 3.063000 600 62 1.000000 0.053000 0.053000 1.200000 0.026000 0.031000
1517350733518735238	800 56 1.000000 0.258000 0.263000 1600 47 1.100000 2.611000 2.976000 600 62 1.000000 0.053000 0.053000 1.200000 0.023000 0.027000
1517350734023999571	800 56 1.000000 0.258000 0.263000 1600 47 1.100000 2.598000 2.961000 600 62 1.000000 0.053000 0.053000 1.200000 0.023000 0.027000
1517350734529088613	800 56 1.000000 0.258000 0.263000 1600 48 1.100000 2.614000 2.979000 600 62 1.000000 0.053000 0.053000 1.200000 0.023000 0.027000
1517350735041014030	800 56 1.000000 0.259000 0.264000 1600 48 1.100000 2.610000 2.970000 600 62 1.000000 0.053000 0.053000 1.200000 0.023000 0.027000
1517350735547409655	800 56 1.000000 0.260000 0.265000 1600 48 1.100000 2.805000 3.200000 600 62 1.000000 0.053000 0.053000 1.200000 0.028000 0.033000
1517350736052704363	800 56 1.000000 0.257000 0.261000 1600 48 1.100000 2.618000 2.984000 600 62 1.000000 0.053000 0.053000 1.200000 0.024000 0.028000
1517350736557982780	800 56 1.000000 0.258000 0.262000 1600 48 1.100000 2.618000 2.979000 600 62 1.000000 0.053000 0.053000 1.200000 0.024000 0.028000
1517350737063439738	800 56 1.000000 0.258000 0.262000 1600 48 1.100000 2.692000 3.068000 600 62 1.000000 0.053000 0.053000 1.200000 0.023000 0.027000
1517350737568919572	800 56 1.000000 0.259000 0.264000 1600 48 1.100000 2.748000 3.132000 600 62 1.000000 0.053000 0.053000 1.200000 0.028000 0.033000
1517350738074161197	800 56 1.000000 0.258000 0.263000 1600 48 1.100000 2.617000 2.983000 600 62 1.000000 0.053000 0.053000 1.200000 0.023000 0.027000
1517350738579317613	800 56 1.000000 0.259000 0.264000 1600 48 1.100000 2.598000 2.961000 600 62 1.000000 0.053000 0.053000 1.200000 0.023000 0.027000
1517350739084744989	800 56 1.000000 0.259000 0.264000 1600 48 1.100000 2.702000 3.080000 600 62 1.000000 0.053000 0.053000 1.200000 0.026000 0.031000
1517350739590126697	800 56 1.000000 0.259000 0.264000 1600 48 1.100000 2.719000 3.099000 600 62 1.000000 0.053000 0.053000 1.200000 0.027000 0.032000
1517350740095456447	800 57 1.000000 0.259000 0.264000 1600 48 1.100000 2.617000 2.983000 600 62 1.000000 0.053000 0.053000 1.200000 0.023000 0.027000
1517350740600654322	800 56 1.000000 0.259000 0.264000 1600 48 1.100000 2.605000 2.969000 600 62 1.000000 0.053000 0.053000 1.200000 0.023000 0.027000
1517350741106134405	800 56 1.000000 0.258000 0.262000 1600 48 1.100000 2.618000 2.984000 600 62 1.000000 0.053000 0.053000 1.200000 0.024000 0.028000
1517350741611414572	800 57 1.000000 0.257000 0.262000 1600 48 1.100000 2.737000 3.122000 600 62 1.000000 0.053000 0.053000 1.200000 0.025000 0.030000
1517350742116863572	800 56 1.000000 0.257000 0.262000 1600 48 1.100000 2.601000 2.965000 600 62 1.000000 0.053000 0.053000 1.200000 0.024000 0.028000
1517350742622261406	800 57 1.000000 0.259000 0.264000 1600 48 1.100000 2.618000 2.984000 600 62 1.000000 0.053000 0.053000 1.200000 0.023000 0.027000
1517350743127670322	800 57 1.000000 0.259000 0.263000 1600 48 1.100000 2.661000 3.033000 600 62 1.000000 0.053000 0.053000 1.200000 0.023000 0.027000
1517350743632960822	800 57 1.000000 0.259000 0.263000 1600 48 1.100000 2.765000 3.152000 600 62 1.000000 0.053000 0.053000 1.200000 0.025000 0.030000
1517350744138266531	800 57 1.000000 0.258000 0.263000 1600 48 1.100000 2.650000 3.021000 600 62 1.000000 0.053000 0.053000 1.200000 0.023000 0.027000
1517350744643410031	800 57 1.000000 0.258000 0.262000 1600 48 1.100000 2.621000 2.987000 600 62 1.000000 0.053000 0.053000 1.200000 0.023000 0.027000
1517350745148879489	800 57 1.000000 0.258000 0.262000 1600 48 1.100000 2.622000 2.989000 600 62 1.000000 0.053000 0.053000 1.200000 0.026000 0.031000
1517350745654012156	800 57 1.000000 0.257000 0.261000 1600 48 1.100000 2.612000 2.977000 600 62 1.000000 0.053000 0.053000 1.200000 0.026000 0.031000
1517350746159293906	800 57 1.000000 0.258000 0.263000 1600 48 1.100000 2.638000 3.007000 600 62 1.000000 0.053000 0.053000 1.200000 0.023000 0.027000
1517350746664579239	800 57 1.000000 0.258000 0.262000 1600 48 1.100000 2.598000 2.961000 600 62 1.000000 0.053000 0.053000 1.200000 0.023000 0.027000
1517350747169962531	800 57 1.000000 0.258000 0.262000 1600 48 1.100000 2.632000 3.000000 600 62 1.000000 0.053000 0.053000 1.200000 0.023000 0.027000
1517350747682314948	800 57 1.000000 0.259000 0.264000 1600 48 1.100000 2.699000 3.076000 600 62 1.000000 0.053000 0.053000 1.200000 0.024000 0.028000
1517350748187647323	800 57 1.000000 0.260000 0.265000 1600 48 1.100000 2.787000 3.179000 600 62 1.000000 0.053000 0.053000 1.200000 0.024000 0.028000
1517350748692915031	800 57 1.000000 0.259000 0.264000 1600 48 1.100000 2.633000 3.001000 600 62 1.000000 0.053000 0.053000 1.200000 0.023000 0.027000
1517350749198183365	800 57 1.000000 0.259000 0.264000 1600 48 1.100000 2.628000 2.995000 600 63 1.000000 0.053000 0.053000 1.200000 0.023000 0.027000
1517350749703829865	800 57 1.000000 0.257000 0.262000 1600 48 1.100000 2.665000 3.038000 600 62 1.000000 0.053000 0.053000 1.200000 0.023000 0.027000
1517350750209175948	800 57 1.000000 0.257000 0.262000 1600 48 1.100000 2.811000 3.207000 600 63 1.000000 0.053000 0.053000 1.200000 0.027000 0.032000
1517350750714510615	800 57 1.000000 0.259000 0.264000 1600 48 1.100000 2.624000 2.991000 600 62 1.000000 0.053000 0.053000 1.200000 0.025000 0.030000
1517350751219885323	800 57 1.000000 0.259000 0.264000 1600 48 1.100000 2.628000 2.995000 600 63 1.000000 0.053000 0.053000 1.200000 0.023000 0.027000
1517350751725258490	800 57 1.000000 0.259000 0.264000 1600 48 1.100000 2.631000 2.999000 600 62 1.000000 0.053000 0.053000 1.200000 0.024000 0.028000
1517350752230441907	800 57 1.000000 0.260000 0.265000 1600 48 1.100000 2.805000 3.200000 600 63 1.000000 0.053000 0.053000 1.200000 0.027000 0.032000
1517350752735557365	800 57 1.000000 0.259000 0.264000 1600 48 1.100000 2.627000 2.994000 600 62 1.000000 0.053000 0.053000 1.200000 0.023000 0.027000
1517350753240951990	800 57 1.000000 0.259000 0.264000 1600 48 1.100000 2.611000 2.976000 600 63 1.000000 0.053000 0.053000 1.200000 0.024000 0.028000
1517350753746379115	800 57 1.000000 0.258000 0.263000 1600 48 1.100000 2.721000 3.101000 600 63 1.000000 0.053000 0.053000 1.200000 0.029000 0.035000
1517350754251617532	800 57 1.000000 0.258000 0.263000 1600 48 1.100000 2.619000 2.985000 600 63 1.000000 0.053000 0.053000 1.200000 0.024000 0.028000
1517350754756763865	800 57 1.000000 0.259000 0.264000 1600 48 1.100000 2.636000 3.005000 600 63 1.000000 0.053000 0.053000 1.200000 0.023000 0.027000
1517350755262131740	800 57 1.000000 0.259000 0.264000 1600 48 1.100000 2.637000 3.006000 600 63 1.000000 0.053000 0.053000 1.200000 0.024000 0.028000
1517350755767299657	800 57 1.000000 0.259000 0.264000 1600 48 1.100000 2.697000 3.074000 600 63 1.000000 0.053000 0.053000 1.200000 0.028000 0.033000
1517350756272643616	800 57 1.000000 0.259000 0.264000 1600 48 1.100000 2.645000 3.015000 600 63 1.000000 0.053000 0.053000 1.200000 0.024000 0.028000
1517350756777808407	800 57 1.000000 0.259000 0.264000 1600 48 1.100000 2.626000 2.993000 600 63 1.000000 0.053000 0.053000 1.200000 0.024000 0.028000
1517350757283121241	800 57 1.000000 0.259000 0.264000 1600 48 1.100000 2.646000 3.016000 600 63 1.000000 0.053000 0.053000 1.200000 0.024000 0.028000
1517350757788364116	800 57 1.000000 0.259000 0.264000 1600 48 1.100000 2.625000 2.992000 600 63 1.000000 0.053000 0.053000 1.200000 0.025000 0.030000
1517350758293640449	800 57 1.000000 0.259000 0.264000 1600 48 1.100000 2.626000 2.993000 600 63 1.000000 0.053000 0.053000 1.200000 0.024000 0.028000
1517350758799124699	800 57 1.000000 0.259000 0.264000 1600 48 1.100000 2.621000 2.987000 600 63 1.000000 0.053000 0.053000 1.200000 0.023000 0.027000
1517350759304774033	800 57 1.000000 0.259000 0.264000 1600 48 1.100000 2.627000 2.994000 600 63 1.000000 0.053000 0.053000 1.200000 0.024000 0.028000
1517350759810123824	800 57 1.000000 0.259000 0.264000 1600 48 1.100000 2.736000 3.119000 600 63 1.000000 0.053000 0.053000 1.200000 0.028000 0.033000
1517350760322141741	800 57 1.000000 0.259000 0.264000 1600 48 1.100000 2.628000 2.995000 600 63 1.000000 0.053000 0.053000 1.200000 0.024000 0.028000
1517350760827408033	800 57 1.000000 0.259000 0.264000 1600 48 1.100000 2.795000 3.189000 600 63 1.000000 0.053000 0.053000 1.200000 0.029000 0.035000
1517350761335287283	800 57 1.000000 0.259000 0.264000 1600 48 1.100000 2.631000 2.999000 600 63 1.000000 0.053000 0.053000 1.200000 0.023000 0.027000
1517350761840764158	800 57 1.000000 0.259000 0.264000 1600 48 1.100000 2.723000 3.104000 600 63 1.000000 0.053000 0.053000 1.200000 0.028000 0.033000
1517350762354809575	800 57 1.000000 0.259000 0.264000 1600 48 1.100000 2.629000 2.997000 600 63 1.000000 0.053000 0.053000 1.200000 0.023000 0.027000
1517350762860210450	800 57 1.000000 0.259000 0.264000 1600 48 1.100000 2.765000 3.152000 600 63 1.000000 0.053000 0.053000 1.200000 0.029000 0.035000
1517350763376854325	800 57 1.000000 0.259000 0.264000 1600 48 1.100000 2.622000 2.989000 600 63 1.000000 0.053000 0.053000 1.200000 0.024000 0.028000
1517350763882286408	800 57 1.000000 0.259000 0.264000 1600 48 1.100000 2.626000 2.993000 600 63 1.000000 0.053000 0.053000 1.200000 0.025000 0.030000
1517350764387523575	800 57 1.000000 0.259000 0.264000 1600 48 1.100000 2.623000 2.990000 600 63 1.000000 0.053000 0.053000 1.200000 0.023000 0.027000
1517350764892822242	800 57 1.000000 0.260000 0.265000 1600 48 1.100000 2.711000 3.090000 600 63 1.000000 0.053000 0.053000 1.200000 0.027000 0.032000
1517350765417630325	800 57 1.000000 0.259000 0.264000 1600 48 1.100000 2.624000 2.991000 600 63 1.000000 0.053000 0.053000 1.200000 0.023000 0.027000
1517350765924349117	800 57 1.000000 0.259000 0.264000 1600 48 1.100000 2.623000 2.990000 600 63 1.000000 0.053000 0.053000 1.200000 0.023000 0.027000
1517350766429450825	800 57 1.000000 0.259000 0.264000 1600 48 1.100000 2.627000 2.994000 600 63 1.000000 0.053000 0.053000 1.200000 0.023000 0.027000
1517350766934722492	800 57 1.000000 0.259000 0.264000 1600 49 1.100000 2.766000 3.153000 600 63 1.000000 0.053000 0.053000 1.200000 0.025000 0.030000
1517350767453782784	800 57 1.000000 0.259000 0.264000 1600 49 1.100000 2.626000 2.993000 600 63 1.000000 0.053000 0.053000 1.200000 0.023000 0.027000
1517350767961581242	800 57 1.000000 0.259000 0.264000 1600 49 1.100000 2.718000 3.098000 600 63 1.000000 0.053000 0.053000 1.200000 0.028000 0.033000
1517350768466903575	800 57 1.000000 0.259000 0.264000 1600 49 1.100000 2.636000 3.005000 600 63 1.000000 0.053000 0.053000 1.200000 0.024000 0.028000
1517350768972478617	800 57 1.000000 0.260000 0.265000 1600 49 1.100000 2.799000 3.193000 600 63 1.000000 0.053000 0.053000 1.200000 0.026000 0.031000
1517350769497816617	800 57 1.000000 0.259000 0.264000 1600 49 1.100000 2.624000 2.991000 600 63 1.000000 0.053000 0.053000 1.200000 0.024000 0.028000
1517350770003364409	800 57 1.000000 0.259000 0.264000 1600 49 1.100000 2.630000 2.998000 600 63 1.000000 0.053000 0.053000 1.200000 0.027000 0.032000
1517350770508577826	800 57 1.000000 0.259000 0.264000 1600 49 1.100000 2.623000 2.990000 600 63 1.000000 0.053000 0.053000 1.200000 0.023000 0.027000
1517350771013927451	800 57 1.000000 0.259000 0.264000 1600 49 1.100000 2.802000 3.197000 600 63 1.000000 0.053000 0.053000 1.200000 0.026000 0.031000
1517350771525856367	800 57 1.000000 0.259000 0.264000 1600 49 1.100000 2.626000 2.993000 600 63 1.000000 0.053000 0.053000 1.200000 0.023000 0.027000
1517350772037307159	800 57 1.000000 0.259000 0.264000 1600 49 1.100000 2.624000 2.991000 600 63 1.000000 0.053000 0.053000 1.200000 0.024000 0.028000
1517350772542574076	800 57 1.000000 0.259000 0.264000 1600 49 1.100000 2.624000 2.991000 600 63 1.000000 0.053000 0.053000 1.200000 0.023000 0.027000
1517350773048054451	800 58 1.000000 0.259000 0.264000 1600 49 1.100000 2.800000 3.192000 600 63 1.000000 0.053000 0.053000 1.200000 0.027000 0.032000
1517350773553465159	800 57 1.000000 0.259000 0.264000 1600 49 1.100000 2.631000 2.999000 600 63 1.000000 0.053000 0.053000 1.200000 0.024000 0.028000
1517350774058777993	800 57 1.000000 0.259000 0.264000 1600 49 1.100000 2.720000 3.100000 600 63 1.000000 0.053000 0.053000 1.200000 0.031000 0.037000
1517350774564152368	800 57 1.000000 0.259000 0.264000 1600 49 1.100000 2.632000 3.000000 600 63 1.000000 0.053000 0.053000 1.200000 0.023000 0.027000
1517350775069519826	800 58 1.000000 0.259000 0.264000 1600 49 1.100000 2.624000 2.991000 600 63 1.000000 0.053000 0.053000 1.200000 0.024000 0.028000
1517350775574829201	800 57 1.000000 0.259000 0.264000 1600 49 1.100000 2.632000 3.000000 600 63 1.000000 0.053000 0.053000 1.200000 0.023000 0.027000
1517350776080197826	800 57 1.000000 0.259000 0.264000 1600 49 1.100000 2.633000 3.001000 600 63 1.000000 0.053000 0.053000 1.200000 0.028000 0.033000
1517350776585415660	800 57 1.000000 0.259000 0.264000 1600 49 1.100000 2.625000 2.992000 600 63 1.000000 0.053000 0.053000 1.200000 0.023000 0.027000
1517350777099134743	800 57 1.000000 0.259000 0.264000 1600 49 1.100000 2.625000 2.992000 600 63 1.000000 0.053000 0.053000 1.200000 0.023000 0.027000
1517350777605349701	800 57 1.000000 0.259000 0.264000 1600 49 1.100000 2.632000 3.000000 600 63 1.000000 0.053000 0.053000 1.200000 0.024000 0.028000
1517350778110814660	800 57 1.000000 0.259000 0.264000 1600 49 1.100000 2.635000 3.003000 600 63 1.000000 0.053000 0.053000 1.200000 0.024000 0.028000
1517350778616114160	800 58 1.000000 0.259000 0.264000 1600 49 1.100000 2.626000 2.993000 600 63 1.000000 0.053000 0.053000 1.200000 0.023000 0.027000
1517350779121477743	800 57 1.000000 0.259000 0.264000 1600 49 1.100000 2.628000 2.995000 600 63 1.000000 0.053000 0.053000 1.200000 0.024000 0.028000
1517350779626721660	800 57 1.000000 0.260000 0.265000 1600 49 1.100000 2.823000 3.221000 600 63 1.000000 0.053000 0.053000 1.200000 0.027000 0.032000
1517350780132109577	800 57 1.000000 0.259000 0.264000 1600 49 1.100000 2.718000 3.098000 600 63 1.000000 0.053000 0.053000 1.200000 0.027000 0.032000
1517350780637397743	800 58 1.000000 0.259000 0.264000 1600 49 1.100000 2.648000 3.018000 600 63 1.000000 0.053000 0.053000 1.200000 0.024000 0.028000
1517350781142529202	800 57 1.000000 0.260000 0.265000 1600 49 1.100000 2.632000 3.000000 600 63 1.000000 0.053000 0.053000 1.200000 0.024000 0.028000
1517350781648116244	800 58 1.000000 0.260000 0.265000 1600 49 1.100000 2.639000 3.008000 600 63 1.000000 0.053000 0.053000 1.200000 0.028000 0.033000
1517350782153423660	800 58 1.000000 0.259000 0.264000 1600 49 1.100000 2.696000 3.073000 600 63 1.000000 0.053000 0.053000 1.200000 0.026000 0.031000
1517350782658655702	800 57 1.000000 0.260000 0.265000 1600 49 1.100000 2.630000 2.998000 600 63 1.000000 0.053000 0.053000 1.200000 0.023000 0.027000
1517350783164039869	800 58 1.000000 0.259000 0.264000 1600 49 1.100000 2.649000 3.019000 600 63 1.000000 0.053000 0.053000 1.200000 0.024000 0.028000
1517350783669255536	800 58 1.000000 0.259000 0.264000 1600 49 1.100000 2.630000 2.998000 600 63 1.000000 0.053000 0.053000 1.200000 0.026000 0.031000
1517350784174920869	800 58 1.000000 0.259000 0.264000 1600 49 1.100000 2.736000 3.119000 600 63 1.000000 0.053000 0.053000 1.200000 0.023000 0.027000
1517350784680430911	800 58 1.000000 0.260000 0.265000 1600 49 1.100000 2.636000 3.005000 600 63 1.000000 0.053000 0.053000 1.200000 0.023000 0.027000
1517350785185701036	800 58 1.000000 0.259000 0.264000 1600 49 1.100000 2.639000 3.008000 600 63 1.000000 0.053000 0.053000 1.200000 0.023000 0.027000
1517350785690852661	800 58 1.000000 0.260000 0.265000 1600 49 1.100000 2.639000 3.008000 600 63 1.000000 0.053000 0.053000 1.200000 0.024000 0.028000
1517350786196426911	800 58 1.000000 0.259000 0.264000 1600 49 1.100000 2.774000 3.162000 600 63 1.000000 0.053000 0.053000 1.200000 0.027000 0.032000
1517350786701689744	800 57 1.000000 0.259000 0.264000 1600 49 1.100000 2.646000 3.016000 600 63 1.000000 0.053000 0.053000 1.200000 0.023000 0.027000
1517350787207050703	800 58 1.000000 0.259000 0.264000 1600 49 1.100000 2.628000 2.995000 600 63 1.000000 0.053000 0.053000 1.200000 0.023000 0.027000
1517350787712203828	800 58 1.000000 0.259000 0.264000 1600 49 1.100000 2.643000 3.013000 600 63 1.000000 0.053000 0.053000 1.200000 0.023000 0.027000
1517350788217716994	800 58 1.000000 0.259000 0.264000 1600 49 1.100000 2.779000 3.170000 600 63 1.000000 0.053000 0.053000 1.200000 0.027000 0.032000
1517350788723093911	800 58 1.000000 0.259000 0.264000 1600 49 1.100000 2.634000 3.002000 600 63 1.000000 0.053000 0.053000 1.200000 0.023000 0.027000
1517350789228395578	800 58 1.000000 0.259000 0.264000 1600 49 1.100000 2.644000 3.014000 600 63 1.000000 0.053000 0.053000 1.200000 0.024000 0.028000
1517350789740160995	800 58 1.000000 0.259000 0.264000 1600 49 1.100000 2.627000 2.994000 600 63 1.000000 0.053000 0.053000 1.200000 0.024000 0.028000
1517350790248070911	800 58 1.000000 0.260000 0.265000 1600 49 1.100000 2.780000 3.171000 600 63 1.000000 0.053000 0.053000 1.200000 0.032000 0.038000
1517350790753462245	800 58 1.000000 0.259000 0.264000 1600 49 1.100000 2.630000 2.998000 600 63 1.000000 0.053000 0.053000 1.200000 0.024000 0.028000
1517350791258779245	800 58 1.000000 0.259000 0.264000 1600 49 1.100000 2.625000 2.992000 600 63 1.000000 0.053000 0.053000 1.200000 0.024000 0.028000
1517350791764035870	800 58 1.000000 0.259000 0.264000 1600 49 1.100000 2.639000 3.008000 600 63 1.000000 0.053000 0.053000 1.200000 0.023000 0.027000
1517350792269338745	800 58 1.000000 0.260000 0.265000 1600 49 1.100000 2.776000 3.164000 600 64 1.000000 0.053000 0.053000 1.200000 0.025000 0.030000
1517350792774712537	800 58 1.000000 0.259000 0.264000 1600 49 1.100000 2.632000 3.000000 600 63 1.000000 0.053000 0.053000 1.200000 0.023000 0.027000
1517350793280021912	800 58 1.000000 0.259000 0.264000 1600 49 1.100000 2.645000 3.015000 600 63 1.000000 0.053000 0.053000 1.200000 0.024000 0.028000
1517350793785214870	800 58 1.000000 0.259000 0.264000 1600 49 1.100000 2.627000 2.994000 600 63 1.000000 0.053000 0.053000 1.200000 0.023000 0.027000
1517350794290685120	800 58 1.000000 0.259000 0.264000 1600 49 1.100000 2.827000 3.225000 600 64 1.000000 0.053000 0.053000 1.200000 0.027000 0.032000
1517350794796218037	800 58 1.000000 0.259000 0.264000 1600 49 1.100000 2.635000 3.003000 600 63 1.000000 0.053000 0.053000 1.200000 0.024000 0.028000
1517350795301417745	800 58 1.000000 0.259000 0.264000 1600 49 1.100000 2.644000 3.014000 600 63 1.000000 0.053000 0.053000 1.200000 0.024000 0.028000
1517350795806677329	800 58 1.000000 0.259000 0.264000 1600 49 1.100000 2.631000 2.999000 600 63 1.000000 0.053000 0.053000 1.200000 0.024000 0.028000
1517350796312075995	800 58 1.000000 0.260000 0.265000 1600 49 1.100000 2.873000 3.278000 600 64 1.000000 0.053000 0.053000 1.200000 0.027000 0.032000
1517350796817336620	800 58 1.000000 0.259000 0.264000 1600 49 1.100000 2.631000 2.999000 600 63 1.000000 0.053000 0.053000 1.200000 0.025000 0.030000
1517350797322508329	800 58 1.000000 0.259000 0.264000 1600 49 1.100000 2.631000 2.999000 600 64 1.000000 0.053000 0.053000 1.200000 0.023000 0.027000
1517350797827481204	800 58 1.000000 0.259000 0.264000 1600 49 1.100000 2.646000 3.016000 600 63 1.000000 0.053000 0.053000 1.200000 0.024000 0.028000
1517350798332799787	800 58 1.000000 0.259000 0.264000 1600 49 1.100000 2.640000 3.009000 600 64 1.000000 0.053000 0.053000 1.200000 0.024000 0.028000
1517350798837961579	800 58 1.000000 0.259000 0.264000 1600 49 1.100000 2.639000 3.008000 600 64 1.000000 0.053000 0.053000 1.200000 0.027000 0.032000
1517350799343207579	800 58 1.000000 0.259000 0.264000 1600 49 1.100000 2.650000 3.021000 600 63 1.000000 0.053000 0.053000 1.200000 0.025000 0.030000
1517350799848560246	800 58 1.000000 0.259000 0.264000 1600 49 1.100000 2.633000 3.001000 600 63 1.000000 0.053000 0.053000 1.200000 0.024000 0.028000
1517350800353690662	800 58 1.000000 0.259000 0.264000 1600 49 1.100000 2.650000 3.021000 600 64 1.000000 0.053000 0.053000 1.200000 0.025000 0.030000
1517350800858954204	800 58 1.000000 0.259000 0.264000 1600 49 1.100000 2.637000 3.006000 600 64 1.000000 0.053000 0.053000 1.200000 0.025000 0.030000
1517350801364319704	800 58 1.000000 0.259000 0.264000 1600 49 1.100000 2.629000 2.997000 600 64 1.000000 0.053000 0.053000 1.200000 0.024000 0.028000
1517350801869522163	800 58 1.000000 0.259000 0.264000 1600 49 1.100000 2.631000 2.999000 600 64 1.000000 0.053000 0.053000 1.200000 0.024000 0.028000
1517350802384044663	800 58 1.000000 0.259000 0.264000 1600 49 1.100000 2.720000 3.100000 600 64 1.000000 0.053000 0.053000 1.200000 0.023000 0.027000
1517350802889443163	800 58 1.000000 0.260000 0.265000 1600 49 1.100000 2.630000 2.998000 600 64 1.000000 0.053000 0.053000 1.200000 0.025000 0.030000
1517350803395021955	800 58 1.000000 0.259000 0.264000 1600 49 1.100000 2.631000 2.999000 600 63 1.000000 0.053000 0.053000 1.200000 0.024000 0.028000
1517350803900295580	800 58 1.000000 0.259000 0.264000 1600 49 1.100000 2.653000 3.024000 600 63 1.000000 0.053000 0.053000 1.200000 0.024000 0.028000
1517350804405643788	800 58 1.000000 0.259000 0.264000 1600 49 1.100000 2.650000 3.021000 600 63 1.000000 0.053000 0.053000 1.200000 0.024000 0.028000
1517350804911106413	800 58 1.000000 0.259000 0.264000 1600 49 1.100000 2.813000 3.209000 600 64 1.000000 0.053000 0.053000 1.200000 0.028000 0.033000
1517350805416273288	800 58 1.000000 0.259000 0.264000 1600 49 1.100000 2.640000 3.009000 600 64 1.000000 0.053000 0.053000 1.200000 0.024000 0.028000
1517350805921382163	800 58 1.000000 0.259000 0.264000 1600 49 1.100000 2.650000 3.021000 600 64 1.000000 0.053000 0.053000 1.200000 0.024000 0.028000
1517350806426841247	800 58 1.000000 0.259000 0.264000 1600 49 1.100000 2.635000 3.003000 600 63 1.000000 0.053000 0.053000 1.200000 0.024000 0.028000
1517350806932241997	800 58 1.000000 0.259000 0.264000 1600 49 1.100000 2.813000 3.209000 600 64 1.000000 0.053000 0.053000 1.200000 0.028000 0.033000
1517350807437357830	800 58 1.000000 0.259000 0.264000 1600 49 1.100000 2.633000 3.001000 600 64 1.000000 0.053000 0.053000 1.200000 0.024000 0.028000
1517350807942585788	800 58 1.000000 0.259000 0.264000 1600 49 1.100000 2.633000 3.001000 600 64 1.000000 0.053000 0.053000 1.200000 0.024000 0.028000
1517350808447824288	800 58 1.000000 0.259000 0.264000 1600 49 1.100000 2.719000 3.099000 600 64 1.000000 0.053000 0.053000 1.200000 0.024000 0.028000
1517350808953225289	800 58 1.000000 0.259000 0.264000 1600 49 1.100000 2.801000 3.195000 600 64 1.000000 0.053000 0.053000 1.200000 0.028000 0.033000
1517350809458353955	800 58 1.000000 0.259000 0.264000 1600 49 1.100000 2.636000 3.005000 600 64 1.000000 0.053000 0.053000 1.200000 0.023000 0.027000
1517350809963501830	800 58 1.000000 0.259000 0.264000 1600 49 1.100000 2.641000 3.010000 600 64 1.000000 0.053000 0.053000 1.200000 0.024000 0.028000
1517350810468935705	800 58 1.000000 0.259000 0.264000 1600 49 1.100000 2.646000 3.016000 600 64 1.000000 0.053000 0.053000 1.200000 0.024000 0.028000
1517350810974266997	800 58 1.000000 0.259000 0.264000 1600 49 1.100000 2.638000 3.007000 600 64 1.000000 0.053000 0.053000 1.200000 0.024000 0.028000
1517350811479461997	800 58 1.000000 0.259000 0.264000 1600 49 1.100000 2.632000 3.000000 600 64 1.000000 0.053000 0.053000 1.200000 0.024000 0.028000
1517350811984572747	800 58 1.000000 0.259000 0.264000 1600 49 1.100000 2.632000 2.995000 600 64 1.000000 0.053000 0.053000 1.200000 0.024000 0.028000
1517350812489836539	800 58 1.000000 0.260000 0.265000 1600 49 1.100000 2.633000 3.001000 600 64 1.000000 0.053000 0.053000 1.200000 0.024000 0.028000
1517350812994997997	800 58 1.000000 0.259000 0.264000 1600 49 1.100000 2.630000 2.992000 600 64 1.000000 0.053000 0.053000 1.200000 0.024000 0.028000
1517350813500219122	800 58 1.000000 0.260000 0.265000 1600 49 1.100000 2.632000 3.000000 600 64 1.000000 0.053000 0.053000 1.200000 0.023000 0.027000
1517350814005309622	800 58 1.000000 0.259000 0.264000 1600 49 1.100000 2.634000 3.002000 600 64 1.000000 0.053000 0.053000 1.200000 0.023000 0.027000
1517350814510557498	800 58 1.000000 0.259000 0.264000 1600 49 1.100000 2.701000 3.079000 600 64 1.000000 0.053000 0.053000 1.200000 0.024000 0.028000
1517350815024690164	800 58 1.000000 0.259000 0.264000 1600 49 1.100000 2.662000 3.034000 600 64 1.000000 0.053000 0.053000 1.200000 0.024000 0.028000
1517350815530673914	800 58 1.000000 0.260000 0.265000 1600 49 1.100000 2.629000 2.991000 600 64 1.000000 0.053000 0.053000 1.200000 0.023000 0.027000
1517350816035833956	800 58 1.000000 0.259000 0.264000 1600 49 1.100000 2.653000 3.024000 600 64 1.000000 0.053000 0.053000 1.200000 0.023000 0.027000
1517350816541257123	800 58 1.000000 0.260000 0.265000 1600 49 1.100000 2.633000 3.001000 600 64 1.000000 0.053000 0.053000 1.200000 0.024000 0.028000
1517350817046482664	800 58 1.000000 0.259000 0.264000 1600 49 1.100000 2.728000 3.109000 600 64 1.000000 0.053000 0.053000 1.200000 0.025000 0.030000
1517350817551782040	800 58 1.000000 0.260000 0.265000 1600 49 1.100000 2.694000 3.071000 600 64 1.000000 0.053000 0.053000 1.200000 0.029000 0.035000
1517350818057039665	800 58 1.000000 0.259000 0.264000 1600 49 1.100000 2.634000 3.002000 600 64 1.000000 0.053000 0.053000 1.200000 0.024000 0.028000
1517350818562298873	800 58 1.000000 0.259000 0.264000 1600 49 1.100000 2.653000 3.024000 600 64 1.000000 0.053000 0.053000 1.200000 0.023000 0.027000
1517350819067453165	800 58 1.000000 0.260000 0.265000 1600 49 1.100000 2.712000 3.091000 600 64 1.000000 0.053000 0.053000 1.200000 0.024000 0.028000
1517350819572777873	800 58 1.000000 0.261000 0.266000 1600 49 1.100000 2.749000 3.133000 600 64 1.000000 0.053000 0.053000 1.200000 0.028000 0.033000
1517350820077928457	800 58 1.000000 0.259000 0.264000 1600 49 1.100000 2.630000 2.998000 600 64 1.000000 0.053000 0.053000 1.200000 0.023000 0.027000
1517350820583445540	800 58 1.000000 0.259000 0.264000 1600 49 1.100000 2.643000 3.007000 600 64 1.000000 0.053000 0.053000 1.200000 0.023000 0.027000
1517350821088811998	800 58 1.000000 0.259000 0.264000 1600 49 1.100000 2.677000 3.051000 600 64 1.000000 0.053000 0.053000 1.200000 0.024000 0.028000
1517350821594209957	800 58 1.000000 0.260000 0.265000 1600 49 1.100000 2.772000 3.160000 600 64 1.000000 0.053000 0.053000 1.200000 0.028000 0.033000
1517350822099382415	800 58 1.000000 0.259000 0.264000 1600 49 1.100000 2.674000 3.048000 600 64 1.000000 0.053000 0.053000 1.200000 0.024000 0.028000
1517350822613140832	800 58 1.000000 0.259000 0.264000 1600 49 1.100000 2.626000 2.993000 600 64 1.000000 0.053000 0.053000 1.200000 0.024000 0.028000
1517350823118353124	800 58 1.000000 0.259000 0.264000 1600 49 1.100000 2.727000 3.108000 600 64 1.000000 0.053000 0.053000 1.200000 0.025000 0.030000
1517350823623663749	800 58 1.000000 0.259000 0.264000 1600 49 1.100000 2.643000 3.013000 600 64 1.000000 0.053000 0.053000 1.200000 0.025000 0.030000
1517350824129050665	800 58 1.000000 0.259000 0.264000 1600 49 1.100000 2.639000 3.008000 600 64 1.000000 0.053000 0.053000 1.200000 0.024000 0.028000
1517350824654139207	800 58 1.000000 0.259000 0.264000 1600 49 1.100000 2.633000 3.001000 600 64 1.000000 0.053000 0.053000 1.200000 0.024000 0.028000
1517350825160994624	800 58 1.000000 0.259000 0.264000 1600 49 1.100000 2.722000 3.103000 600 64 1.000000 0.053000 0.053000 1.200000 0.024000 0.028000
1517350825666318291	800 58 1.000000 0.259000 0.264000 1600 49 1.100000 2.642000 3.011000 600 64 1.000000 0.053000 0.053000 1.200000 0.026000 0.031000
1517350826171690166	800 58 1.000000 0.259000 0.264000 1600 49 1.100000 2.638000 3.007000 600 64 1.000000 0.053000 0.053000 1.200000 0.023000 0.027000
1517350826690033874	800 58 1.000000 0.259000 0.264000 1600 49 1.100000 2.629000 2.997000 600 64 1.000000 0.053000 0.053000 1.200000 0.023000 0.027000
1517350827201387082	800 58 1.000000 0.259000 0.264000 1600 49 1.100000 2.701000 3.079000 600 64 1.000000 0.053000 0.053000 1.200000 0.023000 0.027000
1517350827706627416	800 58 1.000000 0.259000 0.264000 1600 49 1.100000 2.630000 2.998000 600 64 1.000000 0.053000 0.053000 1.200000 0.026000 0.031000
1517350828211828082	800 58 1.000000 0.259000 0.264000 1600 49 1.100000 2.626000 2.993000 600 64 1.000000 0.053000 0.053000 1.200000 0.026000 0.031000
1517350828733819874	800 58 1.000000 0.259000 0.264000 1600 49 1.100000 2.624000 2.991000 600 64 1.000000 0.053000 0.053000 1.200000 0.023000 0.027000
1517350829239463499	800 58 1.000000 0.259000 0.264000 1600 49 1.100000 2.628000 2.995000 600 64 1.000000 0.053000 0.053000 1.200000 0.023000 0.027000
1517350829749698333	800 58 1.000000 0.259000 0.264000 1600 49 1.100000 2.633000 3.001000 600 64 1.000000 0.053000 0.053000 1.200000 0.024000 0.028000
1517350830257237499	800 58 1.000000 0.259000 0.264000 1600 49 1.100000 2.815000 3.211000 600 64 1.000000 0.053000 0.053000 1.200000 0.028000 0.033000
1517350830777756249	800 58 1.000000 0.259000 0.264000 1600 49 1.100000 2.624000 2.991000 600 64 1.000000 0.053000 0.053000 1.200000 0.024000 0.028000
1517350831283292666	800 58 1.000000 0.259000 0.264000 1600 49 1.100000 2.722000 3.103000 600 64 1.000000 0.053000 0.053000 1.200000 0.029000 0.035000
1517350831789589833	800 58 1.000000 0.259000 0.264000 1600 49 1.100000 2.629000 2.997000 600 64 1.000000 0.053000 0.053000 1.200000 0.024000 0.028000
1517350832295104375	800 58 1.000000 0.260000 0.265000 1600 49 1.100000 2.813000 3.209000 600 64 1.000000 0.053000 0.053000 1.200000 0.029000 0.035000
1517350832809828791	800 58 1.000000 0.259000 0.264000 1600 49 1.100000 2.632000 3.000000 600 64 1.000000 0.053000 0.053000 1.200000 0.024000 0.028000
1517350833315362083	800 58 1.000000 0.259000 0.264000 1600 49 1.100000 2.721000 3.101000 600 64 1.000000 0.053000 0.053000 1.200000 0.028000 0.033000
1517350833820810791	800 58 1.000000 0.259000 0.264000 1600 49 1.100000 2.631000 2.999000 600 64 1.000000 0.053000 0.053000 1.200000 0.024000 0.028000
1517350834326294708	800 58 1.000000 0.259000 0.263000 1600 49 1.100000 2.799000 3.193000 600 64 1.000000 0.053000 0.053000 1.200000 0.029000 0.035000
1517350834831538292	800 58 1.000000 0.259000 0.264000 1600 49 1.100000 2.624000 2.991000 600 64 1.000000 0.053000 0.053000 1.200000 0.024000 0.028000
1517350835337060833	800 58 1.000000 0.259000 0.264000 1600 49 1.100000 2.626000 2.993000 600 64 1.000000 0.053000 0.053000 1.200000 0.028000 0.033000
1517350835842418875	800 58 1.000000 0.259000 0.264000 1600 49 1.100000 2.622000 2.989000 600 64 1.000000 0.053000 0.053000 1.200000 0.023000 0.027000
1517350836347742083	800 58 1.000000 0.259000 0.264000 1600 49 1.100000 2.639000 3.008000 600 64 1.000000 0.053000 0.053000 1.200000 0.024000 0.028000
1517350836852918625	800 58 1.000000 0.259000 0.264000 1600 49 1.100000 2.633000 3.001000 600 64 1.000000 0.053000 0.053000 1.200000 0.023000 0.027000
1517350837358476500	800 58 1.000000 0.259000 0.264000 1600 49 1.100000 2.716000 3.096000 600 64 1.000000 0.053000 0.053000 1.200000 0.029000 0.035000
1517350837864019125	800 58 1.000000 0.259000 0.264000 1600 49 1.100000 2.642000 3.011000 600 64 1.000000 0.053000 0.053000 1.200000 0.024000 0.028000
1517350838369222875	800 58 1.000000 0.259000 0.264000 1600 49 1.100000 2.624000 2.991000 600 64 1.000000 0.053000 0.053000 1.200000 0.024000 0.028000
1517350838874514042	800 58 1.000000 0.259000 0.264000 1600 49 1.100000 2.644000 3.014000 600 64 1.000000 0.053000 0.053000 1.200000 0.024000 0.028000
1517350839380079917	800 58 1.000000 0.259000 0.264000 1600 49 1.100000 2.705000 3.083000 600 64 1.000000 0.053000 0.053000 1.200000 0.028000 0.033000
1517350839885361167	800 58 1.000000 0.259000 0.264000 1600 49 1.100000 2.623000 2.990000 600 64 1.000000 0.053000 0.053000 1.200000 0.025000 0.030000
1517350840390596542	800 58 1.000000 0.259000 0.264000 1600 49 1.100000 2.661000 3.033000 600 64 1.000000 0.053000 0.053000 1.200000 0.023000 0.027000
1517350840895969792	800 58 1.000000 0.259000 0.264000 1600 49 1.100000 2.624000 2.991000 600 64 1.000000 0.053000 0.053000 1.200000 0.023000 0.027000
1517350841401401626	800 58 1.000000 0.259000 0.264000 1600 49 1.100000 2.626000 2.993000 600 64 1.000000 0.053000 0.053000 1.200000 0.028000 0.033000
1517350841906783334	800 58 1.000000 0.259000 0.264000 1600 49 1.100000 2.621000 2.987000 600 64 1.000000 0.053000 0.053000 1.200000 0.023000 0.027000
1517350842412058084	800 58 1.000000 0.259000 0.264000 1600 49 1.100000 2.642000 3.011000 600 64 1.000000 0.053000 0.053000 1.200000 0.024000 0.028000
1517350842917284543	800 58 1.000000 0.259000 0.264000 1600 49 1.100000 2.733000 3.115000 600 64 1.000000 0.053000 0.053000 1.200000 0.028000 0.033000
1517350843422831876	800 58 1.000000 0.259000 0.264000 1600 49 1.100000 2.713000 3.092000 600 64 1.000000 0.053000 0.053000 1.200000 0.028000 0.033000
1517350843928222293	800 58 1.000000 0.259000 0.264000 1600 49 1.100000 2.638000 3.007000 600 64 1.000000 0.053000 0.053000 1.200000 0.023000 0.027000
1517350844439240293	800 58 1.000000 0.259000 0.264000 1600 49 1.100000 2.623000 2.990000 600 64 1.000000 0.053000 0.053000 1.200000 0.024000 0.028000
1517350844947199084	800 58 1.000000 0.259000 0.264000 1600 49 1.100000 2.690000 3.066000 600 64 1.000000 0.053000 0.053000 1.200000 0.029000 0.035000
1517350845452640918	800 58 1.000000 0.259000 0.264000 1600 49 1.100000 2.708000 3.087000 600 64 1.000000 0.053000 0.053000 1.200000 0.027000 0.032000
1517350845957886626	800 58 1.000000 0.259000 0.264000 1600 49 1.100000 2.624000 2.986000 600 64 1.000000 0.053000 0.053000 1.200000 0.024000 0.028000
1517350846463282460	800 58 1.000000 0.259000 0.264000 1600 49 1.100000 2.622000 2.983000 600 64 1.000000 0.053000 0.053000 1.200000 0.023000 0.027000
1517350846968634126	800 58 1.000000 0.260000 0.265000 1600 49 1.100000 2.655000 3.026000 600 64 1.000000 0.053000 0.053000 1.200000 0.028000 0.033000
1517350847473982251	800 58 1.000000 0.259000 0.264000 1600 49 1.100000 2.626000 2.993000 600 64 1.000000 0.053000 0.053000 1.200000 0.027000 0.032000
1517350847979286960	800 58 1.000000 0.259000 0.264000 1600 49 1.100000 2.624000 2.991000 600 64 1.000000 0.053000 0.053000 1.200000 0.023000 0.027000
1517350848484486960	800 58 1.000000 0.259000 0.264000 1600 49 1.100000 2.625000 2.992000 600 64 1.000000 0.053000 0.053000 1.200000 0.024000 0.028000
1517350848989722960	800 58 1.000000 0.259000 0.264000 1600 49 1.100000 2.820000 3.214000 600 64 1.000000 0.053000 0.053000 1.200000 0.024000 0.028000
1517350849495176502	800 58 1.000000 0.259000 0.264000 1600 49 1.100000 2.718000 3.098000 600 64 1.000000 0.053000 0.053000 1.200000 0.027000 0.032000
1517350850000646710	800 58 1.000000 0.259000 0.264000 1600 49 1.100000 2.626000 2.993000 600 64 1.000000 0.053000 0.053000 1.200000 0.023000 0.027000
1517350850505813877	800 58 1.000000 0.259000 0.264000 1600 49 1.100000 2.626000 2.993000 600 64 1.000000 0.053000 0.053000 1.200000 0.024000 0.028000
1517350851011065127	800 58 1.000000 0.260000 0.265000 1600 49 1.100000 2.801000 3.195000 600 64 1.000000 0.053000 0.053000 1.200000 0.026000 0.031000
1517350851516480669	800 58 1.000000 0.259000 0.264000 1600 50 1.100000 2.712000 3.091000 600 64 1.000000 0.053000 0.053000 1.200000 0.026000 0.031000
1517350852021730294	800 58 1.000000 0.259000 0.264000 1600 49 1.100000 2.625000 2.992000 600 64 1.000000 0.053000 0.053000 1.200000 0.023000 0.027000
1517350852527030710	800 58 1.000000 0.259000 0.264000 1600 49 1.100000 2.627000 2.994000 600 64 1.000000 0.053000 0.053000 1.200000 0.023000 0.027000
1517350853032286710	800 54 1.000000 0.259000 0.264000 1600 49 1.100000 2.636000 3.005000 600 63 1.000000 0.053000 0.053000 1.200000 0.027000 0.032000
1517350853537570627	800 49 1.000000 0.259000 0.264000 1600 47 1.100000 0.828000 0.939000 600 53 1.000000 0.053000 0.053000 1.200000 0.026000 0.031000
1517350854042648461	800 47 1.000000 0.258000 0.263000 1600 46 1.100000 0.269000 0.305000 600 50 1.000000 0.053000 0.053000 1.200000 0.023000 0.027000
1517350854548214169	800 51 1.000000 0.257000 0.262000 1600 45 1.100000 0.241000 0.274000 600 50 1.000000 0.053000 0.053000 1.200000 0.023000 0.027000
1517350855053634502	800 52 1.000000 0.038000 0.038000 1600 45 1.100000 1.196000 1.353000 600 50 1.000000 0.053000 0.053000 1.200000 0.034000 0.041000
1517350855558954252	800 46 1.000000 0.040000 0.041000 1600 44 1.100000 1.375000 1.557000 600 49 1.000000 0.053000 0.053000 1.200000 0.036000 0.043000
1517350856064162877	800 44 1.000000 0.042000 0.043000 1600 43 1.100000 0.589000 0.669000 600 47 1.000000 0.052000 0.052000 1.200000 0.030000 0.036000
