#Timestamp	CPU(0) Frequency(MHz)	CPU(0) Temperature(C)	A7 Voltage(V)	A7 Current(A)	A7 Power(W)	CPU(4) Frequency(MHz)	CPU(4) Temperature(C)	A15 Voltage(V)	A15 Current(A)	A15 Power(W)	GPU Frequency(MHz)	GPU Temperature(C)	GPU Voltage(V)	GPU Current(A)	GPU Power(W)	RAM Voltage(V)	RAM Current(A)	RAM Power(W)
1517351541762776834	1500 53 1.200000 0.149000 0.179000 2000 38 1.000000 1.109000 1.214000 600 56 1.000000 0.050000 0.050000 1.200000 0.059000 0.071000
1517351542322754918	1500 59 1.200000 0.637000 0.822000 2000 42 1.300000 4.735000 6.335000 600 64 1.000000 0.051000 0.051000 1.200000 0.024000 0.028000
1517351542886757293	1500 63 1.200000 0.640000 0.826000 2000 46 1.300000 4.784000 6.400000 600 68 1.000000 0.052000 0.052000 1.200000 0.024000 0.028000
1517351543446801001	1500 65 1.200000 0.643000 0.830000 2000 48 1.300000 4.830000 6.462000 600 71 1.000000 0.052000 0.052000 1.200000 0.025000 0.030000
1517351544014797376	1500 67 1.200000 0.644000 0.831000 2000 50 1.300000 4.854000 6.504000 600 74 1.000000 0.053000 0.053000 1.200000 0.027000 0.032000
1517351544562768251	1500 70 1.200000 0.647000 0.835000 2000 52 1.300000 4.878000 6.526000 600 76 1.000000 0.053000 0.053000 1.200000 0.032000 0.038000
1517351545118784960	1500 71 1.200000 0.648000 0.836000 2000 54 1.300000 4.911000 6.580000 600 78 1.000000 0.053000 0.053000 1.200000 0.025000 0.030000
1517351545670835001	1500 72 1.200000 0.650000 0.839000 2000 55 1.300000 4.939000 6.618000 600 79 1.000000 0.054000 0.054000 1.200000 0.025000 0.030000
1517351546218826918	1500 74 1.200000 0.651000 0.840000 2000 56 1.300000 4.958000 6.643000 600 80 1.000000 0.054000 0.054000 1.200000 0.025000 0.030000
1517351546790940293	1500 75 1.200000 0.653000 0.843000 2000 57 1.300000 4.969000 6.658000 600 81 1.000000 0.055000 0.055000 1.200000 0.026000 0.031000
1517351547334764002	1500 76 1.200000 0.655000 0.845000 2000 58 1.300000 4.991000 6.687000 600 82 1.000000 0.055000 0.055000 1.200000 0.027000 0.032000
1517351547906761002	1500 77 1.200000 0.655000 0.845000 2000 59 1.300000 5.016000 6.721000 600 83 1.000000 0.055000 0.055000 1.200000 0.028000 0.033000
1517351548458789418	1500 78 1.200000 0.656000 0.846000 2000 60 1.300000 5.029000 6.743000 600 84 1.000000 0.055000 0.055000 1.200000 0.024000 0.028000
1517351549014773085	1500 78 1.200000 0.658000 0.849000 2000 60 1.300000 5.047000 6.768000 600 85 1.000000 0.055000 0.055000 1.200000 0.025000 0.030000
1517351549582760793	1500 77 1.200000 0.658000 0.849000 2000 60 1.300000 4.872000 6.431000 600 84 1.000000 0.055000 0.055000 1.200000 0.026000 0.031000
1517351550130793544	1500 77 1.200000 0.657000 0.848000 1900 61 1.300000 5.012000 6.721000 600 84 1.000000 0.055000 0.055000 1.200000 0.035000 0.042000
1517351550682779377	1500 77 1.200000 0.659000 0.850000 1900 61 1.300000 4.646000 6.049000 600 83 1.000000 0.056000 0.056000 1.200000 0.025000 0.030000
1517351551238798460	1500 76 1.200000 0.659000 0.850000 1800 61 1.300000 4.676000 6.092000 600 82 1.000000 0.056000 0.056000 1.200000 0.025000 0.030000
1517351551803025377	1500 76 1.200000 0.658000 0.849000 1900 61 1.200000 4.111000 5.122000 600 82 1.000000 0.056000 0.056000 1.200000 0.027000 0.032000
1517351552358813460	1500 76 1.200000 0.658000 0.849000 1900 61 1.200000 4.377000 5.580000 600 82 1.000000 0.056000 0.056000 1.200000 0.027000 0.032000
1517351552914790377	1500 76 1.200000 0.659000 0.850000 1900 61 1.200000 4.378000 5.581000 600 82 1.000000 0.055000 0.055000 1.200000 0.025000 0.030000
1517351553478810252	1500 76 1.200000 0.657000 0.848000 1900 61 1.200000 4.371000 5.573000 600 82 1.000000 0.056000 0.056000 1.200000 0.024000 0.028000
1517351554030810627	1500 76 1.200000 0.656000 0.846000 1900 61 1.200000 4.383000 5.588000 600 82 1.000000 0.056000 0.056000 1.200000 0.024000 0.028000
1517351554586841377	1500 76 1.200000 0.659000 0.850000 1900 61 1.200000 4.384000 5.589000 600 82 1.000000 0.056000 0.056000 1.200000 0.026000 0.031000
1517351555128708377	1500 76 1.200000 0.658000 0.849000 1900 61 1.200000 4.374000 5.576000 600 82 1.000000 0.055000 0.055000 1.200000 0.024000 0.028000
1517351555674809544	1500 76 1.200000 0.656000 0.846000 1900 61 1.200000 4.380000 5.584000 600 82 1.000000 0.056000 0.056000 1.200000 0.029000 0.034000
1517351556230793628	1500 77 1.200000 0.658000 0.849000 1900 61 1.200000 4.368000 5.569000 600 82 1.000000 0.056000 0.056000 1.200000 0.028000 0.033000
1517351556778778044	1500 77 1.200000 0.659000 0.850000 1900 61 1.200000 4.391000 5.589000 600 82 1.000000 0.056000 0.056000 1.200000 0.025000 0.030000
1517351557322807711	1500 77 1.200000 0.659000 0.850000 1900 62 1.200000 4.376000 5.570000 600 82 1.000000 0.056000 0.056000 1.200000 0.024000 0.028000
1517351557872670211	1500 77 1.200000 0.657000 0.848000 1900 62 1.200000 4.387000 5.593000 600 82 1.000000 0.056000 0.056000 1.200000 0.026000 0.031000
1517351558420703045	1500 77 1.200000 0.659000 0.850000 1900 62 1.200000 4.385000 5.590000 600 83 1.000000 0.056000 0.056000 1.200000 0.032000 0.038000
1517351558978798711	1500 77 1.200000 0.661000 0.853000 1900 62 1.200000 4.384000 5.589000 600 83 1.000000 0.056000 0.056000 1.200000 0.025000 0.030000
1517351559534798711	1500 77 1.200000 0.659000 0.850000 1900 62 1.200000 4.399000 5.608000 600 83 1.000000 0.056000 0.056000 1.200000 0.025000 0.030000
1517351560098850253	1500 77 1.200000 0.657000 0.848000 1900 62 1.200000 4.398000 5.607000 600 83 1.000000 0.056000 0.056000 1.200000 0.024000 0.028000
1517351560654852545	1500 78 1.200000 0.658000 0.849000 1900 62 1.200000 4.414000 5.627000 600 83 1.000000 0.056000 0.056000 1.200000 0.028000 0.033000
1517351561214804878	1500 78 1.200000 0.661000 0.853000 1900 62 1.200000 4.415000 5.629000 600 83 1.000000 0.056000 0.056000 1.200000 0.029000 0.034000
1517351561766799712	1500 78 1.200000 0.660000 0.852000 1900 63 1.200000 4.385000 5.590000 600 83 1.000000 0.056000 0.056000 1.200000 0.027000 0.032000
1517351562314865378	1500 78 1.200000 0.658000 0.849000 1900 63 1.200000 4.411000 5.624000 600 84 1.000000 0.057000 0.057000 1.200000 0.025000 0.030000
1517351562862850253	1500 78 1.200000 0.660000 0.852000 1900 63 1.200000 4.399000 5.608000 600 84 1.000000 0.056000 0.056000 1.200000 0.025000 0.030000
1517351563418794878	1500 78 1.200000 0.661000 0.853000 1900 63 1.200000 4.419000 5.634000 600 84 1.000000 0.057000 0.057000 1.200000 0.025000 0.030000
1517351563966842212	1500 78 1.200000 0.661000 0.853000 1900 63 1.200000 4.405000 5.616000 600 84 1.000000 0.056000 0.056000 1.200000 0.025000 0.030000
1517351564526936587	1500 78 1.200000 0.659000 0.850000 1900 63 1.200000 4.412000 5.625000 600 84 1.000000 0.056000 0.056000 1.200000 0.035000 0.042000
1517351565090803004	1500 78 1.200000 0.659000 0.850000 1900 63 1.200000 4.410000 5.622000 600 84 1.000000 0.057000 0.057000 1.200000 0.030000 0.036000
1517351565658973420	1500 79 1.200000 0.662000 0.854000 1900 63 1.200000 4.411000 5.624000 600 84 1.000000 0.057000 0.057000 1.200000 0.026000 0.031000
1517351566210870879	1500 77 1.200000 0.661000 0.853000 1800 63 1.200000 4.411000 5.624000 600 83 1.000000 0.057000 0.057000 1.200000 0.027000 0.032000
1517351566758962837	1500 78 1.200000 0.659000 0.850000 1900 63 1.200000 4.023000 4.968000 600 84 1.000000 0.057000 0.057000 1.200000 0.026000 0.031000
1517351567318799879	1500 79 1.200000 0.660000 0.852000 1900 63 1.200000 4.404000 5.615000 600 84 1.000000 0.057000 0.057000 1.200000 0.032000 0.038000
1517351567866892046	1500 78 1.200000 0.662000 0.854000 1800 64 1.200000 4.395000 5.603000 600 84 1.000000 0.056000 0.056000 1.200000 0.028000 0.033000
1517351568430809587	1500 79 1.200000 0.661000 0.853000 1900 63 1.200000 4.247000 5.317000 600 84 1.000000 0.057000 0.057000 1.200000 0.025000 0.030000
1517351568978826212	1500 79 1.200000 0.660000 0.852000 1900 64 1.200000 4.407000 5.618000 600 85 1.000000 0.057000 0.057000 1.200000 0.025000 0.030000
1517351569534833796	1500 78 1.200000 0.660000 0.852000 1900 64 1.200000 4.160000 5.179000 600 84 1.000000 0.057000 0.057000 1.200000 0.026000 0.031000
1517351570102786838	1500 79 1.200000 0.663000 0.855000 1900 64 1.200000 4.404000 5.615000 600 84 1.000000 0.057000 0.057000 1.200000 0.028000 0.033000
1517351570658781588	1500 77 1.200000 0.663000 0.855000 1800 64 1.200000 4.409000 5.621000 600 83 1.000000 0.057000 0.057000 1.200000 0.028000 0.033000
1517351571218892088	1500 78 1.200000 0.660000 0.852000 1800 64 1.200000 4.280000 5.397000 600 84 1.000000 0.057000 0.057000 1.200000 0.028000 0.033000
1517351571782836546	1500 79 1.200000 0.660000 0.852000 1900 64 1.200000 4.025000 4.954000 600 84 1.000000 0.057000 0.057000 1.200000 0.026000 0.031000
1517351572350836755	1500 78 1.200000 0.661000 0.853000 1900 64 1.200000 4.419000 5.634000 600 84 1.000000 0.057000 0.057000 1.200000 0.028000 0.033000
1517351572918951880	1500 79 1.200000 0.663000 0.855000 1900 64 1.200000 4.332000 5.505000 600 85 1.000000 0.057000 0.057000 1.200000 0.031000 0.037000
1517351573482806630	1500 79 1.200000 0.661000 0.853000 1900 64 1.200000 3.949000 4.837000 600 84 1.000000 0.057000 0.057000 1.200000 0.031000 0.037000
1517351574038909296	1500 78 1.200000 0.660000 0.852000 1900 64 1.200000 4.376000 5.548000 600 83 1.000000 0.057000 0.057000 1.200000 0.026000 0.031000
1517351574602831338	1500 78 1.200000 0.662000 0.854000 1800 64 1.200000 4.405000 5.616000 600 84 1.000000 0.057000 0.057000 1.200000 0.025000 0.030000
1517351575158965588	1500 78 1.200000 0.662000 0.854000 1900 64 1.200000 4.006000 4.939000 600 85 1.000000 0.057000 0.057000 1.200000 0.026000 0.031000
1517351575718786380	1500 79 1.200000 0.662000 0.854000 1900 64 1.200000 4.292000 5.412000 600 84 1.000000 0.057000 0.057000 1.200000 0.029000 0.034000
1517351576278847922	1500 78 1.200000 0.661000 0.853000 1800 64 1.200000 4.394000 5.602000 600 83 1.000000 0.057000 0.057000 1.200000 0.028000 0.033000
1517351576846891713	1500 79 1.200000 0.661000 0.853000 1900 64 1.200000 4.079000 5.062000 600 85 1.000000 0.057000 0.057000 1.200000 0.026000 0.031000
1517351577403056047	1500 79 1.200000 0.663000 0.855000 1900 64 1.200000 4.222000 5.281000 600 85 1.000000 0.057000 0.057000 1.200000 0.025000 0.030000
1517351577946886505	1500 79 1.200000 0.662000 0.854000 1900 64 1.200000 4.175000 5.197000 600 84 1.000000 0.057000 0.057000 1.200000 0.025000 0.030000
1517351578502784505	1500 79 1.200000 0.661000 0.853000 1900 64 1.200000 4.134000 5.134000 600 84 1.000000 0.057000 0.057000 1.200000 0.027000 0.032000
1517351579054809172	1500 79 1.200000 0.662000 0.854000 1900 64 1.200000 4.099000 5.070000 600 84 1.000000 0.057000 0.057000 1.200000 0.029000 0.034000
1517351579614814755	1500 79 1.200000 0.663000 0.855000 1900 64 1.200000 4.079000 5.037000 600 84 1.000000 0.057000 0.057000 1.200000 0.028000 0.033000
1517351580166834630	1500 79 1.200000 0.661000 0.853000 1900 64 1.200000 4.051000 4.994000 600 84 1.000000 0.057000 0.057000 1.200000 0.026000 0.031000
1517351580718815797	1500 79 1.200000 0.660000 0.852000 1900 64 1.200000 4.021000 4.949000 600 85 1.000000 0.057000 0.057000 1.200000 0.025000 0.030000
1517351581274962339	1500 78 1.200000 0.662000 0.854000 1900 64 1.200000 4.408000 5.620000 600 84 1.000000 0.057000 0.057000 1.200000 0.027000 0.032000
1517351581826827672	1500 79 1.200000 0.662000 0.854000 1900 64 1.200000 4.348000 5.526000 600 84 1.000000 0.057000 0.057000 1.200000 0.032000 0.038000
1517351582382793547	1500 79 1.200000 0.663000 0.855000 1900 64 1.200000 4.380000 5.575000 600 84 1.000000 0.057000 0.057000 1.200000 0.026000 0.031000
1517351582934780006	1500 79 1.200000 0.662000 0.854000 1900 64 1.200000 4.401000 5.593000 600 84 1.000000 0.057000 0.057000 1.200000 0.025000 0.030000
1517351583482794881	1500 79 1.200000 0.661000 0.853000 1900 64 1.200000 3.978000 4.884000 600 85 1.000000 0.057000 0.057000 1.200000 0.024000 0.028000
1517351584028784881	1500 79 1.200000 0.663000 0.855000 1900 64 1.200000 3.999000 4.926000 600 85 1.000000 0.057000 0.057000 1.200000 0.029000 0.034000
1517351584583061339	1500 79 1.200000 0.663000 0.855000 1900 64 1.200000 4.040000 4.989000 600 85 1.000000 0.057000 0.057000 1.200000 0.027000 0.032000
1517351585150932256	1500 79 1.200000 0.660000 0.852000 1800 64 1.200000 4.075000 5.044000 600 84 1.000000 0.057000 0.057000 1.200000 0.025000 0.030000
1517351585707036964	1500 78 1.200000 0.660000 0.852000 1800 64 1.200000 4.101000 5.093000 600 84 1.000000 0.057000 0.057000 1.200000 0.025000 0.030000
1517351586262873090	1500 78 1.200000 0.663000 0.855000 1800 65 1.200000 4.113000 5.120000 600 84 1.000000 0.057000 0.057000 1.200000 0.027000 0.032000
1517351586794896256	1500 78 1.200000 0.662000 0.854000 1800 64 1.200000 4.142000 5.169000 600 84 1.000000 0.057000 0.057000 1.200000 0.025000 0.030000
1517351587350969423	1500 78 1.200000 0.660000 0.852000 1800 64 1.200000 4.161000 5.209000 600 84 1.000000 0.057000 0.057000 1.200000 0.028000 0.033000
1517351587906877590	1500 78 1.200000 0.661000 0.853000 1800 64 1.200000 4.192000 5.260000 600 84 1.000000 0.057000 0.057000 1.200000 0.026000 0.031000
1517351588458882506	1500 78 1.200000 0.662000 0.854000 1800 64 1.200000 4.236000 5.328000 600 84 1.000000 0.057000 0.057000 1.200000 0.027000 0.032000
1517351589006811923	1500 78 1.200000 0.663000 0.855000 1900 65 1.200000 4.065000 5.024000 600 84 1.000000 0.057000 0.057000 1.200000 0.025000 0.030000
1517351589560669632	1500 79 1.200000 0.661000 0.853000 1900 65 1.200000 4.031000 4.962000 600 84 1.000000 0.057000 0.057000 1.200000 0.024000 0.028000
1517351590118914090	1500 79 1.200000 0.662000 0.854000 1900 65 1.200000 3.985000 4.889000 600 85 1.000000 0.057000 0.057000 1.200000 0.031000 0.037000
1517351590678790590	1500 79 1.200000 0.664000 0.857000 1900 65 1.200000 3.971000 4.856000 600 85 1.000000 0.057000 0.057000 1.200000 0.025000 0.030000
1517351591238777007	1500 80 1.200000 0.663000 0.855000 1900 65 1.200000 3.961000 4.852000 600 85 1.000000 0.057000 0.057000 1.200000 0.024000 0.028000
1517351591782870674	1500 77 1.200000 0.660000 0.852000 1800 64 1.100000 3.572000 4.232000 600 83 1.000000 0.057000 0.057000 1.200000 0.026000 0.031000
1517351592358802007	1500 77 1.200000 0.662000 0.854000 1800 64 1.200000 3.927000 4.794000 600 83 1.000000 0.057000 0.057000 1.200000 0.027000 0.032000
1517351592922809090	1500 77 1.200000 0.664000 0.857000 1800 64 1.200000 3.921000 4.787000 600 82 1.000000 0.057000 0.057000 1.200000 0.027000 0.032000
1517351593474862090	1500 78 1.200000 0.663000 0.855000 1800 64 1.200000 4.373000 5.575000 600 84 1.000000 0.057000 0.057000 1.200000 0.030000 0.036000
1517351594034848549	1500 78 1.200000 0.662000 0.854000 1800 65 1.200000 4.280000 5.371000 600 84 1.000000 0.057000 0.057000 1.200000 0.025000 0.030000
1517351594595007007	1500 78 1.200000 0.664000 0.857000 1800 65 1.200000 4.247000 5.312000 600 84 1.000000 0.057000 0.057000 1.200000 0.027000 0.032000
1517351595154788841	1500 78 1.200000 0.663000 0.855000 1800 65 1.200000 4.213000 5.253000 600 84 1.000000 0.057000 0.057000 1.200000 0.025000 0.030000
1517351595714775799	1500 78 1.200000 0.663000 0.855000 1900 65 1.200000 4.170000 5.191000 600 84 1.000000 0.057000 0.057000 1.200000 0.028000 0.033000
1517351596266886882	1500 77 1.200000 0.664000 0.857000 1800 65 1.200000 3.877000 4.702000 600 83 1.000000 0.057000 0.057000 1.200000 0.027000 0.032000
1517351596818865632	1500 78 1.200000 0.664000 0.857000 1800 64 1.200000 3.934000 4.803000 600 83 1.000000 0.057000 0.057000 1.200000 0.027000 0.032000
1517351597358912133	1500 77 1.200000 0.663000 0.855000 1800 64 1.200000 3.932000 4.800000 600 83 1.000000 0.057000 0.057000 1.200000 0.025000 0.030000
1517351597922856924	1500 78 1.200000 0.663000 0.855000 1800 64 1.200000 3.934000 4.807000 600 82 1.000000 0.057000 0.057000 1.200000 0.024000 0.028000
1517351598470014466	1500 78 1.200000 0.663000 0.855000 1900 64 1.200000 3.929000 4.797000 600 84 1.000000 0.057000 0.057000 1.200000 0.026000 0.031000
1517351599026798424	1500 78 1.200000 0.664000 0.857000 1800 65 1.200000 4.365000 5.552000 600 84 1.000000 0.057000 0.057000 1.200000 0.032000 0.038000
1517351599590834341	1500 79 1.200000 0.663000 0.855000 1900 65 1.200000 4.417000 5.614000 600 84 1.000000 0.057000 0.057000 1.200000 0.025000 0.030000
1517351600150860008	1500 77 1.200000 0.664000 0.857000 1800 65 1.200000 4.344000 5.477000 600 83 1.000000 0.057000 0.057000 1.200000 0.025000 0.030000
1517351600714914050	1500 78 1.200000 0.663000 0.855000 1800 65 1.200000 3.932000 4.804000 600 83 1.000000 0.057000 0.057000 1.200000 0.025000 0.030000
1517351601278979925	1500 77 1.200000 0.662000 0.854000 1800 65 1.200000 3.932000 4.804000 600 83 1.000000 0.057000 0.057000 1.200000 0.028000 0.033000
1517351601830855966	1500 77 1.200000 0.663000 0.855000 1800 64 1.200000 3.917000 4.786000 600 82 1.000000 0.057000 0.057000 1.200000 0.028000 0.033000
1517351602390827508	1500 77 1.200000 0.663000 0.855000 1900 64 1.200000 3.919000 4.789000 600 83 1.000000 0.057000 0.057000 1.200000 0.028000 0.033000
1517351602946829758	1500 79 1.200000 0.662000 0.854000 1900 65 1.200000 4.137000 5.154000 600 84 1.000000 0.057000 0.057000 1.200000 0.025000 0.030000
1517351603502849758	1500 79 1.200000 0.663000 0.855000 1900 65 1.200000 4.153000 5.174000 600 85 1.000000 0.057000 0.057000 1.200000 0.028000 0.033000
1517351604066758092	1500 79 1.200000 0.664000 0.857000 1900 65 1.200000 4.167000 5.187000 600 85 1.000000 0.057000 0.057000 1.200000 0.026000 0.031000
1517351604623000967	1500 78 1.200000 0.664000 0.857000 1800 65 1.200000 3.883000 4.706000 600 83 1.000000 0.057000 0.057000 1.200000 0.027000 0.032000
1517351605178842133	1500 78 1.200000 0.663000 0.855000 1800 65 1.200000 3.923000 4.789000 600 83 1.000000 0.057000 0.057000 1.200000 0.028000 0.033000
1517351605738821634	1500 78 1.200000 0.663000 0.855000 1800 65 1.200000 3.928000 4.796000 600 83 1.000000 0.057000 0.057000 1.200000 0.025000 0.030000
1517351606294808925	1500 77 1.200000 0.663000 0.855000 1800 64 1.200000 3.930000 4.798000 600 83 1.000000 0.057000 0.057000 1.200000 0.025000 0.030000
1517351606848778050	1500 77 1.200000 0.663000 0.855000 1800 64 1.200000 3.928000 4.796000 600 82 1.000000 0.057000 0.057000 1.200000 0.025000 0.030000
1517351607404825509	1500 77 1.200000 0.663000 0.855000 1800 64 1.200000 3.922000 4.788000 600 83 1.000000 0.057000 0.057000 1.200000 0.029000 0.034000
1517351607958779675	1500 77 1.200000 0.663000 0.855000 1800 64 1.200000 3.920000 4.786000 600 82 1.000000 0.057000 0.057000 1.200000 0.028000 0.033000
1517351608514741592	1500 79 1.200000 0.663000 0.855000 1900 65 1.200000 3.926000 4.797000 600 84 1.000000 0.057000 0.057000 1.200000 0.025000 0.030000
1517351609074962634	1500 80 1.200000 0.664000 0.857000 1900 65 1.200000 4.002000 4.922000 600 85 1.000000 0.057000 0.057000 1.200000 0.025000 0.030000
1517351609616867301	1500 80 1.200000 0.663000 0.855000 1800 65 1.200000 4.036000 4.984000 600 85 1.000000 0.057000 0.057000 1.200000 0.026000 0.031000
1517351610190876009	1500 79 1.200000 0.664000 0.857000 1700 65 1.200000 4.066000 5.029000 600 84 1.000000 0.057000 0.057000 1.200000 0.028000 0.033000
1517351610730842967	1500 78 1.200000 0.664000 0.857000 1800 65 1.100000 3.670000 4.389000 600 83 1.000000 0.057000 0.057000 1.200000 0.028000 0.033000
1517351611290876759	1500 78 1.200000 0.663000 0.855000 1800 65 1.200000 3.934000 4.807000 600 83 1.000000 0.057000 0.057000 1.200000 0.026000 0.031000
1517351611854822259	1500 78 1.200000 0.663000 0.855000 1800 65 1.200000 3.936000 4.809000 600 83 1.000000 0.057000 0.057000 1.200000 0.027000 0.032000
1517351612410921593	1500 78 1.200000 0.663000 0.855000 1800 65 1.200000 3.936000 4.809000 600 83 1.000000 0.057000 0.057000 1.200000 0.025000 0.030000
1517351612966878051	1500 78 1.200000 0.663000 0.855000 1800 65 1.200000 3.922000 4.792000 600 83 1.000000 0.057000 0.057000 1.200000 0.027000 0.032000
1517351613522869384	1500 78 1.200000 0.663000 0.855000 1800 65 1.200000 3.928000 4.800000 600 83 1.000000 0.057000 0.057000 1.200000 0.029000 0.034000
1517351614082877051	1500 78 1.200000 0.663000 0.855000 1800 65 1.200000 3.936000 4.805000 600 83 1.000000 0.057000 0.057000 1.200000 0.025000 0.030000
1517351614642832301	1500 78 1.200000 0.663000 0.855000 1800 65 1.200000 3.931000 4.799000 600 83 1.000000 0.057000 0.057000 1.200000 0.024000 0.028000
1517351615198853051	1500 78 1.200000 0.662000 0.854000 1800 64 1.200000 3.932000 4.800000 600 83 1.000000 0.057000 0.057000 1.200000 0.025000 0.030000
1517351615770933426	1500 78 1.200000 0.664000 0.857000 1800 65 1.200000 3.926000 4.793000 600 83 1.000000 0.057000 0.057000 1.200000 0.033000 0.039000
1517351616342859510	1500 78 1.200000 0.664000 0.857000 1800 65 1.200000 3.919000 4.789000 600 83 1.000000 0.057000 0.057000 1.200000 0.028000 0.033000
1517351616890849676	1500 78 1.200000 0.663000 0.855000 1800 65 1.200000 3.933000 4.806000 600 83 1.000000 0.057000 0.057000 1.200000 0.025000 0.030000
1517351617446865135	1500 78 1.200000 0.663000 0.855000 1800 64 1.200000 3.933000 4.806000 600 83 1.000000 0.057000 0.057000 1.200000 0.025000 0.030000
1517351618006822260	1500 78 1.200000 0.663000 0.855000 1800 65 1.200000 3.937000 4.811000 600 83 1.000000 0.057000 0.057000 1.200000 0.029000 0.034000
1517351618562848218	1500 77 1.200000 0.663000 0.855000 1800 65 1.200000 3.922000 4.792000 600 82 1.000000 0.057000 0.057000 1.200000 0.025000 0.030000
1517351619122856510	1500 78 1.200000 0.663000 0.855000 1800 64 1.200000 3.926000 4.797000 600 83 1.000000 0.057000 0.057000 1.200000 0.029000 0.034000
1517351619670885302	1500 78 1.200000 0.663000 0.855000 1800 65 1.200000 3.934000 4.807000 600 83 1.000000 0.057000 0.057000 1.200000 0.025000 0.030000
1517351620218851719	1500 78 1.200000 0.663000 0.855000 1800 65 1.200000 3.934000 4.807000 600 83 1.000000 0.057000 0.057000 1.200000 0.025000 0.030000
1517351620770834677	1500 78 1.200000 0.663000 0.855000 1800 65 1.200000 3.934000 4.807000 600 83 1.000000 0.057000 0.057000 1.200000 0.025000 0.030000
1517351621323020969	1500 78 1.200000 0.663000 0.855000 1800 65 1.200000 3.929000 4.801000 600 83 1.000000 0.057000 0.057000 1.200000 0.026000 0.031000
1517351621882822594	1500 77 1.200000 0.664000 0.857000 1800 65 1.200000 3.923000 4.793000 600 83 1.000000 0.057000 0.057000 1.200000 0.028000 0.033000
1517351622434847885	1500 78 1.200000 0.663000 0.855000 1800 65 1.200000 3.933000 4.806000 600 83 1.000000 0.057000 0.057000 1.200000 0.025000 0.030000
1517351622994828927	1500 78 1.200000 0.663000 0.855000 1800 65 1.200000 3.927000 4.794000 600 83 1.000000 0.057000 0.057000 1.200000 0.026000 0.031000
1517351623546866802	1500 78 1.200000 0.663000 0.855000 1800 65 1.200000 3.930000 4.798000 600 83 1.000000 0.057000 0.057000 1.200000 0.025000 0.030000
1517351624102885136	1500 78 1.200000 0.663000 0.855000 1800 65 1.200000 3.929000 4.797000 600 83 1.000000 0.057000 0.057000 1.200000 0.026000 0.031000
1517351624658849594	1500 78 1.200000 0.664000 0.857000 1800 65 1.200000 3.925000 4.796000 600 83 1.000000 0.057000 0.057000 1.200000 0.028000 0.033000
1517351625206848552	1500 78 1.200000 0.663000 0.855000 1800 65 1.200000 3.932000 4.804000 600 83 1.000000 0.057000 0.057000 1.200000 0.025000 0.030000
1517351625766851219	1500 78 1.200000 0.663000 0.855000 1800 65 1.200000 3.934000 4.807000 600 83 1.000000 0.057000 0.057000 1.200000 0.024000 0.028000
1517351626326853261	1500 78 1.200000 0.663000 0.855000 1800 65 1.200000 3.936000 4.809000 600 83 1.000000 0.057000 0.057000 1.200000 0.028000 0.033000
1517351626898989928	1500 78 1.200000 0.663000 0.855000 1800 65 1.200000 3.934000 4.807000 600 83 1.000000 0.057000 0.057000 1.200000 0.025000 0.030000
1517351627466988594	1500 78 1.200000 0.663000 0.855000 1800 65 1.200000 3.925000 4.792000 600 83 1.000000 0.057000 0.057000 1.200000 0.028000 0.033000
1517351628022882386	1500 78 1.200000 0.664000 0.857000 1800 65 1.200000 3.928000 4.796000 600 83 1.000000 0.057000 0.057000 1.200000 0.028000 0.033000
1517351628578861886	1500 78 1.200000 0.663000 0.855000 1800 65 1.200000 3.935000 4.804000 600 83 1.000000 0.057000 0.057000 1.200000 0.030000 0.036000
1517351629138852636	1500 78 1.200000 0.663000 0.855000 1800 65 1.200000 3.934000 4.803000 600 83 1.000000 0.057000 0.057000 1.200000 0.024000 0.028000
1517351629698859636	1500 78 1.200000 0.663000 0.855000 1800 65 1.200000 3.937000 4.807000 600 83 1.000000 0.057000 0.057000 1.200000 0.025000 0.030000
1517351630254970970	1500 78 1.200000 0.663000 0.855000 1800 65 1.200000 3.921000 4.787000 600 83 1.000000 0.057000 0.057000 1.200000 0.027000 0.032000
1517351630802847553	1500 78 1.200000 0.663000 0.855000 1800 65 1.200000 3.931000 4.799000 600 83 1.000000 0.057000 0.057000 1.200000 0.026000 0.031000
1517351631370889470	1500 78 1.200000 0.663000 0.855000 1800 65 1.200000 3.934000 4.807000 600 83 1.000000 0.057000 0.057000 1.200000 0.025000 0.030000
1517351631922852345	1500 78 1.200000 0.663000 0.855000 1800 65 1.200000 3.923000 4.789000 600 83 1.000000 0.057000 0.057000 1.200000 0.024000 0.028000
1517351632474867887	1500 78 1.200000 0.663000 0.855000 1800 65 1.200000 3.932000 4.800000 600 83 1.000000 0.057000 0.057000 1.200000 0.024000 0.028000
1517351633034813137	1500 78 1.200000 0.663000 0.855000 1800 65 1.200000 3.939000 4.809000 600 83 1.000000 0.057000 0.057000 1.200000 0.026000 0.031000
1517351633582860345	1500 78 1.200000 0.664000 0.857000 1800 65 1.200000 3.928000 4.796000 600 83 1.000000 0.057000 0.057000 1.200000 0.028000 0.033000
1517351634130823970	1500 78 1.200000 0.663000 0.855000 1800 65 1.200000 3.929000 4.797000 600 83 1.000000 0.057000 0.057000 1.200000 0.025000 0.030000
1517351634678825095	1500 78 1.200000 0.663000 0.855000 1800 65 1.200000 3.930000 4.802000 600 83 1.000000 0.057000 0.057000 1.200000 0.029000 0.034000
1517351635226865054	1500 78 1.200000 0.663000 0.855000 1800 65 1.200000 3.929000 4.797000 600 83 1.000000 0.057000 0.057000 1.200000 0.029000 0.034000
1517351635790839220	1500 78 1.200000 0.663000 0.855000 1800 65 1.200000 3.930000 4.798000 600 83 1.000000 0.057000 0.057000 1.200000 0.029000 0.034000
1517351636346850970	1500 78 1.200000 0.663000 0.855000 1800 65 1.200000 3.925000 4.792000 600 83 1.000000 0.057000 0.057000 1.200000 0.026000 0.031000
1517351636894873887	1500 78 1.200000 0.663000 0.855000 1800 65 1.200000 3.929000 4.801000 600 83 1.000000 0.057000 0.057000 1.200000 0.030000 0.036000
1517351637454833179	1500 78 1.200000 0.662000 0.854000 1800 65 1.200000 3.929000 4.797000 600 83 1.000000 0.057000 0.057000 1.200000 0.025000 0.030000
1517351638010821054	1500 78 1.200000 0.662000 0.854000 1800 65 1.200000 3.930000 4.798000 600 83 1.000000 0.057000 0.057000 1.200000 0.026000 0.031000
1517351638550824637	1500 78 1.200000 0.663000 0.855000 1800 65 1.200000 3.931000 4.803000 600 83 1.000000 0.057000 0.057000 1.200000 0.025000 0.030000
1517351639106893429	1500 78 1.200000 0.663000 0.855000 1800 65 1.200000 3.914000 4.782000 600 83 1.000000 0.057000 0.057000 1.200000 0.027000 0.032000
1517351639662819304	1500 78 1.200000 0.662000 0.854000 1800 65 1.200000 3.923000 4.789000 600 83 1.000000 0.057000 0.057000 1.200000 0.028000 0.033000
1517351640218859638	1500 78 1.200000 0.663000 0.855000 1800 65 1.200000 3.932000 4.804000 600 83 1.000000 0.057000 0.057000 1.200000 0.025000 0.030000
1517351640778916554	1500 78 1.200000 0.662000 0.854000 1800 65 1.200000 3.927000 4.794000 600 83 1.000000 0.057000 0.057000 1.200000 0.027000 0.032000
1517351641343008054	1500 78 1.200000 0.662000 0.854000 1800 65 1.200000 3.933000 4.802000 600 83 1.000000 0.057000 0.057000 1.200000 0.030000 0.036000
1517351641898847554	1500 78 1.200000 0.663000 0.855000 1800 65 1.200000 3.914000 4.778000 600 83 1.000000 0.057000 0.057000 1.200000 0.029000 0.034000
1517351642450845888	1500 78 1.200000 0.663000 0.855000 1800 65 1.200000 3.922000 4.788000 600 83 1.000000 0.057000 0.057000 1.200000 0.026000 0.031000
1517351643014853180	1500 78 1.200000 0.662000 0.854000 1800 65 1.200000 3.928000 4.796000 600 83 1.000000 0.057000 0.057000 1.200000 0.025000 0.030000
1517351643562838305	1500 78 1.200000 0.662000 0.854000 1800 65 1.200000 3.939000 4.809000 600 83 1.000000 0.057000 0.057000 1.200000 0.029000 0.034000
1517351644106857721	1500 78 1.200000 0.663000 0.855000 1800 65 1.200000 3.929000 4.797000 600 83 1.000000 0.057000 0.057000 1.200000 0.025000 0.030000
1517351644658974055	1500 78 1.200000 0.663000 0.855000 1800 65 1.200000 3.922000 4.788000 600 83 1.000000 0.057000 0.057000 1.200000 0.028000 0.033000
1517351645218889347	1500 78 1.200000 0.662000 0.854000 1800 65 1.200000 3.930000 4.802000 600 83 1.000000 0.057000 0.057000 1.200000 0.026000 0.031000
1517351645774809263	1500 78 1.200000 0.663000 0.855000 1800 65 1.200000 3.930000 4.798000 600 83 1.000000 0.057000 0.057000 1.200000 0.025000 0.030000
1517351646334800222	1500 78 1.200000 0.663000 0.855000 1800 65 1.200000 3.931000 4.799000 600 83 1.000000 0.057000 0.057000 1.200000 0.025000 0.030000
1517351646890821513	1500 78 1.200000 0.663000 0.855000 1800 65 1.200000 3.930000 4.798000 600 83 1.000000 0.057000 0.057000 1.200000 0.025000 0.030000
1517351647450903180	1500 78 1.200000 0.664000 0.857000 1800 65 1.200000 3.918000 4.783000 600 83 1.000000 0.057000 0.057000 1.200000 0.029000 0.034000
1517351648010868889	1500 78 1.200000 0.663000 0.855000 1800 65 1.200000 3.921000 4.787000 600 83 1.000000 0.057000 0.057000 1.200000 0.028000 0.033000
1517351648566858514	1500 78 1.200000 0.662000 0.854000 1800 65 1.200000 3.926000 4.793000 600 83 1.000000 0.057000 0.057000 1.200000 0.025000 0.030000
1517351649122866597	1500 78 1.200000 0.663000 0.855000 1800 65 1.200000 3.928000 4.796000 600 83 1.000000 0.057000 0.057000 1.200000 0.025000 0.030000
1517351649670879514	1500 78 1.200000 0.663000 0.855000 1800 65 1.200000 3.928000 4.796000 600 83 1.000000 0.057000 0.057000 1.200000 0.025000 0.030000
1517351650234832347	1500 78 1.200000 0.663000 0.855000 1800 65 1.200000 3.924000 4.791000 600 83 1.000000 0.057000 0.057000 1.200000 0.029000 0.034000
1517351650802831181	1500 78 1.200000 0.663000 0.855000 1800 65 1.200000 3.925000 4.796000 600 83 1.000000 0.057000 0.057000 1.200000 0.027000 0.032000
1517351651366895097	1500 78 1.200000 0.662000 0.854000 1800 65 1.200000 3.933000 4.802000 600 83 1.000000 0.057000 0.057000 1.200000 0.025000 0.030000
1517351651914861014	1500 78 1.200000 0.663000 0.855000 1800 65 1.200000 3.930000 4.798000 600 83 1.000000 0.057000 0.057000 1.200000 0.030000 0.036000
1517351652474871222	1500 78 1.200000 0.663000 0.855000 1800 65 1.200000 3.931000 4.799000 600 83 1.000000 0.057000 0.057000 1.200000 0.026000 0.031000
1517351653038861931	1500 78 1.200000 0.663000 0.855000 1800 65 1.200000 3.925000 4.792000 600 83 1.000000 0.057000 0.057000 1.200000 0.026000 0.031000
1517351653543746514	1500 68 1.200000 0.663000 0.855000 1900 64 1.200000 3.713000 4.529000 600 82 1.000000 0.058000 0.058000 1.200000 0.030000 0.036000
1517351654048584389	1500 66 1.200000 0.619000 0.799000 2000 60 1.200000 1.136000 1.459000 600 68 1.000000 0.057000 0.057000 1.200000 0.028000 0.033000
1517351654553691681	1500 73 1.300000 0.115000 0.150000 2000 60 1.300000 2.030000 2.689000 600 66 1.000000 0.057000 0.057000 1.200000 0.034000 0.041000
1517351655058410181	1500 63 1.300000 0.107000 0.140000 2000 59 1.300000 2.028000 2.687000 600 65 1.000000 0.056000 0.056000 1.200000 0.036000 0.043000
1517351655562957764	1500 58 1.300000 0.109000 0.142000 2000 56 1.300000 0.891000 1.176000 600 62 1.000000 0.056000 0.056000 1.200000 0.033000 0.039000
