#Timestamp	CPU(0) Frequency(MHz)	CPU(0) Temperature(C)	A7 Voltage(V)	A7 Current(A)	A7 Power(W)	CPU(4) Frequency(MHz)	CPU(4) Temperature(C)	A15 Voltage(V)	A15 Current(A)	A15 Power(W)	GPU Frequency(MHz)	GPU Temperature(C)	GPU Voltage(V)	GPU Current(A)	GPU Power(W)	RAM Voltage(V)	RAM Current(A)	RAM Power(W)
1553304715505081897	800 32 1.000000 0.040000 0.042000 400 31 0.900000 0.246000 0.224000 600 35 1.000000 0.050000 0.050000 1.200000 0.039000 0.047000
1553304716022106022	800 32 1.000000 0.106000 0.108000 400 31 0.900000 0.069000 0.062000 600 35 1.000000 0.051000 0.051000 1.200000 0.038000 0.045000
1553304716538169439	800 32 1.000000 0.113000 0.115000 400 31 0.900000 0.202000 0.184000 600 35 1.000000 0.050000 0.050000 1.200000 0.047000 0.056000
1553304717053046397	800 32 1.000000 0.105000 0.107000 400 31 0.900000 0.070000 0.063000 600 35 1.000000 0.050000 0.050000 1.200000 0.039000 0.047000
1553304717567837814	800 32 1.000000 0.106000 0.108000 400 31 0.900000 0.057000 0.051000 600 35 1.000000 0.050000 0.050000 1.200000 0.038000 0.045000
1553304718082412064	800 32 1.000000 0.091000 0.093000 400 31 0.900000 0.052000 0.047000 600 35 1.000000 0.050000 0.050000 1.200000 0.025000 0.030000
1553304718597193356	800 32 1.000000 0.099000 0.101000 400 31 0.900000 0.127000 0.115000 600 35 1.000000 0.050000 0.050000 1.200000 0.033000 0.039000
1553304719112328189	800 31 1.000000 0.092000 0.094000 400 31 0.900000 0.054000 0.049000 600 35 1.000000 0.050000 0.050000 1.200000 0.024000 0.028000
1553304719627047148	800 31 1.000000 0.092000 0.094000 400 31 0.900000 0.052000 0.047000 600 35 1.000000 0.050000 0.050000 1.200000 0.024000 0.028000
1553304720141661148	800 31 1.000000 0.092000 0.094000 400 31 0.900000 0.050000 0.045000 600 35 1.000000 0.050000 0.050000 1.200000 0.024000 0.028000
1553304720657759356	800 32 1.000000 0.092000 0.094000 400 31 0.900000 0.052000 0.047000 600 35 1.000000 0.050000 0.050000 1.200000 0.024000 0.028000
1553304721172694648	800 32 1.000000 0.099000 0.101000 400 31 0.900000 0.073000 0.066000 600 35 1.000000 0.050000 0.050000 1.200000 0.026000 0.031000
1553304721687519981	800 31 1.000000 0.092000 0.094000 400 31 0.900000 0.065000 0.059000 600 35 1.000000 0.050000 0.050000 1.200000 0.025000 0.030000
1553304722202192315	800 31 1.000000 0.091000 0.093000 400 31 0.900000 0.063000 0.057000 600 35 1.000000 0.050000 0.050000 1.200000 0.025000 0.030000
1553304722716878648	800 31 1.000000 0.092000 0.094000 400 31 0.900000 0.062000 0.056000 600 35 1.000000 0.050000 0.050000 1.200000 0.025000 0.030000
1553304723231648981	800 31 1.000000 0.094000 0.096000 400 31 0.900000 0.186000 0.169000 600 35 1.000000 0.050000 0.050000 1.200000 0.036000 0.043000
1553304723746238273	800 31 1.000000 0.092000 0.094000 400 31 0.900000 0.064000 0.058000 600 35 1.000000 0.050000 0.050000 1.200000 0.025000 0.030000
1553304724260711315	800 31 1.000000 0.092000 0.094000 400 31 0.900000 0.064000 0.058000 600 35 1.000000 0.050000 0.050000 1.200000 0.025000 0.030000
1553304724775148940	800 31 1.000000 0.092000 0.094000 400 31 0.900000 0.053000 0.048000 600 35 1.000000 0.051000 0.051000 1.200000 0.025000 0.030000
1553304725291091815	800 32 1.000000 0.092000 0.094000 400 31 0.900000 0.126000 0.114000 600 35 1.000000 0.050000 0.050000 1.200000 0.030000 0.036000
1553304725805883065	800 31 1.000000 0.093000 0.095000 400 31 0.900000 0.083000 0.075000 600 35 1.000000 0.050000 0.050000 1.200000 0.026000 0.031000
1553304726320159732	800 31 1.000000 0.092000 0.094000 400 31 0.900000 0.055000 0.050000 600 35 1.000000 0.050000 0.050000 1.200000 0.024000 0.028000
1553304726834456857	800 31 1.000000 0.091000 0.093000 400 31 0.900000 0.052000 0.047000 600 35 1.000000 0.050000 0.050000 1.200000 0.024000 0.028000
1553304727349216607	800 31 1.000000 0.092000 0.094000 400 31 0.900000 0.128000 0.116000 600 35 1.000000 0.051000 0.051000 1.200000 0.030000 0.036000
1553304727863874899	800 31 1.000000 0.099000 0.101000 400 31 0.900000 0.159000 0.144000 600 35 1.000000 0.050000 0.050000 1.200000 0.033000 0.039000
1553304728378405524	800 31 1.000000 0.092000 0.094000 400 31 0.900000 0.052000 0.047000 600 35 1.000000 0.050000 0.050000 1.200000 0.024000 0.028000
1553304728892903732	800 31 1.000000 0.092000 0.094000 400 31 0.900000 0.053000 0.048000 600 35 1.000000 0.050000 0.050000 1.200000 0.024000 0.028000
1553304729407666982	800 31 1.000000 0.092000 0.094000 400 31 0.900000 0.130000 0.118000 600 35 1.000000 0.050000 0.050000 1.200000 0.030000 0.036000
1553304729922232774	800 32 1.000000 0.096000 0.098000 400 31 0.900000 0.161000 0.146000 600 35 1.000000 0.050000 0.050000 1.200000 0.025000 0.030000
1553304730436808732	800 31 1.000000 0.091000 0.093000 400 31 0.900000 0.052000 0.047000 600 35 1.000000 0.050000 0.050000 1.200000 0.028000 0.033000
1553304730951180399	800 31 1.000000 0.092000 0.094000 400 31 0.900000 0.055000 0.050000 600 35 1.000000 0.050000 0.050000 1.200000 0.025000 0.030000
1553304731466237732	800 31 1.000000 0.092000 0.094000 400 31 0.900000 0.127000 0.115000 600 35 1.000000 0.050000 0.050000 1.200000 0.025000 0.030000
1553304731981580566	800 31 1.000000 0.094000 0.096000 400 31 0.900000 0.065000 0.059000 600 35 1.000000 0.050000 0.050000 1.200000 0.026000 0.031000
1553304732496798024	800 31 1.000000 0.094000 0.096000 400 31 0.900000 0.088000 0.080000 600 35 1.000000 0.050000 0.050000 1.200000 0.029000 0.035000
1553304733011481441	800 31 1.000000 0.091000 0.093000 400 31 0.900000 0.060000 0.054000 600 35 1.000000 0.050000 0.050000 1.200000 0.025000 0.030000
1553304733526048233	800 31 1.000000 0.092000 0.094000 400 31 0.900000 0.061000 0.055000 600 35 1.000000 0.050000 0.050000 1.200000 0.025000 0.030000
1553304734040787649	800 31 1.000000 0.093000 0.095000 400 30 0.900000 0.137000 0.124000 600 35 1.000000 0.050000 0.050000 1.200000 0.030000 0.036000
1553304734555489816	800 31 1.000000 0.091000 0.093000 400 31 0.900000 0.061000 0.055000 600 35 1.000000 0.050000 0.050000 1.200000 0.026000 0.031000
1553304735069921524	800 31 1.000000 0.092000 0.094000 400 30 0.900000 0.107000 0.097000 600 35 1.000000 0.050000 0.050000 1.200000 0.029000 0.035000
1553304735584857816	800 31 1.000000 0.091000 0.093000 400 31 0.900000 0.064000 0.058000 600 35 1.000000 0.050000 0.050000 1.200000 0.025000 0.030000
1553304736099531150	800 31 1.000000 0.092000 0.094000 400 31 0.900000 0.137000 0.124000 600 35 1.000000 0.050000 0.050000 1.200000 0.030000 0.036000
1553304736614797316	800 32 1.000000 0.092000 0.094000 400 31 0.900000 0.062000 0.056000 600 35 1.000000 0.050000 0.050000 1.200000 0.026000 0.031000
1553304737129696983	800 31 1.000000 0.094000 0.096000 400 31 0.900000 0.181000 0.164000 600 35 1.000000 0.050000 0.050000 1.200000 0.036000 0.043000
1553304737644894691	800 31 1.000000 0.092000 0.094000 400 31 0.900000 0.059000 0.053000 600 35 1.000000 0.050000 0.050000 1.200000 0.025000 0.030000
1553304738159657941	800 31 1.000000 0.091000 0.093000 400 31 0.900000 0.140000 0.127000 600 35 1.000000 0.050000 0.050000 1.200000 0.030000 0.036000
1553304738674054983	800 31 1.000000 0.092000 0.094000 400 30 0.900000 0.062000 0.056000 600 35 1.000000 0.050000 0.050000 1.200000 0.025000 0.030000
1553304739188918817	800 31 1.000000 0.098000 0.100000 400 31 0.900000 0.152000 0.138000 600 35 1.000000 0.050000 0.050000 1.200000 0.035000 0.042000
1553304739703430900	800 31 1.000000 0.092000 0.094000 400 31 0.900000 0.060000 0.054000 600 35 1.000000 0.050000 0.050000 1.200000 0.025000 0.030000
1553304740218157692	800 31 1.000000 0.092000 0.094000 400 31 0.900000 0.138000 0.125000 600 35 1.000000 0.050000 0.050000 1.200000 0.032000 0.038000
1553304740732840525	800 31 1.000000 0.092000 0.094000 400 31 0.900000 0.062000 0.056000 600 35 1.000000 0.050000 0.050000 1.200000 0.025000 0.030000
1553304741247363734	800 31 1.000000 0.094000 0.096000 400 31 0.900000 0.074000 0.067000 600 35 1.000000 0.050000 0.050000 1.200000 0.026000 0.031000
1553304741762289984	800 31 1.000000 0.091000 0.093000 400 30 0.900000 0.052000 0.047000 600 35 1.000000 0.050000 0.050000 1.200000 0.023000 0.027000
1553304742276958650	800 31 1.000000 0.092000 0.094000 400 30 0.900000 0.126000 0.114000 600 35 1.000000 0.050000 0.050000 1.200000 0.031000 0.037000
1553304742791643109	800 31 1.000000 0.091000 0.093000 400 30 0.900000 0.060000 0.054000 600 35 1.000000 0.050000 0.050000 1.200000 0.025000 0.030000
1553304743306839567	800 31 1.000000 0.092000 0.094000 400 30 0.900000 0.061000 0.055000 600 35 1.000000 0.050000 0.050000 1.200000 0.025000 0.030000
1553304743821960692	800 31 1.000000 0.102000 0.104000 400 31 0.900000 0.141000 0.128000 600 35 1.000000 0.050000 0.050000 1.200000 0.034000 0.041000
1553304744336653067	800 31 1.000000 0.092000 0.094000 400 31 0.900000 0.061000 0.055000 600 35 1.000000 0.050000 0.050000 1.200000 0.025000 0.030000
1553304744851134317	800 31 1.000000 0.092000 0.094000 400 31 0.900000 0.060000 0.054000 600 35 1.000000 0.050000 0.050000 1.200000 0.026000 0.031000
1553304745365786859	800 31 1.000000 0.091000 0.093000 400 31 0.900000 0.061000 0.055000 600 35 1.000000 0.050000 0.050000 1.200000 0.025000 0.030000
1553304745880549151	800 31 1.000000 0.092000 0.094000 400 31 0.900000 0.069000 0.062000 600 35 1.000000 0.051000 0.051000 1.200000 0.026000 0.031000
1553304746395187401	800 31 1.000000 0.094000 0.096000 400 31 0.900000 0.062000 0.056000 600 35 1.000000 0.050000 0.050000 1.200000 0.025000 0.030000
1553304746909743484	800 31 1.000000 0.092000 0.094000 400 30 0.900000 0.060000 0.054000 600 35 1.000000 0.050000 0.050000 1.200000 0.025000 0.030000
1553304747424247693	800 31 1.000000 0.092000 0.094000 400 30 0.900000 0.060000 0.054000 600 35 1.000000 0.050000 0.050000 1.200000 0.025000 0.030000
1553304747939950151	800 31 1.000000 0.092000 0.094000 400 31 0.900000 0.061000 0.055000 600 35 1.000000 0.050000 0.050000 1.200000 0.025000 0.030000
1553304748454625193	800 31 1.000000 0.096000 0.098000 400 30 0.900000 0.137000 0.124000 600 35 1.000000 0.050000 0.050000 1.200000 0.031000 0.037000
1553304748969170359	800 31 1.000000 0.092000 0.094000 400 31 0.900000 0.061000 0.055000 600 35 1.000000 0.050000 0.050000 1.200000 0.025000 0.030000
1553304749483513401	800 31 1.000000 0.091000 0.093000 400 31 0.900000 0.056000 0.051000 600 35 1.000000 0.050000 0.050000 1.200000 0.025000 0.030000
1553304749998140485	800 31 1.000000 0.091000 0.093000 400 30 0.900000 0.054000 0.049000 600 35 1.000000 0.051000 0.051000 1.200000 0.025000 0.030000
1553304750512727776	800 31 1.000000 0.099000 0.101000 400 31 0.900000 0.200000 0.182000 600 35 1.000000 0.050000 0.050000 1.200000 0.038000 0.045000
1553304751027142735	800 31 1.000000 0.091000 0.093000 400 31 0.900000 0.053000 0.048000 600 35 1.000000 0.050000 0.050000 1.200000 0.024000 0.028000
1553304751541543276	800 31 1.000000 0.092000 0.094000 400 30 0.900000 0.052000 0.047000 600 35 1.000000 0.050000 0.050000 1.200000 0.024000 0.028000
1553304752056155276	800 31 1.000000 0.091000 0.093000 400 30 0.900000 0.050000 0.045000 600 35 1.000000 0.050000 0.050000 1.200000 0.024000 0.028000
1553304752572088443	800 32 1.000000 0.093000 0.095000 400 30 0.900000 0.118000 0.107000 600 35 1.000000 0.050000 0.050000 1.200000 0.032000 0.038000
1553304753086937610	800 31 1.000000 0.103000 0.105000 400 31 0.900000 0.053000 0.048000 600 35 1.000000 0.050000 0.050000 1.200000 0.036000 0.043000
1553304753601842152	800 31 1.000000 0.091000 0.093000 400 30 0.900000 0.063000 0.057000 600 35 1.000000 0.050000 0.050000 1.200000 0.026000 0.031000
1553304754116192610	800 31 1.000000 0.092000 0.094000 400 30 0.900000 0.060000 0.054000 600 35 1.000000 0.050000 0.050000 1.200000 0.025000 0.030000
1553304754632040443	800 31 1.000000 0.092000 0.094000 400 31 0.900000 0.060000 0.054000 600 35 1.000000 0.050000 0.050000 1.200000 0.025000 0.030000
1553304755146992360	800 31 1.000000 0.103000 0.105000 400 30 0.900000 0.248000 0.225000 600 35 1.000000 0.050000 0.050000 1.200000 0.043000 0.051000
1553304755661591569	800 31 1.000000 0.092000 0.094000 400 30 0.900000 0.061000 0.055000 600 35 1.000000 0.050000 0.050000 1.200000 0.025000 0.030000
1553304756176279319	800 31 1.000000 0.092000 0.094000 400 31 0.900000 0.061000 0.055000 600 35 1.000000 0.050000 0.050000 1.200000 0.025000 0.030000
1553304756690665027	800 31 1.000000 0.092000 0.094000 400 30 0.900000 0.061000 0.055000 600 34 1.000000 0.050000 0.050000 1.200000 0.025000 0.030000
1553304757205317402	800 31 1.000000 0.099000 0.101000 400 30 0.900000 0.186000 0.169000 600 35 1.000000 0.050000 0.050000 1.200000 0.037000 0.044000
1553304757719798944	800 31 1.000000 0.096000 0.098000 400 30 0.900000 0.060000 0.054000 600 35 1.000000 0.050000 0.050000 1.200000 0.024000 0.028000
1553304758234159194	800 31 1.000000 0.092000 0.094000 400 30 0.900000 0.053000 0.048000 600 34 1.000000 0.051000 0.051000 1.200000 0.024000 0.028000
1553304758748494819	800 31 1.000000 0.091000 0.093000 400 30 0.900000 0.052000 0.047000 600 34 1.000000 0.050000 0.050000 1.200000 0.024000 0.028000
1553304759264391736	800 31 1.000000 0.092000 0.094000 400 31 0.900000 0.130000 0.118000 600 35 1.000000 0.050000 0.050000 1.200000 0.030000 0.036000
1553304759779003986	800 31 1.000000 0.099000 0.101000 400 30 0.900000 0.081000 0.073000 600 35 1.000000 0.050000 0.050000 1.200000 0.027000 0.032000
1553304760293581236	800 31 1.000000 0.091000 0.093000 400 30 0.900000 0.052000 0.047000 600 34 1.000000 0.050000 0.050000 1.200000 0.024000 0.028000
1553304760808048819	800 31 1.000000 0.092000 0.094000 400 30 0.900000 0.053000 0.048000 600 35 1.000000 0.050000 0.050000 1.200000 0.024000 0.028000
1553304761322775736	800 31 1.000000 0.092000 0.094000 400 30 0.900000 0.129000 0.117000 600 35 1.000000 0.050000 0.050000 1.200000 0.029000 0.035000
1553304761837394778	800 31 1.000000 0.101000 0.103000 400 31 0.900000 0.156000 0.142000 600 35 1.000000 0.050000 0.050000 1.200000 0.033000 0.039000
1553304762351996528	800 31 1.000000 0.091000 0.093000 400 31 0.900000 0.051000 0.046000 600 34 1.000000 0.050000 0.050000 1.200000 0.024000 0.028000
1553304762866210528	800 31 1.000000 0.091000 0.093000 400 30 0.900000 0.052000 0.047000 600 34 1.000000 0.050000 0.050000 1.200000 0.025000 0.030000
1553304763381077153	800 31 1.000000 0.092000 0.094000 400 30 0.900000 0.127000 0.115000 600 35 1.000000 0.050000 0.050000 1.200000 0.030000 0.036000
1553304763896980695	800 31 1.000000 0.091000 0.093000 400 31 0.900000 0.062000 0.056000 600 35 1.000000 0.050000 0.050000 1.200000 0.025000 0.030000
1553304764411702736	800 31 1.000000 0.102000 0.104000 400 30 0.900000 0.096000 0.087000 600 34 1.000000 0.050000 0.050000 1.200000 0.028000 0.033000
1553304764926225736	800 31 1.000000 0.091000 0.093000 400 30 0.900000 0.060000 0.054000 600 35 1.000000 0.050000 0.050000 1.200000 0.024000 0.028000
1553304765441095403	800 31 1.000000 0.092000 0.094000 400 30 0.900000 0.061000 0.055000 600 35 1.000000 0.050000 0.050000 1.200000 0.025000 0.030000
1553304765956656820	800 31 1.000000 0.092000 0.094000 400 31 0.900000 0.061000 0.055000 600 35 1.000000 0.050000 0.050000 1.200000 0.025000 0.030000
1553304766471188987	800 31 1.000000 0.100000 0.102000 400 31 0.900000 0.167000 0.152000 600 35 1.000000 0.050000 0.050000 1.200000 0.034000 0.041000
1553304766985876945	800 31 1.000000 0.092000 0.094000 400 30 0.900000 0.051000 0.046000 600 34 1.000000 0.050000 0.050000 1.200000 0.024000 0.028000
1553304767500633695	800 31 1.000000 0.092000 0.094000 400 31 0.900000 0.051000 0.046000 600 35 1.000000 0.050000 0.050000 1.200000 0.025000 0.030000
1553304768015339862	800 31 1.000000 0.092000 0.094000 400 30 0.900000 0.053000 0.048000 600 34 1.000000 0.050000 0.050000 1.200000 0.025000 0.030000
1553304768530135403	800 31 1.000000 0.096000 0.098000 400 30 0.900000 0.155000 0.141000 600 34 1.000000 0.050000 0.050000 1.200000 0.034000 0.041000
1553304769044751570	800 31 1.000000 0.091000 0.093000 400 30 0.900000 0.051000 0.046000 600 35 1.000000 0.050000 0.050000 1.200000 0.025000 0.030000
1553304769560350737	800 31 1.000000 0.091000 0.093000 400 31 0.900000 0.050000 0.045000 600 35 1.000000 0.050000 0.050000 1.200000 0.024000 0.028000
1553304770074821945	800 31 1.000000 0.091000 0.093000 400 30 0.900000 0.052000 0.047000 600 34 1.000000 0.050000 0.050000 1.200000 0.025000 0.030000
1553304770591750779	800 31 1.000000 0.090000 0.092000 400 30 0.900000 0.092000 0.083000 600 35 1.000000 0.050000 0.050000 1.200000 0.048000 0.058000
1553304771107907529	800 31 1.000000 0.109000 0.111000 400 31 0.900000 0.070000 0.063000 600 35 1.000000 0.050000 0.050000 1.200000 0.047000 0.056000
1553304771625074195	800 31 1.000000 0.105000 0.107000 400 31 0.900000 0.078000 0.071000 600 35 1.000000 0.050000 0.050000 1.200000 0.047000 0.056000
1553304772141515904	800 31 1.000000 0.105000 0.107000 400 31 0.900000 0.148000 0.134000 600 35 1.000000 0.050000 0.050000 1.200000 0.049000 0.059000
1553304772657421404	800 31 1.000000 0.104000 0.106000 400 31 0.900000 0.078000 0.071000 600 35 1.000000 0.050000 0.050000 1.200000 0.047000 0.056000
1553304773173299196	800 31 1.000000 0.109000 0.111000 400 31 0.900000 0.143000 0.130000 600 35 1.000000 0.050000 0.050000 1.200000 0.051000 0.061000
1553304773689505612	800 31 1.000000 0.105000 0.107000 400 31 0.900000 0.076000 0.069000 600 35 1.000000 0.050000 0.050000 1.200000 0.047000 0.056000
1553304774205763654	800 31 1.000000 0.105000 0.107000 400 31 0.900000 0.147000 0.134000 600 35 1.000000 0.050000 0.050000 1.200000 0.048000 0.058000
1553304774721886488	800 31 1.000000 0.104000 0.106000 400 31 0.900000 0.069000 0.062000 600 35 1.000000 0.051000 0.051000 1.200000 0.047000 0.056000
1553304775238726613	800 32 1.000000 0.104000 0.106000 400 31 0.900000 0.077000 0.070000 600 35 1.000000 0.050000 0.050000 1.200000 0.047000 0.056000
1553304775755341071	800 32 1.000000 0.107000 0.109000 400 31 0.900000 0.185000 0.168000 600 35 1.000000 0.050000 0.050000 1.200000 0.053000 0.064000
1553304776271547821	800 31 1.000000 0.105000 0.107000 400 31 0.900000 0.079000 0.072000 600 35 1.000000 0.050000 0.050000 1.200000 0.048000 0.058000
1553304776787485571	800 31 1.000000 0.104000 0.106000 400 31 0.900000 0.078000 0.071000 600 35 1.000000 0.050000 0.050000 1.200000 0.048000 0.058000
1553304777303326029	800 31 1.000000 0.104000 0.106000 400 31 0.900000 0.078000 0.071000 600 35 1.000000 0.050000 0.050000 1.200000 0.047000 0.056000
1553304777819291071	800 31 1.000000 0.105000 0.107000 400 31 0.900000 0.094000 0.085000 600 35 1.000000 0.050000 0.050000 1.200000 0.048000 0.057000
1553304778334331530	800 31 1.000000 0.105000 0.107000 400 31 0.900000 0.088000 0.080000 600 35 1.000000 0.051000 0.051000 1.200000 0.048000 0.058000
1553304778849075863	800 31 1.000000 0.105000 0.107000 400 31 0.900000 0.076000 0.069000 600 35 1.000000 0.050000 0.050000 1.200000 0.048000 0.057000
1553304779363818280	800 31 1.000000 0.105000 0.107000 400 31 0.900000 0.076000 0.069000 600 35 1.000000 0.051000 0.051000 1.200000 0.047000 0.056000
1553304779879350863	800 32 1.000000 0.105000 0.107000 400 31 0.900000 0.076000 0.069000 600 35 1.000000 0.050000 0.050000 1.200000 0.046000 0.055000
1553304780394446780	800 32 1.000000 0.108000 0.110000 400 31 0.900000 0.160000 0.145000 600 35 1.000000 0.050000 0.050000 1.200000 0.052000 0.062000
1553304780909350405	800 31 1.000000 0.106000 0.108000 400 31 0.900000 0.077000 0.070000 600 35 1.000000 0.050000 0.050000 1.200000 0.045000 0.054000
1553304781423982988	800 31 1.000000 0.104000 0.106000 400 31 0.900000 0.072000 0.065000 600 35 1.000000 0.051000 0.051000 1.200000 0.045000 0.054000
1553304781938669280	800 31 1.000000 0.105000 0.107000 400 31 0.900000 0.074000 0.067000 600 35 1.000000 0.050000 0.050000 1.200000 0.045000 0.054000
1553304782453617072	800 32 1.000000 0.108000 0.110000 400 31 0.900000 0.185000 0.168000 600 35 1.000000 0.051000 0.051000 1.200000 0.053000 0.064000
1553304782968500363	800 31 1.000000 0.106000 0.108000 400 31 0.900000 0.075000 0.068000 600 35 1.000000 0.050000 0.050000 1.200000 0.046000 0.055000
1553304783482971489	800 31 1.000000 0.106000 0.108000 400 31 0.900000 0.071000 0.064000 600 35 1.000000 0.050000 0.050000 1.200000 0.046000 0.055000
1553304783997237489	800 31 1.000000 0.106000 0.108000 400 31 0.900000 0.067000 0.061000 600 35 1.000000 0.050000 0.050000 1.200000 0.044000 0.053000
1553304784514082114	800 32 1.000000 0.087000 0.089000 400 31 0.900000 0.121000 0.110000 600 35 1.000000 0.050000 0.050000 1.200000 0.048000 0.057000
1553304785030354697	800 31 1.000000 0.033000 0.033000 400 31 0.900000 0.052000 0.047000 600 35 1.000000 0.050000 0.050000 1.200000 0.023000 0.027000
