#Timestamp	CPU(0) Frequency(MHz)	CPU(0) Temperature(C)	A7 Voltage(V)	A7 Current(A)	A7 Power(W)	CPU(4) Frequency(MHz)	CPU(4) Temperature(C)	A15 Voltage(V)	A15 Current(A)	A15 Power(W)	GPU Frequency(MHz)	GPU Temperature(C)	GPU Voltage(V)	GPU Current(A)	GPU Power(W)	RAM Voltage(V)	RAM Current(A)	RAM Power(W)
1559787270438105401	1200 29 0.900000 0.016000 0.015000 600 28 0.900000 0.243000 0.221000 600 33 1.000000 0.050000 0.050000 1.200000 0.034000 0.041000
1559787270949598276	1200 30 1.100000 0.154000 0.180000 600 29 0.900000 0.166000 0.151000 600 33 1.000000 0.050000 0.050000 1.200000 0.045000 0.054000
1559787271460575901	1200 30 1.100000 0.155000 0.181000 600 29 0.900000 0.087000 0.079000 600 33 1.000000 0.050000 0.050000 1.200000 0.043000 0.052000
1559787271971446234	1200 30 1.100000 0.155000 0.181000 600 29 0.900000 0.083000 0.075000 600 33 1.000000 0.050000 0.050000 1.200000 0.044000 0.053000
1559787272482459276	1200 30 1.100000 0.158000 0.185000 600 29 0.900000 0.099000 0.090000 600 33 1.000000 0.050000 0.050000 1.200000 0.041000 0.049000
1559787272993616818	1200 30 1.100000 0.171000 0.200000 600 29 0.900000 0.081000 0.073000 600 33 1.000000 0.050000 0.050000 1.200000 0.026000 0.031000
1559787273504600568	1200 30 1.100000 0.170000 0.199000 600 29 0.900000 0.086000 0.078000 600 33 1.000000 0.050000 0.050000 1.200000 0.025000 0.030000
1559787274015608693	1200 30 1.100000 0.170000 0.199000 600 29 0.900000 0.073000 0.066000 600 33 1.000000 0.050000 0.050000 1.200000 0.025000 0.030000
1559787274526653443	1200 30 1.100000 0.172000 0.201000 600 29 0.900000 0.118000 0.107000 600 33 1.000000 0.050000 0.050000 1.200000 0.029000 0.035000
1559787275038554109	1200 30 1.100000 0.171000 0.200000 600 29 0.900000 0.068000 0.062000 600 33 1.000000 0.050000 0.050000 1.200000 0.026000 0.031000
1559787275549651401	1200 30 1.100000 0.170000 0.199000 600 29 0.900000 0.104000 0.094000 600 33 1.000000 0.050000 0.050000 1.200000 0.027000 0.032000
1559787276060505193	1200 30 1.100000 0.171000 0.200000 600 29 0.900000 0.066000 0.060000 600 33 1.000000 0.050000 0.050000 1.200000 0.025000 0.030000
1559787276571669776	1200 30 1.100000 0.171000 0.200000 600 29 0.900000 0.141000 0.128000 600 33 1.000000 0.050000 0.050000 1.200000 0.029000 0.035000
1559787277082501985	1200 30 1.100000 0.172000 0.201000 600 29 0.900000 0.064000 0.058000 600 33 1.000000 0.050000 0.050000 1.200000 0.025000 0.030000
1559787277593522526	1200 30 1.100000 0.172000 0.201000 600 29 0.900000 0.189000 0.172000 600 33 1.000000 0.050000 0.050000 1.200000 0.031000 0.037000
1559787278104333568	1200 30 1.100000 0.172000 0.201000 600 29 0.900000 0.067000 0.061000 600 33 1.000000 0.050000 0.050000 1.200000 0.025000 0.030000
1559787278615469985	1200 30 1.100000 0.172000 0.201000 600 29 0.900000 0.076000 0.069000 600 33 1.000000 0.050000 0.050000 1.200000 0.025000 0.030000
1559787279126676568	1200 30 1.100000 0.171000 0.200000 600 29 0.900000 0.071000 0.064000 600 33 1.000000 0.050000 0.050000 1.200000 0.025000 0.030000
1559787279637840735	1200 30 1.100000 0.170000 0.199000 600 29 0.900000 0.072000 0.065000 600 33 1.000000 0.050000 0.050000 1.200000 0.025000 0.030000
1559787280148560402	1200 30 1.100000 0.172000 0.201000 600 29 0.900000 0.080000 0.073000 600 33 1.000000 0.050000 0.050000 1.200000 0.026000 0.031000
1559787280659814652	1200 30 1.100000 0.171000 0.200000 600 29 0.900000 0.081000 0.073000 600 33 1.000000 0.050000 0.050000 1.200000 0.026000 0.031000
1559787281170767110	1200 30 1.100000 0.171000 0.200000 600 29 0.900000 0.075000 0.068000 600 33 1.000000 0.050000 0.050000 1.200000 0.025000 0.030000
1559787281682174860	1200 30 1.100000 0.172000 0.201000 600 29 0.900000 0.066000 0.060000 600 33 1.000000 0.050000 0.050000 1.200000 0.025000 0.030000
1559787282193385110	1200 30 1.100000 0.172000 0.201000 600 29 0.900000 0.101000 0.092000 600 33 1.000000 0.050000 0.050000 1.200000 0.027000 0.032000
1559787282704346360	1200 30 1.100000 0.172000 0.201000 600 29 0.900000 0.065000 0.059000 600 33 1.000000 0.050000 0.050000 1.200000 0.025000 0.030000
1559787283215143902	1200 30 1.100000 0.172000 0.201000 600 29 0.900000 0.068000 0.062000 600 33 1.000000 0.050000 0.050000 1.200000 0.025000 0.030000
1559787283726147861	1200 30 1.100000 0.170000 0.199000 600 29 0.900000 0.066000 0.060000 600 33 1.000000 0.050000 0.050000 1.200000 0.025000 0.030000
1559787284236996194	1200 30 1.100000 0.172000 0.201000 600 29 0.900000 0.184000 0.167000 600 33 1.000000 0.050000 0.050000 1.200000 0.032000 0.038000
1559787284748290402	1200 30 1.100000 0.171000 0.200000 600 29 0.900000 0.064000 0.058000 600 33 1.000000 0.050000 0.050000 1.200000 0.025000 0.030000
1559787285259137486	1200 30 1.100000 0.172000 0.201000 600 29 0.900000 0.066000 0.060000 600 33 1.000000 0.050000 0.050000 1.200000 0.025000 0.030000
1559787285770057569	1200 30 1.100000 0.171000 0.200000 600 29 0.900000 0.066000 0.060000 600 33 1.000000 0.050000 0.050000 1.200000 0.025000 0.030000
1559787286280956027	1200 30 1.100000 0.172000 0.201000 600 29 0.900000 0.266000 0.242000 600 33 1.000000 0.050000 0.050000 1.200000 0.034000 0.041000
1559787286792325694	1200 30 1.100000 0.171000 0.200000 600 29 0.900000 0.074000 0.067000 600 33 1.000000 0.050000 0.050000 1.200000 0.025000 0.030000
1559787287303480694	1200 30 1.100000 0.171000 0.200000 600 29 0.900000 0.128000 0.116000 600 33 1.000000 0.050000 0.050000 1.200000 0.030000 0.036000
1559787287814315986	1200 30 1.100000 0.171000 0.200000 600 29 0.900000 0.080000 0.073000 600 33 1.000000 0.050000 0.050000 1.200000 0.026000 0.031000
1559787288326041569	1200 30 1.100000 0.171000 0.200000 600 29 0.900000 0.075000 0.068000 600 33 1.000000 0.050000 0.050000 1.200000 0.026000 0.031000
1559787288837628694	1200 30 1.100000 0.172000 0.201000 600 29 0.900000 0.098000 0.089000 600 33 1.000000 0.050000 0.050000 1.200000 0.028000 0.033000
1559787289348793903	1200 30 1.100000 0.172000 0.201000 600 29 0.900000 0.081000 0.073000 600 33 1.000000 0.050000 0.050000 1.200000 0.026000 0.031000
1559787289859672445	1200 30 1.100000 0.172000 0.201000 600 29 0.900000 0.065000 0.059000 600 33 1.000000 0.050000 0.050000 1.200000 0.025000 0.030000
1559787290370463028	1200 30 1.100000 0.171000 0.200000 600 29 0.900000 0.067000 0.061000 600 33 1.000000 0.050000 0.050000 1.200000 0.024000 0.029000
1559787290881505903	1200 30 1.100000 0.171000 0.200000 600 29 0.900000 0.180000 0.164000 600 33 1.000000 0.050000 0.050000 1.200000 0.031000 0.037000
1559787291392536320	1200 30 1.100000 0.173000 0.202000 600 29 0.900000 0.066000 0.060000 600 33 1.000000 0.050000 0.050000 1.200000 0.025000 0.030000
1559787291903431278	1200 30 1.100000 0.170000 0.199000 600 29 0.900000 0.064000 0.058000 600 33 1.000000 0.050000 0.050000 1.200000 0.025000 0.030000
1559787292414218820	1200 30 1.100000 0.172000 0.201000 600 29 0.900000 0.065000 0.059000 600 33 1.000000 0.050000 0.050000 1.200000 0.025000 0.030000
1559787292925101737	1200 30 1.100000 0.172000 0.201000 600 29 0.900000 0.264000 0.240000 600 33 1.000000 0.050000 0.050000 1.200000 0.033000 0.039000
1559787293436149445	1200 30 1.100000 0.172000 0.201000 600 29 0.900000 0.066000 0.060000 600 33 1.000000 0.050000 0.050000 1.200000 0.025000 0.030000
1559787293947094862	1200 30 1.100000 0.172000 0.201000 600 29 0.900000 0.073000 0.066000 600 33 1.000000 0.050000 0.050000 1.200000 0.025000 0.030000
1559787294457834987	1200 30 1.100000 0.171000 0.200000 600 29 0.900000 0.078000 0.071000 600 33 1.000000 0.050000 0.050000 1.200000 0.025000 0.030000
1559787294969612987	1200 30 1.100000 0.172000 0.201000 600 29 0.900000 0.064000 0.058000 600 33 1.000000 0.050000 0.050000 1.200000 0.025000 0.030000
1559787295480744029	1200 30 1.100000 0.171000 0.200000 600 29 0.900000 0.242000 0.220000 600 33 1.000000 0.051000 0.051000 1.200000 0.032000 0.038000
1559787295991619195	1200 30 1.100000 0.172000 0.201000 600 29 0.900000 0.071000 0.064000 600 33 1.000000 0.050000 0.050000 1.200000 0.025000 0.030000
1559787296502401195	1200 30 1.100000 0.172000 0.201000 600 29 0.900000 0.074000 0.067000 600 33 1.000000 0.050000 0.050000 1.200000 0.025000 0.030000
1559787297013403904	1200 30 1.100000 0.171000 0.200000 600 29 0.900000 0.079000 0.072000 600 33 1.000000 0.050000 0.050000 1.200000 0.025000 0.030000
1559787297524642321	1200 30 1.100000 0.172000 0.201000 600 29 0.900000 0.162000 0.147000 600 33 1.000000 0.050000 0.050000 1.200000 0.028000 0.033000
1559787298035529279	1200 30 1.100000 0.172000 0.201000 600 29 0.900000 0.075000 0.068000 600 33 1.000000 0.050000 0.050000 1.200000 0.026000 0.031000
1559787298546376404	1200 30 1.100000 0.172000 0.201000 600 29 0.900000 0.072000 0.065000 600 33 1.000000 0.050000 0.050000 1.200000 0.025000 0.030000
1559787299057227821	1200 30 1.100000 0.172000 0.201000 600 29 0.900000 0.076000 0.069000 600 33 1.000000 0.050000 0.050000 1.200000 0.025000 0.030000
1559787299568221196	1200 30 1.100000 0.173000 0.202000 600 29 0.900000 0.079000 0.072000 600 33 1.000000 0.050000 0.050000 1.200000 0.025000 0.030000
1559787300079087529	1200 30 1.100000 0.172000 0.201000 600 29 0.900000 0.077000 0.070000 600 33 1.000000 0.050000 0.050000 1.200000 0.026000 0.031000
1559787300589758654	1200 30 1.100000 0.172000 0.201000 600 29 0.900000 0.073000 0.066000 600 33 1.000000 0.050000 0.050000 1.200000 0.025000 0.030000
1559787301100622696	1200 30 1.100000 0.172000 0.201000 600 29 0.900000 0.074000 0.067000 600 33 1.000000 0.050000 0.050000 1.200000 0.026000 0.031000
1559787301612294821	1200 30 1.100000 0.170000 0.199000 600 29 0.900000 0.098000 0.089000 600 33 1.000000 0.050000 0.050000 1.200000 0.025000 0.030000
1559787302123530738	1200 30 1.100000 0.171000 0.200000 600 29 0.900000 0.106000 0.096000 600 33 1.000000 0.050000 0.050000 1.200000 0.028000 0.033000
1559787302634568363	1200 30 1.100000 0.172000 0.201000 600 29 0.900000 0.067000 0.061000 600 33 1.000000 0.050000 0.050000 1.200000 0.026000 0.031000
1559787303145439030	1200 30 1.100000 0.171000 0.200000 600 29 0.900000 0.073000 0.066000 600 33 1.000000 0.050000 0.050000 1.200000 0.025000 0.030000
1559787303656498280	1200 30 1.100000 0.172000 0.201000 600 29 0.900000 0.075000 0.068000 600 33 1.000000 0.050000 0.050000 1.200000 0.025000 0.030000
1559787304167538655	1200 30 1.100000 0.171000 0.200000 600 29 0.900000 0.177000 0.161000 600 33 1.000000 0.050000 0.050000 1.200000 0.031000 0.037000
1559787304678423946	1200 30 1.100000 0.172000 0.201000 600 29 0.900000 0.077000 0.070000 600 33 1.000000 0.050000 0.050000 1.200000 0.026000 0.031000
1559787305189215030	1200 30 1.100000 0.171000 0.200000 600 29 0.900000 0.072000 0.065000 600 33 1.000000 0.050000 0.050000 1.200000 0.025000 0.030000
1559787305700416280	1200 30 1.100000 0.171000 0.200000 600 29 0.900000 0.075000 0.068000 600 33 1.000000 0.050000 0.050000 1.200000 0.025000 0.030000
1559787306211369197	1200 30 1.100000 0.172000 0.201000 600 29 0.900000 0.079000 0.072000 600 33 1.000000 0.050000 0.050000 1.200000 0.026000 0.031000
1559787306722177822	1200 30 1.100000 0.171000 0.200000 600 29 0.900000 0.079000 0.072000 600 33 1.000000 0.050000 0.050000 1.200000 0.025000 0.030000
1559787307233217572	1200 30 1.100000 0.171000 0.200000 600 29 0.900000 0.076000 0.069000 600 33 1.000000 0.050000 0.050000 1.200000 0.025000 0.030000
1559787307744395655	1200 30 1.100000 0.172000 0.201000 600 29 0.900000 0.073000 0.066000 600 33 1.000000 0.050000 0.050000 1.200000 0.026000 0.031000
1559787308255936030	1200 31 1.100000 0.172000 0.201000 600 29 0.900000 0.076000 0.069000 600 33 1.000000 0.050000 0.050000 1.200000 0.026000 0.031000
1559787308767233655	1200 30 1.100000 0.172000 0.201000 600 29 0.900000 0.104000 0.094000 600 33 1.000000 0.050000 0.050000 1.200000 0.028000 0.033000
1559787309278362280	1200 30 1.100000 0.171000 0.200000 600 29 0.900000 0.065000 0.059000 600 33 1.000000 0.050000 0.050000 1.200000 0.025000 0.030000
1559787309789561905	1200 30 1.100000 0.171000 0.200000 600 29 0.900000 0.065000 0.059000 600 33 1.000000 0.050000 0.050000 1.200000 0.025000 0.030000
1559787310300633822	1200 30 1.100000 0.172000 0.201000 600 29 0.900000 0.066000 0.060000 600 33 1.000000 0.050000 0.050000 1.200000 0.025000 0.030000
1559787310811794197	1200 30 1.100000 0.171000 0.200000 600 29 0.900000 0.153000 0.139000 600 33 1.000000 0.050000 0.050000 1.200000 0.028000 0.033000
1559787311322721030	1200 30 1.100000 0.172000 0.201000 600 29 0.900000 0.082000 0.074000 600 33 1.000000 0.050000 0.050000 1.200000 0.026000 0.031000
1559787311833925489	1200 30 1.100000 0.172000 0.201000 600 29 0.900000 0.078000 0.071000 600 33 1.000000 0.050000 0.050000 1.200000 0.025000 0.030000
1559787312344737864	1200 30 1.100000 0.172000 0.201000 600 29 0.900000 0.147000 0.134000 600 33 1.000000 0.050000 0.050000 1.200000 0.030000 0.036000
1559787312855728072	1200 30 1.100000 0.172000 0.201000 600 29 0.900000 0.072000 0.065000 600 33 1.000000 0.050000 0.050000 1.200000 0.025000 0.030000
1559787313366488447	1200 30 1.100000 0.171000 0.200000 600 29 0.900000 0.078000 0.071000 600 33 1.000000 0.050000 0.050000 1.200000 0.026000 0.031000
1559787313877855572	1200 30 1.100000 0.172000 0.201000 600 29 0.900000 0.081000 0.073000 600 34 1.000000 0.050000 0.050000 1.200000 0.026000 0.031000
1559787314389059239	1200 30 1.100000 0.172000 0.201000 600 29 0.900000 0.152000 0.138000 600 33 1.000000 0.050000 0.050000 1.200000 0.030000 0.036000
1559787314900813489	1200 31 1.100000 0.171000 0.200000 600 29 0.900000 0.073000 0.066000 600 33 1.000000 0.050000 0.050000 1.200000 0.025000 0.030000
1559787315411861989	1200 30 1.100000 0.172000 0.201000 600 29 0.900000 0.102000 0.093000 600 33 1.000000 0.050000 0.050000 1.200000 0.028000 0.033000
1559787315922809323	1200 30 1.100000 0.172000 0.201000 600 29 0.900000 0.066000 0.060000 600 33 1.000000 0.050000 0.050000 1.200000 0.026000 0.031000
1559787316433985448	1200 30 1.100000 0.172000 0.201000 600 29 0.900000 0.110000 0.100000 600 33 1.000000 0.050000 0.050000 1.200000 0.030000 0.036000
1559787316945558656	1200 30 1.100000 0.172000 0.201000 600 29 0.900000 0.065000 0.059000 600 33 1.000000 0.050000 0.050000 1.200000 0.025000 0.030000
1559787317456870865	1200 30 1.100000 0.172000 0.201000 600 29 0.900000 0.186000 0.169000 600 33 1.000000 0.050000 0.050000 1.200000 0.031000 0.037000
1559787317967721198	1200 30 1.100000 0.171000 0.200000 600 29 0.900000 0.067000 0.061000 600 33 1.000000 0.050000 0.050000 1.200000 0.025000 0.030000
1559787318478731698	1200 30 1.100000 0.172000 0.201000 600 29 0.900000 0.081000 0.073000 600 33 1.000000 0.050000 0.050000 1.200000 0.028000 0.033000
1559787318989663031	1200 30 1.100000 0.172000 0.201000 600 29 0.900000 0.080000 0.073000 600 33 1.000000 0.050000 0.050000 1.200000 0.026000 0.031000
1559787319500487990	1200 30 1.100000 0.172000 0.201000 600 29 0.900000 0.073000 0.066000 600 33 1.000000 0.050000 0.050000 1.200000 0.025000 0.030000
1559787320011235782	1200 30 1.100000 0.172000 0.201000 600 29 0.900000 0.073000 0.066000 600 33 1.000000 0.050000 0.050000 1.200000 0.026000 0.031000
1559787320522498823	1200 30 1.100000 0.172000 0.201000 600 29 0.900000 0.153000 0.139000 600 33 1.000000 0.050000 0.050000 1.200000 0.030000 0.036000
1559787321033514823	1200 30 1.100000 0.171000 0.200000 600 29 0.900000 0.082000 0.074000 600 33 1.000000 0.050000 0.050000 1.200000 0.026000 0.031000
1559787321545396407	1200 30 1.100000 0.171000 0.200000 600 30 0.900000 0.078000 0.071000 600 33 1.000000 0.050000 0.050000 1.200000 0.025000 0.030000
1559787322056337365	1200 30 1.100000 0.171000 0.200000 600 29 0.900000 0.104000 0.094000 600 33 1.000000 0.050000 0.050000 1.200000 0.028000 0.033000
1559787322567614698	1200 30 1.100000 0.172000 0.201000 600 29 0.900000 0.143000 0.130000 600 33 1.000000 0.050000 0.050000 1.200000 0.030000 0.036000
1559787323078668365	1200 30 1.100000 0.172000 0.201000 600 29 0.900000 0.068000 0.062000 600 33 1.000000 0.050000 0.050000 1.200000 0.025000 0.030000
1559787323590360157	1200 30 1.100000 0.172000 0.201000 600 29 0.900000 0.065000 0.059000 600 33 1.000000 0.050000 0.050000 1.200000 0.025000 0.030000
1559787324101647740	1200 30 1.100000 0.171000 0.200000 600 29 0.900000 0.188000 0.171000 600 33 1.000000 0.050000 0.050000 1.200000 0.032000 0.038000
1559787324612676115	1200 30 1.100000 0.173000 0.202000 600 29 0.900000 0.143000 0.130000 600 33 1.000000 0.050000 0.050000 1.200000 0.030000 0.036000
1559787325123473740	1200 30 1.100000 0.171000 0.200000 600 29 0.900000 0.066000 0.060000 600 33 1.000000 0.050000 0.050000 1.200000 0.025000 0.030000
1559787325634359782	1200 30 1.100000 0.172000 0.201000 600 29 0.900000 0.066000 0.060000 600 33 1.000000 0.050000 0.050000 1.200000 0.025000 0.030000
1559787326145497366	1200 30 1.100000 0.172000 0.201000 600 29 0.900000 0.269000 0.245000 600 33 1.000000 0.050000 0.050000 1.200000 0.034000 0.041000
1559787326656560491	1200 30 1.100000 0.172000 0.201000 600 29 0.900000 0.141000 0.128000 600 33 1.000000 0.050000 0.050000 1.200000 0.029000 0.035000
1559787327167942907	1200 30 1.100000 0.172000 0.201000 600 29 0.900000 0.073000 0.066000 600 33 1.000000 0.050000 0.050000 1.200000 0.026000 0.031000
1559787327678750532	1200 30 1.100000 0.171000 0.200000 600 29 0.900000 0.074000 0.067000 600 33 1.000000 0.050000 0.050000 1.200000 0.025000 0.030000
1559787328190651616	1200 30 1.100000 0.172000 0.201000 600 29 0.900000 0.079000 0.072000 600 33 1.000000 0.050000 0.050000 1.200000 0.025000 0.030000
1559787328702013116	1200 30 1.100000 0.172000 0.201000 600 29 0.900000 0.108000 0.098000 600 33 1.000000 0.050000 0.050000 1.200000 0.028000 0.033000
1559787329212840408	1200 30 1.100000 0.171000 0.200000 600 29 0.900000 0.064000 0.058000 600 33 1.000000 0.050000 0.050000 1.200000 0.026000 0.031000
1559787329723809533	1200 30 1.100000 0.172000 0.201000 600 29 0.900000 0.066000 0.060000 600 33 1.000000 0.050000 0.050000 1.200000 0.025000 0.030000
1559787330235392991	1200 30 1.100000 0.172000 0.201000 600 29 0.900000 0.067000 0.061000 600 33 1.000000 0.050000 0.050000 1.200000 0.025000 0.030000
1559787330746645283	1200 30 1.100000 0.172000 0.201000 600 29 0.900000 0.226000 0.206000 600 33 1.000000 0.050000 0.050000 1.200000 0.033000 0.039000
1559787331257534491	1200 30 1.100000 0.172000 0.201000 600 29 0.900000 0.065000 0.059000 600 33 1.000000 0.050000 0.050000 1.200000 0.025000 0.030000
1559787331768197366	1200 30 1.100000 0.171000 0.200000 600 29 0.900000 0.064000 0.058000 600 33 1.000000 0.050000 0.050000 1.200000 0.025000 0.030000
1559787332278857741	1200 30 1.100000 0.172000 0.201000 600 29 0.900000 0.066000 0.060000 600 33 1.000000 0.050000 0.050000 1.200000 0.025000 0.030000
1559787332790065700	1200 30 1.100000 0.173000 0.202000 600 29 0.900000 0.332000 0.302000 600 34 1.000000 0.050000 0.050000 1.200000 0.037000 0.044000
1559787333301035408	1200 30 1.100000 0.172000 0.201000 600 29 0.900000 0.066000 0.060000 600 33 1.000000 0.050000 0.050000 1.200000 0.025000 0.030000
1559787333812013366	1200 30 1.100000 0.171000 0.200000 600 29 0.900000 0.080000 0.073000 600 33 1.000000 0.050000 0.050000 1.200000 0.025000 0.030000
1559787334322746950	1200 30 1.100000 0.171000 0.200000 600 29 0.900000 0.073000 0.066000 600 33 1.000000 0.050000 0.050000 1.200000 0.025000 0.030000
1559787334834488742	1200 31 1.100000 0.172000 0.201000 600 30 0.900000 0.071000 0.064000 600 34 1.000000 0.050000 0.050000 1.200000 0.036000 0.043000
1559787335345931117	1200 30 1.100000 0.174000 0.203000 600 29 0.900000 0.287000 0.261000 600 33 1.000000 0.050000 0.050000 1.200000 0.030000 0.036000
1559787335856612575	1200 30 1.100000 0.172000 0.201000 600 29 0.900000 0.080000 0.073000 600 33 1.000000 0.050000 0.050000 1.200000 0.026000 0.031000
1559787336367481908	1200 30 1.100000 0.171000 0.200000 600 29 0.900000 0.077000 0.070000 600 33 1.000000 0.050000 0.050000 1.200000 0.026000 0.031000
1559787336879918034	1200 30 1.100000 0.171000 0.200000 600 29 0.900000 0.069000 0.062000 600 33 1.000000 0.050000 0.050000 1.200000 0.025000 0.030000
1559787337391305575	1200 30 1.100000 0.172000 0.201000 600 29 0.900000 0.218000 0.198000 600 33 1.000000 0.050000 0.050000 1.200000 0.029000 0.035000
1559787337902259784	1200 30 1.100000 0.171000 0.200000 600 29 0.900000 0.076000 0.069000 600 33 1.000000 0.050000 0.050000 1.200000 0.025000 0.030000
1559787338412937075	1200 30 1.100000 0.171000 0.200000 600 29 0.900000 0.081000 0.073000 600 33 1.000000 0.050000 0.050000 1.200000 0.025000 0.030000
1559787338924646992	1200 30 1.100000 0.172000 0.201000 600 29 0.900000 0.077000 0.070000 600 33 1.000000 0.050000 0.050000 1.200000 0.025000 0.030000
1559787339435916450	1200 30 1.100000 0.173000 0.202000 600 29 0.900000 0.150000 0.136000 600 33 1.000000 0.050000 0.050000 1.200000 0.032000 0.038000
1559787339946833284	1200 30 1.100000 0.172000 0.201000 600 29 0.900000 0.072000 0.065000 600 33 1.000000 0.050000 0.050000 1.200000 0.026000 0.031000
1559787340457714159	1200 30 1.100000 0.172000 0.201000 600 29 0.900000 0.079000 0.072000 600 33 1.000000 0.050000 0.050000 1.200000 0.025000 0.030000
1559787340968921076	1200 30 1.100000 0.172000 0.201000 600 29 0.900000 0.081000 0.073000 600 33 1.000000 0.050000 0.050000 1.200000 0.025000 0.030000
1559787341480574742	1200 31 1.100000 0.172000 0.201000 600 29 0.900000 0.151000 0.137000 600 33 1.000000 0.050000 0.050000 1.200000 0.031000 0.037000
1559787341991587076	1200 30 1.100000 0.172000 0.201000 600 29 0.900000 0.118000 0.107000 600 33 1.000000 0.050000 0.050000 1.200000 0.028000 0.033000
1559787342502356076	1200 30 1.100000 0.171000 0.200000 600 29 0.900000 0.067000 0.061000 600 33 1.000000 0.050000 0.050000 1.200000 0.026000 0.031000
1559787343013190909	1200 30 1.100000 0.126000 0.147000 600 29 0.900000 0.114000 0.104000 600 33 1.000000 0.050000 0.050000 1.200000 0.068000 0.082000
1559787343526495784	1200 31 1.100000 0.137000 0.160000 600 30 0.900000 0.125000 0.114000 600 33 1.000000 0.050000 0.050000 1.200000 0.068000 0.082000
1559787344037548368	1200 31 1.100000 0.279000 0.323000 600 30 0.900000 0.170000 0.155000 600 34 1.000000 0.050000 0.050000 1.200000 0.049000 0.059000
1559787344548239701	1200 31 1.100000 0.275000 0.319000 600 30 0.900000 0.107000 0.097000 600 34 1.000000 0.050000 0.050000 1.200000 0.049000 0.059000
1559787345059089368	1200 31 1.100000 0.272000 0.315000 600 30 0.900000 0.107000 0.097000 600 34 1.000000 0.051000 0.051000 1.200000 0.049000 0.059000
1559787345570130618	1200 31 1.100000 0.274000 0.318000 600 30 0.900000 0.142000 0.129000 600 34 1.000000 0.050000 0.050000 1.200000 0.049000 0.059000
1559787346081122410	1200 31 1.100000 0.273000 0.316000 600 30 0.900000 0.115000 0.104000 600 34 1.000000 0.050000 0.050000 1.200000 0.049000 0.059000
1559787346592058701	1200 31 1.100000 0.272000 0.315000 600 30 0.900000 0.110000 0.100000 600 34 1.000000 0.050000 0.050000 1.200000 0.049000 0.059000
1559787347102676951	1200 31 1.100000 0.273000 0.316000 600 30 0.900000 0.107000 0.097000 600 34 1.000000 0.050000 0.050000 1.200000 0.049000 0.059000
1559787347613818243	1200 31 1.100000 0.274000 0.318000 600 30 0.900000 0.172000 0.156000 600 34 1.000000 0.050000 0.050000 1.200000 0.050000 0.060000
1559787348125612743	1200 32 1.100000 0.273000 0.316000 600 31 0.900000 0.116000 0.105000 600 34 1.000000 0.050000 0.050000 1.200000 0.049000 0.059000
1559787348636500202	1200 31 1.100000 0.274000 0.318000 600 30 0.900000 0.155000 0.141000 600 34 1.000000 0.051000 0.051000 1.200000 0.049000 0.059000
1559787349147522993	1200 31 1.100000 0.274000 0.318000 600 31 0.900000 0.109000 0.099000 600 34 1.000000 0.050000 0.050000 1.200000 0.049000 0.059000
1559787349658534202	1200 31 1.100000 0.274000 0.318000 600 30 0.900000 0.168000 0.153000 600 34 1.000000 0.050000 0.050000 1.200000 0.051000 0.061000
1559787350171360285	1200 32 1.100000 0.274000 0.318000 600 30 0.900000 0.104000 0.094000 600 34 1.000000 0.050000 0.050000 1.200000 0.049000 0.059000
1559787350682654285	1200 31 1.100000 0.274000 0.318000 600 31 0.900000 0.209000 0.190000 600 34 1.000000 0.050000 0.050000 1.200000 0.050000 0.060000
1559787351193516619	1200 31 1.100000 0.275000 0.319000 600 31 0.900000 0.101000 0.092000 600 34 1.000000 0.050000 0.050000 1.200000 0.049000 0.059000
1559787351704694119	1200 31 1.100000 0.273000 0.316000 600 31 0.900000 0.109000 0.099000 600 34 1.000000 0.050000 0.050000 1.200000 0.049000 0.059000
1559787352215688619	1200 31 1.100000 0.274000 0.318000 600 30 0.900000 0.107000 0.097000 600 34 1.000000 0.050000 0.050000 1.200000 0.049000 0.059000
1559787352726660035	1200 32 1.100000 0.273000 0.316000 600 31 0.900000 0.110000 0.100000 600 34 1.000000 0.050000 0.050000 1.200000 0.049000 0.059000
1559787353237587702	1200 32 1.100000 0.274000 0.318000 600 31 0.900000 0.115000 0.104000 600 34 1.000000 0.050000 0.050000 1.200000 0.049000 0.059000
1559787353748651619	1200 32 1.100000 0.272000 0.315000 600 31 0.900000 0.113000 0.103000 600 34 1.000000 0.050000 0.050000 1.200000 0.049000 0.059000
1559787354259570161	1200 32 1.100000 0.273000 0.316000 600 31 0.900000 0.109000 0.099000 600 34 1.000000 0.051000 0.051000 1.200000 0.049000 0.059000
1559787354771396036	1200 32 1.100000 0.273000 0.316000 600 31 0.900000 0.107000 0.097000 600 34 1.000000 0.050000 0.050000 1.200000 0.049000 0.059000
1559787355282543077	1200 31 1.100000 0.274000 0.318000 600 31 0.900000 0.153000 0.139000 600 34 1.000000 0.050000 0.050000 1.200000 0.049000 0.059000
1559787355793707827	1200 32 1.100000 0.273000 0.316000 600 31 0.900000 0.116000 0.105000 600 34 1.000000 0.051000 0.051000 1.200000 0.049000 0.059000
1559787356304553119	1200 31 1.100000 0.273000 0.316000 600 31 0.900000 0.101000 0.092000 600 34 1.000000 0.050000 0.050000 1.200000 0.049000 0.059000
1559787356817443328	1200 32 1.100000 0.273000 0.316000 600 31 0.900000 0.103000 0.094000 600 34 1.000000 0.050000 0.050000 1.200000 0.048000 0.058000
1559787357328767661	1200 32 1.100000 0.274000 0.318000 600 31 0.900000 0.211000 0.192000 600 34 1.000000 0.050000 0.050000 1.200000 0.051000 0.061000
1559787357840005119	1200 32 1.100000 0.274000 0.318000 600 31 0.900000 0.112000 0.102000 600 34 1.000000 0.050000 0.050000 1.200000 0.048000 0.058000
1559787358350857703	1200 32 1.100000 0.273000 0.316000 600 31 0.900000 0.102000 0.093000 600 34 1.000000 0.050000 0.050000 1.200000 0.048000 0.058000
1559787358861715244	1200 32 1.100000 0.273000 0.316000 600 31 0.900000 0.101000 0.092000 600 34 1.000000 0.050000 0.050000 1.200000 0.049000 0.059000
1559787359372750328	1200 32 1.100000 0.276000 0.320000 600 31 0.900000 0.271000 0.247000 600 34 1.000000 0.051000 0.051000 1.200000 0.051000 0.061000
1559787359883986786	1200 32 1.100000 0.274000 0.318000 600 31 0.900000 0.109000 0.099000 600 34 1.000000 0.050000 0.050000 1.200000 0.049000 0.059000
1559787360394810453	1200 32 1.100000 0.274000 0.318000 600 31 0.900000 0.141000 0.128000 600 34 1.000000 0.050000 0.050000 1.200000 0.051000 0.061000
1559787360905617911	1200 32 1.100000 0.272000 0.315000 600 31 0.900000 0.115000 0.104000 600 34 1.000000 0.050000 0.050000 1.200000 0.049000 0.059000
1559787361417240245	1200 32 1.100000 0.274000 0.318000 600 31 0.900000 0.111000 0.101000 600 34 1.000000 0.050000 0.050000 1.200000 0.049000 0.059000
1559787361928550328	1200 32 1.100000 0.275000 0.319000 600 31 0.900000 0.147000 0.134000 600 34 1.000000 0.051000 0.051000 1.200000 0.050000 0.060000
1559787362439377078	1200 32 1.100000 0.274000 0.318000 600 31 0.900000 0.109000 0.099000 600 34 1.000000 0.050000 0.050000 1.200000 0.050000 0.060000
1559787362950158245	1200 32 1.100000 0.272000 0.315000 600 31 0.900000 0.105000 0.095000 600 34 1.000000 0.050000 0.050000 1.200000 0.049000 0.059000
1559787363462249453	1200 32 1.100000 0.273000 0.316000 600 31 0.900000 0.102000 0.093000 600 34 1.000000 0.050000 0.050000 1.200000 0.049000 0.059000
1559787363973794745	1200 32 1.100000 0.275000 0.319000 600 31 0.900000 0.211000 0.192000 600 34 1.000000 0.050000 0.050000 1.200000 0.051000 0.061000
1559787364484757328	1200 32 1.100000 0.273000 0.316000 600 31 0.900000 0.102000 0.093000 600 34 1.000000 0.050000 0.050000 1.200000 0.049000 0.059000
1559787364995847204	1200 32 1.100000 0.272000 0.315000 600 31 0.900000 0.103000 0.093000 600 34 1.000000 0.050000 0.050000 1.200000 0.048000 0.058000
1559787365506697204	1200 32 1.100000 0.273000 0.316000 600 31 0.900000 0.108000 0.098000 600 34 1.000000 0.050000 0.050000 1.200000 0.049000 0.059000
1559787366018161620	1200 32 1.100000 0.274000 0.318000 600 31 0.900000 0.274000 0.249000 600 34 1.000000 0.050000 0.050000 1.200000 0.052000 0.062000
1559787366529232079	1200 32 1.100000 0.274000 0.318000 600 31 0.900000 0.100000 0.091000 600 34 1.000000 0.050000 0.050000 1.200000 0.049000 0.059000
1559787367040244787	1200 32 1.100000 0.272000 0.315000 600 31 0.900000 0.103000 0.094000 600 34 1.000000 0.050000 0.050000 1.200000 0.049000 0.059000
1559787367551144079	1200 32 1.100000 0.273000 0.316000 600 31 0.900000 0.103000 0.094000 600 34 1.000000 0.050000 0.050000 1.200000 0.048000 0.058000
1559787368063374954	1200 32 1.100000 0.273000 0.316000 600 31 0.900000 0.115000 0.104000 600 34 1.000000 0.050000 0.050000 1.200000 0.048000 0.058000
1559787368574611162	1200 32 1.100000 0.276000 0.320000 600 31 0.900000 0.220000 0.200000 600 34 1.000000 0.050000 0.050000 1.200000 0.053000 0.064000
1559787369085585371	1200 32 1.100000 0.272000 0.315000 600 31 0.900000 0.111000 0.101000 600 34 1.000000 0.050000 0.050000 1.200000 0.049000 0.059000
1559787369596460621	1200 32 1.100000 0.272000 0.315000 600 31 0.900000 0.106000 0.096000 600 34 1.000000 0.051000 0.051000 1.200000 0.048000 0.058000
1559787370108135121	1200 32 1.100000 0.273000 0.316000 600 31 0.900000 0.104000 0.094000 600 34 1.000000 0.050000 0.050000 1.200000 0.049000 0.059000
1559787370619411496	1200 32 1.100000 0.276000 0.320000 600 31 0.900000 0.281000 0.256000 600 34 1.000000 0.050000 0.050000 1.200000 0.055000 0.066000
1559787371130403579	1200 32 1.100000 0.272000 0.315000 600 31 0.900000 0.103000 0.094000 600 34 1.000000 0.050000 0.050000 1.200000 0.048000 0.058000
1559787371641541496	1200 32 1.100000 0.273000 0.316000 600 31 0.900000 0.100000 0.091000 600 34 1.000000 0.050000 0.050000 1.200000 0.049000 0.059000
1559787372152266996	1200 32 1.100000 0.273000 0.316000 600 31 0.900000 0.103000 0.093000 600 34 1.000000 0.050000 0.050000 1.200000 0.049000 0.059000
1559787372663336496	1200 32 1.100000 0.275000 0.319000 600 31 0.900000 0.334000 0.304000 600 34 1.000000 0.051000 0.051000 1.200000 0.054000 0.065000
1559787373174267288	1200 32 1.100000 0.273000 0.316000 600 31 0.900000 0.118000 0.107000 600 34 1.000000 0.050000 0.050000 1.200000 0.048000 0.058000
1559787373685046830	1200 32 1.100000 0.273000 0.316000 600 31 0.900000 0.113000 0.103000 600 34 1.000000 0.050000 0.050000 1.200000 0.049000 0.059000
1559787374195738455	1200 32 1.100000 0.274000 0.318000 600 31 0.900000 0.108000 0.098000 600 34 1.000000 0.050000 0.050000 1.200000 0.048000 0.058000
1559787374707690705	1200 32 1.100000 0.275000 0.319000 600 31 0.900000 0.136000 0.124000 600 35 1.000000 0.050000 0.050000 1.200000 0.052000 0.062000
1559787375218778830	1200 32 1.100000 0.273000 0.316000 600 31 0.900000 0.164000 0.149000 600 34 1.000000 0.050000 0.050000 1.200000 0.049000 0.059000
1559787375729884913	1200 32 1.100000 0.272000 0.315000 600 31 0.900000 0.115000 0.104000 600 34 1.000000 0.050000 0.050000 1.200000 0.049000 0.059000
1559787376240838122	1200 32 1.100000 0.272000 0.315000 600 31 0.900000 0.102000 0.093000 600 34 1.000000 0.050000 0.050000 1.200000 0.049000 0.059000
1559787376752451663	1200 32 1.100000 0.272000 0.315000 600 31 0.900000 0.105000 0.095000 600 34 1.000000 0.050000 0.050000 1.200000 0.049000 0.059000
1559787377263756038	1200 32 1.100000 0.276000 0.320000 600 31 0.900000 0.166000 0.151000 600 34 1.000000 0.050000 0.050000 1.200000 0.052000 0.062000
1559787377774782205	1200 32 1.100000 0.272000 0.315000 600 31 0.900000 0.114000 0.104000 600 34 1.000000 0.050000 0.050000 1.200000 0.048000 0.058000
1559787378285539955	1200 32 1.100000 0.272000 0.315000 600 31 0.900000 0.115000 0.104000 600 34 1.000000 0.050000 0.050000 1.200000 0.048000 0.058000
1559787378796681997	1200 32 1.100000 0.273000 0.316000 600 31 0.900000 0.109000 0.099000 600 34 1.000000 0.051000 0.051000 1.200000 0.050000 0.060000
1559787379307873997	1200 32 1.100000 0.272000 0.315000 600 31 0.900000 0.110000 0.100000 600 34 1.000000 0.051000 0.051000 1.200000 0.052000 0.062000
1559787379818875872	1200 32 1.100000 0.274000 0.318000 600 31 0.900000 0.112000 0.102000 600 34 1.000000 0.051000 0.051000 1.200000 0.048000 0.058000
1559787380329742164	1200 32 1.100000 0.274000 0.318000 600 31 0.900000 0.115000 0.104000 600 34 1.000000 0.050000 0.050000 1.200000 0.048000 0.058000
1559787380840769414	1200 32 1.100000 0.272000 0.315000 600 31 0.900000 0.114000 0.104000 600 34 1.000000 0.050000 0.050000 1.200000 0.050000 0.060000
1559787381352827164	1200 32 1.100000 0.273000 0.316000 600 31 0.900000 0.109000 0.099000 600 34 1.000000 0.050000 0.050000 1.200000 0.051000 0.061000
1559787381864046789	1200 32 1.100000 0.273000 0.316000 600 31 0.900000 0.163000 0.148000 600 34 1.000000 0.050000 0.050000 1.200000 0.050000 0.060000
1559787382374915331	1200 32 1.100000 0.274000 0.318000 600 31 0.900000 0.112000 0.102000 600 34 1.000000 0.050000 0.050000 1.200000 0.049000 0.059000
1559787382886115206	1200 32 1.100000 0.274000 0.318000 600 31 0.900000 0.117000 0.106000 600 34 1.000000 0.050000 0.050000 1.200000 0.049000 0.059000
1559787383397874206	1200 32 1.100000 0.273000 0.316000 600 31 0.900000 0.102000 0.093000 600 34 1.000000 0.050000 0.050000 1.200000 0.049000 0.059000
1559787383909061331	1200 32 1.100000 0.277000 0.321000 600 31 0.900000 0.225000 0.205000 600 34 1.000000 0.050000 0.050000 1.200000 0.052000 0.062000
1559787384420202789	1200 32 1.100000 0.273000 0.316000 600 31 0.900000 0.107000 0.097000 600 34 1.000000 0.050000 0.050000 1.200000 0.049000 0.059000
1559787384931505373	1200 32 1.100000 0.273000 0.316000 600 31 0.900000 0.112000 0.102000 600 34 1.000000 0.050000 0.050000 1.200000 0.048000 0.058000
1559787385442489664	1200 32 1.100000 0.274000 0.318000 600 31 0.900000 0.182000 0.165000 600 34 1.000000 0.050000 0.050000 1.200000 0.051000 0.061000
1559787385953739914	1200 32 1.100000 0.272000 0.315000 600 31 0.900000 0.113000 0.103000 600 34 1.000000 0.050000 0.050000 1.200000 0.048000 0.058000
1559787386464648373	1200 32 1.100000 0.272000 0.315000 600 31 0.900000 0.110000 0.100000 600 34 1.000000 0.050000 0.050000 1.200000 0.049000 0.059000
1559787386975743706	1200 32 1.100000 0.274000 0.318000 600 31 0.900000 0.108000 0.098000 600 34 1.000000 0.050000 0.050000 1.200000 0.049000 0.059000
1559787387486834415	1200 32 1.100000 0.273000 0.316000 600 31 0.900000 0.177000 0.161000 600 34 1.000000 0.050000 0.050000 1.200000 0.051000 0.061000
1559787387998612165	1200 32 1.100000 0.274000 0.318000 600 31 0.900000 0.116000 0.105000 600 34 1.000000 0.050000 0.050000 1.200000 0.048000 0.058000
1559787388509800790	1200 32 1.100000 0.272000 0.315000 600 31 0.900000 0.167000 0.152000 600 34 1.000000 0.050000 0.050000 1.200000 0.050000 0.060000
1559787389020963165	1200 32 1.100000 0.273000 0.316000 600 31 0.900000 0.108000 0.098000 600 34 1.000000 0.050000 0.050000 1.200000 0.049000 0.059000
1559787389532116623	1200 32 1.100000 0.273000 0.316000 600 31 0.900000 0.142000 0.129000 600 34 1.000000 0.050000 0.050000 1.200000 0.051000 0.061000
1559787390043705915	1200 32 1.100000 0.273000 0.316000 600 31 0.900000 0.105000 0.095000 600 34 1.000000 0.051000 0.051000 1.200000 0.049000 0.059000
1559787390554963832	1200 32 1.100000 0.278000 0.322000 600 31 0.900000 0.225000 0.205000 600 34 1.000000 0.050000 0.050000 1.200000 0.052000 0.062000
1559787391066431957	1200 32 1.100000 0.272000 0.315000 600 31 0.900000 0.102000 0.093000 600 35 1.000000 0.050000 0.050000 1.200000 0.049000 0.059000
1559787391577602290	1200 32 1.100000 0.274000 0.318000 600 31 0.900000 0.104000 0.094000 600 34 1.000000 0.050000 0.050000 1.200000 0.050000 0.060000
1559787392088708748	1200 32 1.100000 0.274000 0.318000 600 31 0.900000 0.103000 0.094000 600 34 1.000000 0.050000 0.050000 1.200000 0.048000 0.058000
1559787392599878415	1200 32 1.100000 0.273000 0.316000 600 31 0.900000 0.114000 0.104000 600 35 1.000000 0.050000 0.050000 1.200000 0.049000 0.059000
1559787393110708207	1200 32 1.100000 0.271000 0.314000 600 31 0.900000 0.117000 0.106000 600 34 1.000000 0.050000 0.050000 1.200000 0.049000 0.059000
1559787393621861040	1200 32 1.100000 0.275000 0.319000 600 31 0.900000 0.177000 0.161000 600 34 1.000000 0.050000 0.050000 1.200000 0.051000 0.061000
1559787394132669415	1200 32 1.100000 0.273000 0.316000 600 31 0.900000 0.107000 0.097000 600 34 1.000000 0.050000 0.050000 1.200000 0.049000 0.059000
1559787394644527665	1200 32 1.100000 0.272000 0.315000 600 31 0.900000 0.109000 0.099000 600 35 1.000000 0.050000 0.050000 1.200000 0.049000 0.059000
1559787395155722540	1200 32 1.100000 0.273000 0.316000 600 31 0.900000 0.170000 0.155000 600 34 1.000000 0.050000 0.050000 1.200000 0.051000 0.061000
1559787395666665832	1200 32 1.100000 0.274000 0.318000 600 31 0.900000 0.183000 0.167000 600 34 1.000000 0.050000 0.050000 1.200000 0.051000 0.061000
1559787396177838999	1200 32 1.100000 0.273000 0.316000 600 31 0.900000 0.111000 0.101000 600 34 1.000000 0.050000 0.050000 1.200000 0.049000 0.059000
1559787396689579457	1200 32 1.100000 0.274000 0.318000 600 31 0.900000 0.106000 0.096000 600 34 1.000000 0.051000 0.051000 1.200000 0.049000 0.059000
1559787397200626249	1200 32 1.100000 0.277000 0.321000 600 31 0.900000 0.233000 0.212000 600 34 1.000000 0.050000 0.050000 1.200000 0.052000 0.062000
1559787397711837374	1200 32 1.100000 0.273000 0.316000 600 31 0.900000 0.170000 0.155000 600 34 1.000000 0.050000 0.050000 1.200000 0.051000 0.061000
1559787398222857374	1200 32 1.100000 0.273000 0.316000 600 31 0.900000 0.102000 0.093000 600 34 1.000000 0.050000 0.050000 1.200000 0.049000 0.059000
1559787398733694041	1200 32 1.100000 0.274000 0.318000 600 31 0.900000 0.101000 0.092000 600 34 1.000000 0.050000 0.050000 1.200000 0.049000 0.059000
1559787399244700749	1200 32 1.100000 0.277000 0.321000 600 31 0.900000 0.276000 0.251000 600 34 1.000000 0.050000 0.050000 1.200000 0.051000 0.061000
1559787399755966499	1200 32 1.100000 0.274000 0.318000 600 31 0.900000 0.172000 0.157000 600 34 1.000000 0.050000 0.050000 1.200000 0.051000 0.061000
1559787400266938166	1200 32 1.100000 0.274000 0.318000 600 31 0.900000 0.103000 0.094000 600 34 1.000000 0.050000 0.050000 1.200000 0.049000 0.059000
1559787400777953624	1200 32 1.100000 0.273000 0.316000 600 31 0.900000 0.114000 0.103000 600 34 1.000000 0.050000 0.050000 1.200000 0.048000 0.058000
1559787401289927500	1200 32 1.100000 0.273000 0.316000 600 31 0.900000 0.109000 0.099000 600 35 1.000000 0.050000 0.050000 1.200000 0.049000 0.059000
1559787401801460541	1200 32 1.100000 0.275000 0.319000 600 31 0.900000 0.177000 0.161000 600 34 1.000000 0.050000 0.050000 1.200000 0.051000 0.061000
1559787402312395208	1200 32 1.100000 0.274000 0.318000 600 31 0.900000 0.111000 0.101000 600 34 1.000000 0.050000 0.050000 1.200000 0.049000 0.059000
1559787402823241708	1200 32 1.100000 0.274000 0.318000 600 31 0.900000 0.115000 0.104000 600 34 1.000000 0.050000 0.050000 1.200000 0.049000 0.059000
1559787403335028166	1200 32 1.100000 0.273000 0.316000 600 31 0.900000 0.114000 0.104000 600 34 1.000000 0.050000 0.050000 1.200000 0.049000 0.059000
1559787403846497583	1200 32 1.100000 0.277000 0.321000 600 31 0.900000 0.275000 0.250000 600 34 1.000000 0.050000 0.050000 1.200000 0.051000 0.061000
1559787404357489417	1200 32 1.100000 0.273000 0.316000 600 31 0.900000 0.103000 0.094000 600 34 1.000000 0.050000 0.050000 1.200000 0.049000 0.059000
1559787404868457250	1200 32 1.100000 0.273000 0.316000 600 31 0.900000 0.104000 0.094000 600 34 1.000000 0.050000 0.050000 1.200000 0.049000 0.059000
1559787405379200417	1200 32 1.100000 0.273000 0.316000 600 31 0.900000 0.102000 0.093000 600 34 1.000000 0.050000 0.050000 1.200000 0.048000 0.058000
1559787405890361292	1200 32 1.100000 0.277000 0.321000 600 31 0.900000 0.328000 0.299000 600 35 1.000000 0.051000 0.051000 1.200000 0.051000 0.061000
1559787406401216042	1200 32 1.100000 0.274000 0.318000 600 31 0.900000 0.101000 0.092000 600 34 1.000000 0.050000 0.050000 1.200000 0.049000 0.059000
1559787406911991667	1200 32 1.100000 0.274000 0.318000 600 31 0.900000 0.103000 0.094000 600 34 1.000000 0.050000 0.050000 1.200000 0.048000 0.058000
1559787407422778209	1200 32 1.100000 0.273000 0.316000 600 31 0.900000 0.103000 0.094000 600 34 1.000000 0.050000 0.050000 1.200000 0.048000 0.058000
1559787407934420250	1200 32 1.100000 0.277000 0.321000 600 31 0.900000 0.266000 0.242000 600 35 1.000000 0.050000 0.050000 1.200000 0.051000 0.061000
1559787408445594042	1200 32 1.100000 0.274000 0.318000 600 31 0.900000 0.100000 0.091000 600 34 1.000000 0.050000 0.050000 1.200000 0.048000 0.058000
1559787408956531000	1200 32 1.100000 0.273000 0.316000 600 31 0.900000 0.106000 0.096000 600 34 1.000000 0.050000 0.050000 1.200000 0.048000 0.058000
1559787409467569667	1200 32 1.100000 0.274000 0.318000 600 31 0.900000 0.110000 0.100000 600 34 1.000000 0.050000 0.050000 1.200000 0.049000 0.059000
1559787409980349126	1200 32 1.100000 0.274000 0.318000 600 31 0.900000 0.116000 0.105000 600 34 1.000000 0.050000 0.050000 1.200000 0.049000 0.059000
1559787410491434001	1200 32 1.100000 0.277000 0.321000 600 31 0.900000 0.249000 0.227000 600 34 1.000000 0.050000 0.050000 1.200000 0.051000 0.061000
1559787411002313501	1200 32 1.100000 0.273000 0.316000 600 31 0.900000 0.102000 0.093000 600 34 1.000000 0.050000 0.050000 1.200000 0.049000 0.059000
1559787411513237167	1200 32 1.100000 0.274000 0.318000 600 31 0.900000 0.101000 0.092000 600 34 1.000000 0.050000 0.050000 1.200000 0.049000 0.059000
1559787412024377209	1200 32 1.100000 0.273000 0.316000 600 31 0.900000 0.104000 0.094000 600 34 1.000000 0.050000 0.050000 1.200000 0.048000 0.058000
1559787412535468626	1200 32 1.100000 0.275000 0.319000 600 31 0.900000 0.272000 0.248000 600 34 1.000000 0.050000 0.050000 1.200000 0.050000 0.060000
1559787413046292001	1200 32 1.100000 0.274000 0.318000 600 31 0.900000 0.117000 0.106000 600 34 1.000000 0.050000 0.050000 1.200000 0.049000 0.059000
1559787413556961834	1200 32 1.100000 0.274000 0.318000 600 31 0.900000 0.109000 0.099000 600 34 1.000000 0.050000 0.050000 1.200000 0.049000 0.059000
1559787414068169793	1200 32 1.100000 0.274000 0.318000 600 31 0.900000 0.107000 0.097000 600 34 1.000000 0.051000 0.051000 1.200000 0.048000 0.058000
1559787414581599543	1200 33 1.100000 0.276000 0.320000 600 31 0.900000 0.178000 0.162000 600 35 1.000000 0.050000 0.050000 1.200000 0.049000 0.059000
1559787415093805793	1200 32 1.100000 0.273000 0.316000 600 31 0.900000 0.180000 0.164000 600 34 1.000000 0.050000 0.050000 1.200000 0.048000 0.058000
1559787415604608710	1200 32 1.100000 0.274000 0.318000 600 31 0.900000 0.115000 0.104000 600 34 1.000000 0.050000 0.050000 1.200000 0.049000 0.059000
1559787416115932918	1200 32 1.100000 0.274000 0.318000 600 31 0.900000 0.113000 0.103000 600 34 1.000000 0.050000 0.050000 1.200000 0.049000 0.059000
1559787416628825293	1200 32 1.100000 0.275000 0.319000 600 31 0.900000 0.176000 0.160000 600 34 1.000000 0.050000 0.050000 1.200000 0.048000 0.058000
1559787417139987876	1200 32 1.100000 0.275000 0.319000 600 31 0.900000 0.250000 0.228000 600 35 1.000000 0.050000 0.050000 1.200000 0.051000 0.061000
1559787417650843001	1200 32 1.100000 0.274000 0.318000 600 31 0.900000 0.110000 0.100000 600 34 1.000000 0.050000 0.050000 1.200000 0.049000 0.059000
1559787418161579168	1200 32 1.100000 0.274000 0.318000 600 31 0.900000 0.114000 0.104000 600 34 1.000000 0.050000 0.050000 1.200000 0.049000 0.059000
1559787418672551168	1200 32 1.100000 0.275000 0.319000 600 31 0.900000 0.137000 0.124000 600 34 1.000000 0.050000 0.050000 1.200000 0.051000 0.061000
1559787419183606793	1200 32 1.100000 0.275000 0.319000 600 31 0.900000 0.108000 0.098000 600 34 1.000000 0.050000 0.050000 1.200000 0.050000 0.060000
1559787419694501043	1200 32 1.100000 0.274000 0.318000 600 31 0.900000 0.110000 0.100000 600 34 1.000000 0.051000 0.051000 1.200000 0.049000 0.059000
1559787420205379460	1200 32 1.100000 0.274000 0.318000 600 31 0.900000 0.113000 0.103000 600 34 1.000000 0.050000 0.050000 1.200000 0.048000 0.057000
1559787420716541377	1200 32 1.100000 0.274000 0.318000 600 31 0.900000 0.167000 0.152000 600 34 1.000000 0.050000 0.050000 1.200000 0.051000 0.061000
1559787421228024627	1200 32 1.100000 0.275000 0.319000 600 31 0.900000 0.110000 0.100000 600 35 1.000000 0.050000 0.050000 1.200000 0.049000 0.059000
1559787421739085710	1200 32 1.100000 0.274000 0.318000 600 31 0.900000 0.184000 0.167000 600 34 1.000000 0.050000 0.050000 1.200000 0.050000 0.060000
1559787422249968752	1200 32 1.100000 0.274000 0.318000 600 31 0.900000 0.111000 0.101000 600 34 1.000000 0.050000 0.050000 1.200000 0.048000 0.058000
1559787422761150669	1200 32 1.100000 0.276000 0.320000 600 31 0.900000 0.181000 0.165000 600 34 1.000000 0.050000 0.050000 1.200000 0.050000 0.060000
1559787423273155710	1200 32 1.100000 0.274000 0.318000 600 31 0.900000 0.117000 0.106000 600 34 1.000000 0.050000 0.050000 1.200000 0.049000 0.059000
1559787423784179336	1200 32 1.100000 0.278000 0.322000 600 31 0.900000 0.253000 0.230000 600 34 1.000000 0.051000 0.051000 1.200000 0.049000 0.059000
1559787424295183586	1200 32 1.100000 0.274000 0.318000 600 31 0.900000 0.104000 0.094000 600 34 1.000000 0.050000 0.050000 1.200000 0.049000 0.059000
1559787424806449752	1200 32 1.100000 0.275000 0.319000 600 31 0.900000 0.169000 0.154000 600 34 1.000000 0.050000 0.050000 1.200000 0.050000 0.060000
1559787425317509836	1200 32 1.100000 0.273000 0.316000 600 31 0.900000 0.115000 0.104000 600 34 1.000000 0.050000 0.050000 1.200000 0.050000 0.060000
1559787425828360752	1200 32 1.100000 0.274000 0.318000 600 31 0.900000 0.115000 0.104000 600 35 1.000000 0.050000 0.050000 1.200000 0.049000 0.059000
1559787426339168169	1200 32 1.100000 0.274000 0.318000 600 31 0.900000 0.111000 0.101000 600 34 1.000000 0.050000 0.050000 1.200000 0.050000 0.060000
1559787426850208003	1200 32 1.100000 0.274000 0.318000 600 31 0.900000 0.107000 0.097000 600 34 1.000000 0.050000 0.050000 1.200000 0.049000 0.059000
1559787427361005753	1200 32 1.100000 0.274000 0.318000 600 31 0.900000 0.113000 0.103000 600 34 1.000000 0.050000 0.050000 1.200000 0.049000 0.059000
1559787427872209794	1200 33 1.100000 0.274000 0.318000 600 31 0.900000 0.115000 0.104000 600 35 1.000000 0.050000 0.050000 1.200000 0.048000 0.058000
1559787428383181086	1200 32 1.100000 0.279000 0.323000 600 31 0.900000 0.178000 0.162000 600 34 1.000000 0.050000 0.050000 1.200000 0.050000 0.060000
1559787428894451586	1200 32 1.100000 0.274000 0.318000 600 31 0.900000 0.107000 0.097000 600 34 1.000000 0.050000 0.050000 1.200000 0.049000 0.059000
1559787429405521086	1200 32 1.100000 0.274000 0.318000 600 31 0.900000 0.109000 0.099000 600 34 1.000000 0.050000 0.050000 1.200000 0.049000 0.059000
1559787429918361253	1200 32 1.100000 0.274000 0.318000 600 31 0.900000 0.114000 0.104000 600 34 1.000000 0.050000 0.050000 1.200000 0.049000 0.059000
1559787430429539753	1200 32 1.100000 0.280000 0.325000 600 31 0.900000 0.251000 0.228000 600 34 1.000000 0.050000 0.050000 1.200000 0.051000 0.061000
1559787430940567961	1200 32 1.100000 0.274000 0.318000 600 31 0.900000 0.101000 0.092000 600 34 1.000000 0.051000 0.051000 1.200000 0.048000 0.058000
1559787431451397378	1200 32 1.100000 0.274000 0.318000 600 31 0.900000 0.103000 0.094000 600 34 1.000000 0.050000 0.050000 1.200000 0.049000 0.059000
1559787431962151962	1200 32 1.100000 0.274000 0.318000 600 31 0.900000 0.104000 0.094000 600 34 1.000000 0.050000 0.050000 1.200000 0.049000 0.059000
1559787432473090003	1200 32 1.100000 0.288000 0.334000 600 31 0.900000 0.247000 0.225000 600 34 1.000000 0.050000 0.050000 1.200000 0.053000 0.064000
1559787432984203837	1200 32 1.100000 0.275000 0.319000 600 31 0.900000 0.129000 0.117000 600 34 1.000000 0.050000 0.050000 1.200000 0.048000 0.058000
1559787433495179962	1200 32 1.100000 0.272000 0.315000 600 31 0.900000 0.150000 0.136000 600 34 1.000000 0.050000 0.050000 1.200000 0.051000 0.061000
1559787434006142837	1200 32 1.100000 0.274000 0.318000 600 31 0.900000 0.107000 0.097000 600 34 1.000000 0.050000 0.050000 1.200000 0.049000 0.059000
1559787434517473253	1200 32 1.100000 0.274000 0.318000 600 31 0.900000 0.110000 0.100000 600 35 1.000000 0.050000 0.050000 1.200000 0.049000 0.059000
1559787435028522754	1200 32 1.100000 0.288000 0.334000 600 31 0.900000 0.178000 0.162000 600 35 1.000000 0.050000 0.050000 1.200000 0.054000 0.065000
1559787435539380212	1200 32 1.100000 0.274000 0.318000 600 31 0.900000 0.119000 0.108000 600 34 1.000000 0.050000 0.050000 1.200000 0.050000 0.060000
1559787436050370504	1200 32 1.100000 0.274000 0.318000 600 31 0.900000 0.108000 0.098000 600 34 1.000000 0.050000 0.050000 1.200000 0.048000 0.058000
1559787436561940545	1200 32 1.100000 0.273000 0.316000 600 31 0.900000 0.107000 0.097000 600 34 1.000000 0.050000 0.050000 1.200000 0.049000 0.059000
1559787437073693670	1200 32 1.100000 0.288000 0.334000 600 31 0.900000 0.233000 0.212000 600 35 1.000000 0.050000 0.050000 1.200000 0.056000 0.067000
1559787437584565421	1200 32 1.100000 0.274000 0.318000 600 31 0.900000 0.103000 0.094000 600 34 1.000000 0.050000 0.050000 1.200000 0.050000 0.060000
1559787438095505421	1200 32 1.100000 0.273000 0.316000 600 31 0.900000 0.102000 0.093000 600 34 1.000000 0.050000 0.050000 1.200000 0.049000 0.059000
1559787438606329921	1200 32 1.100000 0.273000 0.316000 600 31 0.900000 0.102000 0.093000 600 34 1.000000 0.050000 0.050000 1.200000 0.048000 0.058000
1559787439117781712	1200 32 1.100000 0.287000 0.333000 600 31 0.900000 0.238000 0.217000 600 34 1.000000 0.051000 0.051000 1.200000 0.053000 0.064000
1559787439628723379	1200 32 1.100000 0.274000 0.318000 600 31 0.900000 0.103000 0.094000 600 34 1.000000 0.050000 0.050000 1.200000 0.049000 0.059000
1559787440139569629	1200 32 1.100000 0.274000 0.318000 600 31 0.900000 0.101000 0.092000 600 34 1.000000 0.051000 0.051000 1.200000 0.048000 0.058000
1559787440650452421	1200 32 1.100000 0.274000 0.318000 600 31 0.900000 0.101000 0.092000 600 34 1.000000 0.050000 0.050000 1.200000 0.049000 0.059000
1559787441162642088	1200 32 1.100000 0.274000 0.318000 600 31 0.900000 0.180000 0.164000 600 35 1.000000 0.050000 0.050000 1.200000 0.050000 0.060000
1559787441674187338	1200 32 1.100000 0.288000 0.334000 600 31 0.900000 0.246000 0.224000 600 34 1.000000 0.050000 0.050000 1.200000 0.058000 0.070000
1559787442185022254	1200 32 1.100000 0.274000 0.318000 600 31 0.900000 0.114000 0.104000 600 34 1.000000 0.050000 0.050000 1.200000 0.049000 0.059000
1559787442695793088	1200 32 1.100000 0.274000 0.318000 600 31 0.900000 0.115000 0.104000 600 34 1.000000 0.050000 0.050000 1.200000 0.049000 0.059000
1559787443207447963	1200 32 1.100000 0.273000 0.316000 600 31 0.900000 0.111000 0.101000 600 34 1.000000 0.051000 0.051000 1.200000 0.048000 0.058000
1559787443718749671	1200 32 1.100000 0.286000 0.332000 600 31 0.900000 0.306000 0.279000 600 34 1.000000 0.050000 0.050000 1.200000 0.058000 0.070000
1559787444229764921	1200 32 1.100000 0.273000 0.316000 600 31 0.900000 0.104000 0.094000 600 34 1.000000 0.050000 0.050000 1.200000 0.049000 0.059000
1559787444740599963	1200 32 1.100000 0.273000 0.316000 600 31 0.900000 0.103000 0.094000 600 34 1.000000 0.050000 0.050000 1.200000 0.049000 0.059000
1559787445251416755	1200 32 1.100000 0.273000 0.316000 600 31 0.900000 0.102000 0.093000 600 34 1.000000 0.050000 0.050000 1.200000 0.049000 0.059000
1559787445762428880	1200 32 1.100000 0.286000 0.332000 600 31 0.900000 0.291000 0.265000 600 34 1.000000 0.050000 0.050000 1.200000 0.054000 0.065000
1559787446273326338	1200 32 1.100000 0.274000 0.318000 600 31 0.900000 0.102000 0.093000 600 34 1.000000 0.050000 0.050000 1.200000 0.049000 0.059000
1559787446783813880	1200 32 1.100000 0.274000 0.318000 600 31 0.900000 0.104000 0.094000 600 34 1.000000 0.050000 0.050000 1.200000 0.048000 0.058000
1559787447294714838	1200 32 1.100000 0.274000 0.318000 600 31 0.900000 0.102000 0.093000 600 34 1.000000 0.050000 0.050000 1.200000 0.048000 0.058000
1559787447806203630	1200 33 1.100000 0.275000 0.319000 600 31 0.900000 0.209000 0.190000 600 34 1.000000 0.050000 0.050000 1.200000 0.051000 0.061000
1559787448317044672	1200 32 1.100000 0.277000 0.321000 600 31 0.900000 0.101000 0.092000 600 34 1.000000 0.050000 0.050000 1.200000 0.048000 0.058000
1559787448828138630	1200 32 1.100000 0.273000 0.316000 600 31 0.900000 0.102000 0.093000 600 34 1.000000 0.050000 0.050000 1.200000 0.048000 0.058000
1559787449338795255	1200 32 1.100000 0.274000 0.318000 600 31 0.900000 0.103000 0.094000 600 34 1.000000 0.050000 0.050000 1.200000 0.049000 0.059000
1559787449850694464	1200 32 1.100000 0.274000 0.318000 600 31 0.900000 0.170000 0.155000 600 34 1.000000 0.050000 0.050000 1.200000 0.048000 0.058000
1559787450361799922	1200 32 1.100000 0.283000 0.328000 600 31 0.900000 0.255000 0.232000 600 34 1.000000 0.050000 0.050000 1.200000 0.055000 0.066000
1559787450872721630	1200 32 1.100000 0.274000 0.318000 600 31 0.900000 0.106000 0.096000 600 34 1.000000 0.050000 0.050000 1.200000 0.049000 0.059000
1559787451383456339	1200 32 1.100000 0.273000 0.316000 600 31 0.900000 0.103000 0.094000 600 34 1.000000 0.050000 0.050000 1.200000 0.049000 0.059000
1559787451894593381	1200 32 1.100000 0.275000 0.319000 600 31 0.900000 0.171000 0.156000 600 34 1.000000 0.050000 0.050000 1.200000 0.049000 0.059000
1559787452406107214	1200 32 1.100000 0.282000 0.327000 600 31 0.900000 0.116000 0.105000 600 34 1.000000 0.051000 0.051000 1.200000 0.052000 0.062000
1559787452917055589	1200 32 1.100000 0.274000 0.318000 600 31 0.900000 0.139000 0.126000 600 34 1.000000 0.050000 0.050000 1.200000 0.049000 0.059000
1559787453427937922	1200 32 1.100000 0.274000 0.318000 600 31 0.900000 0.108000 0.098000 600 34 1.000000 0.050000 0.050000 1.200000 0.048000 0.058000
1559787453938983297	1200 32 1.100000 0.274000 0.318000 600 31 0.900000 0.112000 0.102000 600 34 1.000000 0.050000 0.050000 1.200000 0.050000 0.060000
1559787454450778381	1200 32 1.100000 0.273000 0.316000 600 31 0.900000 0.117000 0.106000 600 35 1.000000 0.050000 0.050000 1.200000 0.048000 0.058000
1559787454962117381	1200 32 1.100000 0.280000 0.325000 600 31 0.900000 0.204000 0.186000 600 34 1.000000 0.050000 0.050000 1.200000 0.048000 0.057000
1559787455472823464	1200 32 1.100000 0.273000 0.316000 600 31 0.900000 0.108000 0.098000 600 34 1.000000 0.051000 0.051000 1.200000 0.048000 0.058000
1559787455984227673	1200 32 1.100000 0.273000 0.316000 600 31 0.900000 0.108000 0.098000 600 34 1.000000 0.050000 0.050000 1.200000 0.051000 0.061000
1559787456495915339	1200 32 1.100000 0.274000 0.318000 600 31 0.900000 0.112000 0.102000 600 34 1.000000 0.050000 0.050000 1.200000 0.048000 0.058000
1559787457007090423	1200 32 1.100000 0.282000 0.327000 600 31 0.900000 0.260000 0.237000 600 34 1.000000 0.050000 0.050000 1.200000 0.050000 0.060000
1559787457518142256	1200 32 1.100000 0.274000 0.318000 600 31 0.900000 0.114000 0.104000 600 34 1.000000 0.050000 0.050000 1.200000 0.048000 0.057000
1559787458029773256	1200 32 1.100000 0.274000 0.318000 600 31 0.900000 0.113000 0.103000 600 34 1.000000 0.050000 0.050000 1.200000 0.049000 0.059000
1559787458540720298	1200 32 1.100000 0.274000 0.318000 600 31 0.900000 0.176000 0.160000 600 34 1.000000 0.050000 0.050000 1.200000 0.049000 0.059000
1559787459051744256	1200 32 1.100000 0.279000 0.323000 600 31 0.900000 0.111000 0.101000 600 34 1.000000 0.050000 0.050000 1.200000 0.052000 0.062000
1559787459562513840	1200 32 1.100000 0.274000 0.318000 600 31 0.900000 0.152000 0.138000 600 34 1.000000 0.050000 0.050000 1.200000 0.049000 0.059000
1559787460073668048	1200 32 1.100000 0.274000 0.318000 600 31 0.900000 0.113000 0.103000 600 34 1.000000 0.050000 0.050000 1.200000 0.049000 0.059000
1559787460584572965	1200 32 1.100000 0.275000 0.319000 600 31 0.900000 0.173000 0.157000 600 34 1.000000 0.050000 0.050000 1.200000 0.048000 0.058000
1559787461096169048	1200 32 1.100000 0.273000 0.316000 600 31 0.900000 0.107000 0.097000 600 35 1.000000 0.050000 0.050000 1.200000 0.048000 0.058000
1559787461607401423	1200 32 1.100000 0.283000 0.328000 600 31 0.900000 0.211000 0.192000 600 35 1.000000 0.050000 0.050000 1.200000 0.048000 0.058000
1559787462118504090	1200 32 1.100000 0.274000 0.318000 600 31 0.900000 0.116000 0.105000 600 35 1.000000 0.051000 0.051000 1.200000 0.049000 0.059000
1559787462629522340	1200 32 1.100000 0.273000 0.316000 600 31 0.900000 0.150000 0.136000 600 34 1.000000 0.050000 0.050000 1.200000 0.049000 0.059000
1559787463141131549	1200 32 1.100000 0.273000 0.316000 600 31 0.900000 0.106000 0.096000 600 34 1.000000 0.050000 0.050000 1.200000 0.049000 0.059000
1559787463652183965	1200 32 1.100000 0.284000 0.329000 600 31 0.900000 0.253000 0.230000 600 34 1.000000 0.050000 0.050000 1.200000 0.051000 0.061000
1559787464163645382	1200 32 1.100000 0.274000 0.318000 600 31 0.900000 0.115000 0.104000 600 34 1.000000 0.050000 0.050000 1.200000 0.048000 0.058000
1559787464674586424	1200 32 1.100000 0.274000 0.318000 600 31 0.900000 0.108000 0.098000 600 34 1.000000 0.050000 0.050000 1.200000 0.049000 0.059000
1559787465185714382	1200 31 1.100000 0.058000 0.068000 600 30 0.900000 0.091000 0.083000 600 34 1.000000 0.050000 0.050000 1.200000 0.023000 0.027000
1559787465696717091	1200 31 1.100000 0.068000 0.079000 600 30 0.900000 0.189000 0.172000 600 34 1.000000 0.050000 0.050000 1.200000 0.030000 0.036000
