1576010993,4.996,0.618,3.088,0.000
1576010994,5.001,0.685,3.431,0.000
1576010995,5.025,1.169,5.878,0.000
1576010996,5.025,1.186,5.966,0.000
1576010997,5.025,1.157,5.817,0.000
1576010998,5.025,1.161,5.836,0.000
1576010999,5.026,1.185,5.958,0.000
1576011000,5.025,1.168,5.874,0.000
1576011001,5.025,1.192,5.996,0.000
1576011002,5.026,1.185,5.962,0.000
1576011003,5.025,1.186,5.962,0.000
1576011004,5.025,1.189,5.977,0.000
1576011005,5.026,1.189,5.977,0.000
1576011006,5.025,1.174,5.905,0.000
1576011007,5.026,1.184,5.958,0.000
1576011008,5.025,1.184,5.954,0.000
1576011009,5.026,1.183,5.951,0.000
1576011010,5.025,1.170,5.886,0.000
1576011011,5.026,1.181,5.939,0.000
1576011012,5.025,1.179,5.928,0.000
1576011013,5.025,1.165,5.859,0.000
1576011014,5.025,1.181,5.939,0.000
1576011015,5.025,1.191,5.989,0.000
1576011016,5.025,1.166,5.863,0.000
1576011017,5.025,1.183,5.947,0.000
1576011018,5.025,1.191,5.989,0.000
1576011019,5.025,1.179,5.924,0.000
1576011020,5.025,1.183,5.947,0.000
1576011021,5.025,1.162,5.844,0.000
1576011022,5.025,1.159,5.825,0.000
1576011023,5.025,1.178,5.928,0.000
1576011024,5.025,1.191,5.989,0.000
1576011025,5.025,1.166,5.863,0.000
1576011026,5.025,1.176,5.912,0.000
1576011027,5.025,1.187,5.970,0.000
1576011028,5.025,1.169,5.878,0.000
1576011029,5.025,1.177,5.920,0.000
1576011030,5.025,1.174,5.905,0.000
1576011031,5.020,1.052,5.286,0.000
1576011032,5.025,1.171,5.889,0.000
1576011033,5.025,1.175,5.909,0.000
1576011034,5.025,1.185,5.958,0.000
1576011035,5.026,1.173,5.901,0.000
1576011036,5.010,0.901,4.519,0.000
1576011037,5.009,0.922,4.622,0.000
1576011038,5.003,2.521,12.619,0.000
1576011039,5.003,2.564,12.836,0.000
1576011040,5.004,2.588,12.954,0.000
1576011041,5.004,2.610,13.069,0.000
1576011042,5.004,2.618,13.103,0.000
1576011043,5.004,2.641,13.222,0.000
1576011044,5.004,2.643,13.233,0.000
1576011045,4.995,2.347,11.729,0.000
1576011046,4.996,2.432,12.157,0.000
1576011047,4.995,2.460,12.294,0.000
1576011048,4.994,2.477,12.378,0.000
1576011049,4.991,2.442,12.199,0.000
1576011050,4.990,2.442,12.195,0.000
1576011051,4.990,2.484,12.405,0.000
1576011052,4.975,2.094,10.424,0.000
1576011053,4.984,2.312,11.531,0.000
1576011054,4.984,2.311,11.523,0.000
1576011055,4.981,2.312,11.523,0.000
1576011056,4.981,2.314,11.531,0.000
1576011057,4.979,2.316,11.535,0.000
1576011058,4.979,2.316,11.535,0.000
1576011059,4.979,2.317,11.538,0.000
1576011060,4.977,2.317,11.538,0.000
1576011061,4.976,2.320,11.550,0.000
1576011062,4.975,2.321,11.554,0.000
1576011063,4.975,2.322,11.557,0.000
1576011064,4.974,2.324,11.565,0.000
1576011065,4.974,2.324,11.565,0.000
1576011066,4.971,2.324,11.561,0.000
1576011067,4.971,2.328,11.577,0.000
1576011068,4.971,2.328,11.577,0.000
1576011069,4.971,2.325,11.565,0.000
1576011070,4.970,2.331,11.588,0.000
1576011071,4.970,2.328,11.577,0.000
1576011072,4.969,2.291,11.390,0.000
1576011073,4.969,2.330,11.580,0.000
1576011074,4.969,2.330,11.580,0.000
1576011075,4.970,2.288,11.378,0.000
1576011076,4.969,2.325,11.557,0.000
1576011077,5.025,1.048,5.271,0.000
1576011078,5.025,1.182,5.947,0.000
1576011079,5.026,1.193,5.996,0.000
1576011080,5.025,1.166,5.863,0.000
1576011081,5.021,1.206,6.061,0.000
1576011082,5.025,1.192,5.992,0.000
1576011083,5.019,1.110,5.573,0.000
1576011084,5.025,1.165,5.859,0.000
1576011085,5.017,1.050,5.271,0.000
1576011086,5.026,1.160,5.832,0.000
1576011087,5.019,1.166,5.855,0.000
1576011088,5.026,1.176,5.916,0.000
1576011089,5.026,1.168,5.874,0.000
1576011090,5.021,1.107,5.565,0.000
1576011091,5.026,1.173,5.901,0.000
1576011092,5.021,1.236,6.210,0.000
1576011093,5.023,1.320,6.638,0.000
1576011094,5.026,1.165,5.859,0.000
1576011095,5.012,0.990,4.966,0.000
