#Timestamp	CPU(0) Frequency(MHz)	CPU(0) Temperature(C)	A7 Voltage(V)	A7 Current(A)	A7 Power(W)	CPU(4) Frequency(MHz)	CPU(4) Temperature(C)	A15 Voltage(V)	A15 Current(A)	A15 Power(W)	GPU Frequency(MHz)	GPU Temperature(C)	GPU Voltage(V)	GPU Current(A)	GPU Power(W)	RAM Voltage(V)	RAM Current(A)	RAM Power(W)
1559813336369718133	900 36 1.000000 0.070000 0.070000 1100 33 0.900000 0.396000 0.394000 600 37 1.000000 0.050000 0.050000 1.200000 0.050000 0.060000
1559813336879709550	900 37 1.000000 0.044000 0.046000 1100 33 0.900000 0.651000 0.645000 600 37 1.000000 0.050000 0.050000 1.200000 0.046000 0.055000
1559813337389528550	900 37 1.000000 0.048000 0.051000 1100 33 0.900000 0.653000 0.647000 600 38 1.000000 0.050000 0.050000 1.200000 0.044000 0.053000
1559813337899221175	900 37 1.000000 0.056000 0.059000 1100 34 0.900000 0.634000 0.628000 600 38 1.000000 0.051000 0.051000 1.200000 0.040000 0.048000
1559813338408843341	900 37 1.000000 0.040000 0.042000 1100 34 0.900000 0.631000 0.625000 600 38 1.000000 0.051000 0.051000 1.200000 0.028000 0.033000
1559813338918870967	900 38 1.000000 0.040000 0.042000 1100 34 0.900000 0.628000 0.622000 600 38 1.000000 0.051000 0.051000 1.200000 0.027000 0.032000
1559813339428674133	900 38 1.000000 0.040000 0.042000 1100 34 0.900000 0.631000 0.625000 600 38 1.000000 0.051000 0.051000 1.200000 0.027000 0.032000
1559813339950926342	900 38 1.000000 0.042000 0.044000 1100 34 0.900000 0.630000 0.624000 600 38 1.000000 0.051000 0.051000 1.200000 0.027000 0.032000
1559813340463005175	900 38 1.000000 0.069000 0.073000 1100 34 0.900000 0.633000 0.627000 600 38 1.000000 0.051000 0.051000 1.200000 0.044000 0.053000
1559813340993911967	900 38 1.000000 0.043000 0.045000 1100 34 0.900000 0.630000 0.624000 600 38 1.000000 0.051000 0.051000 1.200000 0.029000 0.035000
1559813341503734884	900 38 1.000000 0.056000 0.059000 1100 34 0.900000 0.631000 0.625000 600 38 1.000000 0.051000 0.051000 1.200000 0.035000 0.042000
1559813342025022134	900 38 1.000000 0.040000 0.042000 1100 34 0.900000 0.630000 0.624000 600 38 1.000000 0.051000 0.051000 1.200000 0.028000 0.033000
1559813342538988675	900 38 1.000000 0.055000 0.058000 1100 34 0.900000 0.632000 0.626000 600 38 1.000000 0.050000 0.050000 1.200000 0.048000 0.057000
1559813343076739842	900 38 1.000000 0.040000 0.042000 1100 34 0.900000 0.632000 0.626000 600 38 1.000000 0.051000 0.051000 1.200000 0.029000 0.035000
1559813343586845675	900 38 1.000000 0.060000 0.063000 1100 34 0.900000 0.632000 0.626000 600 38 1.000000 0.051000 0.051000 1.200000 0.034000 0.041000
1559813344096693634	900 38 1.000000 0.041000 0.043000 1100 34 0.900000 0.628000 0.622000 600 38 1.000000 0.051000 0.051000 1.200000 0.028000 0.033000
1559813344606620259	900 38 1.000000 0.055000 0.058000 1100 34 0.900000 0.631000 0.625000 600 39 1.000000 0.051000 0.051000 1.200000 0.042000 0.050000
1559813345132689759	900 38 1.000000 0.041000 0.043000 1100 34 0.900000 0.632000 0.626000 600 38 1.000000 0.051000 0.051000 1.200000 0.028000 0.033000
1559813345646960842	900 38 1.000000 0.061000 0.064000 1100 34 0.900000 0.633000 0.627000 600 39 1.000000 0.051000 0.051000 1.200000 0.032000 0.038000
1559813346156703426	900 38 1.000000 0.043000 0.045000 1100 34 0.900000 0.629000 0.623000 600 38 1.000000 0.051000 0.051000 1.200000 0.028000 0.033000
1559813346666538592	900 38 1.000000 0.053000 0.056000 1100 34 0.900000 0.630000 0.624000 600 39 1.000000 0.051000 0.051000 1.200000 0.035000 0.042000
1559813347176247051	900 38 1.000000 0.040000 0.042000 1100 34 0.900000 0.631000 0.625000 600 39 1.000000 0.051000 0.051000 1.200000 0.027000 0.032000
1559813347686738468	900 38 1.000000 0.040000 0.042000 1100 35 0.900000 0.633000 0.627000 600 39 1.000000 0.051000 0.051000 1.200000 0.029000 0.035000
1559813348196408093	900 38 1.000000 0.039000 0.041000 1100 34 0.900000 0.630000 0.624000 600 39 1.000000 0.051000 0.051000 1.200000 0.028000 0.033000
1559813348718972843	900 38 1.000000 0.041000 0.043000 1100 35 0.900000 0.628000 0.622000 600 39 1.000000 0.051000 0.051000 1.200000 0.027000 0.032000
1559813349233704926	900 38 1.000000 0.071000 0.075000 1100 35 0.900000 0.632000 0.626000 600 39 1.000000 0.051000 0.051000 1.200000 0.026000 0.031000
1559813349743685135	900 38 1.000000 0.058000 0.061000 1100 34 0.900000 0.634000 0.628000 600 39 1.000000 0.051000 0.051000 1.200000 0.028000 0.033000
1559813350253368635	900 38 1.000000 0.040000 0.042000 1100 35 0.900000 0.631000 0.625000 600 39 1.000000 0.051000 0.051000 1.200000 0.027000 0.032000
1559813350763160968	900 38 1.000000 0.042000 0.044000 1100 35 0.900000 0.630000 0.624000 600 39 1.000000 0.051000 0.051000 1.200000 0.028000 0.033000
1559813351272856718	900 38 1.000000 0.051000 0.054000 1100 35 0.900000 0.629000 0.623000 600 39 1.000000 0.050000 0.050000 1.200000 0.044000 0.053000
1559813351782904885	900 38 1.000000 0.058000 0.061000 1100 35 0.900000 0.631000 0.625000 600 39 1.000000 0.051000 0.051000 1.200000 0.033000 0.039000
1559813352292678635	900 38 1.000000 0.041000 0.043000 1100 35 0.900000 0.633000 0.627000 600 39 1.000000 0.051000 0.051000 1.200000 0.028000 0.033000
1559813352802712010	900 38 1.000000 0.041000 0.043000 1100 34 0.900000 0.631000 0.625000 600 39 1.000000 0.051000 0.051000 1.200000 0.028000 0.033000
1559813353312582677	900 38 1.000000 0.056000 0.059000 1100 35 0.900000 0.629000 0.623000 600 39 1.000000 0.051000 0.051000 1.200000 0.037000 0.044000
1559813353822619302	900 38 1.000000 0.060000 0.063000 1100 35 0.900000 0.631000 0.625000 600 39 1.000000 0.051000 0.051000 1.200000 0.034000 0.041000
1559813354332262010	900 38 1.000000 0.040000 0.042000 1100 35 0.900000 0.633000 0.627000 600 39 1.000000 0.051000 0.051000 1.200000 0.026000 0.031000
1559813354842040510	900 38 1.000000 0.040000 0.042000 1100 35 0.900000 0.632000 0.626000 600 39 1.000000 0.051000 0.051000 1.200000 0.028000 0.033000
1559813355364585260	900 38 1.000000 0.040000 0.042000 1100 35 0.900000 0.631000 0.625000 600 39 1.000000 0.051000 0.051000 1.200000 0.030000 0.036000
1559813355876429094	900 38 1.000000 0.081000 0.086000 1100 35 0.900000 0.632000 0.626000 600 39 1.000000 0.051000 0.051000 1.200000 0.034000 0.041000
1559813356386162802	900 38 1.000000 0.041000 0.043000 1100 35 0.900000 0.631000 0.625000 600 39 1.000000 0.051000 0.051000 1.200000 0.027000 0.032000
1559813356895876427	900 38 1.000000 0.042000 0.044000 1100 35 0.900000 0.633000 0.627000 600 39 1.000000 0.051000 0.051000 1.200000 0.027000 0.032000
1559813357412183260	900 38 1.000000 0.040000 0.042000 1100 35 0.900000 0.631000 0.625000 600 39 1.000000 0.050000 0.050000 1.200000 0.027000 0.032000
1559813357923547552	900 38 1.000000 0.092000 0.097000 1100 35 0.900000 0.634000 0.628000 600 39 1.000000 0.051000 0.051000 1.200000 0.035000 0.042000
1559813358433323677	900 38 1.000000 0.039000 0.041000 1100 35 0.900000 0.629000 0.623000 600 39 1.000000 0.051000 0.051000 1.200000 0.027000 0.032000
1559813358943055636	900 38 1.000000 0.042000 0.044000 1100 35 0.900000 0.631000 0.625000 600 39 1.000000 0.051000 0.051000 1.200000 0.028000 0.033000
1559813359452735177	900 38 1.000000 0.043000 0.045000 1100 35 0.900000 0.632000 0.626000 600 39 1.000000 0.051000 0.051000 1.200000 0.029000 0.035000
1559813359962640594	900 38 1.000000 0.040000 0.042000 1100 35 0.900000 0.632000 0.626000 600 39 1.000000 0.051000 0.051000 1.200000 0.029000 0.035000
1559813360472364927	900 38 1.000000 0.044000 0.046000 1100 35 0.900000 0.630000 0.624000 600 39 1.000000 0.051000 0.051000 1.200000 0.049000 0.059000
1559813360982218053	900 38 1.000000 0.040000 0.042000 1100 35 0.900000 0.629000 0.623000 600 39 1.000000 0.051000 0.051000 1.200000 0.028000 0.033000
1559813361491880053	900 38 1.000000 0.041000 0.043000 1100 35 0.900000 0.631000 0.625000 600 39 1.000000 0.051000 0.051000 1.200000 0.028000 0.033000
1559813362015797053	900 38 1.000000 0.043000 0.045000 1100 35 0.900000 0.633000 0.627000 600 39 1.000000 0.051000 0.051000 1.200000 0.030000 0.036000
1559813362525851761	900 38 1.000000 0.091000 0.096000 1100 35 0.900000 0.633000 0.627000 600 39 1.000000 0.051000 0.051000 1.200000 0.048000 0.057000
1559813363035516969	900 38 1.000000 0.043000 0.045000 1100 35 0.900000 0.628000 0.622000 600 39 1.000000 0.051000 0.051000 1.200000 0.028000 0.033000
1559813363545374178	900 38 1.000000 0.041000 0.043000 1100 35 0.900000 0.630000 0.624000 600 39 1.000000 0.051000 0.051000 1.200000 0.029000 0.035000
1559813364055053053	900 38 1.000000 0.041000 0.043000 1100 35 0.900000 0.632000 0.626000 600 39 1.000000 0.051000 0.051000 1.200000 0.027000 0.032000
1559813364564786720	900 38 1.000000 0.081000 0.086000 1100 35 0.900000 0.635000 0.629000 600 39 1.000000 0.051000 0.051000 1.200000 0.037000 0.044000
1559813365074600845	900 38 1.000000 0.040000 0.042000 1100 35 0.900000 0.630000 0.624000 600 39 1.000000 0.051000 0.051000 1.200000 0.028000 0.033000
1559813365584199261	900 38 1.000000 0.040000 0.042000 1100 35 0.900000 0.629000 0.623000 600 39 1.000000 0.051000 0.051000 1.200000 0.028000 0.033000
1559813366094154178	900 38 1.000000 0.043000 0.045000 1100 35 0.900000 0.631000 0.625000 600 39 1.000000 0.051000 0.051000 1.200000 0.027000 0.032000
1559813366603928428	900 38 1.000000 0.081000 0.086000 1100 35 0.900000 0.635000 0.629000 600 39 1.000000 0.051000 0.051000 1.200000 0.029000 0.035000
1559813367113936637	900 38 1.000000 0.046000 0.048000 1100 35 0.900000 0.633000 0.627000 600 39 1.000000 0.051000 0.051000 1.200000 0.047000 0.056000
1559813367623539637	900 38 1.000000 0.041000 0.043000 1100 35 0.900000 0.630000 0.624000 600 39 1.000000 0.051000 0.051000 1.200000 0.028000 0.033000
1559813368143395803	900 38 1.000000 0.042000 0.044000 1100 35 0.900000 0.629000 0.623000 600 39 1.000000 0.051000 0.051000 1.200000 0.028000 0.033000
1559813368667747220	900 38 1.000000 0.061000 0.064000 1100 35 0.900000 0.632000 0.626000 600 39 1.000000 0.051000 0.051000 1.200000 0.034000 0.041000
1559813369179327053	900 38 1.000000 0.081000 0.086000 1100 35 0.900000 0.635000 0.629000 600 39 1.000000 0.051000 0.051000 1.200000 0.047000 0.056000
1559813369688981845	900 38 1.000000 0.041000 0.043000 1100 35 0.900000 0.631000 0.625000 600 39 1.000000 0.051000 0.051000 1.200000 0.029000 0.035000
1559813370224125929	900 38 1.000000 0.041000 0.043000 1100 35 0.900000 0.629000 0.623000 600 39 1.000000 0.051000 0.051000 1.200000 0.029000 0.035000
1559813370734155220	900 38 1.000000 0.062000 0.065000 1100 35 0.900000 0.629000 0.623000 600 39 1.000000 0.051000 0.051000 1.200000 0.035000 0.042000
1559813371243959345	900 38 1.000000 0.084000 0.089000 1100 35 0.900000 0.633000 0.627000 600 39 1.000000 0.051000 0.051000 1.200000 0.040000 0.048000
1559813371753913095	900 38 1.000000 0.041000 0.043000 1100 35 0.900000 0.632000 0.626000 600 39 1.000000 0.051000 0.051000 1.200000 0.028000 0.033000
1559813372284824721	900 38 1.000000 0.040000 0.042000 1100 35 0.900000 0.631000 0.625000 600 39 1.000000 0.051000 0.051000 1.200000 0.028000 0.033000
1559813372795045804	900 38 1.000000 0.040000 0.042000 1100 35 0.900000 0.628000 0.622000 600 39 1.000000 0.051000 0.051000 1.200000 0.034000 0.041000
1559813373304845804	900 38 1.000000 0.081000 0.086000 1100 35 0.900000 0.632000 0.626000 600 39 1.000000 0.051000 0.051000 1.200000 0.034000 0.041000
1559813373814612096	900 38 1.000000 0.040000 0.042000 1100 35 0.900000 0.631000 0.625000 600 39 1.000000 0.051000 0.051000 1.200000 0.028000 0.033000
1559813374335735929	900 38 1.000000 0.043000 0.045000 1100 35 0.900000 0.630000 0.624000 600 39 1.000000 0.051000 0.051000 1.200000 0.027000 0.032000
1559813374845665346	900 38 1.000000 0.061000 0.064000 1100 35 0.900000 0.629000 0.623000 600 39 1.000000 0.051000 0.051000 1.200000 0.034000 0.041000
1559813375368903971	900 38 1.000000 0.044000 0.046000 1100 35 0.900000 0.630000 0.624000 600 39 1.000000 0.051000 0.051000 1.200000 0.028000 0.033000
1559813375878740304	900 38 1.000000 0.043000 0.045000 1100 35 0.900000 0.631000 0.625000 600 39 1.000000 0.051000 0.051000 1.200000 0.027000 0.032000
1559813376388397304	900 38 1.000000 0.040000 0.042000 1100 35 0.900000 0.632000 0.626000 600 39 1.000000 0.051000 0.051000 1.200000 0.025000 0.030000
1559813376898410221	900 38 1.000000 0.048000 0.051000 1100 35 0.900000 0.633000 0.627000 600 39 1.000000 0.051000 0.051000 1.200000 0.029000 0.035000
1559813377420396304	900 38 1.000000 0.042000 0.044000 1100 35 0.900000 0.630000 0.624000 600 39 1.000000 0.051000 0.051000 1.200000 0.027000 0.032000
1559813377935077888	900 38 1.000000 0.081000 0.086000 1100 35 0.900000 0.629000 0.623000 600 39 1.000000 0.051000 0.051000 1.200000 0.042000 0.050000
1559813378444745180	900 38 1.000000 0.040000 0.042000 1100 35 0.900000 0.631000 0.625000 600 39 1.000000 0.051000 0.051000 1.200000 0.027000 0.032000
1559813378954753805	900 38 1.000000 0.063000 0.066000 1100 35 0.900000 0.632000 0.626000 600 39 1.000000 0.051000 0.051000 1.200000 0.032000 0.038000
1559813379464490013	900 38 1.000000 0.042000 0.044000 1100 35 0.900000 0.630000 0.624000 600 39 1.000000 0.051000 0.051000 1.200000 0.028000 0.033000
1559813379974443680	900 38 1.000000 0.078000 0.082000 1100 35 0.900000 0.628000 0.622000 600 39 1.000000 0.051000 0.051000 1.200000 0.035000 0.042000
1559813380484168930	900 38 1.000000 0.048000 0.051000 1100 35 0.900000 0.629000 0.623000 600 39 1.000000 0.051000 0.051000 1.200000 0.028000 0.033000
1559813380994234888	900 38 1.000000 0.045000 0.047000 1100 35 0.900000 0.631000 0.625000 600 39 1.000000 0.051000 0.051000 1.200000 0.035000 0.042000
1559813381503892555	900 38 1.000000 0.042000 0.044000 1100 35 0.900000 0.631000 0.625000 600 39 1.000000 0.051000 0.051000 1.200000 0.030000 0.036000
1559813382013707680	900 38 1.000000 0.043000 0.045000 1100 35 0.900000 0.630000 0.624000 600 39 1.000000 0.051000 0.051000 1.200000 0.027000 0.032000
1559813382523335305	900 38 1.000000 0.044000 0.046000 1100 35 0.900000 0.629000 0.623000 600 39 1.000000 0.051000 0.051000 1.200000 0.027000 0.032000
1559813383033202888	900 39 1.000000 0.061000 0.064000 1100 35 0.900000 0.632000 0.626000 600 39 1.000000 0.051000 0.051000 1.200000 0.033000 0.039000
1559813383543081930	900 38 1.000000 0.040000 0.042000 1100 35 0.900000 0.633000 0.627000 600 39 1.000000 0.051000 0.051000 1.200000 0.027000 0.032000
1559813384061713805	900 37 1.000000 0.040000 0.042000 1100 35 0.900000 0.631000 0.625000 600 39 1.000000 0.051000 0.051000 1.200000 0.027000 0.032000
1559813384577521847	900 40 1.000000 0.133000 0.140000 1100 36 0.900000 0.599000 0.593000 600 44 1.000000 0.051000 0.051000 1.200000 0.092000 0.111000
1559813385090057764	900 42 1.000000 0.257000 0.269000 1100 37 0.900000 1.993000 1.987000 600 46 1.000000 0.051000 0.051000 1.200000 0.105000 0.127000
1559813385602958680	900 43 1.000000 0.240000 0.252000 1100 38 0.900000 2.000000 1.994000 600 47 1.000000 0.051000 0.051000 1.200000 0.101000 0.122000
1559813386116154681	900 43 1.000000 0.242000 0.254000 1100 38 0.900000 1.998000 1.992000 600 48 1.000000 0.051000 0.051000 1.200000 0.101000 0.122000
1559813386628682014	900 44 1.000000 0.267000 0.280000 1100 39 0.900000 1.997000 1.991000 600 49 1.000000 0.051000 0.051000 1.200000 0.106000 0.128000
1559813387141557639	900 44 1.000000 0.255000 0.267000 1100 39 0.900000 1.999000 1.993000 600 49 1.000000 0.051000 0.051000 1.200000 0.102000 0.123000
1559813387654199889	900 45 1.000000 0.242000 0.254000 1100 39 0.900000 2.002000 1.995000 600 49 1.000000 0.051000 0.051000 1.200000 0.102000 0.123000
1559813388166957681	900 45 1.000000 0.243000 0.255000 1100 40 0.900000 2.003000 1.996000 600 50 1.000000 0.051000 0.051000 1.200000 0.102000 0.123000
1559813388693618847	900 45 1.000000 0.244000 0.256000 1100 40 0.900000 2.005000 1.998000 600 50 1.000000 0.052000 0.052000 1.200000 0.102000 0.123000
1559813389206443639	900 46 1.000000 0.264000 0.276000 1100 40 0.900000 1.997000 1.991000 600 50 1.000000 0.052000 0.052000 1.200000 0.106000 0.128000
1559813389719269264	900 46 1.000000 0.242000 0.254000 1100 41 0.900000 2.006000 1.999000 600 51 1.000000 0.052000 0.052000 1.200000 0.101000 0.122000
1559813390231795098	900 46 1.000000 0.244000 0.256000 1100 41 0.900000 2.007000 2.000000 600 51 1.000000 0.052000 0.052000 1.200000 0.101000 0.122000
1559813390755818473	900 46 1.000000 0.244000 0.256000 1100 41 0.900000 2.007000 2.002000 600 51 1.000000 0.052000 0.052000 1.200000 0.101000 0.122000
1559813391275344264	900 46 1.000000 0.280000 0.293000 1100 41 0.900000 1.998000 1.994000 600 51 1.000000 0.052000 0.052000 1.200000 0.115000 0.139000
1559813391788244098	900 47 1.000000 0.241000 0.253000 1100 41 0.900000 2.008000 2.003000 600 51 1.000000 0.052000 0.052000 1.200000 0.101000 0.122000
1559813392300923140	900 47 1.000000 0.241000 0.253000 1100 41 0.900000 2.009000 2.002000 600 51 1.000000 0.052000 0.052000 1.200000 0.101000 0.122000
1559813392813807390	900 47 1.000000 0.241000 0.253000 1100 41 0.900000 2.010000 2.005000 600 52 1.000000 0.052000 0.052000 1.200000 0.100000 0.121000
1559813393344874765	900 47 1.000000 0.244000 0.256000 1100 42 0.900000 2.006000 1.999000 600 52 1.000000 0.052000 0.052000 1.200000 0.111000 0.134000
1559813393857626765	900 47 1.000000 0.259000 0.271000 1100 42 0.900000 2.009000 2.004000 600 52 1.000000 0.052000 0.052000 1.200000 0.100000 0.121000
1559813394370229723	900 47 1.000000 0.243000 0.255000 1100 42 0.900000 2.010000 2.003000 600 52 1.000000 0.052000 0.052000 1.200000 0.101000 0.122000
1559813394883072307	900 47 1.000000 0.242000 0.254000 1100 42 0.900000 2.009000 2.002000 600 52 1.000000 0.052000 0.052000 1.200000 0.101000 0.122000
1559813395409171640	900 47 1.000000 0.242000 0.254000 1100 42 0.900000 2.010000 2.003000 600 52 1.000000 0.052000 0.052000 1.200000 0.102000 0.123000
1559813395922081890	900 47 1.000000 0.269000 0.281000 1100 42 0.900000 2.002000 1.995000 600 52 1.000000 0.052000 0.052000 1.200000 0.105000 0.127000
1559813396434794265	900 47 1.000000 0.242000 0.254000 1100 42 0.900000 2.013000 2.008000 600 52 1.000000 0.052000 0.052000 1.200000 0.101000 0.122000
1559813396947415348	900 48 1.000000 0.243000 0.255000 1100 42 0.900000 2.011000 2.006000 600 52 1.000000 0.052000 0.052000 1.200000 0.101000 0.122000
1559813397471778265	900 48 1.000000 0.244000 0.256000 1100 42 0.900000 2.011000 2.006000 600 52 1.000000 0.052000 0.052000 1.200000 0.102000 0.123000
1559813397984815640	900 48 1.000000 0.264000 0.276000 1100 42 0.900000 2.005000 1.998000 600 52 1.000000 0.052000 0.052000 1.200000 0.107000 0.129000
1559813398498001182	900 48 1.000000 0.243000 0.255000 1100 42 0.900000 2.008000 2.001000 600 52 1.000000 0.052000 0.052000 1.200000 0.102000 0.123000
1559813399011487015	900 48 1.000000 0.244000 0.255000 1100 42 0.900000 2.012000 2.007000 600 52 1.000000 0.052000 0.052000 1.200000 0.102000 0.123000
1559813399553616265	900 48 1.000000 0.245000 0.256000 1100 43 0.900000 2.010000 2.003000 600 53 1.000000 0.052000 0.052000 1.200000 0.102000 0.123000
1559813400080546516	900 48 1.000000 0.263000 0.276000 1100 43 0.900000 2.008000 2.001000 600 53 1.000000 0.052000 0.052000 1.200000 0.102000 0.123000
1559813400593138266	900 48 1.000000 0.277000 0.290000 1100 43 0.900000 2.003000 1.996000 600 53 1.000000 0.052000 0.052000 1.200000 0.106000 0.128000
1559813401106090182	900 48 1.000000 0.245000 0.257000 1100 43 0.900000 2.011000 2.004000 600 53 1.000000 0.052000 0.052000 1.200000 0.102000 0.123000
1559813401641544182	900 48 1.000000 0.245000 0.257000 1100 43 0.900000 2.013000 2.008000 600 53 1.000000 0.052000 0.052000 1.200000 0.101000 0.122000
1559813402154161307	900 48 1.000000 0.263000 0.276000 1100 43 0.900000 2.009000 2.002000 600 53 1.000000 0.052000 0.052000 1.200000 0.106000 0.128000
1559813402667085641	900 48 1.000000 0.269000 0.281000 1100 43 0.900000 2.001000 1.994000 600 53 1.000000 0.053000 0.053000 1.200000 0.104000 0.126000
1559813403179998516	900 48 1.000000 0.244000 0.256000 1100 43 0.900000 2.011000 2.004000 600 53 1.000000 0.052000 0.052000 1.200000 0.102000 0.123000
1559813403697659224	900 48 1.000000 0.244000 0.256000 1100 43 0.900000 2.012000 2.007000 600 53 1.000000 0.052000 0.052000 1.200000 0.102000 0.123000
1559813404217701641	900 48 1.000000 0.258000 0.270000 1100 43 0.900000 2.011000 2.004000 600 53 1.000000 0.052000 0.052000 1.200000 0.105000 0.127000
1559813404730501516	900 48 1.000000 0.260000 0.273000 1100 43 0.900000 2.007000 2.000000 600 53 1.000000 0.052000 0.052000 1.200000 0.102000 0.123000
1559813405243480724	900 48 1.000000 0.243000 0.255000 1100 43 0.900000 2.013000 2.006000 600 53 1.000000 0.052000 0.052000 1.200000 0.107000 0.129000
1559813405756351850	900 48 1.000000 0.244000 0.255000 1100 43 0.900000 2.012000 2.005000 600 53 1.000000 0.052000 0.052000 1.200000 0.102000 0.123000
1559813406268919683	900 48 1.000000 0.263000 0.275000 1100 43 0.900000 2.011000 2.006000 600 53 1.000000 0.053000 0.053000 1.200000 0.106000 0.128000
1559813406795320850	900 48 1.000000 0.245000 0.257000 1100 43 0.900000 2.013000 2.008000 600 53 1.000000 0.052000 0.052000 1.200000 0.102000 0.123000
1559813407308453933	900 48 1.000000 0.273000 0.286000 1100 43 0.900000 2.009000 2.004000 600 53 1.000000 0.052000 0.052000 1.200000 0.114000 0.138000
1559813407822097891	900 48 1.000000 0.244000 0.255000 1100 43 0.900000 2.011000 2.006000 600 53 1.000000 0.052000 0.052000 1.200000 0.103000 0.124000
1559813408335304808	900 49 1.000000 0.261000 0.273000 1100 43 0.900000 2.011000 2.006000 600 53 1.000000 0.052000 0.052000 1.200000 0.107000 0.129000
1559813408847776767	900 49 1.000000 0.243000 0.254000 1100 43 0.900000 2.011000 2.004000 600 53 1.000000 0.052000 0.052000 1.200000 0.104000 0.126000
1559813409361066517	900 49 1.000000 0.281000 0.294000 1100 43 0.900000 2.003000 1.996000 600 54 1.000000 0.053000 0.053000 1.200000 0.112000 0.135000
1559813409873671892	900 49 1.000000 0.243000 0.254000 1100 43 0.900000 2.011000 2.004000 600 53 1.000000 0.052000 0.052000 1.200000 0.104000 0.126000
1559813410386489100	900 49 1.000000 0.256000 0.268000 1100 43 0.900000 2.010000 2.005000 600 54 1.000000 0.052000 0.052000 1.200000 0.104000 0.126000
1559813410899372183	900 49 1.000000 0.245000 0.256000 1100 43 0.900000 2.012000 2.005000 600 54 1.000000 0.052000 0.052000 1.200000 0.104000 0.126000
1559813411424719100	900 49 1.000000 0.245000 0.256000 1100 44 0.900000 2.011000 2.004000 600 54 1.000000 0.053000 0.053000 1.200000 0.103000 0.124000
1559813411937736559	900 49 1.000000 0.252000 0.264000 1100 44 0.900000 2.009000 2.004000 600 54 1.000000 0.052000 0.052000 1.200000 0.116000 0.140000
1559813412450485100	900 49 1.000000 0.245000 0.257000 1100 44 0.900000 2.011000 2.006000 600 54 1.000000 0.052000 0.052000 1.200000 0.103000 0.124000
1559813412963458642	900 49 1.000000 0.245000 0.257000 1100 44 0.900000 2.012000 2.007000 600 54 1.000000 0.052000 0.052000 1.200000 0.103000 0.124000
1559813413476213017	900 49 1.000000 0.245000 0.257000 1100 44 0.900000 2.015000 2.010000 600 54 1.000000 0.052000 0.052000 1.200000 0.103000 0.124000
1559813413989029559	900 49 1.000000 0.264000 0.277000 1100 44 0.900000 2.003000 1.996000 600 54 1.000000 0.052000 0.052000 1.200000 0.111000 0.134000
1559813414501954309	900 49 1.000000 0.244000 0.256000 1100 44 0.900000 2.009000 2.004000 600 54 1.000000 0.052000 0.052000 1.200000 0.103000 0.124000
1559813415014876017	900 49 1.000000 0.244000 0.256000 1100 44 0.900000 2.013000 2.006000 600 54 1.000000 0.053000 0.053000 1.200000 0.102000 0.123000
1559813415527640559	900 49 1.000000 0.245000 0.257000 1100 44 0.900000 2.011000 2.004000 600 54 1.000000 0.052000 0.052000 1.200000 0.102000 0.123000
1559813416040507309	900 49 1.000000 0.255000 0.267000 1100 44 0.900000 2.011000 2.006000 600 54 1.000000 0.052000 0.052000 1.200000 0.103000 0.124000
1559813416553049601	900 49 1.000000 0.261000 0.274000 1100 44 0.900000 2.008000 2.001000 600 54 1.000000 0.052000 0.052000 1.200000 0.103000 0.124000
1559813417066008643	900 49 1.000000 0.243000 0.255000 1100 44 0.900000 2.014000 2.009000 600 54 1.000000 0.053000 0.053000 1.200000 0.102000 0.123000
1559813417579051768	900 49 1.000000 0.242000 0.254000 1100 44 0.900000 2.012000 2.005000 600 54 1.000000 0.052000 0.052000 1.200000 0.102000 0.123000
1559813418100830226	900 49 1.000000 0.247000 0.259000 1100 44 0.900000 2.013000 2.006000 600 54 1.000000 0.052000 0.052000 1.200000 0.101000 0.122000
1559813418617655893	900 49 1.000000 0.278000 0.291000 1100 44 0.900000 2.003000 1.996000 600 54 1.000000 0.053000 0.053000 1.200000 0.110000 0.133000
1559813419127978976	900 44 1.000000 0.194000 0.204000 1100 42 0.900000 1.496000 1.491000 600 48 1.000000 0.052000 0.052000 1.200000 0.055000 0.066000
1559813419637944768	900 41 1.000000 0.042000 0.044000 1100 41 1.000000 0.134000 0.134000 600 46 1.000000 0.052000 0.052000 1.200000 0.023000 0.027000
