#Timestamp	CPU(0) Frequency(MHz)	CPU(0) Temperature(C)	A7 Voltage(V)	A7 Current(A)	A7 Power(W)	CPU(4) Frequency(MHz)	CPU(4) Temperature(C)	A15 Voltage(V)	A15 Current(A)	A15 Power(W)	GPU Frequency(MHz)	GPU Temperature(C)	GPU Voltage(V)	GPU Current(A)	GPU Power(W)	RAM Voltage(V)	RAM Current(A)	RAM Power(W)
1560113529477062419	800 38 1.000000 0.039000 0.040000 1600 34 1.100000 0.936000 1.059000 600 39 1.000000 0.051000 0.051000 1.200000 0.046000 0.055000
1560113529983395086	800 39 1.000000 0.037000 0.037000 1600 35 1.100000 0.982000 1.112000 600 40 1.000000 0.051000 0.051000 1.200000 0.038000 0.045000
1560113530489760836	800 39 1.000000 0.034000 0.034000 1600 35 1.100000 0.863000 0.976000 600 40 1.000000 0.051000 0.051000 1.200000 0.037000 0.044000
1560113530995582294	800 44 1.000000 0.035000 0.035000 1600 36 1.100000 0.882000 0.998000 600 47 1.000000 0.051000 0.051000 1.200000 0.038000 0.045000
1560113531501257961	800 47 1.000000 0.292000 0.295000 1600 38 1.100000 2.790000 3.183000 600 52 1.000000 0.051000 0.051000 1.200000 0.028000 0.033000
1560113532006785294	800 49 1.000000 0.294000 0.296000 1600 39 1.100000 2.938000 3.355000 600 54 1.000000 0.051000 0.051000 1.200000 0.026000 0.031000
1560113532512159711	800 50 1.000000 0.294000 0.297000 1600 40 1.100000 2.811000 3.210000 600 55 1.000000 0.051000 0.051000 1.200000 0.025000 0.030000
1560113533017748211	800 51 1.000000 0.294000 0.297000 1600 41 1.100000 2.795000 3.191000 600 56 1.000000 0.051000 0.051000 1.200000 0.026000 0.031000
1560113533523277545	800 52 1.000000 0.294000 0.296000 1600 42 1.100000 2.824000 3.225000 600 57 1.000000 0.052000 0.052000 1.200000 0.026000 0.031000
1560113534028530336	800 52 1.000000 0.295000 0.297000 1600 42 1.100000 3.012000 3.442000 600 58 1.000000 0.052000 0.052000 1.200000 0.027000 0.032000
1560113534534053045	800 53 1.000000 0.293000 0.295000 1600 43 1.100000 2.848000 3.252000 600 58 1.000000 0.052000 0.052000 1.200000 0.028000 0.033000
1560113535039531586	800 53 1.000000 0.295000 0.297000 1600 43 1.100000 2.837000 3.239000 600 59 1.000000 0.052000 0.052000 1.200000 0.026000 0.031000
1560113535545101003	800 53 1.000000 0.294000 0.296000 1600 44 1.100000 2.927000 3.342000 600 59 1.000000 0.052000 0.052000 1.200000 0.029000 0.035000
1560113536057507753	800 54 1.000000 0.295000 0.297000 1600 44 1.100000 2.825000 3.226000 600 59 1.000000 0.052000 0.052000 1.200000 0.025000 0.030000
1560113536564025212	800 54 1.000000 0.296000 0.298000 1600 44 1.100000 2.825000 3.226000 600 60 1.000000 0.052000 0.052000 1.200000 0.028000 0.033000
1560113537069512170	800 54 1.000000 0.296000 0.298000 1600 44 1.100000 2.828000 3.229000 600 60 1.000000 0.052000 0.052000 1.200000 0.025000 0.030000
1560113537575214753	800 55 1.000000 0.295000 0.297000 1600 45 1.100000 2.920000 3.334000 600 60 1.000000 0.052000 0.052000 1.200000 0.028000 0.033000
1560113538080836753	800 55 1.000000 0.296000 0.298000 1600 45 1.100000 2.838000 3.240000 600 60 1.000000 0.053000 0.053000 1.200000 0.025000 0.030000
1560113538586413212	800 55 1.000000 0.294000 0.296000 1600 45 1.100000 3.049000 3.485000 600 61 1.000000 0.052000 0.052000 1.200000 0.027000 0.032000
1560113539091965587	800 55 1.000000 0.295000 0.297000 1600 45 1.100000 2.865000 3.271000 600 61 1.000000 0.053000 0.053000 1.200000 0.025000 0.030000
1560113539597511462	800 55 1.000000 0.296000 0.298000 1600 45 1.100000 2.930000 3.346000 600 61 1.000000 0.053000 0.053000 1.200000 0.025000 0.030000
1560113540103102462	800 55 1.000000 0.296000 0.298000 1600 45 1.100000 2.856000 3.261000 600 61 1.000000 0.052000 0.052000 1.200000 0.024000 0.028000
1560113540608709129	800 56 1.000000 0.295000 0.297000 1600 46 1.100000 2.833000 3.235000 600 61 1.000000 0.053000 0.053000 1.200000 0.030000 0.036000
1560113541114228379	800 56 1.000000 0.296000 0.298000 1600 46 1.100000 2.849000 3.253000 600 61 1.000000 0.053000 0.053000 1.200000 0.026000 0.031000
1560113541619831421	800 56 1.000000 0.295000 0.297000 1600 46 1.100000 2.834000 3.236000 600 62 1.000000 0.053000 0.053000 1.200000 0.028000 0.033000
1560113542125425712	800 56 1.000000 0.296000 0.298000 1600 46 1.100000 2.845000 3.248000 600 62 1.000000 0.053000 0.053000 1.200000 0.025000 0.030000
1560113542631072296	800 56 1.000000 0.294000 0.296000 1600 46 1.100000 2.847000 3.251000 600 62 1.000000 0.053000 0.053000 1.200000 0.029000 0.035000
1560113543136597754	800 56 1.000000 0.297000 0.299000 1600 46 1.100000 2.844000 3.247000 600 62 1.000000 0.053000 0.053000 1.200000 0.025000 0.030000
1560113543642258421	800 57 1.000000 0.296000 0.298000 1600 47 1.100000 2.906000 3.318000 600 62 1.000000 0.053000 0.053000 1.200000 0.028000 0.033000
1560113544147782879	800 57 1.000000 0.297000 0.299000 1600 46 1.100000 2.830000 3.231000 600 62 1.000000 0.053000 0.053000 1.200000 0.025000 0.030000
1560113544653122671	800 57 1.000000 0.297000 0.299000 1600 47 1.100000 2.855000 3.260000 600 62 1.000000 0.053000 0.053000 1.200000 0.029000 0.035000
1560113545158701421	800 57 1.000000 0.296000 0.298000 1600 47 1.100000 2.844000 3.247000 600 62 1.000000 0.053000 0.053000 1.200000 0.024000 0.028000
1560113545664085879	800 57 1.000000 0.296000 0.298000 1600 47 1.100000 2.952000 3.371000 600 63 1.000000 0.053000 0.053000 1.200000 0.025000 0.030000
1560113546169662629	800 57 1.000000 0.296000 0.298000 1600 47 1.100000 2.851000 3.252000 600 63 1.000000 0.053000 0.053000 1.200000 0.026000 0.031000
1560113546675034838	800 57 1.000000 0.296000 0.298000 1600 47 1.100000 2.854000 3.259000 600 63 1.000000 0.053000 0.053000 1.200000 0.026000 0.031000
1560113547180394963	800 57 1.000000 0.295000 0.297000 1600 47 1.100000 3.076000 3.515000 600 63 1.000000 0.053000 0.053000 1.200000 0.031000 0.037000
1560113547686066338	800 57 1.000000 0.297000 0.299000 1600 47 1.100000 2.838000 3.240000 600 63 1.000000 0.053000 0.053000 1.200000 0.025000 0.030000
1560113548191693921	800 57 1.000000 0.296000 0.298000 1600 47 1.100000 2.858000 3.263000 600 63 1.000000 0.053000 0.053000 1.200000 0.026000 0.031000
1560113548700567588	800 57 1.000000 0.297000 0.299000 1600 47 1.100000 2.840000 3.243000 600 63 1.000000 0.053000 0.053000 1.200000 0.025000 0.030000
1560113549207902755	800 57 1.000000 0.297000 0.299000 1600 47 1.100000 3.061000 3.498000 600 63 1.000000 0.053000 0.053000 1.200000 0.030000 0.036000
1560113549713429255	800 57 1.000000 0.297000 0.299000 1600 47 1.100000 2.872000 3.279000 600 63 1.000000 0.053000 0.053000 1.200000 0.026000 0.031000
1560113550219093547	800 57 1.000000 0.297000 0.299000 1600 47 1.100000 2.867000 3.274000 600 63 1.000000 0.053000 0.053000 1.200000 0.026000 0.031000
1560113550724489172	800 57 1.000000 0.297000 0.299000 1600 47 1.100000 2.839000 3.242000 600 63 1.000000 0.053000 0.053000 1.200000 0.026000 0.031000
1560113551229938880	800 58 1.000000 0.295000 0.297000 1600 48 1.100000 3.053000 3.489000 600 63 1.000000 0.053000 0.053000 1.200000 0.030000 0.036000
1560113551735480672	800 58 1.000000 0.297000 0.299000 1600 48 1.100000 2.950000 3.368000 600 63 1.000000 0.053000 0.053000 1.200000 0.028000 0.033000
1560113552240906755	800 58 1.000000 0.297000 0.299000 1600 48 1.100000 2.849000 3.253000 600 63 1.000000 0.053000 0.053000 1.200000 0.026000 0.031000
1560113552746610297	800 58 1.000000 0.297000 0.299000 1600 48 1.100000 2.856000 3.261000 600 63 1.000000 0.053000 0.053000 1.200000 0.024000 0.028000
1560113553252005755	800 58 1.000000 0.295000 0.297000 1600 48 1.100000 2.916000 3.330000 600 64 1.000000 0.053000 0.053000 1.200000 0.026000 0.031000
1560113553757653464	800 58 1.000000 0.297000 0.300000 1600 48 1.100000 2.864000 3.270000 600 64 1.000000 0.053000 0.053000 1.200000 0.025000 0.030000
1560113554263115797	800 58 1.000000 0.297000 0.299000 1600 48 1.100000 2.848000 3.252000 600 63 1.000000 0.053000 0.053000 1.200000 0.027000 0.032000
1560113554768523047	800 58 1.000000 0.297000 0.299000 1600 48 1.100000 2.874000 3.282000 600 64 1.000000 0.053000 0.053000 1.200000 0.026000 0.031000
1560113555274015214	800 58 1.000000 0.295000 0.297000 1600 48 1.100000 2.952000 3.371000 600 64 1.000000 0.053000 0.053000 1.200000 0.026000 0.031000
1560113555779578297	800 58 1.000000 0.297000 0.299000 1600 48 1.100000 2.877000 3.285000 600 64 1.000000 0.053000 0.053000 1.200000 0.026000 0.031000
1560113556285231797	800 58 1.000000 0.297000 0.299000 1600 48 1.100000 2.848000 3.252000 600 64 1.000000 0.053000 0.053000 1.200000 0.026000 0.031000
1560113556790973964	800 58 1.000000 0.298000 0.300000 1600 48 1.100000 2.846000 3.250000 600 64 1.000000 0.053000 0.053000 1.200000 0.026000 0.031000
1560113557296384214	800 58 1.000000 0.297000 0.299000 1600 48 1.100000 2.996000 3.424000 600 64 1.000000 0.053000 0.053000 1.200000 0.025000 0.030000
1560113557801953047	800 58 1.000000 0.297000 0.299000 1600 48 1.100000 2.931000 3.347000 600 64 1.000000 0.053000 0.053000 1.200000 0.027000 0.032000
1560113558307457756	800 58 1.000000 0.297000 0.299000 1600 48 1.100000 2.845000 3.248000 600 64 1.000000 0.053000 0.053000 1.200000 0.025000 0.030000
1560113558813072173	800 58 1.000000 0.297000 0.299000 1600 48 1.100000 2.853000 3.258000 600 64 1.000000 0.053000 0.053000 1.200000 0.026000 0.031000
1560113559318478298	800 58 1.000000 0.297000 0.299000 1600 48 1.100000 2.869000 3.276000 600 64 1.000000 0.053000 0.053000 1.200000 0.025000 0.030000
1560113559824045339	800 58 1.000000 0.297000 0.299000 1600 48 1.100000 2.852000 3.256000 600 64 1.000000 0.053000 0.053000 1.200000 0.030000 0.036000
1560113560329615256	800 58 1.000000 0.297000 0.299000 1600 48 1.100000 2.874000 3.282000 600 64 1.000000 0.053000 0.053000 1.200000 0.025000 0.030000
1560113560835187881	800 58 1.000000 0.298000 0.300000 1600 48 1.100000 2.853000 3.258000 600 64 1.000000 0.053000 0.053000 1.200000 0.026000 0.031000
1560113561345267006	800 58 1.000000 0.297000 0.299000 1600 48 1.100000 2.859000 3.264000 600 64 1.000000 0.053000 0.053000 1.200000 0.025000 0.030000
1560113561850751506	800 59 1.000000 0.296000 0.298000 1600 48 1.100000 2.847000 3.251000 600 65 1.000000 0.053000 0.053000 1.200000 0.028000 0.033000
1560113562356222298	800 59 1.000000 0.297000 0.299000 1600 49 1.100000 2.853000 3.258000 600 64 1.000000 0.053000 0.053000 1.200000 0.025000 0.030000
1560113562861698006	800 59 1.000000 0.297000 0.299000 1600 49 1.100000 2.856000 3.261000 600 64 1.000000 0.053000 0.053000 1.200000 0.026000 0.031000
1560113563373713423	800 59 1.000000 0.297000 0.299000 1600 48 1.100000 2.850000 3.254000 600 64 1.000000 0.053000 0.053000 1.200000 0.026000 0.031000
1560113563882022840	800 59 1.000000 0.295000 0.297000 1600 49 1.100000 2.953000 3.372000 600 65 1.000000 0.053000 0.053000 1.200000 0.027000 0.032000
1560113564387557173	800 59 1.000000 0.297000 0.299000 1600 49 1.100000 2.853000 3.258000 600 64 1.000000 0.053000 0.053000 1.200000 0.026000 0.031000
1560113564893183090	800 59 1.000000 0.297000 0.299000 1600 49 1.100000 2.861000 3.267000 600 64 1.000000 0.053000 0.053000 1.200000 0.025000 0.030000
1560113565398895840	800 59 1.000000 0.297000 0.299000 1600 49 1.100000 2.874000 3.282000 600 64 1.000000 0.053000 0.053000 1.200000 0.025000 0.030000
1560113565904401340	800 59 1.000000 0.295000 0.297000 1600 49 1.100000 3.069000 3.507000 600 65 1.000000 0.053000 0.053000 1.200000 0.030000 0.036000
1560113566410026673	800 59 1.000000 0.297000 0.299000 1600 49 1.100000 2.871000 3.278000 600 65 1.000000 0.053000 0.053000 1.200000 0.025000 0.030000
1560113566915461924	800 59 1.000000 0.297000 0.299000 1600 49 1.100000 2.850000 3.254000 600 64 1.000000 0.053000 0.053000 1.200000 0.026000 0.031000
1560113567421065299	800 59 1.000000 0.297000 0.299000 1600 49 1.100000 2.845000 3.248000 600 64 1.000000 0.053000 0.053000 1.200000 0.025000 0.030000
1560113567926702757	800 59 1.000000 0.295000 0.297000 1600 49 1.100000 3.057000 3.494000 600 65 1.000000 0.053000 0.053000 1.200000 0.031000 0.037000
1560113568432208299	800 59 1.000000 0.297000 0.299000 1600 49 1.100000 2.854000 3.259000 600 65 1.000000 0.053000 0.053000 1.200000 0.026000 0.031000
1560113568937759632	800 59 1.000000 0.298000 0.300000 1600 49 1.100000 2.853000 3.258000 600 65 1.000000 0.053000 0.053000 1.200000 0.025000 0.030000
1560113569443253674	800 59 1.000000 0.297000 0.299000 1600 49 1.100000 2.853000 3.258000 600 65 1.000000 0.053000 0.053000 1.200000 0.024000 0.028000
1560113569948667924	800 59 1.000000 0.297000 0.299000 1600 49 1.100000 3.161000 3.613000 600 65 1.000000 0.053000 0.053000 1.200000 0.030000 0.036000
1560113570454259299	800 59 1.000000 0.297000 0.299000 1600 49 1.100000 2.842000 3.245000 600 65 1.000000 0.053000 0.053000 1.200000 0.025000 0.030000
1560113570959781507	800 59 1.000000 0.297000 0.299000 1600 49 1.100000 2.849000 3.253000 600 65 1.000000 0.053000 0.053000 1.200000 0.025000 0.030000
1560113571465299466	800 59 1.000000 0.297000 0.299000 1600 49 1.100000 2.858000 3.263000 600 65 1.000000 0.053000 0.053000 1.200000 0.026000 0.031000
1560113571970711049	800 59 1.000000 0.298000 0.300000 1600 49 1.100000 2.856000 3.261000 600 65 1.000000 0.053000 0.053000 1.200000 0.025000 0.030000
1560113572476388674	800 59 1.000000 0.297000 0.300000 1600 49 1.100000 2.848000 3.252000 600 65 1.000000 0.053000 0.053000 1.200000 0.026000 0.031000
1560113572981965049	800 59 1.000000 0.297000 0.299000 1600 49 1.100000 2.853000 3.258000 600 65 1.000000 0.053000 0.053000 1.200000 0.025000 0.030000
1560113573487512508	800 59 1.000000 0.298000 0.300000 1600 49 1.100000 2.853000 3.258000 600 65 1.000000 0.053000 0.053000 1.200000 0.026000 0.031000
1560113574001663466	800 59 1.000000 0.298000 0.300000 1600 49 1.100000 2.852000 3.256000 600 65 1.000000 0.053000 0.053000 1.200000 0.025000 0.030000
1560113574507288174	800 59 1.000000 0.298000 0.300000 1600 49 1.100000 3.172000 3.625000 600 65 1.000000 0.053000 0.053000 1.200000 0.026000 0.031000
1560113575012953258	800 59 1.000000 0.298000 0.300000 1600 49 1.100000 2.887000 3.296000 600 65 1.000000 0.053000 0.053000 1.200000 0.025000 0.030000
1560113575518616175	800 59 1.000000 0.297000 0.299000 1600 49 1.100000 2.861000 3.267000 600 65 1.000000 0.053000 0.053000 1.200000 0.025000 0.030000
1560113576023948175	800 59 1.000000 0.297000 0.299000 1600 49 1.100000 2.881000 3.290000 600 65 1.000000 0.053000 0.053000 1.200000 0.024000 0.028000
1560113576529458966	800 59 1.000000 0.295000 0.297000 1600 49 1.100000 3.157000 3.608000 600 65 1.000000 0.053000 0.053000 1.200000 0.025000 0.030000
1560113577035116966	800 59 1.000000 0.298000 0.300000 1600 49 1.100000 2.864000 3.270000 600 65 1.000000 0.053000 0.053000 1.200000 0.025000 0.030000
1560113577540689716	800 59 1.000000 0.297000 0.299000 1600 49 1.100000 2.876000 3.284000 600 65 1.000000 0.053000 0.053000 1.200000 0.026000 0.031000
1560113578048783925	800 59 1.000000 0.297000 0.299000 1600 49 1.100000 2.857000 3.262000 600 65 1.000000 0.053000 0.053000 1.200000 0.026000 0.031000
1560113578554335425	800 60 1.000000 0.296000 0.298000 1600 49 1.100000 2.975000 3.397000 600 65 1.000000 0.053000 0.053000 1.200000 0.033000 0.039000
1560113579059851550	800 59 1.000000 0.297000 0.299000 1600 49 1.100000 2.864000 3.270000 600 65 1.000000 0.053000 0.053000 1.200000 0.026000 0.031000
1560113579565426675	800 59 1.000000 0.297000 0.299000 1600 49 1.100000 2.881000 3.290000 600 65 1.000000 0.053000 0.053000 1.200000 0.025000 0.030000
1560113580088110092	800 59 1.000000 0.298000 0.300000 1600 49 1.100000 2.860000 3.266000 600 65 1.000000 0.053000 0.053000 1.200000 0.025000 0.030000
1560113580593696883	800 60 1.000000 0.295000 0.297000 1600 49 1.100000 2.975000 3.397000 600 66 1.000000 0.053000 0.053000 1.200000 0.031000 0.037000
1560113581099173300	800 60 1.000000 0.298000 0.300000 1600 50 1.100000 2.861000 3.267000 600 65 1.000000 0.053000 0.053000 1.200000 0.025000 0.030000
1560113581604745967	800 60 1.000000 0.297000 0.299000 1600 50 1.100000 2.862000 3.268000 600 65 1.000000 0.053000 0.053000 1.200000 0.025000 0.030000
1560113582128420634	800 59 1.000000 0.298000 0.300000 1600 50 1.100000 2.872000 3.279000 600 65 1.000000 0.053000 0.053000 1.200000 0.025000 0.030000
1560113582634027550	800 60 1.000000 0.297000 0.299000 1600 50 1.100000 2.976000 3.398000 600 66 1.000000 0.053000 0.053000 1.200000 0.031000 0.037000
1560113583139549550	800 60 1.000000 0.297000 0.299000 1600 50 1.100000 2.875000 3.283000 600 65 1.000000 0.053000 0.053000 1.200000 0.025000 0.030000
1560113583645190967	800 60 1.000000 0.297000 0.299000 1600 50 1.100000 2.863000 3.269000 600 65 1.000000 0.053000 0.053000 1.200000 0.025000 0.030000
1560113584164422467	800 60 1.000000 0.298000 0.300000 1600 50 1.100000 2.849000 3.253000 600 65 1.000000 0.053000 0.053000 1.200000 0.025000 0.030000
1560113584669884634	800 60 1.000000 0.297000 0.299000 1600 50 1.100000 2.968000 3.389000 600 66 1.000000 0.053000 0.053000 1.200000 0.029000 0.035000
1560113585175388759	800 60 1.000000 0.298000 0.300000 1600 50 1.100000 3.057000 3.494000 600 66 1.000000 0.053000 0.053000 1.200000 0.027000 0.032000
1560113585680964467	800 60 1.000000 0.298000 0.300000 1600 50 1.100000 2.867000 3.274000 600 66 1.000000 0.053000 0.053000 1.200000 0.025000 0.030000
1560113586192384384	800 60 1.000000 0.298000 0.300000 1600 50 1.100000 2.860000 3.266000 600 65 1.000000 0.053000 0.053000 1.200000 0.024000 0.028000
1560113586697661718	800 60 1.000000 0.297000 0.299000 1600 50 1.100000 2.978000 3.400000 600 66 1.000000 0.053000 0.053000 1.200000 0.029000 0.035000
1560113587203324384	800 60 1.000000 0.298000 0.300000 1600 50 1.100000 2.993000 3.418000 600 66 1.000000 0.053000 0.053000 1.200000 0.031000 0.037000
1560113587708872009	800 60 1.000000 0.297000 0.299000 1600 50 1.100000 2.871000 3.278000 600 66 1.000000 0.053000 0.053000 1.200000 0.026000 0.031000
1560113588214357884	800 60 1.000000 0.298000 0.300000 1600 50 1.100000 2.869000 3.276000 600 65 1.000000 0.053000 0.053000 1.200000 0.025000 0.030000
1560113588727587176	800 60 1.000000 0.298000 0.300000 1600 50 1.100000 2.972000 3.394000 600 66 1.000000 0.053000 0.053000 1.200000 0.029000 0.035000
1560113589233218551	800 60 1.000000 0.296000 0.298000 1600 50 1.100000 2.953000 3.372000 600 66 1.000000 0.053000 0.053000 1.200000 0.031000 0.037000
1560113589738875885	800 60 1.000000 0.298000 0.300000 1600 50 1.100000 2.875000 3.283000 600 66 1.000000 0.053000 0.053000 1.200000 0.026000 0.031000
1560113590244308510	800 60 1.000000 0.298000 0.300000 1600 50 1.100000 2.866000 3.272000 600 66 1.000000 0.053000 0.053000 1.200000 0.025000 0.030000
1560113590749963551	800 60 1.000000 0.298000 0.300000 1600 50 1.100000 2.870000 3.277000 600 66 1.000000 0.053000 0.053000 1.200000 0.029000 0.035000
1560113591255577426	800 60 1.000000 0.296000 0.298000 1600 50 1.100000 3.058000 3.495000 600 66 1.000000 0.053000 0.053000 1.200000 0.025000 0.030000
1560113591761192135	800 60 1.000000 0.297000 0.299000 1600 50 1.100000 2.880000 3.288000 600 66 1.000000 0.053000 0.053000 1.200000 0.025000 0.030000
1560113592266860052	800 60 1.000000 0.297000 0.299000 1600 50 1.100000 2.870000 3.277000 600 66 1.000000 0.053000 0.053000 1.200000 0.026000 0.031000
1560113592772452302	800 60 1.000000 0.298000 0.300000 1600 50 1.100000 2.982000 3.405000 600 66 1.000000 0.053000 0.053000 1.200000 0.028000 0.033000
1560113593277975968	800 60 1.000000 0.296000 0.298000 1600 50 1.100000 3.080000 3.520000 600 66 1.000000 0.053000 0.053000 1.200000 0.027000 0.032000
1560113593783552260	800 60 1.000000 0.298000 0.300000 1600 50 1.100000 2.884000 3.293000 600 66 1.000000 0.053000 0.053000 1.200000 0.025000 0.030000
1560113594289093635	800 60 1.000000 0.298000 0.300000 1600 50 1.100000 2.861000 3.267000 600 66 1.000000 0.053000 0.053000 1.200000 0.026000 0.031000
1560113594794859969	800 60 1.000000 0.298000 0.300000 1600 50 1.100000 2.956000 3.375000 600 66 1.000000 0.054000 0.054000 1.200000 0.028000 0.033000
1560113595300440552	800 60 1.000000 0.297000 0.299000 1600 50 1.100000 3.072000 3.511000 600 66 1.000000 0.053000 0.053000 1.200000 0.029000 0.035000
1560113595806017344	800 60 1.000000 0.298000 0.300000 1600 50 1.100000 2.869000 3.276000 600 66 1.000000 0.053000 0.053000 1.200000 0.025000 0.030000
1560113596311569260	800 60 1.000000 0.298000 0.300000 1600 50 1.100000 2.868000 3.275000 600 66 1.000000 0.053000 0.053000 1.200000 0.025000 0.030000
1560113596817221969	800 60 1.000000 0.298000 0.300000 1600 50 1.100000 2.866000 3.272000 600 66 1.000000 0.053000 0.053000 1.200000 0.029000 0.035000
1560113597322614219	800 60 1.000000 0.298000 0.300000 1600 50 1.100000 2.883000 3.292000 600 66 1.000000 0.053000 0.053000 1.200000 0.026000 0.031000
1560113597828156344	800 60 1.000000 0.298000 0.300000 1600 50 1.100000 2.869000 3.276000 600 66 1.000000 0.053000 0.053000 1.200000 0.028000 0.033000
1560113598333719969	800 60 1.000000 0.298000 0.300000 1600 50 1.100000 2.891000 3.301000 600 66 1.000000 0.053000 0.053000 1.200000 0.025000 0.030000
1560113598839244969	800 60 1.000000 0.298000 0.300000 1600 50 1.100000 2.950000 3.368000 600 66 1.000000 0.053000 0.053000 1.200000 0.029000 0.035000
1560113599344466219	800 60 1.000000 0.298000 0.300000 1600 50 1.100000 2.880000 3.288000 600 66 1.000000 0.053000 0.053000 1.200000 0.025000 0.030000
1560113599850042469	800 60 1.000000 0.296000 0.298000 1600 50 1.100000 2.869000 3.276000 600 66 1.000000 0.053000 0.053000 1.200000 0.027000 0.032000
1560113600355546719	800 60 1.000000 0.298000 0.300000 1600 50 1.100000 2.878000 3.286000 600 66 1.000000 0.054000 0.054000 1.200000 0.025000 0.030000
1560113600861234969	800 60 1.000000 0.298000 0.300000 1600 50 1.100000 2.952000 3.371000 600 66 1.000000 0.054000 0.054000 1.200000 0.030000 0.036000
1560113601372334553	800 60 1.000000 0.298000 0.300000 1600 50 1.100000 2.861000 3.267000 600 66 1.000000 0.053000 0.053000 1.200000 0.025000 0.030000
1560113601878639303	800 60 1.000000 0.297000 0.299000 1600 50 1.100000 2.864000 3.270000 600 66 1.000000 0.053000 0.053000 1.200000 0.025000 0.030000
1560113602384131886	800 60 1.000000 0.298000 0.300000 1600 50 1.100000 2.867000 3.274000 600 66 1.000000 0.053000 0.053000 1.200000 0.025000 0.030000
1560113602889762386	800 60 1.000000 0.298000 0.300000 1600 50 1.100000 2.881000 3.290000 600 66 1.000000 0.053000 0.053000 1.200000 0.029000 0.035000
1560113603399350386	800 60 1.000000 0.298000 0.300000 1600 50 1.100000 2.872000 3.279000 600 66 1.000000 0.053000 0.053000 1.200000 0.025000 0.030000
1560113603907516220	800 60 1.000000 0.296000 0.298000 1600 50 1.100000 3.090000 3.531000 600 66 1.000000 0.053000 0.053000 1.200000 0.030000 0.036000
1560113604413149720	800 60 1.000000 0.298000 0.300000 1600 50 1.100000 2.883000 3.292000 600 66 1.000000 0.054000 0.054000 1.200000 0.026000 0.031000
1560113604918862095	800 60 1.000000 0.297000 0.299000 1600 50 1.100000 2.971000 3.392000 600 66 1.000000 0.053000 0.053000 1.200000 0.029000 0.035000
1560113605424423928	800 60 1.000000 0.298000 0.300000 1600 50 1.100000 2.867000 3.274000 600 66 1.000000 0.054000 0.054000 1.200000 0.026000 0.031000
1560113605929748970	800 60 1.000000 0.296000 0.298000 1600 50 1.100000 3.086000 3.527000 600 66 1.000000 0.054000 0.054000 1.200000 0.031000 0.037000
1560113606435284303	800 60 1.000000 0.297000 0.299000 1600 50 1.100000 2.870000 3.277000 600 66 1.000000 0.053000 0.053000 1.200000 0.026000 0.031000
1560113606940793970	800 61 1.000000 0.298000 0.300000 1600 51 1.100000 2.975000 3.397000 600 66 1.000000 0.053000 0.053000 1.200000 0.030000 0.036000
1560113607446140262	800 60 1.000000 0.298000 0.300000 1600 50 1.100000 2.859000 3.264000 600 66 1.000000 0.053000 0.053000 1.200000 0.025000 0.030000
1560113607951701345	800 60 1.000000 0.296000 0.298000 1600 51 1.100000 3.074000 3.513000 600 67 1.000000 0.053000 0.053000 1.200000 0.029000 0.035000
1560113608457083262	800 60 1.000000 0.297000 0.299000 1600 51 1.100000 2.863000 3.269000 600 66 1.000000 0.053000 0.053000 1.200000 0.025000 0.030000
1560113608962588012	800 61 1.000000 0.298000 0.300000 1600 51 1.100000 2.885000 3.294000 600 66 1.000000 0.053000 0.053000 1.200000 0.029000 0.035000
1560113609468216887	800 60 1.000000 0.298000 0.300000 1600 50 1.100000 2.879000 3.287000 600 66 1.000000 0.054000 0.054000 1.200000 0.026000 0.031000
1560113609973692387	800 61 1.000000 0.298000 0.300000 1600 51 1.100000 2.929000 3.344000 600 67 1.000000 0.053000 0.053000 1.200000 0.026000 0.031000
1560113610479111220	800 61 1.000000 0.298000 0.300000 1600 51 1.100000 3.047000 3.482000 600 66 1.000000 0.054000 0.054000 1.200000 0.025000 0.030000
1560113610984500637	800 61 1.000000 0.298000 0.300000 1600 51 1.100000 2.877000 3.285000 600 66 1.000000 0.053000 0.053000 1.200000 0.028000 0.033000
1560113611489920804	800 60 1.000000 0.298000 0.300000 1600 51 1.100000 2.892000 3.302000 600 66 1.000000 0.054000 0.054000 1.200000 0.026000 0.031000
1560113611995314179	800 61 1.000000 0.298000 0.300000 1600 51 1.100000 2.877000 3.285000 600 67 1.000000 0.054000 0.054000 1.200000 0.026000 0.031000
1560113612500701887	800 61 1.000000 0.297000 0.299000 1600 51 1.100000 2.985000 3.408000 600 66 1.000000 0.054000 0.054000 1.200000 0.025000 0.030000
1560113613006331471	800 61 1.000000 0.298000 0.300000 1600 51 1.100000 2.877000 3.285000 600 67 1.000000 0.053000 0.053000 1.200000 0.029000 0.035000
1560113613511911512	800 61 1.000000 0.298000 0.300000 1600 51 1.100000 2.871000 3.278000 600 67 1.000000 0.053000 0.053000 1.200000 0.026000 0.031000
1560113614017049679	800 61 1.000000 0.298000 0.300000 1600 51 1.100000 2.892000 3.302000 600 67 1.000000 0.053000 0.053000 1.200000 0.025000 0.030000
1560113614522422346	800 61 1.000000 0.298000 0.300000 1600 51 1.100000 2.936000 3.352000 600 67 1.000000 0.053000 0.053000 1.200000 0.025000 0.030000
1560113615028033763	800 61 1.000000 0.297000 0.299000 1600 51 1.100000 2.933000 3.349000 600 67 1.000000 0.053000 0.053000 1.200000 0.028000 0.033000
1560113615533433929	800 61 1.000000 0.299000 0.301000 1600 51 1.100000 2.913000 3.326000 600 66 1.000000 0.053000 0.053000 1.200000 0.026000 0.031000
1560113616042269846	800 61 1.000000 0.298000 0.300000 1600 51 1.100000 2.882000 3.291000 600 66 1.000000 0.053000 0.053000 1.200000 0.026000 0.031000
1560113616550340346	800 61 1.000000 0.296000 0.298000 1600 51 1.100000 3.072000 3.511000 600 67 1.000000 0.053000 0.053000 1.200000 0.030000 0.036000
1560113617055841346	800 61 1.000000 0.298000 0.300000 1600 51 1.100000 2.887000 3.296000 600 67 1.000000 0.053000 0.053000 1.200000 0.026000 0.031000
1560113617561456721	800 61 1.000000 0.298000 0.300000 1600 51 1.100000 2.864000 3.270000 600 67 1.000000 0.053000 0.053000 1.200000 0.025000 0.030000
1560113618066892096	800 61 1.000000 0.298000 0.300000 1600 51 1.100000 2.886000 3.295000 600 66 1.000000 0.053000 0.053000 1.200000 0.025000 0.030000
1560113618572417055	800 61 1.000000 0.297000 0.299000 1600 51 1.100000 3.073000 3.512000 600 67 1.000000 0.053000 0.053000 1.200000 0.029000 0.035000
1560113619077991513	800 61 1.000000 0.297000 0.299000 1600 51 1.100000 2.876000 3.284000 600 67 1.000000 0.054000 0.054000 1.200000 0.027000 0.032000
1560113619583571805	800 61 1.000000 0.298000 0.300000 1600 51 1.100000 2.881000 3.290000 600 67 1.000000 0.053000 0.053000 1.200000 0.025000 0.030000
1560113620088984305	800 61 1.000000 0.298000 0.300000 1600 51 1.100000 2.867000 3.274000 600 66 1.000000 0.054000 0.054000 1.200000 0.025000 0.030000
1560113620594324638	800 61 1.000000 0.296000 0.298000 1600 51 1.100000 3.072000 3.511000 600 67 1.000000 0.054000 0.054000 1.200000 0.027000 0.032000
1560113621099942472	800 61 1.000000 0.298000 0.300000 1600 51 1.100000 2.898000 3.309000 600 67 1.000000 0.053000 0.053000 1.200000 0.027000 0.032000
1560113621605622638	800 61 1.000000 0.298000 0.300000 1600 51 1.100000 2.963000 3.383000 600 67 1.000000 0.053000 0.053000 1.200000 0.026000 0.031000
1560113622111267180	800 61 1.000000 0.298000 0.300000 1600 51 1.100000 2.863000 3.269000 600 67 1.000000 0.053000 0.053000 1.200000 0.026000 0.031000
1560113622616781222	800 61 1.000000 0.298000 0.300000 1600 51 1.100000 2.874000 3.282000 600 67 1.000000 0.053000 0.053000 1.200000 0.027000 0.032000
1560113623122323514	800 61 1.000000 0.298000 0.300000 1600 51 1.100000 2.877000 3.285000 600 67 1.000000 0.053000 0.053000 1.200000 0.025000 0.030000
1560113623627885680	800 61 1.000000 0.298000 0.300000 1600 51 1.100000 2.877000 3.285000 600 67 1.000000 0.054000 0.054000 1.200000 0.025000 0.030000
1560113624133434764	800 61 1.000000 0.298000 0.300000 1600 51 1.100000 2.888000 3.298000 600 67 1.000000 0.054000 0.054000 1.200000 0.025000 0.030000
1560113624638894514	800 61 1.000000 0.297000 0.299000 1600 51 1.100000 2.858000 3.263000 600 67 1.000000 0.053000 0.053000 1.200000 0.029000 0.035000
1560113625144620722	800 61 1.000000 0.297000 0.299000 1600 51 1.100000 2.893000 3.303000 600 67 1.000000 0.053000 0.053000 1.200000 0.029000 0.035000
1560113625650301931	800 61 1.000000 0.298000 0.300000 1600 51 1.100000 2.871000 3.278000 600 67 1.000000 0.054000 0.054000 1.200000 0.026000 0.031000
1560113626155894556	800 61 1.000000 0.297000 0.299000 1600 51 1.100000 2.858000 3.263000 600 67 1.000000 0.054000 0.054000 1.200000 0.025000 0.030000
1560113626661172722	800 61 1.000000 0.298000 0.300000 1600 51 1.100000 2.861000 3.267000 600 67 1.000000 0.053000 0.053000 1.200000 0.026000 0.031000
1560113627166810972	800 61 1.000000 0.298000 0.300000 1600 51 1.100000 2.862000 3.268000 600 67 1.000000 0.053000 0.053000 1.200000 0.025000 0.030000
1560113627672401264	800 61 1.000000 0.298000 0.300000 1600 51 1.100000 2.970000 3.391000 600 67 1.000000 0.053000 0.053000 1.200000 0.029000 0.035000
1560113628177954139	800 61 1.000000 0.298000 0.300000 1600 51 1.100000 2.866000 3.272000 600 67 1.000000 0.053000 0.053000 1.200000 0.025000 0.030000
1560113628692374389	800 61 1.000000 0.298000 0.300000 1600 51 1.100000 2.886000 3.295000 600 67 1.000000 0.054000 0.054000 1.200000 0.026000 0.031000
1560113629198290848	800 61 1.000000 0.296000 0.298000 1600 51 1.100000 3.087000 3.528000 600 67 1.000000 0.054000 0.054000 1.200000 0.030000 0.036000
1560113629703861764	800 61 1.000000 0.298000 0.300000 1600 51 1.100000 2.867000 3.274000 600 67 1.000000 0.053000 0.053000 1.200000 0.031000 0.037000
1560113630209401973	800 61 1.000000 0.298000 0.300000 1600 51 1.100000 2.883000 3.292000 600 67 1.000000 0.054000 0.054000 1.200000 0.025000 0.030000
1560113630715092306	800 61 1.000000 0.298000 0.300000 1600 51 1.100000 2.869000 3.276000 600 67 1.000000 0.053000 0.053000 1.200000 0.026000 0.031000
1560113631220563848	800 61 1.000000 0.296000 0.298000 1600 51 1.100000 3.082000 3.522000 600 67 1.000000 0.053000 0.053000 1.200000 0.030000 0.036000
1560113631726155973	800 61 1.000000 0.298000 0.300000 1600 51 1.100000 2.869000 3.276000 600 67 1.000000 0.054000 0.054000 1.200000 0.026000 0.031000
1560113632231748181	800 61 1.000000 0.298000 0.300000 1600 51 1.100000 2.875000 3.283000 600 67 1.000000 0.054000 0.054000 1.200000 0.025000 0.030000
1560113632737290848	800 61 1.000000 0.298000 0.300000 1600 51 1.100000 2.872000 3.279000 600 67 1.000000 0.053000 0.053000 1.200000 0.026000 0.031000
1560113633242882723	800 61 1.000000 0.296000 0.298000 1600 51 1.100000 3.070000 3.509000 600 67 1.000000 0.053000 0.053000 1.200000 0.030000 0.036000
1560113633748623390	800 61 1.000000 0.297000 0.299000 1600 51 1.100000 2.987000 3.411000 600 67 1.000000 0.053000 0.053000 1.200000 0.031000 0.037000
1560113634254202557	800 61 1.000000 0.298000 0.300000 1600 51 1.100000 2.863000 3.269000 600 67 1.000000 0.053000 0.053000 1.200000 0.025000 0.030000
1560113634759750223	800 61 1.000000 0.298000 0.300000 1600 51 1.100000 2.884000 3.293000 600 67 1.000000 0.054000 0.054000 1.200000 0.025000 0.030000
1560113635265141265	800 61 1.000000 0.298000 0.300000 1600 51 1.100000 2.943000 3.360000 600 67 1.000000 0.054000 0.054000 1.200000 0.026000 0.031000
1560113635770776515	800 61 1.000000 0.298000 0.300000 1600 51 1.100000 2.872000 3.279000 600 67 1.000000 0.054000 0.054000 1.200000 0.031000 0.037000
1560113636276270098	800 61 1.000000 0.298000 0.300000 1600 51 1.100000 2.867000 3.274000 600 67 1.000000 0.054000 0.054000 1.200000 0.025000 0.030000
1560113636781891224	800 61 1.000000 0.299000 0.301000 1600 51 1.100000 2.869000 3.276000 600 67 1.000000 0.054000 0.054000 1.200000 0.025000 0.030000
1560113637287309849	800 61 1.000000 0.295000 0.297000 1600 51 1.100000 2.974000 3.396000 600 67 1.000000 0.054000 0.054000 1.200000 0.026000 0.031000
1560113637792845474	800 61 1.000000 0.297000 0.299000 1600 51 1.100000 2.872000 3.279000 600 67 1.000000 0.053000 0.053000 1.200000 0.026000 0.031000
1560113638298437599	800 61 1.000000 0.298000 0.300000 1600 51 1.100000 2.863000 3.269000 600 67 1.000000 0.053000 0.053000 1.200000 0.026000 0.031000
1560113638803871349	800 61 1.000000 0.298000 0.300000 1600 51 1.100000 2.872000 3.279000 600 67 1.000000 0.053000 0.053000 1.200000 0.026000 0.031000
1560113639309244140	800 61 1.000000 0.299000 0.301000 1600 51 1.100000 3.042000 3.477000 600 68 1.000000 0.054000 0.054000 1.200000 0.025000 0.030000
1560113639815126807	800 61 1.000000 0.296000 0.298000 1600 51 1.100000 3.038000 3.469000 600 67 1.000000 0.054000 0.054000 1.200000 0.035000 0.042000
1560113640320724474	800 61 1.000000 0.298000 0.300000 1600 51 1.100000 2.873000 3.280000 600 67 1.000000 0.054000 0.054000 1.200000 0.026000 0.031000
1560113640826238016	800 61 1.000000 0.298000 0.300000 1600 51 1.100000 2.886000 3.295000 600 67 1.000000 0.054000 0.054000 1.200000 0.026000 0.031000
1560113641355240682	800 61 1.000000 0.299000 0.301000 1600 51 1.100000 2.862000 3.268000 600 67 1.000000 0.054000 0.054000 1.200000 0.026000 0.031000
1560113641860940557	800 61 1.000000 0.297000 0.299000 1600 51 1.100000 3.000000 3.426000 600 67 1.000000 0.053000 0.053000 1.200000 0.036000 0.043000
1560113642366583724	800 61 1.000000 0.298000 0.300000 1600 51 1.100000 2.856000 3.261000 600 67 1.000000 0.053000 0.053000 1.200000 0.027000 0.032000
1560113642872020058	800 61 1.000000 0.299000 0.301000 1600 51 1.100000 2.859000 3.264000 600 67 1.000000 0.054000 0.054000 1.200000 0.025000 0.030000
1560113643392424516	800 61 1.000000 0.299000 0.301000 1600 51 1.100000 2.853000 3.258000 600 67 1.000000 0.053000 0.053000 1.200000 0.026000 0.031000
1560113643900262891	800 61 1.000000 0.297000 0.299000 1600 51 1.100000 2.941000 3.358000 600 67 1.000000 0.054000 0.054000 1.200000 0.035000 0.042000
1560113644405795099	800 61 1.000000 0.298000 0.300000 1600 51 1.100000 2.863000 3.269000 600 67 1.000000 0.053000 0.053000 1.200000 0.026000 0.031000
1560113644911358224	800 61 1.000000 0.298000 0.300000 1600 51 1.100000 2.859000 3.264000 600 67 1.000000 0.053000 0.053000 1.200000 0.025000 0.030000
1560113645432551600	800 61 1.000000 0.298000 0.300000 1600 51 1.100000 2.859000 3.264000 600 67 1.000000 0.054000 0.054000 1.200000 0.024000 0.028000
1560113645938277391	800 61 1.000000 0.296000 0.298000 1600 51 1.100000 2.901000 3.315000 600 67 1.000000 0.053000 0.053000 1.200000 0.030000 0.036000
1560113646443820683	800 61 1.000000 0.298000 0.300000 1600 51 1.100000 2.883000 3.292000 600 67 1.000000 0.054000 0.054000 1.200000 0.025000 0.030000
1560113646949587058	800 61 1.000000 0.298000 0.300000 1600 51 1.100000 2.861000 3.267000 600 67 1.000000 0.053000 0.053000 1.200000 0.025000 0.030000
1560113647455179225	800 61 1.000000 0.298000 0.300000 1600 51 1.100000 2.863000 3.269000 600 67 1.000000 0.053000 0.053000 1.200000 0.025000 0.030000
1560113647960931100	800 61 1.000000 0.298000 0.300000 1600 51 1.100000 2.895000 3.306000 600 67 1.000000 0.054000 0.054000 1.200000 0.029000 0.035000
1560113648466778100	800 61 1.000000 0.298000 0.300000 1600 51 1.100000 2.889000 3.299000 600 67 1.000000 0.053000 0.053000 1.200000 0.026000 0.031000
1560113648972238808	800 61 1.000000 0.298000 0.300000 1600 51 1.100000 2.867000 3.274000 600 67 1.000000 0.054000 0.054000 1.200000 0.026000 0.031000
1560113649478018308	800 61 1.000000 0.298000 0.300000 1600 51 1.100000 2.880000 3.288000 600 67 1.000000 0.054000 0.054000 1.200000 0.025000 0.030000
1560113649983551100	800 61 1.000000 0.296000 0.298000 1600 51 1.100000 2.968000 3.389000 600 67 1.000000 0.054000 0.054000 1.200000 0.031000 0.037000
1560113650489270142	800 61 1.000000 0.299000 0.301000 1600 51 1.100000 2.875000 3.283000 600 67 1.000000 0.053000 0.053000 1.200000 0.026000 0.031000
1560113650994824934	800 61 1.000000 0.298000 0.300000 1600 51 1.100000 2.879000 3.287000 600 67 1.000000 0.053000 0.053000 1.200000 0.025000 0.030000
1560113651500354725	800 61 1.000000 0.298000 0.300000 1600 51 1.100000 2.859000 3.264000 600 67 1.000000 0.054000 0.054000 1.200000 0.025000 0.030000
1560113652005695642	800 61 1.000000 0.298000 0.300000 1600 51 1.100000 2.974000 3.396000 600 68 1.000000 0.054000 0.054000 1.200000 0.027000 0.032000
1560113652511205142	800 61 1.000000 0.298000 0.300000 1600 51 1.100000 2.867000 3.274000 600 67 1.000000 0.054000 0.054000 1.200000 0.025000 0.030000
1560113653016868267	800 61 1.000000 0.298000 0.300000 1600 51 1.100000 2.858000 3.263000 600 67 1.000000 0.054000 0.054000 1.200000 0.025000 0.030000
1560113653522595851	800 61 1.000000 0.298000 0.300000 1600 51 1.100000 2.869000 3.276000 600 67 1.000000 0.053000 0.053000 1.200000 0.026000 0.031000
1560113654035951101	800 61 1.000000 0.298000 0.300000 1600 51 1.100000 2.871000 3.278000 600 67 1.000000 0.054000 0.054000 1.200000 0.030000 0.036000
1560113654542644559	800 61 1.000000 0.297000 0.299000 1600 51 1.100000 3.094000 3.536000 600 67 1.000000 0.053000 0.053000 1.200000 0.027000 0.032000
1560113655048281517	800 61 1.000000 0.298000 0.300000 1600 51 1.100000 2.881000 3.290000 600 67 1.000000 0.054000 0.054000 1.200000 0.026000 0.031000
1560113655553832309	800 61 1.000000 0.298000 0.300000 1600 51 1.100000 2.864000 3.270000 600 67 1.000000 0.053000 0.053000 1.200000 0.026000 0.031000
1560113656065540642	800 61 1.000000 0.298000 0.300000 1600 51 1.100000 2.978000 3.400000 600 67 1.000000 0.053000 0.053000 1.200000 0.030000 0.036000
1560113656573550976	800 61 1.000000 0.297000 0.299000 1600 51 1.100000 3.086000 3.527000 600 67 1.000000 0.053000 0.053000 1.200000 0.027000 0.032000
1560113657079122101	800 61 1.000000 0.298000 0.300000 1600 51 1.100000 2.869000 3.276000 600 67 1.000000 0.053000 0.053000 1.200000 0.025000 0.030000
1560113657584767059	800 61 1.000000 0.298000 0.300000 1600 51 1.100000 2.877000 3.285000 600 67 1.000000 0.054000 0.054000 1.200000 0.025000 0.030000
1560113658090667893	800 61 1.000000 0.298000 0.300000 1600 51 1.100000 2.973000 3.395000 600 67 1.000000 0.054000 0.054000 1.200000 0.026000 0.031000
1560113658596131018	800 61 1.000000 0.297000 0.299000 1600 51 1.100000 3.071000 3.507000 600 67 1.000000 0.053000 0.053000 1.200000 0.026000 0.031000
1560113659101741018	800 61 1.000000 0.298000 0.300000 1600 51 1.100000 2.867000 3.274000 600 67 1.000000 0.053000 0.053000 1.200000 0.025000 0.030000
1560113659607384643	800 61 1.000000 0.299000 0.301000 1600 51 1.100000 2.863000 3.269000 600 67 1.000000 0.054000 0.054000 1.200000 0.025000 0.030000
1560113660113072226	800 61 1.000000 0.298000 0.300000 1600 51 1.100000 2.882000 3.291000 600 67 1.000000 0.054000 0.054000 1.200000 0.030000 0.036000
1560113660618815726	800 62 1.000000 0.297000 0.299000 1600 51 1.100000 2.856000 3.261000 600 67 1.000000 0.054000 0.054000 1.200000 0.030000 0.036000
1560113661124338268	800 61 1.000000 0.298000 0.300000 1600 52 1.100000 2.892000 3.302000 600 67 1.000000 0.054000 0.054000 1.200000 0.026000 0.031000
1560113661629897685	800 61 1.000000 0.298000 0.300000 1600 51 1.100000 2.867000 3.274000 600 67 1.000000 0.054000 0.054000 1.200000 0.025000 0.030000
1560113662135452560	800 61 1.000000 0.298000 0.300000 1600 52 1.100000 2.986000 3.410000 600 67 1.000000 0.054000 0.054000 1.200000 0.028000 0.033000
1560113662640981810	800 62 1.000000 0.298000 0.300000 1600 51 1.100000 2.873000 3.280000 600 68 1.000000 0.053000 0.053000 1.200000 0.029000 0.035000
1560113663146653643	800 61 1.000000 0.299000 0.301000 1600 51 1.100000 2.881000 3.290000 600 67 1.000000 0.054000 0.054000 1.200000 0.025000 0.030000
1560113663652394227	800 61 1.000000 0.298000 0.300000 1600 52 1.100000 2.868000 3.275000 600 67 1.000000 0.053000 0.053000 1.200000 0.025000 0.030000
1560113664158237352	800 62 1.000000 0.298000 0.300000 1600 51 1.100000 2.955000 3.374000 600 67 1.000000 0.054000 0.054000 1.200000 0.027000 0.032000
1560113664663687102	800 62 1.000000 0.298000 0.300000 1600 52 1.100000 2.910000 3.323000 600 68 1.000000 0.054000 0.054000 1.200000 0.026000 0.031000
1560113665169053394	800 61 1.000000 0.299000 0.301000 1600 52 1.100000 2.866000 3.272000 600 67 1.000000 0.054000 0.054000 1.200000 0.025000 0.030000
1560113665674838477	800 61 1.000000 0.299000 0.301000 1600 51 1.100000 2.870000 3.277000 600 67 1.000000 0.054000 0.054000 1.200000 0.026000 0.031000
1560113666180468102	800 61 1.000000 0.299000 0.301000 1600 51 1.100000 2.873000 3.280000 600 67 1.000000 0.054000 0.054000 1.200000 0.026000 0.031000
1560113666685607935	800 62 1.000000 0.298000 0.300000 1600 52 1.100000 2.881000 3.290000 600 67 1.000000 0.054000 0.054000 1.200000 0.025000 0.030000
1560113667191451352	800 61 1.000000 0.298000 0.300000 1600 52 1.100000 2.988000 3.412000 600 67 1.000000 0.054000 0.054000 1.200000 0.030000 0.036000
1560113667697114436	800 61 1.000000 0.298000 0.300000 1600 51 1.100000 2.867000 3.274000 600 67 1.000000 0.054000 0.054000 1.200000 0.026000 0.031000
1560113668202619852	800 61 1.000000 0.298000 0.300000 1600 52 1.100000 2.984000 3.407000 600 67 1.000000 0.054000 0.054000 1.200000 0.026000 0.031000
1560113668714143269	800 61 1.000000 0.299000 0.301000 1600 52 1.100000 2.870000 3.277000 600 67 1.000000 0.054000 0.054000 1.200000 0.025000 0.030000
1560113669220600352	800 62 1.000000 0.297000 0.299000 1600 51 1.100000 2.932000 3.348000 600 67 1.000000 0.054000 0.054000 1.200000 0.030000 0.036000
1560113669726345519	800 62 1.000000 0.298000 0.300000 1600 51 1.100000 2.867000 3.274000 600 67 1.000000 0.053000 0.053000 1.200000 0.026000 0.031000
1560113670231869853	800 61 1.000000 0.298000 0.300000 1600 51 1.100000 2.970000 3.391000 600 67 1.000000 0.054000 0.054000 1.200000 0.028000 0.033000
1560113670737675978	800 61 1.000000 0.298000 0.300000 1600 52 1.100000 2.863000 3.269000 600 67 1.000000 0.053000 0.053000 1.200000 0.026000 0.031000
1560113671243354353	800 62 1.000000 0.297000 0.299000 1600 52 1.100000 2.890000 3.300000 600 67 1.000000 0.053000 0.053000 1.200000 0.031000 0.037000
1560113671748836186	800 61 1.000000 0.298000 0.300000 1600 52 1.100000 2.870000 3.277000 600 67 1.000000 0.054000 0.054000 1.200000 0.025000 0.030000
1560113672254405311	800 61 1.000000 0.298000 0.300000 1600 52 1.100000 2.893000 3.303000 600 68 1.000000 0.054000 0.054000 1.200000 0.027000 0.032000
1560113672759977644	800 61 1.000000 0.299000 0.301000 1600 52 1.100000 2.870000 3.277000 600 67 1.000000 0.054000 0.054000 1.200000 0.025000 0.030000
1560113673265382020	800 62 1.000000 0.297000 0.299000 1600 52 1.100000 3.096000 3.538000 600 67 1.000000 0.053000 0.053000 1.200000 0.027000 0.032000
1560113673770894020	800 61 1.000000 0.297000 0.299000 1600 52 1.100000 2.879000 3.287000 600 67 1.000000 0.053000 0.053000 1.200000 0.025000 0.030000
1560113674276353645	800 61 1.000000 0.299000 0.301000 1600 52 1.100000 2.975000 3.397000 600 67 1.000000 0.053000 0.053000 1.200000 0.027000 0.032000
1560113674781754603	800 61 1.000000 0.298000 0.301000 1600 52 1.100000 2.867000 3.274000 600 67 1.000000 0.054000 0.054000 1.200000 0.026000 0.031000
1560113675287184103	800 61 1.000000 0.298000 0.300000 1600 52 1.100000 3.089000 3.530000 600 68 1.000000 0.054000 0.054000 1.200000 0.026000 0.031000
1560113675792554603	800 61 1.000000 0.298000 0.300000 1600 52 1.100000 2.868000 3.275000 600 67 1.000000 0.053000 0.053000 1.200000 0.025000 0.030000
1560113676298254603	800 62 1.000000 0.298000 0.300000 1600 52 1.100000 2.967000 3.388000 600 68 1.000000 0.054000 0.054000 1.200000 0.028000 0.033000
1560113676803740853	800 61 1.000000 0.298000 0.300000 1600 51 1.100000 2.867000 3.274000 600 67 1.000000 0.054000 0.054000 1.200000 0.025000 0.030000
1560113677309132603	800 62 1.000000 0.298000 0.300000 1600 52 1.100000 3.085000 3.526000 600 68 1.000000 0.054000 0.054000 1.200000 0.029000 0.035000
1560113677814662478	800 62 1.000000 0.299000 0.301000 1600 52 1.100000 2.864000 3.270000 600 67 1.000000 0.054000 0.054000 1.200000 0.025000 0.030000
1560113678320209603	800 62 1.000000 0.299000 0.301000 1600 51 1.100000 2.884000 3.293000 600 68 1.000000 0.054000 0.054000 1.200000 0.026000 0.031000
1560113678825785520	800 61 1.000000 0.299000 0.301000 1600 52 1.100000 2.868000 3.275000 600 67 1.000000 0.053000 0.053000 1.200000 0.027000 0.032000
1560113679331111937	800 62 1.000000 0.298000 0.300000 1600 52 1.100000 2.867000 3.274000 600 68 1.000000 0.054000 0.054000 1.200000 0.026000 0.031000
1560113679836494895	800 62 1.000000 0.298000 0.300000 1600 52 1.100000 2.865000 3.271000 600 67 1.000000 0.053000 0.053000 1.200000 0.028000 0.033000
1560113680342196895	800 62 1.000000 0.299000 0.301000 1600 52 1.100000 2.955000 3.374000 600 68 1.000000 0.053000 0.053000 1.200000 0.025000 0.030000
1560113680847714145	800 61 1.000000 0.299000 0.301000 1600 51 1.100000 2.860000 3.266000 600 67 1.000000 0.053000 0.053000 1.200000 0.025000 0.030000
1560113681359190645	800 53 1.000000 0.255000 0.258000 1600 50 1.100000 2.126000 2.423000 600 59 1.000000 0.054000 0.054000 1.200000 0.027000 0.032000
1560113681866745271	800 49 1.000000 0.044000 0.045000 1600 48 1.100000 0.241000 0.274000 600 54 1.000000 0.053000 0.053000 1.200000 0.024000 0.028000
