#Timestamp	CPU(0) Frequency(MHz)	CPU(0) Temperature(C)	A7 Voltage(V)	A7 Current(A)	A7 Power(W)	CPU(4) Frequency(MHz)	CPU(4) Temperature(C)	A15 Voltage(V)	A15 Current(A)	A15 Power(W)	GPU Frequency(MHz)	GPU Temperature(C)	GPU Voltage(V)	GPU Current(A)	GPU Power(W)	RAM Voltage(V)	RAM Current(A)	RAM Power(W)
1553301608665163277	900 32 1.000000 0.119000 0.126000 300 31 0.900000 0.076000 0.069000 600 35 1.000000 0.051000 0.051000 1.200000 0.069000 0.083000
1553301609177301693	900 32 1.000000 0.041000 0.043000 300 31 0.900000 0.183000 0.166000 600 35 1.000000 0.050000 0.050000 1.200000 0.031000 0.037000
1553301609689162360	900 32 1.000000 0.043000 0.045000 300 31 0.900000 0.184000 0.167000 600 35 1.000000 0.050000 0.050000 1.200000 0.030000 0.036000
1553301610201196527	900 32 1.000000 0.043000 0.045000 300 31 0.900000 0.186000 0.169000 600 35 1.000000 0.050000 0.050000 1.200000 0.030000 0.036000
1553301610713600902	900 32 1.000000 0.060000 0.063000 300 31 0.900000 0.188000 0.171000 600 35 1.000000 0.050000 0.050000 1.200000 0.036000 0.043000
1553301611225911194	900 32 1.000000 0.090000 0.095000 300 31 0.900000 0.187000 0.170000 600 35 1.000000 0.050000 0.050000 1.200000 0.058000 0.070000
1553301611737364735	900 32 1.000000 0.042000 0.044000 300 31 0.900000 0.186000 0.169000 600 35 1.000000 0.050000 0.050000 1.200000 0.029000 0.035000
1553301612248957902	900 32 1.000000 0.043000 0.045000 300 31 0.900000 0.260000 0.236000 600 36 1.000000 0.050000 0.050000 1.200000 0.030000 0.036000
1553301612762040777	900 33 1.000000 0.057000 0.060000 300 31 0.900000 0.491000 0.446000 600 36 1.000000 0.050000 0.050000 1.200000 0.027000 0.032000
1553301613274051902	900 33 1.000000 0.087000 0.092000 300 31 0.900000 0.481000 0.437000 600 37 1.000000 0.050000 0.050000 1.200000 0.041000 0.049000
1553301613785595444	900 33 1.000000 0.042000 0.044000 300 31 0.900000 0.494000 0.449000 600 37 1.000000 0.050000 0.050000 1.200000 0.027000 0.032000
1553301614297163527	900 33 1.000000 0.040000 0.042000 300 31 0.900000 0.494000 0.449000 600 37 1.000000 0.050000 0.050000 1.200000 0.026000 0.031000
1553301614808891402	900 33 1.000000 0.061000 0.064000 300 31 0.900000 0.492000 0.447000 600 37 1.000000 0.051000 0.051000 1.200000 0.030000 0.036000
1553301615320703736	900 33 1.000000 0.079000 0.083000 300 32 0.900000 0.488000 0.444000 600 37 1.000000 0.050000 0.050000 1.200000 0.028000 0.033000
1553301615832214111	900 33 1.000000 0.054000 0.057000 300 32 0.900000 0.495000 0.450000 600 37 1.000000 0.050000 0.050000 1.200000 0.028000 0.033000
1553301616343397736	900 33 1.000000 0.043000 0.045000 300 31 0.900000 0.495000 0.450000 600 37 1.000000 0.050000 0.050000 1.200000 0.028000 0.033000
1553301616855107444	900 33 1.000000 0.047000 0.049000 300 32 0.900000 0.493000 0.448000 600 37 1.000000 0.050000 0.050000 1.200000 0.033000 0.039000
1553301617367974486	900 33 1.000000 0.042000 0.044000 300 32 0.900000 0.496000 0.451000 600 37 1.000000 0.050000 0.050000 1.200000 0.026000 0.031000
1553301617879956070	900 33 1.000000 0.055000 0.058000 300 32 0.900000 0.495000 0.450000 600 37 1.000000 0.051000 0.051000 1.200000 0.034000 0.041000
1553301618391267653	900 33 1.000000 0.040000 0.042000 300 31 0.900000 0.495000 0.450000 600 37 1.000000 0.051000 0.051000 1.200000 0.026000 0.031000
1553301618902959653	900 33 1.000000 0.060000 0.063000 300 32 0.900000 0.493000 0.448000 600 37 1.000000 0.050000 0.050000 1.200000 0.034000 0.041000
1553301619414820903	900 33 1.000000 0.040000 0.042000 300 32 0.900000 0.496000 0.451000 600 37 1.000000 0.050000 0.050000 1.200000 0.026000 0.031000
1553301619927274695	900 33 1.000000 0.072000 0.076000 300 32 0.900000 0.485000 0.441000 600 37 1.000000 0.051000 0.051000 1.200000 0.036000 0.043000
1553301620438778903	900 33 1.000000 0.043000 0.045000 300 32 0.900000 0.495000 0.450000 600 37 1.000000 0.050000 0.050000 1.200000 0.027000 0.032000
1553301620950507945	900 33 1.000000 0.041000 0.043000 300 32 0.900000 0.494000 0.449000 600 38 1.000000 0.050000 0.050000 1.200000 0.026000 0.031000
1553301621462087278	900 33 1.000000 0.040000 0.042000 300 32 0.900000 0.494000 0.449000 600 37 1.000000 0.050000 0.050000 1.200000 0.027000 0.032000
1553301621973807320	900 33 1.000000 0.043000 0.045000 300 32 0.900000 0.493000 0.448000 600 38 1.000000 0.050000 0.050000 1.200000 0.027000 0.032000
1553301622485424362	900 33 1.000000 0.068000 0.072000 300 32 0.900000 0.495000 0.450000 600 38 1.000000 0.050000 0.050000 1.200000 0.028000 0.033000
1553301622997095987	900 33 1.000000 0.041000 0.043000 300 32 0.900000 0.495000 0.450000 600 37 1.000000 0.050000 0.050000 1.200000 0.027000 0.032000
1553301623508704654	900 33 1.000000 0.043000 0.045000 300 32 0.900000 0.496000 0.451000 600 37 1.000000 0.051000 0.051000 1.200000 0.027000 0.032000
1553301624022180404	900 33 1.000000 0.043000 0.045000 300 32 0.900000 0.496000 0.451000 600 38 1.000000 0.051000 0.051000 1.200000 0.026000 0.031000
1553301624534178070	900 33 1.000000 0.076000 0.080000 300 32 0.900000 0.492000 0.447000 600 37 1.000000 0.050000 0.050000 1.200000 0.040000 0.048000
1553301625045975279	900 33 1.000000 0.043000 0.045000 300 32 0.900000 0.495000 0.450000 600 38 1.000000 0.050000 0.050000 1.200000 0.026000 0.031000
1553301625557654112	900 33 1.000000 0.040000 0.042000 300 32 0.900000 0.496000 0.451000 600 38 1.000000 0.050000 0.050000 1.200000 0.026000 0.031000
1553301626069509320	900 33 1.000000 0.040000 0.042000 300 32 0.900000 0.496000 0.451000 600 37 1.000000 0.051000 0.051000 1.200000 0.026000 0.031000
1553301626581270821	900 34 1.000000 0.079000 0.083000 300 32 0.900000 0.484000 0.440000 600 38 1.000000 0.050000 0.050000 1.200000 0.053000 0.064000
1553301627092959821	900 34 1.000000 0.052000 0.055000 300 32 0.900000 0.494000 0.449000 600 38 1.000000 0.051000 0.051000 1.200000 0.025000 0.030000
1553301627604559946	900 33 1.000000 0.040000 0.042000 300 32 0.900000 0.496000 0.451000 600 38 1.000000 0.050000 0.050000 1.200000 0.026000 0.031000
1553301628116284571	900 33 1.000000 0.043000 0.045000 300 32 0.900000 0.496000 0.451000 600 38 1.000000 0.051000 0.051000 1.200000 0.026000 0.031000
1553301628627784696	900 34 1.000000 0.040000 0.042000 300 32 0.900000 0.496000 0.451000 600 38 1.000000 0.051000 0.051000 1.200000 0.027000 0.032000
1553301629139353113	900 34 1.000000 0.086000 0.091000 300 32 0.900000 0.495000 0.450000 600 38 1.000000 0.051000 0.051000 1.200000 0.034000 0.041000
1553301629651076529	900 33 1.000000 0.063000 0.066000 300 32 0.900000 0.494000 0.449000 600 37 1.000000 0.051000 0.051000 1.200000 0.034000 0.041000
1553301630162667404	900 33 1.000000 0.044000 0.046000 300 32 0.900000 0.496000 0.451000 600 38 1.000000 0.050000 0.050000 1.200000 0.027000 0.032000
1553301630675503488	900 34 1.000000 0.044000 0.046000 300 32 0.900000 0.496000 0.451000 600 38 1.000000 0.050000 0.050000 1.200000 0.026000 0.031000
1553301631188321946	900 34 1.000000 0.093000 0.098000 300 32 0.900000 0.488000 0.444000 600 38 1.000000 0.050000 0.050000 1.200000 0.048000 0.058000
1553301631700171113	900 34 1.000000 0.060000 0.063000 300 32 0.900000 0.496000 0.451000 600 38 1.000000 0.051000 0.051000 1.200000 0.027000 0.032000
1553301632212196613	900 33 1.000000 0.043000 0.045000 300 32 0.900000 0.496000 0.451000 600 37 1.000000 0.051000 0.051000 1.200000 0.025000 0.030000
1553301632724244821	900 33 1.000000 0.039000 0.041000 300 32 0.900000 0.197000 0.179000 600 36 1.000000 0.050000 0.050000 1.200000 0.026000 0.031000
1553301633236776405	900 33 1.000000 0.089000 0.094000 300 32 0.900000 0.198000 0.180000 600 36 1.000000 0.050000 0.050000 1.200000 0.053000 0.064000
1553301633749076238	900 33 1.000000 0.039000 0.041000 300 31 0.900000 0.197000 0.179000 600 36 1.000000 0.050000 0.050000 1.200000 0.025000 0.030000
1553301634261075863	900 33 1.000000 0.039000 0.041000 300 31 0.900000 0.195000 0.177000 600 36 1.000000 0.050000 0.050000 1.200000 0.026000 0.031000
1553301634772984072	900 33 1.000000 0.043000 0.045000 300 31 0.900000 0.195000 0.177000 600 36 1.000000 0.050000 0.050000 1.200000 0.026000 0.031000
1553301635286436447	900 33 1.000000 0.041000 0.043000 300 31 0.900000 0.196000 0.178000 600 36 1.000000 0.050000 0.050000 1.200000 0.039000 0.047000
1553301635799195697	900 33 1.000000 0.071000 0.075000 300 31 0.900000 0.197000 0.179000 600 36 1.000000 0.050000 0.050000 1.200000 0.025000 0.030000
1553301636311831280	900 33 1.000000 0.040000 0.042000 300 31 0.900000 0.195000 0.177000 600 36 1.000000 0.050000 0.050000 1.200000 0.025000 0.030000
1553301636823882613	900 33 1.000000 0.043000 0.045000 300 31 0.900000 0.195000 0.177000 600 35 1.000000 0.050000 0.050000 1.200000 0.025000 0.030000
1553301637337852280	900 32 1.000000 0.042000 0.044000 300 31 0.900000 0.195000 0.177000 600 35 1.000000 0.050000 0.050000 1.200000 0.027000 0.032000
1553301637850819905	900 33 1.000000 0.087000 0.092000 300 31 0.900000 0.198000 0.180000 600 35 1.000000 0.050000 0.050000 1.200000 0.063000 0.076000
1553301638363255280	900 33 1.000000 0.041000 0.043000 300 31 0.900000 0.197000 0.179000 600 35 1.000000 0.051000 0.051000 1.200000 0.027000 0.032000
1553301638875139864	900 33 1.000000 0.041000 0.043000 300 31 0.900000 0.195000 0.177000 600 35 1.000000 0.050000 0.050000 1.200000 0.026000 0.031000
1553301639387223739	900 32 1.000000 0.043000 0.045000 300 31 0.900000 0.195000 0.177000 600 35 1.000000 0.050000 0.050000 1.200000 0.025000 0.030000
1553301639899432530	900 33 1.000000 0.083000 0.088000 300 31 0.900000 0.195000 0.177000 600 35 1.000000 0.050000 0.050000 1.200000 0.048000 0.058000
1553301640411305822	900 32 1.000000 0.039000 0.041000 300 31 0.900000 0.197000 0.179000 600 35 1.000000 0.050000 0.050000 1.200000 0.025000 0.030000
1553301640923445156	900 32 1.000000 0.040000 0.042000 300 31 0.900000 0.196000 0.178000 600 35 1.000000 0.050000 0.050000 1.200000 0.025000 0.030000
1553301641435499447	900 32 1.000000 0.042000 0.044000 300 31 0.900000 0.196000 0.178000 600 35 1.000000 0.050000 0.050000 1.200000 0.025000 0.030000
1553301641948457114	900 33 1.000000 0.043000 0.045000 300 31 0.900000 0.197000 0.179000 600 35 1.000000 0.050000 0.050000 1.200000 0.034000 0.041000
1553301642460801156	900 32 1.000000 0.078000 0.082000 300 31 0.900000 0.197000 0.179000 600 35 1.000000 0.050000 0.050000 1.200000 0.025000 0.030000
1553301642973897781	900 32 1.000000 0.041000 0.043000 300 31 0.900000 0.196000 0.178000 600 35 1.000000 0.050000 0.050000 1.200000 0.026000 0.031000
1553301643486046198	900 32 1.000000 0.040000 0.042000 300 31 0.900000 0.197000 0.179000 600 35 1.000000 0.050000 0.050000 1.200000 0.026000 0.031000
1553301643998189823	900 32 1.000000 0.059000 0.062000 300 31 0.900000 0.195000 0.177000 600 35 1.000000 0.050000 0.050000 1.200000 0.034000 0.041000
1553301644510282073	900 33 1.000000 0.083000 0.088000 300 31 0.900000 0.197000 0.179000 600 35 1.000000 0.050000 0.050000 1.200000 0.047000 0.056000
1553301645022337323	900 32 1.000000 0.039000 0.041000 300 31 0.900000 0.197000 0.179000 600 35 1.000000 0.050000 0.050000 1.200000 0.028000 0.033000
1553301645534289073	900 32 1.000000 0.039000 0.041000 300 31 0.900000 0.197000 0.179000 600 35 1.000000 0.050000 0.050000 1.200000 0.027000 0.032000
1553301646046653698	900 32 1.000000 0.042000 0.044000 300 31 0.900000 0.198000 0.180000 600 35 1.000000 0.050000 0.050000 1.200000 0.026000 0.031000
1553301646558524490	900 33 1.000000 0.042000 0.044000 300 31 0.900000 0.196000 0.178000 600 35 1.000000 0.051000 0.051000 1.200000 0.033000 0.039000
1553301647070320031	900 32 1.000000 0.041000 0.043000 300 31 0.900000 0.195000 0.177000 600 35 1.000000 0.050000 0.050000 1.200000 0.051000 0.061000
1553301647582002948	900 32 1.000000 0.041000 0.043000 300 31 0.900000 0.197000 0.179000 600 35 1.000000 0.050000 0.050000 1.200000 0.026000 0.031000
1553301648093853990	900 32 1.000000 0.042000 0.044000 300 31 0.900000 0.197000 0.179000 600 35 1.000000 0.051000 0.051000 1.200000 0.027000 0.032000
1553301648606503282	900 32 1.000000 0.046000 0.048000 300 31 0.900000 0.197000 0.179000 600 35 1.000000 0.050000 0.050000 1.200000 0.030000 0.036000
1553301649118779115	900 32 1.000000 0.091000 0.096000 300 31 0.900000 0.196000 0.178000 600 35 1.000000 0.050000 0.050000 1.200000 0.051000 0.061000
1553301649630462698	900 32 1.000000 0.041000 0.043000 300 31 0.900000 0.198000 0.180000 600 35 1.000000 0.050000 0.050000 1.200000 0.027000 0.032000
1553301650142895990	900 32 1.000000 0.042000 0.044000 300 31 0.900000 0.200000 0.182000 600 35 1.000000 0.050000 0.050000 1.200000 0.025000 0.030000
1553301650654515532	900 32 1.000000 0.042000 0.044000 300 31 0.900000 0.201000 0.183000 600 35 1.000000 0.050000 0.050000 1.200000 0.026000 0.031000
1553301651166428115	900 32 1.000000 0.083000 0.088000 300 31 0.900000 0.198000 0.180000 600 35 1.000000 0.050000 0.050000 1.200000 0.037000 0.044000
1553301651678342699	900 32 1.000000 0.040000 0.042000 300 31 0.900000 0.198000 0.180000 600 35 1.000000 0.050000 0.050000 1.200000 0.027000 0.032000
1553301652190567157	900 32 1.000000 0.046000 0.048000 300 31 0.900000 0.199000 0.181000 600 35 1.000000 0.050000 0.050000 1.200000 0.027000 0.032000
1553301652702285407	900 32 1.000000 0.039000 0.041000 300 31 0.900000 0.198000 0.180000 600 35 1.000000 0.050000 0.050000 1.200000 0.028000 0.033000
1553301653214647907	900 32 1.000000 0.075000 0.079000 300 31 0.900000 0.200000 0.182000 600 35 1.000000 0.050000 0.050000 1.200000 0.026000 0.031000
1553301653726689240	900 32 1.000000 0.052000 0.055000 300 31 0.900000 0.197000 0.179000 600 35 1.000000 0.050000 0.050000 1.200000 0.025000 0.030000
1553301654238415699	900 32 1.000000 0.039000 0.041000 300 31 0.900000 0.198000 0.180000 600 35 1.000000 0.050000 0.050000 1.200000 0.024000 0.028000
1553301654750233657	900 32 1.000000 0.062000 0.065000 300 31 0.900000 0.198000 0.180000 600 35 1.000000 0.050000 0.050000 1.200000 0.034000 0.041000
1553301655263288991	900 32 1.000000 0.041000 0.043000 300 31 0.900000 0.199000 0.181000 600 35 1.000000 0.050000 0.050000 1.200000 0.026000 0.031000
1553301655775531116	900 32 1.000000 0.071000 0.075000 300 31 0.900000 0.200000 0.182000 600 35 1.000000 0.050000 0.050000 1.200000 0.042000 0.050000
1553301656288818157	900 32 1.000000 0.041000 0.043000 300 31 0.900000 0.199000 0.181000 600 35 1.000000 0.050000 0.050000 1.200000 0.027000 0.032000
1553301656801568782	900 32 1.000000 0.071000 0.075000 300 31 0.900000 0.092000 0.083000 600 35 1.000000 0.050000 0.050000 1.200000 0.044000 0.053000
1553301657313578824	900 31 1.000000 0.042000 0.044000 300 31 0.900000 0.046000 0.041000 600 35 1.000000 0.050000 0.050000 1.200000 0.024000 0.028000
