#Timestamp	CPU(0) Frequency(MHz)	CPU(0) Temperature(C)	A7 Voltage(V)	A7 Current(A)	A7 Power(W)	CPU(4) Frequency(MHz)	CPU(4) Temperature(C)	A15 Voltage(V)	A15 Current(A)	A15 Power(W)	GPU Frequency(MHz)	GPU Temperature(C)	GPU Voltage(V)	GPU Current(A)	GPU Power(W)	RAM Voltage(V)	RAM Current(A)	RAM Power(W)
1553303460198178039	800 34 1.100000 0.088000 0.101000 900 31 0.900000 0.108000 0.101000 600 36 1.000000 0.050000 0.050000 1.200000 0.048000 0.057000
1553303460709805789	800 35 1.000000 0.035000 0.035000 900 32 0.900000 0.525000 0.493000 600 36 1.000000 0.050000 0.050000 1.200000 0.036000 0.043000
1553303461220965998	800 35 1.000000 0.071000 0.072000 900 32 0.900000 0.529000 0.497000 600 39 1.000000 0.051000 0.051000 1.200000 0.043000 0.051000
1553303461731804373	800 37 1.000000 0.157000 0.160000 900 33 0.900000 1.474000 1.392000 600 41 1.000000 0.051000 0.051000 1.200000 0.036000 0.043000
1553303462242670831	800 37 1.000000 0.153000 0.156000 900 33 0.900000 1.479000 1.397000 600 42 1.000000 0.051000 0.051000 1.200000 0.034000 0.041000
1553303462755075706	800 38 1.000000 0.154000 0.157000 900 34 0.900000 1.482000 1.397000 600 42 1.000000 0.051000 0.051000 1.200000 0.033000 0.039000
1553303463266355915	800 38 1.000000 0.185000 0.189000 900 34 0.900000 1.463000 1.379000 600 43 1.000000 0.051000 0.051000 1.200000 0.048000 0.058000
1553303463777257540	800 38 1.000000 0.171000 0.174000 900 35 0.900000 1.482000 1.397000 600 43 1.000000 0.051000 0.051000 1.200000 0.038000 0.045000
1553303464288118790	800 39 1.000000 0.152000 0.155000 900 35 0.900000 1.486000 1.404000 600 43 1.000000 0.051000 0.051000 1.200000 0.033000 0.039000
1553303464799070206	800 39 1.000000 0.152000 0.155000 900 35 0.900000 1.488000 1.406000 600 44 1.000000 0.051000 0.051000 1.200000 0.033000 0.039000
1553303465310024790	800 39 1.000000 0.160000 0.163000 900 35 0.900000 1.462000 1.378000 600 44 1.000000 0.051000 0.051000 1.200000 0.052000 0.062000
1553303465820756748	800 36 1.000000 0.153000 0.156000 900 35 0.900000 0.543000 0.514000 600 40 1.000000 0.051000 0.051000 1.200000 0.034000 0.041000
1553303466331471915	800 35 1.000000 0.156000 0.159000 900 34 0.900000 0.097000 0.092000 600 39 1.000000 0.051000 0.051000 1.200000 0.025000 0.030000
1553303466842520165	800 35 1.000000 0.152000 0.155000 900 34 0.900000 0.094000 0.089000 600 38 1.000000 0.051000 0.051000 1.200000 0.026000 0.031000
1553303467356335998	800 35 1.000000 0.153000 0.156000 900 33 0.900000 0.096000 0.091000 600 37 1.000000 0.051000 0.051000 1.200000 0.027000 0.032000
1553303467867297665	800 34 1.000000 0.190000 0.193000 900 33 0.900000 0.111000 0.105000 600 37 1.000000 0.051000 0.051000 1.200000 0.036000 0.043000
1553303468378209207	800 34 1.000000 0.157000 0.160000 900 33 0.900000 0.097000 0.092000 600 37 1.000000 0.051000 0.051000 1.200000 0.028000 0.033000
1553303468889192290	800 34 1.000000 0.155000 0.158000 900 33 0.900000 0.097000 0.092000 600 37 1.000000 0.051000 0.051000 1.200000 0.028000 0.033000
1553303469405521207	800 33 1.000000 0.153000 0.156000 900 33 0.900000 0.093000 0.088000 600 37 1.000000 0.051000 0.051000 1.200000 0.027000 0.032000
1553303469916664707	800 34 1.000000 0.193000 0.197000 900 32 0.900000 0.127000 0.120000 600 37 1.000000 0.050000 0.050000 1.200000 0.044000 0.053000
1553303470427403874	800 36 1.000000 0.034000 0.034000 900 33 0.900000 0.557000 0.523000 600 37 1.000000 0.050000 0.050000 1.200000 0.028000 0.033000
1553303470938224332	800 36 1.000000 0.034000 0.034000 900 33 0.900000 0.558000 0.524000 600 37 1.000000 0.051000 0.051000 1.200000 0.027000 0.032000
1553303471448935374	800 36 1.000000 0.035000 0.035000 900 33 0.900000 0.559000 0.525000 600 37 1.000000 0.050000 0.050000 1.200000 0.027000 0.032000
1553303471959782499	800 36 1.000000 0.036000 0.036000 900 33 0.900000 0.561000 0.527000 600 37 1.000000 0.051000 0.051000 1.200000 0.049000 0.059000
1553303472470416707	800 36 1.000000 0.049000 0.050000 900 33 0.900000 0.558000 0.524000 600 37 1.000000 0.051000 0.051000 1.200000 0.027000 0.032000
1553303472981434166	800 36 1.000000 0.035000 0.035000 900 33 0.900000 0.561000 0.527000 600 37 1.000000 0.051000 0.051000 1.200000 0.027000 0.032000
1553303473492368707	800 36 1.000000 0.035000 0.035000 900 33 0.900000 0.563000 0.529000 600 37 1.000000 0.051000 0.051000 1.200000 0.027000 0.032000
1553303474015434416	800 36 1.000000 0.034000 0.034000 900 33 0.900000 0.562000 0.528000 600 37 1.000000 0.051000 0.051000 1.200000 0.042000 0.050000
1553303474526925749	800 36 1.000000 0.038000 0.038000 900 33 0.900000 0.579000 0.544000 600 37 1.000000 0.051000 0.051000 1.200000 0.030000 0.036000
1553303475037535458	800 36 1.000000 0.034000 0.034000 900 33 0.900000 0.562000 0.528000 600 37 1.000000 0.051000 0.051000 1.200000 0.027000 0.032000
1553303475547993291	800 36 1.000000 0.034000 0.034000 900 33 0.900000 0.566000 0.532000 600 37 1.000000 0.051000 0.051000 1.200000 0.027000 0.032000
1553303476066883083	800 36 1.000000 0.035000 0.035000 900 33 0.900000 0.566000 0.532000 600 37 1.000000 0.051000 0.051000 1.200000 0.027000 0.032000
1553303476577757208	800 36 1.000000 0.099000 0.101000 900 33 0.900000 0.571000 0.536000 600 38 1.000000 0.051000 0.051000 1.200000 0.030000 0.036000
1553303477088344666	800 36 1.000000 0.036000 0.036000 900 33 0.900000 0.568000 0.533000 600 37 1.000000 0.051000 0.051000 1.200000 0.029000 0.035000
1553303477598569416	800 36 1.000000 0.034000 0.034000 900 33 0.900000 0.566000 0.532000 600 37 1.000000 0.051000 0.051000 1.200000 0.027000 0.032000
1553303478109812125	800 34 1.000000 0.035000 0.035000 900 33 0.900000 0.570000 0.535000 600 37 1.000000 0.051000 0.051000 1.200000 0.027000 0.032000
1553303478620716833	800 33 1.000000 0.047000 0.048000 900 32 0.900000 0.103000 0.097000 600 37 1.000000 0.051000 0.051000 1.200000 0.033000 0.039000
