#Timestamp	CPU(0) Frequency(MHz)	CPU(0) Temperature(C)	A7 Voltage(V)	A7 Current(A)	A7 Power(W)	CPU(4) Frequency(MHz)	CPU(4) Temperature(C)	A15 Voltage(V)	A15 Current(A)	A15 Power(W)	GPU Frequency(MHz)	GPU Temperature(C)	GPU Voltage(V)	GPU Current(A)	GPU Power(W)	RAM Voltage(V)	RAM Current(A)	RAM Power(W)
1517161197979312310	500 39 0.900000 0.053000 0.048000 600 38 0.900000 0.095000 0.086000 600 43 1.000000 0.051000 0.051000 1.200000 0.045000 0.054000
1517161198490846977	500 40 0.900000 0.022000 0.020000 600 38 0.900000 0.310000 0.282000 600 42 1.000000 0.052000 0.052000 1.200000 0.041000 0.049000
1517161199004273602	500 40 0.900000 0.022000 0.020000 600 38 0.900000 0.320000 0.291000 600 42 1.000000 0.051000 0.051000 1.200000 0.043000 0.052000
1517161199515873935	500 40 0.900000 0.022000 0.020000 600 38 0.900000 0.355000 0.323000 600 42 1.000000 0.051000 0.051000 1.200000 0.030000 0.036000
1517161200028523727	500 40 0.900000 0.022000 0.020000 600 38 0.900000 0.400000 0.364000 600 42 1.000000 0.051000 0.051000 1.200000 0.033000 0.039000
1517161200540002519	500 39 0.900000 0.021000 0.019000 600 38 0.900000 0.330000 0.300000 600 42 1.000000 0.051000 0.051000 1.200000 0.030000 0.036000
1517161201051616810	500 39 0.900000 0.021000 0.019000 600 38 0.900000 0.325000 0.296000 600 42 1.000000 0.051000 0.051000 1.200000 0.029000 0.035000
1517161201562926186	500 39 0.900000 0.021000 0.019000 600 38 0.900000 0.324000 0.295000 600 43 1.000000 0.051000 0.051000 1.200000 0.029000 0.035000
1517161202074459311	500 39 0.900000 0.022000 0.020000 600 37 0.900000 0.399000 0.363000 600 42 1.000000 0.051000 0.051000 1.200000 0.035000 0.042000
1517161202586081894	500 39 0.900000 0.021000 0.019000 600 37 0.900000 0.318000 0.289000 600 42 1.000000 0.051000 0.051000 1.200000 0.029000 0.035000
1517161203097900477	500 39 0.900000 0.021000 0.019000 600 37 0.900000 0.315000 0.286000 600 42 1.000000 0.051000 0.051000 1.200000 0.030000 0.036000
1517161203610461436	500 39 0.900000 0.021000 0.019000 600 37 0.900000 0.352000 0.320000 600 42 1.000000 0.051000 0.051000 1.200000 0.029000 0.035000
1517161204121904769	500 39 0.900000 0.033000 0.030000 600 37 0.900000 0.625000 0.564000 600 42 1.000000 0.051000 0.051000 1.200000 0.039000 0.047000
1517161204634453311	500 39 0.900000 0.022000 0.020000 600 38 0.900000 0.521000 0.469000 600 42 1.000000 0.051000 0.051000 1.200000 0.030000 0.036000
1517161205146393061	500 39 0.900000 0.022000 0.020000 600 38 0.900000 0.521000 0.469000 600 42 1.000000 0.051000 0.051000 1.200000 0.023000 0.027000
1517161205658057686	500 39 0.900000 0.022000 0.020000 600 37 0.900000 0.520000 0.469000 600 42 1.000000 0.051000 0.051000 1.200000 0.025000 0.030000
1517161206171095144	500 39 0.900000 0.046000 0.042000 600 38 0.900000 0.657000 0.593000 600 42 1.000000 0.051000 0.051000 1.200000 0.046000 0.055000
1517161206683446353	500 39 0.900000 0.021000 0.019000 600 37 0.900000 0.520000 0.469000 600 42 1.000000 0.051000 0.051000 1.200000 0.023000 0.027000
1517161207195327936	500 39 0.900000 0.022000 0.020000 600 37 0.900000 0.516000 0.465000 600 42 1.000000 0.051000 0.051000 1.200000 0.024000 0.028000
1517161207707509353	500 39 0.900000 0.022000 0.020000 600 37 0.900000 0.525000 0.474000 600 42 1.000000 0.051000 0.051000 1.200000 0.025000 0.030000
1517161208219894061	500 39 0.900000 0.022000 0.020000 600 38 0.900000 0.525000 0.474000 600 43 1.000000 0.051000 0.051000 1.200000 0.025000 0.030000
1517161208731754770	500 39 0.900000 0.026000 0.023000 600 38 0.900000 0.567000 0.511000 600 42 1.000000 0.051000 0.051000 1.200000 0.039000 0.047000
1517161209243760020	500 39 0.900000 0.022000 0.020000 600 37 0.900000 0.535000 0.482000 600 42 1.000000 0.051000 0.051000 1.200000 0.024000 0.029000
1517161209755214520	500 39 0.900000 0.022000 0.020000 600 37 0.900000 0.515000 0.464000 600 42 1.000000 0.051000 0.051000 1.200000 0.025000 0.030000
1517161210266597187	500 39 0.900000 0.022000 0.020000 600 37 0.900000 0.521000 0.469000 600 42 1.000000 0.051000 0.051000 1.200000 0.031000 0.037000
1517161210778532770	500 39 0.900000 0.028000 0.025000 600 37 0.900000 0.612000 0.552000 600 42 1.000000 0.051000 0.051000 1.200000 0.039000 0.047000
1517161211290056395	500 39 0.900000 0.022000 0.020000 600 38 0.900000 0.516000 0.465000 600 42 1.000000 0.051000 0.051000 1.200000 0.025000 0.030000
1517161211801750812	500 39 0.900000 0.022000 0.020000 600 37 0.900000 0.525000 0.473000 600 42 1.000000 0.051000 0.051000 1.200000 0.027000 0.032000
1517161212313241020	500 39 0.900000 0.022000 0.020000 600 38 0.900000 0.519000 0.468000 600 42 1.000000 0.051000 0.051000 1.200000 0.023000 0.027000
1517161212824609187	500 39 0.900000 0.026000 0.023000 600 37 0.900000 0.612000 0.552000 600 42 1.000000 0.051000 0.051000 1.200000 0.037000 0.044000
1517161213336433312	500 39 0.900000 0.022000 0.020000 600 37 0.900000 0.527000 0.475000 600 42 1.000000 0.051000 0.051000 1.200000 0.029000 0.035000
1517161213847848520	500 39 0.900000 0.021000 0.019000 600 37 0.900000 0.522000 0.470000 600 42 1.000000 0.051000 0.051000 1.200000 0.023000 0.027000
1517161214360379187	500 39 0.900000 0.022000 0.020000 600 38 0.900000 0.539000 0.486000 600 42 1.000000 0.051000 0.051000 1.200000 0.025000 0.030000
1517161214873152395	500 39 0.900000 0.025000 0.022000 600 37 0.900000 0.594000 0.535000 600 43 1.000000 0.051000 0.051000 1.200000 0.031000 0.037000
1517161215384765146	500 39 0.900000 0.028000 0.025000 600 37 0.900000 0.595000 0.537000 600 42 1.000000 0.051000 0.051000 1.200000 0.024000 0.028000
1517161215897392104	500 39 0.900000 0.022000 0.020000 600 37 0.900000 0.531000 0.478000 600 42 1.000000 0.051000 0.051000 1.200000 0.030000 0.036000
1517161216410691562	500 39 0.900000 0.022000 0.020000 600 37 0.900000 0.517000 0.466000 600 42 1.000000 0.051000 0.051000 1.200000 0.025000 0.030000
1517161216922596562	500 39 0.900000 0.023000 0.021000 600 37 0.900000 0.551000 0.497000 600 42 1.000000 0.051000 0.051000 1.200000 0.037000 0.044000
1517161217434315937	500 39 0.900000 0.024000 0.021000 600 37 0.900000 0.526000 0.474000 600 42 1.000000 0.051000 0.051000 1.200000 0.042000 0.050000
1517161217945942188	500 39 0.900000 0.022000 0.020000 600 37 0.900000 0.527000 0.475000 600 42 1.000000 0.051000 0.051000 1.200000 0.024000 0.028000
1517161218457412771	500 39 0.900000 0.022000 0.020000 600 37 0.900000 0.536000 0.483000 600 42 1.000000 0.051000 0.051000 1.200000 0.024000 0.028000
1517161218969251479	500 39 0.900000 0.022000 0.020000 600 37 0.900000 0.570000 0.514000 600 42 1.000000 0.051000 0.051000 1.200000 0.034000 0.041000
1517161219480605271	500 39 0.900000 0.023000 0.021000 600 37 0.900000 0.517000 0.466000 600 42 1.000000 0.051000 0.051000 1.200000 0.027000 0.032000
1517161219992398188	500 39 0.900000 0.022000 0.020000 600 37 0.900000 0.584000 0.527000 600 42 1.000000 0.051000 0.051000 1.200000 0.028000 0.033000
1517161220504344271	500 39 0.900000 0.022000 0.020000 600 37 0.900000 0.529000 0.477000 600 42 1.000000 0.051000 0.051000 1.200000 0.024000 0.028000
1517161221015909105	500 39 0.900000 0.022000 0.020000 600 37 0.900000 0.590000 0.532000 600 42 1.000000 0.051000 0.051000 1.200000 0.028000 0.033000
1517161221528068188	500 39 0.900000 0.022000 0.020000 600 37 0.900000 0.532000 0.480000 600 43 1.000000 0.051000 0.051000 1.200000 0.030000 0.036000
1517161222039825980	500 39 0.900000 0.026000 0.023000 600 37 0.900000 0.633000 0.571000 600 42 1.000000 0.051000 0.051000 1.200000 0.023000 0.027000
1517161222551216813	500 39 0.900000 0.022000 0.020000 600 37 0.900000 0.518000 0.467000 600 42 1.000000 0.051000 0.051000 1.200000 0.024000 0.028000
1517161223063138980	500 39 0.900000 0.022000 0.020000 600 37 0.900000 0.594000 0.536000 600 42 1.000000 0.052000 0.052000 1.200000 0.032000 0.038000
1517161223574682647	500 39 0.900000 0.022000 0.020000 600 37 0.900000 0.520000 0.469000 600 42 1.000000 0.051000 0.051000 1.200000 0.023000 0.027000
1517161224086112813	500 39 0.900000 0.031000 0.028000 600 37 0.900000 0.644000 0.581000 600 42 1.000000 0.051000 0.051000 1.200000 0.030000 0.036000
1517161224598079397	500 39 0.900000 0.022000 0.020000 600 37 0.900000 0.528000 0.476000 600 42 1.000000 0.051000 0.051000 1.200000 0.024000 0.028000
1517161225109639897	500 39 0.900000 0.022000 0.020000 600 37 0.900000 0.530000 0.478000 600 42 1.000000 0.051000 0.051000 1.200000 0.030000 0.036000
1517161225621433688	500 39 0.900000 0.022000 0.020000 600 37 0.900000 0.531000 0.479000 600 42 1.000000 0.051000 0.051000 1.200000 0.030000 0.036000
1517161226133110438	500 39 0.900000 0.022000 0.020000 600 37 0.900000 0.524000 0.472000 600 42 1.000000 0.051000 0.051000 1.200000 0.025000 0.030000
1517161226645108772	500 39 0.900000 0.022000 0.020000 600 37 0.900000 0.598000 0.539000 600 42 1.000000 0.051000 0.051000 1.200000 0.040000 0.048000
1517161227157146022	500 39 0.900000 0.022000 0.020000 600 37 0.900000 0.522000 0.470000 600 42 1.000000 0.051000 0.051000 1.200000 0.024000 0.028000
1517161227668787397	500 39 0.900000 0.022000 0.020000 600 37 0.900000 0.518000 0.467000 600 42 1.000000 0.051000 0.051000 1.200000 0.030000 0.036000
1517161228181273189	500 39 0.900000 0.027000 0.024000 600 37 0.900000 0.531000 0.478000 600 42 1.000000 0.051000 0.051000 1.200000 0.032000 0.038000
1517161228693785772	500 39 0.900000 0.028000 0.025000 600 37 0.900000 0.649000 0.586000 600 42 1.000000 0.051000 0.051000 1.200000 0.035000 0.042000
1517161229205370856	500 39 0.900000 0.021000 0.019000 600 37 0.900000 0.529000 0.477000 600 42 1.000000 0.051000 0.051000 1.200000 0.025000 0.030000
1517161229717137147	500 39 0.900000 0.022000 0.020000 600 37 0.900000 0.535000 0.482000 600 42 1.000000 0.051000 0.051000 1.200000 0.031000 0.037000
1517161230229013939	500 39 0.900000 0.022000 0.020000 600 37 0.900000 0.530000 0.478000 600 42 1.000000 0.051000 0.051000 1.200000 0.024000 0.028000
1517161230740620272	500 39 0.900000 0.028000 0.025000 600 37 0.900000 0.599000 0.540000 600 42 1.000000 0.051000 0.051000 1.200000 0.030000 0.036000
1517161231251930522	500 39 0.900000 0.022000 0.020000 600 37 0.900000 0.527000 0.475000 600 42 1.000000 0.051000 0.051000 1.200000 0.028000 0.033000
1517161231763889314	500 39 0.900000 0.022000 0.020000 600 37 0.900000 0.517000 0.466000 600 42 1.000000 0.051000 0.051000 1.200000 0.025000 0.030000
1517161232275622314	500 39 0.900000 0.021000 0.019000 600 37 0.900000 0.515000 0.464000 600 42 1.000000 0.051000 0.051000 1.200000 0.027000 0.032000
1517161232789498856	500 39 0.900000 0.028000 0.025000 600 37 0.900000 0.560000 0.505000 600 42 1.000000 0.051000 0.051000 1.200000 0.031000 0.037000
1517161233302325023	500 39 0.900000 0.025000 0.022000 600 37 0.900000 0.603000 0.544000 600 42 1.000000 0.051000 0.051000 1.200000 0.040000 0.048000
1517161233814297898	500 39 0.900000 0.022000 0.020000 600 37 0.900000 0.565000 0.509000 600 42 1.000000 0.051000 0.051000 1.200000 0.035000 0.042000
1517161234326027356	500 39 0.900000 0.022000 0.020000 600 37 0.900000 0.525000 0.473000 600 42 1.000000 0.051000 0.051000 1.200000 0.024000 0.028000
1517161234839953773	500 39 0.900000 0.022000 0.020000 600 37 0.900000 0.525000 0.473000 600 42 1.000000 0.051000 0.051000 1.200000 0.025000 0.030000
1517161235352114815	500 39 0.900000 0.028000 0.025000 600 37 0.900000 0.646000 0.583000 600 42 1.000000 0.051000 0.051000 1.200000 0.038000 0.045000
1517161235864142023	500 39 0.900000 0.022000 0.020000 600 37 0.900000 0.545000 0.491000 600 42 1.000000 0.051000 0.051000 1.200000 0.030000 0.036000
1517161236375621065	500 39 0.900000 0.022000 0.020000 600 37 0.900000 0.527000 0.475000 600 42 1.000000 0.051000 0.051000 1.200000 0.028000 0.033000
1517161236887669065	500 39 0.900000 0.022000 0.020000 600 37 0.900000 0.530000 0.478000 600 42 1.000000 0.051000 0.051000 1.200000 0.030000 0.036000
1517161237400462023	500 39 0.900000 0.025000 0.022000 600 37 0.900000 0.583000 0.525000 600 42 1.000000 0.051000 0.051000 1.200000 0.027000 0.032000
1517161237912262107	500 39 0.900000 0.022000 0.020000 600 37 0.900000 0.519000 0.468000 600 42 1.000000 0.051000 0.051000 1.200000 0.035000 0.042000
1517161238424095315	500 39 0.900000 0.022000 0.020000 600 37 0.900000 0.518000 0.467000 600 42 1.000000 0.051000 0.051000 1.200000 0.024000 0.029000
1517161238935640648	500 39 0.900000 0.022000 0.020000 600 37 0.900000 0.511000 0.460000 600 42 1.000000 0.051000 0.051000 1.200000 0.025000 0.030000
1517161239448999065	500 39 0.900000 0.024000 0.021000 600 37 0.900000 0.530000 0.478000 600 42 1.000000 0.051000 0.051000 1.200000 0.031000 0.037000
1517161239961041315	500 39 0.900000 0.022000 0.020000 600 37 0.900000 0.521000 0.469000 600 42 1.000000 0.051000 0.051000 1.200000 0.028000 0.033000
1517161240472448815	500 39 0.900000 0.022000 0.020000 600 37 0.900000 0.516000 0.465000 600 42 1.000000 0.051000 0.051000 1.200000 0.023000 0.027000
1517161240984154065	500 39 0.900000 0.022000 0.020000 600 37 0.900000 0.524000 0.472000 600 42 1.000000 0.051000 0.051000 1.200000 0.024000 0.029000
1517161241495606732	500 39 0.900000 0.022000 0.020000 600 37 0.900000 0.519000 0.468000 600 42 1.000000 0.051000 0.051000 1.200000 0.023000 0.027000
1517161242007880524	500 39 0.900000 0.022000 0.020000 600 37 0.900000 0.658000 0.594000 600 42 1.000000 0.051000 0.051000 1.200000 0.031000 0.037000
1517161242519545649	500 39 0.900000 0.022000 0.020000 600 37 0.900000 0.527000 0.475000 600 42 1.000000 0.051000 0.051000 1.200000 0.025000 0.030000
1517161243030824899	500 39 0.900000 0.022000 0.020000 600 37 0.900000 0.516000 0.465000 600 42 1.000000 0.051000 0.051000 1.200000 0.031000 0.037000
1517161243544345816	500 39 0.900000 0.022000 0.020000 600 37 0.900000 0.528000 0.476000 600 42 1.000000 0.051000 0.051000 1.200000 0.024000 0.028000
1517161244056396607	500 39 0.900000 0.022000 0.020000 600 37 0.900000 0.600000 0.541000 600 42 1.000000 0.051000 0.051000 1.200000 0.030000 0.036000
1517161244568068691	500 39 0.900000 0.022000 0.020000 600 37 0.900000 0.514000 0.463000 600 42 1.000000 0.051000 0.051000 1.200000 0.033000 0.039000
1517161245079616774	500 39 0.900000 0.022000 0.020000 600 37 0.900000 0.524000 0.472000 600 42 1.000000 0.051000 0.051000 1.200000 0.024000 0.028000
1517161245591572732	500 39 0.900000 0.022000 0.020000 600 37 0.900000 0.520000 0.469000 600 42 1.000000 0.051000 0.051000 1.200000 0.025000 0.030000
1517161246103244566	500 39 0.900000 0.023000 0.021000 600 37 0.900000 0.572000 0.515000 600 42 1.000000 0.051000 0.051000 1.200000 0.037000 0.044000
1517161246615491399	500 39 0.900000 0.022000 0.020000 600 37 0.900000 0.544000 0.490000 600 42 1.000000 0.051000 0.051000 1.200000 0.033000 0.039000
1517161247127581649	500 39 0.900000 0.022000 0.020000 600 37 0.900000 0.565000 0.509000 600 42 1.000000 0.051000 0.051000 1.200000 0.028000 0.033000
1517161247639238483	500 39 0.900000 0.022000 0.020000 600 37 0.900000 0.515000 0.464000 600 42 1.000000 0.051000 0.051000 1.200000 0.024000 0.028000
1517161248151170024	500 39 0.900000 0.022000 0.020000 600 37 0.900000 0.583000 0.525000 600 42 1.000000 0.051000 0.051000 1.200000 0.035000 0.042000
1517161248662422733	500 39 0.900000 0.030000 0.027000 600 37 0.900000 0.593000 0.534000 600 42 1.000000 0.052000 0.052000 1.200000 0.038000 0.045000
1517161249174130608	500 39 0.900000 0.022000 0.020000 600 37 0.900000 0.524000 0.472000 600 42 1.000000 0.051000 0.051000 1.200000 0.030000 0.036000
1517161249685647316	500 39 0.900000 0.022000 0.020000 600 37 0.900000 0.521000 0.469000 600 42 1.000000 0.051000 0.051000 1.200000 0.023000 0.027000
1517161250197063400	500 39 0.900000 0.023000 0.021000 600 37 0.900000 0.574000 0.517000 600 42 1.000000 0.051000 0.051000 1.200000 0.031000 0.037000
1517161250708438983	500 39 0.900000 0.022000 0.020000 600 37 0.900000 0.532000 0.479000 600 42 1.000000 0.051000 0.051000 1.200000 0.024000 0.028000
1517161251220000816	500 39 0.900000 0.025000 0.022000 600 37 0.900000 0.525000 0.473000 600 42 1.000000 0.051000 0.051000 1.200000 0.028000 0.033000
1517161251731864067	500 39 0.900000 0.022000 0.020000 600 37 0.900000 0.524000 0.472000 600 42 1.000000 0.051000 0.051000 1.200000 0.031000 0.037000
1517161252243480858	500 39 0.900000 0.022000 0.020000 600 37 0.900000 0.518000 0.467000 600 42 1.000000 0.051000 0.051000 1.200000 0.025000 0.030000
1517161252756324400	500 39 0.900000 0.022000 0.020000 600 37 0.900000 0.570000 0.514000 600 42 1.000000 0.051000 0.051000 1.200000 0.025000 0.030000
1517161253268093692	500 39 0.900000 0.029000 0.026000 600 37 0.900000 0.601000 0.542000 600 42 1.000000 0.051000 0.051000 1.200000 0.041000 0.049000
1517161253779894192	500 39 0.900000 0.022000 0.020000 600 37 0.900000 0.528000 0.476000 600 42 1.000000 0.051000 0.051000 1.200000 0.023000 0.027000
1517161254291411942	500 39 0.900000 0.022000 0.020000 600 37 0.900000 0.521000 0.469000 600 42 1.000000 0.051000 0.051000 1.200000 0.023000 0.027000
1517161254803170067	500 39 0.900000 0.022000 0.020000 600 37 0.900000 0.544000 0.490000 600 42 1.000000 0.051000 0.051000 1.200000 0.030000 0.036000
1517161255315441817	500 39 0.900000 0.026000 0.023000 600 37 0.900000 0.544000 0.490000 600 42 1.000000 0.051000 0.051000 1.200000 0.037000 0.044000
1517161255826899025	500 39 0.900000 0.022000 0.020000 600 37 0.900000 0.521000 0.469000 600 42 1.000000 0.051000 0.051000 1.200000 0.024000 0.028000
1517161256338245567	500 39 0.900000 0.022000 0.020000 600 37 0.900000 0.538000 0.485000 600 42 1.000000 0.051000 0.051000 1.200000 0.032000 0.038000
1517161256851821567	500 39 0.900000 0.022000 0.020000 600 37 0.900000 0.528000 0.476000 600 42 1.000000 0.051000 0.051000 1.200000 0.023000 0.027000
1517161257363693984	500 39 0.900000 0.025000 0.022000 600 37 0.900000 0.527000 0.475000 600 42 1.000000 0.051000 0.051000 1.200000 0.030000 0.036000
1517161257875690609	500 39 0.900000 0.022000 0.020000 600 37 0.900000 0.540000 0.487000 600 42 1.000000 0.051000 0.051000 1.200000 0.024000 0.028000
1517161258387165651	500 39 0.900000 0.022000 0.020000 600 37 0.900000 0.518000 0.467000 600 42 1.000000 0.051000 0.051000 1.200000 0.026000 0.031000
1517161258900780901	500 39 0.900000 0.022000 0.020000 600 37 0.900000 0.587000 0.529000 600 42 1.000000 0.051000 0.051000 1.200000 0.028000 0.033000
1517161259414120692	500 39 0.900000 0.021000 0.019000 600 37 0.900000 0.517000 0.466000 600 42 1.000000 0.051000 0.051000 1.200000 0.025000 0.030000
1517161259925979568	500 39 0.900000 0.024000 0.021000 600 37 0.900000 0.575000 0.518000 600 42 1.000000 0.051000 0.051000 1.200000 0.044000 0.053000
1517161260438259651	500 39 0.900000 0.022000 0.020000 600 37 0.900000 0.527000 0.475000 600 42 1.000000 0.051000 0.051000 1.200000 0.026000 0.031000
1517161260949952734	500 39 0.900000 0.024000 0.021000 600 37 0.900000 0.577000 0.520000 600 42 1.000000 0.051000 0.051000 1.200000 0.024000 0.029000
1517161261461921276	500 39 0.900000 0.022000 0.020000 600 37 0.900000 0.532000 0.479000 600 42 1.000000 0.051000 0.051000 1.200000 0.030000 0.036000
1517161261973657318	500 39 0.900000 0.022000 0.020000 600 37 0.900000 0.527000 0.475000 600 42 1.000000 0.051000 0.051000 1.200000 0.033000 0.039000
1517161262485919068	500 39 0.900000 0.022000 0.020000 600 37 0.900000 0.525000 0.473000 600 42 1.000000 0.051000 0.051000 1.200000 0.024000 0.029000
1517161262997956360	500 39 0.900000 0.023000 0.021000 600 37 0.900000 0.592000 0.533000 600 42 1.000000 0.051000 0.051000 1.200000 0.030000 0.036000
1517161263510257526	500 39 0.900000 0.022000 0.020000 600 37 0.900000 0.527000 0.475000 600 42 1.000000 0.051000 0.051000 1.200000 0.023000 0.027000
1517161264022956151	500 39 0.900000 0.021000 0.019000 600 37 0.900000 0.522000 0.470000 600 42 1.000000 0.051000 0.051000 1.200000 0.027000 0.032000
1517161264534929443	500 39 0.900000 0.022000 0.020000 600 37 0.900000 0.573000 0.516000 600 42 1.000000 0.051000 0.051000 1.200000 0.031000 0.037000
1517161265048100193	500 39 0.900000 0.022000 0.020000 600 37 0.900000 0.584000 0.526000 600 42 1.000000 0.051000 0.051000 1.200000 0.024000 0.028000
1517161265559872443	500 39 0.900000 0.022000 0.020000 600 37 0.900000 0.524000 0.472000 600 42 1.000000 0.051000 0.051000 1.200000 0.024000 0.028000
1517161266071845193	500 39 0.900000 0.022000 0.020000 600 37 0.900000 0.520000 0.469000 600 42 1.000000 0.051000 0.051000 1.200000 0.025000 0.030000
1517161266583149985	500 39 0.900000 0.031000 0.028000 600 37 0.900000 0.617000 0.557000 600 42 1.000000 0.051000 0.051000 1.200000 0.037000 0.044000
1517161267094630277	500 39 0.900000 0.023000 0.021000 600 37 0.900000 0.582000 0.525000 600 42 1.000000 0.051000 0.051000 1.200000 0.035000 0.042000
1517161267608342485	500 39 0.900000 0.022000 0.020000 600 37 0.900000 0.521000 0.469000 600 42 1.000000 0.051000 0.051000 1.200000 0.023000 0.027000
1517161268119929152	500 39 0.900000 0.022000 0.020000 600 37 0.900000 0.521000 0.469000 600 42 1.000000 0.051000 0.051000 1.200000 0.030000 0.036000
1517161268631332485	500 39 0.900000 0.022000 0.020000 600 37 0.900000 0.528000 0.476000 600 42 1.000000 0.051000 0.051000 1.200000 0.024000 0.028000
1517161269143012652	500 39 0.900000 0.023000 0.021000 600 37 0.900000 0.567000 0.511000 600 42 1.000000 0.051000 0.051000 1.200000 0.033000 0.039000
1517161269654589152	500 39 0.900000 0.022000 0.020000 600 37 0.900000 0.526000 0.474000 600 42 1.000000 0.051000 0.051000 1.200000 0.032000 0.038000
1517161270166436360	500 39 0.900000 0.022000 0.020000 600 37 0.900000 0.532000 0.480000 600 42 1.000000 0.051000 0.051000 1.200000 0.024000 0.028000
1517161270680452694	500 39 0.900000 0.021000 0.019000 600 37 0.900000 0.524000 0.473000 600 42 1.000000 0.051000 0.051000 1.200000 0.024000 0.028000
1517161271192062319	500 39 0.900000 0.026000 0.023000 600 37 0.900000 0.623000 0.562000 600 42 1.000000 0.051000 0.051000 1.200000 0.047000 0.056000
1517161271703715527	500 39 0.900000 0.022000 0.020000 600 37 0.900000 0.532000 0.479000 600 42 1.000000 0.051000 0.051000 1.200000 0.024000 0.028000
1517161272215896486	500 39 0.900000 0.022000 0.020000 600 37 0.900000 0.530000 0.478000 600 42 1.000000 0.051000 0.051000 1.200000 0.026000 0.031000
1517161272727674111	500 39 0.900000 0.022000 0.020000 600 37 0.900000 0.518000 0.467000 600 42 1.000000 0.051000 0.051000 1.200000 0.032000 0.038000
1517161273239253944	500 39 0.900000 0.027000 0.024000 600 37 0.900000 0.674000 0.608000 600 42 1.000000 0.051000 0.051000 1.200000 0.038000 0.045000
1517161273751074194	500 39 0.900000 0.022000 0.020000 600 37 0.900000 0.518000 0.467000 600 42 1.000000 0.051000 0.051000 1.200000 0.024000 0.028000
1517161274262555694	500 39 0.900000 0.022000 0.020000 600 37 0.900000 0.511000 0.460000 600 42 1.000000 0.051000 0.051000 1.200000 0.025000 0.030000
1517161274774090236	500 39 0.900000 0.021000 0.019000 600 37 0.900000 0.524000 0.472000 600 42 1.000000 0.051000 0.051000 1.200000 0.030000 0.036000
1517161275287223194	500 39 0.900000 0.031000 0.028000 600 37 0.900000 0.609000 0.549000 600 42 1.000000 0.051000 0.051000 1.200000 0.026000 0.031000
1517161275799065069	500 39 0.900000 0.021000 0.019000 600 37 0.900000 0.516000 0.465000 600 42 1.000000 0.051000 0.051000 1.200000 0.023000 0.027000
1517161276310890861	500 39 0.900000 0.022000 0.020000 600 37 0.900000 0.531000 0.478000 600 42 1.000000 0.051000 0.051000 1.200000 0.024000 0.028000
1517161276822118195	500 39 0.900000 0.022000 0.020000 600 37 0.900000 0.517000 0.466000 600 42 1.000000 0.051000 0.051000 1.200000 0.028000 0.033000
1517161277334384153	500 39 0.900000 0.022000 0.020000 600 37 0.900000 0.532000 0.479000 600 42 1.000000 0.051000 0.051000 1.200000 0.030000 0.036000
1517161277846585778	500 39 0.900000 0.027000 0.024000 600 37 0.900000 0.667000 0.602000 600 42 1.000000 0.051000 0.051000 1.200000 0.035000 0.042000
1517161278358002195	500 39 0.900000 0.022000 0.020000 600 37 0.900000 0.527000 0.475000 600 42 1.000000 0.051000 0.051000 1.200000 0.031000 0.037000
1517161278869941486	500 39 0.900000 0.022000 0.020000 600 37 0.900000 0.535000 0.482000 600 42 1.000000 0.051000 0.051000 1.200000 0.024000 0.028000
1517161279381378945	500 39 0.900000 0.022000 0.020000 600 37 0.900000 0.527000 0.475000 600 42 1.000000 0.051000 0.051000 1.200000 0.025000 0.030000
1517161279892862112	500 39 0.900000 0.023000 0.021000 600 37 0.900000 0.603000 0.544000 600 42 1.000000 0.051000 0.051000 1.200000 0.037000 0.044000
1517161280404713903	500 39 0.900000 0.022000 0.020000 600 37 0.900000 0.522000 0.470000 600 42 1.000000 0.051000 0.051000 1.200000 0.024000 0.028000
1517161280916130320	500 39 0.900000 0.022000 0.020000 600 37 0.900000 0.519000 0.468000 600 42 1.000000 0.051000 0.051000 1.200000 0.025000 0.030000
1517161281427712403	500 39 0.900000 0.022000 0.020000 600 37 0.900000 0.529000 0.477000 600 42 1.000000 0.051000 0.051000 1.200000 0.031000 0.037000
1517161281939513028	500 39 0.900000 0.022000 0.020000 600 37 0.900000 0.564000 0.508000 600 42 1.000000 0.051000 0.051000 1.200000 0.025000 0.030000
1517161282451239945	500 39 0.900000 0.022000 0.020000 600 37 0.900000 0.531000 0.478000 600 42 1.000000 0.051000 0.051000 1.200000 0.025000 0.030000
1517161282963123445	500 39 0.900000 0.022000 0.020000 600 37 0.900000 0.530000 0.478000 600 42 1.000000 0.051000 0.051000 1.200000 0.030000 0.036000
1517161283476205112	500 39 0.900000 0.022000 0.020000 600 37 0.900000 0.531000 0.478000 600 42 1.000000 0.051000 0.051000 1.200000 0.023000 0.027000
1517161283989924195	500 39 0.900000 0.022000 0.020000 600 37 0.900000 0.528000 0.476000 600 42 1.000000 0.051000 0.051000 1.200000 0.024000 0.028000
1517161284503965029	500 39 0.900000 0.026000 0.023000 600 37 0.900000 0.544000 0.490000 600 42 1.000000 0.051000 0.051000 1.200000 0.035000 0.042000
1517161285015791487	500 39 0.900000 0.022000 0.020000 600 37 0.900000 0.541000 0.487000 600 42 1.000000 0.051000 0.051000 1.200000 0.025000 0.030000
1517161285528451071	500 39 0.900000 0.022000 0.020000 600 37 0.900000 0.538000 0.485000 600 42 1.000000 0.051000 0.051000 1.200000 0.030000 0.036000
1517161286040377362	500 39 0.900000 0.029000 0.026000 600 37 0.900000 0.559000 0.504000 600 42 1.000000 0.051000 0.051000 1.200000 0.032000 0.038000
1517161286551682737	500 39 0.900000 0.022000 0.020000 600 37 0.900000 0.607000 0.547000 600 42 1.000000 0.051000 0.051000 1.200000 0.025000 0.030000
1517161287063448987	500 39 0.900000 0.022000 0.020000 600 37 0.900000 0.531000 0.478000 600 42 1.000000 0.051000 0.051000 1.200000 0.030000 0.036000
1517161287575426196	500 39 0.900000 0.022000 0.020000 600 37 0.900000 0.532000 0.479000 600 42 1.000000 0.051000 0.051000 1.200000 0.024000 0.028000
1517161288087088529	500 39 0.900000 0.023000 0.021000 600 37 0.900000 0.573000 0.516000 600 42 1.000000 0.051000 0.051000 1.200000 0.032000 0.038000
1517161288599789738	500 39 0.900000 0.022000 0.020000 600 37 0.900000 0.538000 0.485000 600 42 1.000000 0.051000 0.051000 1.200000 0.031000 0.037000
1517161289111711446	500 39 0.900000 0.023000 0.021000 600 37 0.900000 0.534000 0.481000 600 42 1.000000 0.051000 0.051000 1.200000 0.027000 0.032000
1517161289623241946	500 39 0.900000 0.022000 0.020000 600 37 0.900000 0.529000 0.477000 600 42 1.000000 0.051000 0.051000 1.200000 0.024000 0.029000
1517161290134763154	500 39 0.900000 0.023000 0.021000 600 37 0.900000 0.573000 0.516000 600 42 1.000000 0.051000 0.051000 1.200000 0.037000 0.044000
1517161290647457071	500 39 0.900000 0.021000 0.019000 600 37 0.900000 0.544000 0.490000 600 42 1.000000 0.051000 0.051000 1.200000 0.023000 0.027000
1517161291159228821	500 39 0.900000 0.030000 0.027000 600 37 0.900000 0.630000 0.568000 600 42 1.000000 0.051000 0.051000 1.200000 0.033000 0.039000
1517161291671366488	500 39 0.900000 0.022000 0.020000 600 37 0.900000 0.536000 0.483000 600 42 1.000000 0.051000 0.051000 1.200000 0.030000 0.036000
1517161292183406030	500 39 0.900000 0.022000 0.020000 600 37 0.900000 0.594000 0.535000 600 42 1.000000 0.051000 0.051000 1.200000 0.030000 0.036000
1517161292695379530	500 39 0.900000 0.022000 0.020000 600 37 0.900000 0.535000 0.482000 600 42 1.000000 0.051000 0.051000 1.200000 0.024000 0.029000
1517161293207318613	500 39 0.900000 0.028000 0.025000 600 37 0.900000 0.586000 0.528000 600 42 1.000000 0.051000 0.051000 1.200000 0.043000 0.052000
1517161293718877863	500 39 0.900000 0.025000 0.022000 600 37 0.900000 0.621000 0.560000 600 42 1.000000 0.051000 0.051000 1.200000 0.025000 0.030000
1517161294232220947	500 39 0.900000 0.022000 0.020000 600 37 0.900000 0.543000 0.489000 600 42 1.000000 0.051000 0.051000 1.200000 0.032000 0.038000
1517161294744090988	500 39 0.900000 0.022000 0.020000 600 37 0.900000 0.538000 0.485000 600 42 1.000000 0.051000 0.051000 1.200000 0.025000 0.030000
1517161295256644530	500 39 0.900000 0.022000 0.020000 600 37 0.900000 0.531000 0.478000 600 42 1.000000 0.051000 0.051000 1.200000 0.026000 0.031000
1517161295768705613	500 39 0.900000 0.025000 0.022000 600 37 0.900000 0.666000 0.601000 600 42 1.000000 0.051000 0.051000 1.200000 0.036000 0.043000
1517161296280657864	500 39 0.900000 0.022000 0.020000 600 37 0.900000 0.542000 0.488000 600 42 1.000000 0.051000 0.051000 1.200000 0.028000 0.033000
1517161296792241322	500 39 0.900000 0.022000 0.020000 600 37 0.900000 0.538000 0.485000 600 42 1.000000 0.051000 0.051000 1.200000 0.024000 0.029000
1517161297304190239	500 39 0.900000 0.022000 0.020000 600 37 0.900000 0.543000 0.489000 600 42 1.000000 0.051000 0.051000 1.200000 0.030000 0.036000
1517161297816033114	500 39 0.900000 0.023000 0.021000 600 37 0.900000 0.624000 0.563000 600 42 1.000000 0.051000 0.051000 1.200000 0.031000 0.037000
1517161298327824030	500 39 0.900000 0.022000 0.020000 600 37 0.900000 0.534000 0.481000 600 42 1.000000 0.051000 0.051000 1.200000 0.029000 0.035000
1517161298839724989	500 39 0.900000 0.022000 0.020000 600 37 0.900000 0.541000 0.488000 600 42 1.000000 0.051000 0.051000 1.200000 0.030000 0.036000
1517161299352002906	500 39 0.900000 0.021000 0.019000 600 37 0.900000 0.538000 0.485000 600 42 1.000000 0.051000 0.051000 1.200000 0.023000 0.027000
1517161299863486489	500 39 0.900000 0.023000 0.021000 600 37 0.900000 0.564000 0.508000 600 42 1.000000 0.051000 0.051000 1.200000 0.033000 0.039000
1517161300375055864	500 39 0.900000 0.022000 0.020000 600 37 0.900000 0.543000 0.489000 600 42 1.000000 0.051000 0.051000 1.200000 0.036000 0.043000
1517161300886440822	500 39 0.900000 0.022000 0.020000 600 37 0.900000 0.531000 0.478000 600 42 1.000000 0.051000 0.051000 1.200000 0.023000 0.027000
1517161301398071447	500 39 0.900000 0.022000 0.020000 600 37 0.900000 0.529000 0.477000 600 42 1.000000 0.051000 0.051000 1.200000 0.024000 0.029000
1517161301910803156	500 39 0.900000 0.023000 0.021000 600 37 0.900000 0.535000 0.482000 600 42 1.000000 0.051000 0.051000 1.200000 0.035000 0.042000
1517161302422270906	500 39 0.900000 0.029000 0.026000 600 37 0.900000 0.655000 0.591000 600 42 1.000000 0.051000 0.051000 1.200000 0.034000 0.041000
1517161302934262114	500 39 0.900000 0.022000 0.020000 600 37 0.900000 0.604000 0.544000 600 42 1.000000 0.051000 0.051000 1.200000 0.031000 0.037000
1517161303446103531	500 39 0.900000 0.021000 0.019000 600 37 0.900000 0.544000 0.490000 600 42 1.000000 0.051000 0.051000 1.200000 0.024000 0.029000
1517161303957843281	500 39 0.900000 0.022000 0.020000 600 37 0.900000 0.531000 0.478000 600 42 1.000000 0.051000 0.051000 1.200000 0.024000 0.029000
1517161304469319323	500 39 0.900000 0.023000 0.021000 600 37 0.900000 0.592000 0.534000 600 42 1.000000 0.051000 0.051000 1.200000 0.043000 0.052000
1517161304982902406	500 39 0.900000 0.023000 0.021000 600 37 0.900000 0.586000 0.529000 600 42 1.000000 0.051000 0.051000 1.200000 0.023000 0.027000
1517161305494789406	500 39 0.900000 0.022000 0.020000 600 37 0.900000 0.535000 0.482000 600 42 1.000000 0.051000 0.051000 1.200000 0.024000 0.028000
1517161306008332073	500 39 0.900000 0.022000 0.020000 600 37 0.900000 0.542000 0.488000 600 42 1.000000 0.051000 0.051000 1.200000 0.030000 0.036000
1517161306521053448	500 39 0.900000 0.022000 0.020000 600 37 0.900000 0.539000 0.486000 600 42 1.000000 0.051000 0.051000 1.200000 0.026000 0.031000
1517161307033055281	500 39 0.900000 0.022000 0.020000 600 37 0.900000 0.561000 0.506000 600 42 1.000000 0.051000 0.051000 1.200000 0.040000 0.048000
1517161307544951907	500 39 0.900000 0.022000 0.020000 600 37 0.900000 0.535000 0.482000 600 42 1.000000 0.051000 0.051000 1.200000 0.024000 0.029000
1517161308056434323	500 39 0.900000 0.022000 0.020000 600 37 0.900000 0.533000 0.480000 600 42 1.000000 0.051000 0.051000 1.200000 0.025000 0.030000
1517161308570091115	500 39 0.900000 0.022000 0.020000 600 37 0.900000 0.524000 0.472000 600 42 1.000000 0.051000 0.051000 1.200000 0.031000 0.037000
1517161309083260740	500 39 0.900000 0.022000 0.020000 600 37 0.900000 0.595000 0.536000 600 42 1.000000 0.051000 0.051000 1.200000 0.040000 0.048000
1517161309595080323	500 39 0.900000 0.022000 0.020000 600 37 0.900000 0.532000 0.479000 600 42 1.000000 0.051000 0.051000 1.200000 0.026000 0.031000
1517161310106926240	500 39 0.900000 0.022000 0.020000 600 37 0.900000 0.526000 0.474000 600 42 1.000000 0.051000 0.051000 1.200000 0.031000 0.037000
1517161310618797240	500 39 0.900000 0.022000 0.020000 600 37 0.900000 0.534000 0.481000 600 42 1.000000 0.051000 0.051000 1.200000 0.024000 0.028000
1517161311130282782	500 39 0.900000 0.022000 0.020000 600 37 0.900000 0.593000 0.534000 600 42 1.000000 0.051000 0.051000 1.200000 0.030000 0.036000
1517161311642240074	500 39 0.900000 0.022000 0.020000 600 37 0.900000 0.540000 0.487000 600 42 1.000000 0.051000 0.051000 1.200000 0.025000 0.030000
1517161312154082490	500 39 0.900000 0.022000 0.020000 600 37 0.900000 0.542000 0.488000 600 42 1.000000 0.051000 0.051000 1.200000 0.025000 0.030000
1517161312667059365	500 39 0.900000 0.022000 0.020000 600 37 0.900000 0.537000 0.484000 600 42 1.000000 0.051000 0.051000 1.200000 0.032000 0.038000
1517161313178487657	500 39 0.900000 0.023000 0.021000 600 37 0.900000 0.595000 0.537000 600 42 1.000000 0.051000 0.051000 1.200000 0.025000 0.030000
1517161313690571532	500 39 0.900000 0.022000 0.020000 600 37 0.900000 0.547000 0.493000 600 42 1.000000 0.051000 0.051000 1.200000 0.030000 0.036000
1517161314202310866	500 39 0.900000 0.022000 0.020000 600 37 0.900000 0.530000 0.478000 600 42 1.000000 0.051000 0.051000 1.200000 0.031000 0.037000
1517161314714090407	500 39 0.900000 0.022000 0.020000 600 37 0.900000 0.535000 0.482000 600 42 1.000000 0.051000 0.051000 1.200000 0.024000 0.028000
1517161315226872116	500 39 0.900000 0.022000 0.020000 600 37 0.900000 0.591000 0.533000 600 42 1.000000 0.051000 0.051000 1.200000 0.027000 0.032000
1517161315740126866	500 39 0.900000 0.025000 0.022000 600 37 0.900000 0.597000 0.538000 600 42 1.000000 0.051000 0.051000 1.200000 0.042000 0.050000
1517161316252054991	500 39 0.900000 0.022000 0.020000 600 37 0.900000 0.535000 0.482000 600 42 1.000000 0.051000 0.051000 1.200000 0.025000 0.030000
1517161316763732074	500 39 0.900000 0.022000 0.020000 600 37 0.900000 0.530000 0.478000 600 42 1.000000 0.051000 0.051000 1.200000 0.025000 0.030000
1517161317275368283	500 39 0.900000 0.022000 0.020000 600 37 0.900000 0.586000 0.528000 600 42 1.000000 0.051000 0.051000 1.200000 0.035000 0.042000
1517161317787280241	500 39 0.900000 0.027000 0.024000 600 37 0.900000 0.657000 0.593000 600 42 1.000000 0.051000 0.051000 1.200000 0.033000 0.039000
1517161318299148783	500 39 0.900000 0.022000 0.020000 600 37 0.900000 0.535000 0.482000 600 42 1.000000 0.051000 0.051000 1.200000 0.025000 0.030000
1517161318810882908	500 39 0.900000 0.022000 0.020000 600 37 0.900000 0.523000 0.471000 600 42 1.000000 0.051000 0.051000 1.200000 0.030000 0.036000
1517161319322724450	500 39 0.900000 0.022000 0.020000 600 37 0.900000 0.594000 0.536000 600 42 1.000000 0.051000 0.051000 1.200000 0.028000 0.033000
1517161319836387200	500 39 0.900000 0.022000 0.020000 600 37 0.900000 0.530000 0.478000 600 42 1.000000 0.051000 0.051000 1.200000 0.032000 0.038000
1517161320348251991	500 39 0.900000 0.027000 0.024000 600 37 0.900000 0.571000 0.515000 600 42 1.000000 0.051000 0.051000 1.200000 0.035000 0.042000
1517161320860681075	500 39 0.900000 0.022000 0.020000 600 37 0.900000 0.529000 0.477000 600 42 1.000000 0.051000 0.051000 1.200000 0.025000 0.030000
1517161321372158367	500 39 0.900000 0.022000 0.020000 600 37 0.900000 0.532000 0.479000 600 42 1.000000 0.051000 0.051000 1.200000 0.031000 0.037000
1517161321885161617	500 39 0.900000 0.022000 0.020000 600 37 0.900000 0.535000 0.482000 600 42 1.000000 0.051000 0.051000 1.200000 0.024000 0.028000
1517161322396715200	500 39 0.900000 0.025000 0.022000 600 37 0.900000 0.621000 0.560000 600 42 1.000000 0.051000 0.051000 1.200000 0.036000 0.043000
1517161322908638117	500 39 0.900000 0.022000 0.020000 600 37 0.900000 0.520000 0.469000 600 42 1.000000 0.051000 0.051000 1.200000 0.032000 0.038000
1517161323419907408	500 39 0.900000 0.022000 0.020000 600 37 0.900000 0.534000 0.481000 600 42 1.000000 0.051000 0.051000 1.200000 0.025000 0.030000
1517161323931433450	500 39 0.900000 0.022000 0.020000 600 37 0.900000 0.531000 0.478000 600 42 1.000000 0.051000 0.051000 1.200000 0.025000 0.030000
1517161324445075492	500 39 0.900000 0.025000 0.022000 600 37 0.900000 0.638000 0.576000 600 42 1.000000 0.051000 0.051000 1.200000 0.036000 0.043000
1517161324956853867	500 39 0.900000 0.023000 0.021000 600 37 0.900000 0.530000 0.478000 600 42 1.000000 0.051000 0.051000 1.200000 0.024000 0.028000
1517161325468192700	500 39 0.900000 0.022000 0.020000 600 37 0.900000 0.552000 0.497000 600 42 1.000000 0.051000 0.051000 1.200000 0.024000 0.028000
1517161325980143534	500 39 0.900000 0.022000 0.020000 600 37 0.900000 0.524000 0.472000 600 42 1.000000 0.051000 0.051000 1.200000 0.030000 0.036000
1517161326493378617	500 39 0.900000 0.023000 0.021000 600 37 0.900000 0.595000 0.537000 600 42 1.000000 0.051000 0.051000 1.200000 0.023000 0.027000
1517161327005318117	500 39 0.900000 0.022000 0.020000 600 37 0.900000 0.526000 0.474000 600 42 1.000000 0.051000 0.051000 1.200000 0.024000 0.029000
1517161327516800742	500 39 0.900000 0.022000 0.020000 600 37 0.900000 0.536000 0.483000 600 42 1.000000 0.051000 0.051000 1.200000 0.030000 0.036000
1517161328028884534	500 39 0.900000 0.023000 0.021000 600 37 0.900000 0.551000 0.497000 600 42 1.000000 0.051000 0.051000 1.200000 0.023000 0.027000
1517161328541108034	500 39 0.900000 0.022000 0.020000 600 37 0.900000 0.534000 0.481000 600 42 1.000000 0.051000 0.051000 1.200000 0.031000 0.037000
1517161329053141242	500 39 0.900000 0.022000 0.020000 600 37 0.900000 0.538000 0.485000 600 42 1.000000 0.051000 0.051000 1.200000 0.030000 0.036000
1517161329566853242	500 39 0.900000 0.022000 0.020000 600 37 0.900000 0.524000 0.472000 600 42 1.000000 0.051000 0.051000 1.200000 0.025000 0.030000
1517161330079205951	500 39 0.900000 0.024000 0.021000 600 37 0.900000 0.587000 0.529000 600 42 1.000000 0.051000 0.051000 1.200000 0.037000 0.044000
1517161330591305743	500 39 0.900000 0.022000 0.020000 600 37 0.900000 0.533000 0.480000 600 42 1.000000 0.051000 0.051000 1.200000 0.025000 0.030000
1517161331102554451	500 39 0.900000 0.022000 0.020000 600 37 0.900000 0.530000 0.478000 600 42 1.000000 0.051000 0.051000 1.200000 0.028000 0.033000
1517161331614482784	500 39 0.900000 0.022000 0.020000 600 37 0.900000 0.579000 0.522000 600 42 1.000000 0.051000 0.051000 1.200000 0.031000 0.037000
1517161332126416659	500 39 0.900000 0.029000 0.026000 600 37 0.900000 0.578000 0.521000 600 42 1.000000 0.051000 0.051000 1.200000 0.030000 0.036000
1517161332637896785	500 39 0.900000 0.022000 0.020000 600 37 0.900000 0.527000 0.475000 600 42 1.000000 0.051000 0.051000 1.200000 0.024000 0.029000
1517161333150760493	500 39 0.900000 0.022000 0.020000 600 37 0.900000 0.536000 0.483000 600 42 1.000000 0.051000 0.051000 1.200000 0.030000 0.036000
1517161333664532826	500 39 0.900000 0.022000 0.020000 600 37 0.900000 0.623000 0.562000 600 42 1.000000 0.051000 0.051000 1.200000 0.024000 0.029000
1517161334176289243	500 39 0.900000 0.022000 0.020000 600 37 0.900000 0.578000 0.521000 600 42 1.000000 0.051000 0.051000 1.200000 0.028000 0.033000
1517161334688185910	500 39 0.900000 0.022000 0.020000 600 37 0.900000 0.539000 0.486000 600 42 1.000000 0.051000 0.051000 1.200000 0.030000 0.036000
1517161335200430868	500 39 0.900000 0.022000 0.020000 600 37 0.900000 0.537000 0.484000 600 42 1.000000 0.051000 0.051000 1.200000 0.023000 0.027000
1517161335711983993	500 39 0.900000 0.030000 0.027000 600 37 0.900000 0.653000 0.589000 600 42 1.000000 0.051000 0.051000 1.200000 0.031000 0.037000
1517161336223994618	500 39 0.900000 0.023000 0.021000 600 37 0.900000 0.593000 0.535000 600 42 1.000000 0.051000 0.051000 1.200000 0.032000 0.038000
1517161336735788827	500 39 0.900000 0.021000 0.019000 600 37 0.900000 0.528000 0.476000 600 42 1.000000 0.051000 0.051000 1.200000 0.023000 0.027000
1517161337247748035	500 39 0.900000 0.022000 0.020000 600 37 0.900000 0.539000 0.486000 600 42 1.000000 0.051000 0.051000 1.200000 0.031000 0.037000
1517161337759291493	500 39 0.900000 0.022000 0.020000 600 37 0.900000 0.538000 0.485000 600 42 1.000000 0.051000 0.051000 1.200000 0.026000 0.031000
1517161338271147785	500 39 0.900000 0.023000 0.021000 600 37 0.900000 0.593000 0.535000 600 42 1.000000 0.051000 0.051000 1.200000 0.031000 0.037000
1517161338783225410	500 39 0.900000 0.022000 0.020000 600 37 0.900000 0.540000 0.487000 600 42 1.000000 0.051000 0.051000 1.200000 0.031000 0.037000
1517161339295163952	500 39 0.900000 0.022000 0.020000 600 37 0.900000 0.528000 0.476000 600 42 1.000000 0.051000 0.051000 1.200000 0.023000 0.027000
1517161339807584244	500 39 0.900000 0.022000 0.020000 600 37 0.900000 0.521000 0.469000 600 42 1.000000 0.051000 0.051000 1.200000 0.024000 0.028000
1517161340319433244	500 39 0.900000 0.024000 0.021000 600 37 0.900000 0.655000 0.591000 600 42 1.000000 0.051000 0.051000 1.200000 0.039000 0.047000
1517161340831279994	500 39 0.900000 0.021000 0.019000 600 37 0.900000 0.533000 0.480000 600 42 1.000000 0.051000 0.051000 1.200000 0.023000 0.027000
1517161341342805494	500 39 0.900000 0.022000 0.020000 600 37 0.900000 0.534000 0.481000 600 42 1.000000 0.051000 0.051000 1.200000 0.024000 0.029000
1517161341856116494	500 39 0.900000 0.022000 0.020000 600 37 0.900000 0.541000 0.487000 600 42 1.000000 0.051000 0.051000 1.200000 0.030000 0.036000
1517161342368531619	500 39 0.900000 0.027000 0.024000 600 37 0.900000 0.647000 0.584000 600 42 1.000000 0.051000 0.051000 1.200000 0.039000 0.047000
1517161342880277119	500 39 0.900000 0.021000 0.019000 600 37 0.900000 0.521000 0.472000 600 42 1.000000 0.051000 0.051000 1.200000 0.024000 0.028000
1517161343392072119	500 39 0.900000 0.022000 0.020000 600 37 0.900000 0.538000 0.489000 600 42 1.000000 0.051000 0.051000 1.200000 0.030000 0.036000
1517161343903969744	500 39 0.900000 0.022000 0.020000 600 37 0.900000 0.533000 0.485000 600 42 1.000000 0.051000 0.051000 1.200000 0.023000 0.027000
1517161344415442369	500 39 0.900000 0.033000 0.030000 600 37 0.900000 0.553000 0.498000 600 42 1.000000 0.051000 0.051000 1.200000 0.042000 0.050000
1517161344927302244	500 39 0.900000 0.022000 0.020000 600 37 0.900000 0.533000 0.480000 600 42 1.000000 0.051000 0.051000 1.200000 0.030000 0.036000
1517161345438854744	500 39 0.900000 0.022000 0.020000 600 37 0.900000 0.521000 0.469000 600 42 1.000000 0.051000 0.051000 1.200000 0.025000 0.030000
1517161345952306619	500 39 0.900000 0.022000 0.020000 600 37 0.900000 0.535000 0.482000 600 42 1.000000 0.051000 0.051000 1.200000 0.031000 0.037000
1517161346464192119	500 39 0.900000 0.022000 0.020000 600 37 0.900000 0.529000 0.477000 600 42 1.000000 0.051000 0.051000 1.200000 0.025000 0.030000
1517161346976987203	500 39 0.900000 0.025000 0.022000 600 37 0.900000 0.698000 0.630000 600 42 1.000000 0.051000 0.051000 1.200000 0.042000 0.050000
1517161347488865453	500 39 0.900000 0.022000 0.020000 600 37 0.900000 0.542000 0.488000 600 42 1.000000 0.051000 0.051000 1.200000 0.024000 0.029000
1517161348000748036	500 39 0.900000 0.022000 0.020000 600 37 0.900000 0.561000 0.506000 600 42 1.000000 0.051000 0.051000 1.200000 0.025000 0.030000
1517161348515388286	500 39 0.900000 0.022000 0.020000 600 37 0.900000 0.531000 0.478000 600 42 1.000000 0.051000 0.051000 1.200000 0.031000 0.037000
1517161349027488078	500 39 0.900000 0.031000 0.028000 600 37 0.900000 0.656000 0.592000 600 42 1.000000 0.051000 0.051000 1.200000 0.031000 0.037000
1517161349540167620	500 39 0.900000 0.022000 0.020000 600 37 0.900000 0.533000 0.480000 600 42 1.000000 0.051000 0.051000 1.200000 0.024000 0.028000
1517161350051743912	500 39 0.900000 0.022000 0.020000 600 37 0.900000 0.518000 0.467000 600 42 1.000000 0.051000 0.051000 1.200000 0.032000 0.038000
1517161350564162703	500 39 0.900000 0.022000 0.020000 600 37 0.900000 0.530000 0.478000 600 42 1.000000 0.051000 0.051000 1.200000 0.025000 0.030000
1517161351075706995	500 39 0.900000 0.030000 0.027000 600 37 0.900000 0.554000 0.499000 600 42 1.000000 0.051000 0.051000 1.200000 0.033000 0.039000
1517161351587670495	500 39 0.900000 0.022000 0.020000 600 37 0.900000 0.520000 0.469000 600 42 1.000000 0.051000 0.051000 1.200000 0.032000 0.038000
1517161352099515995	500 39 0.900000 0.022000 0.020000 600 37 0.900000 0.533000 0.480000 600 42 1.000000 0.051000 0.051000 1.200000 0.024000 0.029000
1517161352611120912	500 39 0.900000 0.022000 0.020000 600 37 0.900000 0.527000 0.475000 600 42 1.000000 0.051000 0.051000 1.200000 0.025000 0.030000
1517161353123767120	500 39 0.900000 0.021000 0.019000 600 37 0.900000 0.533000 0.480000 600 42 1.000000 0.051000 0.051000 1.200000 0.036000 0.043000
1517161353635780412	500 39 0.900000 0.022000 0.020000 600 37 0.900000 0.549000 0.495000 600 42 1.000000 0.051000 0.051000 1.200000 0.030000 0.036000
1517161354147517662	500 39 0.900000 0.022000 0.020000 600 37 0.900000 0.526000 0.474000 600 42 1.000000 0.051000 0.051000 1.200000 0.032000 0.038000
1517161354659298954	500 39 0.900000 0.022000 0.020000 600 37 0.900000 0.542000 0.488000 600 42 1.000000 0.051000 0.051000 1.200000 0.024000 0.029000
1517161355171197454	500 39 0.900000 0.022000 0.020000 600 37 0.900000 0.591000 0.533000 600 42 1.000000 0.051000 0.051000 1.200000 0.025000 0.030000
1517161355682764537	500 39 0.900000 0.022000 0.020000 600 37 0.900000 0.583000 0.526000 600 42 1.000000 0.051000 0.051000 1.200000 0.031000 0.037000
1517161356196251204	500 39 0.900000 0.022000 0.020000 600 37 0.900000 0.540000 0.487000 600 42 1.000000 0.051000 0.051000 1.200000 0.024000 0.028000
1517161356708144829	500 39 0.900000 0.023000 0.021000 600 37 0.900000 0.529000 0.477000 600 42 1.000000 0.051000 0.051000 1.200000 0.025000 0.030000
1517161357219870829	500 39 0.900000 0.022000 0.020000 600 37 0.900000 0.581000 0.524000 600 42 1.000000 0.051000 0.051000 1.200000 0.033000 0.039000
1517161357732401496	500 39 0.900000 0.022000 0.020000 600 37 0.900000 0.532000 0.479000 600 42 1.000000 0.051000 0.051000 1.200000 0.025000 0.030000
1517161358244551954	500 39 0.900000 0.022000 0.020000 600 37 0.900000 0.527000 0.475000 600 42 1.000000 0.051000 0.051000 1.200000 0.031000 0.037000
1517161358756130829	500 39 0.900000 0.022000 0.020000 600 37 0.900000 0.515000 0.464000 600 42 1.000000 0.051000 0.051000 1.200000 0.031000 0.037000
1517161359267928954	500 39 0.900000 0.023000 0.021000 600 37 0.900000 0.589000 0.531000 600 42 1.000000 0.051000 0.051000 1.200000 0.028000 0.033000
1517161359780773246	500 39 0.900000 0.021000 0.019000 600 37 0.900000 0.522000 0.470000 600 42 1.000000 0.051000 0.051000 1.200000 0.025000 0.030000
1517161360292413829	500 39 0.900000 0.029000 0.026000 600 37 0.900000 0.564000 0.508000 600 42 1.000000 0.051000 0.051000 1.200000 0.043000 0.052000
1517161360804273163	500 39 0.900000 0.022000 0.020000 600 37 0.900000 0.531000 0.478000 600 42 1.000000 0.051000 0.051000 1.200000 0.024000 0.029000
1517161361315858371	500 39 0.900000 0.022000 0.020000 600 37 0.900000 0.581000 0.524000 600 42 1.000000 0.051000 0.051000 1.200000 0.029000 0.035000
1517161361827844455	500 39 0.900000 0.022000 0.020000 600 37 0.900000 0.521000 0.469000 600 42 1.000000 0.051000 0.051000 1.200000 0.030000 0.036000
1517161362339713455	500 39 0.900000 0.028000 0.025000 600 37 0.900000 0.631000 0.569000 600 42 1.000000 0.051000 0.051000 1.200000 0.034000 0.041000
1517161362853293288	500 39 0.900000 0.025000 0.022000 600 37 0.900000 0.528000 0.476000 600 42 1.000000 0.051000 0.051000 1.200000 0.034000 0.041000
1517161363364847038	500 39 0.900000 0.022000 0.020000 600 37 0.900000 0.534000 0.481000 600 42 1.000000 0.051000 0.051000 1.200000 0.024000 0.028000
1517161363877014247	500 38 0.900000 0.022000 0.020000 600 37 0.900000 0.528000 0.476000 600 42 1.000000 0.051000 0.051000 1.200000 0.025000 0.030000
1517161364389402580	500 39 0.900000 0.022000 0.020000 600 37 0.900000 0.515000 0.464000 600 42 1.000000 0.051000 0.051000 1.200000 0.032000 0.038000
1517161364901327955	500 39 0.900000 0.025000 0.022000 600 37 0.900000 0.541000 0.488000 600 42 1.000000 0.051000 0.051000 1.200000 0.033000 0.039000
1517161365413100163	500 39 0.900000 0.022000 0.020000 600 37 0.900000 0.527000 0.475000 600 42 1.000000 0.051000 0.051000 1.200000 0.025000 0.030000
1517161365924920497	500 39 0.900000 0.021000 0.019000 600 37 0.900000 0.589000 0.531000 600 42 1.000000 0.051000 0.051000 1.200000 0.030000 0.036000
1517161366438705080	500 39 0.900000 0.021000 0.019000 600 37 0.900000 0.534000 0.481000 600 41 1.000000 0.051000 0.051000 1.200000 0.024000 0.028000
1517161366950749455	500 39 0.900000 0.024000 0.021000 600 37 0.900000 0.597000 0.539000 600 42 1.000000 0.051000 0.051000 1.200000 0.035000 0.042000
1517161367462629580	500 39 0.900000 0.022000 0.020000 600 37 0.900000 0.540000 0.487000 600 42 1.000000 0.051000 0.051000 1.200000 0.031000 0.037000
1517161367974335080	500 39 0.900000 0.026000 0.023000 600 37 0.900000 0.530000 0.478000 600 42 1.000000 0.051000 0.051000 1.200000 0.023000 0.027000
1517161368485846914	500 39 0.900000 0.022000 0.020000 600 37 0.900000 0.581000 0.524000 600 42 1.000000 0.051000 0.051000 1.200000 0.024000 0.028000
1517161368997089997	500 39 0.900000 0.023000 0.021000 600 37 0.900000 0.546000 0.492000 600 42 1.000000 0.051000 0.051000 1.200000 0.037000 0.044000
1517161369508508456	500 39 0.900000 0.022000 0.020000 600 37 0.900000 0.535000 0.482000 600 42 1.000000 0.051000 0.051000 1.200000 0.023000 0.027000
1517161370020102872	500 39 0.900000 0.022000 0.020000 600 37 0.900000 0.549000 0.495000 600 42 1.000000 0.051000 0.051000 1.200000 0.024000 0.028000
1517161370531912581	500 39 0.900000 0.022000 0.020000 600 37 0.900000 0.536000 0.483000 600 42 1.000000 0.051000 0.051000 1.200000 0.030000 0.036000
1517161371045569456	500 39 0.900000 0.023000 0.021000 600 37 0.900000 0.524000 0.472000 600 42 1.000000 0.051000 0.051000 1.200000 0.026000 0.031000
1517161371557979372	500 39 0.900000 0.026000 0.023000 600 37 0.900000 0.646000 0.583000 600 42 1.000000 0.051000 0.051000 1.200000 0.039000 0.047000
1517161372069697498	500 39 0.900000 0.022000 0.020000 600 37 0.900000 0.589000 0.531000 600 42 1.000000 0.051000 0.051000 1.200000 0.030000 0.036000
1517161372581841498	500 39 0.900000 0.022000 0.020000 600 37 0.900000 0.528000 0.476000 600 42 1.000000 0.051000 0.051000 1.200000 0.024000 0.028000
1517161373093568289	500 39 0.900000 0.022000 0.020000 600 37 0.900000 0.540000 0.487000 600 42 1.000000 0.051000 0.051000 1.200000 0.031000 0.037000
1517161373606339581	500 39 0.900000 0.023000 0.021000 600 37 0.900000 0.586000 0.528000 600 42 1.000000 0.051000 0.051000 1.200000 0.036000 0.043000
1517161374117807164	500 39 0.900000 0.023000 0.021000 600 37 0.900000 0.586000 0.528000 600 42 1.000000 0.051000 0.051000 1.200000 0.030000 0.036000
1517161374629671206	500 39 0.900000 0.022000 0.020000 600 37 0.900000 0.535000 0.482000 600 42 1.000000 0.051000 0.051000 1.200000 0.031000 0.037000
1517161375141505081	500 39 0.900000 0.022000 0.020000 600 37 0.900000 0.530000 0.478000 600 42 1.000000 0.051000 0.051000 1.200000 0.023000 0.027000
1517161375652831540	500 39 0.900000 0.023000 0.021000 600 37 0.900000 0.528000 0.476000 600 42 1.000000 0.051000 0.051000 1.200000 0.030000 0.036000
1517161376164498290	500 39 0.900000 0.022000 0.020000 600 37 0.900000 0.603000 0.543000 600 42 1.000000 0.051000 0.051000 1.200000 0.034000 0.041000
1517161376676247498	500 39 0.900000 0.022000 0.020000 600 37 0.900000 0.528000 0.476000 600 42 1.000000 0.051000 0.051000 1.200000 0.023000 0.027000
1517161377187885290	500 39 0.900000 0.022000 0.020000 600 37 0.900000 0.520000 0.469000 600 42 1.000000 0.051000 0.051000 1.200000 0.024000 0.029000
1517161377701194957	500 39 0.900000 0.022000 0.020000 600 37 0.900000 0.536000 0.483000 600 42 1.000000 0.051000 0.051000 1.200000 0.030000 0.036000
1517161378213637873	500 39 0.900000 0.022000 0.020000 600 37 0.900000 0.633000 0.571000 600 42 1.000000 0.051000 0.051000 1.200000 0.026000 0.031000
1517161378725155498	500 39 0.900000 0.022000 0.020000 600 37 0.900000 0.518000 0.467000 600 42 1.000000 0.051000 0.051000 1.200000 0.024000 0.029000
1517161379237001790	500 39 0.900000 0.022000 0.020000 600 37 0.900000 0.531000 0.478000 600 41 1.000000 0.051000 0.051000 1.200000 0.030000 0.036000
1517161379749123040	500 39 0.900000 0.022000 0.020000 600 37 0.900000 0.520000 0.469000 600 41 1.000000 0.051000 0.051000 1.200000 0.023000 0.027000
1517161380260805540	500 39 0.900000 0.022000 0.020000 600 37 0.900000 0.562000 0.506000 600 42 1.000000 0.051000 0.051000 1.200000 0.043000 0.052000
1517161380772546582	500 39 0.900000 0.022000 0.020000 600 37 0.900000 0.525000 0.473000 600 41 1.000000 0.051000 0.051000 1.200000 0.025000 0.030000
1517161381283988832	500 39 0.900000 0.022000 0.020000 600 37 0.900000 0.527000 0.475000 600 42 1.000000 0.051000 0.051000 1.200000 0.025000 0.030000
1517161381795684582	500 39 0.900000 0.021000 0.019000 600 37 0.900000 0.539000 0.486000 600 42 1.000000 0.051000 0.051000 1.200000 0.031000 0.037000
1517161382306938082	500 39 0.900000 0.021000 0.019000 600 37 0.900000 0.533000 0.480000 600 42 1.000000 0.051000 0.051000 1.200000 0.031000 0.037000
1517161382818574249	500 39 0.900000 0.023000 0.021000 600 37 0.900000 0.538000 0.485000 600 42 1.000000 0.051000 0.051000 1.200000 0.024000 0.029000
1517161383330424374	500 39 0.900000 0.022000 0.020000 600 37 0.900000 0.534000 0.481000 600 41 1.000000 0.051000 0.051000 1.200000 0.030000 0.036000
1517161383842329916	500 39 0.900000 0.022000 0.020000 600 37 0.900000 0.533000 0.480000 600 42 1.000000 0.051000 0.051000 1.200000 0.023000 0.027000
1517161384355202707	500 39 0.900000 0.022000 0.020000 600 37 0.900000 0.526000 0.474000 600 42 1.000000 0.051000 0.051000 1.200000 0.029000 0.035000
1517161384869081499	500 39 0.900000 0.023000 0.021000 600 37 0.900000 0.609000 0.549000 600 42 1.000000 0.051000 0.051000 1.200000 0.032000 0.038000
1517161385381271832	500 39 0.900000 0.022000 0.020000 600 37 0.900000 0.522000 0.470000 600 41 1.000000 0.051000 0.051000 1.200000 0.023000 0.027000
1517161385892812666	500 39 0.900000 0.022000 0.020000 600 37 0.900000 0.518000 0.467000 600 41 1.000000 0.051000 0.051000 1.200000 0.024000 0.028000
1517161386404224708	500 39 0.900000 0.022000 0.020000 600 37 0.900000 0.529000 0.477000 600 42 1.000000 0.051000 0.051000 1.200000 0.037000 0.044000
1517161386916372999	500 39 0.900000 0.028000 0.025000 600 37 0.900000 0.640000 0.577000 600 42 1.000000 0.051000 0.051000 1.200000 0.031000 0.037000
1517161387428203499	500 39 0.900000 0.021000 0.019000 600 37 0.900000 0.514000 0.463000 600 42 1.000000 0.051000 0.051000 1.200000 0.031000 0.037000
1517161387940031874	500 39 0.900000 0.022000 0.020000 600 37 0.900000 0.527000 0.475000 600 42 1.000000 0.051000 0.051000 1.200000 0.025000 0.030000
1517161388451333999	500 39 0.900000 0.022000 0.020000 600 37 0.900000 0.537000 0.484000 600 42 1.000000 0.051000 0.051000 1.200000 0.025000 0.030000
1517161388962899833	500 39 0.900000 0.024000 0.021000 600 37 0.900000 0.575000 0.518000 600 42 1.000000 0.051000 0.051000 1.200000 0.031000 0.037000
1517161389476223125	500 39 0.900000 0.024000 0.021000 600 37 0.900000 0.567000 0.511000 600 42 1.000000 0.051000 0.051000 1.200000 0.037000 0.044000
1517161389987930291	500 39 0.900000 0.022000 0.020000 600 37 0.900000 0.520000 0.469000 600 41 1.000000 0.051000 0.051000 1.200000 0.032000 0.038000
1517161390499424125	500 39 0.900000 0.022000 0.020000 600 37 0.900000 0.541000 0.487000 600 42 1.000000 0.051000 0.051000 1.200000 0.025000 0.030000
1517161391011338458	500 39 0.900000 0.022000 0.020000 600 37 0.900000 0.557000 0.502000 600 42 1.000000 0.051000 0.051000 1.200000 0.032000 0.038000
1517161391523973167	500 39 0.900000 0.023000 0.021000 600 37 0.900000 0.629000 0.567000 600 42 1.000000 0.051000 0.051000 1.200000 0.038000 0.045000
1517161392035991500	500 39 0.900000 0.022000 0.020000 600 37 0.900000 0.531000 0.478000 600 42 1.000000 0.051000 0.051000 1.200000 0.024000 0.029000
1517161392548829625	500 38 0.900000 0.022000 0.020000 600 37 0.900000 0.523000 0.471000 600 42 1.000000 0.051000 0.051000 1.200000 0.025000 0.030000
1517161393060472250	500 39 0.900000 0.023000 0.021000 600 37 0.900000 0.517000 0.466000 600 42 1.000000 0.051000 0.051000 1.200000 0.036000 0.043000
1517161393572090083	500 39 0.900000 0.024000 0.021000 600 37 0.900000 0.655000 0.591000 600 42 1.000000 0.051000 0.051000 1.200000 0.028000 0.033000
1517161394083783042	500 39 0.900000 0.022000 0.020000 600 37 0.900000 0.520000 0.469000 600 42 1.000000 0.051000 0.051000 1.200000 0.025000 0.030000
1517161394596660417	500 39 0.900000 0.022000 0.020000 600 37 0.900000 0.515000 0.464000 600 41 1.000000 0.051000 0.051000 1.200000 0.031000 0.037000
1517161395108672167	500 39 0.900000 0.022000 0.020000 600 37 0.900000 0.531000 0.478000 600 41 1.000000 0.051000 0.051000 1.200000 0.030000 0.036000
1517161395619958417	500 39 0.900000 0.022000 0.020000 600 37 0.900000 0.599000 0.540000 600 42 1.000000 0.051000 0.051000 1.200000 0.025000 0.030000
1517161396131757375	500 39 0.900000 0.022000 0.020000 600 37 0.900000 0.515000 0.464000 600 42 1.000000 0.051000 0.051000 1.200000 0.030000 0.036000
1517161396643643042	500 39 0.900000 0.022000 0.020000 600 37 0.900000 0.529000 0.477000 600 42 1.000000 0.051000 0.051000 1.200000 0.023000 0.027000
1517161397155159001	500 39 0.900000 0.022000 0.020000 600 37 0.900000 0.523000 0.471000 600 42 1.000000 0.051000 0.051000 1.200000 0.029000 0.035000
1517161397672372459	500 39 0.900000 0.022000 0.020000 600 37 0.900000 0.537000 0.484000 600 42 1.000000 0.051000 0.051000 1.200000 0.025000 0.030000
1517161398185118959	500 39 0.900000 0.022000 0.020000 600 37 0.900000 0.656000 0.592000 600 42 1.000000 0.051000 0.051000 1.200000 0.031000 0.037000
1517161398696733417	500 39 0.900000 0.022000 0.020000 600 37 0.900000 0.523000 0.471000 600 42 1.000000 0.051000 0.051000 1.200000 0.032000 0.038000
1517161399208580084	500 39 0.900000 0.022000 0.020000 600 37 0.900000 0.595000 0.536000 600 42 1.000000 0.051000 0.051000 1.200000 0.027000 0.032000
1517161399720821043	500 38 0.900000 0.022000 0.020000 600 37 0.900000 0.520000 0.469000 600 41 1.000000 0.051000 0.051000 1.200000 0.024000 0.028000
1517161400232448543	500 39 0.900000 0.022000 0.020000 600 37 0.900000 0.632000 0.570000 600 42 1.000000 0.051000 0.051000 1.200000 0.033000 0.039000
1517161400744144084	500 39 0.900000 0.022000 0.020000 600 37 0.900000 0.528000 0.476000 600 41 1.000000 0.051000 0.051000 1.200000 0.024000 0.028000
1517161401256027126	500 38 0.900000 0.022000 0.020000 600 37 0.900000 0.581000 0.524000 600 41 1.000000 0.051000 0.051000 1.200000 0.031000 0.037000
1517161401767872293	500 39 0.900000 0.022000 0.020000 600 37 0.900000 0.515000 0.464000 600 41 1.000000 0.051000 0.051000 1.200000 0.031000 0.037000
1517161402280065626	500 39 0.900000 0.022000 0.020000 600 37 0.900000 0.581000 0.524000 600 42 1.000000 0.051000 0.051000 1.200000 0.025000 0.030000
1517161402791853501	500 39 0.900000 0.022000 0.020000 600 37 0.900000 0.523000 0.471000 600 42 1.000000 0.051000 0.051000 1.200000 0.027000 0.032000
1517161403303536793	500 39 0.900000 0.023000 0.021000 600 37 0.900000 0.541000 0.487000 600 42 1.000000 0.051000 0.051000 1.200000 0.037000 0.044000
1517161403815532168	500 39 0.900000 0.022000 0.020000 600 37 0.900000 0.531000 0.478000 600 42 1.000000 0.051000 0.051000 1.200000 0.023000 0.027000
1517161404328027001	500 39 0.900000 0.022000 0.020000 600 37 0.900000 0.524000 0.472000 600 42 1.000000 0.051000 0.051000 1.200000 0.024000 0.029000
1517161404839578501	500 39 0.900000 0.026000 0.023000 600 37 0.900000 0.678000 0.612000 600 42 1.000000 0.051000 0.051000 1.200000 0.036000 0.043000
1517161405351316710	500 39 0.900000 0.022000 0.020000 600 37 0.900000 0.545000 0.491000 600 42 1.000000 0.051000 0.051000 1.200000 0.029000 0.035000
1517161405862744502	500 39 0.900000 0.022000 0.020000 600 37 0.900000 0.521000 0.469000 600 42 1.000000 0.051000 0.051000 1.200000 0.024000 0.028000
1517161406374488877	500 39 0.900000 0.022000 0.020000 600 37 0.900000 0.529000 0.477000 600 42 1.000000 0.051000 0.051000 1.200000 0.024000 0.028000
1517161406887107418	500 39 0.900000 0.022000 0.020000 600 37 0.900000 0.524000 0.472000 600 42 1.000000 0.051000 0.051000 1.200000 0.025000 0.030000
1517161407398810168	500 39 0.900000 0.022000 0.020000 600 37 0.900000 0.588000 0.530000 600 42 1.000000 0.051000 0.051000 1.200000 0.032000 0.038000
1517161407912216835	500 39 0.900000 0.022000 0.020000 600 37 0.900000 0.547000 0.493000 600 42 1.000000 0.051000 0.051000 1.200000 0.025000 0.030000
1517161408424161585	500 39 0.900000 0.023000 0.021000 600 37 0.900000 0.522000 0.470000 600 42 1.000000 0.051000 0.051000 1.200000 0.026000 0.031000
1517161408936526127	500 39 0.900000 0.022000 0.020000 600 37 0.900000 0.536000 0.483000 600 42 1.000000 0.051000 0.051000 1.200000 0.031000 0.037000
1517161409448197294	500 39 0.900000 0.022000 0.020000 600 37 0.900000 0.637000 0.575000 600 42 1.000000 0.051000 0.051000 1.200000 0.027000 0.032000
1517161409959661835	500 39 0.900000 0.021000 0.019000 600 37 0.900000 0.527000 0.475000 600 42 1.000000 0.051000 0.051000 1.200000 0.024000 0.028000
1517161410471443794	500 39 0.900000 0.022000 0.020000 600 37 0.900000 0.537000 0.484000 600 42 1.000000 0.051000 0.051000 1.200000 0.031000 0.037000
1517161410984388002	500 39 0.900000 0.022000 0.020000 600 37 0.900000 0.525000 0.473000 600 42 1.000000 0.051000 0.051000 1.200000 0.023000 0.027000
1517161411497774961	500 39 0.900000 0.030000 0.027000 600 37 0.900000 0.637000 0.575000 600 42 1.000000 0.051000 0.051000 1.200000 0.034000 0.041000
1517161412009473794	500 39 0.900000 0.022000 0.020000 600 37 0.900000 0.537000 0.484000 600 42 1.000000 0.051000 0.051000 1.200000 0.030000 0.036000
1517161412521195336	500 39 0.900000 0.022000 0.020000 600 37 0.900000 0.529000 0.477000 600 41 1.000000 0.051000 0.051000 1.200000 0.023000 0.027000
1517161413032657877	500 39 0.900000 0.022000 0.020000 600 37 0.900000 0.526000 0.474000 600 42 1.000000 0.051000 0.051000 1.200000 0.024000 0.028000
1517161413543936419	500 39 0.900000 0.028000 0.025000 600 37 0.900000 0.591000 0.533000 600 42 1.000000 0.051000 0.051000 1.200000 0.042000 0.050000
1517161414056306878	500 39 0.900000 0.022000 0.020000 600 37 0.900000 0.521000 0.469000 600 42 1.000000 0.051000 0.051000 1.200000 0.023000 0.027000
1517161414568406294	500 39 0.900000 0.022000 0.020000 600 37 0.900000 0.516000 0.465000 600 42 1.000000 0.051000 0.051000 1.200000 0.023000 0.027000
1517161415080255753	500 39 0.900000 0.022000 0.020000 600 37 0.900000 0.528000 0.476000 600 42 1.000000 0.051000 0.051000 1.200000 0.024000 0.028000
1517161415593796336	500 39 0.900000 0.022000 0.020000 600 37 0.900000 0.526000 0.474000 600 42 1.000000 0.051000 0.051000 1.200000 0.025000 0.030000
1517161416108358503	500 39 0.900000 0.029000 0.026000 600 37 0.900000 0.701000 0.633000 600 42 1.000000 0.051000 0.051000 1.200000 0.042000 0.050000
1517161416620230753	500 39 0.900000 0.022000 0.020000 600 37 0.900000 0.527000 0.475000 600 42 1.000000 0.051000 0.051000 1.200000 0.024000 0.029000
1517161417131733170	500 39 0.900000 0.022000 0.020000 600 37 0.900000 0.527000 0.475000 600 42 1.000000 0.051000 0.051000 1.200000 0.024000 0.029000
1517161417643591086	500 39 0.900000 0.022000 0.020000 600 37 0.900000 0.536000 0.483000 600 41 1.000000 0.051000 0.051000 1.200000 0.029000 0.035000
1517161418155667670	500 39 0.900000 0.033000 0.030000 600 37 0.900000 0.642000 0.579000 600 42 1.000000 0.051000 0.051000 1.200000 0.039000 0.047000
1517161418667159461	500 39 0.900000 0.022000 0.020000 600 37 0.900000 0.521000 0.469000 600 42 1.000000 0.051000 0.051000 1.200000 0.024000 0.028000
1517161419178883878	500 39 0.900000 0.022000 0.020000 600 37 0.900000 0.541000 0.487000 600 42 1.000000 0.051000 0.051000 1.200000 0.030000 0.036000
1517161419690526003	500 39 0.900000 0.022000 0.020000 600 37 0.900000 0.532000 0.479000 600 41 1.000000 0.051000 0.051000 1.200000 0.023000 0.027000
1517161420202034670	500 39 0.900000 0.023000 0.021000 600 37 0.900000 0.603000 0.544000 600 42 1.000000 0.051000 0.051000 1.200000 0.034000 0.041000
1517161420713931503	500 39 0.900000 0.022000 0.020000 600 37 0.900000 0.527000 0.475000 600 42 1.000000 0.051000 0.051000 1.200000 0.030000 0.036000
1517161421226512795	500 39 0.900000 0.022000 0.020000 600 37 0.900000 0.524000 0.472000 600 42 1.000000 0.051000 0.051000 1.200000 0.024000 0.028000
1517161421738153503	500 39 0.900000 0.022000 0.020000 600 37 0.900000 0.516000 0.465000 600 41 1.000000 0.051000 0.051000 1.200000 0.023000 0.027000
1517161422256933545	500 39 0.900000 0.023000 0.021000 600 37 0.900000 0.586000 0.528000 600 42 1.000000 0.051000 0.051000 1.200000 0.033000 0.039000
1517161422769033837	500 39 0.900000 0.022000 0.020000 600 37 0.900000 0.540000 0.487000 600 42 1.000000 0.051000 0.051000 1.200000 0.023000 0.027000
1517161423280982795	500 39 0.900000 0.022000 0.020000 600 37 0.900000 0.516000 0.465000 600 42 1.000000 0.051000 0.051000 1.200000 0.024000 0.028000
1517161423793100004	500 39 0.900000 0.022000 0.020000 600 37 0.900000 0.530000 0.478000 600 42 1.000000 0.051000 0.051000 1.200000 0.024000 0.028000
1517161424304914337	500 39 0.900000 0.022000 0.020000 600 37 0.900000 0.530000 0.478000 600 42 1.000000 0.051000 0.051000 1.200000 0.030000 0.036000
1517161424816413462	500 39 0.900000 0.022000 0.020000 600 37 0.900000 0.584000 0.526000 600 42 1.000000 0.051000 0.051000 1.200000 0.042000 0.050000
1517161425328189212	500 39 0.900000 0.022000 0.020000 600 37 0.900000 0.527000 0.475000 600 42 1.000000 0.051000 0.051000 1.200000 0.024000 0.028000
1517161425842714962	500 39 0.900000 0.022000 0.020000 600 37 0.900000 0.522000 0.470000 600 42 1.000000 0.051000 0.051000 1.200000 0.024000 0.028000
1517161426354592629	500 39 0.900000 0.023000 0.021000 600 37 0.900000 0.561000 0.506000 600 42 1.000000 0.051000 0.051000 1.200000 0.036000 0.043000
1517161426865981421	500 39 0.900000 0.022000 0.020000 600 37 0.900000 0.535000 0.482000 600 42 1.000000 0.051000 0.051000 1.200000 0.025000 0.030000
1517161427377472171	500 39 0.900000 0.022000 0.020000 600 37 0.900000 0.527000 0.475000 600 42 1.000000 0.051000 0.051000 1.200000 0.039000 0.047000
1517161427889357879	500 39 0.900000 0.022000 0.020000 600 37 0.900000 0.530000 0.478000 600 42 1.000000 0.051000 0.051000 1.200000 0.024000 0.028000
1517161428402070421	500 39 0.900000 0.022000 0.020000 600 37 0.900000 0.575000 0.518000 600 42 1.000000 0.051000 0.051000 1.200000 0.025000 0.030000
1517161428916826921	500 39 0.900000 0.022000 0.020000 600 37 0.900000 0.517000 0.466000 600 42 1.000000 0.051000 0.051000 1.200000 0.031000 0.037000
1517161429428755629	500 39 0.900000 0.022000 0.020000 600 37 0.900000 0.586000 0.528000 600 42 1.000000 0.051000 0.051000 1.200000 0.036000 0.043000
1517161429940841796	500 39 0.900000 0.022000 0.020000 600 37 0.900000 0.521000 0.469000 600 41 1.000000 0.051000 0.051000 1.200000 0.025000 0.030000
1517161430452469463	500 39 0.900000 0.022000 0.020000 600 37 0.900000 0.580000 0.523000 600 42 1.000000 0.051000 0.051000 1.200000 0.031000 0.037000
1517161430964111588	500 39 0.900000 0.022000 0.020000 600 37 0.900000 0.530000 0.478000 600 41 1.000000 0.051000 0.051000 1.200000 0.025000 0.030000
1517161431475703005	500 39 0.900000 0.025000 0.022000 600 37 0.900000 0.632000 0.570000 600 42 1.000000 0.051000 0.051000 1.200000 0.031000 0.037000
1517161431987553338	500 39 0.900000 0.022000 0.020000 600 37 0.900000 0.518000 0.467000 600 41 1.000000 0.051000 0.051000 1.200000 0.030000 0.036000
1517161432499247588	500 39 0.900000 0.022000 0.020000 600 37 0.900000 0.529000 0.477000 600 42 1.000000 0.051000 0.051000 1.200000 0.024000 0.028000
1517161433010857796	500 39 0.900000 0.022000 0.020000 600 37 0.900000 0.527000 0.475000 600 41 1.000000 0.051000 0.051000 1.200000 0.036000 0.043000
1517161433521935797	500 39 0.900000 0.022000 0.020000 600 37 0.900000 0.542000 0.489000 600 42 1.000000 0.051000 0.051000 1.200000 0.024000 0.029000
1517161434033832963	500 39 0.900000 0.023000 0.021000 600 37 0.900000 0.531000 0.478000 600 41 1.000000 0.051000 0.051000 1.200000 0.030000 0.036000
1517161434545197005	500 39 0.900000 0.022000 0.020000 600 37 0.900000 0.519000 0.468000 600 42 1.000000 0.051000 0.051000 1.200000 0.030000 0.036000
1517161435057023130	500 39 0.900000 0.022000 0.020000 600 37 0.900000 0.528000 0.476000 600 42 1.000000 0.051000 0.051000 1.200000 0.030000 0.036000
1517161435573236755	500 39 0.900000 0.021000 0.019000 600 37 0.900000 0.520000 0.469000 600 42 1.000000 0.051000 0.051000 1.200000 0.025000 0.030000
1517161436085778464	500 39 0.900000 0.025000 0.022000 600 37 0.900000 0.585000 0.528000 600 42 1.000000 0.051000 0.051000 1.200000 0.040000 0.048000
1517161436597202547	500 39 0.900000 0.022000 0.020000 600 37 0.900000 0.526000 0.474000 600 42 1.000000 0.051000 0.051000 1.200000 0.024000 0.028000
1517161437109116047	500 39 0.900000 0.022000 0.020000 600 37 0.900000 0.521000 0.469000 600 42 1.000000 0.051000 0.051000 1.200000 0.029000 0.035000
1517161437621032880	500 39 0.900000 0.022000 0.020000 600 37 0.900000 0.517000 0.466000 600 41 1.000000 0.051000 0.051000 1.200000 0.031000 0.037000
1517161438132428714	500 39 0.900000 0.025000 0.022000 600 37 0.900000 0.661000 0.596000 600 42 1.000000 0.051000 0.051000 1.200000 0.030000 0.036000
1517161438645007130	500 39 0.900000 0.022000 0.020000 600 37 0.900000 0.523000 0.471000 600 42 1.000000 0.051000 0.051000 1.200000 0.024000 0.028000
1517161439156722047	500 39 0.900000 0.021000 0.019000 600 37 0.900000 0.514000 0.463000 600 41 1.000000 0.051000 0.051000 1.200000 0.032000 0.038000
1517161439668690047	500 39 0.900000 0.022000 0.020000 600 37 0.900000 0.527000 0.475000 600 41 1.000000 0.051000 0.051000 1.200000 0.023000 0.027000
1517161440180531589	500 39 0.900000 0.023000 0.021000 600 37 0.900000 0.641000 0.578000 600 42 1.000000 0.051000 0.051000 1.200000 0.025000 0.030000
1517161440692785672	500 39 0.900000 0.022000 0.020000 600 37 0.900000 0.516000 0.465000 600 42 1.000000 0.051000 0.051000 1.200000 0.030000 0.036000
1517161441205155589	500 39 0.900000 0.022000 0.020000 600 37 0.900000 0.516000 0.465000 600 41 1.000000 0.051000 0.051000 1.200000 0.030000 0.036000
1517161441716813548	500 39 0.900000 0.022000 0.020000 600 37 0.900000 0.533000 0.480000 600 42 1.000000 0.051000 0.051000 1.200000 0.031000 0.037000
1517161442228796548	500 39 0.900000 0.022000 0.020000 600 37 0.900000 0.527000 0.475000 600 42 1.000000 0.051000 0.051000 1.200000 0.024000 0.028000
1517161442740648298	500 39 0.900000 0.026000 0.023000 600 37 0.900000 0.565000 0.509000 600 41 1.000000 0.051000 0.051000 1.200000 0.036000 0.043000
1517161443252416464	500 39 0.900000 0.022000 0.020000 600 37 0.900000 0.561000 0.506000 600 42 1.000000 0.051000 0.051000 1.200000 0.037000 0.044000
1517161443764384923	500 39 0.900000 0.022000 0.020000 600 37 0.900000 0.525000 0.473000 600 41 1.000000 0.052000 0.052000 1.200000 0.025000 0.030000
1517161444276336214	500 39 0.900000 0.022000 0.020000 600 37 0.900000 0.521000 0.470000 600 41 1.000000 0.051000 0.051000 1.200000 0.025000 0.030000
1517161444787985256	500 39 0.900000 0.023000 0.021000 600 37 0.900000 0.535000 0.483000 600 42 1.000000 0.051000 0.051000 1.200000 0.035000 0.042000
1517161445300231756	500 39 0.900000 0.030000 0.027000 600 37 0.900000 0.559000 0.504000 600 42 1.000000 0.051000 0.051000 1.200000 0.032000 0.038000
1517161445811624090	500 39 0.900000 0.022000 0.020000 600 37 0.900000 0.526000 0.474000 600 42 1.000000 0.051000 0.051000 1.200000 0.025000 0.030000
1517161446323404965	500 39 0.900000 0.022000 0.020000 600 37 0.900000 0.538000 0.485000 600 41 1.000000 0.051000 0.051000 1.200000 0.030000 0.036000
1517161446835894840	500 39 0.900000 0.022000 0.020000 600 37 0.900000 0.524000 0.472000 600 42 1.000000 0.051000 0.051000 1.200000 0.023000 0.027000
1517161447347745715	500 39 0.900000 0.022000 0.020000 600 37 0.900000 0.631000 0.569000 600 42 1.000000 0.051000 0.051000 1.200000 0.031000 0.037000
1517161447859722590	500 39 0.900000 0.022000 0.020000 600 37 0.900000 0.534000 0.481000 600 42 1.000000 0.051000 0.051000 1.200000 0.031000 0.037000
1517161448371592048	500 39 0.900000 0.022000 0.020000 600 37 0.900000 0.532000 0.479000 600 41 1.000000 0.051000 0.051000 1.200000 0.023000 0.027000
1517161448883289382	500 39 0.900000 0.022000 0.020000 600 37 0.900000 0.515000 0.464000 600 41 1.000000 0.051000 0.051000 1.200000 0.024000 0.028000
1517161449395283423	500 39 0.900000 0.021000 0.019000 600 37 0.900000 0.683000 0.616000 600 42 1.000000 0.051000 0.051000 1.200000 0.042000 0.050000
1517161449907744590	500 39 0.900000 0.022000 0.020000 600 37 0.900000 0.522000 0.470000 600 41 1.000000 0.051000 0.051000 1.200000 0.025000 0.030000
1517161450419679007	500 39 0.900000 0.022000 0.020000 600 37 0.900000 0.535000 0.482000 600 41 1.000000 0.051000 0.051000 1.200000 0.031000 0.037000
1517161450931425465	500 39 0.900000 0.022000 0.020000 600 37 0.900000 0.528000 0.476000 600 41 1.000000 0.051000 0.051000 1.200000 0.024000 0.028000
1517161451443172424	500 39 0.900000 0.022000 0.020000 600 37 0.900000 0.527000 0.475000 600 42 1.000000 0.051000 0.051000 1.200000 0.025000 0.030000
1517161451954806090	500 39 0.900000 0.023000 0.021000 600 37 0.900000 0.586000 0.529000 600 41 1.000000 0.051000 0.051000 1.200000 0.031000 0.037000
1517161452468201007	500 39 0.900000 0.022000 0.020000 600 37 0.900000 0.532000 0.479000 600 42 1.000000 0.051000 0.051000 1.200000 0.025000 0.030000
1517161452979772591	500 39 0.900000 0.022000 0.020000 600 37 0.900000 0.524000 0.472000 600 41 1.000000 0.051000 0.051000 1.200000 0.026000 0.031000
1517161453491681841	500 39 0.900000 0.025000 0.022000 600 37 0.900000 0.534000 0.481000 600 42 1.000000 0.051000 0.051000 1.200000 0.030000 0.036000
1517161454003669216	500 39 0.900000 0.024000 0.021000 600 37 0.900000 0.624000 0.563000 600 42 1.000000 0.051000 0.051000 1.200000 0.029000 0.035000
1517161454515278216	500 39 0.900000 0.022000 0.020000 600 37 0.900000 0.529000 0.477000 600 42 1.000000 0.051000 0.051000 1.200000 0.024000 0.028000
1517161455026993966	500 39 0.900000 0.022000 0.020000 600 37 0.900000 0.539000 0.486000 600 41 1.000000 0.051000 0.051000 1.200000 0.030000 0.036000
1517161455538618674	500 39 0.900000 0.022000 0.020000 600 37 0.900000 0.530000 0.478000 600 42 1.000000 0.051000 0.051000 1.200000 0.025000 0.030000
1517161456050146674	500 39 0.900000 0.028000 0.025000 600 37 0.900000 0.624000 0.563000 600 42 1.000000 0.051000 0.051000 1.200000 0.037000 0.044000
1517161456561983258	500 39 0.900000 0.022000 0.020000 600 37 0.900000 0.527000 0.475000 600 41 1.000000 0.051000 0.051000 1.200000 0.031000 0.037000
1517161457074494299	500 39 0.900000 0.022000 0.020000 600 37 0.900000 0.523000 0.471000 600 42 1.000000 0.051000 0.051000 1.200000 0.023000 0.027000
1517161457585993008	500 39 0.900000 0.022000 0.020000 600 37 0.900000 0.515000 0.465000 600 42 1.000000 0.051000 0.051000 1.200000 0.027000 0.032000
1517161458097348841	500 39 0.900000 0.022000 0.020000 600 37 0.900000 0.597000 0.539000 600 42 1.000000 0.051000 0.051000 1.200000 0.026000 0.031000
1517161458609135175	500 39 0.900000 0.027000 0.024000 600 37 0.900000 0.603000 0.544000 600 42 1.000000 0.051000 0.051000 1.200000 0.027000 0.032000
1517161459120842716	500 39 0.900000 0.022000 0.020000 600 37 0.900000 0.534000 0.482000 600 42 1.000000 0.051000 0.051000 1.200000 0.030000 0.036000
1517161459635299466	500 39 0.900000 0.022000 0.020000 600 37 0.900000 0.531000 0.478000 600 42 1.000000 0.051000 0.051000 1.200000 0.025000 0.030000
1517161460147933008	500 39 0.900000 0.023000 0.021000 600 37 0.900000 0.585000 0.528000 600 42 1.000000 0.051000 0.051000 1.200000 0.025000 0.030000
1517161460659510466	500 39 0.900000 0.028000 0.025000 600 37 0.900000 0.654000 0.590000 600 42 1.000000 0.051000 0.051000 1.200000 0.039000 0.047000
1517161461171442425	500 39 0.900000 0.022000 0.020000 600 37 0.900000 0.531000 0.479000 600 41 1.000000 0.051000 0.051000 1.200000 0.023000 0.027000
1517161461683932050	500 39 0.900000 0.022000 0.020000 600 37 0.900000 0.526000 0.474000 600 42 1.000000 0.051000 0.051000 1.200000 0.024000 0.028000
1517161462195838550	500 39 0.900000 0.022000 0.020000 600 37 0.900000 0.575000 0.519000 600 42 1.000000 0.051000 0.051000 1.200000 0.030000 0.036000
1517161462707577675	500 39 0.900000 0.023000 0.021000 600 37 0.900000 0.593000 0.535000 600 42 1.000000 0.051000 0.051000 1.200000 0.036000 0.043000
1517161463219072217	500 39 0.900000 0.022000 0.020000 600 37 0.900000 0.517000 0.466000 600 42 1.000000 0.051000 0.051000 1.200000 0.024000 0.028000
1517161463731906508	500 39 0.900000 0.022000 0.020000 600 37 0.900000 0.529000 0.477000 600 42 1.000000 0.051000 0.051000 1.200000 0.030000 0.036000
1517161464244763217	500 39 0.900000 0.022000 0.020000 600 37 0.900000 0.539000 0.486000 600 42 1.000000 0.051000 0.051000 1.200000 0.023000 0.027000
1517161464757273634	500 39 0.900000 0.023000 0.021000 600 37 0.900000 0.534000 0.482000 600 42 1.000000 0.051000 0.051000 1.200000 0.031000 0.037000
1517161465269091592	500 39 0.900000 0.022000 0.020000 600 37 0.900000 0.529000 0.477000 600 42 1.000000 0.051000 0.051000 1.200000 0.030000 0.036000
1517161465780763717	500 39 0.900000 0.022000 0.020000 600 37 0.900000 0.522000 0.470000 600 42 1.000000 0.051000 0.051000 1.200000 0.023000 0.027000
1517161466292602509	500 39 0.900000 0.022000 0.020000 600 37 0.900000 0.518000 0.467000 600 42 1.000000 0.051000 0.051000 1.200000 0.024000 0.028000
1517161466805669176	500 39 0.900000 0.022000 0.020000 600 37 0.900000 0.530000 0.478000 600 42 1.000000 0.051000 0.051000 1.200000 0.025000 0.030000
1517161467317367551	500 39 0.900000 0.032000 0.029000 600 37 0.900000 0.632000 0.570000 600 42 1.000000 0.051000 0.051000 1.200000 0.032000 0.038000
1517161467829112467	500 39 0.900000 0.022000 0.020000 600 37 0.900000 0.539000 0.486000 600 42 1.000000 0.051000 0.051000 1.200000 0.024000 0.028000
1517161468341081551	500 39 0.900000 0.028000 0.025000 600 37 0.900000 0.591000 0.533000 600 42 1.000000 0.051000 0.051000 1.200000 0.027000 0.032000
1517161468852437926	500 39 0.900000 0.022000 0.020000 600 37 0.900000 0.521000 0.469000 600 41 1.000000 0.051000 0.051000 1.200000 0.031000 0.037000
1517161469363774134	500 39 0.900000 0.022000 0.020000 600 37 0.900000 0.587000 0.530000 600 42 1.000000 0.051000 0.051000 1.200000 0.024000 0.028000
1517161469875654718	500 39 0.900000 0.022000 0.020000 600 37 0.900000 0.523000 0.471000 600 41 1.000000 0.051000 0.051000 1.200000 0.028000 0.033000
1517161470387271468	500 39 0.900000 0.022000 0.020000 600 37 0.900000 0.575000 0.519000 600 41 1.000000 0.051000 0.051000 1.200000 0.031000 0.037000
1517161470899174384	500 39 0.900000 0.022000 0.020000 600 37 0.900000 0.527000 0.475000 600 42 1.000000 0.051000 0.051000 1.200000 0.024000 0.028000
1517161471412199759	500 39 0.900000 0.021000 0.019000 600 37 0.900000 0.524000 0.472000 600 42 1.000000 0.051000 0.051000 1.200000 0.025000 0.030000
1517161471924379593	500 39 0.900000 0.022000 0.020000 600 37 0.900000 0.519000 0.468000 600 42 1.000000 0.051000 0.051000 1.200000 0.040000 0.048000
1517161472436132135	500 39 0.900000 0.022000 0.020000 600 37 0.900000 0.590000 0.532000 600 42 1.000000 0.051000 0.051000 1.200000 0.026000 0.031000
1517161472947849760	500 39 0.900000 0.022000 0.020000 600 37 0.900000 0.519000 0.468000 600 41 1.000000 0.051000 0.051000 1.200000 0.025000 0.030000
1517161473459629801	500 39 0.900000 0.021000 0.019000 600 37 0.900000 0.516000 0.465000 600 41 1.000000 0.051000 0.051000 1.200000 0.031000 0.037000
1517161473971558218	500 39 0.900000 0.030000 0.027000 600 37 0.900000 0.574000 0.517000 600 42 1.000000 0.051000 0.051000 1.200000 0.039000 0.047000
1517161474483121843	500 39 0.900000 0.022000 0.020000 600 37 0.900000 0.584000 0.527000 600 42 1.000000 0.051000 0.051000 1.200000 0.028000 0.033000
1517161474994914176	500 39 0.900000 0.022000 0.020000 600 37 0.900000 0.515000 0.464000 600 42 1.000000 0.051000 0.051000 1.200000 0.030000 0.036000
1517161475507189468	500 39 0.900000 0.022000 0.020000 600 37 0.900000 0.529000 0.477000 600 41 1.000000 0.051000 0.051000 1.200000 0.024000 0.028000
1517161476018646260	500 39 0.900000 0.022000 0.020000 600 37 0.900000 0.554000 0.499000 600 42 1.000000 0.051000 0.051000 1.200000 0.032000 0.038000
1517161476530040802	500 39 0.900000 0.025000 0.022000 600 37 0.900000 0.548000 0.494000 600 42 1.000000 0.051000 0.051000 1.200000 0.031000 0.037000
1517161477042023218	500 39 0.900000 0.022000 0.020000 600 37 0.900000 0.523000 0.471000 600 41 1.000000 0.051000 0.051000 1.200000 0.025000 0.030000
1517161477553561510	500 39 0.900000 0.022000 0.020000 600 37 0.900000 0.516000 0.465000 600 42 1.000000 0.051000 0.051000 1.200000 0.031000 0.037000
1517161478065756969	500 39 0.900000 0.022000 0.020000 600 37 0.900000 0.529000 0.477000 600 42 1.000000 0.051000 0.051000 1.200000 0.024000 0.028000
1517161478578145927	500 39 0.900000 0.026000 0.023000 600 37 0.900000 0.570000 0.514000 600 42 1.000000 0.051000 0.051000 1.200000 0.038000 0.045000
1517161479089976510	500 39 0.900000 0.021000 0.019000 600 37 0.900000 0.568000 0.512000 600 42 1.000000 0.051000 0.051000 1.200000 0.032000 0.038000
1517161479601897885	500 38 0.900000 0.022000 0.020000 600 37 0.900000 0.528000 0.476000 600 41 1.000000 0.051000 0.051000 1.200000 0.024000 0.028000
1517161480113707010	500 39 0.900000 0.022000 0.020000 600 37 0.900000 0.523000 0.471000 600 41 1.000000 0.051000 0.051000 1.200000 0.025000 0.030000
1517161480625373885	500 39 0.900000 0.026000 0.023000 600 37 0.900000 0.584000 0.527000 600 42 1.000000 0.051000 0.051000 1.200000 0.042000 0.050000
1517161481137137761	500 38 0.900000 0.022000 0.020000 600 37 0.900000 0.532000 0.479000 600 42 1.000000 0.051000 0.051000 1.200000 0.024000 0.029000
1517161481648768177	500 39 0.900000 0.022000 0.020000 600 37 0.900000 0.527000 0.475000 600 41 1.000000 0.051000 0.051000 1.200000 0.024000 0.028000
1517161482160415302	500 39 0.900000 0.022000 0.020000 600 37 0.900000 0.538000 0.485000 600 41 1.000000 0.051000 0.051000 1.200000 0.030000 0.036000
1517161482671918719	500 39 0.900000 0.025000 0.022000 600 37 0.900000 0.531000 0.479000 600 42 1.000000 0.051000 0.051000 1.200000 0.027000 0.032000
1517161483183386886	500 39 0.900000 0.022000 0.020000 600 37 0.900000 0.528000 0.476000 600 42 1.000000 0.051000 0.051000 1.200000 0.024000 0.029000
1517161483695182303	500 39 0.900000 0.022000 0.020000 600 37 0.900000 0.530000 0.478000 600 42 1.000000 0.051000 0.051000 1.200000 0.030000 0.036000
1517161484207012803	500 39 0.900000 0.022000 0.020000 600 37 0.900000 0.525000 0.474000 600 41 1.000000 0.051000 0.051000 1.200000 0.025000 0.030000
1517161484722650969	500 39 0.900000 0.022000 0.020000 600 37 0.900000 0.538000 0.485000 600 42 1.000000 0.051000 0.051000 1.200000 0.031000 0.037000
1517161485235600386	500 39 0.900000 0.048000 0.043000 600 37 0.900000 0.592000 0.534000 600 42 1.000000 0.051000 0.051000 1.200000 0.043000 0.051000
1517161485748305428	500 39 0.900000 0.022000 0.020000 600 37 0.900000 0.530000 0.478000 600 41 1.000000 0.051000 0.051000 1.200000 0.025000 0.030000
1517161486260159011	500 38 0.900000 0.021000 0.019000 600 37 0.900000 0.535000 0.482000 600 42 1.000000 0.051000 0.051000 1.200000 0.032000 0.038000
1517161486771886928	500 39 0.900000 0.022000 0.020000 600 37 0.900000 0.525000 0.473000 600 41 1.000000 0.051000 0.051000 1.200000 0.024000 0.028000
1517161487283861553	500 39 0.900000 0.022000 0.020000 600 37 0.900000 0.589000 0.531000 600 42 1.000000 0.051000 0.051000 1.200000 0.036000 0.043000
1517161487795723886	500 39 0.900000 0.022000 0.020000 600 37 0.900000 0.538000 0.485000 600 42 1.000000 0.051000 0.051000 1.200000 0.031000 0.037000
1517161488307684761	500 39 0.900000 0.022000 0.020000 600 37 0.900000 0.532000 0.479000 600 41 1.000000 0.051000 0.051000 1.200000 0.024000 0.028000
1517161488819151178	500 39 0.900000 0.022000 0.020000 600 37 0.900000 0.527000 0.475000 600 42 1.000000 0.051000 0.051000 1.200000 0.024000 0.028000
1517161489331318803	500 39 0.900000 0.045000 0.041000 600 37 0.900000 0.631000 0.569000 600 42 1.000000 0.051000 0.051000 1.200000 0.039000 0.047000
1517161489843191262	500 39 0.900000 0.022000 0.020000 600 37 0.900000 0.552000 0.498000 600 42 1.000000 0.051000 0.051000 1.200000 0.023000 0.027000
1517161490354624220	500 39 0.900000 0.022000 0.020000 600 37 0.900000 0.523000 0.471000 600 42 1.000000 0.051000 0.051000 1.200000 0.023000 0.027000
1517161490866478428	500 39 0.900000 0.022000 0.020000 600 37 0.900000 0.526000 0.474000 600 41 1.000000 0.051000 0.051000 1.200000 0.030000 0.036000
1517161491379399928	500 39 0.900000 0.027000 0.024000 600 37 0.900000 0.563000 0.507000 600 42 1.000000 0.051000 0.051000 1.200000 0.030000 0.036000
1517161491891062845	500 39 0.900000 0.022000 0.020000 600 37 0.900000 0.604000 0.545000 600 42 1.000000 0.051000 0.051000 1.200000 0.029000 0.035000
1517161492402980470	500 39 0.900000 0.021000 0.019000 600 37 0.900000 0.528000 0.476000 600 41 1.000000 0.051000 0.051000 1.200000 0.030000 0.036000
1517161492915403720	500 39 0.900000 0.021000 0.019000 600 37 0.900000 0.523000 0.471000 600 41 1.000000 0.051000 0.051000 1.200000 0.025000 0.030000
1517161493427333095	500 39 0.900000 0.022000 0.020000 600 37 0.900000 0.534000 0.481000 600 42 1.000000 0.051000 0.051000 1.200000 0.031000 0.037000
1517161493938852637	500 39 0.900000 0.022000 0.020000 600 37 0.900000 0.526000 0.474000 600 42 1.000000 0.051000 0.051000 1.200000 0.027000 0.032000
1517161494450050970	500 39 0.900000 0.024000 0.021000 600 37 0.900000 0.530000 0.478000 600 42 1.000000 0.051000 0.051000 1.200000 0.024000 0.029000
1517161494961734179	500 39 0.900000 0.022000 0.020000 600 37 0.900000 0.538000 0.485000 600 41 1.000000 0.051000 0.051000 1.200000 0.030000 0.036000
1517161495473616596	500 39 0.900000 0.022000 0.020000 600 37 0.900000 0.527000 0.475000 600 42 1.000000 0.051000 0.051000 1.200000 0.026000 0.031000
1517161495986954596	500 39 0.900000 0.022000 0.020000 600 37 0.900000 0.521000 0.469000 600 42 1.000000 0.051000 0.051000 1.200000 0.024000 0.028000
1517161496499294012	500 39 0.900000 0.026000 0.023000 600 37 0.900000 0.596000 0.538000 600 41 1.000000 0.051000 0.051000 1.200000 0.032000 0.038000
1517161497011264137	500 39 0.900000 0.021000 0.019000 600 37 0.900000 0.533000 0.481000 600 41 1.000000 0.051000 0.051000 1.200000 0.023000 0.027000
1517161497522468846	500 39 0.900000 0.022000 0.020000 600 37 0.900000 0.527000 0.475000 600 42 1.000000 0.051000 0.051000 1.200000 0.028000 0.033000
1517161498034370971	500 39 0.900000 0.022000 0.020000 600 37 0.900000 0.527000 0.475000 600 41 1.000000 0.051000 0.051000 1.200000 0.030000 0.036000
1517161498546053221	500 39 0.900000 0.026000 0.023000 600 37 0.900000 0.638000 0.576000 600 42 1.000000 0.051000 0.051000 1.200000 0.032000 0.038000
1517161499057806388	500 39 0.900000 0.022000 0.020000 600 37 0.900000 0.517000 0.466000 600 42 1.000000 0.051000 0.051000 1.200000 0.024000 0.028000
1517161499569595096	500 39 0.900000 0.021000 0.019000 600 37 0.900000 0.539000 0.486000 600 42 1.000000 0.051000 0.051000 1.200000 0.036000 0.043000
1517161500081614596	500 39 0.900000 0.022000 0.020000 600 37 0.900000 0.523000 0.471000 600 42 1.000000 0.051000 0.051000 1.200000 0.023000 0.027000
1517161500593041680	500 39 0.900000 0.026000 0.023000 600 37 0.900000 0.623000 0.562000 600 42 1.000000 0.051000 0.051000 1.200000 0.034000 0.041000
1517161501104774180	500 39 0.900000 0.023000 0.021000 600 37 0.900000 0.564000 0.508000 600 42 1.000000 0.051000 0.051000 1.200000 0.024000 0.028000
1517161501616089346	500 39 0.900000 0.022000 0.020000 600 37 0.900000 0.523000 0.471000 600 42 1.000000 0.051000 0.051000 1.200000 0.025000 0.030000
1517161502128015638	500 39 0.900000 0.022000 0.020000 600 37 0.900000 0.560000 0.505000 600 42 1.000000 0.051000 0.051000 1.200000 0.031000 0.037000
1517161502641393013	500 39 0.900000 0.021000 0.019000 600 37 0.900000 0.529000 0.477000 600 42 1.000000 0.051000 0.051000 1.200000 0.025000 0.030000
1517161503153892722	500 39 0.900000 0.026000 0.023000 600 37 0.900000 0.611000 0.551000 600 42 1.000000 0.051000 0.051000 1.200000 0.028000 0.033000
1517161503665474305	500 39 0.900000 0.022000 0.020000 600 37 0.900000 0.540000 0.487000 600 42 1.000000 0.051000 0.051000 1.200000 0.030000 0.036000
1517161504177319972	500 39 0.900000 0.022000 0.020000 600 37 0.900000 0.530000 0.478000 600 41 1.000000 0.051000 0.051000 1.200000 0.024000 0.028000
1517161504688847763	500 39 0.900000 0.021000 0.019000 600 37 0.900000 0.521000 0.469000 600 41 1.000000 0.051000 0.051000 1.200000 0.024000 0.028000
1517161505200531013	500 39 0.900000 0.025000 0.022000 600 37 0.900000 0.662000 0.597000 600 42 1.000000 0.051000 0.051000 1.200000 0.039000 0.047000
1517161505713156055	500 39 0.900000 0.022000 0.020000 600 37 0.900000 0.519000 0.468000 600 42 1.000000 0.051000 0.051000 1.200000 0.023000 0.027000
1517161506224749514	500 39 0.900000 0.022000 0.020000 600 37 0.900000 0.517000 0.466000 600 42 1.000000 0.051000 0.051000 1.200000 0.024000 0.028000
1517161506736590055	500 39 0.900000 0.022000 0.020000 600 37 0.900000 0.529000 0.477000 600 41 1.000000 0.051000 0.051000 1.200000 0.030000 0.036000
1517161507248702222	500 39 0.900000 0.022000 0.020000 600 37 0.900000 0.612000 0.552000 600 42 1.000000 0.051000 0.051000 1.200000 0.024000 0.029000
1517161507760342389	500 39 0.900000 0.022000 0.020000 600 37 0.900000 0.516000 0.465000 600 41 1.000000 0.051000 0.051000 1.200000 0.032000 0.038000
1517161508272287639	500 39 0.900000 0.022000 0.020000 600 37 0.900000 0.530000 0.478000 600 42 1.000000 0.051000 0.051000 1.200000 0.032000 0.038000
1517161508783825722	500 39 0.900000 0.022000 0.020000 600 37 0.900000 0.523000 0.471000 600 41 1.000000 0.051000 0.051000 1.200000 0.025000 0.030000
1517161509295815472	500 39 0.900000 0.022000 0.020000 600 37 0.900000 0.549000 0.495000 600 42 1.000000 0.051000 0.051000 1.200000 0.032000 0.038000
1517161509807886139	500 39 0.900000 0.027000 0.024000 600 37 0.900000 0.637000 0.575000 600 42 1.000000 0.051000 0.051000 1.200000 0.029000 0.035000
1517161510319566681	500 39 0.900000 0.022000 0.020000 600 37 0.900000 0.585000 0.528000 600 42 1.000000 0.051000 0.051000 1.200000 0.031000 0.037000
1517161510831510597	500 38 0.900000 0.021000 0.019000 600 37 0.900000 0.532000 0.479000 600 42 1.000000 0.051000 0.051000 1.200000 0.024000 0.028000
1517161511343403097	500 39 0.900000 0.021000 0.019000 600 37 0.900000 0.531000 0.479000 600 42 1.000000 0.051000 0.051000 1.200000 0.025000 0.030000
1517161511855115764	500 38 0.900000 0.022000 0.020000 600 37 0.900000 0.663000 0.598000 600 42 1.000000 0.051000 0.051000 1.200000 0.032000 0.038000
1517161512366911514	500 39 0.900000 0.022000 0.020000 600 37 0.900000 0.592000 0.534000 600 42 1.000000 0.051000 0.051000 1.200000 0.026000 0.031000
1517161512878655389	500 39 0.900000 0.022000 0.020000 600 37 0.900000 0.518000 0.467000 600 41 1.000000 0.051000 0.051000 1.200000 0.025000 0.030000
1517161513390106389	500 39 0.900000 0.022000 0.020000 600 37 0.900000 0.517000 0.466000 600 42 1.000000 0.051000 0.051000 1.200000 0.031000 0.037000
1517161513901371806	500 39 0.900000 0.022000 0.020000 600 37 0.900000 0.608000 0.549000 600 42 1.000000 0.051000 0.051000 1.200000 0.024000 0.028000
1517161514413507431	500 39 0.900000 0.022000 0.020000 600 37 0.900000 0.588000 0.530000 600 42 1.000000 0.051000 0.051000 1.200000 0.029000 0.035000
1517161514925455140	500 39 0.900000 0.021000 0.019000 600 37 0.900000 0.515000 0.464000 600 41 1.000000 0.051000 0.051000 1.200000 0.031000 0.037000
1517161515437272015	500 38 0.900000 0.022000 0.020000 600 37 0.900000 0.527000 0.475000 600 41 1.000000 0.051000 0.051000 1.200000 0.024000 0.029000
1517161515951311348	500 38 0.900000 0.021000 0.019000 600 37 0.900000 0.535000 0.483000 600 42 1.000000 0.051000 0.051000 1.200000 0.025000 0.030000
1517161516465176223	500 39 0.900000 0.022000 0.020000 600 37 0.900000 0.571000 0.515000 600 42 1.000000 0.051000 0.051000 1.200000 0.044000 0.053000
1517161516976762306	500 39 0.900000 0.021000 0.019000 600 37 0.900000 0.527000 0.475000 600 42 1.000000 0.051000 0.051000 1.200000 0.024000 0.028000
1517161517488221015	500 38 0.900000 0.022000 0.020000 600 37 0.900000 0.520000 0.469000 600 41 1.000000 0.051000 0.051000 1.200000 0.024000 0.028000
1517161518000009682	500 38 0.900000 0.022000 0.020000 600 37 0.900000 0.537000 0.484000 600 41 1.000000 0.051000 0.051000 1.200000 0.030000 0.036000
1517161518511834057	500 39 0.900000 0.022000 0.020000 600 37 0.900000 0.515000 0.465000 600 42 1.000000 0.051000 0.051000 1.200000 0.025000 0.030000
1517161519023392973	500 39 0.900000 0.030000 0.027000 600 37 0.900000 0.569000 0.513000 600 41 1.000000 0.051000 0.051000 1.200000 0.033000 0.039000
1517161519535284182	500 39 0.900000 0.022000 0.020000 600 37 0.900000 0.524000 0.473000 600 41 1.000000 0.051000 0.051000 1.200000 0.024000 0.029000
1517161520047293932	500 38 0.900000 0.022000 0.020000 600 37 0.900000 0.520000 0.469000 600 41 1.000000 0.051000 0.051000 1.200000 0.024000 0.028000
1517161520558859182	500 39 0.900000 0.022000 0.020000 600 37 0.900000 0.537000 0.484000 600 42 1.000000 0.051000 0.051000 1.200000 0.031000 0.037000
1517161521070797765	500 39 0.900000 0.023000 0.021000 600 37 0.900000 0.655000 0.591000 600 42 1.000000 0.051000 0.051000 1.200000 0.029000 0.035000
1517161521581835265	500 38 0.900000 0.022000 0.020000 600 37 0.900000 0.531000 0.478000 600 42 1.000000 0.051000 0.051000 1.200000 0.025000 0.030000
1517161522093221390	500 37 0.900000 0.021000 0.019000 600 36 0.900000 0.279000 0.253000 600 41 1.000000 0.051000 0.051000 1.200000 0.026000 0.031000
