#Timestamp	CPU(0) Frequency(MHz)	CPU(0) Temperature(C)	A7 Voltage(V)	A7 Current(A)	A7 Power(W)	CPU(4) Frequency(MHz)	CPU(4) Temperature(C)	A15 Voltage(V)	A15 Current(A)	A15 Power(W)	GPU Frequency(MHz)	GPU Temperature(C)	GPU Voltage(V)	GPU Current(A)	GPU Power(W)	RAM Voltage(V)	RAM Current(A)	RAM Power(W)
1517156159023201043	1500 39 1.200000 0.086000 0.110000 600 36 0.900000 0.151000 0.137000 600 41 1.000000 0.051000 0.051000 1.200000 0.036000 0.043000
1517156159534314918	1500 39 1.200000 0.339000 0.439000 600 37 0.900000 0.876000 0.791000 600 41 1.000000 0.051000 0.051000 1.200000 0.029000 0.035000
1517156160045986793	1500 40 1.200000 0.334000 0.432000 600 37 0.900000 0.790000 0.713000 600 41 1.000000 0.051000 0.051000 1.200000 0.026000 0.031000
1517156160557175585	1500 40 1.200000 0.333000 0.431000 600 37 0.900000 0.770000 0.695000 600 41 1.000000 0.051000 0.051000 1.200000 0.024000 0.028000
1517156161068442918	1500 40 1.200000 0.334000 0.432000 600 37 0.900000 0.777000 0.701000 600 41 1.000000 0.051000 0.051000 1.200000 0.023000 0.027000
1517156161579883543	1500 40 1.200000 0.335000 0.433000 600 38 0.900000 0.809000 0.730000 600 41 1.000000 0.051000 0.051000 1.200000 0.026000 0.031000
1517156162090974585	1500 40 1.200000 0.333000 0.431000 600 38 0.900000 0.789000 0.711000 600 42 1.000000 0.051000 0.051000 1.200000 0.024000 0.028000
1517156162602155085	1500 40 1.200000 0.339000 0.439000 600 38 0.900000 0.868000 0.783000 600 42 1.000000 0.051000 0.051000 1.200000 0.031000 0.037000
1517156163113236960	1500 40 1.200000 0.334000 0.432000 600 38 0.900000 0.773000 0.697000 600 42 1.000000 0.051000 0.051000 1.200000 0.023000 0.027000
1517156163624291627	1500 40 1.200000 0.334000 0.432000 600 38 0.900000 0.774000 0.698000 600 42 1.000000 0.051000 0.051000 1.200000 0.023000 0.027000
1517156164135138418	1500 40 1.200000 0.334000 0.432000 600 38 0.900000 0.768000 0.693000 600 42 1.000000 0.051000 0.051000 1.200000 0.023000 0.027000
1517156164646348002	1500 40 1.200000 0.339000 0.439000 600 38 0.900000 0.780000 0.704000 600 42 1.000000 0.051000 0.051000 1.200000 0.025000 0.030000
1517156165157491002	1500 41 1.200000 0.334000 0.432000 600 38 0.900000 0.779000 0.703000 600 42 1.000000 0.051000 0.051000 1.200000 0.023000 0.027000
1517156165668682252	1500 40 1.200000 0.335000 0.433000 600 38 0.900000 0.778000 0.701000 600 42 1.000000 0.051000 0.051000 1.200000 0.024000 0.028000
1517156166179216752	1500 41 1.200000 0.335000 0.433000 600 38 0.900000 0.835000 0.753000 600 42 1.000000 0.051000 0.051000 1.200000 0.024000 0.028000
1517156166690412460	1500 40 1.200000 0.335000 0.433000 600 38 0.900000 0.775000 0.699000 600 42 1.000000 0.051000 0.051000 1.200000 0.023000 0.027000
1517156167201411127	1500 40 1.200000 0.334000 0.432000 600 38 0.900000 0.759000 0.684000 600 42 1.000000 0.051000 0.051000 1.200000 0.023000 0.027000
1517156167712238960	1500 40 1.200000 0.333000 0.431000 600 38 0.900000 0.768000 0.692000 600 42 1.000000 0.051000 0.051000 1.200000 0.023000 0.027000
1517156168223078002	1500 40 1.200000 0.334000 0.432000 600 38 0.900000 0.786000 0.708000 600 42 1.000000 0.051000 0.051000 1.200000 0.023000 0.027000
1517156168735024002	1500 40 1.200000 0.334000 0.432000 600 38 0.900000 0.772000 0.696000 600 42 1.000000 0.051000 0.051000 1.200000 0.023000 0.027000
1517156169246548919	1500 41 1.200000 0.335000 0.433000 600 38 0.900000 0.846000 0.763000 600 42 1.000000 0.051000 0.051000 1.200000 0.026000 0.031000
1517156169757739544	1500 40 1.200000 0.334000 0.432000 600 38 0.900000 0.783000 0.706000 600 42 1.000000 0.051000 0.051000 1.200000 0.023000 0.027000
1517156170268679627	1500 40 1.200000 0.334000 0.432000 600 38 0.900000 0.781000 0.704000 600 42 1.000000 0.051000 0.051000 1.200000 0.023000 0.027000
1517156170779567044	1500 40 1.200000 0.334000 0.432000 600 38 0.900000 0.786000 0.708000 600 42 1.000000 0.051000 0.051000 1.200000 0.023000 0.027000
1517156171290604961	1500 41 1.200000 0.334000 0.432000 600 38 0.900000 0.789000 0.711000 600 42 1.000000 0.051000 0.051000 1.200000 0.023000 0.027000
1517156171802379586	1500 40 1.200000 0.334000 0.432000 600 38 0.900000 0.765000 0.690000 600 42 1.000000 0.051000 0.051000 1.200000 0.023000 0.027000
1517156172313946711	1500 40 1.200000 0.338000 0.437000 600 38 0.900000 0.871000 0.786000 600 42 1.000000 0.051000 0.051000 1.200000 0.025000 0.030000
1517156172824954753	1500 40 1.200000 0.334000 0.432000 600 38 0.900000 0.767000 0.691000 600 41 1.000000 0.051000 0.051000 1.200000 0.023000 0.027000
1517156173335383086	1500 40 1.200000 0.334000 0.432000 600 38 0.900000 0.772000 0.696000 600 42 1.000000 0.051000 0.051000 1.200000 0.023000 0.027000
1517156173846325420	1500 38 1.200000 0.334000 0.432000 600 37 0.900000 0.784000 0.707000 600 41 1.000000 0.052000 0.052000 1.200000 0.023000 0.027000
1517156174356925003	1500 37 1.300000 0.108000 0.141000 600 36 0.900000 0.173000 0.157000 600 40 1.000000 0.051000 0.051000 1.200000 0.023000 0.027000
