#Timestamp	CPU(0) Frequency(MHz)	CPU(0) Temperature(C)	A7 Voltage(V)	A7 Current(A)	A7 Power(W)	CPU(4) Frequency(MHz)	CPU(4) Temperature(C)	A15 Voltage(V)	A15 Current(A)	A15 Power(W)	GPU Frequency(MHz)	GPU Temperature(C)	GPU Voltage(V)	GPU Current(A)	GPU Power(W)	RAM Voltage(V)	RAM Current(A)	RAM Power(W)
1517220567841578846	200 39 1.100000 0.037000 0.041000 1300 33 0.900000 0.189000 0.181000 600 44 1.000000 0.050000 0.050000 1.200000 0.045000 0.054000
1517220568353021888	200 41 0.900000 0.063000 0.057000 1300 35 1.000000 2.316000 2.431000 600 47 1.000000 0.051000 0.051000 1.200000 0.029000 0.035000
1517220568864296513	200 43 0.900000 0.059000 0.053000 1300 36 1.000000 2.284000 2.398000 600 48 1.000000 0.051000 0.051000 1.200000 0.030000 0.036000
1517220569375195638	200 43 0.900000 0.059000 0.053000 1300 36 1.000000 2.291000 2.405000 600 49 1.000000 0.051000 0.051000 1.200000 0.028000 0.033000
1517220569884030971	200 44 0.900000 0.059000 0.053000 1300 37 1.000000 2.288000 2.402000 600 50 1.000000 0.051000 0.051000 1.200000 0.028000 0.033000
1517220570395401930	200 44 0.900000 0.065000 0.059000 1300 37 1.000000 2.296000 2.410000 600 50 1.000000 0.051000 0.051000 1.200000 0.028000 0.033000
1517220570906380138	200 45 0.900000 0.059000 0.053000 1300 38 1.000000 2.293000 2.407000 600 51 1.000000 0.051000 0.051000 1.200000 0.028000 0.033000
1517220571417497763	200 45 0.900000 0.060000 0.054000 1300 38 1.000000 2.304000 2.419000 600 51 1.000000 0.051000 0.051000 1.200000 0.030000 0.036000
1517220571928431930	200 46 0.900000 0.059000 0.053000 1300 38 1.000000 2.310000 2.425000 600 51 1.000000 0.051000 0.051000 1.200000 0.028000 0.033000
1517220572439566388	200 46 0.900000 0.062000 0.056000 1300 39 1.000000 2.348000 2.465000 600 52 1.000000 0.051000 0.051000 1.200000 0.037000 0.044000
1517220572950408222	200 46 0.900000 0.060000 0.054000 1300 39 1.000000 2.305000 2.420000 600 52 1.000000 0.052000 0.052000 1.200000 0.028000 0.033000
1517220573461454888	200 46 0.900000 0.060000 0.054000 1300 39 1.000000 2.310000 2.425000 600 52 1.000000 0.052000 0.052000 1.200000 0.029000 0.035000
1517220573972341555	200 46 0.900000 0.060000 0.054000 1300 39 1.000000 2.307000 2.422000 600 52 1.000000 0.052000 0.052000 1.200000 0.029000 0.035000
1517220574483893722	200 47 0.900000 0.060000 0.054000 1300 40 1.000000 2.298000 2.412000 600 53 1.000000 0.052000 0.052000 1.200000 0.027000 0.032000
1517220574994697888	200 47 0.900000 0.063000 0.057000 1300 40 1.000000 2.302000 2.417000 600 53 1.000000 0.052000 0.052000 1.200000 0.032000 0.038000
1517220575505707472	200 47 0.900000 0.060000 0.054000 1300 40 1.000000 2.299000 2.413000 600 53 1.000000 0.052000 0.052000 1.200000 0.028000 0.033000
1517220576017038014	200 47 0.900000 0.060000 0.054000 1300 40 1.000000 2.313000 2.428000 600 53 1.000000 0.052000 0.052000 1.200000 0.028000 0.033000
1517220576528477014	200 47 0.900000 0.060000 0.054000 1300 40 1.000000 2.309000 2.426000 600 53 1.000000 0.052000 0.052000 1.200000 0.028000 0.033000
1517220577039824597	200 47 0.900000 0.061000 0.055000 1300 40 1.000000 2.353000 2.470000 600 53 1.000000 0.052000 0.052000 1.200000 0.035000 0.042000
1517220577550949722	200 47 0.900000 0.060000 0.054000 1300 40 1.000000 2.309000 2.424000 600 53 1.000000 0.052000 0.052000 1.200000 0.028000 0.033000
1517220578061613264	200 47 0.900000 0.060000 0.054000 1300 40 1.000000 2.315000 2.430000 600 53 1.000000 0.052000 0.052000 1.200000 0.028000 0.033000
1517220578570193139	200 48 0.900000 0.060000 0.054000 1300 40 1.000000 2.330000 2.446000 600 54 1.000000 0.052000 0.052000 1.200000 0.029000 0.035000
1517220579081276847	200 48 0.900000 0.060000 0.054000 1300 40 1.000000 2.367000 2.485000 600 54 1.000000 0.052000 0.052000 1.200000 0.036000 0.043000
1517220579592424014	200 48 0.900000 0.061000 0.055000 1300 40 1.000000 2.318000 2.433000 600 54 1.000000 0.052000 0.052000 1.200000 0.027000 0.032000
1517220580103087097	200 48 0.900000 0.060000 0.054000 1300 41 1.000000 2.321000 2.437000 600 54 1.000000 0.052000 0.052000 1.200000 0.028000 0.033000
1517220580627282181	200 48 0.900000 0.060000 0.054000 1300 41 1.000000 2.322000 2.438000 600 54 1.000000 0.052000 0.052000 1.200000 0.028000 0.033000
1517220581141024222	200 48 0.900000 0.069000 0.062000 1300 41 1.000000 2.322000 2.438000 600 54 1.000000 0.052000 0.052000 1.200000 0.042000 0.050000
1517220581652139264	200 48 0.900000 0.060000 0.054000 1300 41 1.000000 2.316000 2.431000 600 54 1.000000 0.052000 0.052000 1.200000 0.030000 0.036000
1517220582162851931	200 48 0.900000 0.060000 0.054000 1300 41 1.000000 2.325000 2.441000 600 54 1.000000 0.052000 0.052000 1.200000 0.028000 0.033000
1517220582673670889	200 48 0.900000 0.060000 0.054000 1300 41 1.000000 2.322000 2.438000 600 54 1.000000 0.052000 0.052000 1.200000 0.028000 0.033000
1517220583185411306	200 48 0.900000 0.060000 0.054000 1300 41 1.000000 2.313000 2.428000 600 54 1.000000 0.052000 0.052000 1.200000 0.028000 0.033000
1517220583696701264	200 48 0.900000 0.060000 0.054000 1300 41 1.000000 2.322000 2.438000 600 54 1.000000 0.052000 0.052000 1.200000 0.030000 0.036000
1517220584207854015	200 48 0.900000 0.060000 0.054000 1300 41 1.000000 2.322000 2.438000 600 54 1.000000 0.052000 0.052000 1.200000 0.028000 0.033000
1517220584718955973	200 48 0.900000 0.060000 0.054000 1300 41 1.000000 2.327000 2.443000 600 54 1.000000 0.052000 0.052000 1.200000 0.028000 0.033000
1517220585230195806	200 48 0.900000 0.061000 0.055000 1300 41 1.000000 2.327000 2.443000 600 54 1.000000 0.052000 0.052000 1.200000 0.029000 0.035000
1517220585741646431	200 48 0.900000 0.061000 0.055000 1300 41 1.000000 2.335000 2.451000 600 55 1.000000 0.052000 0.052000 1.200000 0.033000 0.039000
1517220586252741515	200 48 0.900000 0.061000 0.055000 1300 41 1.000000 2.343000 2.460000 600 54 1.000000 0.052000 0.052000 1.200000 0.028000 0.033000
1517220586777531681	200 48 0.900000 0.060000 0.054000 1300 41 1.000000 2.336000 2.452000 600 55 1.000000 0.052000 0.052000 1.200000 0.029000 0.035000
1517220587291211098	200 49 0.900000 0.061000 0.055000 1300 41 1.000000 2.330000 2.446000 600 55 1.000000 0.052000 0.052000 1.200000 0.030000 0.036000
1517220587802133890	200 49 0.900000 0.061000 0.055000 1300 41 1.000000 2.335000 2.451000 600 55 1.000000 0.052000 0.052000 1.200000 0.032000 0.038000
1517220588313450723	200 49 0.900000 0.060000 0.054000 1300 41 1.000000 2.334000 2.450000 600 55 1.000000 0.052000 0.052000 1.200000 0.029000 0.035000
1517220588824166307	200 49 0.900000 0.061000 0.055000 1300 42 1.000000 2.336000 2.452000 600 55 1.000000 0.052000 0.052000 1.200000 0.030000 0.036000
1517220589332555223	200 49 0.900000 0.061000 0.055000 1300 41 1.000000 2.331000 2.447000 600 55 1.000000 0.052000 0.052000 1.200000 0.029000 0.035000
1517220589844062015	200 49 0.900000 0.062000 0.056000 1300 42 1.000000 2.333000 2.449000 600 55 1.000000 0.052000 0.052000 1.200000 0.032000 0.038000
1517220590355436307	200 49 0.900000 0.061000 0.055000 1300 42 1.000000 2.334000 2.450000 600 55 1.000000 0.052000 0.052000 1.200000 0.028000 0.033000
1517220590866198057	200 49 0.900000 0.060000 0.054000 1300 42 1.000000 2.333000 2.449000 600 55 1.000000 0.052000 0.052000 1.200000 0.028000 0.033000
1517220591377394015	200 49 0.900000 0.061000 0.055000 1300 42 1.000000 2.338000 2.454000 600 55 1.000000 0.052000 0.052000 1.200000 0.028000 0.033000
1517220591888508640	200 49 0.900000 0.065000 0.059000 1300 42 1.000000 2.363000 2.481000 600 55 1.000000 0.052000 0.052000 1.200000 0.032000 0.038000
1517220592399456890	200 49 0.900000 0.061000 0.055000 1300 42 1.000000 2.342000 2.459000 600 55 1.000000 0.052000 0.052000 1.200000 0.028000 0.033000
1517220592910367307	200 49 0.900000 0.061000 0.055000 1300 42 1.000000 2.342000 2.459000 600 55 1.000000 0.052000 0.052000 1.200000 0.028000 0.033000
1517220593421497307	200 49 0.900000 0.061000 0.055000 1300 42 1.000000 2.350000 2.467000 600 55 1.000000 0.052000 0.052000 1.200000 0.028000 0.033000
1517220593933311224	200 49 0.900000 0.060000 0.054000 1300 42 1.000000 2.356000 2.473000 600 55 1.000000 0.052000 0.052000 1.200000 0.027000 0.032000
1517220594444434641	200 49 0.900000 0.061000 0.055000 1300 42 1.000000 2.342000 2.459000 600 55 1.000000 0.052000 0.052000 1.200000 0.029000 0.035000
1517220594955532099	200 49 0.900000 0.060000 0.054000 1300 42 1.000000 2.341000 2.458000 600 55 1.000000 0.052000 0.052000 1.200000 0.028000 0.033000
1517220595466402433	200 49 0.900000 0.061000 0.055000 1300 42 1.000000 2.349000 2.466000 600 55 1.000000 0.053000 0.053000 1.200000 0.028000 0.033000
1517220595974990058	200 49 0.900000 0.061000 0.055000 1300 42 1.000000 2.347000 2.464000 600 55 1.000000 0.052000 0.052000 1.200000 0.028000 0.033000
1517220596499434433	200 49 0.900000 0.062000 0.056000 1300 42 1.000000 2.341000 2.458000 600 55 1.000000 0.052000 0.052000 1.200000 0.030000 0.036000
1517220597012870141	200 49 0.900000 0.060000 0.054000 1300 42 1.000000 2.345000 2.462000 600 55 1.000000 0.052000 0.052000 1.200000 0.029000 0.035000
1517220597523845808	200 49 0.900000 0.061000 0.055000 1300 42 1.000000 2.344000 2.461000 600 55 1.000000 0.052000 0.052000 1.200000 0.028000 0.033000
1517220598035462141	200 49 0.900000 0.060000 0.054000 1300 42 1.000000 2.347000 2.464000 600 55 1.000000 0.052000 0.052000 1.200000 0.028000 0.033000
1517220598547039683	200 49 0.900000 0.060000 0.054000 1300 42 1.000000 2.347000 2.464000 600 55 1.000000 0.052000 0.052000 1.200000 0.032000 0.038000
1517220599058068683	200 49 0.900000 0.060000 0.054000 1300 42 1.000000 2.338000 2.454000 600 55 1.000000 0.052000 0.052000 1.200000 0.028000 0.033000
1517220599568894350	200 49 0.900000 0.061000 0.055000 1300 42 1.000000 2.336000 2.452000 600 55 1.000000 0.052000 0.052000 1.200000 0.028000 0.033000
1517220600079871683	200 49 0.900000 0.061000 0.055000 1300 42 1.000000 2.361000 2.479000 600 56 1.000000 0.052000 0.052000 1.200000 0.027000 0.032000
1517220600591114141	200 49 0.900000 0.060000 0.054000 1300 42 1.000000 2.331000 2.447000 600 56 1.000000 0.052000 0.052000 1.200000 0.033000 0.039000
1517220601115318058	200 49 0.900000 0.061000 0.055000 1300 42 1.000000 2.348000 2.467000 600 56 1.000000 0.052000 0.052000 1.200000 0.028000 0.033000
1517220601628810100	200 49 0.900000 0.061000 0.055000 1300 42 1.000000 2.336000 2.452000 600 56 1.000000 0.052000 0.052000 1.200000 0.030000 0.036000
1517220602139630267	200 49 0.900000 0.061000 0.055000 1300 42 1.000000 2.352000 2.469000 600 56 1.000000 0.052000 0.052000 1.200000 0.029000 0.035000
1517220602650867767	200 49 0.900000 0.060000 0.054000 1300 42 1.000000 2.341000 2.458000 600 56 1.000000 0.052000 0.052000 1.200000 0.029000 0.035000
1517220603162083642	200 49 0.900000 0.061000 0.055000 1300 42 1.000000 2.379000 2.497000 600 56 1.000000 0.052000 0.052000 1.200000 0.029000 0.035000
1517220603673088559	200 49 0.900000 0.060000 0.054000 1300 42 1.000000 2.335000 2.451000 600 56 1.000000 0.052000 0.052000 1.200000 0.028000 0.033000
1517220604184066642	200 49 0.900000 0.061000 0.055000 1300 42 1.000000 2.341000 2.458000 600 56 1.000000 0.052000 0.052000 1.200000 0.029000 0.035000
1517220604692695809	200 49 0.900000 0.061000 0.055000 1300 42 1.000000 2.344000 2.461000 600 56 1.000000 0.052000 0.052000 1.200000 0.028000 0.033000
1517220605203942892	200 49 0.900000 0.061000 0.055000 1300 42 1.000000 2.349000 2.466000 600 56 1.000000 0.053000 0.053000 1.200000 0.028000 0.033000
1517220605715059934	200 49 0.900000 0.061000 0.055000 1300 42 1.000000 2.341000 2.458000 600 56 1.000000 0.052000 0.052000 1.200000 0.027000 0.032000
1517220606225912809	200 49 0.900000 0.061000 0.055000 1300 42 1.000000 2.349000 2.466000 600 56 1.000000 0.053000 0.053000 1.200000 0.028000 0.033000
1517220606737191934	200 49 0.900000 0.060000 0.054000 1300 42 1.000000 2.365000 2.483000 600 56 1.000000 0.052000 0.052000 1.200000 0.028000 0.033000
1517220607248354767	200 50 0.900000 0.067000 0.061000 1300 42 1.000000 2.393000 2.512000 600 56 1.000000 0.052000 0.052000 1.200000 0.032000 0.038000
1517220607759746392	200 50 0.900000 0.061000 0.055000 1300 42 1.000000 2.321000 2.437000 600 56 1.000000 0.052000 0.052000 1.200000 0.028000 0.033000
1517220608270497767	200 50 0.900000 0.060000 0.054000 1300 42 1.000000 2.320000 2.436000 600 56 1.000000 0.052000 0.052000 1.200000 0.027000 0.032000
1517220608781815267	200 50 0.900000 0.061000 0.055000 1300 42 1.000000 2.313000 2.428000 600 56 1.000000 0.052000 0.052000 1.200000 0.029000 0.035000
1517220609293597643	200 50 0.900000 0.061000 0.055000 1300 42 1.000000 2.312000 2.427000 600 56 1.000000 0.052000 0.052000 1.200000 0.034000 0.041000
1517220609804617018	200 50 0.900000 0.061000 0.055000 1300 43 1.000000 2.320000 2.436000 600 56 1.000000 0.052000 0.052000 1.200000 0.029000 0.035000
1517220610315513434	200 50 0.900000 0.061000 0.055000 1300 42 1.000000 2.307000 2.422000 600 56 1.000000 0.052000 0.052000 1.200000 0.028000 0.033000
1517220610826320643	200 50 0.900000 0.061000 0.055000 1300 42 1.000000 2.312000 2.427000 600 56 1.000000 0.053000 0.053000 1.200000 0.028000 0.033000
1517220611337692309	200 50 0.900000 0.061000 0.055000 1300 43 1.000000 2.317000 2.432000 600 56 1.000000 0.052000 0.052000 1.200000 0.029000 0.035000
1517220611848673559	200 50 0.900000 0.061000 0.055000 1300 42 1.000000 2.354000 2.471000 600 56 1.000000 0.052000 0.052000 1.200000 0.028000 0.033000
1517220612359869976	200 50 0.900000 0.061000 0.055000 1300 43 1.000000 2.308000 2.423000 600 56 1.000000 0.052000 0.052000 1.200000 0.028000 0.033000
1517220612870776810	200 50 0.900000 0.061000 0.055000 1300 42 1.000000 2.324000 2.440000 600 56 1.000000 0.052000 0.052000 1.200000 0.027000 0.032000
1517220613379499268	200 50 0.900000 0.061000 0.055000 1300 42 1.000000 2.333000 2.449000 600 56 1.000000 0.052000 0.052000 1.200000 0.027000 0.032000
1517220613890912976	200 50 0.900000 0.069000 0.062000 1300 43 1.000000 2.336000 2.452000 600 56 1.000000 0.052000 0.052000 1.200000 0.038000 0.045000
1517220614402117351	200 50 0.900000 0.061000 0.055000 1300 43 1.000000 2.319000 2.434000 600 56 1.000000 0.053000 0.053000 1.200000 0.028000 0.033000
1517220614913628018	200 50 0.900000 0.061000 0.055000 1300 43 1.000000 2.311000 2.426000 600 56 1.000000 0.052000 0.052000 1.200000 0.028000 0.033000
1517220615424497935	200 50 0.900000 0.061000 0.055000 1300 43 1.000000 2.308000 2.423000 600 56 1.000000 0.052000 0.052000 1.200000 0.028000 0.033000
1517220615936066852	200 50 0.900000 0.065000 0.059000 1300 43 1.000000 2.353000 2.470000 600 56 1.000000 0.052000 0.052000 1.200000 0.036000 0.043000
1517220616447512102	200 50 0.900000 0.061000 0.055000 1300 43 1.000000 2.314000 2.429000 600 56 1.000000 0.052000 0.052000 1.200000 0.029000 0.035000
1517220616958410393	200 50 0.900000 0.061000 0.055000 1300 43 1.000000 2.298000 2.412000 600 56 1.000000 0.052000 0.052000 1.200000 0.027000 0.032000
1517220617469643935	200 50 0.900000 0.061000 0.055000 1300 43 1.000000 2.303000 2.418000 600 56 1.000000 0.052000 0.052000 1.200000 0.027000 0.032000
1517220617981303310	200 50 0.900000 0.061000 0.055000 1300 43 1.000000 2.307000 2.422000 600 56 1.000000 0.052000 0.052000 1.200000 0.027000 0.032000
1517220618492464185	200 50 0.900000 0.060000 0.054000 1300 43 1.000000 2.304000 2.419000 600 56 1.000000 0.053000 0.053000 1.200000 0.028000 0.033000
1517220619003696144	200 50 0.900000 0.061000 0.055000 1300 43 1.000000 2.301000 2.416000 600 56 1.000000 0.052000 0.052000 1.200000 0.028000 0.033000
1517220619514422685	200 50 0.900000 0.061000 0.055000 1300 43 1.000000 2.299000 2.413000 600 56 1.000000 0.053000 0.053000 1.200000 0.028000 0.033000
1517220620025967477	200 50 0.900000 0.061000 0.055000 1300 43 1.000000 2.313000 2.428000 600 56 1.000000 0.053000 0.053000 1.200000 0.027000 0.032000
1517220620537233061	200 50 0.900000 0.061000 0.055000 1300 43 1.000000 2.316000 2.431000 600 56 1.000000 0.052000 0.052000 1.200000 0.028000 0.033000
1517220621048320644	200 50 0.900000 0.061000 0.055000 1300 43 1.000000 2.314000 2.429000 600 56 1.000000 0.052000 0.052000 1.200000 0.028000 0.033000
1517220621559300936	200 50 0.900000 0.062000 0.056000 1300 43 1.000000 2.301000 2.416000 600 56 1.000000 0.052000 0.052000 1.200000 0.028000 0.033000
1517220622070813977	200 50 0.900000 0.061000 0.055000 1300 43 1.000000 2.373000 2.491000 600 56 1.000000 0.052000 0.052000 1.200000 0.028000 0.033000
1517220622582039936	200 50 0.900000 0.061000 0.055000 1300 43 1.000000 2.312000 2.427000 600 56 1.000000 0.052000 0.052000 1.200000 0.028000 0.033000
1517220623093346602	200 50 0.900000 0.061000 0.055000 1300 43 1.000000 2.329000 2.445000 600 56 1.000000 0.052000 0.052000 1.200000 0.028000 0.033000
1517220623604081478	200 50 0.900000 0.060000 0.054000 1300 43 1.000000 2.325000 2.441000 600 56 1.000000 0.052000 0.052000 1.200000 0.027000 0.032000
1517220624115506978	200 50 0.900000 0.062000 0.056000 1300 43 1.000000 2.391000 2.510000 600 56 1.000000 0.052000 0.052000 1.200000 0.030000 0.036000
1517220624626552936	200 50 0.900000 0.061000 0.055000 1300 43 1.000000 2.319000 2.434000 600 56 1.000000 0.052000 0.052000 1.200000 0.028000 0.033000
1517220625137771894	200 50 0.900000 0.061000 0.055000 1300 43 1.000000 2.320000 2.436000 600 56 1.000000 0.052000 0.052000 1.200000 0.027000 0.032000
1517220625648631686	200 50 0.900000 0.061000 0.055000 1300 43 1.000000 2.316000 2.431000 600 56 1.000000 0.052000 0.052000 1.200000 0.027000 0.032000
1517220626160114603	200 50 0.900000 0.061000 0.055000 1300 43 1.000000 2.312000 2.427000 600 56 1.000000 0.052000 0.052000 1.200000 0.027000 0.032000
1517220626671523895	200 50 0.900000 0.061000 0.055000 1300 43 1.000000 2.319000 2.434000 600 56 1.000000 0.053000 0.053000 1.200000 0.028000 0.033000
1517220627182431228	200 50 0.900000 0.061000 0.055000 1300 43 1.000000 2.324000 2.440000 600 56 1.000000 0.052000 0.052000 1.200000 0.028000 0.033000
1517220627693403686	200 50 0.900000 0.061000 0.055000 1300 43 1.000000 2.329000 2.445000 600 56 1.000000 0.053000 0.053000 1.200000 0.027000 0.032000
1517220628204738353	200 50 0.900000 0.061000 0.055000 1300 43 1.000000 2.317000 2.432000 600 56 1.000000 0.052000 0.052000 1.200000 0.027000 0.032000
1517220628716126686	200 50 0.900000 0.061000 0.055000 1300 43 1.000000 2.316000 2.431000 600 56 1.000000 0.052000 0.052000 1.200000 0.028000 0.033000
1517220629227100895	200 50 0.900000 0.060000 0.054000 1300 43 1.000000 2.313000 2.428000 600 56 1.000000 0.053000 0.053000 1.200000 0.029000 0.035000
1517220629751859645	200 50 0.900000 0.061000 0.055000 1300 43 1.000000 2.317000 2.432000 600 56 1.000000 0.052000 0.052000 1.200000 0.028000 0.033000
1517220630265428228	200 50 0.900000 0.063000 0.057000 1300 43 1.000000 2.329000 2.445000 600 56 1.000000 0.052000 0.052000 1.200000 0.029000 0.035000
1517220630777121895	200 50 0.900000 0.061000 0.055000 1300 43 1.000000 2.318000 2.433000 600 56 1.000000 0.052000 0.052000 1.200000 0.027000 0.032000
1517220631288018978	200 50 0.900000 0.061000 0.055000 1300 43 1.000000 2.318000 2.433000 600 56 1.000000 0.053000 0.053000 1.200000 0.028000 0.033000
1517220631798944729	200 50 0.900000 0.061000 0.055000 1300 43 1.000000 2.328000 2.444000 600 56 1.000000 0.052000 0.052000 1.200000 0.028000 0.033000
1517220632307590729	200 50 0.900000 0.061000 0.055000 1300 43 1.000000 2.325000 2.441000 600 56 1.000000 0.053000 0.053000 1.200000 0.028000 0.033000
1517220632818612479	200 50 0.900000 0.066000 0.060000 1300 43 1.000000 2.320000 2.436000 600 56 1.000000 0.052000 0.052000 1.200000 0.031000 0.037000
1517220633345855770	200 50 0.900000 0.061000 0.055000 1300 43 1.000000 2.321000 2.437000 600 56 1.000000 0.052000 0.052000 1.200000 0.028000 0.033000
1517220633866320562	200 50 0.900000 0.061000 0.055000 1300 43 1.000000 2.317000 2.432000 600 56 1.000000 0.053000 0.053000 1.200000 0.029000 0.035000
1517220634395672854	200 50 0.900000 0.061000 0.055000 1300 43 1.000000 2.318000 2.433000 600 56 1.000000 0.052000 0.052000 1.200000 0.029000 0.035000
1517220634909419937	200 50 0.900000 0.066000 0.060000 1300 43 1.000000 2.377000 2.495000 600 56 1.000000 0.052000 0.052000 1.200000 0.034000 0.041000
1517220635420465604	200 50 0.900000 0.061000 0.055000 1300 43 1.000000 2.321000 2.437000 600 56 1.000000 0.052000 0.052000 1.200000 0.028000 0.033000
1517220635931560104	200 50 0.900000 0.061000 0.055000 1300 43 1.000000 2.325000 2.441000 600 56 1.000000 0.052000 0.052000 1.200000 0.028000 0.033000
1517220636442542687	200 50 0.900000 0.061000 0.055000 1300 43 1.000000 2.317000 2.432000 600 56 1.000000 0.052000 0.052000 1.200000 0.028000 0.033000
1517220636953944979	200 50 0.900000 0.062000 0.056000 1300 43 1.000000 2.393000 2.512000 600 56 1.000000 0.053000 0.053000 1.200000 0.032000 0.038000
1517220637465195146	200 50 0.900000 0.061000 0.055000 1300 43 1.000000 2.315000 2.430000 600 56 1.000000 0.053000 0.053000 1.200000 0.029000 0.035000
1517220637975916271	200 50 0.900000 0.061000 0.055000 1300 43 1.000000 2.319000 2.434000 600 56 1.000000 0.053000 0.053000 1.200000 0.028000 0.033000
1517220638486889104	200 50 0.900000 0.061000 0.055000 1300 43 1.000000 2.312000 2.427000 600 56 1.000000 0.052000 0.052000 1.200000 0.028000 0.033000
1517220638998618729	200 50 0.900000 0.061000 0.055000 1300 43 1.000000 2.307000 2.422000 600 56 1.000000 0.052000 0.052000 1.200000 0.034000 0.041000
1517220639509898438	200 50 0.900000 0.061000 0.055000 1300 43 1.000000 2.310000 2.425000 600 56 1.000000 0.052000 0.052000 1.200000 0.028000 0.033000
1517220640020801730	200 50 0.900000 0.061000 0.055000 1300 43 1.000000 2.311000 2.426000 600 56 1.000000 0.052000 0.052000 1.200000 0.028000 0.033000
1517220640531785438	200 50 0.900000 0.061000 0.055000 1300 43 1.000000 2.312000 2.427000 600 56 1.000000 0.052000 0.052000 1.200000 0.028000 0.033000
1517220641042894521	200 50 0.900000 0.062000 0.056000 1300 43 1.000000 2.310000 2.425000 600 57 1.000000 0.052000 0.052000 1.200000 0.034000 0.041000
1517220641553845438	200 50 0.900000 0.061000 0.055000 1300 43 1.000000 2.306000 2.421000 600 56 1.000000 0.053000 0.053000 1.200000 0.029000 0.035000
1517220642065158313	200 50 0.900000 0.060000 0.054000 1300 43 1.000000 2.310000 2.425000 600 56 1.000000 0.052000 0.052000 1.200000 0.028000 0.033000
1517220642576029396	200 50 0.900000 0.061000 0.055000 1300 43 1.000000 2.318000 2.433000 600 56 1.000000 0.052000 0.052000 1.200000 0.028000 0.033000
1517220643087397772	200 50 0.900000 0.061000 0.055000 1300 43 1.000000 2.318000 2.433000 600 57 1.000000 0.052000 0.052000 1.200000 0.028000 0.033000
1517220643598235938	200 50 0.900000 0.061000 0.055000 1300 43 1.000000 2.327000 2.443000 600 56 1.000000 0.052000 0.052000 1.200000 0.027000 0.032000
1517220644109394897	200 50 0.900000 0.061000 0.055000 1300 43 1.000000 2.310000 2.425000 600 56 1.000000 0.052000 0.052000 1.200000 0.027000 0.032000
1517220644620232938	200 50 0.900000 0.061000 0.055000 1300 43 1.000000 2.311000 2.426000 600 57 1.000000 0.052000 0.052000 1.200000 0.027000 0.032000
1517220645131900230	200 50 0.900000 0.061000 0.055000 1300 43 1.000000 2.310000 2.425000 600 57 1.000000 0.052000 0.052000 1.200000 0.028000 0.033000
1517220645643251022	200 50 0.900000 0.061000 0.055000 1300 43 1.000000 2.310000 2.425000 600 56 1.000000 0.052000 0.052000 1.200000 0.027000 0.032000
1517220646167393855	200 50 0.900000 0.060000 0.054000 1300 43 1.000000 2.306000 2.421000 600 57 1.000000 0.052000 0.052000 1.200000 0.028000 0.033000
1517220646681115522	200 50 0.900000 0.062000 0.056000 1300 43 1.000000 2.323000 2.439000 600 56 1.000000 0.053000 0.053000 1.200000 0.028000 0.033000
1517220647192511272	200 50 0.900000 0.060000 0.054000 1300 43 1.000000 2.333000 2.449000 600 57 1.000000 0.052000 0.052000 1.200000 0.032000 0.038000
1517220647704020230	200 50 0.900000 0.060000 0.054000 1300 43 1.000000 2.330000 2.446000 600 57 1.000000 0.053000 0.053000 1.200000 0.029000 0.035000
1517220648214932605	200 50 0.900000 0.061000 0.055000 1300 43 1.000000 2.327000 2.443000 600 57 1.000000 0.052000 0.052000 1.200000 0.028000 0.033000
1517220648726077897	200 50 0.900000 0.061000 0.055000 1300 43 1.000000 2.329000 2.445000 600 57 1.000000 0.053000 0.053000 1.200000 0.028000 0.033000
1517220649237972731	200 51 0.900000 0.065000 0.059000 1300 43 1.000000 2.330000 2.446000 600 57 1.000000 0.053000 0.053000 1.200000 0.033000 0.039000
1517220649749748564	200 51 0.900000 0.061000 0.055000 1300 43 1.000000 2.330000 2.446000 600 57 1.000000 0.052000 0.052000 1.200000 0.028000 0.033000
1517220650261023772	200 50 0.900000 0.061000 0.055000 1300 43 1.000000 2.321000 2.437000 600 57 1.000000 0.053000 0.053000 1.200000 0.028000 0.033000
1517220650771719981	200 51 0.900000 0.061000 0.055000 1300 43 1.000000 2.323000 2.439000 600 57 1.000000 0.053000 0.053000 1.200000 0.029000 0.035000
1517220651280393314	200 51 0.900000 0.061000 0.055000 1300 43 1.000000 2.333000 2.449000 600 57 1.000000 0.053000 0.053000 1.200000 0.032000 0.038000
1517220651791657273	200 51 0.900000 0.065000 0.059000 1300 43 1.000000 2.368000 2.486000 600 57 1.000000 0.052000 0.052000 1.200000 0.034000 0.041000
1517220652302566731	200 51 0.900000 0.061000 0.055000 1300 43 1.000000 2.330000 2.446000 600 57 1.000000 0.053000 0.053000 1.200000 0.028000 0.033000
1517220652813648398	200 51 0.900000 0.061000 0.055000 1300 43 1.000000 2.325000 2.441000 600 57 1.000000 0.053000 0.053000 1.200000 0.029000 0.035000
1517220653324537439	200 51 0.900000 0.061000 0.055000 1300 43 1.000000 2.332000 2.448000 600 57 1.000000 0.053000 0.053000 1.200000 0.029000 0.035000
1517220653835784356	200 51 0.900000 0.066000 0.060000 1300 43 1.000000 2.339000 2.455000 600 57 1.000000 0.053000 0.053000 1.200000 0.029000 0.035000
1517220654346572565	200 51 0.900000 0.061000 0.055000 1300 43 1.000000 2.339000 2.455000 600 57 1.000000 0.052000 0.052000 1.200000 0.029000 0.035000
1517220654857437606	200 50 0.900000 0.061000 0.055000 1300 43 1.000000 2.333000 2.449000 600 57 1.000000 0.052000 0.052000 1.200000 0.028000 0.033000
1517220655368414690	200 51 0.900000 0.061000 0.055000 1300 43 1.000000 2.338000 2.454000 600 57 1.000000 0.052000 0.052000 1.200000 0.028000 0.033000
1517220655879602023	200 51 0.900000 0.066000 0.060000 1300 44 1.000000 2.369000 2.487000 600 57 1.000000 0.052000 0.052000 1.200000 0.027000 0.032000
1517220656390750815	200 51 0.900000 0.063000 0.057000 1300 43 1.000000 2.337000 2.453000 600 57 1.000000 0.053000 0.053000 1.200000 0.029000 0.035000
1517220656901826815	200 51 0.900000 0.061000 0.055000 1300 43 1.000000 2.331000 2.447000 600 57 1.000000 0.053000 0.053000 1.200000 0.028000 0.033000
1517220657413125273	200 51 0.900000 0.061000 0.055000 1300 43 1.000000 2.333000 2.449000 600 57 1.000000 0.053000 0.053000 1.200000 0.028000 0.033000
1517220657937613190	200 51 0.900000 0.061000 0.055000 1300 43 1.000000 2.349000 2.466000 600 57 1.000000 0.052000 0.052000 1.200000 0.027000 0.032000
1517220658450740857	200 51 0.900000 0.061000 0.055000 1300 43 1.000000 2.353000 2.470000 600 57 1.000000 0.053000 0.053000 1.200000 0.032000 0.038000
1517220658961888482	200 51 0.900000 0.061000 0.055000 1300 44 1.000000 2.345000 2.462000 600 57 1.000000 0.053000 0.053000 1.200000 0.028000 0.033000
1517220659473092648	200 51 0.900000 0.061000 0.055000 1300 43 1.000000 2.341000 2.458000 600 57 1.000000 0.053000 0.053000 1.200000 0.028000 0.033000
1517220659982183982	200 51 0.900000 0.061000 0.055000 1300 43 1.000000 2.345000 2.462000 600 57 1.000000 0.053000 0.053000 1.200000 0.027000 0.032000
1517220660493750065	200 51 0.900000 0.069000 0.062000 1300 44 1.000000 2.376000 2.494000 600 57 1.000000 0.052000 0.052000 1.200000 0.034000 0.041000
1517220661004973815	200 51 0.900000 0.061000 0.055000 1300 43 1.000000 2.336000 2.452000 600 57 1.000000 0.053000 0.053000 1.200000 0.028000 0.033000
1517220661515920357	200 51 0.900000 0.061000 0.055000 1300 44 1.000000 2.335000 2.451000 600 57 1.000000 0.053000 0.053000 1.200000 0.028000 0.033000
1517220662027078649	200 51 0.900000 0.061000 0.055000 1300 44 1.000000 2.306000 2.421000 600 57 1.000000 0.053000 0.053000 1.200000 0.028000 0.033000
1517220662538709732	200 51 0.900000 0.061000 0.055000 1300 44 1.000000 2.296000 2.410000 600 57 1.000000 0.052000 0.052000 1.200000 0.027000 0.032000
1517220663050248816	200 51 0.900000 0.061000 0.055000 1300 44 1.000000 2.292000 2.406000 600 57 1.000000 0.053000 0.053000 1.200000 0.028000 0.033000
1517220663561563357	200 51 0.900000 0.060000 0.054000 1300 43 1.000000 2.287000 2.401000 600 57 1.000000 0.052000 0.052000 1.200000 0.029000 0.035000
1517220664072830149	200 51 0.900000 0.061000 0.055000 1300 43 1.000000 2.283000 2.397000 600 57 1.000000 0.052000 0.052000 1.200000 0.028000 0.033000
1517220664584275899	200 51 0.900000 0.061000 0.055000 1300 44 1.000000 2.316000 2.431000 600 57 1.000000 0.053000 0.053000 1.200000 0.028000 0.033000
1517220665095392357	200 51 0.900000 0.061000 0.055000 1300 43 1.000000 2.290000 2.404000 600 57 1.000000 0.052000 0.052000 1.200000 0.028000 0.033000
1517220665606427566	200 51 0.900000 0.061000 0.055000 1300 43 1.000000 2.297000 2.411000 600 57 1.000000 0.053000 0.053000 1.200000 0.027000 0.032000
1517220666117596358	200 50 0.900000 0.061000 0.055000 1300 43 1.000000 2.302000 2.417000 600 57 1.000000 0.052000 0.052000 1.200000 0.028000 0.033000
1517220666626044733	200 50 0.900000 0.062000 0.056000 1300 43 1.000000 2.293000 2.407000 600 57 1.000000 0.053000 0.053000 1.200000 0.027000 0.032000
1517220667137253358	200 51 0.900000 0.061000 0.055000 1300 43 1.000000 2.297000 2.411000 600 57 1.000000 0.052000 0.052000 1.200000 0.029000 0.035000
1517220667648631149	200 51 0.900000 0.061000 0.055000 1300 43 1.000000 2.296000 2.410000 600 57 1.000000 0.053000 0.053000 1.200000 0.027000 0.032000
1517220668159518066	200 51 0.900000 0.061000 0.055000 1300 43 1.000000 2.299000 2.413000 600 57 1.000000 0.052000 0.052000 1.200000 0.027000 0.032000
1517220668670200358	200 51 0.900000 0.060000 0.054000 1300 43 1.000000 2.291000 2.405000 600 57 1.000000 0.053000 0.053000 1.200000 0.029000 0.035000
1517220669181607941	200 51 0.900000 0.061000 0.055000 1300 44 1.000000 2.337000 2.453000 600 57 1.000000 0.053000 0.053000 1.200000 0.034000 0.041000
1517220669692601983	200 51 0.900000 0.061000 0.055000 1300 43 1.000000 2.321000 2.437000 600 57 1.000000 0.053000 0.053000 1.200000 0.028000 0.033000
1517220670203440525	200 51 0.900000 0.061000 0.055000 1300 43 1.000000 2.322000 2.438000 600 57 1.000000 0.053000 0.053000 1.200000 0.028000 0.033000
1517220670727392816	200 51 0.900000 0.060000 0.054000 1300 44 1.000000 2.319000 2.434000 600 57 1.000000 0.053000 0.053000 1.200000 0.027000 0.032000
1517220671240843525	200 51 0.900000 0.062000 0.056000 1300 44 1.000000 2.329000 2.445000 600 57 1.000000 0.053000 0.053000 1.200000 0.031000 0.037000
1517220671751852525	200 51 0.900000 0.061000 0.055000 1300 44 1.000000 2.320000 2.436000 600 57 1.000000 0.052000 0.052000 1.200000 0.028000 0.033000
1517220672262715733	200 51 0.900000 0.061000 0.055000 1300 44 1.000000 2.323000 2.439000 600 57 1.000000 0.053000 0.053000 1.200000 0.027000 0.032000
1517220672774196275	200 51 0.900000 0.061000 0.055000 1300 44 1.000000 2.337000 2.453000 600 57 1.000000 0.052000 0.052000 1.200000 0.028000 0.033000
1517220673285496025	200 51 0.900000 0.061000 0.055000 1300 44 1.000000 2.369000 2.487000 600 57 1.000000 0.053000 0.053000 1.200000 0.028000 0.033000
1517220673796877525	200 51 0.900000 0.061000 0.055000 1300 44 1.000000 2.337000 2.453000 600 57 1.000000 0.053000 0.053000 1.200000 0.027000 0.032000
1517220674308283150	200 51 0.900000 0.061000 0.055000 1300 44 1.000000 2.334000 2.450000 600 57 1.000000 0.052000 0.052000 1.200000 0.027000 0.032000
1517220674819106234	200 51 0.900000 0.061000 0.055000 1300 44 1.000000 2.325000 2.441000 600 57 1.000000 0.053000 0.053000 1.200000 0.026000 0.031000
1517220675327414192	200 51 0.900000 0.060000 0.054000 1300 44 1.000000 2.329000 2.445000 600 57 1.000000 0.053000 0.053000 1.200000 0.026000 0.031000
1517220675838213442	200 51 0.900000 0.065000 0.059000 1300 44 1.000000 2.383000 2.502000 600 57 1.000000 0.053000 0.053000 1.200000 0.027000 0.032000
1517220676349455401	200 51 0.900000 0.061000 0.055000 1300 44 1.000000 2.327000 2.443000 600 57 1.000000 0.052000 0.052000 1.200000 0.027000 0.032000
1517220676873475526	200 51 0.900000 0.061000 0.055000 1300 44 1.000000 2.330000 2.446000 600 57 1.000000 0.053000 0.053000 1.200000 0.027000 0.032000
1517220677386687817	200 51 0.900000 0.062000 0.056000 1300 44 1.000000 2.337000 2.453000 600 57 1.000000 0.053000 0.053000 1.200000 0.027000 0.032000
1517220677897938484	200 51 0.900000 0.063000 0.057000 1300 44 1.000000 2.308000 2.423000 600 57 1.000000 0.053000 0.053000 1.200000 0.034000 0.041000
1517220678408932109	200 51 0.900000 0.061000 0.055000 1300 44 1.000000 2.313000 2.428000 600 57 1.000000 0.053000 0.053000 1.200000 0.026000 0.031000
1517220678919935734	200 51 0.900000 0.061000 0.055000 1300 44 1.000000 2.318000 2.433000 600 57 1.000000 0.052000 0.052000 1.200000 0.026000 0.031000
1517220679430911568	200 51 0.900000 0.061000 0.055000 1300 44 1.000000 2.312000 2.427000 600 57 1.000000 0.053000 0.053000 1.200000 0.026000 0.031000
1517220679942551193	200 51 0.900000 0.063000 0.057000 1300 44 1.000000 2.304000 2.419000 600 57 1.000000 0.053000 0.053000 1.200000 0.029000 0.035000
1517220680453621526	200 51 0.900000 0.060000 0.054000 1300 44 1.000000 2.311000 2.426000 600 57 1.000000 0.053000 0.053000 1.200000 0.026000 0.031000
1517220680964897484	200 51 0.900000 0.061000 0.055000 1300 44 1.000000 2.292000 2.406000 600 57 1.000000 0.053000 0.053000 1.200000 0.026000 0.031000
1517220681476039359	200 51 0.900000 0.061000 0.055000 1300 44 1.000000 2.296000 2.410000 600 57 1.000000 0.053000 0.053000 1.200000 0.025000 0.030000
1517220681987591901	200 51 0.900000 0.061000 0.055000 1300 44 1.000000 2.298000 2.412000 600 57 1.000000 0.053000 0.053000 1.200000 0.025000 0.030000
1517220682498478485	200 51 0.900000 0.061000 0.055000 1300 44 1.000000 2.296000 2.410000 600 57 1.000000 0.053000 0.053000 1.200000 0.025000 0.030000
1517220683009553485	200 51 0.900000 0.061000 0.055000 1300 44 1.000000 2.294000 2.408000 600 57 1.000000 0.053000 0.053000 1.200000 0.025000 0.030000
1517220683520828276	200 51 0.900000 0.060000 0.054000 1300 44 1.000000 2.294000 2.408000 600 57 1.000000 0.053000 0.053000 1.200000 0.026000 0.031000
1517220684029268068	200 51 0.900000 0.061000 0.055000 1300 44 1.000000 2.294000 2.408000 600 57 1.000000 0.052000 0.052000 1.200000 0.028000 0.033000
1517220684540398860	200 51 0.900000 0.061000 0.055000 1300 44 1.000000 2.325000 2.441000 600 57 1.000000 0.053000 0.053000 1.200000 0.027000 0.032000
1517220685051284693	200 51 0.900000 0.060000 0.054000 1300 44 1.000000 2.284000 2.398000 600 57 1.000000 0.053000 0.053000 1.200000 0.027000 0.032000
1517220685562186818	200 51 0.900000 0.061000 0.055000 1300 44 1.000000 2.326000 2.442000 600 57 1.000000 0.052000 0.052000 1.200000 0.026000 0.031000
1517220686091380568	200 51 0.900000 0.061000 0.055000 1300 44 1.000000 2.355000 2.472000 600 57 1.000000 0.053000 0.053000 1.200000 0.026000 0.031000
1517220686604456277	200 51 0.900000 0.070000 0.063000 1300 44 1.000000 2.390000 2.511000 600 57 1.000000 0.052000 0.052000 1.200000 0.037000 0.044000
1517220687115506818	200 51 0.900000 0.061000 0.055000 1300 44 1.000000 2.359000 2.476000 600 57 1.000000 0.053000 0.053000 1.200000 0.026000 0.031000
1517220687626341902	200 51 0.900000 0.060000 0.054000 1300 44 1.000000 2.344000 2.461000 600 57 1.000000 0.053000 0.053000 1.200000 0.027000 0.032000
1517220688137396819	200 51 0.900000 0.061000 0.055000 1300 44 1.000000 2.353000 2.470000 600 57 1.000000 0.052000 0.052000 1.200000 0.025000 0.030000
1517220688648483152	200 51 0.900000 0.061000 0.055000 1300 44 1.000000 2.348000 2.465000 600 57 1.000000 0.053000 0.053000 1.200000 0.034000 0.041000
1517220689159601652	200 51 0.900000 0.062000 0.056000 1300 44 1.000000 2.345000 2.462000 600 57 1.000000 0.053000 0.053000 1.200000 0.026000 0.031000
1517220689670542319	200 51 0.900000 0.061000 0.055000 1300 44 1.000000 2.342000 2.459000 600 57 1.000000 0.053000 0.053000 1.200000 0.025000 0.030000
1517220690181602485	200 51 0.900000 0.061000 0.055000 1300 44 1.000000 2.338000 2.454000 600 57 1.000000 0.053000 0.053000 1.200000 0.025000 0.030000
1517220690692844986	200 51 0.900000 0.061000 0.055000 1300 44 1.000000 2.341000 2.458000 600 57 1.000000 0.052000 0.052000 1.200000 0.033000 0.039000
1517220691203768736	200 51 0.900000 0.060000 0.054000 1300 44 1.000000 2.344000 2.461000 600 57 1.000000 0.053000 0.053000 1.200000 0.026000 0.031000
1517220691714703069	200 51 0.900000 0.061000 0.055000 1300 44 1.000000 2.332000 2.448000 600 57 1.000000 0.053000 0.053000 1.200000 0.028000 0.033000
1517220692225770277	200 51 0.900000 0.060000 0.054000 1300 44 1.000000 2.333000 2.449000 600 57 1.000000 0.052000 0.052000 1.200000 0.027000 0.032000
1517220692737800402	200 51 0.900000 0.061000 0.055000 1300 44 1.000000 2.332000 2.448000 600 57 1.000000 0.052000 0.052000 1.200000 0.026000 0.031000
1517220693249081736	200 51 0.900000 0.061000 0.055000 1300 44 1.000000 2.303000 2.418000 600 57 1.000000 0.053000 0.053000 1.200000 0.030000 0.036000
1517220693760346111	200 51 0.900000 0.061000 0.055000 1300 44 1.000000 2.285000 2.399000 600 57 1.000000 0.053000 0.053000 1.200000 0.026000 0.031000
1517220694271614903	200 51 0.900000 0.061000 0.055000 1300 44 1.000000 2.307000 2.422000 600 57 1.000000 0.053000 0.053000 1.200000 0.029000 0.035000
1517220694780140986	200 51 0.900000 0.062000 0.056000 1300 44 1.000000 2.309000 2.424000 600 57 1.000000 0.053000 0.053000 1.200000 0.029000 0.035000
1517220695291184153	200 51 0.900000 0.065000 0.059000 1300 44 1.000000 2.363000 2.481000 600 57 1.000000 0.052000 0.052000 1.200000 0.030000 0.036000
1517220695802176569	200 51 0.900000 0.061000 0.055000 1300 44 1.000000 2.315000 2.430000 600 57 1.000000 0.052000 0.052000 1.200000 0.027000 0.032000
1517220696313151070	200 51 0.900000 0.061000 0.055000 1300 44 1.000000 2.301000 2.416000 600 57 1.000000 0.053000 0.053000 1.200000 0.029000 0.035000
1517220696824179070	200 51 0.900000 0.061000 0.055000 1300 44 1.000000 2.310000 2.425000 600 57 1.000000 0.053000 0.053000 1.200000 0.027000 0.032000
1517220697335348195	200 51 0.900000 0.066000 0.060000 1300 44 1.000000 2.331000 2.447000 600 57 1.000000 0.053000 0.053000 1.200000 0.031000 0.037000
1517220697846202986	200 51 0.900000 0.061000 0.055000 1300 44 1.000000 2.298000 2.412000 600 57 1.000000 0.052000 0.052000 1.200000 0.028000 0.033000
1517220698357346778	200 51 0.900000 0.060000 0.054000 1300 44 1.000000 2.284000 2.398000 600 57 1.000000 0.052000 0.052000 1.200000 0.029000 0.035000
1517220698868075028	200 51 0.900000 0.061000 0.055000 1300 44 1.000000 2.287000 2.401000 600 57 1.000000 0.052000 0.052000 1.200000 0.027000 0.032000
1517220699378931278	200 51 0.900000 0.066000 0.060000 1300 44 1.000000 2.288000 2.402000 600 57 1.000000 0.052000 0.052000 1.200000 0.027000 0.032000
1517220699895116320	200 51 0.900000 0.061000 0.055000 1300 44 1.000000 2.286000 2.400000 600 57 1.000000 0.053000 0.053000 1.200000 0.028000 0.033000
1517220700415796112	200 51 0.900000 0.062000 0.056000 1300 44 1.000000 2.286000 2.400000 600 57 1.000000 0.052000 0.052000 1.200000 0.029000 0.035000
1517220700927724570	200 51 0.900000 0.061000 0.055000 1300 44 1.000000 2.303000 2.418000 600 57 1.000000 0.053000 0.053000 1.200000 0.029000 0.035000
1517220701444602487	200 51 0.900000 0.061000 0.055000 1300 44 1.000000 2.344000 2.461000 600 57 1.000000 0.052000 0.052000 1.200000 0.028000 0.033000
1517220701960633029	200 51 0.900000 0.061000 0.055000 1300 44 1.000000 2.316000 2.431000 600 57 1.000000 0.053000 0.053000 1.200000 0.027000 0.032000
1517220702480243570	200 51 0.900000 0.060000 0.054000 1300 44 1.000000 2.316000 2.431000 600 57 1.000000 0.053000 0.053000 1.200000 0.025000 0.030000
1517220702990717904	200 51 0.900000 0.061000 0.055000 1300 44 1.000000 2.316000 2.431000 600 57 1.000000 0.053000 0.053000 1.200000 0.026000 0.031000
1517220703507953445	200 51 0.900000 0.061000 0.055000 1300 44 1.000000 2.336000 2.452000 600 57 1.000000 0.053000 0.053000 1.200000 0.027000 0.032000
1517220704017033487	200 51 0.900000 0.067000 0.061000 1300 44 1.000000 2.389000 2.508000 600 57 1.000000 0.053000 0.053000 1.200000 0.031000 0.037000
1517220704528166446	200 51 0.900000 0.061000 0.055000 1300 44 1.000000 2.334000 2.450000 600 57 1.000000 0.052000 0.052000 1.200000 0.029000 0.035000
1517220705039083321	200 51 0.900000 0.061000 0.055000 1300 44 1.000000 2.346000 2.463000 600 57 1.000000 0.053000 0.053000 1.200000 0.028000 0.033000
1517220705549671946	200 51 0.900000 0.061000 0.055000 1300 44 1.000000 2.332000 2.448000 600 57 1.000000 0.052000 0.052000 1.200000 0.027000 0.032000
1517220706060512696	200 51 0.900000 0.069000 0.062000 1300 44 1.000000 2.354000 2.471000 600 57 1.000000 0.052000 0.052000 1.200000 0.031000 0.037000
1517220706571556112	200 51 0.900000 0.060000 0.054000 1300 44 1.000000 2.318000 2.433000 600 57 1.000000 0.052000 0.052000 1.200000 0.027000 0.032000
1517220707082421196	200 51 0.900000 0.060000 0.054000 1300 44 1.000000 2.317000 2.432000 600 57 1.000000 0.052000 0.052000 1.200000 0.027000 0.032000
1517220707593184529	200 51 0.900000 0.061000 0.055000 1300 44 1.000000 2.315000 2.430000 600 57 1.000000 0.052000 0.052000 1.200000 0.027000 0.032000
1517220708104200363	200 51 0.900000 0.061000 0.055000 1300 44 1.000000 2.323000 2.439000 600 57 1.000000 0.053000 0.053000 1.200000 0.027000 0.032000
1517220708612937071	200 51 0.900000 0.061000 0.055000 1300 44 1.000000 2.306000 2.421000 600 57 1.000000 0.053000 0.053000 1.200000 0.027000 0.032000
1517220709125841863	200 51 0.900000 0.061000 0.055000 1300 44 1.000000 2.307000 2.422000 600 57 1.000000 0.053000 0.053000 1.200000 0.027000 0.032000
1517220709644846321	200 51 0.900000 0.060000 0.054000 1300 44 1.000000 2.307000 2.422000 600 57 1.000000 0.053000 0.053000 1.200000 0.026000 0.031000
1517220710153609196	200 51 0.900000 0.061000 0.055000 1300 44 1.000000 2.335000 2.451000 600 57 1.000000 0.053000 0.053000 1.200000 0.025000 0.030000
1517220710665249613	200 51 0.900000 0.061000 0.055000 1300 44 1.000000 2.307000 2.422000 600 57 1.000000 0.053000 0.053000 1.200000 0.027000 0.032000
1517220711176498613	200 51 0.900000 0.061000 0.055000 1300 44 1.000000 2.307000 2.422000 600 57 1.000000 0.053000 0.053000 1.200000 0.025000 0.030000
1517220711688030530	200 51 0.900000 0.061000 0.055000 1300 44 1.000000 2.326000 2.442000 600 57 1.000000 0.052000 0.052000 1.200000 0.026000 0.031000
1517220712204571238	200 51 0.900000 0.061000 0.055000 1300 44 1.000000 2.306000 2.421000 600 57 1.000000 0.053000 0.053000 1.200000 0.027000 0.032000
1517220712718156197	200 51 0.900000 0.063000 0.057000 1300 44 1.000000 2.312000 2.427000 600 57 1.000000 0.053000 0.053000 1.200000 0.034000 0.041000
1517220713229495863	200 51 0.900000 0.061000 0.055000 1300 44 1.000000 2.327000 2.443000 600 57 1.000000 0.052000 0.052000 1.200000 0.027000 0.032000
1517220713740679863	200 51 0.900000 0.061000 0.055000 1300 44 1.000000 2.327000 2.443000 600 57 1.000000 0.053000 0.053000 1.200000 0.029000 0.035000
1517220714251698905	200 51 0.900000 0.061000 0.055000 1300 44 1.000000 2.320000 2.436000 600 57 1.000000 0.053000 0.053000 1.200000 0.028000 0.033000
1517220714763029447	200 51 0.900000 0.064000 0.058000 1300 44 1.000000 2.320000 2.436000 600 57 1.000000 0.053000 0.053000 1.200000 0.036000 0.043000
1517220715282838322	200 51 0.900000 0.061000 0.055000 1300 44 1.000000 2.335000 2.451000 600 57 1.000000 0.053000 0.053000 1.200000 0.027000 0.032000
1517220715835395655	200 51 0.900000 0.061000 0.055000 1300 44 1.000000 2.327000 2.443000 600 57 1.000000 0.053000 0.053000 1.200000 0.028000 0.033000
1517220716349119322	200 51 0.900000 0.062000 0.056000 1300 44 1.000000 2.323000 2.439000 600 57 1.000000 0.053000 0.053000 1.200000 0.031000 0.037000
1517220716874069780	200 51 0.900000 0.067000 0.061000 1300 44 1.000000 2.325000 2.441000 600 57 1.000000 0.052000 0.052000 1.200000 0.036000 0.043000
1517220717405278780	200 51 0.900000 0.061000 0.055000 1300 44 1.000000 2.332000 2.448000 600 57 1.000000 0.053000 0.053000 1.200000 0.028000 0.033000
1517220717918834822	200 51 0.900000 0.061000 0.055000 1300 44 1.000000 2.335000 2.451000 600 57 1.000000 0.053000 0.053000 1.200000 0.028000 0.033000
1517220718429709489	200 51 0.900000 0.061000 0.055000 1300 44 1.000000 2.328000 2.444000 600 57 1.000000 0.053000 0.053000 1.200000 0.026000 0.031000
1517220718941073406	200 51 0.900000 0.066000 0.060000 1300 44 1.000000 2.333000 2.449000 600 57 1.000000 0.053000 0.053000 1.200000 0.029000 0.035000
1517220719451992822	200 51 0.900000 0.061000 0.055000 1300 44 1.000000 2.339000 2.455000 600 57 1.000000 0.053000 0.053000 1.200000 0.025000 0.030000
1517220719962737947	200 51 0.900000 0.061000 0.055000 1300 44 1.000000 2.336000 2.452000 600 57 1.000000 0.053000 0.053000 1.200000 0.025000 0.030000
1517220720473513072	200 51 0.900000 0.061000 0.055000 1300 44 1.000000 2.332000 2.448000 600 57 1.000000 0.053000 0.053000 1.200000 0.025000 0.030000
1517220720982081031	200 51 0.900000 0.061000 0.055000 1300 44 1.000000 2.326000 2.442000 600 57 1.000000 0.053000 0.053000 1.200000 0.026000 0.031000
1517220721493251323	200 51 0.900000 0.063000 0.057000 1300 44 1.000000 2.326000 2.442000 600 57 1.000000 0.053000 0.053000 1.200000 0.026000 0.031000
1517220722003990114	200 51 0.900000 0.061000 0.055000 1300 44 1.000000 2.309000 2.424000 600 57 1.000000 0.053000 0.053000 1.200000 0.025000 0.030000
1517220722515346531	200 51 0.900000 0.060000 0.054000 1300 44 1.000000 2.309000 2.424000 600 57 1.000000 0.053000 0.053000 1.200000 0.025000 0.030000
1517220723038920989	200 51 0.900000 0.061000 0.055000 1300 44 1.000000 2.330000 2.446000 600 57 1.000000 0.053000 0.053000 1.200000 0.027000 0.032000
1517220723557388948	200 51 0.900000 0.061000 0.055000 1300 44 1.000000 2.402000 2.522000 600 57 1.000000 0.053000 0.053000 1.200000 0.034000 0.041000
1517220724068367573	200 51 0.900000 0.061000 0.055000 1300 44 1.000000 2.332000 2.448000 600 57 1.000000 0.053000 0.053000 1.200000 0.027000 0.032000
1517220724579339281	200 51 0.900000 0.061000 0.055000 1300 44 1.000000 2.333000 2.449000 600 57 1.000000 0.053000 0.053000 1.200000 0.026000 0.031000
1517220725090275115	200 51 0.900000 0.061000 0.055000 1300 44 1.000000 2.329000 2.445000 600 57 1.000000 0.053000 0.053000 1.200000 0.026000 0.031000
1517220725601408781	200 51 0.900000 0.063000 0.057000 1300 44 1.000000 2.329000 2.445000 600 57 1.000000 0.053000 0.053000 1.200000 0.036000 0.043000
1517220726112111698	200 51 0.900000 0.061000 0.055000 1300 44 1.000000 2.329000 2.445000 600 57 1.000000 0.053000 0.053000 1.200000 0.025000 0.030000
1517220726622949490	200 51 0.900000 0.061000 0.055000 1300 44 1.000000 2.330000 2.446000 600 57 1.000000 0.053000 0.053000 1.200000 0.025000 0.030000
1517220727133675990	200 51 0.900000 0.061000 0.055000 1300 44 1.000000 2.322000 2.438000 600 57 1.000000 0.053000 0.053000 1.200000 0.025000 0.030000
1517220727644816657	200 51 0.900000 0.063000 0.057000 1300 44 1.000000 2.344000 2.461000 600 57 1.000000 0.052000 0.052000 1.200000 0.037000 0.044000
1517220728155687782	200 51 0.900000 0.061000 0.055000 1300 44 1.000000 2.312000 2.427000 600 57 1.000000 0.053000 0.053000 1.200000 0.025000 0.030000
1517220728666379490	200 51 0.900000 0.061000 0.055000 1300 44 1.000000 2.308000 2.423000 600 57 1.000000 0.052000 0.052000 1.200000 0.025000 0.030000
1517220729177064532	200 51 0.900000 0.061000 0.055000 1300 44 1.000000 2.302000 2.417000 600 57 1.000000 0.053000 0.053000 1.200000 0.025000 0.030000
1517220729688016449	200 51 0.900000 0.063000 0.057000 1300 44 1.000000 2.307000 2.422000 600 57 1.000000 0.052000 0.052000 1.200000 0.033000 0.039000
1517220730198790407	200 51 0.900000 0.061000 0.055000 1300 44 1.000000 2.300000 2.415000 600 57 1.000000 0.052000 0.052000 1.200000 0.025000 0.030000
1517220730710110615	200 51 0.900000 0.060000 0.054000 1300 44 1.000000 2.300000 2.415000 600 57 1.000000 0.053000 0.053000 1.200000 0.026000 0.031000
1517220731221019574	200 51 0.900000 0.061000 0.055000 1300 44 1.000000 2.302000 2.417000 600 57 1.000000 0.053000 0.053000 1.200000 0.026000 0.031000
1517220731729362282	200 51 0.900000 0.061000 0.055000 1300 44 1.000000 2.330000 2.446000 600 57 1.000000 0.053000 0.053000 1.200000 0.027000 0.032000
1517220732240468115	200 51 0.900000 0.063000 0.057000 1300 44 1.000000 2.370000 2.488000 600 57 1.000000 0.053000 0.053000 1.200000 0.032000 0.038000
1517220732751102991	200 51 0.900000 0.061000 0.055000 1300 44 1.000000 2.335000 2.451000 600 57 1.000000 0.053000 0.053000 1.200000 0.028000 0.033000
1517220733261847866	200 51 0.900000 0.061000 0.055000 1300 44 1.000000 2.321000 2.437000 600 57 1.000000 0.052000 0.052000 1.200000 0.027000 0.032000
1517220733772720116	200 51 0.900000 0.061000 0.055000 1300 44 1.000000 2.322000 2.438000 600 57 1.000000 0.052000 0.052000 1.200000 0.027000 0.032000
1517220734283701657	200 51 0.900000 0.065000 0.059000 1300 44 1.000000 2.362000 2.480000 600 57 1.000000 0.053000 0.053000 1.200000 0.027000 0.032000
1517220734811903907	200 51 0.900000 0.061000 0.055000 1300 44 1.000000 2.309000 2.424000 600 57 1.000000 0.053000 0.053000 1.200000 0.029000 0.035000
1517220735325501866	200 51 0.900000 0.062000 0.056000 1300 44 1.000000 2.302000 2.417000 600 57 1.000000 0.053000 0.053000 1.200000 0.030000 0.036000
1517220735836397491	200 51 0.900000 0.061000 0.055000 1300 44 1.000000 2.300000 2.415000 600 57 1.000000 0.052000 0.052000 1.200000 0.029000 0.035000
1517220736347550908	200 51 0.900000 0.066000 0.060000 1300 44 1.000000 2.334000 2.450000 600 57 1.000000 0.053000 0.053000 1.200000 0.027000 0.032000
1517220736858467449	200 51 0.900000 0.060000 0.054000 1300 44 1.000000 2.299000 2.413000 600 57 1.000000 0.053000 0.053000 1.200000 0.028000 0.033000
1517220737369264408	200 51 0.900000 0.060000 0.054000 1300 44 1.000000 2.298000 2.412000 600 57 1.000000 0.053000 0.053000 1.200000 0.027000 0.032000
1517220737880213575	200 51 0.900000 0.060000 0.054000 1300 44 1.000000 2.298000 2.412000 600 57 1.000000 0.053000 0.053000 1.200000 0.027000 0.032000
1517220738407025658	200 51 0.900000 0.061000 0.055000 1300 44 1.000000 2.298000 2.412000 600 57 1.000000 0.053000 0.053000 1.200000 0.026000 0.031000
1517220738920612200	200 51 0.900000 0.062000 0.056000 1300 44 1.000000 2.298000 2.412000 600 57 1.000000 0.052000 0.052000 1.200000 0.030000 0.036000
1517220739431442866	200 51 0.900000 0.061000 0.055000 1300 44 1.000000 2.295000 2.409000 600 57 1.000000 0.053000 0.053000 1.200000 0.026000 0.031000
1517220739942483283	200 51 0.900000 0.061000 0.055000 1300 44 1.000000 2.304000 2.419000 600 57 1.000000 0.053000 0.053000 1.200000 0.026000 0.031000
1517220740455712033	200 51 0.900000 0.060000 0.054000 1300 44 1.000000 2.314000 2.429000 600 57 1.000000 0.052000 0.052000 1.200000 0.026000 0.031000
1517220740977925450	200 51 0.900000 0.062000 0.056000 1300 44 1.000000 2.408000 2.528000 600 57 1.000000 0.053000 0.053000 1.200000 0.034000 0.041000
1517220741490899200	200 51 0.900000 0.061000 0.055000 1300 44 1.000000 2.335000 2.451000 600 57 1.000000 0.053000 0.053000 1.200000 0.029000 0.035000
1517220742001614158	200 51 0.900000 0.061000 0.055000 1300 44 1.000000 2.331000 2.447000 600 57 1.000000 0.053000 0.053000 1.200000 0.028000 0.033000
1517220742509940783	200 51 0.900000 0.061000 0.055000 1300 44 1.000000 2.330000 2.446000 600 57 1.000000 0.053000 0.053000 1.200000 0.027000 0.032000
1517220743020940033	200 51 0.900000 0.066000 0.060000 1300 44 1.000000 2.386000 2.505000 600 57 1.000000 0.053000 0.053000 1.200000 0.035000 0.042000
1517220743531779700	200 51 0.900000 0.061000 0.055000 1300 44 1.000000 2.316000 2.431000 600 57 1.000000 0.053000 0.053000 1.200000 0.028000 0.033000
1517220744042796617	200 51 0.900000 0.060000 0.054000 1300 44 1.000000 2.314000 2.429000 600 57 1.000000 0.053000 0.053000 1.200000 0.027000 0.032000
1517220744553615450	200 51 0.900000 0.061000 0.055000 1300 44 1.000000 2.314000 2.429000 600 57 1.000000 0.053000 0.053000 1.200000 0.027000 0.032000
1517220745065143617	200 51 0.900000 0.061000 0.055000 1300 44 1.000000 2.347000 2.464000 600 57 1.000000 0.053000 0.053000 1.200000 0.034000 0.041000
1517220745575851784	200 51 0.900000 0.062000 0.056000 1300 44 1.000000 2.315000 2.430000 600 57 1.000000 0.053000 0.053000 1.200000 0.027000 0.032000
1517220746086903450	200 51 0.900000 0.061000 0.055000 1300 44 1.000000 2.314000 2.429000 600 57 1.000000 0.053000 0.053000 1.200000 0.027000 0.032000
1517220746597905034	200 51 0.900000 0.061000 0.055000 1300 44 1.000000 2.312000 2.427000 600 57 1.000000 0.053000 0.053000 1.200000 0.026000 0.031000
1517220747108688701	200 51 0.900000 0.062000 0.056000 1300 44 1.000000 2.364000 2.482000 600 57 1.000000 0.052000 0.052000 1.200000 0.027000 0.032000
1517220747619655326	200 51 0.900000 0.061000 0.055000 1300 44 1.000000 2.312000 2.427000 600 57 1.000000 0.053000 0.053000 1.200000 0.025000 0.030000
1517220748130376409	200 51 0.900000 0.061000 0.055000 1300 44 1.000000 2.282000 2.396000 600 57 1.000000 0.053000 0.053000 1.200000 0.026000 0.031000
1517220748641416242	200 51 0.900000 0.061000 0.055000 1300 44 1.000000 2.299000 2.413000 600 57 1.000000 0.052000 0.052000 1.200000 0.025000 0.030000
1517220749149709409	200 51 0.900000 0.063000 0.057000 1300 44 1.000000 2.298000 2.412000 600 57 1.000000 0.053000 0.053000 1.200000 0.025000 0.030000
1517220749660916284	200 51 0.900000 0.067000 0.061000 1300 44 1.000000 2.335000 2.451000 600 57 1.000000 0.053000 0.053000 1.200000 0.038000 0.045000
1517220750172017701	200 51 0.900000 0.061000 0.055000 1300 44 1.000000 2.301000 2.416000 600 57 1.000000 0.053000 0.053000 1.200000 0.028000 0.033000
1517220750682791118	200 51 0.900000 0.060000 0.054000 1300 44 1.000000 2.307000 2.417000 600 57 1.000000 0.053000 0.053000 1.200000 0.027000 0.032000
1517220751193706451	200 51 0.900000 0.061000 0.055000 1300 44 1.000000 2.315000 2.430000 600 57 1.000000 0.053000 0.053000 1.200000 0.027000 0.032000
1517220751704565284	200 51 0.900000 0.063000 0.057000 1300 44 1.000000 2.308000 2.423000 600 57 1.000000 0.053000 0.053000 1.200000 0.037000 0.044000
1517220752215414493	200 51 0.900000 0.061000 0.055000 1300 44 1.000000 2.308000 2.423000 600 57 1.000000 0.053000 0.053000 1.200000 0.028000 0.033000
1517220752726197451	200 51 0.900000 0.061000 0.055000 1300 44 1.000000 2.310000 2.425000 600 57 1.000000 0.053000 0.053000 1.200000 0.027000 0.032000
1517220753253153951	200 51 0.900000 0.061000 0.055000 1300 44 1.000000 2.307000 2.422000 600 57 1.000000 0.053000 0.053000 1.200000 0.027000 0.032000
1517220753766172410	200 51 0.900000 0.067000 0.061000 1300 44 1.000000 2.301000 2.416000 600 57 1.000000 0.053000 0.053000 1.200000 0.034000 0.041000
1517220754277322285	200 51 0.900000 0.061000 0.055000 1300 44 1.000000 2.308000 2.418000 600 57 1.000000 0.053000 0.053000 1.200000 0.026000 0.031000
1517220754787855202	200 51 0.900000 0.061000 0.055000 1300 44 1.000000 2.311000 2.426000 600 57 1.000000 0.053000 0.053000 1.200000 0.025000 0.030000
1517220755298661285	200 51 0.900000 0.061000 0.055000 1300 44 1.000000 2.315000 2.430000 600 57 1.000000 0.053000 0.053000 1.200000 0.025000 0.030000
1517220755809611910	200 51 0.900000 0.067000 0.061000 1300 44 1.000000 2.314000 2.429000 600 57 1.000000 0.053000 0.053000 1.200000 0.032000 0.038000
1517220756320494868	200 51 0.900000 0.061000 0.055000 1300 44 1.000000 2.307000 2.422000 600 57 1.000000 0.052000 0.052000 1.200000 0.026000 0.031000
1517220756831098118	200 51 0.900000 0.061000 0.055000 1300 44 1.000000 2.302000 2.417000 600 57 1.000000 0.053000 0.053000 1.200000 0.025000 0.030000
1517220757342160952	200 51 0.900000 0.061000 0.055000 1300 44 1.000000 2.299000 2.413000 600 57 1.000000 0.052000 0.052000 1.200000 0.025000 0.030000
1517220757850352952	200 51 0.900000 0.061000 0.055000 1300 44 1.000000 2.332000 2.448000 600 57 1.000000 0.053000 0.053000 1.200000 0.027000 0.032000
1517220758361498744	200 51 0.900000 0.065000 0.059000 1300 44 1.000000 2.369000 2.487000 600 57 1.000000 0.053000 0.053000 1.200000 0.035000 0.042000
1517220758872622619	200 51 0.900000 0.061000 0.055000 1300 44 1.000000 2.319000 2.434000 600 57 1.000000 0.053000 0.053000 1.200000 0.028000 0.033000
1517220759383347160	200 51 0.900000 0.061000 0.055000 1300 44 1.000000 2.321000 2.437000 600 57 1.000000 0.053000 0.053000 1.200000 0.028000 0.033000
1517220759893951452	200 51 0.900000 0.060000 0.054000 1300 44 1.000000 2.322000 2.438000 600 57 1.000000 0.052000 0.052000 1.200000 0.026000 0.031000
1517220760404821619	200 51 0.900000 0.069000 0.062000 1300 44 1.000000 2.345000 2.462000 600 57 1.000000 0.052000 0.052000 1.200000 0.037000 0.044000
1517220760918006911	200 51 0.900000 0.061000 0.055000 1300 44 1.000000 2.319000 2.434000 600 57 1.000000 0.053000 0.053000 1.200000 0.026000 0.031000
1517220761430813036	200 51 0.900000 0.061000 0.055000 1300 44 1.000000 2.325000 2.441000 600 57 1.000000 0.052000 0.052000 1.200000 0.025000 0.030000
1517220761958335786	200 51 0.900000 0.061000 0.055000 1300 44 1.000000 2.328000 2.444000 600 57 1.000000 0.052000 0.052000 1.200000 0.025000 0.030000
1517220762471822452	200 51 0.900000 0.066000 0.060000 1300 44 1.000000 2.322000 2.438000 600 57 1.000000 0.053000 0.053000 1.200000 0.034000 0.041000
1517220762982782661	200 51 0.900000 0.061000 0.055000 1300 44 1.000000 2.327000 2.443000 600 57 1.000000 0.053000 0.053000 1.200000 0.025000 0.030000
1517220763493814994	200 51 0.900000 0.061000 0.055000 1300 44 1.000000 2.313000 2.428000 600 57 1.000000 0.053000 0.053000 1.200000 0.026000 0.031000
1517220764005324536	200 51 0.900000 0.061000 0.055000 1300 44 1.000000 2.304000 2.419000 600 57 1.000000 0.053000 0.053000 1.200000 0.025000 0.030000
1517220764518788994	200 51 0.900000 0.061000 0.055000 1300 44 1.000000 2.307000 2.422000 600 57 1.000000 0.053000 0.053000 1.200000 0.033000 0.039000
1517220765061866203	200 51 0.900000 0.061000 0.055000 1300 44 1.000000 2.301000 2.411000 600 57 1.000000 0.053000 0.053000 1.200000 0.025000 0.030000
1517220765575210494	200 51 0.900000 0.061000 0.055000 1300 44 1.000000 2.302000 2.412000 600 57 1.000000 0.053000 0.053000 1.200000 0.025000 0.030000
1517220766086057203	200 51 0.900000 0.061000 0.055000 1300 44 1.000000 2.303000 2.413000 600 57 1.000000 0.053000 0.053000 1.200000 0.026000 0.031000
1517220766597347703	200 51 0.900000 0.061000 0.055000 1300 44 1.000000 2.303000 2.418000 600 57 1.000000 0.053000 0.053000 1.200000 0.028000 0.033000
1517220767108609203	200 51 0.900000 0.061000 0.055000 1300 44 1.000000 2.301000 2.416000 600 57 1.000000 0.053000 0.053000 1.200000 0.025000 0.030000
1517220767619617036	200 51 0.900000 0.061000 0.055000 1300 44 1.000000 2.301000 2.416000 600 57 1.000000 0.053000 0.053000 1.200000 0.025000 0.030000
1517220768130320161	200 51 0.900000 0.061000 0.055000 1300 44 1.000000 2.329000 2.445000 600 57 1.000000 0.053000 0.053000 1.200000 0.027000 0.032000
1517220768638641745	200 51 0.900000 0.061000 0.055000 1300 44 1.000000 2.328000 2.444000 600 57 1.000000 0.053000 0.053000 1.200000 0.026000 0.031000
1517220769149895953	200 51 0.900000 0.063000 0.057000 1300 44 1.000000 2.370000 2.488000 600 57 1.000000 0.053000 0.053000 1.200000 0.030000 0.036000
1517220769661255453	200 51 0.900000 0.061000 0.055000 1300 44 1.000000 2.329000 2.445000 600 57 1.000000 0.052000 0.052000 1.200000 0.025000 0.030000
1517220770171977078	200 51 0.900000 0.061000 0.055000 1300 44 1.000000 2.330000 2.446000 600 57 1.000000 0.052000 0.052000 1.200000 0.025000 0.030000
1517220770682838120	200 51 0.900000 0.061000 0.055000 1300 44 1.000000 2.323000 2.439000 600 57 1.000000 0.052000 0.052000 1.200000 0.025000 0.030000
1517220771192319787	200 51 0.900000 0.061000 0.055000 1300 44 1.000000 2.385000 2.504000 600 57 1.000000 0.053000 0.053000 1.200000 0.027000 0.032000
1517220771703398662	200 51 0.900000 0.062000 0.056000 1300 44 1.000000 2.298000 2.412000 600 57 1.000000 0.052000 0.052000 1.200000 0.029000 0.035000
1517220772214213745	200 51 0.900000 0.062000 0.056000 1300 44 1.000000 2.297000 2.411000 600 57 1.000000 0.053000 0.053000 1.200000 0.029000 0.035000
1517220772725147870	200 51 0.900000 0.061000 0.055000 1300 44 1.000000 2.298000 2.412000 600 57 1.000000 0.053000 0.053000 1.200000 0.027000 0.032000
1517220773235926662	200 51 0.900000 0.066000 0.060000 1300 44 1.000000 2.347000 2.464000 600 57 1.000000 0.053000 0.053000 1.200000 0.033000 0.039000
1517220773747179370	200 51 0.900000 0.060000 0.054000 1300 44 1.000000 2.298000 2.412000 600 57 1.000000 0.053000 0.053000 1.200000 0.028000 0.033000
1517220774271174954	200 51 0.900000 0.060000 0.054000 1300 44 1.000000 2.296000 2.410000 600 57 1.000000 0.053000 0.053000 1.200000 0.027000 0.032000
1517220774784691871	200 51 0.900000 0.060000 0.054000 1300 44 1.000000 2.296000 2.410000 600 57 1.000000 0.053000 0.053000 1.200000 0.028000 0.033000
1517220775295778996	200 51 0.900000 0.069000 0.062000 1300 44 1.000000 2.335000 2.451000 600 57 1.000000 0.053000 0.053000 1.200000 0.033000 0.039000
1517220775806819037	200 51 0.900000 0.060000 0.054000 1300 44 1.000000 2.296000 2.406000 600 57 1.000000 0.053000 0.053000 1.200000 0.027000 0.032000
1517220776317842204	200 51 0.900000 0.061000 0.055000 1300 44 1.000000 2.320000 2.436000 600 57 1.000000 0.053000 0.053000 1.200000 0.026000 0.031000
1517220776828685329	200 51 0.900000 0.061000 0.055000 1300 44 1.000000 2.313000 2.428000 600 57 1.000000 0.053000 0.053000 1.200000 0.026000 0.031000
1517220777337338663	200 51 0.900000 0.061000 0.055000 1300 44 1.000000 2.325000 2.441000 600 57 1.000000 0.053000 0.053000 1.200000 0.026000 0.031000
1517220777853382163	200 51 0.900000 0.067000 0.061000 1300 44 1.000000 2.322000 2.438000 600 57 1.000000 0.053000 0.053000 1.200000 0.038000 0.045000
1517220778364548038	200 51 0.900000 0.061000 0.055000 1300 44 1.000000 2.310000 2.425000 600 57 1.000000 0.053000 0.053000 1.200000 0.028000 0.033000
1517220778875922288	200 51 0.900000 0.061000 0.055000 1300 44 1.000000 2.296000 2.410000 600 57 1.000000 0.053000 0.053000 1.200000 0.028000 0.033000
1517220779384850954	200 51 0.900000 0.061000 0.055000 1300 44 1.000000 2.302000 2.417000 600 57 1.000000 0.052000 0.052000 1.200000 0.028000 0.033000
1517220779896417246	200 51 0.900000 0.068000 0.062000 1300 44 1.000000 2.298000 2.412000 600 57 1.000000 0.053000 0.053000 1.200000 0.038000 0.045000
1517220780407804038	200 51 0.900000 0.061000 0.055000 1300 44 1.000000 2.288000 2.402000 600 57 1.000000 0.053000 0.053000 1.200000 0.029000 0.035000
1517220780918804080	200 51 0.900000 0.060000 0.054000 1300 44 1.000000 2.288000 2.402000 600 57 1.000000 0.053000 0.053000 1.200000 0.029000 0.035000
1517220781430215413	200 51 0.900000 0.061000 0.055000 1300 44 1.000000 2.289000 2.403000 600 57 1.000000 0.053000 0.053000 1.200000 0.028000 0.033000
1517220781941777955	200 51 0.900000 0.065000 0.059000 1300 44 1.000000 2.333000 2.449000 600 57 1.000000 0.053000 0.053000 1.200000 0.034000 0.041000
1517220782453166413	200 51 0.900000 0.061000 0.055000 1300 44 1.000000 2.287000 2.401000 600 57 1.000000 0.053000 0.053000 1.200000 0.028000 0.033000
1517220782964269163	200 51 0.900000 0.061000 0.055000 1300 44 1.000000 2.286000 2.400000 600 57 1.000000 0.053000 0.053000 1.200000 0.027000 0.032000
1517220783475114497	200 51 0.900000 0.061000 0.055000 1300 44 1.000000 2.285000 2.399000 600 57 1.000000 0.053000 0.053000 1.200000 0.027000 0.032000
1517220783986463955	200 51 0.900000 0.063000 0.057000 1300 44 1.000000 2.328000 2.444000 600 57 1.000000 0.053000 0.053000 1.200000 0.033000 0.039000
1517220784497562497	200 51 0.900000 0.067000 0.061000 1300 44 1.000000 2.315000 2.430000 600 57 1.000000 0.052000 0.052000 1.200000 0.033000 0.039000
1517220785008928580	200 51 0.900000 0.061000 0.055000 1300 44 1.000000 2.313000 2.428000 600 57 1.000000 0.053000 0.053000 1.200000 0.028000 0.033000
1517220785519834205	200 51 0.900000 0.061000 0.055000 1300 44 1.000000 2.297000 2.411000 600 57 1.000000 0.052000 0.052000 1.200000 0.028000 0.033000
1517220786043351330	200 51 0.900000 0.061000 0.055000 1300 44 1.000000 2.293000 2.407000 600 57 1.000000 0.053000 0.053000 1.200000 0.028000 0.033000
1517220786556367789	200 51 0.900000 0.064000 0.058000 1300 44 1.000000 2.349000 2.466000 600 57 1.000000 0.053000 0.053000 1.200000 0.038000 0.045000
1517220787067640872	200 51 0.900000 0.061000 0.055000 1300 44 1.000000 2.315000 2.430000 600 57 1.000000 0.053000 0.053000 1.200000 0.029000 0.035000
1517220787578747455	200 51 0.900000 0.062000 0.056000 1300 44 1.000000 2.332000 2.448000 600 57 1.000000 0.053000 0.053000 1.200000 0.030000 0.036000
1517220788111533122	200 51 0.900000 0.061000 0.055000 1300 44 1.000000 2.338000 2.454000 600 57 1.000000 0.053000 0.053000 1.200000 0.028000 0.033000
1517220788625495706	200 51 0.900000 0.061000 0.055000 1300 44 1.000000 2.419000 2.539000 600 57 1.000000 0.053000 0.053000 1.200000 0.033000 0.039000
1517220789136620831	200 51 0.900000 0.061000 0.055000 1300 44 1.000000 2.349000 2.466000 600 57 1.000000 0.052000 0.052000 1.200000 0.028000 0.033000
1517220789648002956	200 51 0.900000 0.061000 0.055000 1300 44 1.000000 2.342000 2.459000 600 57 1.000000 0.053000 0.053000 1.200000 0.028000 0.033000
1517220790167600622	200 51 0.900000 0.061000 0.055000 1300 44 1.000000 2.343000 2.460000 600 57 1.000000 0.052000 0.052000 1.200000 0.028000 0.033000
1517220790689981706	200 51 0.900000 0.062000 0.056000 1300 44 1.000000 2.415000 2.535000 600 57 1.000000 0.053000 0.053000 1.200000 0.032000 0.038000
1517220791236467414	200 51 0.900000 0.061000 0.055000 1300 44 1.000000 2.345000 2.462000 600 57 1.000000 0.053000 0.053000 1.200000 0.028000 0.033000
1517220791762308956	200 51 0.900000 0.062000 0.056000 1300 44 1.000000 2.333000 2.449000 600 57 1.000000 0.052000 0.052000 1.200000 0.028000 0.033000
1517220792272591664	200 51 0.900000 0.061000 0.055000 1300 44 1.000000 2.349000 2.466000 600 57 1.000000 0.052000 0.052000 1.200000 0.027000 0.032000
1517220792800971081	200 51 0.900000 0.064000 0.058000 1300 44 1.000000 2.393000 2.512000 600 57 1.000000 0.053000 0.053000 1.200000 0.032000 0.038000
1517220793314527164	200 51 0.900000 0.061000 0.055000 1300 44 1.000000 2.359000 2.476000 600 58 1.000000 0.053000 0.053000 1.200000 0.026000 0.031000
1517220793825435081	200 51 0.900000 0.061000 0.055000 1300 44 1.000000 2.369000 2.487000 600 58 1.000000 0.053000 0.053000 1.200000 0.026000 0.031000
1517220794336216956	200 51 0.900000 0.061000 0.055000 1300 44 1.000000 2.367000 2.485000 600 57 1.000000 0.053000 0.053000 1.200000 0.026000 0.031000
1517220794847378540	200 51 0.900000 0.066000 0.060000 1300 44 1.000000 2.382000 2.501000 600 58 1.000000 0.053000 0.053000 1.200000 0.037000 0.044000
1517220795358193206	200 51 0.900000 0.061000 0.055000 1300 44 1.000000 2.317000 2.432000 600 58 1.000000 0.053000 0.053000 1.200000 0.026000 0.031000
1517220795869485540	200 51 0.900000 0.061000 0.055000 1300 44 1.000000 2.318000 2.433000 600 57 1.000000 0.053000 0.053000 1.200000 0.026000 0.031000
1517220796380207331	200 51 0.900000 0.061000 0.055000 1300 44 1.000000 2.318000 2.433000 600 57 1.000000 0.053000 0.053000 1.200000 0.026000 0.031000
1517220796891055998	200 51 0.900000 0.061000 0.055000 1300 44 1.000000 2.339000 2.455000 600 57 1.000000 0.053000 0.053000 1.200000 0.027000 0.032000
1517220797402005290	200 51 0.900000 0.062000 0.056000 1300 44 1.000000 2.392000 2.511000 600 58 1.000000 0.053000 0.053000 1.200000 0.028000 0.033000
1517220797913145873	200 51 0.900000 0.061000 0.055000 1300 44 1.000000 2.341000 2.458000 600 58 1.000000 0.053000 0.053000 1.200000 0.028000 0.033000
1517220798423947665	200 51 0.900000 0.061000 0.055000 1300 44 1.000000 2.336000 2.448000 600 58 1.000000 0.052000 0.052000 1.200000 0.027000 0.032000
1517220798932177040	200 51 0.900000 0.061000 0.055000 1300 44 1.000000 2.344000 2.461000 600 58 1.000000 0.053000 0.053000 1.200000 0.027000 0.032000
1517220799443066707	200 51 0.900000 0.063000 0.057000 1300 44 1.000000 2.352000 2.469000 600 58 1.000000 0.053000 0.053000 1.200000 0.029000 0.035000
1517220799953714165	200 51 0.900000 0.061000 0.055000 1300 44 1.000000 2.345000 2.462000 600 57 1.000000 0.053000 0.053000 1.200000 0.026000 0.031000
1517220800464447082	200 51 0.900000 0.060000 0.054000 1300 44 1.000000 2.334000 2.450000 600 57 1.000000 0.053000 0.053000 1.200000 0.026000 0.031000
1517220800975338749	200 51 0.900000 0.061000 0.055000 1300 44 1.000000 2.328000 2.444000 600 57 1.000000 0.053000 0.053000 1.200000 0.026000 0.031000
1517220801491976040	200 51 0.900000 0.066000 0.060000 1300 44 1.000000 2.370000 2.488000 600 58 1.000000 0.052000 0.052000 1.200000 0.032000 0.038000
1517220802005279582	200 51 0.900000 0.061000 0.055000 1300 44 1.000000 2.313000 2.428000 600 58 1.000000 0.053000 0.053000 1.200000 0.026000 0.031000
1517220802516137499	200 51 0.900000 0.060000 0.054000 1300 44 1.000000 2.313000 2.428000 600 57 1.000000 0.053000 0.053000 1.200000 0.026000 0.031000
1517220803026900291	200 51 0.900000 0.061000 0.055000 1300 44 1.000000 2.315000 2.430000 600 57 1.000000 0.053000 0.053000 1.200000 0.026000 0.031000
1517220803538118874	200 51 0.900000 0.068000 0.062000 1300 44 1.000000 2.355000 2.468000 600 58 1.000000 0.053000 0.053000 1.200000 0.035000 0.042000
1517220804049244499	200 51 0.900000 0.061000 0.055000 1300 44 1.000000 2.316000 2.431000 600 57 1.000000 0.053000 0.053000 1.200000 0.026000 0.031000
1517220804560132749	200 51 0.900000 0.061000 0.055000 1300 44 1.000000 2.317000 2.432000 600 58 1.000000 0.053000 0.053000 1.200000 0.026000 0.031000
1517220805070968999	200 51 0.900000 0.061000 0.055000 1300 44 1.000000 2.345000 2.462000 600 57 1.000000 0.053000 0.053000 1.200000 0.028000 0.033000
1517220805581911958	200 51 0.900000 0.061000 0.055000 1300 44 1.000000 2.340000 2.457000 600 58 1.000000 0.053000 0.053000 1.200000 0.027000 0.032000
1517220806093022374	200 51 0.900000 0.061000 0.055000 1300 44 1.000000 2.380000 2.499000 600 58 1.000000 0.053000 0.053000 1.200000 0.027000 0.032000
1517220806603922333	200 51 0.900000 0.061000 0.055000 1300 44 1.000000 2.340000 2.457000 600 58 1.000000 0.053000 0.053000 1.200000 0.026000 0.031000
1517220807114922749	200 51 0.900000 0.061000 0.055000 1300 44 1.000000 2.339000 2.455000 600 58 1.000000 0.053000 0.053000 1.200000 0.026000 0.031000
1517220807623145499	200 51 0.900000 0.061000 0.055000 1300 44 1.000000 2.335000 2.451000 600 57 1.000000 0.053000 0.053000 1.200000 0.026000 0.031000
1517220808134246125	200 51 0.900000 0.066000 0.060000 1300 44 1.000000 2.363000 2.481000 600 58 1.000000 0.053000 0.053000 1.200000 0.026000 0.031000
1517220808645338541	200 51 0.900000 0.061000 0.055000 1300 44 1.000000 2.317000 2.432000 600 57 1.000000 0.053000 0.053000 1.200000 0.026000 0.031000
1517220809155947083	200 51 0.900000 0.061000 0.055000 1300 44 1.000000 2.292000 2.406000 600 57 1.000000 0.053000 0.053000 1.200000 0.026000 0.031000
1517220809666992041	200 51 0.900000 0.061000 0.055000 1300 44 1.000000 2.293000 2.403000 600 57 1.000000 0.053000 0.053000 1.200000 0.026000 0.031000
1517220810178016208	200 51 0.900000 0.061000 0.055000 1300 44 1.000000 2.304000 2.419000 600 57 1.000000 0.053000 0.053000 1.200000 0.026000 0.031000
1517220810688675667	200 51 0.900000 0.061000 0.055000 1300 44 1.000000 2.292000 2.406000 600 57 1.000000 0.053000 0.053000 1.200000 0.026000 0.031000
1517220811199808042	200 51 0.900000 0.061000 0.055000 1300 44 1.000000 2.280000 2.394000 600 57 1.000000 0.053000 0.053000 1.200000 0.028000 0.033000
1517220811710513208	200 51 0.900000 0.061000 0.055000 1300 44 1.000000 2.281000 2.395000 600 57 1.000000 0.053000 0.053000 1.200000 0.028000 0.033000
1517220812220164625	200 51 0.900000 0.061000 0.055000 1300 44 1.000000 2.326000 2.442000 600 57 1.000000 0.052000 0.052000 1.200000 0.038000 0.045000
1517220812731114500	200 51 0.900000 0.061000 0.055000 1300 44 1.000000 2.304000 2.419000 600 57 1.000000 0.053000 0.053000 1.200000 0.027000 0.032000
1517220813242168333	200 51 0.900000 0.062000 0.056000 1300 44 1.000000 2.304000 2.419000 600 57 1.000000 0.053000 0.053000 1.200000 0.028000 0.033000
1517220813752853334	200 51 0.900000 0.061000 0.055000 1300 44 1.000000 2.295000 2.409000 600 57 1.000000 0.053000 0.053000 1.200000 0.027000 0.032000
1517220814263856209	200 51 0.900000 0.061000 0.055000 1300 44 1.000000 2.340000 2.457000 600 57 1.000000 0.053000 0.053000 1.200000 0.027000 0.032000
1517220814774726584	200 51 0.900000 0.062000 0.056000 1300 44 1.000000 2.300000 2.415000 600 57 1.000000 0.053000 0.053000 1.200000 0.030000 0.036000
1517220815285590292	200 51 0.900000 0.061000 0.055000 1300 44 1.000000 2.288000 2.402000 600 57 1.000000 0.052000 0.052000 1.200000 0.028000 0.033000
1517220815796524917	200 51 0.900000 0.061000 0.055000 1300 44 1.000000 2.285000 2.399000 600 57 1.000000 0.053000 0.053000 1.200000 0.028000 0.033000
1517220816307544417	200 51 0.900000 0.061000 0.055000 1300 44 1.000000 2.283000 2.397000 600 57 1.000000 0.052000 0.052000 1.200000 0.027000 0.032000
1517220816818630334	200 51 0.900000 0.061000 0.055000 1300 44 1.000000 2.302000 2.417000 600 57 1.000000 0.053000 0.053000 1.200000 0.033000 0.039000
1517220817329532959	200 51 0.900000 0.061000 0.055000 1300 44 1.000000 2.293000 2.407000 600 57 1.000000 0.053000 0.053000 1.200000 0.028000 0.033000
1517220817840399959	200 51 0.900000 0.060000 0.054000 1300 44 1.000000 2.292000 2.406000 600 57 1.000000 0.053000 0.053000 1.200000 0.028000 0.033000
1517220818348833709	200 51 0.900000 0.061000 0.055000 1300 44 1.000000 2.302000 2.417000 600 57 1.000000 0.053000 0.053000 1.200000 0.028000 0.033000
1517220818859825834	200 51 0.900000 0.061000 0.055000 1300 44 1.000000 2.312000 2.427000 600 57 1.000000 0.052000 0.052000 1.200000 0.034000 0.041000
1517220819386390084	200 51 0.900000 0.061000 0.055000 1300 44 1.000000 2.312000 2.427000 600 57 1.000000 0.053000 0.053000 1.200000 0.027000 0.032000
1517220819899849126	200 51 0.900000 0.061000 0.055000 1300 44 1.000000 2.311000 2.426000 600 57 1.000000 0.053000 0.053000 1.200000 0.028000 0.033000
1517220820410662918	200 51 0.900000 0.061000 0.055000 1300 44 1.000000 2.310000 2.425000 600 57 1.000000 0.053000 0.053000 1.200000 0.026000 0.031000
1517220820921810751	200 51 0.900000 0.067000 0.061000 1300 44 1.000000 2.338000 2.454000 600 58 1.000000 0.053000 0.053000 1.200000 0.035000 0.042000
1517220821432558334	200 51 0.900000 0.061000 0.055000 1300 44 1.000000 2.330000 2.446000 600 57 1.000000 0.053000 0.053000 1.200000 0.028000 0.033000
1517220821943716751	200 51 0.900000 0.061000 0.055000 1300 44 1.000000 2.329000 2.445000 600 57 1.000000 0.053000 0.053000 1.200000 0.028000 0.033000
1517220822454799793	200 51 0.900000 0.061000 0.055000 1300 44 1.000000 2.328000 2.444000 600 57 1.000000 0.053000 0.053000 1.200000 0.028000 0.033000
1517220822965880626	200 51 0.900000 0.061000 0.055000 1300 44 1.000000 2.336000 2.452000 600 57 1.000000 0.053000 0.053000 1.200000 0.028000 0.033000
1517220823477068001	200 51 0.900000 0.061000 0.055000 1300 44 1.000000 2.351000 2.468000 600 57 1.000000 0.053000 0.053000 1.200000 0.029000 0.035000
1517220823988181626	200 51 0.900000 0.061000 0.055000 1300 44 1.000000 2.339000 2.455000 600 57 1.000000 0.053000 0.053000 1.200000 0.027000 0.032000
1517220824498733585	200 51 0.900000 0.061000 0.055000 1300 44 1.000000 2.336000 2.452000 600 57 1.000000 0.052000 0.052000 1.200000 0.028000 0.033000
1517220825020363460	200 51 0.900000 0.061000 0.055000 1300 44 1.000000 2.329000 2.445000 600 57 1.000000 0.053000 0.053000 1.200000 0.028000 0.033000
1517220825533486502	200 51 0.900000 0.061000 0.055000 1300 44 1.000000 2.373000 2.491000 600 57 1.000000 0.053000 0.053000 1.200000 0.032000 0.038000
1517220826044381752	200 51 0.900000 0.061000 0.055000 1300 44 1.000000 2.337000 2.453000 600 57 1.000000 0.053000 0.053000 1.200000 0.027000 0.032000
1517220826555319002	200 51 0.900000 0.061000 0.055000 1300 44 1.000000 2.327000 2.443000 600 57 1.000000 0.052000 0.052000 1.200000 0.027000 0.032000
1517220827084967877	200 51 0.900000 0.061000 0.055000 1300 44 1.000000 2.322000 2.438000 600 57 1.000000 0.053000 0.053000 1.200000 0.027000 0.032000
1517220827617547919	200 51 0.900000 0.061000 0.055000 1300 44 1.000000 2.393000 2.512000 600 57 1.000000 0.052000 0.052000 1.200000 0.028000 0.033000
1517220828130869252	200 51 0.900000 0.063000 0.057000 1300 44 1.000000 2.330000 2.446000 600 57 1.000000 0.053000 0.053000 1.200000 0.027000 0.032000
1517220828641499002	200 51 0.900000 0.061000 0.055000 1300 44 1.000000 2.320000 2.436000 600 57 1.000000 0.053000 0.053000 1.200000 0.026000 0.031000
1517220829149617377	200 51 0.900000 0.060000 0.054000 1300 44 1.000000 2.321000 2.437000 600 57 1.000000 0.053000 0.053000 1.200000 0.026000 0.031000
1517220829660499752	200 51 0.900000 0.061000 0.055000 1300 44 1.000000 2.350000 2.467000 600 57 1.000000 0.053000 0.053000 1.200000 0.030000 0.036000
1517220830171347294	200 51 0.900000 0.061000 0.055000 1300 44 1.000000 2.304000 2.419000 600 57 1.000000 0.053000 0.053000 1.200000 0.026000 0.031000
1517220830695023711	200 51 0.900000 0.060000 0.054000 1300 44 1.000000 2.304000 2.419000 600 57 1.000000 0.053000 0.053000 1.200000 0.026000 0.031000
1517220831208078377	200 51 0.900000 0.061000 0.055000 1300 44 1.000000 2.302000 2.417000 600 57 1.000000 0.053000 0.053000 1.200000 0.026000 0.031000
1517220831718951294	200 51 0.900000 0.062000 0.056000 1300 44 1.000000 2.325000 2.441000 600 57 1.000000 0.053000 0.053000 1.200000 0.034000 0.041000
1517220832229949544	200 51 0.900000 0.061000 0.055000 1300 44 1.000000 2.333000 2.449000 600 57 1.000000 0.053000 0.053000 1.200000 0.028000 0.033000
1517220832740974211	200 51 0.900000 0.061000 0.055000 1300 44 1.000000 2.322000 2.438000 600 57 1.000000 0.052000 0.052000 1.200000 0.027000 0.032000
1517220833252026211	200 51 0.900000 0.061000 0.055000 1300 44 1.000000 2.315000 2.430000 600 57 1.000000 0.052000 0.052000 1.200000 0.027000 0.032000
1517220833763262419	200 51 0.900000 0.061000 0.055000 1300 44 1.000000 2.319000 2.434000 600 57 1.000000 0.053000 0.053000 1.200000 0.033000 0.039000
1517220834287056419	200 51 0.900000 0.061000 0.055000 1300 44 1.000000 2.323000 2.439000 600 57 1.000000 0.053000 0.053000 1.200000 0.027000 0.032000
1517220834800185836	200 51 0.900000 0.062000 0.056000 1300 44 1.000000 2.309000 2.424000 600 57 1.000000 0.053000 0.053000 1.200000 0.028000 0.033000
1517220835310598086	200 51 0.900000 0.061000 0.055000 1300 44 1.000000 2.299000 2.413000 600 57 1.000000 0.053000 0.053000 1.200000 0.026000 0.031000
1517220835821727753	200 51 0.900000 0.062000 0.056000 1300 44 1.000000 2.324000 2.440000 600 57 1.000000 0.053000 0.053000 1.200000 0.032000 0.038000
1517220836332679753	200 51 0.900000 0.061000 0.055000 1300 44 1.000000 2.297000 2.411000 600 57 1.000000 0.053000 0.053000 1.200000 0.026000 0.031000
1517220836843627045	200 51 0.900000 0.061000 0.055000 1300 44 1.000000 2.298000 2.412000 600 57 1.000000 0.053000 0.053000 1.200000 0.026000 0.031000
1517220837354360420	200 51 0.900000 0.061000 0.055000 1300 44 1.000000 2.298000 2.412000 600 57 1.000000 0.052000 0.052000 1.200000 0.026000 0.031000
1517220837881857128	200 51 0.900000 0.063000 0.057000 1300 44 1.000000 2.289000 2.403000 600 57 1.000000 0.052000 0.052000 1.200000 0.026000 0.031000
1517220838395461628	200 51 0.900000 0.061000 0.055000 1300 44 1.000000 2.288000 2.397000 600 57 1.000000 0.053000 0.053000 1.200000 0.026000 0.031000
1517220838906059503	200 51 0.900000 0.061000 0.055000 1300 44 1.000000 2.287000 2.401000 600 57 1.000000 0.053000 0.053000 1.200000 0.026000 0.031000
1517220839417076920	200 51 0.900000 0.061000 0.055000 1300 44 1.000000 2.288000 2.402000 600 57 1.000000 0.052000 0.052000 1.200000 0.026000 0.031000
1517220839925753212	200 51 0.900000 0.061000 0.055000 1300 44 1.000000 2.296000 2.410000 600 57 1.000000 0.053000 0.053000 1.200000 0.027000 0.032000
1517220840437208045	200 51 0.900000 0.063000 0.057000 1300 44 1.000000 2.307000 2.422000 600 57 1.000000 0.053000 0.053000 1.200000 0.027000 0.032000
1517220840948070878	200 51 0.900000 0.061000 0.055000 1300 44 1.000000 2.325000 2.441000 600 57 1.000000 0.053000 0.053000 1.200000 0.027000 0.032000
1517220841458825920	200 51 0.900000 0.061000 0.055000 1300 44 1.000000 2.326000 2.442000 600 57 1.000000 0.053000 0.053000 1.200000 0.027000 0.032000
1517220841969728712	200 51 0.900000 0.061000 0.055000 1300 44 1.000000 2.312000 2.427000 600 57 1.000000 0.053000 0.053000 1.200000 0.026000 0.031000
1517220842480937545	200 51 0.900000 0.065000 0.059000 1300 44 1.000000 2.308000 2.423000 600 57 1.000000 0.053000 0.053000 1.200000 0.034000 0.041000
1517220842992046587	200 51 0.900000 0.061000 0.055000 1300 44 1.000000 2.302000 2.417000 600 57 1.000000 0.052000 0.052000 1.200000 0.026000 0.031000
1517220843502818254	200 51 0.900000 0.061000 0.055000 1300 44 1.000000 2.304000 2.419000 600 57 1.000000 0.053000 0.053000 1.200000 0.026000 0.031000
1517220844013648587	200 51 0.900000 0.061000 0.055000 1300 44 1.000000 2.300000 2.415000 600 57 1.000000 0.052000 0.052000 1.200000 0.026000 0.031000
1517220844524939546	200 51 0.900000 0.066000 0.060000 1300 44 1.000000 2.329000 2.445000 600 57 1.000000 0.053000 0.053000 1.200000 0.033000 0.039000
1517220845035988629	200 51 0.900000 0.061000 0.055000 1300 44 1.000000 2.292000 2.406000 600 57 1.000000 0.053000 0.053000 1.200000 0.026000 0.031000
1517220845546985587	200 51 0.900000 0.061000 0.055000 1300 44 1.000000 2.290000 2.404000 600 57 1.000000 0.053000 0.053000 1.200000 0.026000 0.031000
1517220846057616796	200 51 0.900000 0.061000 0.055000 1300 44 1.000000 2.291000 2.405000 600 57 1.000000 0.053000 0.053000 1.200000 0.026000 0.031000
1517220846567062754	200 51 0.900000 0.061000 0.055000 1300 44 1.000000 2.291000 2.405000 600 57 1.000000 0.053000 0.053000 1.200000 0.029000 0.035000
1517220847078242296	200 51 0.900000 0.061000 0.055000 1300 44 1.000000 2.292000 2.406000 600 57 1.000000 0.053000 0.053000 1.200000 0.027000 0.032000
1517220847589470588	200 51 0.900000 0.061000 0.055000 1300 44 1.000000 2.305000 2.420000 600 57 1.000000 0.053000 0.053000 1.200000 0.028000 0.033000
1517220848100191796	200 51 0.900000 0.060000 0.054000 1300 44 1.000000 2.314000 2.429000 600 57 1.000000 0.053000 0.053000 1.200000 0.027000 0.032000
1517220848630650129	200 51 0.900000 0.061000 0.055000 1300 44 1.000000 2.325000 2.441000 600 57 1.000000 0.053000 0.053000 1.200000 0.027000 0.032000
1517220849145843796	200 51 0.900000 0.061000 0.055000 1300 44 1.000000 2.319000 2.434000 600 57 1.000000 0.053000 0.053000 1.200000 0.028000 0.033000
1517220849657273421	200 51 0.900000 0.061000 0.055000 1300 44 1.000000 2.317000 2.432000 600 57 1.000000 0.053000 0.053000 1.200000 0.027000 0.032000
1517220850168200963	200 51 0.900000 0.061000 0.055000 1300 44 1.000000 2.327000 2.443000 600 57 1.000000 0.053000 0.053000 1.200000 0.027000 0.032000
1517220850696914963	200 51 0.900000 0.061000 0.055000 1300 44 1.000000 2.348000 2.465000 600 57 1.000000 0.053000 0.053000 1.200000 0.026000 0.031000
1517220851212508046	200 51 0.900000 0.061000 0.055000 1300 44 1.000000 2.424000 2.545000 600 57 1.000000 0.052000 0.052000 1.200000 0.032000 0.038000
1517220851723678255	200 51 0.900000 0.061000 0.055000 1300 44 1.000000 2.352000 2.469000 600 57 1.000000 0.053000 0.053000 1.200000 0.029000 0.035000
1517220852234802963	200 51 0.900000 0.061000 0.055000 1300 44 1.000000 2.347000 2.464000 600 57 1.000000 0.053000 0.053000 1.200000 0.028000 0.033000
1517220852747321797	200 51 0.900000 0.061000 0.055000 1300 44 1.000000 2.338000 2.454000 600 58 1.000000 0.053000 0.053000 1.200000 0.028000 0.033000
1517220853258910922	200 51 0.900000 0.066000 0.060000 1300 44 1.000000 2.387000 2.506000 600 58 1.000000 0.052000 0.052000 1.200000 0.032000 0.038000
1517220853770098963	200 51 0.900000 0.061000 0.055000 1300 44 1.000000 2.341000 2.458000 600 57 1.000000 0.053000 0.053000 1.200000 0.028000 0.033000
1517220854281265130	200 51 0.900000 0.061000 0.055000 1300 44 1.000000 2.339000 2.455000 600 58 1.000000 0.053000 0.053000 1.200000 0.027000 0.032000
1517220854792215755	200 51 0.900000 0.061000 0.055000 1300 44 1.000000 2.345000 2.462000 600 58 1.000000 0.052000 0.052000 1.200000 0.028000 0.033000
1517220855303152380	200 51 0.900000 0.068000 0.062000 1300 44 1.000000 2.370000 2.488000 600 58 1.000000 0.053000 0.053000 1.200000 0.032000 0.038000
1517220855814176839	200 51 0.900000 0.061000 0.055000 1300 44 1.000000 2.332000 2.448000 600 58 1.000000 0.052000 0.052000 1.200000 0.027000 0.032000
1517220856325136005	200 51 0.900000 0.061000 0.055000 1300 44 1.000000 2.331000 2.447000 600 58 1.000000 0.053000 0.053000 1.200000 0.026000 0.031000
1517220856836111964	200 51 0.900000 0.061000 0.055000 1300 44 1.000000 2.336000 2.452000 600 57 1.000000 0.052000 0.052000 1.200000 0.027000 0.032000
1517220857347150714	200 51 0.900000 0.061000 0.055000 1300 44 1.000000 2.406000 2.526000 600 58 1.000000 0.053000 0.053000 1.200000 0.027000 0.032000
1517220857871204505	200 51 0.900000 0.061000 0.055000 1300 44 1.000000 2.320000 2.436000 600 57 1.000000 0.053000 0.053000 1.200000 0.026000 0.031000
1517220858384600339	200 51 0.900000 0.061000 0.055000 1300 44 1.000000 2.298000 2.408000 600 57 1.000000 0.053000 0.053000 1.200000 0.026000 0.031000
1517220858895962297	200 51 0.900000 0.061000 0.055000 1300 44 1.000000 2.288000 2.402000 600 57 1.000000 0.053000 0.053000 1.200000 0.027000 0.032000
1517220859407167464	200 51 0.900000 0.061000 0.055000 1300 44 1.000000 2.298000 2.408000 600 57 1.000000 0.053000 0.053000 1.200000 0.028000 0.033000
1517220859918526297	200 51 0.900000 0.064000 0.058000 1300 44 1.000000 2.348000 2.465000 600 57 1.000000 0.053000 0.053000 1.200000 0.034000 0.041000
1517220860429461381	200 51 0.900000 0.061000 0.055000 1300 44 1.000000 2.308000 2.418000 600 57 1.000000 0.053000 0.053000 1.200000 0.028000 0.033000
1517220860940392339	200 51 0.900000 0.061000 0.055000 1300 44 1.000000 2.311000 2.426000 600 57 1.000000 0.052000 0.052000 1.200000 0.027000 0.032000
1517220861449300881	200 51 0.900000 0.061000 0.055000 1300 44 1.000000 2.304000 2.414000 600 57 1.000000 0.053000 0.053000 1.200000 0.027000 0.032000
1517220861960368214	200 51 0.900000 0.066000 0.060000 1300 44 1.000000 2.337000 2.453000 600 57 1.000000 0.053000 0.053000 1.200000 0.037000 0.044000
1517220862470905964	200 51 0.900000 0.060000 0.054000 1300 44 1.000000 2.296000 2.410000 600 57 1.000000 0.053000 0.053000 1.200000 0.027000 0.032000
1517220862981959256	200 51 0.900000 0.061000 0.055000 1300 44 1.000000 2.294000 2.404000 600 57 1.000000 0.053000 0.053000 1.200000 0.026000 0.031000
1517220863493276464	200 51 0.900000 0.060000 0.054000 1300 44 1.000000 2.295000 2.409000 600 57 1.000000 0.053000 0.053000 1.200000 0.026000 0.031000
1517220864004626756	200 51 0.900000 0.065000 0.059000 1300 44 1.000000 2.300000 2.415000 600 57 1.000000 0.052000 0.052000 1.200000 0.035000 0.042000
1517220864515624715	200 51 0.900000 0.061000 0.055000 1300 44 1.000000 2.295000 2.405000 600 57 1.000000 0.053000 0.053000 1.200000 0.027000 0.032000
1517220865026645215	200 51 0.900000 0.061000 0.055000 1300 44 1.000000 2.301000 2.411000 600 57 1.000000 0.053000 0.053000 1.200000 0.026000 0.031000
1517220865537640090	200 51 0.900000 0.061000 0.055000 1300 44 1.000000 2.303000 2.413000 600 57 1.000000 0.053000 0.053000 1.200000 0.026000 0.031000
1517220866048509631	200 51 0.900000 0.066000 0.060000 1300 44 1.000000 2.332000 2.448000 600 57 1.000000 0.053000 0.053000 1.200000 0.035000 0.042000
1517220866559702965	200 51 0.900000 0.061000 0.055000 1300 44 1.000000 2.296000 2.410000 600 57 1.000000 0.053000 0.053000 1.200000 0.026000 0.031000
1517220867070420257	200 51 0.900000 0.061000 0.055000 1300 44 1.000000 2.324000 2.440000 600 57 1.000000 0.053000 0.053000 1.200000 0.028000 0.033000
1517220867581358632	200 51 0.900000 0.061000 0.055000 1300 44 1.000000 2.322000 2.438000 600 57 1.000000 0.053000 0.053000 1.200000 0.027000 0.032000
1517220868092747340	200 51 0.900000 0.061000 0.055000 1300 44 1.000000 2.321000 2.437000 600 57 1.000000 0.053000 0.053000 1.200000 0.028000 0.033000
1517220868603905965	200 51 0.900000 0.061000 0.055000 1300 44 1.000000 2.355000 2.472000 600 57 1.000000 0.052000 0.052000 1.200000 0.033000 0.039000
1517220869114711798	200 51 0.900000 0.061000 0.055000 1300 44 1.000000 2.316000 2.431000 600 57 1.000000 0.053000 0.053000 1.200000 0.027000 0.032000
1517220869625822174	200 51 0.900000 0.061000 0.055000 1300 44 1.000000 2.309000 2.424000 600 57 1.000000 0.053000 0.053000 1.200000 0.027000 0.032000
1517220870134521882	200 51 0.900000 0.061000 0.055000 1300 44 1.000000 2.307000 2.422000 600 57 1.000000 0.053000 0.053000 1.200000 0.026000 0.031000
1517220870645804215	200 51 0.900000 0.067000 0.061000 1300 44 1.000000 2.339000 2.455000 600 57 1.000000 0.053000 0.053000 1.200000 0.036000 0.043000
1517220871156718757	200 51 0.900000 0.061000 0.055000 1300 44 1.000000 2.303000 2.418000 600 57 1.000000 0.053000 0.053000 1.200000 0.027000 0.032000
1517220871667476299	200 51 0.900000 0.061000 0.055000 1300 44 1.000000 2.303000 2.418000 600 57 1.000000 0.052000 0.052000 1.200000 0.026000 0.031000
1517220872178210966	200 51 0.900000 0.061000 0.055000 1300 44 1.000000 2.301000 2.416000 600 57 1.000000 0.053000 0.053000 1.200000 0.026000 0.031000
1517220872689490299	200 51 0.900000 0.066000 0.060000 1300 44 1.000000 2.341000 2.458000 600 57 1.000000 0.053000 0.053000 1.200000 0.035000 0.042000
1517220873200681507	200 51 0.900000 0.061000 0.055000 1300 44 1.000000 2.293000 2.407000 600 57 1.000000 0.053000 0.053000 1.200000 0.026000 0.031000
1517220873711720341	200 51 0.900000 0.061000 0.055000 1300 44 1.000000 2.294000 2.408000 600 57 1.000000 0.053000 0.053000 1.200000 0.026000 0.031000
1517220874222205466	200 50 0.900000 0.061000 0.055000 1300 44 1.000000 1.635000 1.710000 600 56 1.000000 0.053000 0.053000 1.200000 0.027000 0.032000
1517220874733591382	200 49 0.900000 0.060000 0.054000 1300 43 1.000000 1.664000 1.740000 600 55 1.000000 0.053000 0.053000 1.200000 0.027000 0.032000
1517220875244105424	200 49 0.900000 0.061000 0.055000 1300 43 1.000000 1.667000 1.743000 600 55 1.000000 0.053000 0.053000 1.200000 0.029000 0.035000
1517220875754932508	200 49 0.900000 0.060000 0.054000 1300 43 1.000000 1.656000 1.732000 600 55 1.000000 0.052000 0.052000 1.200000 0.027000 0.032000
1517220876266224174	200 48 0.900000 0.060000 0.054000 1300 43 1.000000 1.640000 1.715000 600 54 1.000000 0.052000 0.052000 1.200000 0.026000 0.031000
1517220876774349549	200 48 0.900000 0.061000 0.055000 1300 42 1.000000 1.639000 1.714000 600 54 1.000000 0.052000 0.052000 1.200000 0.027000 0.032000
1517220877285670841	200 48 0.900000 0.066000 0.060000 1300 42 1.000000 1.691000 1.768000 600 54 1.000000 0.052000 0.052000 1.200000 0.032000 0.038000
1517220877796675508	200 48 0.900000 0.060000 0.054000 1300 42 1.000000 1.638000 1.713000 600 54 1.000000 0.052000 0.052000 1.200000 0.027000 0.032000
1517220878307574008	200 45 0.900000 0.060000 0.054000 1300 42 1.000000 1.636000 1.711000 600 54 1.000000 0.052000 0.052000 1.200000 0.026000 0.031000
1517220878818161425	200 42 0.900000 0.060000 0.054000 1300 41 1.000000 0.950000 0.990000 600 53 1.000000 0.052000 0.052000 1.200000 0.026000 0.031000
1517220879329448008	200 42 0.900000 0.068000 0.062000 1300 40 1.000000 0.995000 1.036000 600 53 1.000000 0.052000 0.052000 1.200000 0.034000 0.041000
1517220879840251425	200 41 0.900000 0.059000 0.053000 1300 40 1.000000 0.938000 0.977000 600 52 1.000000 0.052000 0.052000 1.200000 0.026000 0.031000
1517220880350911841	200 41 0.900000 0.059000 0.053000 1300 39 1.000000 0.935000 0.974000 600 52 1.000000 0.052000 0.052000 1.200000 0.026000 0.031000
1517220880861725758	200 40 0.900000 0.060000 0.054000 1300 39 1.000000 0.938000 0.977000 600 47 1.000000 0.052000 0.052000 1.200000 0.026000 0.031000
1517220881372583383	200 39 0.900000 0.066000 0.060000 1300 39 1.000000 0.231000 0.242000 600 44 1.000000 0.052000 0.052000 1.200000 0.037000 0.044000
1517220881883410508	200 39 0.900000 0.059000 0.053000 1300 38 1.000000 0.163000 0.171000 600 43 1.000000 0.052000 0.052000 1.200000 0.026000 0.031000
1517220882393852092	200 38 0.900000 0.059000 0.053000 1300 38 1.000000 0.180000 0.189000 600 43 1.000000 0.052000 0.052000 1.200000 0.027000 0.032000
1517220882905226633	200 38 0.900000 0.059000 0.053000 1300 37 1.000000 0.157000 0.165000 600 42 1.000000 0.051000 0.051000 1.200000 0.026000 0.031000
1517220883416003717	200 38 0.900000 0.059000 0.053000 1300 37 1.000000 0.168000 0.176000 600 42 1.000000 0.051000 0.051000 1.200000 0.026000 0.031000
1517220883926695634	200 37 0.900000 0.068000 0.062000 1300 37 1.000000 0.198000 0.208000 600 41 1.000000 0.051000 0.051000 1.200000 0.027000 0.032000
1517220884437305009	200 37 0.900000 0.059000 0.053000 1300 36 1.000000 0.164000 0.172000 600 41 1.000000 0.051000 0.051000 1.200000 0.026000 0.031000
1517220884948329134	200 37 0.900000 0.059000 0.053000 1300 36 1.000000 0.156000 0.163000 600 41 1.000000 0.051000 0.051000 1.200000 0.026000 0.031000
1517220885456386384	200 37 0.900000 0.059000 0.053000 1300 36 1.000000 0.166000 0.174000 600 40 1.000000 0.051000 0.051000 1.200000 0.025000 0.030000
1517220885967522009	200 37 0.900000 0.064000 0.058000 1300 36 1.000000 0.218000 0.228000 600 40 1.000000 0.051000 0.051000 1.200000 0.029000 0.035000
1517220886478141467	200 36 0.900000 0.046000 0.042000 1300 36 1.000000 0.150000 0.157000 600 40 1.000000 0.051000 0.051000 1.200000 0.025000 0.030000
1517220886988857342	200 36 0.900000 0.043000 0.039000 1300 35 1.000000 0.149000 0.156000 600 40 1.000000 0.051000 0.051000 1.200000 0.025000 0.030000
1517220887499378467	200 36 0.900000 0.043000 0.039000 1300 35 1.000000 0.147000 0.154000 600 40 1.000000 0.051000 0.051000 1.200000 0.025000 0.030000
1517220888010185509	200 36 0.900000 0.051000 0.046000 1300 35 1.000000 0.186000 0.195000 600 40 1.000000 0.051000 0.051000 1.200000 0.032000 0.038000
1517220888520928967	200 36 0.900000 0.038000 0.034000 1300 35 1.000000 0.163000 0.171000 600 40 1.000000 0.051000 0.051000 1.200000 0.025000 0.030000
1517220889031873801	200 36 0.900000 0.027000 0.024000 1300 35 1.000000 0.176000 0.184000 600 39 1.000000 0.051000 0.051000 1.200000 0.025000 0.030000
1517220889542540009	200 35 0.900000 0.027000 0.024000 1300 35 1.000000 0.174000 0.182000 600 39 1.000000 0.051000 0.051000 1.200000 0.025000 0.030000
1517220890053677718	200 35 0.900000 0.028000 0.025000 1300 35 1.000000 0.246000 0.258000 600 39 1.000000 0.051000 0.051000 1.200000 0.035000 0.042000
1517220890564491551	200 35 0.900000 0.034000 0.031000 1300 34 1.000000 0.185000 0.194000 600 39 1.000000 0.051000 0.051000 1.200000 0.025000 0.030000
1517220891075333426	200 35 0.900000 0.029000 0.026000 1300 34 1.000000 0.198000 0.208000 600 39 1.000000 0.051000 0.051000 1.200000 0.026000 0.031000
1517220891585805134	200 35 0.900000 0.013000 0.011000 1300 34 1.000000 0.162000 0.170000 600 39 1.000000 0.051000 0.051000 1.200000 0.026000 0.031000
