#Timestamp	CPU(0) Frequency(MHz)	CPU(0) Temperature(C)	A7 Voltage(V)	A7 Current(A)	A7 Power(W)	CPU(4) Frequency(MHz)	CPU(4) Temperature(C)	A15 Voltage(V)	A15 Current(A)	A15 Power(W)	GPU Frequency(MHz)	GPU Temperature(C)	GPU Voltage(V)	GPU Current(A)	GPU Power(W)	RAM Voltage(V)	RAM Current(A)	RAM Power(W)
1553298538549974869	200 38 0.900000 0.012000 0.010000 1500 32 1.000000 0.946000 1.033000 600 38 1.000000 0.050000 0.050000 1.200000 0.042000 0.050000
1553298539058942244	200 40 0.900000 0.015000 0.013000 1500 33 1.000000 1.155000 1.264000 600 39 1.000000 0.051000 0.051000 1.200000 0.041000 0.049000
1553298539567543203	200 41 0.900000 0.012000 0.010000 1500 34 1.000000 1.610000 1.764000 600 40 1.000000 0.051000 0.051000 1.200000 0.033000 0.039000
1553298540076619953	200 42 0.900000 0.012000 0.010000 1500 35 1.000000 1.618000 1.773000 600 41 1.000000 0.051000 0.051000 1.200000 0.029000 0.035000
1553298540585460328	200 42 0.900000 0.012000 0.010000 1500 35 1.000000 1.616000 1.771000 600 41 1.000000 0.051000 0.051000 1.200000 0.030000 0.036000
1553298541094034786	200 43 0.900000 0.017000 0.015000 1500 36 1.000000 1.866000 2.047000 600 42 1.000000 0.051000 0.051000 1.200000 0.037000 0.044000
1553298541602779703	200 43 0.900000 0.012000 0.010000 1500 36 1.000000 1.616000 1.771000 600 42 1.000000 0.051000 0.051000 1.200000 0.034000 0.041000
1553298542111858495	200 43 0.900000 0.014000 0.012000 1500 37 1.000000 1.721000 1.887000 600 42 1.000000 0.051000 0.051000 1.200000 0.031000 0.037000
1553298542620615036	200 44 0.900000 0.012000 0.010000 1500 37 1.000000 1.643000 1.800000 600 43 1.000000 0.051000 0.051000 1.200000 0.029000 0.035000
1553298543134403536	200 44 0.900000 0.013000 0.011000 1500 37 1.000000 1.639000 1.796000 600 44 1.000000 0.051000 0.051000 1.200000 0.031000 0.037000
1553298543642943078	200 44 0.900000 0.019000 0.017000 1500 37 1.000000 1.777000 1.949000 600 43 1.000000 0.051000 0.051000 1.200000 0.043000 0.051000
1553298544151843703	200 44 0.900000 0.013000 0.011000 1500 37 1.000000 1.659000 1.818000 600 43 1.000000 0.051000 0.051000 1.200000 0.034000 0.041000
1553298544660793786	200 44 0.900000 0.013000 0.011000 1500 38 1.000000 1.651000 1.809000 600 43 1.000000 0.051000 0.051000 1.200000 0.031000 0.037000
1553298545172637328	200 45 0.900000 0.012000 0.010000 1500 38 1.000000 1.635000 1.791000 600 43 1.000000 0.051000 0.051000 1.200000 0.032000 0.038000
1553298545680786328	200 45 0.900000 0.020000 0.018000 1500 38 1.000000 1.875000 2.056000 600 44 1.000000 0.051000 0.051000 1.200000 0.038000 0.045000
1553298546189571203	200 45 0.900000 0.013000 0.011000 1500 38 1.000000 1.625000 1.781000 600 44 1.000000 0.051000 0.051000 1.200000 0.035000 0.042000
1553298546698329370	200 45 0.900000 0.013000 0.011000 1500 38 1.000000 1.625000 1.781000 600 44 1.000000 0.051000 0.051000 1.200000 0.030000 0.036000
1553298547207830870	200 44 0.900000 0.013000 0.011000 1500 38 1.000000 1.183000 1.295000 600 43 1.000000 0.051000 0.051000 1.200000 0.033000 0.039000
1553298547716740745	200 44 0.900000 0.012000 0.010000 1500 38 1.000000 1.274000 1.395000 600 43 1.000000 0.051000 0.051000 1.200000 0.033000 0.039000
1553298548225883495	200 44 0.900000 0.013000 0.011000 1500 37 1.000000 1.102000 1.204000 600 42 1.000000 0.051000 0.051000 1.200000 0.034000 0.041000
1553298548735144037	200 44 0.900000 0.012000 0.010000 1500 37 1.000000 1.101000 1.203000 600 42 1.000000 0.051000 0.051000 1.200000 0.032000 0.038000
1553298549244594079	200 44 0.900000 0.012000 0.010000 1500 37 1.000000 1.104000 1.206000 600 42 1.000000 0.051000 0.051000 1.200000 0.031000 0.037000
1553298549784520370	200 43 0.900000 0.012000 0.010000 1500 37 1.000000 1.117000 1.220000 600 43 1.000000 0.051000 0.051000 1.200000 0.032000 0.038000
1553298550297183162	200 44 0.900000 0.024000 0.021000 1500 37 1.000000 1.380000 1.511000 600 42 1.000000 0.051000 0.051000 1.200000 0.049000 0.059000
1553298550805770662	200 44 0.900000 0.012000 0.010000 1500 37 1.000000 1.132000 1.237000 600 42 1.000000 0.051000 0.051000 1.200000 0.031000 0.037000
1553298551314315162	200 43 0.900000 0.012000 0.010000 1500 37 1.000000 1.128000 1.232000 600 42 1.000000 0.051000 0.051000 1.200000 0.030000 0.036000
1553298551823180746	200 40 0.900000 0.012000 0.010000 1500 37 1.000000 1.120000 1.224000 600 43 1.000000 0.051000 0.051000 1.200000 0.032000 0.038000
1553298552331952746	200 37 0.900000 0.021000 0.019000 1500 36 1.000000 0.575000 0.630000 600 41 1.000000 0.051000 0.051000 1.200000 0.041000 0.049000
