#Timestamp	CPU(0) Frequency(MHz)	CPU(0) Temperature(C)	A7 Voltage(V)	A7 Current(A)	A7 Power(W)	CPU(4) Frequency(MHz)	CPU(4) Temperature(C)	A15 Voltage(V)	A15 Current(A)	A15 Power(W)	GPU Frequency(MHz)	GPU Temperature(C)	GPU Voltage(V)	GPU Current(A)	GPU Power(W)	RAM Voltage(V)	RAM Current(A)	RAM Power(W)
1553306226668858494	200 37 0.900000 0.021000 0.019000 1200 33 1.000000 0.236000 0.241000 600 37 1.000000 0.051000 0.051000 1.200000 0.033000 0.039000
1553306227180891744	200 37 0.900000 0.011000 0.010000 1200 33 1.000000 0.750000 0.762000 600 37 1.000000 0.050000 0.050000 1.200000 0.039000 0.047000
1553306227704967827	200 39 0.900000 0.013000 0.011000 1200 34 1.000000 0.992000 1.008000 600 43 1.000000 0.050000 0.050000 1.200000 0.040000 0.048000
1553306228218571744	200 39 0.900000 0.047000 0.042000 1200 34 1.000000 1.708000 1.743000 600 44 1.000000 0.051000 0.051000 1.200000 0.040000 0.048000
1553306228730692078	200 40 0.900000 0.043000 0.039000 1200 35 1.000000 1.716000 1.752000 600 45 1.000000 0.051000 0.051000 1.200000 0.036000 0.043000
1553306229242517828	200 40 0.900000 0.038000 0.034000 1200 35 1.000000 1.689000 1.724000 600 45 1.000000 0.051000 0.051000 1.200000 0.032000 0.038000
1553306229753977161	200 41 0.900000 0.039000 0.035000 1200 35 1.000000 1.686000 1.721000 600 46 1.000000 0.051000 0.051000 1.200000 0.031000 0.037000
1553306230285616453	200 41 0.900000 0.038000 0.034000 1200 36 1.000000 1.694000 1.729000 600 46 1.000000 0.051000 0.051000 1.200000 0.032000 0.038000
1553306230800210161	200 41 0.900000 0.051000 0.046000 1200 36 1.000000 1.773000 1.810000 600 47 1.000000 0.051000 0.051000 1.200000 0.046000 0.055000
1553306231312004328	200 38 0.900000 0.038000 0.034000 1200 36 1.000000 1.696000 1.731000 600 43 1.000000 0.051000 0.051000 1.200000 0.032000 0.038000
1553306231823027161	200 36 0.900000 0.038000 0.034000 1200 35 1.000000 0.154000 0.158000 600 40 1.000000 0.051000 0.051000 1.200000 0.026000 0.031000
1553306232334094078	200 35 0.900000 0.038000 0.034000 1200 34 1.000000 0.156000 0.160000 600 39 1.000000 0.051000 0.051000 1.200000 0.025000 0.030000
1553306232846029745	200 35 0.900000 0.053000 0.048000 1200 34 1.000000 0.235000 0.240000 600 39 1.000000 0.051000 0.051000 1.200000 0.031000 0.037000
1553306233356621036	200 34 0.900000 0.047000 0.043000 1200 33 1.000000 0.151000 0.154000 600 38 1.000000 0.051000 0.051000 1.200000 0.032000 0.038000
1553306233867545536	200 34 0.900000 0.038000 0.034000 1200 33 1.000000 0.134000 0.137000 600 38 1.000000 0.051000 0.051000 1.200000 0.025000 0.030000
1553306234377889995	200 33 0.900000 0.038000 0.034000 1200 33 1.000000 0.132000 0.135000 600 37 1.000000 0.051000 0.051000 1.200000 0.025000 0.030000
1553306234887033620	200 33 0.900000 0.038000 0.034000 1200 32 1.000000 0.134000 0.137000 600 37 1.000000 0.050000 0.050000 1.200000 0.025000 0.030000
1553306235398305787	200 33 0.900000 0.054000 0.049000 1200 32 1.000000 0.232000 0.237000 600 37 1.000000 0.051000 0.051000 1.200000 0.045000 0.054000
1553306235908781912	200 33 0.900000 0.044000 0.040000 1200 32 1.000000 0.165000 0.169000 600 37 1.000000 0.050000 0.050000 1.200000 0.035000 0.042000
1553306236419482620	200 33 0.900000 0.038000 0.034000 1200 32 1.000000 0.153000 0.156000 600 37 1.000000 0.051000 0.051000 1.200000 0.025000 0.030000
1553306236930073495	200 33 0.900000 0.038000 0.034000 1200 32 1.000000 0.144000 0.147000 600 36 1.000000 0.050000 0.050000 1.200000 0.025000 0.030000
1553306237441324620	200 33 0.900000 0.041000 0.037000 1200 32 1.000000 0.145000 0.148000 600 37 1.000000 0.051000 0.051000 1.200000 0.024000 0.028000
1553306237952166912	200 33 0.900000 0.050000 0.045000 1200 32 1.000000 0.258000 0.264000 600 36 1.000000 0.051000 0.051000 1.200000 0.043000 0.052000
1553306238462590995	200 33 0.900000 0.038000 0.034000 1200 32 1.000000 0.149000 0.152000 600 36 1.000000 0.050000 0.050000 1.200000 0.025000 0.030000
1553306238973229745	200 33 0.900000 0.038000 0.034000 1200 32 1.000000 0.143000 0.146000 600 36 1.000000 0.050000 0.050000 1.200000 0.025000 0.030000
1553306239484037745	200 33 0.900000 0.042000 0.038000 1200 32 1.000000 0.140000 0.143000 600 36 1.000000 0.051000 0.051000 1.200000 0.025000 0.030000
1553306239994859079	200 33 0.900000 0.042000 0.038000 1200 31 1.000000 0.134000 0.137000 600 36 1.000000 0.050000 0.050000 1.200000 0.024000 0.028000
1553306240505542746	200 32 0.900000 0.050000 0.045000 1200 32 1.000000 0.245000 0.251000 600 36 1.000000 0.051000 0.051000 1.200000 0.042000 0.050000
1553306241016175996	200 32 0.900000 0.038000 0.034000 1200 32 1.000000 0.132000 0.135000 600 36 1.000000 0.051000 0.051000 1.200000 0.025000 0.030000
1553306241526899871	200 32 0.900000 0.038000 0.034000 1200 31 1.000000 0.127000 0.130000 600 36 1.000000 0.050000 0.050000 1.200000 0.025000 0.030000
1553306242037804287	200 32 0.900000 0.039000 0.035000 1200 31 1.000000 0.129000 0.132000 600 36 1.000000 0.050000 0.050000 1.200000 0.026000 0.031000
1553306242558463037	200 32 0.900000 0.043000 0.039000 1200 31 1.000000 0.213000 0.218000 600 36 1.000000 0.051000 0.051000 1.200000 0.031000 0.037000
1553306243071015371	200 32 0.900000 0.039000 0.035000 1200 31 1.000000 0.135000 0.138000 600 36 1.000000 0.050000 0.050000 1.200000 0.028000 0.033000
1553306243598308829	200 32 0.900000 0.038000 0.034000 1200 31 1.000000 0.132000 0.135000 600 36 1.000000 0.050000 0.050000 1.200000 0.024000 0.028000
1553306244112262288	200 32 0.900000 0.038000 0.034000 1200 31 1.000000 0.130000 0.133000 600 36 1.000000 0.051000 0.051000 1.200000 0.028000 0.033000
1553306244623052996	200 32 0.900000 0.037000 0.033000 1200 31 1.000000 0.130000 0.133000 600 36 1.000000 0.050000 0.050000 1.200000 0.024000 0.028000
1553306245133639746	200 32 0.900000 0.046000 0.042000 1200 31 1.000000 0.218000 0.223000 600 36 1.000000 0.050000 0.050000 1.200000 0.031000 0.037000
1553306245644149955	200 32 0.900000 0.038000 0.034000 1200 31 1.000000 0.143000 0.146000 600 36 1.000000 0.051000 0.051000 1.200000 0.029000 0.035000
1553306246155015705	200 32 0.900000 0.038000 0.034000 1200 31 1.000000 0.183000 0.187000 600 36 1.000000 0.050000 0.050000 1.200000 0.028000 0.033000
1553306246665718163	200 32 0.900000 0.038000 0.034000 1200 31 1.000000 0.143000 0.146000 600 36 1.000000 0.050000 0.050000 1.200000 0.024000 0.028000
1553306247196658163	200 32 0.900000 0.038000 0.034000 1200 31 1.000000 0.153000 0.156000 600 36 1.000000 0.050000 0.050000 1.200000 0.025000 0.030000
1553306247709770996	200 32 0.900000 0.050000 0.045000 1200 31 1.000000 0.218000 0.223000 600 36 1.000000 0.050000 0.050000 1.200000 0.045000 0.054000
1553306248220624955	200 32 0.900000 0.038000 0.034000 1200 31 1.000000 0.138000 0.141000 600 36 1.000000 0.051000 0.051000 1.200000 0.025000 0.030000
1553306248731182205	200 32 0.900000 0.038000 0.034000 1200 31 1.000000 0.129000 0.132000 600 36 1.000000 0.050000 0.050000 1.200000 0.025000 0.030000
1553306249241651997	200 32 0.900000 0.038000 0.034000 1200 31 1.000000 0.129000 0.132000 600 35 1.000000 0.050000 0.050000 1.200000 0.024000 0.028000
1553306249752792580	200 32 0.900000 0.038000 0.034000 1200 31 1.000000 0.169000 0.173000 600 36 1.000000 0.050000 0.050000 1.200000 0.024000 0.028000
1553306250264044205	200 32 0.900000 0.046000 0.042000 1200 31 1.000000 0.210000 0.215000 600 36 1.000000 0.050000 0.050000 1.200000 0.039000 0.047000
1553306250775117247	200 32 0.900000 0.038000 0.034000 1200 31 1.000000 0.130000 0.133000 600 36 1.000000 0.050000 0.050000 1.200000 0.024000 0.028000
1553306251285744289	200 32 0.900000 0.037000 0.033000 1200 31 1.000000 0.129000 0.132000 600 36 1.000000 0.050000 0.050000 1.200000 0.024000 0.028000
1553306251796536622	200 32 0.900000 0.037000 0.033000 1200 31 1.000000 0.130000 0.133000 600 36 1.000000 0.050000 0.050000 1.200000 0.024000 0.028000
1553306252356633455	200 32 0.900000 0.039000 0.035000 1200 31 1.000000 0.254000 0.260000 600 36 1.000000 0.051000 0.051000 1.200000 0.038000 0.045000
1553306252875419664	200 32 0.900000 0.045000 0.041000 1200 31 1.000000 0.130000 0.133000 600 36 1.000000 0.050000 0.050000 1.200000 0.024000 0.028000
1553306253386226330	200 32 0.900000 0.038000 0.034000 1200 31 1.000000 0.128000 0.131000 600 35 1.000000 0.051000 0.051000 1.200000 0.024000 0.028000
1553306253896507706	200 32 0.900000 0.038000 0.034000 1200 31 1.000000 0.127000 0.130000 600 36 1.000000 0.050000 0.050000 1.200000 0.024000 0.028000
1553306254407320456	200 32 0.900000 0.037000 0.033000 1200 31 1.000000 0.129000 0.132000 600 36 1.000000 0.051000 0.051000 1.200000 0.024000 0.028000
1553306254918293414	200 32 0.900000 0.050000 0.045000 1200 31 1.000000 0.238000 0.244000 600 36 1.000000 0.050000 0.050000 1.200000 0.042000 0.050000
1553306255429047497	200 32 0.900000 0.041000 0.037000 1200 31 1.000000 0.152000 0.155000 600 36 1.000000 0.050000 0.050000 1.200000 0.026000 0.031000
1553306255940274664	200 32 0.900000 0.038000 0.034000 1200 31 1.000000 0.130000 0.133000 600 36 1.000000 0.050000 0.050000 1.200000 0.024000 0.029000
1553306256450777831	200 32 0.900000 0.038000 0.034000 1200 31 1.000000 0.137000 0.140000 600 35 1.000000 0.051000 0.051000 1.200000 0.025000 0.030000
1553306256975191206	200 32 0.900000 0.043000 0.039000 1200 31 1.000000 0.141000 0.144000 600 36 1.000000 0.050000 0.050000 1.200000 0.032000 0.038000
1553306257490108039	200 32 0.900000 0.051000 0.046000 1200 31 1.000000 0.240000 0.246000 600 36 1.000000 0.050000 0.050000 1.200000 0.044000 0.053000
1553306258001066164	200 32 0.900000 0.038000 0.034000 1200 31 1.000000 0.151000 0.154000 600 35 1.000000 0.050000 0.050000 1.200000 0.024000 0.028000
1553306258511630873	200 32 0.900000 0.038000 0.034000 1200 31 1.000000 0.140000 0.143000 600 35 1.000000 0.050000 0.050000 1.200000 0.024000 0.028000
1553306259022456456	200 32 0.900000 0.038000 0.034000 1200 31 1.000000 0.134000 0.137000 600 35 1.000000 0.050000 0.050000 1.200000 0.028000 0.033000
1553306259550916415	200 32 0.900000 0.038000 0.034000 1200 31 1.000000 0.181000 0.185000 600 36 1.000000 0.051000 0.051000 1.200000 0.028000 0.033000
1553306260064533498	200 32 0.900000 0.050000 0.045000 1200 31 1.000000 0.262000 0.268000 600 36 1.000000 0.051000 0.051000 1.200000 0.030000 0.036000
1553306260575413581	200 32 0.900000 0.038000 0.034000 1200 31 1.000000 0.155000 0.159000 600 35 1.000000 0.051000 0.051000 1.200000 0.024000 0.028000
1553306261090194498	200 32 0.900000 0.038000 0.034000 1200 31 1.000000 0.141000 0.144000 600 35 1.000000 0.050000 0.050000 1.200000 0.026000 0.031000
1553306261602663081	200 32 0.900000 0.039000 0.035000 1200 31 1.000000 0.156000 0.160000 600 35 1.000000 0.050000 0.050000 1.200000 0.024000 0.028000
1553306262113232998	200 32 0.900000 0.046000 0.042000 1200 31 1.000000 0.200000 0.205000 600 36 1.000000 0.050000 0.050000 1.200000 0.042000 0.050000
1553306262624261873	200 32 0.900000 0.038000 0.034000 1200 31 1.000000 0.155000 0.159000 600 35 1.000000 0.050000 0.050000 1.200000 0.024000 0.028000
1553306263135473290	200 32 0.900000 0.038000 0.034000 1200 31 1.000000 0.146000 0.149000 600 35 1.000000 0.050000 0.050000 1.200000 0.024000 0.028000
1553306263646782915	200 32 0.900000 0.038000 0.034000 1200 31 1.000000 0.219000 0.224000 600 35 1.000000 0.050000 0.050000 1.200000 0.024000 0.028000
1553306264157729082	200 32 0.900000 0.038000 0.034000 1200 31 1.000000 0.134000 0.137000 600 35 1.000000 0.050000 0.050000 1.200000 0.026000 0.031000
1553306264668491290	200 32 0.900000 0.050000 0.045000 1200 31 1.000000 0.190000 0.194000 600 35 1.000000 0.051000 0.051000 1.200000 0.042000 0.050000
1553306265179338540	200 32 0.900000 0.045000 0.041000 1200 31 1.000000 0.197000 0.202000 600 35 1.000000 0.051000 0.051000 1.200000 0.025000 0.030000
1553306265690532624	200 32 0.900000 0.038000 0.034000 1200 31 1.000000 0.147000 0.150000 600 35 1.000000 0.050000 0.050000 1.200000 0.033000 0.039000
1553306266201050957	200 32 0.900000 0.038000 0.034000 1200 31 1.000000 0.142000 0.145000 600 35 1.000000 0.050000 0.050000 1.200000 0.024000 0.028000
1553306266713077999	200 32 0.900000 0.038000 0.034000 1200 31 1.000000 0.140000 0.143000 600 35 1.000000 0.050000 0.050000 1.200000 0.023000 0.027000
1553306267224151499	200 32 0.900000 0.050000 0.045000 1200 31 1.000000 0.277000 0.283000 600 35 1.000000 0.050000 0.050000 1.200000 0.039000 0.047000
1553306267735347124	200 32 0.900000 0.038000 0.034000 1200 31 1.000000 0.144000 0.147000 600 35 1.000000 0.050000 0.050000 1.200000 0.028000 0.033000
1553306268246070249	200 32 0.900000 0.038000 0.034000 1200 31 1.000000 0.149000 0.152000 600 35 1.000000 0.051000 0.051000 1.200000 0.028000 0.033000
1553306268756665707	200 32 0.900000 0.038000 0.034000 1200 31 1.000000 0.140000 0.143000 600 35 1.000000 0.050000 0.050000 1.200000 0.024000 0.028000
1553306269268177249	200 32 0.900000 0.041000 0.037000 1200 31 1.000000 0.138000 0.141000 600 35 1.000000 0.050000 0.050000 1.200000 0.024000 0.028000
1553306269779618124	200 32 0.900000 0.040000 0.036000 1200 31 1.000000 0.222000 0.227000 600 35 1.000000 0.050000 0.050000 1.200000 0.040000 0.048000
1553306270290316332	200 32 0.900000 0.037000 0.033000 1200 31 1.000000 0.157000 0.161000 600 35 1.000000 0.051000 0.051000 1.200000 0.030000 0.036000
1553306270800984833	200 32 0.900000 0.038000 0.034000 1200 31 1.000000 0.127000 0.130000 600 35 1.000000 0.050000 0.050000 1.200000 0.024000 0.028000
1553306271313252624	200 36 0.900000 0.031000 0.028000 1200 31 1.000000 0.170000 0.174000 600 36 1.000000 0.050000 0.050000 1.200000 0.024000 0.028000
1553306271826138708	200 36 0.900000 0.018000 0.016000 1200 32 1.000000 0.877000 0.891000 600 37 1.000000 0.050000 0.050000 1.200000 0.040000 0.048000
1553306272339080124	200 37 0.900000 0.022000 0.020000 1200 32 1.000000 0.811000 0.823000 600 37 1.000000 0.050000 0.050000 1.200000 0.039000 0.047000
1553306272851685833	200 37 0.900000 0.011000 0.010000 1200 33 1.000000 0.804000 0.817000 600 37 1.000000 0.050000 0.050000 1.200000 0.027000 0.032000
1553306273364526541	200 37 0.900000 0.011000 0.010000 1200 33 1.000000 0.813000 0.826000 600 37 1.000000 0.051000 0.051000 1.200000 0.029000 0.035000
1553306273886289625	200 37 0.900000 0.012000 0.010000 1200 33 1.000000 0.818000 0.831000 600 38 1.000000 0.051000 0.051000 1.200000 0.028000 0.033000
1553306274401365833	200 38 0.900000 0.021000 0.019000 1200 33 1.000000 0.873000 0.887000 600 38 1.000000 0.051000 0.051000 1.200000 0.037000 0.044000
1553306274913080541	200 38 0.900000 0.015000 0.013000 1200 33 1.000000 0.821000 0.834000 600 38 1.000000 0.051000 0.051000 1.200000 0.038000 0.045000
1553306275425360208	200 38 0.900000 0.011000 0.010000 1200 33 1.000000 0.818000 0.831000 600 38 1.000000 0.051000 0.051000 1.200000 0.028000 0.033000
1553306275937343750	200 38 0.900000 0.012000 0.010000 1200 34 1.000000 0.885000 0.900000 600 38 1.000000 0.051000 0.051000 1.200000 0.034000 0.041000
1553306276446618417	200 38 0.900000 0.011000 0.010000 1200 34 1.000000 0.832000 0.846000 600 38 1.000000 0.051000 0.051000 1.200000 0.030000 0.036000
1553306276958272042	200 38 0.900000 0.030000 0.027000 1200 34 1.000000 0.896000 0.911000 600 38 1.000000 0.051000 0.051000 1.200000 0.052000 0.062000
1553306277469971958	200 34 0.900000 0.013000 0.011000 1200 33 1.000000 0.759000 0.771000 600 38 1.000000 0.051000 0.051000 1.200000 0.028000 0.033000
1553306277981467458	200 33 0.900000 0.012000 0.010000 1200 32 1.000000 0.131000 0.134000 600 37 1.000000 0.051000 0.051000 1.200000 0.023000 0.027000
