#Timestamp	CPU(0) Frequency(MHz)	CPU(0) Temperature(C)	A7 Voltage(V)	A7 Current(A)	A7 Power(W)	CPU(4) Frequency(MHz)	CPU(4) Temperature(C)	A15 Voltage(V)	A15 Current(A)	A15 Power(W)	GPU Frequency(MHz)	GPU Temperature(C)	GPU Voltage(V)	GPU Current(A)	GPU Power(W)	RAM Voltage(V)	RAM Current(A)	RAM Power(W)
1553300950382270115	800 31 1.000000 0.045000 0.046000 300 30 0.900000 0.271000 0.246000 600 35 1.000000 0.050000 0.050000 1.200000 0.044000 0.053000
1553300950904479865	800 31 1.000000 0.035000 0.035000 300 30 0.900000 0.248000 0.225000 600 35 1.000000 0.050000 0.050000 1.200000 0.035000 0.042000
1553300951426492532	800 32 1.000000 0.034000 0.034000 300 30 0.900000 0.184000 0.167000 600 34 1.000000 0.050000 0.050000 1.200000 0.028000 0.033000
1553300951948855198	800 31 1.000000 0.034000 0.034000 300 30 0.900000 0.185000 0.168000 600 34 1.000000 0.050000 0.050000 1.200000 0.028000 0.033000
1553300952472113449	800 32 1.000000 0.033000 0.033000 300 30 0.900000 0.214000 0.194000 600 35 1.000000 0.050000 0.050000 1.200000 0.030000 0.036000
1553300952994435240	800 32 1.000000 0.039000 0.040000 300 30 0.900000 0.261000 0.237000 600 35 1.000000 0.050000 0.050000 1.200000 0.039000 0.047000
1553300953516656282	800 32 1.000000 0.033000 0.033000 300 30 0.900000 0.185000 0.168000 600 34 1.000000 0.050000 0.050000 1.200000 0.028000 0.033000
1553300954038456699	800 32 1.000000 0.070000 0.071000 300 30 0.900000 0.174000 0.158000 600 34 1.000000 0.050000 0.050000 1.200000 0.028000 0.033000
1553300954559708782	800 32 1.000000 0.092000 0.094000 300 30 0.900000 0.170000 0.155000 600 35 1.000000 0.051000 0.051000 1.200000 0.025000 0.030000
1553300955080883782	800 32 1.000000 0.101000 0.103000 300 30 0.900000 0.289000 0.262000 600 35 1.000000 0.050000 0.050000 1.200000 0.039000 0.047000
1553300955602399866	800 32 1.000000 0.094000 0.096000 300 30 0.900000 0.172000 0.156000 600 35 1.000000 0.050000 0.050000 1.200000 0.025000 0.030000
1553300956123311324	800 32 1.000000 0.093000 0.095000 300 30 0.900000 0.170000 0.155000 600 35 1.000000 0.050000 0.050000 1.200000 0.026000 0.031000
1553300956644713407	800 32 1.000000 0.092000 0.094000 300 30 0.900000 0.170000 0.155000 600 35 1.000000 0.050000 0.050000 1.200000 0.025000 0.030000
1553300957162786449	800 32 1.000000 0.092000 0.094000 300 30 0.900000 0.200000 0.182000 600 35 1.000000 0.050000 0.050000 1.200000 0.025000 0.030000
1553300957684168991	800 32 1.000000 0.101000 0.103000 300 30 0.900000 0.200000 0.182000 600 35 1.000000 0.050000 0.050000 1.200000 0.031000 0.037000
1553300958205435741	800 32 1.000000 0.092000 0.094000 300 30 0.900000 0.182000 0.165000 600 35 1.000000 0.050000 0.050000 1.200000 0.025000 0.030000
1553300958726650699	800 32 1.000000 0.092000 0.094000 300 30 0.900000 0.177000 0.161000 600 35 1.000000 0.050000 0.050000 1.200000 0.025000 0.030000
1553300959247806741	800 32 1.000000 0.092000 0.094000 300 30 0.900000 0.189000 0.172000 600 35 1.000000 0.050000 0.050000 1.200000 0.025000 0.030000
1553300959769943658	800 32 1.000000 0.100000 0.102000 300 31 0.900000 0.260000 0.236000 600 35 1.000000 0.050000 0.050000 1.200000 0.036000 0.043000
1553300960291830199	800 32 1.000000 0.099000 0.101000 300 31 0.900000 0.208000 0.189000 600 35 1.000000 0.050000 0.050000 1.200000 0.025000 0.030000
1553300960813238408	800 32 1.000000 0.092000 0.094000 300 31 0.900000 0.173000 0.157000 600 35 1.000000 0.051000 0.051000 1.200000 0.026000 0.031000
1553300961334960283	800 32 1.000000 0.093000 0.095000 300 30 0.900000 0.176000 0.160000 600 35 1.000000 0.050000 0.050000 1.200000 0.026000 0.031000
1553300961858681075	800 32 1.000000 0.092000 0.094000 300 31 0.900000 0.180000 0.164000 600 35 1.000000 0.050000 0.050000 1.200000 0.031000 0.037000
1553300962380112075	800 32 1.000000 0.093000 0.095000 300 30 0.900000 0.189000 0.172000 600 35 1.000000 0.050000 0.050000 1.200000 0.037000 0.044000
1553300962901486741	800 32 1.000000 0.096000 0.098000 300 31 0.900000 0.210000 0.191000 600 35 1.000000 0.050000 0.050000 1.200000 0.026000 0.031000
1553300963422633325	800 32 1.000000 0.092000 0.094000 300 31 0.900000 0.177000 0.161000 600 35 1.000000 0.050000 0.050000 1.200000 0.027000 0.032000
1553300963944449367	800 32 1.000000 0.092000 0.094000 300 31 0.900000 0.178000 0.162000 600 35 1.000000 0.050000 0.050000 1.200000 0.030000 0.036000
1553300964467427867	800 32 1.000000 0.092000 0.094000 300 30 0.900000 0.192000 0.175000 600 35 1.000000 0.050000 0.050000 1.200000 0.025000 0.030000
1553300964988920908	800 32 1.000000 0.102000 0.104000 300 31 0.900000 0.267000 0.243000 600 35 1.000000 0.050000 0.050000 1.200000 0.031000 0.037000
1553300965510462117	800 32 1.000000 0.092000 0.094000 300 30 0.900000 0.182000 0.165000 600 35 1.000000 0.050000 0.050000 1.200000 0.025000 0.030000
1553300966031955658	800 32 1.000000 0.093000 0.095000 300 31 0.900000 0.177000 0.161000 600 35 1.000000 0.050000 0.050000 1.200000 0.027000 0.032000
1553300966553031659	800 32 1.000000 0.092000 0.094000 300 31 0.900000 0.209000 0.190000 600 34 1.000000 0.050000 0.050000 1.200000 0.025000 0.030000
1553300967074224909	800 32 1.000000 0.099000 0.101000 300 31 0.900000 0.190000 0.173000 600 35 1.000000 0.050000 0.050000 1.200000 0.036000 0.043000
1553300967595551575	800 32 1.000000 0.092000 0.094000 300 31 0.900000 0.209000 0.190000 600 35 1.000000 0.050000 0.050000 1.200000 0.025000 0.030000
1553300968117177200	800 32 1.000000 0.092000 0.094000 300 30 0.900000 0.181000 0.165000 600 35 1.000000 0.051000 0.051000 1.200000 0.026000 0.031000
1553300968638614075	800 32 1.000000 0.094000 0.096000 300 31 0.900000 0.223000 0.203000 600 35 1.000000 0.050000 0.050000 1.200000 0.033000 0.039000
1553300969161205784	800 32 1.000000 0.093000 0.095000 300 30 0.900000 0.180000 0.164000 600 35 1.000000 0.050000 0.050000 1.200000 0.026000 0.031000
1553300969683019284	800 32 1.000000 0.101000 0.103000 300 31 0.900000 0.267000 0.243000 600 35 1.000000 0.050000 0.050000 1.200000 0.037000 0.044000
1553300970205115242	800 32 1.000000 0.093000 0.095000 300 30 0.900000 0.182000 0.165000 600 35 1.000000 0.051000 0.051000 1.200000 0.025000 0.030000
1553300970726512534	800 32 1.000000 0.093000 0.095000 300 31 0.900000 0.243000 0.221000 600 35 1.000000 0.050000 0.050000 1.200000 0.033000 0.039000
1553300971248023742	800 32 1.000000 0.092000 0.094000 300 30 0.900000 0.178000 0.162000 600 35 1.000000 0.050000 0.050000 1.200000 0.026000 0.031000
1553300971770226451	800 32 1.000000 0.096000 0.098000 300 31 0.900000 0.192000 0.175000 600 35 1.000000 0.050000 0.050000 1.200000 0.027000 0.032000
1553300972293261201	800 32 1.000000 0.092000 0.094000 300 31 0.900000 0.204000 0.186000 600 35 1.000000 0.050000 0.050000 1.200000 0.032000 0.038000
1553300972815152951	800 32 1.000000 0.093000 0.095000 300 31 0.900000 0.248000 0.225000 600 35 1.000000 0.050000 0.050000 1.200000 0.033000 0.039000
1553300973336558534	800 32 1.000000 0.092000 0.094000 300 31 0.900000 0.180000 0.164000 600 35 1.000000 0.050000 0.050000 1.200000 0.026000 0.031000
1553300973856576701	800 32 1.000000 0.093000 0.095000 300 30 0.900000 0.180000 0.164000 600 35 1.000000 0.050000 0.050000 1.200000 0.026000 0.031000
1553300974378518576	800 32 1.000000 0.095000 0.097000 300 31 0.900000 0.279000 0.254000 600 35 1.000000 0.051000 0.051000 1.200000 0.034000 0.041000
1553300974900018326	800 32 1.000000 0.093000 0.095000 300 31 0.900000 0.246000 0.224000 600 35 1.000000 0.051000 0.051000 1.200000 0.031000 0.037000
1553300975420957493	800 32 1.000000 0.093000 0.095000 300 31 0.900000 0.178000 0.162000 600 35 1.000000 0.050000 0.050000 1.200000 0.026000 0.031000
1553300975941977076	800 32 1.000000 0.092000 0.094000 300 31 0.900000 0.171000 0.155000 600 35 1.000000 0.050000 0.050000 1.200000 0.026000 0.031000
1553300976464348535	800 32 1.000000 0.092000 0.094000 300 31 0.900000 0.177000 0.161000 600 35 1.000000 0.050000 0.050000 1.200000 0.026000 0.031000
1553300976985661910	800 32 1.000000 0.095000 0.097000 300 31 0.900000 0.274000 0.249000 600 35 1.000000 0.050000 0.050000 1.200000 0.034000 0.041000
1553300977506462577	800 32 1.000000 0.092000 0.094000 300 31 0.900000 0.172000 0.156000 600 35 1.000000 0.050000 0.050000 1.200000 0.026000 0.031000
1553300978027714660	800 32 1.000000 0.092000 0.094000 300 31 0.900000 0.171000 0.155000 600 35 1.000000 0.050000 0.050000 1.200000 0.026000 0.031000
1553300978548945160	800 32 1.000000 0.092000 0.094000 300 31 0.900000 0.170000 0.155000 600 35 1.000000 0.050000 0.050000 1.200000 0.026000 0.031000
1553300979070200993	800 32 1.000000 0.097000 0.099000 300 31 0.900000 0.302000 0.275000 600 35 1.000000 0.051000 0.051000 1.200000 0.032000 0.038000
1553300979591374993	800 32 1.000000 0.092000 0.094000 300 31 0.900000 0.171000 0.155000 600 35 1.000000 0.050000 0.050000 1.200000 0.025000 0.030000
1553300980112620035	800 32 1.000000 0.092000 0.094000 300 31 0.900000 0.172000 0.156000 600 35 1.000000 0.050000 0.050000 1.200000 0.026000 0.031000
1553300980633419702	800 32 1.000000 0.066000 0.067000 300 30 0.900000 0.171000 0.155000 600 35 1.000000 0.051000 0.051000 1.200000 0.024000 0.028000
1553300981156483660	800 32 1.000000 0.033000 0.033000 300 31 0.900000 0.188000 0.171000 600 35 1.000000 0.051000 0.051000 1.200000 0.023000 0.027000
1553300981677764952	800 32 1.000000 0.043000 0.044000 300 30 0.900000 0.215000 0.195000 600 35 1.000000 0.050000 0.050000 1.200000 0.032000 0.038000
1553300982198964577	800 32 1.000000 0.033000 0.033000 300 30 0.900000 0.170000 0.155000 600 35 1.000000 0.050000 0.050000 1.200000 0.023000 0.027000
1553300982719932035	800 32 1.000000 0.033000 0.033000 300 30 0.900000 0.172000 0.156000 600 35 1.000000 0.050000 0.050000 1.200000 0.023000 0.027000
1553300983239409869	800 32 1.000000 0.033000 0.033000 300 30 0.900000 0.180000 0.163000 600 35 1.000000 0.050000 0.050000 1.200000 0.024000 0.028000
1553300983762217744	800 32 1.000000 0.036000 0.036000 300 30 0.900000 0.241000 0.219000 600 35 1.000000 0.050000 0.050000 1.200000 0.032000 0.038000
1553300984283266494	800 32 1.000000 0.040000 0.041000 300 30 0.900000 0.224000 0.204000 600 35 1.000000 0.050000 0.050000 1.200000 0.033000 0.039000
1553300984804757786	800 32 1.000000 0.035000 0.035000 300 30 0.900000 0.185000 0.168000 600 35 1.000000 0.050000 0.050000 1.200000 0.024000 0.028000
1553300985327192994	800 32 1.000000 0.034000 0.034000 300 30 0.900000 0.179000 0.163000 600 35 1.000000 0.051000 0.051000 1.200000 0.025000 0.030000
1553300985849493661	800 32 1.000000 0.034000 0.034000 300 30 0.900000 0.247000 0.225000 600 35 1.000000 0.050000 0.050000 1.200000 0.030000 0.036000
1553300986371190536	800 32 1.000000 0.042000 0.043000 300 30 0.900000 0.265000 0.241000 600 35 1.000000 0.050000 0.050000 1.200000 0.033000 0.039000
1553300986892408078	800 32 1.000000 0.033000 0.033000 300 30 0.900000 0.180000 0.164000 600 35 1.000000 0.050000 0.050000 1.200000 0.024000 0.028000
1553300987413200119	800 32 1.000000 0.033000 0.033000 300 30 0.900000 0.178000 0.162000 600 35 1.000000 0.050000 0.050000 1.200000 0.024000 0.028000
1553300987934734703	800 32 1.000000 0.034000 0.034000 300 30 0.900000 0.248000 0.225000 600 35 1.000000 0.050000 0.050000 1.200000 0.030000 0.036000
1553300988457657786	800 32 1.000000 0.033000 0.033000 300 30 0.900000 0.178000 0.162000 600 35 1.000000 0.050000 0.050000 1.200000 0.024000 0.028000
1553300988979221203	800 32 1.000000 0.042000 0.043000 300 30 0.900000 0.220000 0.200000 600 35 1.000000 0.050000 0.050000 1.200000 0.033000 0.039000
1553300989500449036	800 32 1.000000 0.034000 0.034000 300 30 0.900000 0.177000 0.161000 600 35 1.000000 0.050000 0.050000 1.200000 0.024000 0.028000
1553300990021900953	800 32 1.000000 0.034000 0.034000 300 30 0.900000 0.220000 0.200000 600 35 1.000000 0.050000 0.050000 1.200000 0.026000 0.031000
1553300990542870495	800 32 1.000000 0.033000 0.033000 300 30 0.900000 0.171000 0.155000 600 35 1.000000 0.051000 0.051000 1.200000 0.025000 0.030000
1553300991064440328	800 32 1.000000 0.041000 0.042000 300 30 0.900000 0.261000 0.237000 600 35 1.000000 0.050000 0.050000 1.200000 0.033000 0.039000
1553300991585885953	800 32 1.000000 0.033000 0.033000 300 30 0.900000 0.169000 0.154000 600 35 1.000000 0.051000 0.051000 1.200000 0.025000 0.030000
1553300992107328703	800 32 1.000000 0.034000 0.034000 300 30 0.900000 0.204000 0.186000 600 35 1.000000 0.050000 0.050000 1.200000 0.024000 0.028000
1553300992628716078	800 32 1.000000 0.033000 0.033000 300 30 0.900000 0.172000 0.156000 600 35 1.000000 0.050000 0.050000 1.200000 0.025000 0.030000
1553300993151282120	800 32 1.000000 0.034000 0.034000 300 30 0.900000 0.170000 0.155000 600 35 1.000000 0.050000 0.050000 1.200000 0.024000 0.028000
1553300993672876953	800 32 1.000000 0.042000 0.043000 300 30 0.900000 0.210000 0.191000 600 35 1.000000 0.051000 0.051000 1.200000 0.032000 0.038000
1553300994194311454	800 32 1.000000 0.033000 0.033000 300 30 0.900000 0.183000 0.166000 600 35 1.000000 0.050000 0.050000 1.200000 0.024000 0.028000
1553300994716459745	800 32 1.000000 0.034000 0.034000 300 30 0.900000 0.177000 0.161000 600 35 1.000000 0.050000 0.050000 1.200000 0.028000 0.033000
1553300995238472245	800 32 1.000000 0.033000 0.033000 300 30 0.900000 0.199000 0.181000 600 35 1.000000 0.050000 0.050000 1.200000 0.025000 0.030000
1553300995760784870	800 32 1.000000 0.037000 0.037000 300 30 0.900000 0.277000 0.252000 600 35 1.000000 0.050000 0.050000 1.200000 0.037000 0.044000
1553300996283107995	800 32 1.000000 0.034000 0.034000 300 30 0.900000 0.197000 0.179000 600 35 1.000000 0.050000 0.050000 1.200000 0.025000 0.030000
1553300996805325329	800 32 1.000000 0.033000 0.033000 300 30 0.900000 0.197000 0.179000 600 35 1.000000 0.050000 0.050000 1.200000 0.025000 0.030000
1553300997327072329	800 32 1.000000 0.033000 0.033000 300 30 0.900000 0.198000 0.180000 600 35 1.000000 0.050000 0.050000 1.200000 0.024000 0.028000
1553300997850432287	800 32 1.000000 0.033000 0.033000 300 30 0.900000 0.199000 0.181000 600 35 1.000000 0.050000 0.050000 1.200000 0.025000 0.030000
1553300998373218871	800 32 1.000000 0.040000 0.041000 300 30 0.900000 0.284000 0.258000 600 35 1.000000 0.050000 0.050000 1.200000 0.036000 0.043000
1553300998892976829	800 32 1.000000 0.033000 0.033000 300 30 0.900000 0.269000 0.245000 600 35 1.000000 0.050000 0.050000 1.200000 0.027000 0.032000
1553300999414808246	800 32 1.000000 0.034000 0.034000 300 30 0.900000 0.203000 0.184000 600 35 1.000000 0.050000 0.050000 1.200000 0.025000 0.030000
1553300999936925038	800 32 1.000000 0.033000 0.033000 300 30 0.900000 0.208000 0.189000 600 35 1.000000 0.051000 0.051000 1.200000 0.025000 0.030000
1553301000460161163	800 32 1.000000 0.033000 0.033000 300 30 0.900000 0.207000 0.188000 600 35 1.000000 0.050000 0.050000 1.200000 0.036000 0.043000
1553301000982415079	800 32 1.000000 0.040000 0.041000 300 30 0.900000 0.304000 0.276000 600 35 1.000000 0.050000 0.050000 1.200000 0.030000 0.036000
1553301001504222579	800 32 1.000000 0.033000 0.033000 300 30 0.900000 0.205000 0.186000 600 35 1.000000 0.051000 0.051000 1.200000 0.024000 0.028000
1553301002026209496	800 32 1.000000 0.033000 0.033000 300 30 0.900000 0.205000 0.186000 600 35 1.000000 0.050000 0.050000 1.200000 0.024000 0.028000
1553301002549317080	800 32 1.000000 0.033000 0.033000 300 30 0.900000 0.209000 0.190000 600 35 1.000000 0.050000 0.050000 1.200000 0.025000 0.030000
1553301003071979371	800 32 1.000000 0.042000 0.043000 300 30 0.900000 0.317000 0.288000 600 35 1.000000 0.050000 0.050000 1.200000 0.044000 0.053000
1553301003593748538	800 32 1.000000 0.033000 0.033000 300 31 0.900000 0.208000 0.189000 600 35 1.000000 0.050000 0.050000 1.200000 0.025000 0.030000
1553301004116098163	800 32 1.000000 0.034000 0.034000 300 30 0.900000 0.206000 0.187000 600 35 1.000000 0.050000 0.050000 1.200000 0.025000 0.030000
1553301004638004288	800 32 1.000000 0.033000 0.033000 300 30 0.900000 0.205000 0.186000 600 35 1.000000 0.050000 0.050000 1.200000 0.024000 0.028000
1553301005161017413	800 32 1.000000 0.038000 0.038000 300 30 0.900000 0.217000 0.197000 600 35 1.000000 0.050000 0.050000 1.200000 0.042000 0.050000
1553301005683367372	800 32 1.000000 0.033000 0.033000 300 30 0.900000 0.255000 0.232000 600 35 1.000000 0.050000 0.050000 1.200000 0.025000 0.030000
1553301006205540080	800 32 1.000000 0.033000 0.033000 300 30 0.900000 0.197000 0.179000 600 35 1.000000 0.050000 0.050000 1.200000 0.025000 0.030000
1553301006727871622	800 32 1.000000 0.033000 0.033000 300 30 0.900000 0.208000 0.189000 600 35 1.000000 0.050000 0.050000 1.200000 0.026000 0.031000
1553301007249845455	800 32 1.000000 0.033000 0.033000 300 30 0.900000 0.207000 0.188000 600 35 1.000000 0.050000 0.050000 1.200000 0.027000 0.032000
1553301007771520580	800 32 1.000000 0.035000 0.035000 300 30 0.900000 0.272000 0.247000 600 35 1.000000 0.050000 0.050000 1.200000 0.035000 0.042000
1553301008293894580	800 32 1.000000 0.041000 0.042000 300 30 0.900000 0.265000 0.241000 600 35 1.000000 0.050000 0.050000 1.200000 0.026000 0.031000
1553301008815914039	800 32 1.000000 0.033000 0.033000 300 30 0.900000 0.205000 0.186000 600 35 1.000000 0.050000 0.050000 1.200000 0.026000 0.031000
1553301009338213664	800 32 1.000000 0.033000 0.033000 300 30 0.900000 0.207000 0.188000 600 35 1.000000 0.050000 0.050000 1.200000 0.025000 0.030000
1553301009862746247	800 32 1.000000 0.035000 0.035000 300 30 0.900000 0.267000 0.243000 600 35 1.000000 0.050000 0.050000 1.200000 0.027000 0.032000
1553301010384683789	800 32 1.000000 0.043000 0.044000 300 30 0.900000 0.268000 0.244000 600 35 1.000000 0.050000 0.050000 1.200000 0.033000 0.039000
1553301010906151664	800 32 1.000000 0.034000 0.034000 300 31 0.900000 0.206000 0.187000 600 35 1.000000 0.051000 0.051000 1.200000 0.027000 0.032000
1553301011428396789	800 32 1.000000 0.034000 0.034000 300 30 0.900000 0.208000 0.189000 600 35 1.000000 0.050000 0.050000 1.200000 0.026000 0.031000
1553301011950500497	800 32 1.000000 0.034000 0.034000 300 30 0.900000 0.264000 0.240000 600 35 1.000000 0.050000 0.050000 1.200000 0.030000 0.036000
1553301012473308581	800 32 1.000000 0.036000 0.036000 300 31 0.900000 0.210000 0.191000 600 35 1.000000 0.050000 0.050000 1.200000 0.026000 0.031000
1553301012995821414	800 32 1.000000 0.043000 0.044000 300 30 0.900000 0.267000 0.243000 600 35 1.000000 0.050000 0.050000 1.200000 0.041000 0.049000
1553301013517502497	800 32 1.000000 0.033000 0.033000 300 30 0.900000 0.210000 0.191000 600 35 1.000000 0.051000 0.051000 1.200000 0.026000 0.031000
1553301014039421914	800 32 1.000000 0.034000 0.034000 300 30 0.900000 0.249000 0.226000 600 35 1.000000 0.050000 0.050000 1.200000 0.028000 0.033000
1553301014562368164	800 32 1.000000 0.033000 0.033000 300 30 0.900000 0.210000 0.191000 600 35 1.000000 0.050000 0.050000 1.200000 0.026000 0.031000
1553301015084881331	800 32 1.000000 0.040000 0.041000 300 30 0.900000 0.264000 0.240000 600 35 1.000000 0.050000 0.050000 1.200000 0.033000 0.039000
1553301015606864748	800 32 1.000000 0.033000 0.033000 300 30 0.900000 0.208000 0.189000 600 35 1.000000 0.050000 0.050000 1.200000 0.028000 0.033000
1553301016129022414	800 32 1.000000 0.035000 0.035000 300 30 0.900000 0.231000 0.210000 600 35 1.000000 0.050000 0.050000 1.200000 0.027000 0.032000
1553301016650774498	800 32 1.000000 0.034000 0.034000 300 30 0.900000 0.207000 0.188000 600 35 1.000000 0.051000 0.051000 1.200000 0.026000 0.031000
1553301017173787123	800 32 1.000000 0.033000 0.033000 300 30 0.900000 0.209000 0.190000 600 35 1.000000 0.050000 0.050000 1.200000 0.027000 0.032000
1553301017696069498	800 32 1.000000 0.038000 0.038000 300 31 0.900000 0.271000 0.246000 600 35 1.000000 0.050000 0.050000 1.200000 0.040000 0.048000
1553301018218097540	800 32 1.000000 0.034000 0.034000 300 31 0.900000 0.217000 0.197000 600 35 1.000000 0.050000 0.050000 1.200000 0.026000 0.031000
1553301018740268373	800 32 1.000000 0.033000 0.033000 300 31 0.900000 0.206000 0.187000 600 35 1.000000 0.050000 0.050000 1.200000 0.026000 0.031000
1553301019261549206	800 31 1.000000 0.035000 0.035000 300 30 0.900000 0.149000 0.135000 600 35 1.000000 0.051000 0.051000 1.200000 0.036000 0.043000
1553301019782605332	800 31 1.000000 0.035000 0.035000 300 30 0.900000 0.129000 0.117000 600 35 1.000000 0.050000 0.050000 1.200000 0.031000 0.037000
