#Timestamp	CPU(0) Frequency(MHz)	CPU(0) Temperature(C)	A7 Voltage(V)	A7 Current(A)	A7 Power(W)	CPU(4) Frequency(MHz)	CPU(4) Temperature(C)	A15 Voltage(V)	A15 Current(A)	A15 Power(W)	GPU Frequency(MHz)	GPU Temperature(C)	GPU Voltage(V)	GPU Current(A)	GPU Power(W)	RAM Voltage(V)	RAM Current(A)	RAM Power(W)
1560046780027150295	200 39 0.900000 0.012000 0.010000 1500 36 1.000000 0.797000 0.872000 600 40 1.000000 0.051000 0.051000 1.200000 0.045000 0.054000
1560046780536789129	200 40 0.900000 0.012000 0.010000 1500 36 1.000000 0.797000 0.872000 600 41 1.000000 0.051000 0.051000 1.200000 0.040000 0.048000
1560046781046681087	200 40 0.900000 0.012000 0.010000 1500 36 1.000000 0.796000 0.871000 600 42 1.000000 0.051000 0.051000 1.200000 0.039000 0.047000
1560046781556270879	200 40 0.900000 0.013000 0.011000 1500 37 1.000000 0.921000 1.008000 600 42 1.000000 0.051000 0.051000 1.200000 0.045000 0.054000
1560046782065105379	200 45 0.900000 0.013000 0.011000 1500 38 1.000000 0.875000 0.958000 600 43 1.000000 0.051000 0.051000 1.200000 0.048000 0.058000
1560046782573666629	200 46 0.900000 0.013000 0.011000 1500 39 1.100000 1.866000 2.052000 600 44 1.000000 0.051000 0.051000 1.200000 0.028000 0.033000
1560046783082305754	200 47 0.900000 0.013000 0.011000 1500 39 1.000000 1.759000 1.931000 600 45 1.000000 0.051000 0.051000 1.200000 0.024000 0.028000
1560046783591195671	200 47 0.900000 0.018000 0.016000 1500 40 1.100000 2.085000 2.293000 600 45 1.000000 0.051000 0.051000 1.200000 0.035000 0.042000
1560046784099584337	200 48 0.900000 0.013000 0.011000 1500 40 1.000000 1.787000 1.962000 600 46 1.000000 0.052000 0.052000 1.200000 0.026000 0.031000
1560046784608373962	200 48 0.900000 0.014000 0.012000 1500 41 1.100000 1.880000 2.068000 600 46 1.000000 0.052000 0.052000 1.200000 0.029000 0.035000
1560046785116851671	200 48 0.900000 0.013000 0.011000 1500 41 1.000000 1.768000 1.941000 600 46 1.000000 0.052000 0.052000 1.200000 0.024000 0.028000
1560046785625543379	200 49 0.900000 0.017000 0.015000 1500 41 1.100000 2.102000 2.312000 600 47 1.000000 0.052000 0.052000 1.200000 0.031000 0.037000
1560046786134429838	200 49 0.900000 0.013000 0.011000 1500 41 1.000000 1.759000 1.931000 600 47 1.000000 0.052000 0.052000 1.200000 0.023000 0.027000
1560046786643019171	200 49 0.900000 0.014000 0.012000 1500 41 1.100000 1.872000 2.059000 600 47 1.000000 0.052000 0.052000 1.200000 0.028000 0.033000
1560046787151571213	200 49 0.900000 0.013000 0.011000 1500 41 1.000000 1.754000 1.925000 600 47 1.000000 0.052000 0.052000 1.200000 0.024000 0.028000
1560046787668592546	200 49 0.900000 0.014000 0.012000 1500 42 1.000000 1.792000 1.967000 600 48 1.000000 0.052000 0.052000 1.200000 0.024000 0.028000
1560046788179041255	200 49 0.900000 0.014000 0.012000 1500 42 1.000000 1.853000 2.034000 600 48 1.000000 0.052000 0.052000 1.200000 0.027000 0.032000
1560046788687504421	200 50 0.900000 0.014000 0.012000 1500 42 1.000000 1.801000 1.977000 600 48 1.000000 0.052000 0.052000 1.200000 0.025000 0.030000
1560046789195806755	200 50 0.900000 0.013000 0.011000 1500 42 1.000000 1.774000 1.947000 600 48 1.000000 0.052000 0.052000 1.200000 0.025000 0.030000
1560046789736384588	200 50 0.900000 0.014000 0.012000 1500 42 1.000000 1.776000 1.950000 600 49 1.000000 0.052000 0.052000 1.200000 0.024000 0.028000
1560046790248004296	200 50 0.900000 0.018000 0.016000 1500 42 1.000000 1.921000 2.109000 600 48 1.000000 0.052000 0.052000 1.200000 0.029000 0.035000
1560046790756759463	200 50 0.900000 0.014000 0.012000 1500 42 1.000000 1.880000 2.064000 600 48 1.000000 0.052000 0.052000 1.200000 0.029000 0.035000
1560046791265225338	200 50 0.900000 0.013000 0.011000 1500 42 1.000000 1.780000 1.954000 600 48 1.000000 0.052000 0.052000 1.200000 0.024000 0.028000
1560046791776477047	200 50 0.900000 0.013000 0.011000 1500 42 1.000000 1.787000 1.962000 600 49 1.000000 0.052000 0.052000 1.200000 0.024000 0.028000
1560046792285129672	200 50 0.900000 0.022000 0.020000 1500 43 1.100000 2.027000 2.229000 600 48 1.000000 0.052000 0.052000 1.200000 0.035000 0.042000
1560046792793841130	200 50 0.900000 0.014000 0.012000 1500 43 1.000000 1.884000 2.068000 600 48 1.000000 0.052000 0.052000 1.200000 0.029000 0.035000
1560046793302838463	200 50 0.900000 0.013000 0.011000 1500 43 1.000000 1.775000 1.948000 600 48 1.000000 0.052000 0.052000 1.200000 0.023000 0.027000
1560046793811455172	200 50 0.900000 0.014000 0.012000 1500 43 1.000000 1.767000 1.940000 600 48 1.000000 0.052000 0.052000 1.200000 0.024000 0.028000
1560046794320036339	200 51 0.900000 0.022000 0.020000 1500 43 1.100000 2.051000 2.256000 600 49 1.000000 0.052000 0.052000 1.200000 0.037000 0.044000
1560046794828672130	200 51 0.900000 0.020000 0.018000 1500 43 1.000000 1.851000 2.032000 600 49 1.000000 0.052000 0.052000 1.200000 0.033000 0.039000
1560046795337106255	200 50 0.900000 0.014000 0.012000 1500 43 1.000000 1.776000 1.950000 600 49 1.000000 0.052000 0.052000 1.200000 0.023000 0.027000
1560046795853368214	200 50 0.900000 0.014000 0.012000 1500 43 1.000000 1.797000 1.973000 600 48 1.000000 0.052000 0.052000 1.200000 0.024000 0.028000
1560046796367344839	200 51 0.900000 0.014000 0.012000 1500 43 1.000000 1.769000 1.942000 600 50 1.000000 0.052000 0.052000 1.200000 0.025000 0.030000
1560046796876004089	200 51 0.900000 0.020000 0.018000 1500 43 1.100000 1.940000 2.134000 600 49 1.000000 0.052000 0.052000 1.200000 0.031000 0.037000
1560046797384384214	200 51 0.900000 0.014000 0.012000 1500 43 1.000000 1.786000 1.961000 600 49 1.000000 0.052000 0.052000 1.200000 0.025000 0.030000
1560046797892987464	200 51 0.900000 0.014000 0.012000 1500 43 1.000000 1.782000 1.956000 600 49 1.000000 0.052000 0.052000 1.200000 0.024000 0.028000
1560046798401564839	200 51 0.900000 0.014000 0.012000 1500 43 1.000000 1.772000 1.945000 600 49 1.000000 0.052000 0.052000 1.200000 0.024000 0.028000
1560046798910241881	200 51 0.900000 0.021000 0.019000 1500 43 1.100000 2.103000 2.313000 600 49 1.000000 0.052000 0.052000 1.200000 0.040000 0.048000
1560046799418898256	200 51 0.900000 0.014000 0.012000 1500 43 1.000000 1.778000 1.952000 600 49 1.000000 0.052000 0.052000 1.200000 0.023000 0.027000
1560046799927451423	200 51 0.900000 0.014000 0.012000 1500 43 1.000000 1.777000 1.951000 600 49 1.000000 0.052000 0.052000 1.200000 0.024000 0.028000
1560046800436096298	200 51 0.900000 0.014000 0.012000 1500 43 1.000000 1.771000 1.944000 600 49 1.000000 0.052000 0.052000 1.200000 0.024000 0.028000
1560046800944619756	200 51 0.900000 0.021000 0.019000 1500 43 1.100000 2.075000 2.282000 600 50 1.000000 0.052000 0.052000 1.200000 0.038000 0.045000
1560046801453264214	200 51 0.900000 0.014000 0.012000 1500 43 1.000000 1.770000 1.943000 600 49 1.000000 0.052000 0.052000 1.200000 0.023000 0.027000
1560046801961676840	200 51 0.900000 0.014000 0.012000 1500 43 1.000000 1.772000 1.945000 600 49 1.000000 0.052000 0.052000 1.200000 0.023000 0.027000
1560046802470312506	200 51 0.900000 0.014000 0.012000 1500 43 1.000000 1.770000 1.943000 600 49 1.000000 0.052000 0.052000 1.200000 0.024000 0.028000
1560046802982109798	200 51 0.900000 0.014000 0.012000 1500 43 1.100000 2.008000 2.208000 600 51 1.000000 0.052000 0.052000 1.200000 0.031000 0.037000
1560046803490905840	200 51 0.900000 0.018000 0.016000 1500 43 1.100000 1.962000 2.158000 600 49 1.000000 0.052000 0.052000 1.200000 0.030000 0.036000
1560046803999620715	200 51 0.900000 0.014000 0.012000 1500 44 1.000000 1.805000 1.981000 600 49 1.000000 0.052000 0.052000 1.200000 0.024000 0.028000
1560046804508017881	200 51 0.900000 0.014000 0.012000 1500 43 1.000000 1.772000 1.945000 600 49 1.000000 0.052000 0.052000 1.200000 0.023000 0.027000
1560046805016734465	200 51 0.900000 0.014000 0.012000 1500 44 1.000000 1.788000 1.963000 600 49 1.000000 0.052000 0.052000 1.200000 0.023000 0.027000
1560046805526341215	200 51 0.900000 0.017000 0.015000 1500 44 1.100000 1.925000 2.117000 600 50 1.000000 0.053000 0.053000 1.200000 0.032000 0.038000
1560046806034833632	200 51 0.900000 0.014000 0.012000 1500 44 1.000000 1.789000 1.964000 600 49 1.000000 0.052000 0.052000 1.200000 0.023000 0.027000
1560046806543521757	200 51 0.900000 0.014000 0.012000 1500 44 1.000000 1.796000 1.972000 600 49 1.000000 0.052000 0.052000 1.200000 0.025000 0.030000
1560046807052276548	200 51 0.900000 0.014000 0.012000 1500 44 1.000000 1.794000 1.969000 600 50 1.000000 0.052000 0.052000 1.200000 0.024000 0.028000
1560046807570227424	200 51 0.900000 0.020000 0.018000 1500 44 1.000000 1.793000 1.968000 600 50 1.000000 0.052000 0.052000 1.200000 0.026000 0.031000
1560046808080659507	200 51 0.900000 0.014000 0.012000 1500 44 1.000000 1.785000 1.959000 600 49 1.000000 0.052000 0.052000 1.200000 0.025000 0.030000
1560046808589241257	200 51 0.900000 0.014000 0.012000 1500 44 1.000000 1.789000 1.964000 600 49 1.000000 0.052000 0.052000 1.200000 0.025000 0.030000
1560046809097937965	200 51 0.900000 0.014000 0.012000 1500 44 1.000000 1.809000 1.986000 600 50 1.000000 0.052000 0.052000 1.200000 0.024000 0.028000
1560046809609672257	200 52 0.900000 0.014000 0.012000 1500 44 1.000000 1.791000 1.966000 600 51 1.000000 0.052000 0.052000 1.200000 0.024000 0.028000
1560046810118662507	200 51 0.900000 0.016000 0.014000 1500 44 1.100000 1.905000 2.095000 600 50 1.000000 0.052000 0.052000 1.200000 0.030000 0.036000
1560046810627015632	200 51 0.900000 0.014000 0.012000 1500 44 1.000000 1.776000 1.950000 600 50 1.000000 0.052000 0.052000 1.200000 0.025000 0.030000
1560046811135723507	200 51 0.900000 0.014000 0.012000 1500 44 1.000000 1.793000 1.968000 600 50 1.000000 0.052000 0.052000 1.200000 0.024000 0.028000
1560046811644365341	200 51 0.900000 0.015000 0.013000 1500 44 1.000000 1.900000 2.086000 600 50 1.000000 0.052000 0.052000 1.200000 0.030000 0.036000
1560046812152877882	200 52 0.900000 0.017000 0.015000 1500 44 1.000000 1.870000 2.053000 600 50 1.000000 0.052000 0.052000 1.200000 0.026000 0.031000
1560046812661688424	200 51 0.900000 0.014000 0.012000 1500 44 1.000000 1.769000 1.942000 600 50 1.000000 0.052000 0.052000 1.200000 0.025000 0.030000
1560046813170041841	200 52 0.900000 0.014000 0.012000 1500 44 1.000000 1.790000 1.965000 600 50 1.000000 0.052000 0.052000 1.200000 0.025000 0.030000
1560046813678828216	200 52 0.900000 0.014000 0.012000 1500 44 1.000000 1.900000 2.086000 600 50 1.000000 0.053000 0.053000 1.200000 0.029000 0.035000
1560046814187484716	200 52 0.900000 0.018000 0.016000 1500 44 1.000000 1.771000 1.944000 600 50 1.000000 0.052000 0.052000 1.200000 0.024000 0.028000
1560046814696079424	200 52 0.900000 0.014000 0.012000 1500 44 1.000000 1.805000 1.981000 600 50 1.000000 0.052000 0.052000 1.200000 0.025000 0.030000
1560046815204811591	200 52 0.900000 0.014000 0.012000 1500 44 1.000000 1.785000 1.959000 600 50 1.000000 0.052000 0.052000 1.200000 0.024000 0.028000
1560046815713449799	200 52 0.900000 0.014000 0.012000 1500 44 1.000000 1.785000 1.959000 600 50 1.000000 0.052000 0.052000 1.200000 0.025000 0.030000
1560046816221765216	200 52 0.900000 0.014000 0.012000 1500 44 1.000000 1.801000 1.977000 600 51 1.000000 0.052000 0.052000 1.200000 0.025000 0.030000
1560046816730582550	200 52 0.900000 0.014000 0.012000 1500 44 1.000000 1.773000 1.946000 600 50 1.000000 0.052000 0.052000 1.200000 0.024000 0.028000
1560046817239242675	200 52 0.900000 0.014000 0.012000 1500 44 1.000000 1.779000 1.953000 600 50 1.000000 0.052000 0.052000 1.200000 0.023000 0.027000
1560046817747857133	200 52 0.900000 0.014000 0.012000 1500 44 1.000000 1.771000 1.944000 600 50 1.000000 0.052000 0.052000 1.200000 0.024000 0.028000
1560046818258316425	200 52 0.900000 0.014000 0.012000 1500 44 1.000000 1.777000 1.951000 600 51 1.000000 0.052000 0.052000 1.200000 0.024000 0.028000
1560046818767075675	200 52 0.900000 0.019000 0.017000 1500 44 1.100000 2.093000 2.302000 600 50 1.000000 0.053000 0.053000 1.200000 0.031000 0.037000
1560046819275304425	200 52 0.900000 0.014000 0.012000 1500 44 1.000000 1.788000 1.963000 600 51 1.000000 0.052000 0.052000 1.200000 0.025000 0.030000
1560046819783938008	200 52 0.900000 0.014000 0.012000 1500 44 1.100000 1.887000 2.075000 600 50 1.000000 0.052000 0.052000 1.200000 0.028000 0.033000
1560046820292454425	200 52 0.900000 0.014000 0.012000 1500 44 1.000000 1.805000 1.981000 600 50 1.000000 0.052000 0.052000 1.200000 0.025000 0.030000
1560046820801050258	200 52 0.900000 0.019000 0.017000 1500 44 1.100000 1.968000 2.164000 600 50 1.000000 0.052000 0.052000 1.200000 0.029000 0.035000
1560046821309626800	200 52 0.900000 0.015000 0.013000 1500 44 1.000000 1.780000 1.954000 600 51 1.000000 0.053000 0.053000 1.200000 0.024000 0.028000
1560046821818318467	200 52 0.900000 0.015000 0.013000 1500 44 1.000000 1.805000 1.981000 600 50 1.000000 0.052000 0.052000 1.200000 0.028000 0.033000
1560046822326988217	200 52 0.900000 0.014000 0.012000 1500 44 1.000000 1.773000 1.946000 600 50 1.000000 0.053000 0.053000 1.200000 0.024000 0.028000
1560046822835445342	200 52 0.900000 0.014000 0.012000 1500 44 1.100000 1.877000 2.064000 600 51 1.000000 0.053000 0.053000 1.200000 0.026000 0.031000
1560046823348183425	200 52 0.900000 0.014000 0.012000 1500 44 1.000000 1.774000 1.947000 600 52 1.000000 0.052000 0.052000 1.200000 0.024000 0.028000
1560046823857162675	200 52 0.900000 0.014000 0.012000 1500 44 1.000000 1.764000 1.936000 600 50 1.000000 0.053000 0.053000 1.200000 0.024000 0.028000
1560046824365903467	200 52 0.900000 0.014000 0.012000 1500 45 1.000000 1.765000 1.937000 600 50 1.000000 0.052000 0.052000 1.200000 0.023000 0.027000
1560046824875857092	200 52 0.900000 0.015000 0.013000 1500 44 1.000000 1.801000 1.977000 600 51 1.000000 0.053000 0.053000 1.200000 0.024000 0.028000
1560046825396439717	200 52 0.900000 0.020000 0.018000 1500 44 1.100000 2.099000 2.310000 600 51 1.000000 0.053000 0.053000 1.200000 0.035000 0.042000
1560046825907398134	200 52 0.900000 0.015000 0.013000 1500 44 1.100000 1.906000 2.096000 600 50 1.000000 0.052000 0.052000 1.200000 0.029000 0.035000
1560046826416114176	200 52 0.900000 0.014000 0.012000 1500 45 1.100000 1.795000 1.974000 600 50 1.000000 0.052000 0.052000 1.200000 0.025000 0.030000
1560046826924753426	200 52 0.900000 0.014000 0.012000 1500 44 1.000000 1.775000 1.948000 600 50 1.000000 0.053000 0.053000 1.200000 0.024000 0.028000
1560046827433450718	200 52 0.900000 0.015000 0.013000 1500 44 1.100000 2.129000 2.344000 600 51 1.000000 0.052000 0.052000 1.200000 0.031000 0.037000
1560046827942318468	200 52 0.900000 0.019000 0.017000 1500 44 1.000000 1.832000 2.011000 600 50 1.000000 0.053000 0.053000 1.200000 0.033000 0.039000
1560046828450989551	200 52 0.900000 0.015000 0.013000 1500 44 1.000000 1.789000 1.964000 600 50 1.000000 0.053000 0.053000 1.200000 0.024000 0.028000
1560046828959583134	200 52 0.900000 0.015000 0.013000 1500 44 1.000000 1.768000 1.941000 600 50 1.000000 0.052000 0.052000 1.200000 0.024000 0.028000
1560046829468170301	200 52 0.900000 0.016000 0.014000 1500 45 1.100000 2.090000 2.299000 600 51 1.000000 0.053000 0.053000 1.200000 0.029000 0.035000
1560046829976934968	200 52 0.900000 0.015000 0.013000 1500 45 1.000000 1.879000 2.063000 600 50 1.000000 0.053000 0.053000 1.200000 0.029000 0.035000
1560046830485663135	200 52 0.900000 0.014000 0.012000 1500 45 1.000000 1.767000 1.940000 600 50 1.000000 0.052000 0.052000 1.200000 0.024000 0.028000
1560046830994310301	200 52 0.900000 0.014000 0.012000 1500 44 1.000000 1.765000 1.937000 600 50 1.000000 0.052000 0.052000 1.200000 0.024000 0.028000
1560046831505015551	200 52 0.900000 0.017000 0.015000 1500 45 1.100000 1.933000 2.126000 600 51 1.000000 0.052000 0.052000 1.200000 0.028000 0.033000
1560046832013671051	200 52 0.900000 0.014000 0.012000 1500 45 1.000000 1.842000 2.022000 600 50 1.000000 0.053000 0.053000 1.200000 0.028000 0.033000
1560046832522243218	200 52 0.900000 0.014000 0.012000 1500 45 1.000000 1.769000 1.942000 600 50 1.000000 0.052000 0.052000 1.200000 0.024000 0.028000
1560046833030983052	200 52 0.900000 0.014000 0.012000 1500 45 1.000000 1.795000 1.970000 600 50 1.000000 0.053000 0.053000 1.200000 0.024000 0.028000
1560046833543294135	200 52 0.900000 0.014000 0.012000 1500 44 1.000000 1.781000 1.955000 600 51 1.000000 0.052000 0.052000 1.200000 0.025000 0.030000
1560046834052340635	200 52 0.900000 0.017000 0.015000 1500 45 1.100000 2.168000 2.386000 600 51 1.000000 0.052000 0.052000 1.200000 0.044000 0.053000
1560046834560959885	200 52 0.900000 0.014000 0.012000 1500 45 1.000000 1.796000 1.972000 600 50 1.000000 0.052000 0.052000 1.200000 0.025000 0.030000
1560046835069536593	200 52 0.900000 0.014000 0.012000 1500 45 1.000000 1.761000 1.933000 600 50 1.000000 0.053000 0.053000 1.200000 0.024000 0.028000
1560046835578099594	200 52 0.900000 0.015000 0.013000 1500 45 1.000000 1.771000 1.944000 600 50 1.000000 0.053000 0.053000 1.200000 0.024000 0.028000
1560046836086472344	200 52 0.900000 0.015000 0.013000 1500 45 1.100000 2.054000 2.259000 600 51 1.000000 0.053000 0.053000 1.200000 0.033000 0.039000
1560046836595290969	200 52 0.900000 0.014000 0.012000 1500 45 1.000000 1.782000 1.956000 600 50 1.000000 0.053000 0.053000 1.200000 0.024000 0.028000
1560046837103773969	200 52 0.900000 0.014000 0.012000 1500 45 1.000000 1.771000 1.944000 600 50 1.000000 0.053000 0.053000 1.200000 0.023000 0.027000
1560046837612233802	200 52 0.900000 0.014000 0.012000 1500 45 1.000000 1.761000 1.933000 600 50 1.000000 0.053000 0.053000 1.200000 0.024000 0.028000
1560046838121601594	200 52 0.900000 0.015000 0.013000 1500 45 1.100000 1.892000 2.081000 600 51 1.000000 0.053000 0.053000 1.200000 0.029000 0.035000
1560046838630398677	200 52 0.900000 0.014000 0.012000 1500 45 1.000000 1.779000 1.953000 600 51 1.000000 0.053000 0.053000 1.200000 0.024000 0.028000
1560046839138962261	200 52 0.900000 0.014000 0.012000 1500 45 1.000000 1.782000 1.956000 600 50 1.000000 0.053000 0.053000 1.200000 0.023000 0.027000
1560046839647681927	200 52 0.900000 0.014000 0.012000 1500 45 1.000000 1.770000 1.943000 600 50 1.000000 0.053000 0.053000 1.200000 0.024000 0.028000
1560046840156476344	200 52 0.900000 0.014000 0.012000 1500 45 1.000000 1.844000 2.024000 600 50 1.000000 0.052000 0.052000 1.200000 0.024000 0.028000
1560046840665266219	200 52 0.900000 0.015000 0.013000 1500 45 1.100000 2.034000 2.237000 600 51 1.000000 0.052000 0.052000 1.200000 0.035000 0.042000
1560046841174005219	200 52 0.900000 0.015000 0.013000 1500 45 1.000000 1.784000 1.958000 600 51 1.000000 0.053000 0.053000 1.200000 0.025000 0.030000
1560046841682819344	200 52 0.900000 0.015000 0.013000 1500 45 1.000000 1.799000 1.975000 600 50 1.000000 0.053000 0.053000 1.200000 0.024000 0.028000
1560046842191673053	200 52 0.900000 0.014000 0.012000 1500 45 1.000000 1.775000 1.948000 600 50 1.000000 0.053000 0.053000 1.200000 0.029000 0.035000
1560046842700209886	200 53 0.900000 0.014000 0.012000 1500 45 1.000000 1.802000 1.978000 600 52 1.000000 0.053000 0.053000 1.200000 0.027000 0.032000
1560046843218029011	200 52 0.900000 0.015000 0.013000 1500 45 1.100000 2.002000 2.202000 600 51 1.000000 0.053000 0.053000 1.200000 0.024000 0.028000
1560046843728525136	200 52 0.900000 0.015000 0.013000 1500 45 1.000000 1.785000 1.959000 600 50 1.000000 0.053000 0.053000 1.200000 0.024000 0.028000
1560046844237381928	200 52 0.900000 0.015000 0.013000 1500 45 1.000000 1.786000 1.961000 600 51 1.000000 0.052000 0.052000 1.200000 0.028000 0.033000
1560046844749090303	200 53 0.900000 0.014000 0.012000 1500 45 1.000000 1.793000 1.968000 600 51 1.000000 0.052000 0.052000 1.200000 0.024000 0.028000
1560046845258479636	200 53 0.900000 0.017000 0.015000 1500 45 1.100000 2.088000 2.298000 600 51 1.000000 0.053000 0.053000 1.200000 0.026000 0.031000
1560046845767261553	200 52 0.900000 0.014000 0.012000 1500 45 1.000000 1.810000 1.987000 600 51 1.000000 0.053000 0.053000 1.200000 0.024000 0.028000
1560046846275865136	200 52 0.900000 0.014000 0.012000 1500 45 1.000000 1.769000 1.942000 600 51 1.000000 0.053000 0.053000 1.200000 0.025000 0.030000
1560046846784655053	200 52 0.900000 0.014000 0.012000 1500 45 1.000000 1.803000 1.979000 600 51 1.000000 0.053000 0.053000 1.200000 0.025000 0.030000
1560046847295359803	200 53 0.900000 0.015000 0.013000 1500 45 1.000000 1.785000 1.959000 600 51 1.000000 0.053000 0.053000 1.200000 0.023000 0.027000
1560046847803904637	200 53 0.900000 0.018000 0.016000 1500 45 1.100000 1.948000 2.142000 600 51 1.000000 0.053000 0.053000 1.200000 0.034000 0.041000
1560046848312454928	200 52 0.900000 0.015000 0.013000 1500 45 1.000000 1.800000 1.976000 600 51 1.000000 0.053000 0.053000 1.200000 0.025000 0.030000
1560046848821229220	200 52 0.900000 0.014000 0.012000 1500 45 1.000000 1.813000 1.990000 600 51 1.000000 0.053000 0.053000 1.200000 0.029000 0.035000
1560046849333938345	200 53 0.900000 0.015000 0.013000 1500 45 1.000000 1.781000 1.955000 600 52 1.000000 0.053000 0.053000 1.200000 0.024000 0.028000
1560046849842642679	200 53 0.900000 0.020000 0.018000 1500 45 1.100000 2.081000 2.289000 600 51 1.000000 0.053000 0.053000 1.200000 0.040000 0.048000
1560046850351505804	200 53 0.900000 0.014000 0.012000 1500 45 1.000000 1.801000 1.977000 600 51 1.000000 0.053000 0.053000 1.200000 0.025000 0.030000
1560046850859897762	200 52 0.900000 0.014000 0.012000 1500 45 1.000000 1.777000 1.951000 600 51 1.000000 0.053000 0.053000 1.200000 0.024000 0.028000
1560046851368621804	200 53 0.900000 0.014000 0.012000 1500 45 1.000000 1.790000 1.965000 600 51 1.000000 0.053000 0.053000 1.200000 0.025000 0.030000
1560046851877223262	200 53 0.900000 0.021000 0.019000 1500 45 1.100000 1.999000 2.198000 600 51 1.000000 0.053000 0.053000 1.200000 0.033000 0.039000
1560046852385896054	200 53 0.900000 0.014000 0.012000 1500 45 1.000000 1.789000 1.964000 600 51 1.000000 0.052000 0.052000 1.200000 0.024000 0.028000
1560046852894636887	200 53 0.900000 0.014000 0.012000 1500 45 1.000000 1.810000 1.987000 600 51 1.000000 0.053000 0.053000 1.200000 0.026000 0.031000
1560046853403365679	200 52 0.900000 0.014000 0.012000 1500 45 1.100000 1.763000 1.939000 600 51 1.000000 0.052000 0.052000 1.200000 0.024000 0.028000
1560046853911694721	200 53 0.900000 0.015000 0.013000 1500 45 1.000000 1.857000 2.038000 600 51 1.000000 0.053000 0.053000 1.200000 0.026000 0.031000
1560046854420323262	200 53 0.900000 0.014000 0.012000 1500 45 1.000000 1.763000 1.935000 600 51 1.000000 0.052000 0.052000 1.200000 0.024000 0.028000
1560046854928730304	200 53 0.900000 0.015000 0.013000 1500 45 1.100000 1.882000 2.070000 600 51 1.000000 0.053000 0.053000 1.200000 0.029000 0.035000
1560046855438412471	200 52 0.900000 0.015000 0.013000 1500 45 1.000000 1.800000 1.976000 600 51 1.000000 0.053000 0.053000 1.200000 0.025000 0.030000
1560046855950422763	200 52 0.900000 0.014000 0.012000 1500 45 1.000000 1.784000 1.958000 600 51 1.000000 0.053000 0.053000 1.200000 0.024000 0.028000
1560046856459250804	200 53 0.900000 0.025000 0.022000 1500 45 1.100000 2.048000 2.252000 600 51 1.000000 0.053000 0.053000 1.200000 0.037000 0.044000
1560046856968062179	200 53 0.900000 0.015000 0.013000 1500 45 1.000000 1.792000 1.967000 600 51 1.000000 0.053000 0.053000 1.200000 0.028000 0.033000
1560046857476683721	200 52 0.900000 0.014000 0.012000 1500 45 1.000000 1.788000 1.963000 600 51 1.000000 0.053000 0.053000 1.200000 0.025000 0.030000
1560046857985414221	200 52 0.900000 0.015000 0.013000 1500 45 1.000000 1.757000 1.929000 600 51 1.000000 0.053000 0.053000 1.200000 0.024000 0.028000
1560046858493920846	200 53 0.900000 0.023000 0.020000 1500 45 1.000000 1.926000 2.114000 600 51 1.000000 0.052000 0.052000 1.200000 0.029000 0.035000
1560046859002690805	200 53 0.900000 0.016000 0.014000 1500 45 1.000000 1.778000 1.952000 600 51 1.000000 0.053000 0.053000 1.200000 0.026000 0.031000
1560046859511472888	200 53 0.900000 0.015000 0.013000 1500 45 1.000000 1.765000 1.937000 600 51 1.000000 0.053000 0.053000 1.200000 0.024000 0.028000
1560046860020016555	200 53 0.900000 0.015000 0.013000 1500 45 1.000000 1.763000 1.935000 600 51 1.000000 0.053000 0.053000 1.200000 0.024000 0.028000
1560046860531802638	200 53 0.900000 0.014000 0.012000 1500 45 1.000000 1.757000 1.929000 600 52 1.000000 0.053000 0.053000 1.200000 0.024000 0.028000
1560046861040491097	200 53 0.900000 0.020000 0.018000 1500 45 1.000000 1.767000 1.940000 600 51 1.000000 0.053000 0.053000 1.200000 0.027000 0.032000
1560046861549192597	200 53 0.900000 0.014000 0.012000 1500 45 1.000000 1.760000 1.932000 600 51 1.000000 0.052000 0.052000 1.200000 0.024000 0.028000
1560046862057945805	200 53 0.900000 0.015000 0.013000 1500 45 1.000000 1.787000 1.962000 600 51 1.000000 0.053000 0.053000 1.200000 0.025000 0.030000
1560046862566577472	200 53 0.900000 0.014000 0.012000 1500 45 1.000000 1.782000 1.956000 600 51 1.000000 0.053000 0.053000 1.200000 0.024000 0.028000
1560046863075306972	200 53 0.900000 0.020000 0.018000 1500 45 1.100000 2.062000 2.268000 600 51 1.000000 0.053000 0.053000 1.200000 0.033000 0.039000
1560046863583798139	200 53 0.900000 0.014000 0.012000 1500 45 1.000000 1.768000 1.941000 600 51 1.000000 0.053000 0.053000 1.200000 0.025000 0.030000
1560046864092315555	200 53 0.900000 0.014000 0.012000 1500 45 1.000000 1.782000 1.956000 600 51 1.000000 0.053000 0.053000 1.200000 0.023000 0.027000
1560046864610377680	200 53 0.900000 0.014000 0.012000 1500 45 1.000000 1.779000 1.953000 600 51 1.000000 0.053000 0.053000 1.200000 0.025000 0.030000
1560046865120338847	200 53 0.900000 0.015000 0.013000 1500 45 1.000000 1.908000 2.094000 600 52 1.000000 0.053000 0.053000 1.200000 0.030000 0.036000
1560046865628852014	200 53 0.900000 0.019000 0.017000 1500 45 1.000000 1.771000 1.944000 600 51 1.000000 0.053000 0.053000 1.200000 0.025000 0.030000
1560046866137524222	200 53 0.900000 0.014000 0.012000 1500 45 1.000000 1.774000 1.947000 600 51 1.000000 0.053000 0.053000 1.200000 0.024000 0.028000
1560046866645912847	200 53 0.900000 0.015000 0.013000 1500 45 1.000000 1.761000 1.933000 600 51 1.000000 0.053000 0.053000 1.200000 0.024000 0.028000
1560046867159582931	200 53 0.900000 0.015000 0.013000 1500 45 1.000000 1.878000 2.062000 600 52 1.000000 0.053000 0.053000 1.200000 0.029000 0.035000
1560046867668370347	200 53 0.900000 0.020000 0.018000 1500 45 1.000000 1.851000 2.032000 600 51 1.000000 0.053000 0.053000 1.200000 0.031000 0.037000
1560046868177006472	200 53 0.900000 0.015000 0.013000 1500 45 1.000000 1.765000 1.937000 600 51 1.000000 0.053000 0.053000 1.200000 0.024000 0.028000
1560046868685770264	200 53 0.900000 0.014000 0.012000 1500 45 1.000000 1.767000 1.940000 600 51 1.000000 0.053000 0.053000 1.200000 0.024000 0.028000
1560046869194553473	200 53 0.900000 0.015000 0.013000 1500 45 1.000000 1.817000 1.995000 600 51 1.000000 0.053000 0.053000 1.200000 0.029000 0.035000
1560046869703085889	200 53 0.900000 0.017000 0.015000 1500 45 1.100000 1.886000 2.074000 600 51 1.000000 0.052000 0.052000 1.200000 0.026000 0.031000
1560046870211578348	200 53 0.900000 0.014000 0.012000 1500 45 1.000000 1.773000 1.946000 600 51 1.000000 0.053000 0.053000 1.200000 0.025000 0.030000
1560046870720429848	200 53 0.900000 0.015000 0.013000 1500 45 1.000000 1.791000 1.966000 600 51 1.000000 0.053000 0.053000 1.200000 0.024000 0.028000
1560046871229115223	200 53 0.900000 0.015000 0.013000 1500 45 1.100000 1.893000 2.082000 600 51 1.000000 0.053000 0.053000 1.200000 0.030000 0.036000
1560046871737742640	200 53 0.900000 0.015000 0.013000 1500 45 1.000000 1.769000 1.942000 600 52 1.000000 0.053000 0.053000 1.200000 0.025000 0.030000
1560046872246359098	200 53 0.900000 0.022000 0.020000 1500 45 1.000000 1.775000 1.948000 600 51 1.000000 0.053000 0.053000 1.200000 0.027000 0.032000
1560046872755031140	200 53 0.900000 0.015000 0.013000 1500 45 1.000000 1.769000 1.942000 600 51 1.000000 0.053000 0.053000 1.200000 0.024000 0.028000
1560046873263888723	200 53 0.900000 0.015000 0.013000 1500 45 1.000000 1.882000 2.066000 600 51 1.000000 0.053000 0.053000 1.200000 0.029000 0.035000
1560046873772324306	200 53 0.900000 0.015000 0.013000 1500 45 1.000000 1.771000 1.944000 600 51 1.000000 0.053000 0.053000 1.200000 0.024000 0.028000
1560046874280937181	200 53 0.900000 0.020000 0.018000 1500 45 1.000000 1.877000 2.060000 600 51 1.000000 0.053000 0.053000 1.200000 0.031000 0.037000
1560046874789712932	200 53 0.900000 0.014000 0.012000 1500 45 1.000000 1.768000 1.941000 600 51 1.000000 0.053000 0.053000 1.200000 0.024000 0.028000
1560046875298459390	200 53 0.900000 0.015000 0.013000 1500 45 1.100000 1.876000 2.063000 600 51 1.000000 0.052000 0.052000 1.200000 0.029000 0.035000
1560046875807107848	200 53 0.900000 0.014000 0.012000 1500 45 1.000000 1.760000 1.932000 600 51 1.000000 0.053000 0.053000 1.200000 0.023000 0.027000
1560046876315952265	200 53 0.900000 0.015000 0.013000 1500 45 1.100000 1.905000 2.095000 600 51 1.000000 0.053000 0.053000 1.200000 0.026000 0.031000
1560046876824804890	200 53 0.900000 0.014000 0.012000 1500 45 1.000000 1.787000 1.962000 600 51 1.000000 0.053000 0.053000 1.200000 0.024000 0.028000
1560046877333651724	200 53 0.900000 0.015000 0.013000 1500 45 1.100000 1.872000 2.059000 600 51 1.000000 0.052000 0.052000 1.200000 0.025000 0.030000
1560046877842429057	200 53 0.900000 0.015000 0.013000 1500 45 1.000000 1.769000 1.942000 600 51 1.000000 0.053000 0.053000 1.200000 0.024000 0.028000
1560046878351990974	200 53 0.900000 0.015000 0.013000 1500 45 1.000000 1.769000 1.942000 600 52 1.000000 0.053000 0.053000 1.200000 0.024000 0.028000
1560046878860996390	200 53 0.900000 0.022000 0.020000 1500 45 1.100000 2.068000 2.274000 600 51 1.000000 0.052000 0.052000 1.200000 0.024000 0.028000
1560046879369845849	200 53 0.900000 0.014000 0.012000 1500 45 1.000000 1.809000 1.986000 600 51 1.000000 0.052000 0.052000 1.200000 0.029000 0.035000
1560046879878469390	200 53 0.900000 0.015000 0.013000 1500 45 1.000000 1.793000 1.968000 600 51 1.000000 0.053000 0.053000 1.200000 0.024000 0.028000
1560046880416154349	200 53 0.900000 0.014000 0.012000 1500 45 1.000000 1.802000 1.978000 600 51 1.000000 0.053000 0.053000 1.200000 0.023000 0.027000
1560046880928096807	200 53 0.900000 0.020000 0.018000 1500 45 1.100000 2.093000 2.302000 600 51 1.000000 0.053000 0.053000 1.200000 0.029000 0.035000
1560046881446098141	200 53 0.900000 0.015000 0.013000 1500 45 1.000000 1.793000 1.968000 600 51 1.000000 0.053000 0.053000 1.200000 0.029000 0.035000
1560046881956511224	200 53 0.900000 0.015000 0.013000 1500 46 1.000000 1.804000 1.980000 600 51 1.000000 0.053000 0.053000 1.200000 0.024000 0.028000
1560046882465177516	200 53 0.900000 0.014000 0.012000 1500 45 1.000000 1.795000 1.970000 600 51 1.000000 0.053000 0.053000 1.200000 0.023000 0.027000
1560046882973665808	200 53 0.900000 0.022000 0.020000 1500 45 1.100000 1.951000 2.146000 600 51 1.000000 0.053000 0.053000 1.200000 0.035000 0.042000
1560046883482480224	200 53 0.900000 0.015000 0.013000 1500 46 1.000000 1.788000 1.963000 600 51 1.000000 0.053000 0.053000 1.200000 0.029000 0.035000
1560046883991303391	200 53 0.900000 0.015000 0.013000 1500 46 1.000000 1.807000 1.984000 600 51 1.000000 0.052000 0.052000 1.200000 0.024000 0.028000
1560046884499886308	200 53 0.900000 0.014000 0.012000 1500 45 1.000000 1.787000 1.962000 600 51 1.000000 0.053000 0.053000 1.200000 0.024000 0.028000
1560046885012115349	200 53 0.900000 0.015000 0.013000 1500 45 1.000000 1.788000 1.963000 600 52 1.000000 0.053000 0.053000 1.200000 0.024000 0.028000
1560046885520796141	200 53 0.900000 0.023000 0.020000 1500 45 1.100000 2.102000 2.314000 600 51 1.000000 0.053000 0.053000 1.200000 0.038000 0.045000
1560046886029642850	200 53 0.900000 0.015000 0.013000 1500 45 1.000000 1.813000 1.990000 600 51 1.000000 0.052000 0.052000 1.200000 0.028000 0.033000
1560046886538178933	200 53 0.900000 0.015000 0.013000 1500 45 1.000000 1.790000 1.965000 600 51 1.000000 0.053000 0.053000 1.200000 0.023000 0.027000
1560046887047783683	200 53 0.900000 0.014000 0.012000 1500 45 1.000000 1.811000 1.988000 600 51 1.000000 0.053000 0.053000 1.200000 0.025000 0.030000
1560046887556536183	200 53 0.900000 0.024000 0.021000 1500 46 1.100000 2.007000 2.207000 600 52 1.000000 0.053000 0.053000 1.200000 0.031000 0.037000
1560046888065234266	200 53 0.900000 0.014000 0.012000 1500 46 1.000000 1.789000 1.964000 600 51 1.000000 0.053000 0.053000 1.200000 0.024000 0.028000
1560046888573815642	200 53 0.900000 0.014000 0.012000 1500 45 1.000000 1.808000 1.985000 600 51 1.000000 0.053000 0.053000 1.200000 0.025000 0.030000
1560046889082422433	200 53 0.900000 0.014000 0.012000 1500 45 1.000000 1.798000 1.974000 600 51 1.000000 0.053000 0.053000 1.200000 0.025000 0.030000
1560046889590929600	200 53 0.900000 0.023000 0.020000 1500 46 1.100000 1.846000 2.030000 600 52 1.000000 0.053000 0.053000 1.200000 0.024000 0.028000
1560046890099582642	200 53 0.900000 0.017000 0.015000 1500 46 1.000000 1.813000 1.990000 600 51 1.000000 0.053000 0.053000 1.200000 0.026000 0.031000
1560046890608175058	200 53 0.900000 0.014000 0.012000 1500 45 1.000000 1.783000 1.957000 600 51 1.000000 0.053000 0.053000 1.200000 0.024000 0.028000
1560046891125959058	200 53 0.900000 0.015000 0.013000 1500 45 1.000000 1.780000 1.954000 600 51 1.000000 0.053000 0.053000 1.200000 0.024000 0.028000
1560046891639623600	200 53 0.900000 0.014000 0.012000 1500 46 1.100000 1.787000 1.965000 600 52 1.000000 0.053000 0.053000 1.200000 0.024000 0.028000
1560046892148165934	200 53 0.900000 0.020000 0.018000 1500 46 1.100000 1.893000 2.082000 600 51 1.000000 0.053000 0.053000 1.200000 0.030000 0.036000
1560046892666027600	200 53 0.900000 0.015000 0.013000 1500 46 1.000000 1.808000 1.985000 600 51 1.000000 0.052000 0.052000 1.200000 0.025000 0.030000
1560046893176414434	200 53 0.900000 0.015000 0.013000 1500 46 1.000000 1.793000 1.968000 600 51 1.000000 0.053000 0.053000 1.200000 0.025000 0.030000
1560046893685142142	200 53 0.900000 0.015000 0.013000 1500 45 1.000000 1.808000 1.985000 600 51 1.000000 0.053000 0.053000 1.200000 0.025000 0.030000
1560046894193672184	200 53 0.900000 0.017000 0.015000 1500 46 1.100000 1.924000 2.116000 600 52 1.000000 0.053000 0.053000 1.200000 0.029000 0.035000
1560046894702379517	200 53 0.900000 0.015000 0.013000 1500 46 1.000000 1.810000 1.987000 600 51 1.000000 0.053000 0.053000 1.200000 0.024000 0.028000
1560046895211003392	200 53 0.900000 0.015000 0.013000 1500 46 1.000000 1.794000 1.969000 600 51 1.000000 0.053000 0.053000 1.200000 0.025000 0.030000
1560046895719847517	200 53 0.900000 0.014000 0.012000 1500 46 1.000000 1.792000 1.967000 600 52 1.000000 0.053000 0.053000 1.200000 0.024000 0.028000
1560046896228202684	200 53 0.900000 0.019000 0.017000 1500 46 1.000000 1.874000 2.057000 600 52 1.000000 0.053000 0.053000 1.200000 0.025000 0.030000
1560046896745932726	200 53 0.900000 0.017000 0.015000 1500 46 1.000000 1.791000 1.966000 600 52 1.000000 0.053000 0.053000 1.200000 0.025000 0.030000
1560046897254686809	200 53 0.900000 0.015000 0.013000 1500 46 1.100000 1.785000 1.963000 600 51 1.000000 0.053000 0.053000 1.200000 0.025000 0.030000
1560046897763606809	200 53 0.900000 0.015000 0.013000 1500 46 1.000000 1.781000 1.955000 600 52 1.000000 0.053000 0.053000 1.200000 0.024000 0.028000
1560046898278265059	200 53 0.900000 0.014000 0.012000 1500 46 1.000000 1.782000 1.956000 600 52 1.000000 0.053000 0.053000 1.200000 0.024000 0.028000
1560046898787666643	200 53 0.900000 0.018000 0.016000 1500 46 1.100000 1.812000 1.993000 600 51 1.000000 0.053000 0.053000 1.200000 0.030000 0.036000
1560046899296117518	200 53 0.900000 0.014000 0.012000 1500 46 1.000000 1.779000 1.953000 600 51 1.000000 0.053000 0.053000 1.200000 0.024000 0.028000
1560046899804580560	200 53 0.900000 0.015000 0.013000 1500 46 1.100000 1.822000 2.004000 600 52 1.000000 0.053000 0.053000 1.200000 0.024000 0.028000
1560046900313401893	200 53 0.900000 0.015000 0.013000 1500 46 1.100000 1.881000 2.069000 600 51 1.000000 0.053000 0.053000 1.200000 0.029000 0.035000
1560046900822158601	200 53 0.900000 0.019000 0.017000 1500 46 1.100000 1.915000 2.106000 600 52 1.000000 0.053000 0.053000 1.200000 0.029000 0.035000
1560046901330721601	200 53 0.900000 0.014000 0.012000 1500 46 1.100000 1.806000 1.986000 600 51 1.000000 0.053000 0.053000 1.200000 0.024000 0.028000
1560046901839301435	200 53 0.900000 0.014000 0.012000 1500 46 1.000000 1.801000 1.977000 600 52 1.000000 0.053000 0.053000 1.200000 0.025000 0.030000
1560046902348048518	200 53 0.900000 0.014000 0.012000 1500 46 1.000000 1.796000 1.972000 600 51 1.000000 0.053000 0.053000 1.200000 0.026000 0.031000
1560046902856618727	200 53 0.900000 0.015000 0.013000 1500 46 1.100000 1.818000 1.999000 600 52 1.000000 0.052000 0.052000 1.200000 0.024000 0.028000
1560046903365122435	200 53 0.900000 0.020000 0.018000 1500 46 1.000000 1.784000 1.958000 600 52 1.000000 0.053000 0.053000 1.200000 0.027000 0.032000
1560046903873672477	200 53 0.900000 0.015000 0.013000 1500 46 1.100000 1.781000 1.959000 600 52 1.000000 0.053000 0.053000 1.200000 0.024000 0.028000
1560046904382230352	200 53 0.900000 0.015000 0.013000 1500 46 1.000000 1.781000 1.955000 600 51 1.000000 0.053000 0.053000 1.200000 0.024000 0.028000
1560046904891658518	200 53 0.900000 0.015000 0.013000 1500 46 1.000000 1.784000 1.958000 600 52 1.000000 0.053000 0.053000 1.200000 0.023000 0.027000
1560046905400466435	200 53 0.900000 0.018000 0.016000 1500 46 1.100000 1.868000 2.054000 600 52 1.000000 0.053000 0.053000 1.200000 0.030000 0.036000
1560046905908859185	200 53 0.900000 0.015000 0.013000 1500 46 1.100000 1.785000 1.963000 600 52 1.000000 0.053000 0.053000 1.200000 0.023000 0.027000
1560046906417538269	200 53 0.900000 0.014000 0.012000 1500 46 1.100000 1.781000 1.959000 600 51 1.000000 0.053000 0.053000 1.200000 0.024000 0.028000
1560046906926120769	200 53 0.900000 0.015000 0.013000 1500 46 1.000000 1.779000 1.953000 600 51 1.000000 0.053000 0.053000 1.200000 0.023000 0.027000
1560046907434910269	200 53 0.900000 0.016000 0.014000 1500 46 1.100000 1.915000 2.106000 600 52 1.000000 0.053000 0.053000 1.200000 0.026000 0.031000
1560046907943412102	200 53 0.900000 0.015000 0.013000 1500 46 1.100000 1.807000 1.987000 600 52 1.000000 0.053000 0.053000 1.200000 0.024000 0.028000
1560046908452130352	200 53 0.900000 0.015000 0.013000 1500 46 1.000000 1.835000 2.014000 600 51 1.000000 0.053000 0.053000 1.200000 0.029000 0.035000
1560046908969856477	200 53 0.900000 0.014000 0.012000 1500 46 1.000000 1.788000 1.963000 600 51 1.000000 0.053000 0.053000 1.200000 0.025000 0.030000
1560046909480071269	200 53 0.900000 0.015000 0.013000 1500 46 1.100000 1.819000 2.000000 600 52 1.000000 0.053000 0.053000 1.200000 0.025000 0.030000
1560046909989472894	200 53 0.900000 0.020000 0.018000 1500 46 1.100000 1.784000 1.962000 600 52 1.000000 0.053000 0.053000 1.200000 0.025000 0.030000
1560046910498155227	200 53 0.900000 0.017000 0.015000 1500 46 1.100000 1.782000 1.960000 600 51 1.000000 0.053000 0.053000 1.200000 0.026000 0.031000
1560046911006895353	200 53 0.900000 0.014000 0.012000 1500 46 1.000000 1.785000 1.959000 600 52 1.000000 0.053000 0.053000 1.200000 0.023000 0.027000
1560046911520274894	200 53 0.900000 0.015000 0.013000 1500 46 1.000000 1.781000 1.955000 600 52 1.000000 0.053000 0.053000 1.200000 0.024000 0.028000
1560046912033112019	200 53 0.900000 0.021000 0.019000 1500 46 1.000000 1.831000 2.010000 600 52 1.000000 0.052000 0.052000 1.200000 0.031000 0.037000
1560046912541682353	200 53 0.900000 0.020000 0.018000 1500 46 1.100000 1.795000 1.974000 600 51 1.000000 0.053000 0.053000 1.200000 0.027000 0.032000
1560046913050658436	200 53 0.900000 0.015000 0.013000 1500 46 1.000000 1.781000 1.955000 600 51 1.000000 0.053000 0.053000 1.200000 0.023000 0.027000
1560046913559183353	200 53 0.900000 0.014000 0.012000 1500 46 1.000000 1.787000 1.962000 600 51 1.000000 0.053000 0.053000 1.200000 0.024000 0.028000
1560046914067645645	200 53 0.900000 0.022000 0.020000 1500 46 1.100000 1.967000 2.163000 600 52 1.000000 0.053000 0.053000 1.200000 0.037000 0.044000
1560046914576236020	200 53 0.900000 0.014000 0.012000 1500 46 1.100000 1.906000 2.096000 600 52 1.000000 0.052000 0.052000 1.200000 0.024000 0.028000
1560046915094035145	200 53 0.900000 0.015000 0.013000 1500 46 1.100000 1.784000 1.962000 600 51 1.000000 0.053000 0.053000 1.200000 0.025000 0.030000
1560046915602683686	200 53 0.900000 0.015000 0.013000 1500 46 1.000000 1.781000 1.955000 600 51 1.000000 0.053000 0.053000 1.200000 0.025000 0.030000
1560046916116823770	200 53 0.900000 0.015000 0.013000 1500 46 1.000000 1.813000 1.990000 600 53 1.000000 0.052000 0.052000 1.200000 0.025000 0.030000
1560046916625654812	200 53 0.900000 0.023000 0.020000 1500 46 1.100000 2.116000 2.327000 600 52 1.000000 0.053000 0.053000 1.200000 0.033000 0.039000
1560046917134185395	200 53 0.900000 0.014000 0.012000 1500 46 1.000000 1.796000 1.972000 600 52 1.000000 0.053000 0.053000 1.200000 0.023000 0.027000
1560046917643081562	200 53 0.900000 0.015000 0.013000 1500 46 1.000000 1.800000 1.976000 600 51 1.000000 0.053000 0.053000 1.200000 0.024000 0.028000
1560046918152353103	200 53 0.900000 0.014000 0.012000 1500 46 1.000000 1.806000 1.982000 600 51 1.000000 0.053000 0.053000 1.200000 0.024000 0.028000
1560046918661123062	200 53 0.900000 0.024000 0.021000 1500 46 1.100000 1.967000 2.163000 600 52 1.000000 0.053000 0.053000 1.200000 0.038000 0.045000
1560046919169813812	200 53 0.900000 0.015000 0.013000 1500 46 1.000000 1.807000 1.984000 600 51 1.000000 0.053000 0.053000 1.200000 0.024000 0.028000
1560046919678388812	200 53 0.900000 0.014000 0.012000 1500 46 1.000000 1.799000 1.975000 600 51 1.000000 0.053000 0.053000 1.200000 0.023000 0.027000
1560046920187044479	200 53 0.900000 0.014000 0.012000 1500 46 1.000000 1.788000 1.963000 600 51 1.000000 0.053000 0.053000 1.200000 0.024000 0.028000
1560046920695483687	200 54 0.900000 0.022000 0.020000 1500 46 1.100000 1.918000 2.109000 600 52 1.000000 0.053000 0.053000 1.200000 0.041000 0.049000
1560046921204025854	200 53 0.900000 0.014000 0.012000 1500 46 1.000000 1.798000 1.974000 600 52 1.000000 0.053000 0.053000 1.200000 0.024000 0.028000
1560046921712752937	200 53 0.900000 0.015000 0.013000 1500 46 1.000000 1.788000 1.963000 600 52 1.000000 0.053000 0.053000 1.200000 0.023000 0.027000
1560046922222691729	200 53 0.900000 0.014000 0.012000 1500 46 1.000000 1.807000 1.984000 600 52 1.000000 0.053000 0.053000 1.200000 0.024000 0.028000
1560046922731446604	200 53 0.900000 0.015000 0.013000 1500 46 1.000000 1.786000 1.961000 600 53 1.000000 0.053000 0.053000 1.200000 0.029000 0.035000
1560046923240153021	200 53 0.900000 0.021000 0.019000 1500 46 1.100000 2.077000 2.284000 600 52 1.000000 0.053000 0.053000 1.200000 0.030000 0.036000
1560046923748621937	200 53 0.900000 0.015000 0.013000 1500 46 1.000000 1.810000 1.987000 600 52 1.000000 0.053000 0.053000 1.200000 0.023000 0.027000
1560046924257211021	200 53 0.900000 0.015000 0.013000 1500 46 1.000000 1.783000 1.957000 600 51 1.000000 0.053000 0.053000 1.200000 0.024000 0.028000
1560046924766109896	200 53 0.900000 0.015000 0.013000 1500 46 1.100000 1.814000 1.995000 600 51 1.000000 0.053000 0.053000 1.200000 0.025000 0.030000
1560046925274999354	200 53 0.900000 0.019000 0.017000 1500 46 1.100000 1.984000 2.182000 600 52 1.000000 0.053000 0.053000 1.200000 0.026000 0.031000
1560046925783642188	200 53 0.900000 0.014000 0.012000 1500 46 1.000000 1.800000 1.976000 600 52 1.000000 0.053000 0.053000 1.200000 0.024000 0.028000
1560046926292272479	200 53 0.900000 0.014000 0.012000 1500 46 1.000000 1.809000 1.986000 600 51 1.000000 0.053000 0.053000 1.200000 0.025000 0.030000
1560046926810296438	200 53 0.900000 0.015000 0.013000 1500 46 1.100000 1.789000 1.967000 600 52 1.000000 0.053000 0.053000 1.200000 0.024000 0.028000
1560046927320284021	200 54 0.900000 0.022000 0.020000 1500 46 1.100000 1.851000 2.036000 600 52 1.000000 0.053000 0.053000 1.200000 0.026000 0.031000
1560046927828869771	200 53 0.900000 0.017000 0.015000 1500 46 1.000000 1.788000 1.963000 600 52 1.000000 0.053000 0.053000 1.200000 0.025000 0.030000
1560046928337356355	200 53 0.900000 0.015000 0.013000 1500 46 1.000000 1.784000 1.958000 600 52 1.000000 0.052000 0.052000 1.200000 0.025000 0.030000
1560046928845866063	200 53 0.900000 0.015000 0.013000 1500 46 1.100000 1.883000 2.071000 600 52 1.000000 0.053000 0.053000 1.200000 0.025000 0.030000
1560046929357262730	200 53 0.900000 0.014000 0.012000 1500 46 1.000000 1.785000 1.959000 600 52 1.000000 0.053000 0.053000 1.200000 0.024000 0.028000
1560046929866917396	200 53 0.900000 0.020000 0.018000 1500 46 1.100000 2.040000 2.244000 600 52 1.000000 0.053000 0.053000 1.200000 0.032000 0.038000
1560046930375719688	200 53 0.900000 0.015000 0.013000 1500 46 1.000000 1.803000 1.979000 600 52 1.000000 0.053000 0.053000 1.200000 0.025000 0.030000
1560046930884327022	200 53 0.900000 0.014000 0.012000 1500 46 1.000000 1.786000 1.961000 600 52 1.000000 0.053000 0.053000 1.200000 0.024000 0.028000
1560046931401963397	200 53 0.900000 0.015000 0.013000 1500 46 1.000000 1.811000 1.988000 600 52 1.000000 0.053000 0.053000 1.200000 0.025000 0.030000
1560046931912211605	200 54 0.900000 0.020000 0.018000 1500 46 1.100000 1.892000 2.081000 600 52 1.000000 0.053000 0.053000 1.200000 0.025000 0.030000
1560046932420755397	200 53 0.900000 0.015000 0.013000 1500 46 1.000000 1.819000 1.997000 600 52 1.000000 0.053000 0.053000 1.200000 0.025000 0.030000
1560046932929600980	200 53 0.900000 0.015000 0.013000 1500 46 1.000000 1.788000 1.963000 600 52 1.000000 0.052000 0.052000 1.200000 0.025000 0.030000
1560046933438300814	200 53 0.900000 0.015000 0.013000 1500 46 1.000000 1.804000 1.980000 600 52 1.000000 0.053000 0.053000 1.200000 0.024000 0.028000
1560046933949975355	200 54 0.900000 0.018000 0.016000 1500 46 1.000000 1.805000 1.981000 600 53 1.000000 0.053000 0.053000 1.200000 0.025000 0.030000
1560046934459050314	200 54 0.900000 0.020000 0.018000 1500 46 1.000000 1.805000 1.981000 600 52 1.000000 0.053000 0.053000 1.200000 0.030000 0.036000
1560046934967696564	200 53 0.900000 0.014000 0.012000 1500 46 1.000000 1.815000 1.992000 600 52 1.000000 0.053000 0.053000 1.200000 0.024000 0.028000
1560046935476516230	200 53 0.900000 0.015000 0.013000 1500 46 1.000000 1.786000 1.961000 600 52 1.000000 0.053000 0.053000 1.200000 0.025000 0.030000
1560046935990485689	200 53 0.900000 0.015000 0.013000 1500 46 1.000000 1.785000 1.959000 600 51 1.000000 0.053000 0.053000 1.200000 0.023000 0.027000
1560046936499218522	200 53 0.900000 0.017000 0.015000 1500 46 1.100000 1.923000 2.115000 600 52 1.000000 0.053000 0.053000 1.200000 0.029000 0.035000
1560046937008286272	200 53 0.900000 0.015000 0.013000 1500 46 1.100000 1.887000 2.075000 600 52 1.000000 0.053000 0.053000 1.200000 0.026000 0.031000
1560046937516916731	200 53 0.900000 0.015000 0.013000 1500 46 1.000000 1.804000 1.980000 600 52 1.000000 0.053000 0.053000 1.200000 0.029000 0.035000
1560046938025632314	200 53 0.900000 0.015000 0.013000 1500 46 1.000000 1.792000 1.967000 600 52 1.000000 0.052000 0.052000 1.200000 0.025000 0.030000
1560046938534182022	200 54 0.900000 0.016000 0.014000 1500 46 1.100000 1.929000 2.121000 600 52 1.000000 0.053000 0.053000 1.200000 0.024000 0.028000
1560046939042722106	200 53 0.900000 0.015000 0.013000 1500 46 1.000000 1.793000 1.968000 600 52 1.000000 0.053000 0.053000 1.200000 0.025000 0.030000
1560046939551432731	200 53 0.900000 0.015000 0.013000 1500 46 1.000000 1.804000 1.980000 600 52 1.000000 0.053000 0.053000 1.200000 0.024000 0.028000
1560046940059985231	200 53 0.900000 0.015000 0.013000 1500 46 1.000000 1.801000 1.977000 600 52 1.000000 0.053000 0.053000 1.200000 0.024000 0.028000
1560046940568400731	200 54 0.900000 0.015000 0.013000 1500 46 1.000000 1.820000 1.998000 600 52 1.000000 0.053000 0.053000 1.200000 0.025000 0.030000
1560046941077061023	200 54 0.900000 0.017000 0.015000 1500 46 1.000000 1.784000 1.958000 600 52 1.000000 0.053000 0.053000 1.200000 0.025000 0.030000
1560046941585721314	200 53 0.900000 0.015000 0.013000 1500 46 1.000000 1.786000 1.961000 600 52 1.000000 0.053000 0.053000 1.200000 0.025000 0.030000
1560046942094167273	200 53 0.900000 0.014000 0.012000 1500 46 1.000000 1.782000 1.956000 600 52 1.000000 0.053000 0.053000 1.200000 0.023000 0.027000
1560046942603899356	200 53 0.900000 0.015000 0.013000 1500 46 1.100000 1.777000 1.954000 600 52 1.000000 0.053000 0.053000 1.200000 0.024000 0.028000
1560046943112932773	200 54 0.900000 0.018000 0.016000 1500 46 1.100000 1.848000 2.032000 600 52 1.000000 0.053000 0.053000 1.200000 0.028000 0.033000
1560046943621634148	200 53 0.900000 0.015000 0.013000 1500 46 1.000000 1.784000 1.958000 600 52 1.000000 0.053000 0.053000 1.200000 0.024000 0.028000
1560046944130289940	200 53 0.900000 0.014000 0.012000 1500 46 1.000000 1.781000 1.955000 600 52 1.000000 0.053000 0.053000 1.200000 0.023000 0.027000
1560046944639099065	200 53 0.900000 0.014000 0.012000 1500 46 1.000000 1.787000 1.962000 600 51 1.000000 0.053000 0.053000 1.200000 0.025000 0.030000
1560046945147740482	200 54 0.900000 0.017000 0.015000 1500 46 1.100000 2.057000 2.264000 600 52 1.000000 0.053000 0.053000 1.200000 0.027000 0.032000
1560046945656568940	200 53 0.900000 0.014000 0.012000 1500 46 1.000000 1.805000 1.981000 600 52 1.000000 0.053000 0.053000 1.200000 0.028000 0.033000
1560046946165237482	200 53 0.900000 0.014000 0.012000 1500 46 1.000000 1.785000 1.959000 600 52 1.000000 0.053000 0.053000 1.200000 0.025000 0.030000
1560046946673934440	200 53 0.900000 0.015000 0.013000 1500 46 1.000000 1.783000 1.957000 600 52 1.000000 0.053000 0.053000 1.200000 0.025000 0.030000
1560046947182749523	200 54 0.900000 0.015000 0.013000 1500 46 1.100000 1.948000 2.142000 600 53 1.000000 0.053000 0.053000 1.200000 0.025000 0.030000
1560046947691598482	200 53 0.900000 0.017000 0.015000 1500 46 1.000000 1.784000 1.958000 600 52 1.000000 0.053000 0.053000 1.200000 0.026000 0.031000
1560046948200139357	200 53 0.900000 0.015000 0.013000 1500 46 1.000000 1.787000 1.962000 600 52 1.000000 0.053000 0.053000 1.200000 0.024000 0.028000
1560046948708528274	200 53 0.900000 0.015000 0.013000 1500 46 1.000000 1.788000 1.963000 600 52 1.000000 0.053000 0.053000 1.200000 0.024000 0.028000
1560046949219250107	200 53 0.900000 0.014000 0.012000 1500 46 1.000000 1.821000 1.999000 600 53 1.000000 0.053000 0.053000 1.200000 0.023000 0.027000
1560046949728138190	200 54 0.900000 0.022000 0.020000 1500 46 1.000000 1.788000 1.963000 600 52 1.000000 0.053000 0.053000 1.200000 0.031000 0.037000
1560046950236743399	200 53 0.900000 0.015000 0.013000 1500 46 1.000000 1.782000 1.956000 600 52 1.000000 0.053000 0.053000 1.200000 0.024000 0.028000
1560046950754705357	200 53 0.900000 0.014000 0.012000 1500 46 1.000000 1.782000 1.956000 600 52 1.000000 0.053000 0.053000 1.200000 0.023000 0.027000
1560046951273611607	200 53 0.900000 0.015000 0.013000 1500 46 1.000000 1.792000 1.967000 600 52 1.000000 0.053000 0.053000 1.200000 0.024000 0.028000
1560046951782189982	200 54 0.900000 0.021000 0.019000 1500 46 1.100000 2.043000 2.247000 600 52 1.000000 0.053000 0.053000 1.200000 0.037000 0.044000
1560046952291297524	200 53 0.900000 0.015000 0.013000 1500 46 1.100000 1.940000 2.134000 600 52 1.000000 0.053000 0.053000 1.200000 0.025000 0.030000
1560046952799828774	200 53 0.900000 0.015000 0.013000 1500 46 1.000000 1.801000 1.977000 600 52 1.000000 0.053000 0.053000 1.200000 0.024000 0.028000
1560046953308492524	200 53 0.900000 0.015000 0.013000 1500 46 1.000000 1.787000 1.962000 600 52 1.000000 0.053000 0.053000 1.200000 0.024000 0.028000
1560046953820659899	200 54 0.900000 0.015000 0.013000 1500 46 1.000000 1.809000 1.986000 600 53 1.000000 0.053000 0.053000 1.200000 0.030000 0.036000
1560046954330644983	200 53 0.900000 0.023000 0.020000 1500 46 1.100000 2.088000 2.296000 600 52 1.000000 0.053000 0.053000 1.200000 0.027000 0.032000
1560046954839159483	200 53 0.900000 0.015000 0.013000 1500 46 1.000000 1.794000 1.969000 600 52 1.000000 0.053000 0.053000 1.200000 0.024000 0.028000
1560046955348079399	200 53 0.900000 0.014000 0.012000 1500 46 1.000000 1.800000 1.976000 600 52 1.000000 0.053000 0.053000 1.200000 0.024000 0.028000
1560046955857648441	200 53 0.900000 0.016000 0.014000 1500 46 1.000000 1.896000 2.081000 600 52 1.000000 0.053000 0.053000 1.200000 0.029000 0.035000
1560046956366932316	200 54 0.900000 0.022000 0.020000 1500 46 1.100000 1.995000 2.194000 600 52 1.000000 0.053000 0.053000 1.200000 0.031000 0.037000
1560046956875486816	200 53 0.900000 0.014000 0.012000 1500 46 1.000000 1.804000 1.980000 600 52 1.000000 0.053000 0.053000 1.200000 0.024000 0.028000
1560046957383993525	200 53 0.900000 0.014000 0.012000 1500 46 1.000000 1.813000 1.990000 600 52 1.000000 0.053000 0.053000 1.200000 0.024000 0.028000
1560046957892707775	200 53 0.900000 0.015000 0.013000 1500 46 1.000000 1.893000 2.078000 600 52 1.000000 0.053000 0.053000 1.200000 0.026000 0.031000
1560046958402233442	200 54 0.900000 0.024000 0.021000 1500 46 1.000000 1.897000 2.082000 600 52 1.000000 0.053000 0.053000 1.200000 0.039000 0.047000
1560046958910900067	200 54 0.900000 0.014000 0.012000 1500 46 1.000000 1.786000 1.961000 600 52 1.000000 0.053000 0.053000 1.200000 0.024000 0.028000
1560046959428521775	200 53 0.900000 0.014000 0.012000 1500 46 1.000000 1.790000 1.965000 600 52 1.000000 0.053000 0.053000 1.200000 0.024000 0.028000
1560046959939268442	200 53 0.900000 0.015000 0.013000 1500 46 1.000000 1.805000 1.981000 600 52 1.000000 0.053000 0.053000 1.200000 0.030000 0.036000
1560046960451487192	200 54 0.900000 0.015000 0.013000 1500 46 1.000000 1.802000 1.978000 600 53 1.000000 0.053000 0.053000 1.200000 0.025000 0.030000
1560046960960094900	200 54 0.900000 0.024000 0.021000 1500 46 1.100000 2.084000 2.292000 600 52 1.000000 0.053000 0.053000 1.200000 0.030000 0.036000
1560046961468679192	200 53 0.900000 0.015000 0.013000 1500 46 1.000000 1.803000 1.979000 600 52 1.000000 0.053000 0.053000 1.200000 0.024000 0.028000
1560046961978592775	200 53 0.900000 0.015000 0.013000 1500 46 1.000000 1.792000 1.967000 600 52 1.000000 0.053000 0.053000 1.200000 0.029000 0.035000
1560046962487221609	200 53 0.900000 0.015000 0.013000 1500 46 1.000000 1.807000 1.984000 600 52 1.000000 0.053000 0.053000 1.200000 0.023000 0.027000
1560046962996023859	200 54 0.900000 0.022000 0.020000 1500 46 1.100000 1.947000 2.141000 600 52 1.000000 0.053000 0.053000 1.200000 0.027000 0.032000
1560046963504536775	200 53 0.900000 0.014000 0.012000 1500 46 1.000000 1.795000 1.970000 600 52 1.000000 0.053000 0.053000 1.200000 0.024000 0.028000
1560046964013236151	200 53 0.900000 0.015000 0.013000 1500 46 1.100000 1.923000 2.115000 600 52 1.000000 0.053000 0.053000 1.200000 0.025000 0.030000
1560046964521694276	200 53 0.900000 0.014000 0.012000 1500 46 1.000000 1.789000 1.964000 600 52 1.000000 0.053000 0.053000 1.200000 0.025000 0.030000
1560046965030154901	200 54 0.900000 0.021000 0.019000 1500 46 1.000000 1.799000 1.975000 600 53 1.000000 0.053000 0.053000 1.200000 0.024000 0.028000
1560046965539107151	200 53 0.900000 0.017000 0.015000 1500 46 1.000000 1.780000 1.954000 600 52 1.000000 0.053000 0.053000 1.200000 0.027000 0.032000
1560046966047734442	200 54 0.900000 0.015000 0.013000 1500 46 1.100000 1.877000 2.064000 600 52 1.000000 0.053000 0.053000 1.200000 0.029000 0.035000
1560046966556170234	200 53 0.900000 0.015000 0.013000 1500 46 1.000000 1.778000 1.952000 600 52 1.000000 0.053000 0.053000 1.200000 0.025000 0.030000
1560046967068371276	200 53 0.900000 0.015000 0.013000 1500 46 1.000000 1.792000 1.967000 600 52 1.000000 0.053000 0.053000 1.200000 0.025000 0.030000
1560046967580823734	200 54 0.900000 0.020000 0.018000 1500 46 1.100000 2.010000 2.211000 600 52 1.000000 0.053000 0.053000 1.200000 0.030000 0.036000
1560046968089439776	200 54 0.900000 0.015000 0.013000 1500 46 1.000000 1.789000 1.964000 600 52 1.000000 0.053000 0.053000 1.200000 0.024000 0.028000
1560046968598141568	200 53 0.900000 0.014000 0.012000 1500 46 1.000000 1.814000 1.991000 600 52 1.000000 0.053000 0.053000 1.200000 0.025000 0.030000
1560046969106779443	200 53 0.900000 0.015000 0.013000 1500 46 1.000000 1.791000 1.966000 600 52 1.000000 0.053000 0.053000 1.200000 0.025000 0.030000
1560046969615572901	200 54 0.900000 0.018000 0.016000 1500 46 1.100000 1.872000 2.059000 600 52 1.000000 0.052000 0.052000 1.200000 0.024000 0.028000
1560046970124280776	200 54 0.900000 0.015000 0.013000 1500 46 1.000000 1.820000 1.998000 600 52 1.000000 0.053000 0.053000 1.200000 0.026000 0.031000
1560046970632919860	200 53 0.900000 0.015000 0.013000 1500 46 1.000000 1.787000 1.962000 600 52 1.000000 0.053000 0.053000 1.200000 0.024000 0.028000
1560046971141649818	200 53 0.900000 0.015000 0.013000 1500 46 1.000000 1.787000 1.962000 600 52 1.000000 0.053000 0.053000 1.200000 0.024000 0.028000
1560046971650239276	200 53 0.900000 0.017000 0.015000 1500 46 1.000000 1.779000 1.953000 600 53 1.000000 0.053000 0.053000 1.200000 0.024000 0.028000
1560046972158986401	200 54 0.900000 0.022000 0.020000 1500 46 1.100000 1.930000 2.123000 600 52 1.000000 0.053000 0.053000 1.200000 0.032000 0.038000
1560046972667737152	200 54 0.900000 0.015000 0.013000 1500 46 1.000000 1.788000 1.963000 600 52 1.000000 0.053000 0.053000 1.200000 0.024000 0.028000
1560046973176336277	200 53 0.900000 0.015000 0.013000 1500 46 1.000000 1.785000 1.959000 600 52 1.000000 0.053000 0.053000 1.200000 0.023000 0.027000
1560046973684710027	200 53 0.900000 0.015000 0.013000 1500 46 1.000000 1.785000 1.959000 600 52 1.000000 0.053000 0.053000 1.200000 0.024000 0.028000
1560046974193474110	200 54 0.900000 0.015000 0.013000 1500 46 1.100000 1.943000 2.137000 600 52 1.000000 0.053000 0.053000 1.200000 0.025000 0.030000
1560046974702133193	200 53 0.900000 0.015000 0.013000 1500 46 1.000000 1.784000 1.958000 600 52 1.000000 0.053000 0.053000 1.200000 0.026000 0.031000
1560046975210667194	200 53 0.900000 0.014000 0.012000 1500 46 1.000000 1.811000 1.988000 600 52 1.000000 0.052000 0.052000 1.200000 0.024000 0.028000
1560046975719269485	200 53 0.900000 0.015000 0.013000 1500 46 1.000000 1.803000 1.979000 600 52 1.000000 0.053000 0.053000 1.200000 0.024000 0.028000
1560046976227643235	200 54 0.900000 0.014000 0.012000 1500 46 1.000000 1.798000 1.974000 600 54 1.000000 0.053000 0.053000 1.200000 0.024000 0.028000
1560046976736304152	200 53 0.900000 0.014000 0.012000 1500 46 1.100000 1.818000 1.999000 600 52 1.000000 0.053000 0.053000 1.200000 0.028000 0.033000
1560046977254263819	200 53 0.900000 0.015000 0.013000 1500 46 1.000000 1.785000 1.959000 600 52 1.000000 0.053000 0.053000 1.200000 0.025000 0.030000
1560046977764621402	200 53 0.900000 0.015000 0.013000 1500 46 1.000000 1.788000 1.963000 600 52 1.000000 0.053000 0.053000 1.200000 0.026000 0.031000
1560046978283252111	200 53 0.900000 0.015000 0.013000 1500 46 1.100000 1.820000 2.002000 600 53 1.000000 0.053000 0.053000 1.200000 0.025000 0.030000
1560046978792189902	200 54 0.900000 0.023000 0.020000 1500 46 1.100000 1.918000 2.109000 600 52 1.000000 0.053000 0.053000 1.200000 0.037000 0.044000
1560046979301084861	200 53 0.900000 0.015000 0.013000 1500 46 1.000000 1.776000 1.950000 600 52 1.000000 0.053000 0.053000 1.200000 0.025000 0.030000
1560046979809768944	200 53 0.900000 0.015000 0.013000 1500 46 1.000000 1.782000 1.956000 600 52 1.000000 0.053000 0.053000 1.200000 0.024000 0.028000
1560046980318701027	200 53 0.900000 0.015000 0.013000 1500 46 1.100000 1.896000 2.085000 600 52 1.000000 0.053000 0.053000 1.200000 0.023000 0.027000
1560046980827420736	200 54 0.900000 0.022000 0.020000 1500 46 1.100000 2.052000 2.257000 600 52 1.000000 0.053000 0.053000 1.200000 0.037000 0.044000
1560046981336051569	200 53 0.900000 0.014000 0.012000 1500 46 1.000000 1.779000 1.953000 600 52 1.000000 0.053000 0.053000 1.200000 0.024000 0.028000
1560046981844968694	200 53 0.900000 0.015000 0.013000 1500 46 1.000000 1.786000 1.961000 600 52 1.000000 0.053000 0.053000 1.200000 0.025000 0.030000
1560046982353640528	200 54 0.900000 0.014000 0.012000 1500 46 1.000000 1.807000 1.984000 600 52 1.000000 0.053000 0.053000 1.200000 0.024000 0.028000
1560046982871581694	200 54 0.900000 0.015000 0.013000 1500 46 1.100000 1.802000 1.982000 600 53 1.000000 0.053000 0.053000 1.200000 0.024000 0.028000
1560046983380264236	200 54 0.900000 0.017000 0.015000 1500 46 1.000000 1.859000 2.041000 600 52 1.000000 0.053000 0.053000 1.200000 0.033000 0.039000
1560046983888994445	200 53 0.900000 0.014000 0.012000 1500 46 1.000000 1.785000 1.959000 600 52 1.000000 0.053000 0.053000 1.200000 0.024000 0.028000
1560046984397587278	200 54 0.900000 0.015000 0.013000 1500 46 1.000000 1.792000 1.967000 600 52 1.000000 0.053000 0.053000 1.200000 0.025000 0.030000
1560046984906259611	200 54 0.900000 0.015000 0.013000 1500 46 1.000000 1.784000 1.958000 600 52 1.000000 0.053000 0.053000 1.200000 0.024000 0.028000
1560046985415141486	200 54 0.900000 0.018000 0.016000 1500 46 1.100000 1.945000 2.139000 600 52 1.000000 0.052000 0.052000 1.200000 0.032000 0.038000
1560046985923625528	200 54 0.900000 0.015000 0.013000 1500 46 1.000000 1.779000 1.953000 600 52 1.000000 0.053000 0.053000 1.200000 0.024000 0.028000
1560046986432254445	200 54 0.900000 0.014000 0.012000 1500 46 1.100000 1.868000 2.054000 600 52 1.000000 0.053000 0.053000 1.200000 0.024000 0.028000
1560046986950199820	200 54 0.900000 0.015000 0.013000 1500 46 1.100000 1.787000 1.965000 600 52 1.000000 0.053000 0.053000 1.200000 0.024000 0.028000
1560046987460374445	200 54 0.900000 0.020000 0.018000 1500 46 1.100000 1.859000 2.044000 600 52 1.000000 0.053000 0.053000 1.200000 0.035000 0.042000
1560046987977935112	200 54 0.900000 0.015000 0.013000 1500 46 1.000000 1.807000 1.984000 600 52 1.000000 0.053000 0.053000 1.200000 0.024000 0.028000
1560046988488279528	200 54 0.900000 0.015000 0.013000 1500 46 1.000000 1.789000 1.964000 600 52 1.000000 0.053000 0.053000 1.200000 0.025000 0.030000
1560046989005937028	200 53 0.900000 0.015000 0.013000 1500 46 1.000000 1.812000 1.989000 600 52 1.000000 0.053000 0.053000 1.200000 0.023000 0.027000
1560046989520856404	200 54 0.900000 0.021000 0.019000 1500 46 1.000000 1.791000 1.966000 600 53 1.000000 0.053000 0.053000 1.200000 0.031000 0.037000
1560046990029550195	200 54 0.900000 0.018000 0.016000 1500 46 1.000000 1.807000 1.984000 600 52 1.000000 0.053000 0.053000 1.200000 0.032000 0.038000
1560046990538121779	200 54 0.900000 0.015000 0.013000 1500 46 1.000000 1.808000 1.985000 600 52 1.000000 0.053000 0.053000 1.200000 0.024000 0.028000
1560046991046806654	200 54 0.900000 0.016000 0.014000 1500 46 1.100000 1.892000 2.081000 600 52 1.000000 0.053000 0.053000 1.200000 0.024000 0.028000
1560046991561965070	200 53 0.900000 0.015000 0.013000 1500 46 1.000000 1.811000 1.988000 600 52 1.000000 0.053000 0.053000 1.200000 0.025000 0.030000
1560046992071319154	200 54 0.900000 0.019000 0.017000 1500 46 1.100000 1.931000 2.124000 600 52 1.000000 0.053000 0.053000 1.200000 0.040000 0.048000
1560046992579982779	200 54 0.900000 0.015000 0.013000 1500 46 1.000000 1.808000 1.985000 600 52 1.000000 0.053000 0.053000 1.200000 0.025000 0.030000
1560046993088999529	200 54 0.900000 0.015000 0.013000 1500 46 1.100000 1.899000 2.088000 600 52 1.000000 0.053000 0.053000 1.200000 0.024000 0.028000
1560046993597589279	200 54 0.900000 0.014000 0.012000 1500 46 1.000000 1.815000 1.992000 600 52 1.000000 0.053000 0.053000 1.200000 0.024000 0.028000
1560046994106166112	200 54 0.900000 0.018000 0.016000 1500 46 1.000000 1.802000 1.978000 600 52 1.000000 0.053000 0.053000 1.200000 0.035000 0.042000
1560046994614770237	200 54 0.900000 0.015000 0.013000 1500 46 1.100000 1.804000 1.984000 600 52 1.000000 0.053000 0.053000 1.200000 0.024000 0.028000
1560046995123481738	200 54 0.900000 0.014000 0.012000 1500 46 1.000000 1.815000 1.992000 600 52 1.000000 0.053000 0.053000 1.200000 0.023000 0.027000
1560046995632002613	200 54 0.900000 0.015000 0.013000 1500 46 1.000000 1.788000 1.963000 600 52 1.000000 0.053000 0.053000 1.200000 0.024000 0.028000
1560046996143587613	200 54 0.900000 0.017000 0.015000 1500 46 1.000000 1.809000 1.986000 600 53 1.000000 0.053000 0.053000 1.200000 0.027000 0.032000
1560046996652714529	200 54 0.900000 0.015000 0.013000 1500 46 1.000000 1.903000 2.089000 600 52 1.000000 0.053000 0.053000 1.200000 0.027000 0.032000
1560046997162644779	200 54 0.900000 0.015000 0.013000 1500 46 1.000000 1.780000 1.954000 600 52 1.000000 0.053000 0.053000 1.200000 0.024000 0.028000
1560046997671480613	200 54 0.900000 0.015000 0.013000 1500 46 1.000000 1.801000 1.977000 600 52 1.000000 0.053000 0.053000 1.200000 0.024000 0.028000
1560046998180059655	200 54 0.900000 0.015000 0.013000 1500 46 1.000000 1.814000 1.991000 600 52 1.000000 0.053000 0.053000 1.200000 0.025000 0.030000
1560046998688559280	200 54 0.900000 0.016000 0.014000 1500 46 1.000000 1.858000 2.040000 600 52 1.000000 0.053000 0.053000 1.200000 0.035000 0.042000
1560046999197213905	200 54 0.900000 0.016000 0.014000 1500 46 1.100000 1.909000 2.099000 600 52 1.000000 0.053000 0.053000 1.200000 0.024000 0.028000
1560046999705761655	200 54 0.900000 0.015000 0.013000 1500 46 1.000000 1.803000 1.979000 600 52 1.000000 0.053000 0.053000 1.200000 0.023000 0.027000
1560047000214387655	200 53 0.900000 0.015000 0.013000 1500 46 1.000000 1.783000 1.957000 600 52 1.000000 0.053000 0.053000 1.200000 0.024000 0.028000
1560047000723161405	200 54 0.900000 0.016000 0.014000 1500 46 1.000000 1.815000 1.992000 600 53 1.000000 0.053000 0.053000 1.200000 0.031000 0.037000
1560047001231998072	200 54 0.900000 0.017000 0.015000 1500 46 1.000000 1.864000 2.046000 600 52 1.000000 0.053000 0.053000 1.200000 0.024000 0.028000
1560047001740756197	200 54 0.900000 0.015000 0.013000 1500 46 1.000000 1.797000 1.973000 600 52 1.000000 0.053000 0.053000 1.200000 0.023000 0.027000
1560047002249141572	200 54 0.900000 0.014000 0.012000 1500 46 1.000000 1.812000 1.989000 600 52 1.000000 0.053000 0.053000 1.200000 0.025000 0.030000
1560047002760829322	200 54 0.900000 0.016000 0.014000 1500 46 1.000000 1.785000 1.959000 600 53 1.000000 0.053000 0.053000 1.200000 0.024000 0.028000
1560047003270159364	200 54 0.900000 0.029000 0.026000 1500 46 1.100000 1.963000 2.159000 600 52 1.000000 0.053000 0.053000 1.200000 0.041000 0.049000
1560047003778997614	200 54 0.900000 0.015000 0.013000 1500 46 1.000000 1.782000 1.956000 600 52 1.000000 0.053000 0.053000 1.200000 0.025000 0.030000
1560047004287471780	200 53 0.900000 0.015000 0.013000 1500 46 1.000000 1.781000 1.955000 600 52 1.000000 0.053000 0.053000 1.200000 0.025000 0.030000
1560047004796066405	200 53 0.900000 0.015000 0.013000 1500 46 1.000000 1.796000 1.972000 600 52 1.000000 0.053000 0.053000 1.200000 0.024000 0.028000
1560047005304753155	200 54 0.900000 0.015000 0.013000 1500 46 1.000000 1.875000 2.058000 600 52 1.000000 0.053000 0.053000 1.200000 0.025000 0.030000
1560047005813556614	200 54 0.900000 0.017000 0.015000 1500 46 1.100000 1.806000 1.986000 600 52 1.000000 0.053000 0.053000 1.200000 0.031000 0.037000
1560047006322141781	200 53 0.900000 0.015000 0.013000 1500 46 1.000000 1.806000 1.982000 600 52 1.000000 0.053000 0.053000 1.200000 0.024000 0.028000
1560047006830737947	200 53 0.900000 0.015000 0.013000 1500 46 1.000000 1.796000 1.972000 600 52 1.000000 0.053000 0.053000 1.200000 0.024000 0.028000
1560047007358408697	200 54 0.900000 0.015000 0.013000 1500 46 1.000000 1.796000 1.972000 600 54 1.000000 0.053000 0.053000 1.200000 0.024000 0.028000
1560047007869692864	200 54 0.900000 0.015000 0.013000 1500 46 1.100000 1.894000 2.083000 600 52 1.000000 0.053000 0.053000 1.200000 0.038000 0.045000
1560047008378373239	200 54 0.900000 0.015000 0.013000 1500 46 1.000000 1.813000 1.990000 600 52 1.000000 0.053000 0.053000 1.200000 0.025000 0.030000
1560047008887225698	200 54 0.900000 0.014000 0.012000 1500 46 1.000000 1.795000 1.970000 600 52 1.000000 0.053000 0.053000 1.200000 0.025000 0.030000
1560047009400847281	200 54 0.900000 0.015000 0.013000 1500 46 1.000000 1.784000 1.958000 600 53 1.000000 0.053000 0.053000 1.200000 0.024000 0.028000
1560047009909914948	200 54 0.900000 0.022000 0.020000 1500 46 1.100000 1.984000 2.182000 600 52 1.000000 0.053000 0.053000 1.200000 0.039000 0.047000
1560047010418615823	200 54 0.900000 0.015000 0.013000 1500 46 1.000000 1.786000 1.961000 600 52 1.000000 0.053000 0.053000 1.200000 0.025000 0.030000
1560047010927499239	200 53 0.900000 0.014000 0.012000 1500 46 1.000000 1.779000 1.953000 600 52 1.000000 0.053000 0.053000 1.200000 0.025000 0.030000
1560047011435996156	200 54 0.900000 0.015000 0.013000 1500 46 1.000000 1.780000 1.954000 600 52 1.000000 0.053000 0.053000 1.200000 0.023000 0.027000
1560047011944291698	200 54 0.900000 0.021000 0.019000 1500 46 1.100000 2.085000 2.293000 600 52 1.000000 0.053000 0.053000 1.200000 0.033000 0.039000
1560047012462495990	200 54 0.900000 0.017000 0.015000 1500 46 1.000000 1.810000 1.987000 600 52 1.000000 0.053000 0.053000 1.200000 0.029000 0.035000
1560047012971345073	200 54 0.900000 0.015000 0.013000 1500 46 1.000000 1.784000 1.958000 600 52 1.000000 0.052000 0.052000 1.200000 0.026000 0.031000
1560047013479840031	200 54 0.900000 0.015000 0.013000 1500 46 1.000000 1.809000 1.986000 600 52 1.000000 0.053000 0.053000 1.200000 0.024000 0.028000
1560047013998359698	200 54 0.900000 0.015000 0.013000 1500 46 1.000000 1.800000 1.976000 600 54 1.000000 0.053000 0.053000 1.200000 0.031000 0.037000
1560047014507379157	200 54 0.900000 0.016000 0.014000 1500 46 1.000000 1.869000 2.052000 600 52 1.000000 0.053000 0.053000 1.200000 0.031000 0.037000
1560047015016085823	200 54 0.900000 0.014000 0.012000 1500 46 1.000000 1.785000 1.959000 600 52 1.000000 0.053000 0.053000 1.200000 0.025000 0.030000
1560047015524722240	200 54 0.900000 0.014000 0.012000 1500 46 1.000000 1.778000 1.952000 600 52 1.000000 0.053000 0.053000 1.200000 0.024000 0.028000
1560047016050989240	200 53 0.900000 0.016000 0.014000 1500 46 1.000000 1.780000 1.954000 600 53 1.000000 0.053000 0.053000 1.200000 0.028000 0.033000
1560047016559977948	200 54 0.900000 0.020000 0.018000 1500 46 1.100000 1.949000 2.143000 600 52 1.000000 0.053000 0.053000 1.200000 0.035000 0.042000
1560047017068763323	200 54 0.900000 0.015000 0.013000 1500 46 1.000000 1.778000 1.952000 600 52 1.000000 0.053000 0.053000 1.200000 0.025000 0.030000
1560047017577434407	200 54 0.900000 0.015000 0.013000 1500 46 1.000000 1.776000 1.950000 600 52 1.000000 0.053000 0.053000 1.200000 0.024000 0.028000
1560047018086255449	200 53 0.900000 0.020000 0.018000 1500 46 1.000000 1.787000 1.962000 600 52 1.000000 0.053000 0.053000 1.200000 0.028000 0.033000
1560047018594984449	200 54 0.900000 0.021000 0.019000 1500 46 1.100000 2.044000 2.248000 600 52 1.000000 0.053000 0.053000 1.200000 0.034000 0.041000
1560047019103742949	200 54 0.900000 0.014000 0.012000 1500 46 1.000000 1.786000 1.961000 600 52 1.000000 0.053000 0.053000 1.200000 0.024000 0.028000
1560047019612348449	200 53 0.900000 0.015000 0.013000 1500 46 1.000000 1.780000 1.954000 600 52 1.000000 0.052000 0.052000 1.200000 0.023000 0.027000
1560047020121199574	200 54 0.900000 0.015000 0.013000 1500 46 1.000000 1.780000 1.954000 600 52 1.000000 0.053000 0.053000 1.200000 0.027000 0.032000
1560047020629572199	200 54 0.900000 0.015000 0.013000 1500 46 1.000000 1.787000 1.962000 600 53 1.000000 0.053000 0.053000 1.200000 0.025000 0.030000
1560047021138427032	200 54 0.900000 0.017000 0.015000 1500 46 1.000000 1.833000 2.012000 600 52 1.000000 0.053000 0.053000 1.200000 0.034000 0.041000
1560047021647269866	200 53 0.900000 0.015000 0.013000 1500 46 1.000000 1.801000 1.977000 600 52 1.000000 0.053000 0.053000 1.200000 0.024000 0.028000
1560047022156104074	200 53 0.900000 0.015000 0.013000 1500 46 1.100000 1.887000 2.075000 600 52 1.000000 0.053000 0.053000 1.200000 0.030000 0.036000
1560047022667890532	200 53 0.900000 0.015000 0.013000 1500 46 1.000000 1.785000 1.959000 600 52 1.000000 0.053000 0.053000 1.200000 0.025000 0.030000
1560047023177114949	200 54 0.900000 0.020000 0.018000 1500 46 1.100000 1.962000 2.158000 600 52 1.000000 0.053000 0.053000 1.200000 0.038000 0.045000
1560047023685723783	200 54 0.900000 0.015000 0.013000 1500 46 1.000000 1.783000 1.957000 600 52 1.000000 0.053000 0.053000 1.200000 0.024000 0.028000
1560047024194561491	200 54 0.900000 0.015000 0.013000 1500 46 1.000000 1.822000 2.000000 600 52 1.000000 0.053000 0.053000 1.200000 0.031000 0.037000
1560047024703181866	200 53 0.900000 0.015000 0.013000 1500 46 1.000000 1.796000 1.972000 600 52 1.000000 0.053000 0.053000 1.200000 0.024000 0.028000
1560047025211805533	200 54 0.900000 0.018000 0.016000 1500 46 1.000000 1.827000 2.006000 600 52 1.000000 0.053000 0.053000 1.200000 0.031000 0.037000
1560047025720383908	200 54 0.900000 0.014000 0.012000 1500 46 1.000000 1.821000 1.999000 600 52 1.000000 0.053000 0.053000 1.200000 0.024000 0.028000
1560047026238722158	200 54 0.900000 0.015000 0.013000 1500 46 1.000000 1.899000 2.085000 600 52 1.000000 0.053000 0.053000 1.200000 0.029000 0.035000
1560047026747459825	200 54 0.900000 0.014000 0.012000 1500 46 1.000000 1.811000 1.988000 600 52 1.000000 0.053000 0.053000 1.200000 0.023000 0.027000
1560047027255782366	200 54 0.900000 0.020000 0.018000 1500 46 1.000000 1.788000 1.963000 600 53 1.000000 0.053000 0.053000 1.200000 0.030000 0.036000
1560047027764667575	200 54 0.900000 0.015000 0.013000 1500 46 1.000000 1.823000 2.001000 600 52 1.000000 0.053000 0.053000 1.200000 0.024000 0.028000
1560047028273265991	200 54 0.900000 0.015000 0.013000 1500 46 1.000000 1.793000 1.968000 600 52 1.000000 0.053000 0.053000 1.200000 0.028000 0.033000
1560047028782177075	200 53 0.900000 0.015000 0.013000 1500 46 1.000000 1.793000 1.968000 600 52 1.000000 0.053000 0.053000 1.200000 0.025000 0.030000
1560047029290870033	200 54 0.900000 0.015000 0.013000 1500 46 1.000000 1.821000 1.999000 600 53 1.000000 0.053000 0.053000 1.200000 0.025000 0.030000
1560047029799625700	200 54 0.900000 0.020000 0.018000 1500 46 1.100000 2.004000 2.204000 600 52 1.000000 0.053000 0.053000 1.200000 0.034000 0.041000
1560047030308534950	200 54 0.900000 0.015000 0.013000 1500 46 1.000000 1.806000 1.982000 600 52 1.000000 0.053000 0.053000 1.200000 0.031000 0.037000
1560047030817104033	200 54 0.900000 0.015000 0.013000 1500 46 1.000000 1.811000 1.988000 600 52 1.000000 0.053000 0.053000 1.200000 0.024000 0.028000
1560047031325884325	200 54 0.900000 0.015000 0.013000 1500 46 1.000000 1.794000 1.969000 600 52 1.000000 0.053000 0.053000 1.200000 0.023000 0.027000
1560047031834469450	200 54 0.900000 0.019000 0.017000 1500 46 1.100000 1.913000 2.104000 600 52 1.000000 0.053000 0.053000 1.200000 0.036000 0.043000
1560047032343470575	200 54 0.900000 0.015000 0.013000 1500 46 1.100000 1.861000 2.047000 600 52 1.000000 0.053000 0.053000 1.200000 0.030000 0.036000
1560047032852187450	200 54 0.900000 0.014000 0.012000 1500 46 1.000000 1.786000 1.961000 600 52 1.000000 0.053000 0.053000 1.200000 0.023000 0.027000
1560047033370268159	200 54 0.900000 0.014000 0.012000 1500 46 1.000000 1.806000 1.982000 600 52 1.000000 0.053000 0.053000 1.200000 0.024000 0.028000
1560047033881970034	200 54 0.900000 0.020000 0.018000 1500 46 1.000000 1.788000 1.963000 600 53 1.000000 0.053000 0.053000 1.200000 0.032000 0.038000
1560047034390977367	200 54 0.900000 0.015000 0.013000 1500 46 1.000000 1.879000 2.063000 600 52 1.000000 0.053000 0.053000 1.200000 0.029000 0.035000
1560047034899619117	200 54 0.900000 0.015000 0.013000 1500 46 1.000000 1.766000 1.939000 600 52 1.000000 0.053000 0.053000 1.200000 0.024000 0.028000
1560047035408148492	200 53 0.900000 0.015000 0.013000 1500 46 1.000000 1.787000 1.962000 600 52 1.000000 0.053000 0.053000 1.200000 0.024000 0.028000
1560047035924911201	200 53 0.900000 0.015000 0.013000 1500 46 1.000000 1.807000 1.984000 600 52 1.000000 0.053000 0.053000 1.200000 0.025000 0.030000
1560047036436545076	200 54 0.900000 0.019000 0.017000 1500 46 1.100000 1.977000 2.174000 600 52 1.000000 0.053000 0.053000 1.200000 0.041000 0.049000
1560047036945210534	200 54 0.900000 0.015000 0.013000 1500 46 1.000000 1.805000 1.981000 600 52 1.000000 0.053000 0.053000 1.200000 0.025000 0.030000
1560047037453902868	200 53 0.900000 0.015000 0.013000 1500 46 1.000000 1.783000 1.957000 600 52 1.000000 0.053000 0.053000 1.200000 0.024000 0.028000
1560047037962661076	200 53 0.900000 0.015000 0.013000 1500 46 1.000000 1.799000 1.975000 600 52 1.000000 0.053000 0.053000 1.200000 0.023000 0.027000
1560047038471056576	200 54 0.900000 0.019000 0.017000 1500 46 1.000000 1.846000 2.026000 600 52 1.000000 0.052000 0.052000 1.200000 0.040000 0.048000
1560047038979534784	200 54 0.900000 0.015000 0.013000 1500 46 1.000000 1.787000 1.962000 600 52 1.000000 0.053000 0.053000 1.200000 0.024000 0.028000
1560047039488314076	200 53 0.900000 0.014000 0.012000 1500 46 1.000000 1.797000 1.973000 600 52 1.000000 0.053000 0.053000 1.200000 0.024000 0.028000
1560047039996882660	200 54 0.900000 0.014000 0.012000 1500 46 1.000000 1.773000 1.946000 600 52 1.000000 0.053000 0.053000 1.200000 0.024000 0.028000
1560047040509879201	200 54 0.900000 0.017000 0.015000 1500 46 1.000000 1.821000 1.999000 600 54 1.000000 0.053000 0.053000 1.200000 0.033000 0.039000
1560047041018470576	200 54 0.900000 0.019000 0.017000 1500 46 1.000000 1.785000 1.959000 600 52 1.000000 0.053000 0.053000 1.200000 0.031000 0.037000
1560047041527347701	200 54 0.900000 0.015000 0.013000 1500 46 1.000000 1.784000 1.958000 600 52 1.000000 0.053000 0.053000 1.200000 0.025000 0.030000
1560047042036004993	200 53 0.900000 0.015000 0.013000 1500 46 1.000000 1.781000 1.955000 600 52 1.000000 0.053000 0.053000 1.200000 0.024000 0.028000
1560047042545502368	200 54 0.900000 0.015000 0.013000 1500 46 1.000000 1.875000 2.058000 600 52 1.000000 0.053000 0.053000 1.200000 0.024000 0.028000
1560047043062285410	200 54 0.900000 0.018000 0.016000 1500 46 1.100000 1.939000 2.132000 600 52 1.000000 0.053000 0.053000 1.200000 0.030000 0.036000
1560047043573250910	200 54 0.900000 0.015000 0.013000 1500 46 1.000000 1.792000 1.967000 600 52 1.000000 0.053000 0.053000 1.200000 0.026000 0.031000
1560047044082046743	200 53 0.900000 0.015000 0.013000 1500 46 1.000000 1.772000 1.945000 600 52 1.000000 0.053000 0.053000 1.200000 0.025000 0.030000
1560047044591003660	200 54 0.900000 0.015000 0.013000 1500 46 1.000000 1.800000 1.976000 600 52 1.000000 0.053000 0.053000 1.200000 0.025000 0.030000
1560047045099757785	200 54 0.900000 0.017000 0.015000 1500 46 1.000000 1.830000 2.009000 600 52 1.000000 0.053000 0.053000 1.200000 0.026000 0.031000
1560047045608321077	200 54 0.900000 0.015000 0.013000 1500 46 1.000000 1.796000 1.972000 600 52 1.000000 0.053000 0.053000 1.200000 0.030000 0.036000
1560047046116812535	200 54 0.900000 0.014000 0.012000 1500 46 1.000000 1.801000 1.977000 600 52 1.000000 0.053000 0.053000 1.200000 0.024000 0.028000
1560047046625504660	200 54 0.900000 0.015000 0.013000 1500 46 1.000000 1.789000 1.964000 600 52 1.000000 0.053000 0.053000 1.200000 0.025000 0.030000
1560047047135039660	200 54 0.900000 0.015000 0.013000 1500 46 1.000000 1.785000 1.959000 600 53 1.000000 0.053000 0.053000 1.200000 0.024000 0.028000
1560047047643688244	200 54 0.900000 0.025000 0.022000 1500 46 1.000000 1.886000 2.070000 600 52 1.000000 0.053000 0.053000 1.200000 0.038000 0.045000
1560047048152286494	200 53 0.900000 0.015000 0.013000 1500 46 1.000000 1.782000 1.956000 600 52 1.000000 0.053000 0.053000 1.200000 0.025000 0.030000
1560047048670410452	200 54 0.900000 0.014000 0.012000 1500 46 1.000000 1.864000 2.046000 600 52 1.000000 0.053000 0.053000 1.200000 0.024000 0.028000
1560047049179362911	200 54 0.900000 0.015000 0.013000 1500 46 1.000000 1.763000 1.935000 600 52 1.000000 0.053000 0.053000 1.200000 0.026000 0.031000
1560047049687785536	200 54 0.900000 0.020000 0.018000 1500 46 1.100000 2.045000 2.249000 600 52 1.000000 0.053000 0.053000 1.200000 0.035000 0.042000
1560047050196316952	200 54 0.900000 0.015000 0.013000 1500 46 1.000000 1.782000 1.956000 600 52 1.000000 0.053000 0.053000 1.200000 0.024000 0.028000
1560047050713842953	200 54 0.900000 0.015000 0.013000 1500 46 1.000000 1.786000 1.961000 600 52 1.000000 0.053000 0.053000 1.200000 0.025000 0.030000
1560047051222670828	200 54 0.900000 0.015000 0.013000 1500 46 1.000000 1.776000 1.950000 600 52 1.000000 0.053000 0.053000 1.200000 0.031000 0.037000
1560047051731200828	200 54 0.900000 0.015000 0.013000 1500 46 1.000000 1.797000 1.973000 600 53 1.000000 0.053000 0.053000 1.200000 0.024000 0.028000
1560047052239965703	200 54 0.900000 0.014000 0.012000 1500 46 1.000000 1.780000 1.954000 600 52 1.000000 0.053000 0.053000 1.200000 0.028000 0.033000
1560047052748710161	200 54 0.900000 0.014000 0.012000 1500 46 1.000000 1.787000 1.962000 600 52 1.000000 0.053000 0.053000 1.200000 0.025000 0.030000
1560047053257489578	200 53 0.900000 0.014000 0.012000 1500 46 1.000000 1.770000 1.943000 600 52 1.000000 0.053000 0.053000 1.200000 0.024000 0.028000
1560047053766046745	200 54 0.900000 0.015000 0.013000 1500 46 1.000000 1.769000 1.942000 600 53 1.000000 0.053000 0.053000 1.200000 0.025000 0.030000
1560047054274784120	200 54 0.900000 0.020000 0.018000 1500 46 1.000000 1.769000 1.942000 600 52 1.000000 0.053000 0.053000 1.200000 0.031000 0.037000
1560047054783372120	200 54 0.900000 0.015000 0.013000 1500 46 1.000000 1.777000 1.951000 600 52 1.000000 0.053000 0.053000 1.200000 0.024000 0.028000
1560047055291952203	200 54 0.900000 0.015000 0.013000 1500 46 1.000000 1.784000 1.958000 600 52 1.000000 0.053000 0.053000 1.200000 0.025000 0.030000
1560047055800616620	200 53 0.900000 0.014000 0.012000 1500 46 1.000000 1.769000 1.942000 600 52 1.000000 0.053000 0.053000 1.200000 0.024000 0.028000
1560047056309158870	200 54 0.900000 0.019000 0.017000 1500 46 1.000000 1.855000 2.036000 600 52 1.000000 0.053000 0.053000 1.200000 0.032000 0.038000
1560047056817650203	200 54 0.900000 0.015000 0.013000 1500 46 1.000000 1.883000 2.067000 600 52 1.000000 0.053000 0.053000 1.200000 0.024000 0.028000
1560047057326662287	200 54 0.900000 0.015000 0.013000 1500 46 1.000000 1.773000 1.946000 600 52 1.000000 0.053000 0.053000 1.200000 0.024000 0.028000
1560047057835239578	200 54 0.900000 0.015000 0.013000 1500 46 1.000000 1.767000 1.940000 600 52 1.000000 0.053000 0.053000 1.200000 0.025000 0.030000
1560047058343888828	200 54 0.900000 0.015000 0.013000 1500 46 1.100000 1.971000 2.168000 600 52 1.000000 0.052000 0.052000 1.200000 0.024000 0.028000
1560047058852391953	200 54 0.900000 0.015000 0.013000 1500 46 1.000000 1.787000 1.962000 600 52 1.000000 0.053000 0.053000 1.200000 0.025000 0.030000
1560047059361061370	200 54 0.900000 0.015000 0.013000 1500 46 1.000000 1.777000 1.951000 600 52 1.000000 0.053000 0.053000 1.200000 0.030000 0.036000
1560047059869670870	200 53 0.900000 0.015000 0.013000 1500 46 1.000000 1.775000 1.948000 600 52 1.000000 0.053000 0.053000 1.200000 0.025000 0.030000
1560047060378101287	200 54 0.900000 0.015000 0.013000 1500 46 1.000000 1.769000 1.942000 600 53 1.000000 0.053000 0.053000 1.200000 0.024000 0.028000
1560047060886778579	200 54 0.900000 0.018000 0.016000 1500 46 1.100000 2.050000 2.255000 600 52 1.000000 0.053000 0.053000 1.200000 0.026000 0.031000
1560047061395974037	200 54 0.900000 0.015000 0.013000 1500 46 1.100000 1.900000 2.090000 600 52 1.000000 0.053000 0.053000 1.200000 0.025000 0.030000
1560047061904589787	200 54 0.900000 0.015000 0.013000 1500 46 1.000000 1.775000 1.948000 600 52 1.000000 0.053000 0.053000 1.200000 0.024000 0.028000
1560047062413177912	200 54 0.900000 0.015000 0.013000 1500 46 1.000000 1.797000 1.973000 600 53 1.000000 0.053000 0.053000 1.200000 0.024000 0.028000
1560047062923285121	200 54 0.900000 0.017000 0.015000 1500 46 1.100000 2.119000 2.330000 600 52 1.000000 0.053000 0.053000 1.200000 0.028000 0.033000
1560047063432302121	200 54 0.900000 0.015000 0.013000 1500 46 1.000000 1.888000 2.073000 600 52 1.000000 0.053000 0.053000 1.200000 0.024000 0.028000
1560047063940799204	200 54 0.900000 0.014000 0.012000 1500 46 1.000000 1.800000 1.976000 600 52 1.000000 0.053000 0.053000 1.200000 0.023000 0.027000
1560047064449375537	200 53 0.900000 0.015000 0.013000 1500 46 1.000000 1.784000 1.958000 600 52 1.000000 0.053000 0.053000 1.200000 0.024000 0.028000
1560047064966788288	200 54 0.900000 0.017000 0.015000 1500 46 1.000000 1.790000 1.965000 600 52 1.000000 0.053000 0.053000 1.200000 0.027000 0.032000
1560047065477799454	200 54 0.900000 0.016000 0.014000 1500 46 1.000000 1.892000 2.077000 600 52 1.000000 0.053000 0.053000 1.200000 0.030000 0.036000
1560047065986438871	200 54 0.900000 0.015000 0.013000 1500 46 1.000000 1.784000 1.958000 600 52 1.000000 0.053000 0.053000 1.200000 0.025000 0.030000
1560047066494843871	200 53 0.900000 0.015000 0.013000 1500 46 1.000000 1.789000 1.964000 600 52 1.000000 0.053000 0.053000 1.200000 0.025000 0.030000
1560047067006378996	200 54 0.900000 0.014000 0.012000 1500 46 1.000000 1.777000 1.951000 600 53 1.000000 0.053000 0.053000 1.200000 0.024000 0.028000
1560047067515161080	200 54 0.900000 0.016000 0.014000 1500 46 1.100000 1.969000 2.165000 600 52 1.000000 0.053000 0.053000 1.200000 0.029000 0.035000
1560047068024041663	200 54 0.900000 0.014000 0.012000 1500 46 1.000000 1.785000 1.959000 600 52 1.000000 0.053000 0.053000 1.200000 0.025000 0.030000
1560047068532313871	200 54 0.900000 0.014000 0.012000 1500 46 1.000000 1.770000 1.943000 600 52 1.000000 0.053000 0.053000 1.200000 0.024000 0.028000
1560047069050301330	200 54 0.900000 0.015000 0.013000 1500 46 1.000000 1.797000 1.973000 600 54 1.000000 0.053000 0.053000 1.200000 0.024000 0.028000
1560047069559014788	200 54 0.900000 0.025000 0.022000 1500 46 1.100000 1.985000 2.183000 600 52 1.000000 0.053000 0.053000 1.200000 0.028000 0.033000
1560047070067643080	200 54 0.900000 0.014000 0.012000 1500 46 1.000000 1.795000 1.970000 600 52 1.000000 0.053000 0.053000 1.200000 0.023000 0.027000
1560047070576208330	200 54 0.900000 0.015000 0.013000 1500 46 1.000000 1.767000 1.940000 600 52 1.000000 0.053000 0.053000 1.200000 0.023000 0.027000
1560047071095715455	200 54 0.900000 0.015000 0.013000 1500 46 1.000000 1.793000 1.968000 600 52 1.000000 0.053000 0.053000 1.200000 0.024000 0.028000
1560047071607643622	200 54 0.900000 0.019000 0.017000 1500 46 1.100000 2.169000 2.385000 600 52 1.000000 0.053000 0.053000 1.200000 0.036000 0.043000
1560047072116223163	200 54 0.900000 0.015000 0.013000 1500 46 1.000000 1.769000 1.942000 600 52 1.000000 0.053000 0.053000 1.200000 0.024000 0.028000
1560047072624628997	200 54 0.900000 0.015000 0.013000 1500 46 1.000000 1.771000 1.944000 600 52 1.000000 0.053000 0.053000 1.200000 0.024000 0.028000
1560047073133367580	200 53 0.900000 0.015000 0.013000 1500 46 1.000000 1.785000 1.959000 600 52 1.000000 0.053000 0.053000 1.200000 0.024000 0.028000
1560047073641873997	200 54 0.900000 0.015000 0.013000 1500 46 1.000000 1.803000 1.979000 600 53 1.000000 0.053000 0.053000 1.200000 0.030000 0.036000
1560047074150737789	200 54 0.900000 0.020000 0.018000 1500 46 1.100000 1.934000 2.127000 600 52 1.000000 0.053000 0.053000 1.200000 0.026000 0.031000
1560047074659205830	200 54 0.900000 0.015000 0.013000 1500 46 1.000000 1.787000 1.962000 600 52 1.000000 0.053000 0.053000 1.200000 0.024000 0.028000
1560047075167984039	200 54 0.900000 0.014000 0.012000 1500 46 1.000000 1.799000 1.975000 600 52 1.000000 0.053000 0.053000 1.200000 0.024000 0.028000
1560047075676566247	200 54 0.900000 0.015000 0.013000 1500 46 1.000000 1.816000 1.993000 600 53 1.000000 0.053000 0.053000 1.200000 0.029000 0.035000
1560047076185196414	200 54 0.900000 0.022000 0.020000 1500 46 1.100000 2.061000 2.267000 600 52 1.000000 0.053000 0.053000 1.200000 0.030000 0.036000
1560047076693695747	200 53 0.900000 0.015000 0.013000 1500 46 1.000000 1.787000 1.962000 600 52 1.000000 0.053000 0.053000 1.200000 0.024000 0.028000
1560047077202271831	200 54 0.900000 0.014000 0.012000 1500 46 1.000000 1.770000 1.943000 600 52 1.000000 0.053000 0.053000 1.200000 0.024000 0.028000
1560047077710966789	200 54 0.900000 0.015000 0.013000 1500 46 1.100000 1.873000 2.060000 600 52 1.000000 0.053000 0.053000 1.200000 0.029000 0.035000
1560047078219551622	200 54 0.900000 0.023000 0.020000 1500 46 1.100000 2.007000 2.207000 600 52 1.000000 0.053000 0.053000 1.200000 0.036000 0.043000
1560047078728339748	200 54 0.900000 0.015000 0.013000 1500 46 1.000000 1.765000 1.937000 600 52 1.000000 0.053000 0.053000 1.200000 0.024000 0.028000
1560047079236839748	200 53 0.900000 0.015000 0.013000 1500 46 1.000000 1.763000 1.935000 600 52 1.000000 0.053000 0.053000 1.200000 0.024000 0.028000
1560047079745539039	200 54 0.900000 0.015000 0.013000 1500 46 1.000000 1.878000 2.062000 600 52 1.000000 0.053000 0.053000 1.200000 0.027000 0.032000
1560047080260224039	200 54 0.900000 0.015000 0.013000 1500 46 1.000000 1.800000 1.976000 600 53 1.000000 0.053000 0.053000 1.200000 0.027000 0.032000
1560047080771431664	200 54 0.900000 0.024000 0.021000 1500 46 1.100000 2.003000 2.203000 600 52 1.000000 0.053000 0.053000 1.200000 0.038000 0.045000
1560047081280124706	200 54 0.900000 0.014000 0.012000 1500 46 1.000000 1.793000 1.968000 600 52 1.000000 0.053000 0.053000 1.200000 0.024000 0.028000
1560047081797703248	200 54 0.900000 0.015000 0.013000 1500 46 1.000000 1.772000 1.945000 600 52 1.000000 0.052000 0.052000 1.200000 0.025000 0.030000
1560047082311507415	200 54 0.900000 0.015000 0.013000 1500 46 1.000000 1.789000 1.964000 600 52 1.000000 0.053000 0.053000 1.200000 0.025000 0.030000
1560047082820116040	200 54 0.900000 0.021000 0.019000 1500 46 1.100000 2.111000 2.322000 600 52 1.000000 0.053000 0.053000 1.200000 0.030000 0.036000
1560047083328606081	200 54 0.900000 0.015000 0.013000 1500 46 1.000000 1.784000 1.958000 600 52 1.000000 0.053000 0.053000 1.200000 0.025000 0.030000
1560047083837055415	200 54 0.900000 0.015000 0.013000 1500 46 1.000000 1.852000 2.033000 600 52 1.000000 0.053000 0.053000 1.200000 0.024000 0.028000
1560047084345793957	200 54 0.900000 0.014000 0.012000 1500 46 1.000000 1.768000 1.941000 600 52 1.000000 0.053000 0.053000 1.200000 0.025000 0.030000
1560047084854341498	200 54 0.900000 0.014000 0.012000 1500 46 1.100000 2.061000 2.267000 600 52 1.000000 0.053000 0.053000 1.200000 0.025000 0.030000
1560047085363197040	200 54 0.900000 0.015000 0.013000 1500 46 1.000000 1.776000 1.950000 600 52 1.000000 0.052000 0.052000 1.200000 0.024000 0.028000
1560047085871902998	200 54 0.900000 0.015000 0.013000 1500 46 1.100000 1.877000 2.064000 600 52 1.000000 0.053000 0.053000 1.200000 0.025000 0.030000
1560047086380756415	200 54 0.900000 0.015000 0.013000 1500 46 1.000000 1.770000 1.943000 600 52 1.000000 0.053000 0.053000 1.200000 0.024000 0.028000
1560047086894762040	200 54 0.900000 0.015000 0.013000 1500 46 1.100000 1.902000 2.092000 600 53 1.000000 0.053000 0.053000 1.200000 0.025000 0.030000
1560047087403410040	200 54 0.900000 0.015000 0.013000 1500 46 1.000000 1.772000 1.945000 600 52 1.000000 0.053000 0.053000 1.200000 0.026000 0.031000
1560047087912160999	200 54 0.900000 0.015000 0.013000 1500 46 1.100000 1.883000 2.071000 600 52 1.000000 0.053000 0.053000 1.200000 0.025000 0.030000
1560047088420781624	200 54 0.900000 0.015000 0.013000 1500 46 1.000000 1.788000 1.963000 600 52 1.000000 0.053000 0.053000 1.200000 0.025000 0.030000
1560047088931639374	200 54 0.900000 0.015000 0.013000 1500 46 1.000000 1.779000 1.953000 600 52 1.000000 0.053000 0.053000 1.200000 0.025000 0.030000
1560047089440127624	200 54 0.900000 0.020000 0.018000 1500 46 1.100000 2.128000 2.340000 600 52 1.000000 0.052000 0.052000 1.200000 0.030000 0.036000
1560047089948816874	200 54 0.900000 0.015000 0.013000 1500 46 1.000000 1.801000 1.977000 600 52 1.000000 0.053000 0.053000 1.200000 0.024000 0.028000
1560047090457591041	200 54 0.900000 0.015000 0.013000 1500 46 1.000000 1.782000 1.956000 600 52 1.000000 0.053000 0.053000 1.200000 0.025000 0.030000
1560047090966238499	200 54 0.900000 0.014000 0.012000 1500 46 1.000000 1.775000 1.948000 600 52 1.000000 0.053000 0.053000 1.200000 0.025000 0.030000
1560047091474972499	200 54 0.900000 0.015000 0.013000 1500 46 1.100000 2.097000 2.306000 600 52 1.000000 0.053000 0.053000 1.200000 0.026000 0.031000
1560047091983781207	200 54 0.900000 0.015000 0.013000 1500 46 1.000000 1.874000 2.057000 600 52 1.000000 0.053000 0.053000 1.200000 0.025000 0.030000
1560047092492375124	200 54 0.900000 0.015000 0.013000 1500 46 1.000000 1.766000 1.939000 600 52 1.000000 0.053000 0.053000 1.200000 0.025000 0.030000
1560047093000554583	200 54 0.900000 0.015000 0.013000 1500 46 1.000000 1.767000 1.940000 600 52 1.000000 0.053000 0.053000 1.200000 0.025000 0.030000
1560047093512572416	200 54 0.900000 0.014000 0.012000 1500 46 1.100000 1.926000 2.118000 600 53 1.000000 0.053000 0.053000 1.200000 0.024000 0.028000
1560047094021158458	200 54 0.900000 0.015000 0.013000 1500 46 1.000000 1.891000 2.076000 600 52 1.000000 0.052000 0.052000 1.200000 0.024000 0.028000
1560047094529906833	200 54 0.900000 0.015000 0.013000 1500 46 1.000000 1.773000 1.946000 600 52 1.000000 0.053000 0.053000 1.200000 0.024000 0.028000
1560047095038576749	200 54 0.900000 0.014000 0.012000 1500 46 1.000000 1.764000 1.936000 600 52 1.000000 0.053000 0.053000 1.200000 0.023000 0.027000
1560047095550460583	200 54 0.900000 0.015000 0.013000 1500 46 1.000000 1.796000 1.972000 600 52 1.000000 0.053000 0.053000 1.200000 0.024000 0.028000
1560047096059566291	200 54 0.900000 0.023000 0.020000 1500 46 1.100000 2.086000 2.294000 600 52 1.000000 0.053000 0.053000 1.200000 0.033000 0.039000
1560047096568356500	200 54 0.900000 0.015000 0.013000 1500 46 1.000000 1.765000 1.937000 600 52 1.000000 0.052000 0.052000 1.200000 0.026000 0.031000
1560047097076980041	200 54 0.900000 0.015000 0.013000 1500 46 1.000000 1.800000 1.976000 600 52 1.000000 0.053000 0.053000 1.200000 0.025000 0.030000
1560047097585755500	200 54 0.900000 0.015000 0.013000 1500 46 1.000000 1.771000 1.944000 600 52 1.000000 0.053000 0.053000 1.200000 0.024000 0.028000
1560047098097433500	200 54 0.900000 0.014000 0.012000 1500 46 1.000000 1.794000 1.969000 600 53 1.000000 0.052000 0.052000 1.200000 0.025000 0.030000
1560047098606260958	200 54 0.900000 0.023000 0.020000 1500 46 1.100000 1.968000 2.164000 600 52 1.000000 0.053000 0.053000 1.200000 0.029000 0.035000
1560047099114612875	200 54 0.900000 0.015000 0.013000 1500 46 1.000000 1.784000 1.958000 600 52 1.000000 0.052000 0.052000 1.200000 0.024000 0.028000
1560047099623440083	200 53 0.900000 0.015000 0.013000 1500 46 1.000000 1.785000 1.959000 600 52 1.000000 0.053000 0.053000 1.200000 0.024000 0.028000
1560047100136193292	200 54 0.900000 0.015000 0.013000 1500 46 1.000000 1.797000 1.973000 600 53 1.000000 0.053000 0.053000 1.200000 0.024000 0.028000
1560047100644849250	200 54 0.900000 0.018000 0.016000 1500 46 1.100000 2.159000 2.374000 600 52 1.000000 0.053000 0.053000 1.200000 0.028000 0.033000
1560047101153464459	200 46 0.900000 0.015000 0.013000 1500 45 1.000000 1.522000 1.671000 600 50 1.000000 0.053000 0.053000 1.200000 0.027000 0.032000
1560047101661874917	200 44 0.900000 0.013000 0.011000 1500 43 1.100000 0.235000 0.258000 600 48 1.000000 0.053000 0.053000 1.200000 0.022000 0.026000
