#Timestamp	CPU(0) Frequency(MHz)	CPU(0) Temperature(C)	A7 Voltage(V)	A7 Current(A)	A7 Power(W)	CPU(4) Frequency(MHz)	CPU(4) Temperature(C)	A15 Voltage(V)	A15 Current(A)	A15 Power(W)	GPU Frequency(MHz)	GPU Temperature(C)	GPU Voltage(V)	GPU Current(A)	GPU Power(W)	RAM Voltage(V)	RAM Current(A)	RAM Power(W)
1517186335524393807	1300 44 1.200000 0.200000 0.240000 200 43 0.900000 0.141000 0.139000 600 48 1.000000 0.053000 0.053000 1.200000 0.073000 0.088000
1517186336036487640	1300 43 1.200000 0.076000 0.093000 200 42 0.900000 0.118000 0.107000 600 47 1.000000 0.053000 0.053000 1.200000 0.024000 0.028000
1517186336548454932	1300 42 1.200000 0.100000 0.122000 200 41 0.900000 0.118000 0.107000 600 46 1.000000 0.052000 0.052000 1.200000 0.042000 0.050000
1517186337059826057	1300 41 1.200000 0.072000 0.088000 200 41 0.900000 0.135000 0.122000 600 45 1.000000 0.052000 0.052000 1.200000 0.038000 0.045000
1517186337571045849	1300 41 1.200000 0.108000 0.132000 200 40 0.900000 0.133000 0.121000 600 44 1.000000 0.052000 0.052000 1.200000 0.043000 0.052000
1517186338082052932	1300 40 1.200000 0.071000 0.086000 200 39 0.900000 0.132000 0.120000 600 43 1.000000 0.052000 0.052000 1.200000 0.024000 0.028000
1517186338593321682	1300 39 1.200000 0.096000 0.117000 200 39 0.900000 0.132000 0.120000 600 43 1.000000 0.052000 0.052000 1.200000 0.032000 0.038000
1517186339104766516	1300 39 1.200000 0.076000 0.093000 200 38 0.900000 0.131000 0.119000 600 42 1.000000 0.052000 0.052000 1.200000 0.026000 0.031000
1517186339618690099	1300 39 1.200000 0.070000 0.085000 200 38 0.900000 0.131000 0.119000 600 42 1.000000 0.051000 0.051000 1.200000 0.026000 0.031000
1517186340132125349	1300 38 1.200000 0.104000 0.127000 200 38 0.900000 0.132000 0.120000 600 42 1.000000 0.051000 0.051000 1.200000 0.055000 0.066000
1517186340643477391	1300 38 1.200000 0.073000 0.089000 200 37 0.900000 0.129000 0.117000 600 41 1.000000 0.051000 0.051000 1.200000 0.027000 0.032000
1517186341154664641	1300 38 1.200000 0.075000 0.091000 200 37 0.900000 0.129000 0.117000 600 41 1.000000 0.052000 0.052000 1.200000 0.025000 0.030000
1517186341666283099	1300 37 1.200000 0.074000 0.090000 200 37 0.900000 0.130000 0.118000 600 41 1.000000 0.051000 0.051000 1.200000 0.025000 0.030000
1517186342177304016	1300 37 1.200000 0.095000 0.116000 200 37 0.900000 0.130000 0.118000 600 41 1.000000 0.051000 0.051000 1.200000 0.052000 0.062000
1517186342688635433	1300 37 1.200000 0.073000 0.089000 200 36 0.900000 0.128000 0.116000 600 40 1.000000 0.051000 0.051000 1.200000 0.031000 0.037000
1517186343200029808	1300 37 1.200000 0.075000 0.091000 200 36 0.900000 0.127000 0.115000 600 40 1.000000 0.051000 0.051000 1.200000 0.024000 0.028000
1517186343711185766	1300 37 1.200000 0.069000 0.084000 200 36 0.900000 0.128000 0.116000 600 40 1.000000 0.051000 0.051000 1.200000 0.025000 0.030000
1517186344224765558	1300 36 1.200000 0.085000 0.103000 200 36 0.900000 0.129000 0.117000 600 40 1.000000 0.051000 0.051000 1.200000 0.039000 0.047000
1517186344736306975	1300 36 1.200000 0.096000 0.117000 200 36 0.900000 0.128000 0.116000 600 39 1.000000 0.051000 0.051000 1.200000 0.033000 0.039000
1517186345247419475	1300 36 1.200000 0.069000 0.084000 200 35 0.900000 0.127000 0.115000 600 39 1.000000 0.051000 0.051000 1.200000 0.026000 0.031000
1517186345758570975	1300 36 1.200000 0.072000 0.088000 200 35 0.900000 0.127000 0.115000 600 39 1.000000 0.051000 0.051000 1.200000 0.026000 0.031000
1517186346271397100	1300 36 1.200000 0.071000 0.086000 200 35 0.900000 0.127000 0.115000 600 39 1.000000 0.051000 0.051000 1.200000 0.026000 0.031000
1517186346782838891	1300 36 1.200000 0.129000 0.157000 200 35 0.900000 0.130000 0.118000 600 39 1.000000 0.051000 0.051000 1.200000 0.056000 0.067000
1517186347293963058	1300 35 1.200000 0.069000 0.084000 200 35 0.900000 0.126000 0.114000 600 39 1.000000 0.051000 0.051000 1.200000 0.026000 0.031000
1517186347805517058	1300 35 1.200000 0.071000 0.086000 200 35 0.900000 0.127000 0.115000 600 39 1.000000 0.051000 0.051000 1.200000 0.025000 0.030000
1517186348316879350	1300 35 1.200000 0.072000 0.088000 200 34 0.900000 0.126000 0.114000 600 38 1.000000 0.051000 0.051000 1.200000 0.026000 0.031000
1517186348828473392	1300 35 1.200000 0.076000 0.092000 200 34 0.900000 0.127000 0.115000 600 38 1.000000 0.051000 0.051000 1.200000 0.027000 0.032000
1517186349339820642	1300 35 1.200000 0.076000 0.092000 200 34 0.900000 0.128000 0.116000 600 38 1.000000 0.051000 0.051000 1.200000 0.043000 0.052000
1517186349851204058	1300 35 1.200000 0.070000 0.085000 200 34 0.900000 0.126000 0.114000 600 38 1.000000 0.051000 0.051000 1.200000 0.027000 0.032000
1517186350362708267	1300 35 1.200000 0.073000 0.089000 200 34 0.900000 0.126000 0.114000 600 38 1.000000 0.051000 0.051000 1.200000 0.027000 0.032000
1517186350876706600	1300 35 1.200000 0.068000 0.083000 200 34 0.900000 0.126000 0.114000 600 38 1.000000 0.051000 0.051000 1.200000 0.026000 0.031000
1517186351388618059	1300 35 1.200000 0.069000 0.084000 200 34 0.900000 0.128000 0.116000 600 38 1.000000 0.051000 0.051000 1.200000 0.055000 0.066000
1517186351899837725	1300 34 1.200000 0.070000 0.085000 200 34 0.900000 0.127000 0.115000 600 38 1.000000 0.051000 0.051000 1.200000 0.026000 0.031000
1517186352412379600	1300 35 1.200000 0.072000 0.088000 200 34 0.900000 0.126000 0.114000 600 38 1.000000 0.051000 0.051000 1.200000 0.028000 0.033000
1517186352931741392	1300 36 1.200000 0.338000 0.409000 200 35 0.900000 0.322000 0.293000 600 38 1.000000 0.051000 0.051000 1.200000 0.031000 0.037000
1517186353445640017	1300 36 1.200000 0.411000 0.496000 200 35 0.900000 0.317000 0.288000 600 39 1.000000 0.051000 0.051000 1.200000 0.064000 0.077000
1517186353959468809	1300 36 1.200000 0.307000 0.371000 200 35 0.900000 0.318000 0.289000 600 39 1.000000 0.051000 0.051000 1.200000 0.040000 0.048000
1517186354473032809	1300 36 1.200000 0.318000 0.385000 200 35 0.900000 0.318000 0.289000 600 39 1.000000 0.051000 0.051000 1.200000 0.040000 0.048000
1517186354986982309	1300 36 1.200000 0.368000 0.445000 200 35 0.900000 0.324000 0.295000 600 39 1.000000 0.051000 0.051000 1.200000 0.029000 0.035000
1517186355500260017	1300 37 1.200000 0.333000 0.403000 200 35 0.900000 0.320000 0.291000 600 39 1.000000 0.051000 0.051000 1.200000 0.044000 0.053000
1517186356013766434	1300 37 1.200000 0.328000 0.397000 200 35 0.900000 0.318000 0.289000 600 39 1.000000 0.051000 0.051000 1.200000 0.038000 0.045000
1517186356526615226	1300 36 1.200000 0.349000 0.422000 200 35 0.900000 0.323000 0.294000 600 39 1.000000 0.051000 0.051000 1.200000 0.036000 0.043000
1517186357041543518	1300 37 1.200000 0.352000 0.425000 200 35 0.900000 0.319000 0.290000 600 39 1.000000 0.051000 0.051000 1.200000 0.040000 0.048000
1517186357557667518	1300 37 1.200000 0.336000 0.406000 200 35 0.900000 0.324000 0.295000 600 39 1.000000 0.051000 0.051000 1.200000 0.040000 0.048000
1517186358081031476	1300 36 1.200000 0.350000 0.423000 200 35 0.900000 0.318000 0.289000 600 39 1.000000 0.051000 0.051000 1.200000 0.054000 0.065000
1517186358595720893	1300 36 1.200000 0.330000 0.399000 200 35 0.900000 0.319000 0.290000 600 39 1.000000 0.051000 0.051000 1.200000 0.039000 0.047000
1517186359111051393	1300 37 1.200000 0.313000 0.379000 200 35 0.900000 0.322000 0.293000 600 39 1.000000 0.051000 0.051000 1.200000 0.035000 0.042000
1517186359624699518	1300 36 1.200000 0.399000 0.481000 200 35 0.900000 0.321000 0.292000 600 39 1.000000 0.051000 0.051000 1.200000 0.038000 0.045000
1517186360147724601	1300 36 1.200000 0.326000 0.395000 200 35 0.900000 0.320000 0.291000 600 39 1.000000 0.051000 0.051000 1.200000 0.040000 0.048000
1517186360662730018	1300 36 1.200000 0.318000 0.385000 200 35 0.900000 0.317000 0.288000 600 39 1.000000 0.051000 0.051000 1.200000 0.041000 0.049000
1517186361175867060	1300 36 1.200000 0.379000 0.457000 200 35 0.900000 0.323000 0.293000 600 39 1.000000 0.051000 0.051000 1.200000 0.029000 0.035000
1517186361689334643	1300 36 1.200000 0.330000 0.399000 200 35 0.900000 0.320000 0.291000 600 39 1.000000 0.051000 0.051000 1.200000 0.047000 0.056000
1517186362216923227	1300 36 1.200000 0.314000 0.380000 200 35 0.900000 0.319000 0.290000 600 39 1.000000 0.051000 0.051000 1.200000 0.040000 0.048000
1517186362735637810	1300 36 1.200000 0.399000 0.481000 200 35 0.900000 0.322000 0.293000 600 39 1.000000 0.051000 0.051000 1.200000 0.055000 0.066000
1517186363248939518	1300 36 1.200000 0.321000 0.389000 200 35 0.900000 0.321000 0.292000 600 39 1.000000 0.051000 0.051000 1.200000 0.028000 0.033000
1517186363768032310	1300 36 1.200000 0.321000 0.388000 200 35 0.900000 0.318000 0.289000 600 39 1.000000 0.051000 0.051000 1.200000 0.049000 0.059000
1517186364281547977	1300 36 1.200000 0.381000 0.460000 200 35 0.900000 0.322000 0.293000 600 39 1.000000 0.051000 0.051000 1.200000 0.037000 0.044000
1517186364794586227	1300 36 1.200000 0.327000 0.395000 200 35 0.900000 0.318000 0.289000 600 38 1.000000 0.051000 0.051000 1.200000 0.058000 0.070000
1517186365308019394	1300 36 1.200000 0.365000 0.441000 200 35 0.900000 0.319000 0.290000 600 38 1.000000 0.051000 0.051000 1.200000 0.038000 0.045000
1517186365828384227	1300 36 1.200000 0.339000 0.410000 200 35 0.900000 0.318000 0.289000 600 38 1.000000 0.051000 0.051000 1.200000 0.045000 0.054000
1517186366342766435	1300 36 1.200000 0.315000 0.381000 200 35 0.900000 0.324000 0.295000 600 38 1.000000 0.051000 0.051000 1.200000 0.029000 0.035000
1517186366873043685	1300 36 1.200000 0.391000 0.472000 200 35 0.900000 0.317000 0.288000 600 38 1.000000 0.051000 0.051000 1.200000 0.047000 0.056000
1517186367387106519	1300 36 1.200000 0.331000 0.401000 200 35 0.900000 0.321000 0.292000 600 38 1.000000 0.051000 0.051000 1.200000 0.047000 0.056000
1517186367909977852	1300 36 1.200000 0.343000 0.415000 200 35 0.900000 0.322000 0.293000 600 38 1.000000 0.051000 0.051000 1.200000 0.039000 0.047000
1517186368424268436	1300 36 1.200000 0.355000 0.429000 200 35 0.900000 0.318000 0.289000 600 38 1.000000 0.050000 0.050000 1.200000 0.031000 0.037000
1517186368937076936	1300 36 1.200000 0.311000 0.376000 200 35 0.900000 0.319000 0.290000 600 38 1.000000 0.051000 0.051000 1.200000 0.038000 0.045000
1517186369450623894	1300 36 1.200000 0.376000 0.454000 200 35 0.900000 0.320000 0.291000 600 38 1.000000 0.051000 0.051000 1.200000 0.038000 0.045000
1517186369971723853	1300 36 1.200000 0.338000 0.409000 200 35 0.900000 0.318000 0.289000 600 38 1.000000 0.051000 0.051000 1.200000 0.039000 0.047000
1517186370486307394	1300 36 1.200000 0.332000 0.402000 200 35 0.900000 0.323000 0.294000 600 38 1.000000 0.051000 0.051000 1.200000 0.039000 0.047000
1517186370999555644	1300 36 1.200000 0.313000 0.379000 200 35 0.900000 0.318000 0.289000 600 38 1.000000 0.051000 0.051000 1.200000 0.031000 0.037000
1517186371518734811	1300 36 1.200000 0.331000 0.400000 200 35 0.900000 0.318000 0.289000 600 38 1.000000 0.051000 0.051000 1.200000 0.035000 0.042000
1517186372042891394	1300 36 1.200000 0.380000 0.459000 200 34 0.900000 0.323000 0.294000 600 38 1.000000 0.051000 0.051000 1.200000 0.059000 0.071000
1517186372557465645	1300 36 1.200000 0.323000 0.391000 200 35 0.900000 0.319000 0.290000 600 38 1.000000 0.051000 0.051000 1.200000 0.036000 0.043000
1517186373071131520	1300 36 1.200000 0.368000 0.444000 200 34 0.900000 0.317000 0.288000 600 38 1.000000 0.051000 0.051000 1.200000 0.033000 0.039000
1517186373587055103	1300 36 1.200000 0.312000 0.377000 200 34 0.900000 0.320000 0.291000 600 38 1.000000 0.051000 0.051000 1.200000 0.039000 0.047000
1517186374100164853	1300 36 1.200000 0.381000 0.461000 200 34 0.900000 0.318000 0.289000 600 38 1.000000 0.051000 0.051000 1.200000 0.068000 0.082000
1517186374613149728	1300 36 1.200000 0.382000 0.461000 200 34 0.900000 0.317000 0.288000 600 38 1.000000 0.051000 0.051000 1.200000 0.031000 0.037000
1517186375127020978	1300 36 1.200000 0.319000 0.386000 200 34 0.900000 0.323000 0.294000 600 38 1.000000 0.051000 0.051000 1.200000 0.037000 0.044000
1517186375650721103	1300 35 1.200000 0.320000 0.387000 200 34 0.900000 0.318000 0.289000 600 38 1.000000 0.051000 0.051000 1.200000 0.036000 0.043000
1517186376164896812	1300 36 1.200000 0.403000 0.486000 200 34 0.900000 0.318000 0.289000 600 38 1.000000 0.051000 0.051000 1.200000 0.053000 0.064000
1517186376678687687	1300 36 1.200000 0.320000 0.387000 200 34 0.900000 0.316000 0.287000 600 38 1.000000 0.051000 0.051000 1.200000 0.038000 0.045000
1517186377195385645	1300 35 1.200000 0.356000 0.431000 200 34 0.900000 0.318000 0.289000 600 38 1.000000 0.051000 0.051000 1.200000 0.039000 0.047000
1517186377708891395	1300 35 1.200000 0.321000 0.389000 200 34 0.900000 0.318000 0.289000 600 38 1.000000 0.051000 0.051000 1.200000 0.031000 0.037000
1517186378223609437	1300 36 1.200000 0.382000 0.461000 200 34 0.900000 0.322000 0.293000 600 38 1.000000 0.050000 0.050000 1.200000 0.046000 0.055000
1517186378737595270	1300 36 1.200000 0.335000 0.405000 200 34 0.900000 0.318000 0.289000 600 38 1.000000 0.051000 0.051000 1.200000 0.044000 0.053000
1517186379261600020	1300 35 1.200000 0.314000 0.380000 200 34 0.900000 0.320000 0.291000 600 38 1.000000 0.051000 0.051000 1.200000 0.026000 0.031000
1517186379776449645	1300 35 1.200000 0.381000 0.460000 200 34 0.900000 0.322000 0.293000 600 38 1.000000 0.051000 0.051000 1.200000 0.038000 0.045000
1517186380289359187	1300 35 1.200000 0.327000 0.396000 200 34 0.900000 0.320000 0.291000 600 38 1.000000 0.051000 0.051000 1.200000 0.045000 0.054000
1517186380803221937	1300 36 1.200000 0.358000 0.433000 200 34 0.900000 0.318000 0.289000 600 38 1.000000 0.051000 0.051000 1.200000 0.059000 0.071000
1517186381326779271	1300 35 1.200000 0.325000 0.393000 200 34 0.900000 0.323000 0.294000 600 38 1.000000 0.051000 0.051000 1.200000 0.039000 0.047000
1517186381840822812	1300 35 1.200000 0.313000 0.379000 200 34 0.900000 0.317000 0.288000 600 38 1.000000 0.051000 0.051000 1.200000 0.034000 0.041000
1517186382354048771	1300 35 1.200000 0.370000 0.447000 200 34 0.900000 0.318000 0.289000 600 38 1.000000 0.051000 0.051000 1.200000 0.035000 0.042000
1517186382877489146	1300 35 1.200000 0.316000 0.382000 200 34 0.900000 0.323000 0.294000 600 38 1.000000 0.051000 0.051000 1.200000 0.040000 0.048000
1517186383391530771	1300 35 1.200000 0.366000 0.443000 200 34 0.900000 0.317000 0.288000 600 38 1.000000 0.051000 0.051000 1.200000 0.047000 0.056000
1517186383904910646	1300 35 1.200000 0.313000 0.379000 200 34 0.900000 0.318000 0.289000 600 37 1.000000 0.051000 0.051000 1.200000 0.036000 0.043000
1517186384421525188	1300 35 1.200000 0.379000 0.457000 200 34 0.900000 0.323000 0.294000 600 38 1.000000 0.050000 0.050000 1.200000 0.038000 0.045000
1517186384935238188	1300 35 1.200000 0.329000 0.398000 200 34 0.900000 0.318000 0.289000 600 37 1.000000 0.051000 0.051000 1.200000 0.027000 0.032000
1517186385448146521	1300 35 1.200000 0.340000 0.411000 200 34 0.900000 0.318000 0.289000 600 37 1.000000 0.050000 0.050000 1.200000 0.066000 0.079000
1517186385961535104	1300 35 1.200000 0.374000 0.452000 200 34 0.900000 0.322000 0.293000 600 37 1.000000 0.051000 0.051000 1.200000 0.037000 0.044000
1517186386480594896	1300 35 1.200000 0.320000 0.387000 200 34 0.900000 0.318000 0.289000 600 37 1.000000 0.051000 0.051000 1.200000 0.040000 0.048000
1517186386994302938	1300 35 1.200000 0.321000 0.388000 200 34 0.900000 0.318000 0.289000 600 37 1.000000 0.051000 0.051000 1.200000 0.046000 0.055000
1517186387512647605	1300 35 1.200000 0.369000 0.446000 200 34 0.900000 0.321000 0.292000 600 37 1.000000 0.051000 0.051000 1.200000 0.039000 0.047000
1517186388026887438	1300 35 1.200000 0.320000 0.387000 200 34 0.900000 0.323000 0.294000 600 37 1.000000 0.051000 0.051000 1.200000 0.056000 0.067000
1517186388545006313	1300 35 1.200000 0.320000 0.387000 200 34 0.900000 0.317000 0.288000 600 37 1.000000 0.050000 0.050000 1.200000 0.039000 0.047000
1517186389058989605	1300 35 1.200000 0.356000 0.430000 200 34 0.900000 0.315000 0.286000 600 37 1.000000 0.051000 0.051000 1.200000 0.042000 0.050000
1517186389572182605	1300 35 1.200000 0.311000 0.376000 200 34 0.900000 0.320000 0.291000 600 37 1.000000 0.051000 0.051000 1.200000 0.029000 0.035000
1517186390085999813	1300 35 1.200000 0.358000 0.433000 200 34 0.900000 0.317000 0.288000 600 37 1.000000 0.051000 0.051000 1.200000 0.060000 0.072000
1517186390609190897	1300 35 1.200000 0.319000 0.386000 200 34 0.900000 0.314000 0.286000 600 37 1.000000 0.051000 0.051000 1.200000 0.040000 0.048000
1517186391124452980	1300 35 1.200000 0.349000 0.422000 200 34 0.900000 0.323000 0.294000 600 37 1.000000 0.051000 0.051000 1.200000 0.034000 0.041000
1517186391637852438	1300 35 1.200000 0.320000 0.387000 200 34 0.900000 0.320000 0.291000 600 37 1.000000 0.051000 0.051000 1.200000 0.039000 0.047000
1517186392155803064	1300 35 1.200000 0.330000 0.399000 200 34 0.900000 0.325000 0.296000 600 37 1.000000 0.051000 0.051000 1.200000 0.042000 0.050000
1517186392669747439	1300 35 1.200000 0.334000 0.404000 200 34 0.900000 0.323000 0.294000 600 37 1.000000 0.051000 0.051000 1.200000 0.068000 0.082000
1517186393183129272	1300 35 1.200000 0.345000 0.418000 200 34 0.900000 0.324000 0.295000 600 37 1.000000 0.051000 0.051000 1.200000 0.047000 0.056000
1517186393696784439	1300 35 1.200000 0.377000 0.455000 200 34 0.900000 0.331000 0.301000 600 37 1.000000 0.051000 0.051000 1.200000 0.033000 0.039000
1517186394212523314	1300 34 1.200000 0.320000 0.387000 200 33 0.900000 0.325000 0.296000 600 37 1.000000 0.051000 0.051000 1.200000 0.036000 0.043000
1517186394727608480	1300 35 1.200000 0.394000 0.476000 200 33 0.900000 0.322000 0.293000 600 37 1.000000 0.050000 0.050000 1.200000 0.053000 0.064000
1517186395241140356	1300 35 1.200000 0.356000 0.431000 200 33 0.900000 0.331000 0.301000 600 37 1.000000 0.051000 0.051000 1.200000 0.045000 0.054000
1517186395757556606	1300 35 1.200000 0.322000 0.389000 200 33 0.900000 0.325000 0.296000 600 37 1.000000 0.050000 0.050000 1.200000 0.034000 0.041000
1517186396271159814	1300 35 1.200000 0.327000 0.395000 200 33 0.900000 0.324000 0.295000 600 37 1.000000 0.051000 0.051000 1.200000 0.039000 0.047000
1517186396785412731	1300 35 1.200000 0.325000 0.393000 200 34 0.900000 0.328000 0.298000 600 37 1.000000 0.051000 0.051000 1.200000 0.034000 0.041000
1517186397299861147	1300 35 1.200000 0.421000 0.508000 200 34 0.900000 0.324000 0.295000 600 37 1.000000 0.051000 0.051000 1.200000 0.044000 0.053000
1517186397819863814	1300 34 1.200000 0.324000 0.392000 200 33 0.900000 0.325000 0.296000 600 37 1.000000 0.050000 0.050000 1.200000 0.040000 0.048000
1517186398332621814	1300 35 1.200000 0.338000 0.409000 200 33 0.900000 0.329000 0.299000 600 37 1.000000 0.051000 0.051000 1.200000 0.039000 0.047000
1517186398853417731	1300 35 1.200000 0.360000 0.435000 200 33 0.900000 0.323000 0.294000 600 37 1.000000 0.051000 0.051000 1.200000 0.031000 0.037000
1517186399374426481	1300 35 1.200000 0.354000 0.428000 200 34 0.900000 0.321000 0.292000 600 37 1.000000 0.050000 0.050000 1.200000 0.073000 0.088000
1517186399887527814	1300 35 1.200000 0.344000 0.416000 200 33 0.900000 0.330000 0.300000 600 37 1.000000 0.050000 0.050000 1.200000 0.040000 0.048000
1517186400400684981	1300 35 1.200000 0.339000 0.410000 200 33 0.900000 0.323000 0.294000 600 37 1.000000 0.051000 0.051000 1.200000 0.029000 0.035000
1517186400914514106	1300 35 1.200000 0.322000 0.389000 200 33 0.900000 0.322000 0.293000 600 37 1.000000 0.051000 0.051000 1.200000 0.038000 0.045000
1517186401437336148	1300 35 1.200000 0.426000 0.514000 200 33 0.900000 0.331000 0.301000 600 37 1.000000 0.051000 0.051000 1.200000 0.063000 0.076000
1517186401952474356	1300 35 1.200000 0.321000 0.388000 200 33 0.900000 0.326000 0.296000 600 37 1.000000 0.050000 0.050000 1.200000 0.028000 0.033000
1517186402465752773	1300 35 1.200000 0.390000 0.471000 200 33 0.900000 0.324000 0.295000 600 37 1.000000 0.050000 0.050000 1.200000 0.038000 0.045000
1517186402981849856	1300 34 1.200000 0.322000 0.390000 200 33 0.900000 0.328000 0.298000 600 37 1.000000 0.051000 0.051000 1.200000 0.038000 0.045000
1517186403500519398	1300 35 1.200000 0.356000 0.431000 200 33 0.900000 0.324000 0.294000 600 37 1.000000 0.050000 0.050000 1.200000 0.038000 0.045000
1517186404014530482	1300 35 1.200000 0.350000 0.423000 200 33 0.900000 0.327000 0.297000 600 37 1.000000 0.050000 0.050000 1.200000 0.068000 0.082000
1517186404528384232	1300 35 1.200000 0.342000 0.414000 200 33 0.900000 0.325000 0.296000 600 37 1.000000 0.051000 0.051000 1.200000 0.031000 0.037000
1517186405048884148	1300 34 1.200000 0.347000 0.420000 200 33 0.900000 0.323000 0.294000 600 37 1.000000 0.050000 0.050000 1.200000 0.040000 0.048000
1517186405561806273	1300 34 1.200000 0.327000 0.395000 200 33 0.900000 0.326000 0.296000 600 37 1.000000 0.051000 0.051000 1.200000 0.041000 0.049000
1517186406074982815	1300 35 1.200000 0.395000 0.477000 200 33 0.900000 0.330000 0.300000 600 37 1.000000 0.051000 0.051000 1.200000 0.044000 0.053000
1517186406592764857	1300 35 1.200000 0.324000 0.392000 200 33 0.900000 0.323000 0.294000 600 37 1.000000 0.051000 0.051000 1.200000 0.036000 0.043000
1517186407107231815	1300 34 1.200000 0.325000 0.393000 200 33 0.900000 0.322000 0.293000 600 37 1.000000 0.050000 0.050000 1.200000 0.039000 0.047000
1517186407620291482	1300 35 1.200000 0.404000 0.488000 200 33 0.900000 0.329000 0.299000 600 37 1.000000 0.051000 0.051000 1.200000 0.038000 0.045000
1517186408139324982	1300 35 1.200000 0.329000 0.398000 200 33 0.900000 0.324000 0.295000 600 37 1.000000 0.051000 0.051000 1.200000 0.036000 0.043000
1517186408662445274	1300 34 1.200000 0.323000 0.391000 200 33 0.900000 0.324000 0.295000 600 37 1.000000 0.051000 0.051000 1.200000 0.048000 0.058000
1517186409177291982	1300 34 1.200000 0.326000 0.395000 200 33 0.900000 0.322000 0.293000 600 37 1.000000 0.051000 0.051000 1.200000 0.035000 0.042000
1517186409690573149	1300 34 1.200000 0.344000 0.416000 200 33 0.900000 0.322000 0.293000 600 37 1.000000 0.050000 0.050000 1.200000 0.042000 0.050000
1517186410211275566	1300 34 1.200000 0.349000 0.422000 200 33 0.900000 0.328000 0.298000 600 36 1.000000 0.051000 0.051000 1.200000 0.038000 0.045000
1517186410725674899	1300 34 1.200000 0.362000 0.438000 200 33 0.900000 0.322000 0.293000 600 37 1.000000 0.051000 0.051000 1.200000 0.061000 0.073000
1517186411238923524	1300 34 1.200000 0.374000 0.451000 200 33 0.900000 0.324000 0.295000 600 36 1.000000 0.051000 0.051000 1.200000 0.029000 0.035000
1517186411752526441	1300 34 1.200000 0.346000 0.419000 200 33 0.900000 0.329000 0.299000 600 37 1.000000 0.051000 0.051000 1.200000 0.044000 0.053000
1517186412276088816	1300 34 1.200000 0.324000 0.392000 200 33 0.900000 0.322000 0.293000 600 37 1.000000 0.051000 0.051000 1.200000 0.037000 0.044000
1517186412790136274	1300 34 1.200000 0.396000 0.478000 200 33 0.900000 0.322000 0.293000 600 36 1.000000 0.050000 0.050000 1.200000 0.049000 0.059000
1517186413303708358	1300 34 1.200000 0.320000 0.387000 200 33 0.900000 0.324000 0.295000 600 37 1.000000 0.051000 0.051000 1.200000 0.037000 0.044000
1517186413817868066	1300 34 1.200000 0.355000 0.429000 200 33 0.900000 0.323000 0.294000 600 37 1.000000 0.051000 0.051000 1.200000 0.045000 0.054000
1517186414332371858	1300 34 1.200000 0.356000 0.430000 200 33 0.900000 0.323000 0.294000 600 36 1.000000 0.051000 0.051000 1.200000 0.027000 0.032000
1517186414848631691	1300 34 1.200000 0.331000 0.401000 200 33 0.900000 0.328000 0.298000 600 36 1.000000 0.051000 0.051000 1.200000 0.038000 0.045000
1517186415362685275	1300 34 1.200000 0.372000 0.450000 200 33 0.900000 0.322000 0.293000 600 36 1.000000 0.050000 0.050000 1.200000 0.063000 0.076000
1517186415879740775	1300 34 1.200000 0.355000 0.429000 200 33 0.900000 0.327000 0.297000 600 36 1.000000 0.051000 0.051000 1.200000 0.041000 0.049000
1517186416394485566	1300 34 1.200000 0.344000 0.416000 200 33 0.900000 0.322000 0.293000 600 36 1.000000 0.050000 0.050000 1.200000 0.039000 0.047000
1517186416907715566	1300 34 1.200000 0.323000 0.391000 200 33 0.900000 0.323000 0.294000 600 36 1.000000 0.051000 0.051000 1.200000 0.029000 0.035000
1517186417421315400	1300 34 1.200000 0.387000 0.467000 200 33 0.900000 0.326000 0.296000 600 37 1.000000 0.050000 0.050000 1.200000 0.048000 0.058000
1517186417936279358	1300 34 1.200000 0.318000 0.385000 200 33 0.900000 0.322000 0.293000 600 36 1.000000 0.050000 0.050000 1.200000 0.040000 0.048000
1517186418449168150	1300 34 1.200000 0.325000 0.393000 200 33 0.900000 0.321000 0.292000 600 36 1.000000 0.051000 0.051000 1.200000 0.029000 0.035000
1517186418963084567	1300 34 1.200000 0.367000 0.444000 200 33 0.900000 0.326000 0.296000 600 36 1.000000 0.051000 0.051000 1.200000 0.036000 0.043000
1517186419481814358	1300 34 1.200000 0.321000 0.388000 200 33 0.900000 0.322000 0.293000 600 36 1.000000 0.050000 0.050000 1.200000 0.037000 0.044000
1517186419995900233	1300 34 1.200000 0.363000 0.439000 200 33 0.900000 0.320000 0.291000 600 36 1.000000 0.050000 0.050000 1.200000 0.041000 0.049000
1517186420509016317	1300 34 1.200000 0.341000 0.412000 200 33 0.900000 0.321000 0.292000 600 36 1.000000 0.050000 0.050000 1.200000 0.035000 0.042000
1517186421023199484	1300 34 1.200000 0.321000 0.389000 200 33 0.900000 0.327000 0.297000 600 36 1.000000 0.050000 0.050000 1.200000 0.039000 0.047000
1517186421536799692	1300 34 1.200000 0.384000 0.465000 200 32 0.900000 0.321000 0.292000 600 36 1.000000 0.051000 0.051000 1.200000 0.029000 0.035000
1517186422050068359	1300 34 1.200000 0.336000 0.407000 200 33 0.900000 0.323000 0.294000 600 36 1.000000 0.051000 0.051000 1.200000 0.068000 0.082000
1517186422563842192	1300 34 1.200000 0.386000 0.466000 200 33 0.900000 0.328000 0.298000 600 36 1.000000 0.050000 0.050000 1.200000 0.039000 0.047000
1517186423084303692	1300 34 1.200000 0.318000 0.385000 200 33 0.900000 0.322000 0.293000 600 36 1.000000 0.050000 0.050000 1.200000 0.034000 0.041000
1517186423597774109	1300 34 1.200000 0.319000 0.386000 200 32 0.900000 0.319000 0.290000 600 36 1.000000 0.050000 0.050000 1.200000 0.031000 0.037000
1517186424114872151	1300 34 1.200000 0.366000 0.442000 200 33 0.900000 0.324000 0.295000 600 36 1.000000 0.050000 0.050000 1.200000 0.056000 0.067000
1517186424628555734	1300 34 1.200000 0.320000 0.387000 200 33 0.900000 0.322000 0.293000 600 36 1.000000 0.051000 0.051000 1.200000 0.036000 0.043000
1517186425151859651	1300 34 1.200000 0.346000 0.418000 200 32 0.900000 0.321000 0.292000 600 36 1.000000 0.051000 0.051000 1.200000 0.029000 0.035000
1517186425666895484	1300 34 1.200000 0.326000 0.395000 200 33 0.900000 0.326000 0.296000 600 36 1.000000 0.051000 0.051000 1.200000 0.037000 0.044000
1517186426182017318	1300 34 1.200000 0.381000 0.460000 200 33 0.900000 0.320000 0.291000 600 36 1.000000 0.051000 0.051000 1.200000 0.032000 0.038000
1517186426701100359	1300 34 1.200000 0.354000 0.428000 200 33 0.900000 0.324000 0.295000 600 36 1.000000 0.051000 0.051000 1.200000 0.067000 0.081000
1517186427215425651	1300 34 1.200000 0.320000 0.387000 200 32 0.900000 0.320000 0.291000 600 36 1.000000 0.050000 0.050000 1.200000 0.039000 0.047000
1517186427728566651	1300 34 1.200000 0.384000 0.463000 200 32 0.900000 0.321000 0.292000 600 36 1.000000 0.050000 0.050000 1.200000 0.027000 0.032000
1517186428244139109	1300 34 1.200000 0.319000 0.386000 200 33 0.900000 0.322000 0.293000 600 36 1.000000 0.051000 0.051000 1.200000 0.037000 0.044000
1517186428762256151	1300 34 1.200000 0.385000 0.465000 200 33 0.900000 0.321000 0.292000 600 36 1.000000 0.051000 0.051000 1.200000 0.048000 0.057000
1517186429276819026	1300 34 1.200000 0.334000 0.404000 200 32 0.900000 0.320000 0.291000 600 36 1.000000 0.050000 0.050000 1.200000 0.066000 0.079000
1517186429790410985	1300 34 1.200000 0.333000 0.403000 200 33 0.900000 0.325000 0.296000 600 36 1.000000 0.050000 0.050000 1.200000 0.039000 0.047000
1517186430307612235	1300 34 1.200000 0.351000 0.425000 200 33 0.900000 0.320000 0.291000 600 36 1.000000 0.051000 0.051000 1.200000 0.029000 0.035000
1517186430826972776	1300 34 1.200000 0.335000 0.405000 200 32 0.900000 0.320000 0.291000 600 36 1.000000 0.051000 0.051000 1.200000 0.048000 0.058000
1517186431340112735	1300 34 1.200000 0.406000 0.490000 200 33 0.900000 0.322000 0.293000 600 36 1.000000 0.050000 0.050000 1.200000 0.060000 0.072000
1517186431853933527	1300 34 1.200000 0.318000 0.385000 200 33 0.900000 0.321000 0.292000 600 36 1.000000 0.050000 0.050000 1.200000 0.030000 0.036000
1517186432378081152	1300 34 1.200000 0.315000 0.381000 200 32 0.900000 0.319000 0.290000 600 36 1.000000 0.050000 0.050000 1.200000 0.039000 0.047000
1517186432893475943	1300 34 1.200000 0.383000 0.463000 200 32 0.900000 0.322000 0.293000 600 36 1.000000 0.050000 0.050000 1.200000 0.045000 0.054000
1517186433406688152	1300 34 1.200000 0.348000 0.421000 200 32 0.900000 0.321000 0.292000 600 36 1.000000 0.051000 0.051000 1.200000 0.034000 0.041000
1517186433920285818	1300 34 1.200000 0.320000 0.387000 200 32 0.900000 0.321000 0.292000 600 36 1.000000 0.050000 0.050000 1.200000 0.038000 0.045000
1517186434433205610	1300 33 1.200000 0.316000 0.382000 200 32 0.900000 0.320000 0.291000 600 36 1.000000 0.050000 0.050000 1.200000 0.040000 0.048000
1517186434946280444	1300 34 1.200000 0.361000 0.436000 200 32 0.900000 0.324000 0.295000 600 36 1.000000 0.051000 0.051000 1.200000 0.039000 0.047000
1517186435465264402	1300 34 1.200000 0.335000 0.405000 200 32 0.900000 0.320000 0.291000 600 36 1.000000 0.050000 0.050000 1.200000 0.037000 0.044000
1517186435982369152	1300 34 1.200000 0.327000 0.395000 200 32 0.900000 0.312000 0.284000 600 36 1.000000 0.051000 0.051000 1.200000 0.057000 0.068000
1517186436496845819	1300 34 1.200000 0.353000 0.427000 200 32 0.900000 0.321000 0.292000 600 36 1.000000 0.051000 0.051000 1.200000 0.032000 0.038000
1517186437009923861	1300 34 1.200000 0.330000 0.399000 200 32 0.900000 0.317000 0.288000 600 36 1.000000 0.051000 0.051000 1.200000 0.041000 0.049000
1517186437524237152	1300 34 1.200000 0.369000 0.445000 200 32 0.900000 0.321000 0.292000 600 36 1.000000 0.050000 0.050000 1.200000 0.033000 0.039000
1517186438041301194	1300 33 1.200000 0.330000 0.399000 200 32 0.900000 0.320000 0.291000 600 36 1.000000 0.051000 0.051000 1.200000 0.035000 0.042000
1517186438554432444	1300 34 1.200000 0.317000 0.383000 200 32 0.900000 0.318000 0.289000 600 36 1.000000 0.051000 0.051000 1.200000 0.043000 0.051000
1517186439067942152	1300 34 1.200000 0.392000 0.474000 200 32 0.900000 0.326000 0.296000 600 36 1.000000 0.051000 0.051000 1.200000 0.039000 0.047000
1517186439585291652	1300 34 1.200000 0.318000 0.385000 200 32 0.900000 0.317000 0.288000 600 36 1.000000 0.050000 0.050000 1.200000 0.031000 0.037000
1517186440103195319	1300 34 1.200000 0.338000 0.409000 200 32 0.900000 0.314000 0.286000 600 36 1.000000 0.050000 0.050000 1.200000 0.038000 0.045000
1517186440616761111	1300 34 1.200000 0.348000 0.421000 200 32 0.900000 0.323000 0.294000 600 36 1.000000 0.051000 0.051000 1.200000 0.058000 0.070000
1517186441130818319	1300 34 1.200000 0.353000 0.427000 200 32 0.900000 0.321000 0.292000 600 36 1.000000 0.050000 0.050000 1.200000 0.038000 0.045000
1517186441647646861	1300 33 1.200000 0.325000 0.393000 200 32 0.900000 0.317000 0.288000 600 36 1.000000 0.051000 0.051000 1.200000 0.040000 0.048000
1517186442160830819	1300 34 1.200000 0.314000 0.380000 200 32 0.900000 0.317000 0.288000 600 36 1.000000 0.051000 0.051000 1.200000 0.040000 0.048000
1517186442674696861	1300 34 1.200000 0.386000 0.466000 200 32 0.900000 0.315000 0.286000 600 36 1.000000 0.051000 0.051000 1.200000 0.055000 0.066000
1517186443194540903	1300 34 1.200000 0.337000 0.407000 200 32 0.900000 0.318000 0.289000 600 36 1.000000 0.050000 0.050000 1.200000 0.047000 0.056000
1517186443708141195	1300 33 1.200000 0.318000 0.385000 200 32 0.900000 0.323000 0.294000 600 36 1.000000 0.051000 0.051000 1.200000 0.039000 0.047000
1517186444221279028	1300 34 1.200000 0.366000 0.442000 200 32 0.900000 0.320000 0.291000 600 36 1.000000 0.050000 0.050000 1.200000 0.030000 0.036000
1517186444734659653	1300 34 1.200000 0.326000 0.394000 200 32 0.900000 0.317000 0.288000 600 36 1.000000 0.050000 0.050000 1.200000 0.042000 0.050000
1517186445257777070	1300 33 1.200000 0.351000 0.425000 200 32 0.900000 0.317000 0.288000 600 36 1.000000 0.051000 0.051000 1.200000 0.046000 0.055000
1517186445773166653	1300 33 1.200000 0.329000 0.398000 200 32 0.900000 0.317000 0.288000 600 36 1.000000 0.051000 0.051000 1.200000 0.027000 0.032000
1517186446286691070	1300 34 1.200000 0.316000 0.382000 200 32 0.900000 0.318000 0.289000 600 36 1.000000 0.050000 0.050000 1.200000 0.037000 0.044000
1517186446807143112	1300 33 1.200000 0.369000 0.445000 200 32 0.900000 0.317000 0.288000 600 36 1.000000 0.050000 0.050000 1.200000 0.038000 0.045000
1517186447321197737	1300 33 1.200000 0.368000 0.445000 200 32 0.900000 0.317000 0.288000 600 36 1.000000 0.050000 0.050000 1.200000 0.054000 0.065000
1517186447834570695	1300 34 1.200000 0.369000 0.445000 200 32 0.900000 0.318000 0.289000 600 36 1.000000 0.050000 0.050000 1.200000 0.035000 0.042000
1517186448348477904	1300 34 1.200000 0.317000 0.384000 200 32 0.900000 0.321000 0.292000 600 36 1.000000 0.050000 0.050000 1.200000 0.031000 0.037000
1517186448867295279	1300 33 1.200000 0.369000 0.445000 200 32 0.900000 0.322000 0.293000 600 36 1.000000 0.051000 0.051000 1.200000 0.038000 0.045000
1517186449379580362	1300 34 1.200000 0.322000 0.390000 200 32 0.900000 0.320000 0.291000 600 36 1.000000 0.050000 0.050000 1.200000 0.040000 0.048000
1517186449893053862	1300 34 1.200000 0.346000 0.419000 200 32 0.900000 0.317000 0.288000 600 36 1.000000 0.050000 0.050000 1.200000 0.041000 0.049000
1517186450411237404	1300 34 1.200000 0.357000 0.431000 200 32 0.900000 0.318000 0.289000 600 36 1.000000 0.051000 0.051000 1.200000 0.036000 0.043000
1517186450925631946	1300 33 1.200000 0.315000 0.381000 200 32 0.900000 0.318000 0.289000 600 36 1.000000 0.050000 0.050000 1.200000 0.039000 0.047000
1517186451440022779	1300 34 1.200000 0.375000 0.453000 200 32 0.900000 0.318000 0.289000 600 36 1.000000 0.050000 0.050000 1.200000 0.033000 0.039000
1517186451953636696	1300 33 1.200000 0.341000 0.412000 200 32 0.900000 0.317000 0.288000 600 36 1.000000 0.051000 0.051000 1.200000 0.061000 0.073000
1517186452474718404	1300 33 1.200000 0.307000 0.372000 200 32 0.900000 0.319000 0.290000 600 36 1.000000 0.050000 0.050000 1.200000 0.039000 0.047000
1517186452989830112	1300 33 1.200000 0.379000 0.457000 200 32 0.900000 0.318000 0.289000 600 36 1.000000 0.050000 0.050000 1.200000 0.036000 0.043000
1517186453503129196	1300 33 1.200000 0.310000 0.375000 200 32 0.900000 0.314000 0.286000 600 36 1.000000 0.050000 0.050000 1.200000 0.033000 0.039000
1517186454016640904	1300 34 1.200000 0.374000 0.451000 200 32 0.900000 0.318000 0.289000 600 36 1.000000 0.050000 0.050000 1.200000 0.053000 0.064000
1517186454529408946	1300 33 1.200000 0.312000 0.378000 200 32 0.900000 0.317000 0.288000 600 36 1.000000 0.051000 0.051000 1.200000 0.036000 0.043000
1517186455042615571	1300 33 1.200000 0.330000 0.399000 200 32 0.900000 0.315000 0.286000 600 36 1.000000 0.051000 0.051000 1.200000 0.031000 0.037000
1517186455555763988	1300 34 1.200000 0.329000 0.398000 200 32 0.900000 0.318000 0.289000 600 36 1.000000 0.050000 0.050000 1.200000 0.039000 0.047000
1517186456074727654	1300 34 1.200000 0.315000 0.381000 200 32 0.900000 0.318000 0.289000 600 36 1.000000 0.050000 0.050000 1.200000 0.036000 0.043000
1517186456588576655	1300 33 1.200000 0.369000 0.446000 200 32 0.900000 0.315000 0.286000 600 36 1.000000 0.050000 0.050000 1.200000 0.031000 0.037000
1517186457102056321	1300 33 1.200000 0.312000 0.378000 200 32 0.900000 0.317000 0.288000 600 36 1.000000 0.051000 0.051000 1.200000 0.037000 0.044000
1517186457615588113	1300 33 1.200000 0.321000 0.389000 200 32 0.900000 0.317000 0.288000 600 36 1.000000 0.050000 0.050000 1.200000 0.039000 0.047000
1517186458128243613	1300 33 1.200000 0.377000 0.456000 200 32 0.900000 0.320000 0.291000 600 35 1.000000 0.051000 0.051000 1.200000 0.027000 0.032000
1517186458640996446	1300 33 1.200000 0.316000 0.382000 200 32 0.900000 0.317000 0.288000 600 36 1.000000 0.050000 0.050000 1.200000 0.060000 0.072000
1517186459154865446	1300 33 1.200000 0.368000 0.445000 200 32 0.900000 0.317000 0.288000 600 36 1.000000 0.051000 0.051000 1.200000 0.029000 0.035000
1517186459674293613	1300 34 1.200000 0.312000 0.378000 200 32 0.900000 0.322000 0.293000 600 36 1.000000 0.051000 0.051000 1.200000 0.040000 0.048000
1517186460187701697	1300 33 1.200000 0.370000 0.446000 200 32 0.900000 0.317000 0.288000 600 36 1.000000 0.050000 0.050000 1.200000 0.040000 0.048000
1517186460705622113	1300 34 1.200000 0.313000 0.379000 200 32 0.900000 0.315000 0.286000 600 36 1.000000 0.050000 0.050000 1.200000 0.029000 0.035000
1517186461220117197	1300 34 1.200000 0.394000 0.476000 200 32 0.900000 0.323000 0.294000 600 36 1.000000 0.050000 0.050000 1.200000 0.048000 0.058000
1517186461744734572	1300 33 1.200000 0.318000 0.385000 200 32 0.900000 0.315000 0.286000 600 36 1.000000 0.050000 0.050000 1.200000 0.039000 0.047000
1517186462259447197	1300 33 1.200000 0.333000 0.402000 200 32 0.900000 0.315000 0.286000 600 36 1.000000 0.051000 0.051000 1.200000 0.030000 0.036000
1517186462777048655	1300 33 1.200000 0.370000 0.446000 200 32 0.900000 0.317000 0.288000 600 35 1.000000 0.051000 0.051000 1.200000 0.037000 0.044000
1517186463295841697	1300 33 1.200000 0.348000 0.421000 200 32 0.900000 0.320000 0.291000 600 36 1.000000 0.050000 0.050000 1.200000 0.065000 0.078000
1517186463809679155	1300 33 1.200000 0.311000 0.376000 200 32 0.900000 0.317000 0.288000 600 35 1.000000 0.050000 0.050000 1.200000 0.030000 0.036000
1517186464323128989	1300 33 1.200000 0.360000 0.435000 200 32 0.900000 0.315000 0.286000 600 36 1.000000 0.050000 0.050000 1.200000 0.034000 0.041000
1517186464836837531	1300 33 1.200000 0.307000 0.371000 200 32 0.900000 0.317000 0.288000 600 36 1.000000 0.051000 0.051000 1.200000 0.037000 0.044000
1517186465359306531	1300 33 1.200000 0.358000 0.433000 200 32 0.900000 0.314000 0.286000 600 36 1.000000 0.050000 0.050000 1.200000 0.050000 0.060000
1517186465875579489	1300 33 1.200000 0.336000 0.406000 200 32 0.900000 0.311000 0.283000 600 36 1.000000 0.051000 0.051000 1.200000 0.031000 0.037000
1517186466389377156	1300 33 1.200000 0.363000 0.439000 200 32 0.900000 0.320000 0.291000 600 36 1.000000 0.050000 0.050000 1.200000 0.038000 0.045000
1517186466906015739	1300 33 1.200000 0.314000 0.380000 200 32 0.900000 0.316000 0.287000 600 35 1.000000 0.051000 0.051000 1.200000 0.034000 0.041000
1517186467422066822	1300 33 1.200000 0.313000 0.379000 200 32 0.900000 0.313000 0.285000 600 35 1.000000 0.050000 0.050000 1.200000 0.031000 0.037000
1517186467937743739	1300 33 1.200000 0.396000 0.478000 200 32 0.900000 0.320000 0.291000 600 36 1.000000 0.050000 0.050000 1.200000 0.040000 0.048000
1517186468451872448	1300 33 1.200000 0.320000 0.387000 200 32 0.900000 0.316000 0.287000 600 36 1.000000 0.050000 0.050000 1.200000 0.036000 0.043000
1517186468972656239	1300 33 1.200000 0.310000 0.375000 200 32 0.900000 0.314000 0.286000 600 35 1.000000 0.051000 0.051000 1.200000 0.028000 0.033000
1517186469485617156	1300 33 1.200000 0.358000 0.433000 200 32 0.900000 0.323000 0.294000 600 35 1.000000 0.050000 0.050000 1.200000 0.036000 0.043000
1517186470000200198	1300 33 1.200000 0.344000 0.416000 200 32 0.900000 0.315000 0.286000 600 35 1.000000 0.050000 0.050000 1.200000 0.056000 0.067000
1517186470521676823	1300 33 1.200000 0.368000 0.445000 200 32 0.900000 0.315000 0.286000 600 36 1.000000 0.050000 0.050000 1.200000 0.048000 0.058000
1517186471035388281	1300 33 1.200000 0.311000 0.376000 200 32 0.900000 0.314000 0.286000 600 35 1.000000 0.050000 0.050000 1.200000 0.038000 0.045000
1517186471548675406	1300 33 1.200000 0.356000 0.430000 200 32 0.900000 0.315000 0.286000 600 35 1.000000 0.050000 0.050000 1.200000 0.029000 0.035000
1517186472067952573	1300 33 1.200000 0.308000 0.372000 200 32 0.900000 0.317000 0.288000 600 35 1.000000 0.051000 0.051000 1.200000 0.041000 0.049000
1517186472591474656	1300 33 1.200000 0.388000 0.468000 200 32 0.900000 0.314000 0.286000 600 35 1.000000 0.050000 0.050000 1.200000 0.058000 0.070000
1517186473106042115	1300 33 1.200000 0.322000 0.390000 200 32 0.900000 0.316000 0.287000 600 35 1.000000 0.051000 0.051000 1.200000 0.040000 0.048000
1517186473619592323	1300 33 1.200000 0.313000 0.379000 200 32 0.900000 0.316000 0.287000 600 35 1.000000 0.051000 0.051000 1.200000 0.040000 0.048000
1517186474136226365	1300 33 1.200000 0.360000 0.434000 200 32 0.900000 0.315000 0.286000 600 35 1.000000 0.050000 0.050000 1.200000 0.028000 0.033000
1517186474649502365	1300 33 1.200000 0.343000 0.415000 200 32 0.900000 0.314000 0.286000 600 35 1.000000 0.050000 0.050000 1.200000 0.042000 0.050000
1517186475162869032	1300 33 1.200000 0.323000 0.391000 200 32 0.900000 0.317000 0.288000 600 35 1.000000 0.050000 0.050000 1.200000 0.040000 0.048000
1517186475676497407	1300 33 1.200000 0.340000 0.411000 200 32 0.900000 0.316000 0.287000 600 35 1.000000 0.050000 0.050000 1.200000 0.030000 0.036000
1517186476199668657	1300 33 1.200000 0.314000 0.380000 200 32 0.900000 0.318000 0.289000 600 35 1.000000 0.050000 0.050000 1.200000 0.038000 0.045000
1517186476717716074	1300 33 1.200000 0.386000 0.466000 200 32 0.900000 0.317000 0.288000 600 35 1.000000 0.050000 0.050000 1.200000 0.040000 0.048000
1517186477231854199	1300 33 1.200000 0.308000 0.372000 200 32 0.900000 0.317000 0.288000 600 35 1.000000 0.050000 0.050000 1.200000 0.049000 0.059000
1517186477751000657	1300 33 1.200000 0.306000 0.370000 200 32 0.900000 0.317000 0.288000 600 35 1.000000 0.050000 0.050000 1.200000 0.037000 0.044000
1517186478264517949	1300 33 1.200000 0.366000 0.442000 200 32 0.900000 0.317000 0.288000 600 35 1.000000 0.050000 0.050000 1.200000 0.039000 0.047000
1517186478779446449	1300 33 1.200000 0.313000 0.379000 200 32 0.900000 0.317000 0.288000 600 35 1.000000 0.050000 0.050000 1.200000 0.037000 0.044000
1517186479293137949	1300 33 1.200000 0.385000 0.465000 200 32 0.900000 0.314000 0.286000 600 35 1.000000 0.051000 0.051000 1.200000 0.064000 0.077000
1517186479816343824	1300 33 1.200000 0.312000 0.378000 200 32 0.900000 0.312000 0.284000 600 35 1.000000 0.050000 0.050000 1.200000 0.039000 0.047000
1517186480331485199	1300 33 1.200000 0.332000 0.402000 200 32 0.900000 0.319000 0.290000 600 36 1.000000 0.050000 0.050000 1.200000 0.034000 0.041000
1517186480844976949	1300 33 1.200000 0.349000 0.422000 200 32 0.900000 0.314000 0.286000 600 35 1.000000 0.051000 0.051000 1.200000 0.042000 0.050000
1517186481358620866	1300 33 1.200000 0.325000 0.393000 200 32 0.900000 0.312000 0.284000 600 35 1.000000 0.050000 0.050000 1.200000 0.047000 0.056000
1517186481871252033	1300 33 1.200000 0.348000 0.421000 200 32 0.900000 0.319000 0.290000 600 35 1.000000 0.051000 0.051000 1.200000 0.036000 0.043000
1517186482384560533	1300 33 1.200000 0.313000 0.379000 200 32 0.900000 0.314000 0.286000 600 35 1.000000 0.050000 0.050000 1.200000 0.040000 0.048000
1517186482898139533	1300 33 1.200000 0.369000 0.446000 200 32 0.900000 0.319000 0.290000 600 35 1.000000 0.051000 0.051000 1.200000 0.038000 0.045000
1517186483425820741	1300 33 1.200000 0.309000 0.374000 200 32 0.900000 0.315000 0.286000 600 35 1.000000 0.050000 0.050000 1.200000 0.031000 0.037000
1517186483940644449	1300 33 1.200000 0.357000 0.432000 200 32 0.900000 0.312000 0.284000 600 35 1.000000 0.050000 0.050000 1.200000 0.059000 0.071000
1517186484454574825	1300 33 1.200000 0.361000 0.436000 200 32 0.900000 0.318000 0.289000 600 35 1.000000 0.050000 0.050000 1.200000 0.040000 0.048000
1517186484973169783	1300 33 1.200000 0.326000 0.394000 200 32 0.900000 0.315000 0.286000 600 35 1.000000 0.050000 0.050000 1.200000 0.028000 0.033000
1517186485487716116	1300 33 1.200000 0.349000 0.422000 200 32 0.900000 0.312000 0.284000 600 35 1.000000 0.051000 0.051000 1.200000 0.039000 0.047000
1517186486000591075	1300 33 1.200000 0.312000 0.378000 200 32 0.900000 0.317000 0.288000 600 35 1.000000 0.050000 0.050000 1.200000 0.043000 0.052000
1517186486514392325	1300 33 1.200000 0.351000 0.424000 200 32 0.900000 0.317000 0.288000 600 35 1.000000 0.050000 0.050000 1.200000 0.029000 0.035000
1517186487034988741	1300 33 1.200000 0.313000 0.379000 200 32 0.900000 0.316000 0.287000 600 36 1.000000 0.051000 0.051000 1.200000 0.040000 0.048000
1517186487549804575	1300 33 1.200000 0.315000 0.381000 200 32 0.900000 0.316000 0.287000 600 35 1.000000 0.050000 0.050000 1.200000 0.039000 0.047000
1517186488064705283	1300 33 1.200000 0.371000 0.448000 200 32 0.900000 0.314000 0.286000 600 35 1.000000 0.050000 0.050000 1.200000 0.029000 0.035000
1517186488579277325	1300 33 1.200000 0.320000 0.387000 200 32 0.900000 0.315000 0.286000 600 35 1.000000 0.050000 0.050000 1.200000 0.058000 0.070000
1517186489092769242	1300 33 1.200000 0.320000 0.387000 200 31 0.900000 0.316000 0.287000 600 35 1.000000 0.051000 0.051000 1.200000 0.039000 0.047000
1517186489605878408	1300 33 1.200000 0.353000 0.427000 200 32 0.900000 0.314000 0.286000 600 35 1.000000 0.051000 0.051000 1.200000 0.030000 0.036000
1517186490119764950	1300 33 1.200000 0.309000 0.374000 200 32 0.900000 0.316000 0.287000 600 35 1.000000 0.050000 0.050000 1.200000 0.036000 0.043000
1517186490635887700	1300 33 1.200000 0.372000 0.450000 200 32 0.900000 0.312000 0.284000 600 35 1.000000 0.051000 0.051000 1.200000 0.065000 0.078000
1517186491149385492	1300 33 1.200000 0.346000 0.419000 200 31 0.900000 0.315000 0.286000 600 35 1.000000 0.050000 0.050000 1.200000 0.031000 0.037000
1517186491662876825	1300 33 1.200000 0.350000 0.423000 200 32 0.900000 0.316000 0.287000 600 35 1.000000 0.050000 0.050000 1.200000 0.035000 0.042000
1517186492176473409	1300 33 1.200000 0.312000 0.378000 200 32 0.900000 0.315000 0.286000 600 35 1.000000 0.050000 0.050000 1.200000 0.037000 0.044000
1517186492700932492	1300 33 1.200000 0.310000 0.375000 200 32 0.900000 0.316000 0.287000 600 35 1.000000 0.051000 0.051000 1.200000 0.041000 0.049000
1517186493215570117	1300 33 1.200000 0.375000 0.453000 200 32 0.900000 0.314000 0.286000 600 35 1.000000 0.050000 0.050000 1.200000 0.038000 0.045000
1517186493729262201	1300 33 1.200000 0.335000 0.405000 200 32 0.900000 0.316000 0.287000 600 35 1.000000 0.051000 0.051000 1.200000 0.035000 0.042000
1517186494245701326	1300 33 1.200000 0.365000 0.441000 200 32 0.900000 0.315000 0.286000 600 35 1.000000 0.050000 0.050000 1.200000 0.036000 0.043000
1517186494764155367	1300 33 1.200000 0.312000 0.378000 200 31 0.900000 0.317000 0.288000 600 35 1.000000 0.051000 0.051000 1.200000 0.039000 0.047000
1517186495277379742	1300 33 1.200000 0.355000 0.429000 200 32 0.900000 0.315000 0.286000 600 35 1.000000 0.050000 0.050000 1.200000 0.054000 0.065000
1517186495791170951	1300 33 1.200000 0.350000 0.423000 200 31 0.900000 0.312000 0.284000 600 35 1.000000 0.050000 0.050000 1.200000 0.032000 0.038000
1517186496312389534	1300 33 1.200000 0.307000 0.372000 200 31 0.900000 0.320000 0.291000 600 35 1.000000 0.050000 0.050000 1.200000 0.039000 0.047000
1517186496825417409	1300 33 1.200000 0.359000 0.434000 200 31 0.900000 0.316000 0.287000 600 35 1.000000 0.050000 0.050000 1.200000 0.035000 0.042000
1517186497338892076	1300 33 1.200000 0.326000 0.394000 200 32 0.900000 0.312000 0.284000 600 35 1.000000 0.051000 0.051000 1.200000 0.036000 0.043000
1517186497857458493	1300 33 1.200000 0.311000 0.375000 200 32 0.900000 0.320000 0.291000 600 35 1.000000 0.050000 0.050000 1.200000 0.042000 0.050000
1517186498371097285	1300 33 1.200000 0.315000 0.381000 200 31 0.900000 0.316000 0.287000 600 35 1.000000 0.050000 0.050000 1.200000 0.038000 0.046000
1517186498883974910	1300 33 1.200000 0.312000 0.378000 200 31 0.900000 0.313000 0.285000 600 35 1.000000 0.050000 0.050000 1.200000 0.028000 0.033000
1517186499411992868	1300 33 1.200000 0.352000 0.425000 200 31 0.900000 0.320000 0.291000 600 35 1.000000 0.050000 0.050000 1.200000 0.038000 0.045000
1517186499935639493	1300 33 1.200000 0.360000 0.435000 200 31 0.900000 0.315000 0.286000 600 35 1.000000 0.050000 0.050000 1.200000 0.061000 0.073000
1517186500450599118	1300 33 1.200000 0.327000 0.395000 200 31 0.900000 0.314000 0.286000 600 35 1.000000 0.050000 0.050000 1.200000 0.027000 0.032000
1517186500963836410	1300 33 1.200000 0.334000 0.404000 200 31 0.900000 0.317000 0.288000 600 35 1.000000 0.050000 0.050000 1.200000 0.038000 0.045000
1517186501481844743	1300 33 1.200000 0.308000 0.373000 200 32 0.900000 0.317000 0.288000 600 35 1.000000 0.050000 0.050000 1.200000 0.037000 0.044000
1517186501996030160	1300 33 1.200000 0.390000 0.471000 200 31 0.900000 0.315000 0.286000 600 35 1.000000 0.051000 0.051000 1.200000 0.053000 0.064000
1517186502508839910	1300 33 1.200000 0.308000 0.373000 200 32 0.900000 0.317000 0.288000 600 35 1.000000 0.050000 0.050000 1.200000 0.036000 0.043000
1517186503022870035	1300 33 1.200000 0.306000 0.370000 200 31 0.900000 0.315000 0.286000 600 35 1.000000 0.051000 0.051000 1.200000 0.037000 0.044000
1517186503542011702	1300 32 1.200000 0.366000 0.442000 200 31 0.900000 0.314000 0.286000 600 35 1.000000 0.050000 0.050000 1.200000 0.027000 0.032000
1517186504056609952	1300 33 1.200000 0.325000 0.393000 200 32 0.900000 0.316000 0.287000 600 35 1.000000 0.050000 0.050000 1.200000 0.039000 0.047000
1517186504570057910	1300 33 1.200000 0.383000 0.463000 200 32 0.900000 0.315000 0.286000 600 35 1.000000 0.050000 0.050000 1.200000 0.037000 0.044000
1517186505088290244	1300 33 1.200000 0.311000 0.376000 200 31 0.900000 0.314000 0.286000 600 35 1.000000 0.050000 0.050000 1.200000 0.029000 0.035000
1517186505601960619	1300 33 1.200000 0.347000 0.419000 200 31 0.900000 0.314000 0.286000 600 35 1.000000 0.050000 0.050000 1.200000 0.039000 0.047000
1517186506115250785	1300 33 1.200000 0.320000 0.387000 200 31 0.900000 0.317000 0.288000 600 35 1.000000 0.050000 0.050000 1.200000 0.040000 0.048000
1517186506628828077	1300 33 1.200000 0.370000 0.446000 200 32 0.900000 0.321000 0.292000 600 35 1.000000 0.051000 0.051000 1.200000 0.054000 0.065000
1517186507152637952	1300 33 1.200000 0.315000 0.381000 200 31 0.900000 0.314000 0.286000 600 35 1.000000 0.050000 0.050000 1.200000 0.039000 0.047000
1517186507667842952	1300 33 1.200000 0.314000 0.380000 200 31 0.900000 0.314000 0.286000 600 35 1.000000 0.050000 0.050000 1.200000 0.032000 0.038000
1517186508181182577	1300 33 1.200000 0.390000 0.471000 200 32 0.900000 0.317000 0.288000 600 35 1.000000 0.050000 0.050000 1.200000 0.046000 0.055000
1517186508704148869	1300 33 1.200000 0.309000 0.374000 200 32 0.900000 0.315000 0.286000 600 35 1.000000 0.050000 0.050000 1.200000 0.038000 0.045000
1517186509219109619	1300 33 1.200000 0.323000 0.391000 200 31 0.900000 0.314000 0.286000 600 35 1.000000 0.051000 0.051000 1.200000 0.037000 0.044000
1517186509732070661	1300 33 1.200000 0.353000 0.427000 200 32 0.900000 0.314000 0.286000 600 35 1.000000 0.050000 0.050000 1.200000 0.031000 0.037000
1517186510245907786	1300 33 1.200000 0.327000 0.396000 200 31 0.900000 0.320000 0.291000 600 35 1.000000 0.050000 0.050000 1.200000 0.048000 0.058000
1517186510768592286	1300 32 1.200000 0.343000 0.415000 200 31 0.900000 0.316000 0.287000 600 35 1.000000 0.050000 0.050000 1.200000 0.034000 0.041000
1517186511282957328	1300 33 1.200000 0.333000 0.403000 200 31 0.900000 0.314000 0.286000 600 35 1.000000 0.050000 0.050000 1.200000 0.055000 0.066000
1517186511796544619	1300 33 1.200000 0.344000 0.416000 200 31 0.900000 0.320000 0.291000 600 35 1.000000 0.050000 0.050000 1.200000 0.038000 0.045000
1517186512317002828	1300 33 1.200000 0.338000 0.409000 200 31 0.900000 0.314000 0.286000 600 35 1.000000 0.050000 0.050000 1.200000 0.041000 0.049000
1517186512830505120	1300 33 1.200000 0.313000 0.379000 200 31 0.900000 0.311000 0.283000 600 35 1.000000 0.050000 0.050000 1.200000 0.029000 0.035000
1517186513341988661	1300 32 1.200000 0.374000 0.452000 200 31 0.900000 0.292000 0.266000 600 35 1.000000 0.050000 0.050000 1.200000 0.055000 0.066000
1517186513853519703	1300 31 1.200000 0.068000 0.083000 200 30 0.900000 0.038000 0.034000 600 34 1.000000 0.051000 0.051000 1.200000 0.023000 0.027000
