#Timestamp	CPU(0) Frequency(MHz)	CPU(0) Temperature(C)	A7 Voltage(V)	A7 Current(A)	A7 Power(W)	CPU(4) Frequency(MHz)	CPU(4) Temperature(C)	A15 Voltage(V)	A15 Current(A)	A15 Power(W)	GPU Frequency(MHz)	GPU Temperature(C)	GPU Voltage(V)	GPU Current(A)	GPU Power(W)	RAM Voltage(V)	RAM Current(A)	RAM Power(W)
1517203221113732820	1300 42 1.200000 0.163000 0.199000 800 40 0.900000 0.232000 0.214000 600 45 1.000000 0.052000 0.052000 1.200000 0.043000 0.052000
1517203221621872028	1300 42 1.200000 0.124000 0.151000 800 40 0.900000 0.422000 0.389000 600 44 1.000000 0.052000 0.052000 1.200000 0.053000 0.064000
1517203222130020195	1300 42 1.200000 0.071000 0.086000 800 40 0.900000 0.413000 0.377000 600 44 1.000000 0.052000 0.052000 1.200000 0.029000 0.035000
1517203222638033570	1300 42 1.200000 0.070000 0.085000 800 40 0.900000 0.411000 0.376000 600 44 1.000000 0.052000 0.052000 1.200000 0.029000 0.035000
1517203223146060320	1300 41 1.200000 0.079000 0.096000 800 39 0.900000 0.413000 0.378000 600 43 1.000000 0.052000 0.052000 1.200000 0.034000 0.041000
1517203223654053945	1300 41 1.200000 0.076000 0.093000 800 39 0.900000 0.423000 0.388000 600 43 1.000000 0.051000 0.051000 1.200000 0.045000 0.054000
1517203224162241195	1300 41 1.200000 0.072000 0.088000 800 39 0.900000 0.411000 0.376000 600 43 1.000000 0.052000 0.052000 1.200000 0.030000 0.036000
1517203224670246278	1300 41 1.200000 0.071000 0.086000 800 39 0.900000 0.412000 0.377000 600 43 1.000000 0.051000 0.051000 1.200000 0.030000 0.036000
1517203225178832987	1300 41 1.200000 0.105000 0.128000 800 39 0.900000 0.957000 0.877000 600 45 1.000000 0.051000 0.051000 1.200000 0.045000 0.054000
1517203225690286987	1300 42 1.200000 0.210000 0.255000 800 39 0.900000 1.211000 1.111000 600 46 1.000000 0.052000 0.052000 1.200000 0.039000 0.047000
1517203226200145945	1300 42 1.200000 0.270000 0.326000 800 39 0.900000 1.209000 1.109000 600 47 1.000000 0.051000 0.051000 1.200000 0.049000 0.059000
1517203226708833654	1300 43 1.200000 0.217000 0.263000 800 40 0.900000 1.207000 1.108000 600 47 1.000000 0.052000 0.052000 1.200000 0.043000 0.052000
1517203227217350445	1300 43 1.200000 0.217000 0.263000 800 40 0.900000 1.213000 1.113000 600 47 1.000000 0.052000 0.052000 1.200000 0.039000 0.047000
1517203227725788779	1300 43 1.200000 0.219000 0.265000 800 40 0.900000 1.213000 1.113000 600 47 1.000000 0.052000 0.052000 1.200000 0.039000 0.047000
1517203228234679529	1300 43 1.200000 0.262000 0.317000 800 40 0.900000 1.212000 1.112000 600 47 1.000000 0.051000 0.051000 1.200000 0.045000 0.054000
1517203228743322487	1300 43 1.200000 0.216000 0.262000 800 40 0.900000 1.214000 1.114000 600 47 1.000000 0.052000 0.052000 1.200000 0.040000 0.048000
1517203229252053612	1300 43 1.200000 0.213000 0.258000 800 40 0.900000 1.211000 1.111000 600 47 1.000000 0.052000 0.052000 1.200000 0.047000 0.056000
1517203229760837946	1300 43 1.200000 0.219000 0.265000 800 40 0.900000 1.216000 1.116000 600 47 1.000000 0.052000 0.052000 1.200000 0.039000 0.047000
1517203230270133362	1300 43 1.200000 0.223000 0.270000 800 40 0.900000 1.216000 1.116000 600 48 1.000000 0.052000 0.052000 1.200000 0.040000 0.048000
1517203230778796946	1300 43 1.200000 0.219000 0.265000 800 40 0.900000 1.216000 1.116000 600 48 1.000000 0.052000 0.052000 1.200000 0.038000 0.045000
1517203231287220529	1300 43 1.200000 0.229000 0.277000 800 40 0.900000 1.218000 1.118000 600 47 1.000000 0.052000 0.052000 1.200000 0.037000 0.044000
1517203231795673613	1300 43 1.200000 0.213000 0.258000 800 40 0.900000 1.195000 1.097000 600 48 1.000000 0.052000 0.052000 1.200000 0.042000 0.050000
1517203232304070196	1300 43 1.200000 0.229000 0.277000 800 40 0.900000 1.214000 1.114000 600 48 1.000000 0.052000 0.052000 1.200000 0.040000 0.048000
1517203232812960071	1300 43 1.200000 0.252000 0.305000 800 40 0.900000 1.211000 1.111000 600 48 1.000000 0.051000 0.051000 1.200000 0.059000 0.071000
1517203233321615821	1300 43 1.200000 0.220000 0.266000 800 40 0.900000 1.216000 1.116000 600 48 1.000000 0.052000 0.052000 1.200000 0.041000 0.049000
1517203233830378696	1300 43 1.200000 0.217000 0.263000 800 40 0.900000 1.213000 1.113000 600 48 1.000000 0.052000 0.052000 1.200000 0.039000 0.047000
1517203234341463988	1300 43 1.200000 0.219000 0.265000 800 40 0.900000 1.215000 1.115000 600 48 1.000000 0.051000 0.051000 1.200000 0.039000 0.047000
1517203234850825863	1300 43 1.200000 0.244000 0.295000 800 40 0.900000 1.213000 1.113000 600 48 1.000000 0.052000 0.052000 1.200000 0.058000 0.070000
1517203235359399238	1300 43 1.200000 0.228000 0.276000 800 40 0.900000 1.214000 1.114000 600 48 1.000000 0.052000 0.052000 1.200000 0.040000 0.048000
1517203235868010071	1300 43 1.200000 0.231000 0.280000 800 40 0.900000 1.215000 1.115000 600 48 1.000000 0.052000 0.052000 1.200000 0.045000 0.054000
1517203236376687946	1300 43 1.200000 0.213000 0.258000 800 40 0.900000 1.217000 1.117000 600 48 1.000000 0.052000 0.052000 1.200000 0.040000 0.048000
1517203236885231322	1300 43 1.200000 0.247000 0.299000 800 40 0.900000 1.213000 1.113000 600 48 1.000000 0.052000 0.052000 1.200000 0.052000 0.062000
1517203237395126030	1300 43 1.200000 0.218000 0.264000 800 40 0.900000 1.216000 1.116000 600 48 1.000000 0.052000 0.052000 1.200000 0.039000 0.047000
1517203237903956905	1300 43 1.200000 0.209000 0.253000 800 40 0.900000 1.216000 1.116000 600 48 1.000000 0.052000 0.052000 1.200000 0.044000 0.053000
1517203238412390905	1300 43 1.200000 0.217000 0.263000 800 40 0.900000 1.216000 1.116000 600 48 1.000000 0.052000 0.052000 1.200000 0.040000 0.048000
1517203238920975155	1300 43 1.200000 0.254000 0.307000 800 40 0.900000 1.217000 1.117000 600 48 1.000000 0.052000 0.052000 1.200000 0.045000 0.054000
1517203239429583405	1300 43 1.200000 0.229000 0.277000 800 40 0.900000 1.213000 1.113000 600 48 1.000000 0.052000 0.052000 1.200000 0.038000 0.045000
1517203239938535697	1300 43 1.200000 0.220000 0.266000 800 40 0.900000 1.216000 1.116000 600 48 1.000000 0.052000 0.052000 1.200000 0.044000 0.053000
1517203240447274239	1300 43 1.200000 0.218000 0.264000 800 40 0.900000 1.218000 1.118000 600 48 1.000000 0.052000 0.052000 1.200000 0.039000 0.047000
1517203240958058322	1300 43 1.200000 0.219000 0.265000 800 40 0.900000 1.205000 1.106000 600 48 1.000000 0.052000 0.052000 1.200000 0.043000 0.052000
1517203241466917739	1300 43 1.200000 0.208000 0.252000 800 40 0.900000 1.216000 1.116000 600 47 1.000000 0.052000 0.052000 1.200000 0.056000 0.067000
1517203241975542655	1300 43 1.200000 0.231000 0.279000 800 40 0.900000 1.206000 1.107000 600 48 1.000000 0.052000 0.052000 1.200000 0.044000 0.053000
1517203242484046114	1300 43 1.200000 0.221000 0.267000 800 40 0.900000 1.213000 1.113000 600 47 1.000000 0.052000 0.052000 1.200000 0.041000 0.049000
1517203242994250989	1300 43 1.200000 0.218000 0.264000 800 40 0.900000 1.207000 1.108000 600 48 1.000000 0.052000 0.052000 1.200000 0.042000 0.050000
1517203243502931072	1300 43 1.200000 0.259000 0.313000 800 40 0.900000 1.213000 1.113000 600 47 1.000000 0.051000 0.051000 1.200000 0.060000 0.072000
1517203244011783031	1300 43 1.200000 0.228000 0.276000 800 40 0.900000 1.213000 1.113000 600 47 1.000000 0.052000 0.052000 1.200000 0.041000 0.049000
1517203244520623156	1300 43 1.200000 0.218000 0.264000 800 40 0.900000 1.213000 1.113000 600 47 1.000000 0.052000 0.052000 1.200000 0.040000 0.048000
1517203245029429073	1300 43 1.200000 0.205000 0.249000 800 40 0.900000 1.215000 1.115000 600 47 1.000000 0.052000 0.052000 1.200000 0.042000 0.050000
1517203245538907864	1300 43 1.200000 0.263000 0.318000 800 40 0.900000 1.211000 1.111000 600 47 1.000000 0.052000 0.052000 1.200000 0.061000 0.073000
1517203246047633323	1300 43 1.200000 0.218000 0.264000 800 40 0.900000 1.214000 1.114000 600 47 1.000000 0.052000 0.052000 1.200000 0.038000 0.045000
1517203246556122114	1300 43 1.200000 0.218000 0.264000 800 40 0.900000 1.218000 1.118000 600 48 1.000000 0.052000 0.052000 1.200000 0.037000 0.044000
1517203247064658614	1300 43 1.200000 0.213000 0.258000 800 40 0.900000 1.211000 1.111000 600 47 1.000000 0.051000 0.051000 1.200000 0.039000 0.047000
1517203247573491323	1300 44 1.200000 0.220000 0.266000 800 40 0.900000 1.216000 1.118000 600 47 1.000000 0.051000 0.051000 1.200000 0.038000 0.045000
1517203248082428073	1300 43 1.200000 0.283000 0.342000 800 40 0.900000 1.221000 1.120000 600 47 1.000000 0.051000 0.051000 1.200000 0.049000 0.059000
1517203248591266990	1300 43 1.200000 0.223000 0.270000 800 40 0.900000 1.236000 1.134000 600 48 1.000000 0.052000 0.052000 1.200000 0.041000 0.049000
1517203249100052740	1300 43 1.200000 0.209000 0.253000 800 40 0.900000 1.249000 1.149000 600 48 1.000000 0.052000 0.052000 1.200000 0.039000 0.047000
1517203249612934906	1300 43 1.200000 0.225000 0.272000 800 40 0.900000 1.247000 1.144000 600 48 1.000000 0.052000 0.052000 1.200000 0.039000 0.047000
1517203250121735698	1300 43 1.200000 0.286000 0.346000 800 40 0.900000 1.248000 1.145000 600 47 1.000000 0.051000 0.051000 1.200000 0.051000 0.061000
1517203250630430823	1300 43 1.200000 0.217000 0.263000 800 40 0.900000 1.248000 1.148000 600 48 1.000000 0.052000 0.052000 1.200000 0.040000 0.048000
1517203251139063698	1300 43 1.200000 0.226000 0.274000 800 40 0.900000 1.244000 1.141000 600 48 1.000000 0.051000 0.051000 1.200000 0.038000 0.045000
1517203251648227240	1300 43 1.200000 0.222000 0.269000 800 40 0.900000 1.249000 1.146000 600 48 1.000000 0.052000 0.052000 1.200000 0.039000 0.047000
1517203252157125157	1300 43 1.200000 0.267000 0.323000 800 40 0.900000 1.243000 1.141000 600 48 1.000000 0.051000 0.051000 1.200000 0.054000 0.065000
1517203252665838823	1300 43 1.200000 0.214000 0.259000 800 40 0.900000 1.239000 1.137000 600 48 1.000000 0.052000 0.052000 1.200000 0.043000 0.051000
1517203253174757615	1300 43 1.200000 0.222000 0.269000 800 40 0.900000 1.248000 1.148000 600 47 1.000000 0.052000 0.052000 1.200000 0.039000 0.047000
1517203253685358824	1300 43 1.200000 0.222000 0.269000 800 40 0.900000 1.248000 1.148000 600 48 1.000000 0.051000 0.051000 1.200000 0.038000 0.045000
1517203254194141532	1300 43 1.200000 0.261000 0.316000 800 40 0.900000 1.246000 1.146000 600 48 1.000000 0.052000 0.052000 1.200000 0.057000 0.069000
1517203254702771949	1300 43 1.200000 0.240000 0.290000 800 40 0.900000 1.251000 1.150000 600 48 1.000000 0.052000 0.052000 1.200000 0.040000 0.048000
1517203255211355449	1300 43 1.200000 0.221000 0.267000 800 40 0.900000 1.240000 1.138000 600 48 1.000000 0.051000 0.051000 1.200000 0.044000 0.053000
1517203255720112115	1300 43 1.200000 0.223000 0.270000 800 40 0.900000 1.248000 1.145000 600 47 1.000000 0.052000 0.052000 1.200000 0.040000 0.048000
1517203256228623157	1300 43 1.200000 0.225000 0.272000 800 40 0.900000 1.245000 1.142000 600 48 1.000000 0.052000 0.052000 1.200000 0.044000 0.053000
1517203256737345032	1300 43 1.200000 0.243000 0.294000 800 40 0.900000 1.246000 1.143000 600 48 1.000000 0.052000 0.052000 1.200000 0.040000 0.048000
1517203257246481616	1300 43 1.200000 0.224000 0.271000 800 40 0.900000 1.244000 1.141000 600 47 1.000000 0.052000 0.052000 1.200000 0.040000 0.048000
1517203257757624782	1300 43 1.200000 0.222000 0.269000 800 40 0.900000 1.245000 1.142000 600 47 1.000000 0.052000 0.052000 1.200000 0.038000 0.045000
1517203258268481949	1300 43 1.200000 0.239000 0.289000 800 40 0.900000 1.245000 1.142000 600 47 1.000000 0.052000 0.052000 1.200000 0.044000 0.053000
1517203258777750282	1300 43 1.200000 0.231000 0.280000 800 40 0.900000 1.242000 1.140000 600 47 1.000000 0.051000 0.051000 1.200000 0.038000 0.045000
1517203259286699949	1300 43 1.200000 0.221000 0.268000 800 40 0.900000 1.248000 1.145000 600 47 1.000000 0.052000 0.052000 1.200000 0.039000 0.047000
1517203259795484366	1300 43 1.200000 0.213000 0.258000 800 40 0.900000 1.234000 1.132000 600 47 1.000000 0.052000 0.052000 1.200000 0.042000 0.050000
1517203260304219616	1300 43 1.200000 0.233000 0.282000 800 40 0.900000 1.245000 1.142000 600 47 1.000000 0.052000 0.052000 1.200000 0.045000 0.054000
1517203260813061491	1300 43 1.200000 0.269000 0.325000 800 40 0.900000 1.243000 1.141000 600 47 1.000000 0.052000 0.052000 1.200000 0.046000 0.055000
1517203261322449991	1300 43 1.200000 0.220000 0.266000 800 40 0.900000 1.239000 1.137000 600 47 1.000000 0.052000 0.052000 1.200000 0.038000 0.045000
1517203261831153616	1300 43 1.200000 0.212000 0.257000 800 40 0.900000 1.243000 1.141000 600 47 1.000000 0.052000 0.052000 1.200000 0.039000 0.047000
1517203262339783575	1300 43 1.200000 0.222000 0.269000 800 40 0.900000 1.217000 1.117000 600 47 1.000000 0.052000 0.052000 1.200000 0.047000 0.056000
1517203262848444575	1300 43 1.200000 0.220000 0.266000 800 40 0.900000 1.238000 1.136000 600 47 1.000000 0.052000 0.052000 1.200000 0.047000 0.056000
1517203263357197033	1300 43 1.200000 0.223000 0.270000 800 40 0.900000 1.242000 1.140000 600 47 1.000000 0.052000 0.052000 1.200000 0.039000 0.047000
1517203263865945075	1300 43 1.200000 0.219000 0.265000 800 40 0.900000 1.230000 1.129000 600 47 1.000000 0.051000 0.051000 1.200000 0.037000 0.044000
1517203264374825075	1300 43 1.200000 0.232000 0.281000 800 40 0.900000 1.243000 1.141000 600 47 1.000000 0.052000 0.052000 1.200000 0.046000 0.055000
1517203264883379033	1300 43 1.200000 0.221000 0.267000 800 40 0.900000 1.226000 1.125000 600 47 1.000000 0.051000 0.051000 1.200000 0.041000 0.049000
1517203265392595992	1300 43 1.200000 0.211000 0.255000 800 40 0.900000 1.232000 1.130000 600 47 1.000000 0.052000 0.052000 1.200000 0.038000 0.045000
1517203265901307283	1300 43 1.200000 0.220000 0.266000 800 40 0.900000 1.231000 1.130000 600 47 1.000000 0.052000 0.052000 1.200000 0.039000 0.047000
1517203266409815658	1300 43 1.200000 0.246000 0.298000 800 40 0.900000 1.238000 1.136000 600 47 1.000000 0.052000 0.052000 1.200000 0.038000 0.045000
1517203266920206200	1300 43 1.200000 0.218000 0.264000 800 40 0.900000 1.230000 1.129000 600 47 1.000000 0.052000 0.052000 1.200000 0.043000 0.051000
1517203267429125450	1300 43 1.200000 0.265000 0.321000 800 40 0.900000 1.234000 1.132000 600 47 1.000000 0.052000 0.052000 1.200000 0.060000 0.072000
1517203267937919450	1300 43 1.200000 0.222000 0.269000 800 40 0.900000 1.238000 1.136000 600 47 1.000000 0.052000 0.052000 1.200000 0.039000 0.047000
1517203268446912742	1300 43 1.200000 0.230000 0.278000 800 40 0.900000 1.235000 1.133000 600 47 1.000000 0.052000 0.052000 1.200000 0.041000 0.049000
1517203268956225825	1300 43 1.200000 0.226000 0.274000 800 40 0.900000 1.217000 1.117000 600 47 1.000000 0.052000 0.052000 1.200000 0.043000 0.051000
1517203269467423242	1300 43 1.200000 0.227000 0.275000 800 40 0.900000 1.239000 1.137000 600 47 1.000000 0.052000 0.052000 1.200000 0.043000 0.052000
1517203269976545034	1300 43 1.200000 0.215000 0.260000 800 40 0.900000 1.232000 1.130000 600 47 1.000000 0.052000 0.052000 1.200000 0.039000 0.047000
1517203270485237784	1300 43 1.200000 0.222000 0.269000 800 40 0.900000 1.233000 1.131000 600 47 1.000000 0.052000 0.052000 1.200000 0.040000 0.048000
1517203270994024367	1300 43 1.200000 0.219000 0.265000 800 40 0.900000 1.224000 1.123000 600 47 1.000000 0.052000 0.052000 1.200000 0.041000 0.049000
1517203271502897576	1300 43 1.200000 0.234000 0.283000 800 40 0.900000 1.235000 1.133000 600 47 1.000000 0.051000 0.051000 1.200000 0.041000 0.049000
1517203272011579284	1300 43 1.200000 0.218000 0.264000 800 40 0.900000 1.215000 1.115000 600 47 1.000000 0.052000 0.052000 1.200000 0.045000 0.054000
1517203272520572201	1300 43 1.200000 0.223000 0.270000 800 40 0.900000 1.228000 1.127000 600 47 1.000000 0.052000 0.052000 1.200000 0.040000 0.048000
1517203273030144909	1300 43 1.200000 0.219000 0.265000 800 40 0.900000 1.233000 1.131000 600 47 1.000000 0.052000 0.052000 1.200000 0.040000 0.048000
1517203273542294743	1300 43 1.200000 0.219000 0.265000 800 40 0.900000 1.235000 1.133000 600 47 1.000000 0.052000 0.052000 1.200000 0.038000 0.045000
1517203274050970743	1300 43 1.200000 0.248000 0.300000 800 40 0.900000 1.226000 1.125000 600 47 1.000000 0.052000 0.052000 1.200000 0.046000 0.055000
1517203274559585743	1300 43 1.200000 0.216000 0.261000 800 40 0.900000 1.227000 1.126000 600 47 1.000000 0.052000 0.052000 1.200000 0.039000 0.047000
1517203275068357201	1300 43 1.200000 0.215000 0.260000 800 40 0.900000 1.216000 1.116000 600 47 1.000000 0.052000 0.052000 1.200000 0.040000 0.048000
1517203275578910618	1300 43 1.200000 0.218000 0.264000 800 40 0.900000 1.227000 1.126000 600 47 1.000000 0.052000 0.052000 1.200000 0.039000 0.047000
1517203276087897868	1300 43 1.200000 0.223000 0.270000 800 40 0.900000 1.210000 1.110000 600 47 1.000000 0.052000 0.052000 1.200000 0.051000 0.061000
1517203276596658701	1300 43 1.200000 0.219000 0.265000 800 40 0.900000 1.231000 1.130000 600 47 1.000000 0.052000 0.052000 1.200000 0.042000 0.050000
1517203277105868535	1300 43 1.200000 0.222000 0.269000 800 40 0.900000 1.209000 1.109000 600 47 1.000000 0.052000 0.052000 1.200000 0.045000 0.054000
1517203277614893035	1300 43 1.200000 0.221000 0.268000 800 40 0.900000 1.230000 1.129000 600 47 1.000000 0.051000 0.051000 1.200000 0.038000 0.045000
1517203278123482451	1300 43 1.200000 0.252000 0.305000 800 40 0.900000 1.231000 1.132000 600 47 1.000000 0.051000 0.051000 1.200000 0.041000 0.049000
1517203278632066410	1300 43 1.200000 0.214000 0.259000 800 40 0.900000 1.210000 1.110000 600 47 1.000000 0.052000 0.052000 1.200000 0.039000 0.047000
1517203279140832202	1300 43 1.200000 0.214000 0.259000 800 40 0.900000 1.213000 1.113000 600 47 1.000000 0.052000 0.052000 1.200000 0.045000 0.054000
1517203279649497952	1300 43 1.200000 0.217000 0.263000 800 40 0.900000 1.225000 1.124000 600 47 1.000000 0.051000 0.051000 1.200000 0.042000 0.050000
1517203280158463243	1300 43 1.200000 0.216000 0.261000 800 40 0.900000 1.210000 1.110000 600 47 1.000000 0.051000 0.051000 1.200000 0.038000 0.045000
1517203280667187702	1300 43 1.200000 0.223000 0.270000 800 40 0.900000 1.214000 1.114000 600 47 1.000000 0.052000 0.052000 1.200000 0.040000 0.048000
1517203281177748702	1300 43 1.200000 0.223000 0.270000 800 40 0.900000 1.214000 1.114000 600 47 1.000000 0.052000 0.052000 1.200000 0.041000 0.049000
1517203281686779910	1300 43 1.200000 0.211000 0.256000 800 40 0.900000 1.213000 1.113000 600 47 1.000000 0.052000 0.052000 1.200000 0.039000 0.047000
1517203282195678494	1300 43 1.200000 0.215000 0.260000 800 40 0.900000 1.213000 1.113000 600 47 1.000000 0.052000 0.052000 1.200000 0.038000 0.045000
1517203282704308160	1300 43 1.200000 0.214000 0.259000 800 40 0.900000 1.213000 1.113000 600 47 1.000000 0.051000 0.051000 1.200000 0.037000 0.044000
1517203283212970244	1300 43 1.200000 0.203000 0.246000 800 40 0.900000 1.208000 1.108000 600 47 1.000000 0.052000 0.052000 1.200000 0.039000 0.047000
1517203283721758327	1300 43 1.200000 0.219000 0.265000 800 40 0.900000 1.226000 1.125000 600 47 1.000000 0.052000 0.052000 1.200000 0.041000 0.049000
1517203284230633411	1300 43 1.200000 0.214000 0.259000 800 40 0.900000 1.208000 1.108000 600 47 1.000000 0.051000 0.051000 1.200000 0.040000 0.048000
1517203284740363119	1300 43 1.200000 0.266000 0.321000 800 40 0.900000 1.213000 1.113000 600 47 1.000000 0.051000 0.051000 1.200000 0.051000 0.061000
1517203285251742411	1300 43 1.200000 0.210000 0.254000 800 40 0.900000 1.212000 1.112000 600 47 1.000000 0.051000 0.051000 1.200000 0.044000 0.053000
1517203285760231202	1300 43 1.200000 0.214000 0.259000 800 40 0.900000 1.209000 1.109000 600 47 1.000000 0.052000 0.052000 1.200000 0.040000 0.048000
1517203286269083494	1300 43 1.200000 0.216000 0.261000 800 40 0.900000 1.206000 1.107000 600 47 1.000000 0.052000 0.052000 1.200000 0.043000 0.051000
1517203286778383786	1300 43 1.200000 0.215000 0.260000 800 40 0.900000 1.214000 1.114000 600 47 1.000000 0.052000 0.052000 1.200000 0.046000 0.055000
1517203287287233661	1300 43 1.200000 0.235000 0.285000 800 40 0.900000 1.217000 1.117000 600 47 1.000000 0.052000 0.052000 1.200000 0.046000 0.055000
1517203287796133411	1300 43 1.200000 0.216000 0.261000 800 40 0.900000 1.208000 1.108000 600 47 1.000000 0.051000 0.051000 1.200000 0.038000 0.045000
1517203288305056619	1300 43 1.200000 0.219000 0.265000 800 40 0.900000 1.219000 1.119000 600 47 1.000000 0.052000 0.052000 1.200000 0.040000 0.048000
1517203288814497369	1300 43 1.200000 0.203000 0.246000 800 40 0.900000 1.206000 1.107000 600 47 1.000000 0.051000 0.051000 1.200000 0.040000 0.048000
1517203289323201578	1300 42 1.200000 0.219000 0.265000 800 40 0.900000 1.207000 1.108000 600 47 1.000000 0.052000 0.052000 1.200000 0.038000 0.045000
1517203289831802328	1300 43 1.200000 0.213000 0.258000 800 40 0.900000 1.209000 1.109000 600 47 1.000000 0.052000 0.052000 1.200000 0.038000 0.045000
1517203290340361536	1300 43 1.200000 0.209000 0.253000 800 40 0.900000 1.212000 1.112000 600 47 1.000000 0.052000 0.052000 1.200000 0.039000 0.047000
1517203290849590161	1300 43 1.200000 0.208000 0.252000 800 40 0.900000 1.202000 1.103000 600 47 1.000000 0.052000 0.052000 1.200000 0.042000 0.050000
1517203291358548078	1300 43 1.200000 0.277000 0.335000 800 40 0.900000 1.223000 1.122000 600 47 1.000000 0.051000 0.051000 1.200000 0.067000 0.081000
1517203291867455078	1300 43 1.200000 0.212000 0.257000 800 40 0.900000 1.206000 1.107000 600 47 1.000000 0.052000 0.052000 1.200000 0.040000 0.048000
1517203292376230037	1300 43 1.200000 0.218000 0.264000 800 40 0.900000 1.209000 1.109000 600 47 1.000000 0.051000 0.051000 1.200000 0.039000 0.047000
1517203292887217370	1300 43 1.200000 0.212000 0.257000 800 40 0.900000 1.210000 1.110000 600 47 1.000000 0.052000 0.052000 1.200000 0.039000 0.047000
1517203293396098037	1300 43 1.200000 0.245000 0.296000 800 40 0.900000 1.224000 1.123000 600 47 1.000000 0.052000 0.052000 1.200000 0.070000 0.084000
1517203293904750703	1300 43 1.200000 0.219000 0.265000 800 40 0.900000 1.222000 1.121000 600 47 1.000000 0.051000 0.051000 1.200000 0.039000 0.047000
1517203294413356328	1300 43 1.200000 0.207000 0.251000 800 40 0.900000 1.216000 1.116000 600 47 1.000000 0.052000 0.052000 1.200000 0.038000 0.045000
1517203294922088328	1300 43 1.200000 0.218000 0.264000 800 40 0.900000 1.207000 1.108000 600 47 1.000000 0.052000 0.052000 1.200000 0.037000 0.044000
1517203295430980704	1300 43 1.200000 0.256000 0.310000 800 40 0.900000 1.202000 1.103000 600 47 1.000000 0.052000 0.052000 1.200000 0.066000 0.079000
1517203295939795245	1300 43 1.200000 0.203000 0.246000 800 40 0.900000 1.206000 1.107000 600 47 1.000000 0.052000 0.052000 1.200000 0.038000 0.045000
1517203296449278745	1300 43 1.200000 0.213000 0.258000 800 40 0.900000 1.209000 1.109000 600 47 1.000000 0.052000 0.052000 1.200000 0.038000 0.045000
1517203296960101454	1300 42 1.200000 0.215000 0.260000 800 40 0.900000 1.216000 1.116000 600 47 1.000000 0.052000 0.052000 1.200000 0.039000 0.047000
1517203297469004370	1300 43 1.200000 0.253000 0.306000 800 40 0.900000 1.207000 1.108000 600 47 1.000000 0.052000 0.052000 1.200000 0.055000 0.066000
1517203297977888079	1300 43 1.200000 0.226000 0.274000 800 40 0.900000 1.215000 1.115000 600 47 1.000000 0.051000 0.051000 1.200000 0.048000 0.058000
1517203298486740287	1300 43 1.200000 0.212000 0.256000 800 40 0.900000 1.205000 1.106000 600 47 1.000000 0.052000 0.052000 1.200000 0.039000 0.047000
1517203298995517621	1300 43 1.200000 0.214000 0.259000 800 40 0.900000 1.209000 1.109000 600 47 1.000000 0.052000 0.052000 1.200000 0.038000 0.045000
1517203299505117954	1300 43 1.200000 0.215000 0.260000 800 40 0.900000 1.206000 1.107000 600 47 1.000000 0.052000 0.052000 1.200000 0.046000 0.055000
1517203300014348454	1300 43 1.200000 0.248000 0.300000 800 40 0.900000 1.207000 1.108000 600 47 1.000000 0.051000 0.051000 1.200000 0.053000 0.064000
1517203300523811787	1300 43 1.200000 0.213000 0.258000 800 40 0.900000 1.209000 1.109000 600 47 1.000000 0.051000 0.051000 1.200000 0.043000 0.052000
1517203301032305121	1300 42 1.200000 0.221000 0.268000 800 40 0.900000 1.218000 1.118000 600 47 1.000000 0.052000 0.052000 1.200000 0.039000 0.047000
1517203301540836371	1300 43 1.200000 0.214000 0.259000 800 40 0.900000 1.205000 1.106000 600 47 1.000000 0.052000 0.052000 1.200000 0.042000 0.050000
1517203302049373121	1300 43 1.200000 0.259000 0.313000 800 40 0.900000 1.206000 1.107000 600 47 1.000000 0.051000 0.051000 1.200000 0.056000 0.067000
1517203302558118079	1300 43 1.200000 0.212000 0.256000 800 40 0.900000 1.209000 1.109000 600 47 1.000000 0.051000 0.051000 1.200000 0.040000 0.048000
1517203303067020413	1300 43 1.200000 0.210000 0.255000 800 40 0.900000 1.208000 1.108000 600 47 1.000000 0.052000 0.052000 1.200000 0.038000 0.045000
1517203303575916288	1300 43 1.200000 0.236000 0.286000 800 40 0.900000 1.206000 1.107000 600 47 1.000000 0.052000 0.052000 1.200000 0.045000 0.054000
1517203304084691580	1300 43 1.200000 0.262000 0.317000 800 40 0.900000 1.208000 1.108000 600 47 1.000000 0.051000 0.051000 1.200000 0.058000 0.070000
1517203304593890288	1300 43 1.200000 0.216000 0.262000 800 40 0.900000 1.206000 1.107000 600 47 1.000000 0.052000 0.052000 1.200000 0.039000 0.047000
1517203305102992455	1300 43 1.200000 0.212000 0.257000 800 40 0.900000 1.210000 1.110000 600 47 1.000000 0.052000 0.052000 1.200000 0.041000 0.049000
1517203305611603330	1300 43 1.200000 0.216000 0.262000 800 40 0.900000 1.206000 1.107000 600 47 1.000000 0.051000 0.051000 1.200000 0.040000 0.048000
1517203306121683246	1300 43 1.200000 0.226000 0.274000 800 40 0.900000 1.211000 1.111000 600 47 1.000000 0.051000 0.051000 1.200000 0.044000 0.053000
1517203306630941038	1300 43 1.200000 0.264000 0.319000 800 40 0.900000 1.205000 1.106000 600 47 1.000000 0.051000 0.051000 1.200000 0.053000 0.064000
1517203307139737413	1300 43 1.200000 0.209000 0.253000 800 40 0.900000 1.208000 1.108000 600 47 1.000000 0.051000 0.051000 1.200000 0.039000 0.047000
1517203307648675538	1300 43 1.200000 0.214000 0.259000 800 40 0.900000 1.203000 1.104000 600 47 1.000000 0.051000 0.051000 1.200000 0.041000 0.049000
1517203308157760163	1300 43 1.200000 0.217000 0.263000 800 40 0.900000 1.207000 1.108000 600 47 1.000000 0.051000 0.051000 1.200000 0.040000 0.048000
1517203308669041080	1300 43 1.200000 0.254000 0.308000 800 40 0.900000 1.207000 1.108000 600 47 1.000000 0.051000 0.051000 1.200000 0.051000 0.061000
1517203309178141247	1300 43 1.200000 0.213000 0.258000 800 40 0.900000 1.207000 1.108000 600 47 1.000000 0.051000 0.051000 1.200000 0.039000 0.047000
1517203309686767664	1300 43 1.200000 0.224000 0.271000 800 40 0.900000 1.209000 1.109000 600 47 1.000000 0.052000 0.052000 1.200000 0.039000 0.047000
1517203310195481372	1300 43 1.200000 0.210000 0.254000 800 40 0.900000 1.206000 1.107000 600 47 1.000000 0.052000 0.052000 1.200000 0.044000 0.053000
1517203310704326080	1300 43 1.200000 0.257000 0.311000 800 40 0.900000 1.210000 1.110000 600 47 1.000000 0.051000 0.051000 1.200000 0.045000 0.054000
1517203311213142997	1300 43 1.200000 0.213000 0.258000 800 40 0.900000 1.207000 1.108000 600 47 1.000000 0.051000 0.051000 1.200000 0.039000 0.047000
1517203311721904039	1300 43 1.200000 0.216000 0.262000 800 40 0.900000 1.209000 1.109000 600 47 1.000000 0.051000 0.051000 1.200000 0.039000 0.047000
1517203312231583956	1300 43 1.200000 0.234000 0.283000 800 40 0.900000 1.211000 1.111000 600 47 1.000000 0.052000 0.052000 1.200000 0.044000 0.053000
1517203312741421122	1300 43 1.200000 0.212000 0.257000 800 40 0.900000 1.207000 1.108000 600 47 1.000000 0.051000 0.051000 1.200000 0.042000 0.050000
1517203313250046331	1300 43 1.200000 0.251000 0.304000 800 40 0.900000 1.206000 1.107000 600 47 1.000000 0.052000 0.052000 1.200000 0.062000 0.075000
1517203313758771206	1300 43 1.200000 0.214000 0.259000 800 40 0.900000 1.209000 1.109000 600 47 1.000000 0.052000 0.052000 1.200000 0.039000 0.047000
1517203314267507497	1300 43 1.200000 0.215000 0.260000 800 40 0.900000 1.207000 1.108000 600 47 1.000000 0.051000 0.051000 1.200000 0.043000 0.052000
1517203314776903289	1300 43 1.200000 0.213000 0.258000 800 40 0.900000 1.201000 1.102000 600 47 1.000000 0.052000 0.052000 1.200000 0.043000 0.051000
1517203315285916206	1300 43 1.200000 0.242000 0.293000 800 40 0.900000 1.209000 1.109000 600 47 1.000000 0.052000 0.052000 1.200000 0.061000 0.073000
1517203315794827623	1300 43 1.200000 0.210000 0.255000 800 40 0.900000 1.206000 1.107000 600 47 1.000000 0.052000 0.052000 1.200000 0.038000 0.045000
1517203316304243331	1300 43 1.200000 0.213000 0.258000 800 40 0.900000 1.206000 1.107000 600 47 1.000000 0.052000 0.052000 1.200000 0.044000 0.053000
1517203316813083998	1300 43 1.200000 0.212000 0.257000 800 40 0.900000 1.213000 1.113000 600 47 1.000000 0.052000 0.052000 1.200000 0.039000 0.047000
1517203317321724914	1300 43 1.200000 0.241000 0.292000 800 40 0.900000 1.206000 1.107000 600 47 1.000000 0.052000 0.052000 1.200000 0.064000 0.077000
1517203317830342373	1300 43 1.200000 0.207000 0.251000 800 40 0.900000 1.207000 1.108000 600 47 1.000000 0.051000 0.051000 1.200000 0.041000 0.049000
1517203318339046623	1300 43 1.200000 0.221000 0.268000 800 40 0.900000 1.209000 1.109000 600 47 1.000000 0.052000 0.052000 1.200000 0.038000 0.045000
1517203318847782248	1300 43 1.200000 0.212000 0.257000 800 40 0.900000 1.207000 1.108000 600 47 1.000000 0.052000 0.052000 1.200000 0.037000 0.044000
1517203319356505748	1300 43 1.200000 0.214000 0.259000 800 40 0.900000 1.196000 1.097000 600 47 1.000000 0.052000 0.052000 1.200000 0.059000 0.071000
1517203319865466956	1300 43 1.200000 0.220000 0.266000 800 40 0.900000 1.205000 1.106000 600 47 1.000000 0.052000 0.052000 1.200000 0.047000 0.056000
1517203320374115582	1300 42 1.200000 0.238000 0.288000 800 40 0.900000 1.206000 1.107000 600 46 1.000000 0.051000 0.051000 1.200000 0.047000 0.056000
1517203320882289790	1300 39 1.200000 0.124000 0.151000 800 38 0.900000 0.467000 0.431000 600 43 1.000000 0.052000 0.052000 1.200000 0.030000 0.036000
