#Timestamp	CPU(0) Frequency(MHz)	CPU(0) Temperature(C)	A7 Voltage(V)	A7 Current(A)	A7 Power(W)	CPU(4) Frequency(MHz)	CPU(4) Temperature(C)	A15 Voltage(V)	A15 Current(A)	A15 Power(W)	GPU Frequency(MHz)	GPU Temperature(C)	GPU Voltage(V)	GPU Current(A)	GPU Power(W)	RAM Voltage(V)	RAM Current(A)	RAM Power(W)
1559729573946635781	200 66 0.900000 0.038000 0.035000 2000 55 1.200000 1.714000 2.096000 600 61 1.000000 0.055000 0.055000 1.200000 0.066000 0.079000
1559729574454656156	200 69 0.900000 0.020000 0.018000 2000 56 1.300000 1.811000 2.399000 600 61 1.000000 0.055000 0.055000 1.200000 0.063000 0.076000
1559729574962748864	200 70 0.900000 0.017000 0.015000 2000 56 1.300000 1.825000 2.418000 600 61 1.000000 0.055000 0.055000 1.200000 0.031000 0.037000
1559729575471284822	200 70 0.900000 0.020000 0.018000 2000 56 1.300000 1.799000 2.383000 600 60 1.000000 0.055000 0.055000 1.200000 0.031000 0.037000
1559729575978815156	300 70 0.900000 0.025000 0.023000 2000 56 1.300000 2.355000 3.127000 600 61 1.000000 0.055000 0.055000 1.200000 0.038000 0.045000
1559729576487282489	200 70 0.900000 0.020000 0.018000 2000 56 1.300000 1.779000 2.357000 600 60 1.000000 0.055000 0.055000 1.200000 0.031000 0.037000
1559729576995679531	200 70 0.900000 0.017000 0.015000 2000 56 1.300000 1.779000 2.357000 600 60 1.000000 0.055000 0.055000 1.200000 0.030000 0.036000
1559729577503976823	200 69 0.900000 0.017000 0.015000 2000 56 1.300000 1.775000 2.351000 600 60 1.000000 0.055000 0.055000 1.200000 0.031000 0.037000
1559729578012297489	200 70 0.900000 0.022000 0.020000 2000 56 1.300000 2.256000 2.993000 600 61 1.000000 0.055000 0.055000 1.200000 0.038000 0.045000
1559729578520583906	200 69 0.900000 0.018000 0.016000 2000 56 1.300000 1.770000 2.345000 600 60 1.000000 0.055000 0.055000 1.200000 0.031000 0.037000
1559729579029511531	200 69 0.900000 0.017000 0.015000 2000 55 1.300000 1.781000 2.359000 600 59 1.000000 0.055000 0.055000 1.200000 0.032000 0.038000
1559729579537773740	600 69 0.900000 0.022000 0.020000 2000 55 1.300000 1.813000 2.402000 600 59 1.000000 0.055000 0.055000 1.200000 0.032000 0.038000
1559729580045616323	300 69 0.900000 0.028000 0.026000 2000 55 1.300000 1.955000 2.592000 600 61 1.000000 0.054000 0.054000 1.200000 0.036000 0.043000
1559729580553944823	200 69 0.900000 0.020000 0.018000 2000 55 1.300000 1.797000 2.381000 600 59 1.000000 0.055000 0.055000 1.200000 0.030000 0.036000
1559729581062140490	200 69 0.900000 0.016000 0.014000 2000 55 1.300000 1.805000 2.391000 600 59 1.000000 0.055000 0.055000 1.200000 0.032000 0.038000
1559729581570477532	200 68 0.900000 0.020000 0.018000 2000 55 1.300000 1.776000 2.353000 600 59 1.000000 0.054000 0.054000 1.200000 0.030000 0.036000
1559729582080075615	200 68 0.900000 0.021000 0.019000 2000 55 1.300000 1.922000 2.548000 600 62 1.000000 0.055000 0.055000 1.200000 0.032000 0.038000
1559729582587864407	300 69 0.900000 0.019000 0.017000 2000 55 1.300000 1.771000 2.346000 600 59 1.000000 0.054000 0.054000 1.200000 0.031000 0.037000
1559729583095956990	200 68 0.900000 0.018000 0.016000 2000 55 1.300000 1.764000 2.337000 600 59 1.000000 0.054000 0.054000 1.200000 0.031000 0.037000
1559729583604202448	200 68 0.900000 0.018000 0.016000 2000 54 1.300000 1.764000 2.337000 600 58 1.000000 0.054000 0.054000 1.200000 0.032000 0.038000
1559729584113233615	200 68 0.900000 0.020000 0.018000 2000 54 1.300000 1.768000 2.342000 600 59 1.000000 0.054000 0.054000 1.200000 0.031000 0.037000
1559729584621373115	200 68 0.900000 0.023000 0.021000 2000 54 1.300000 1.777000 2.354000 600 59 1.000000 0.054000 0.054000 1.200000 0.031000 0.037000
1559729585128473157	200 68 0.900000 0.016000 0.014000 2000 54 1.300000 1.762000 2.334000 600 58 1.000000 0.054000 0.054000 1.200000 0.032000 0.038000
1559729585636849449	200 68 0.900000 0.016000 0.014000 2000 54 1.300000 1.759000 2.330000 600 58 1.000000 0.054000 0.054000 1.200000 0.031000 0.037000
1559729586145334782	200 68 0.900000 0.020000 0.018000 2000 54 1.300000 1.951000 2.587000 600 58 1.000000 0.054000 0.054000 1.200000 0.032000 0.038000
1559729586653610782	200 68 0.900000 0.022000 0.020000 2000 54 1.300000 2.220000 2.945000 600 58 1.000000 0.054000 0.054000 1.200000 0.032000 0.038000
1559729587160556699	300 67 0.900000 0.016000 0.014000 2000 54 1.300000 1.808000 2.395000 600 58 1.000000 0.054000 0.054000 1.200000 0.031000 0.037000
1559729587667168949	300 67 0.900000 0.018000 0.016000 2000 54 1.300000 1.766000 2.339000 600 58 1.000000 0.054000 0.054000 1.200000 0.032000 0.038000
1559729588175242532	200 67 0.900000 0.019000 0.017000 2000 54 1.300000 1.916000 2.540000 600 58 1.000000 0.054000 0.054000 1.200000 0.033000 0.039000
1559729588682143324	300 68 0.900000 0.021000 0.019000 2000 54 1.300000 2.231000 2.960000 600 59 1.000000 0.054000 0.054000 1.200000 0.033000 0.039000
1559729589190189657	200 67 0.900000 0.019000 0.017000 2000 54 1.300000 1.760000 2.332000 600 58 1.000000 0.054000 0.054000 1.200000 0.033000 0.039000
1559729589698537616	200 67 0.900000 0.016000 0.014000 2000 54 1.300000 1.744000 2.310000 600 57 1.000000 0.054000 0.054000 1.200000 0.032000 0.038000
1559729590206670199	200 67 0.900000 0.020000 0.018000 2000 54 1.300000 1.756000 2.326000 600 58 1.000000 0.054000 0.054000 1.200000 0.035000 0.042000
1559729590714873991	200 68 0.900000 0.016000 0.014000 2000 53 1.300000 2.248000 2.978000 600 59 1.000000 0.054000 0.054000 1.200000 0.032000 0.038000
1559729591222449158	200 67 0.900000 0.019000 0.017000 2000 54 1.300000 1.783000 2.364000 600 58 1.000000 0.054000 0.054000 1.200000 0.033000 0.039000
1559729591730563824	200 67 0.900000 0.017000 0.015000 2000 53 1.300000 1.793000 2.375000 600 57 1.000000 0.053000 0.053000 1.200000 0.031000 0.037000
1559729592238870824	200 67 0.900000 0.020000 0.018000 2000 53 1.300000 1.918000 2.543000 600 57 1.000000 0.054000 0.054000 1.200000 0.036000 0.043000
1559729592754040616	300 66 0.900000 0.016000 0.014000 2000 53 1.300000 1.748000 2.316000 600 61 1.000000 0.054000 0.054000 1.200000 0.031000 0.037000
1559729593264793283	200 67 0.900000 0.025000 0.023000 2000 53 1.300000 2.220000 2.945000 600 57 1.000000 0.054000 0.054000 1.200000 0.040000 0.048000
1559729593772474700	300 67 0.900000 0.015000 0.013000 2000 53 1.300000 1.780000 2.358000 600 57 1.000000 0.054000 0.054000 1.200000 0.031000 0.037000
1559729594280833325	200 67 0.900000 0.020000 0.018000 2000 53 1.300000 1.749000 2.317000 600 57 1.000000 0.054000 0.054000 1.200000 0.031000 0.037000
1559729594789590158	300 66 0.900000 0.015000 0.013000 2000 53 1.300000 1.807000 2.394000 600 59 1.000000 0.053000 0.053000 1.200000 0.032000 0.038000
1559729595298146992	200 67 0.900000 0.022000 0.020000 2000 53 1.300000 2.236000 2.967000 600 57 1.000000 0.054000 0.054000 1.200000 0.037000 0.044000
1559729595804955825	300 66 0.900000 0.015000 0.013000 2000 53 1.300000 1.770000 2.345000 600 57 1.000000 0.054000 0.054000 1.200000 0.032000 0.038000
1559729596313347075	200 67 0.900000 0.021000 0.019000 2000 53 1.300000 1.930000 2.559000 600 57 1.000000 0.054000 0.054000 1.200000 0.036000 0.043000
1559729596821850158	200 66 0.900000 0.016000 0.014000 2000 53 1.300000 1.773000 2.349000 600 57 1.000000 0.054000 0.054000 1.200000 0.032000 0.038000
1559729597328702658	300 67 0.900000 0.023000 0.021000 2000 53 1.300000 2.250000 2.985000 600 57 1.000000 0.053000 0.053000 1.200000 0.038000 0.045000
1559729597836939992	200 66 0.900000 0.017000 0.015000 2000 53 1.300000 1.757000 2.328000 600 57 1.000000 0.054000 0.054000 1.200000 0.032000 0.038000
1559729598345406325	200 61 0.900000 0.020000 0.018000 2000 53 1.300000 1.971000 2.613000 600 57 1.000000 0.053000 0.053000 1.200000 0.036000 0.043000
1559729598901229659	1500 67 0.900000 0.065000 0.062000 2000 54 1.300000 1.601000 2.118000 600 69 1.000000 0.054000 0.054000 1.200000 0.108000 0.131000
1559729599457240784	1500 73 1.200000 0.623000 0.804000 2000 57 1.300000 4.902000 6.573000 600 78 1.000000 0.054000 0.054000 1.200000 0.128000 0.155000
1559729600021226034	1500 76 1.200000 0.630000 0.813000 2000 60 1.300000 4.945000 6.631000 600 82 1.000000 0.055000 0.055000 1.200000 0.128000 0.155000
1559729600581269242	1500 79 1.200000 0.635000 0.819000 2000 62 1.300000 5.023000 6.740000 600 85 1.000000 0.055000 0.055000 1.200000 0.128000 0.155000
1559729601153358659	1500 80 1.200000 0.638000 0.823000 1800 64 1.300000 5.165000 6.931000 600 87 1.000000 0.056000 0.056000 1.200000 0.128000 0.155000
1559729601717418784	1500 78 1.200000 0.637000 0.822000 1800 64 1.200000 4.247000 5.270000 600 84 1.000000 0.056000 0.056000 1.200000 0.126000 0.152000
1559729602289398201	1500 77 1.200000 0.635000 0.819000 1800 64 1.200000 4.031000 4.942000 600 83 1.000000 0.057000 0.057000 1.200000 0.126000 0.152000
1559729602841332284	1500 78 1.200000 0.636000 0.821000 1800 65 1.200000 4.378000 5.542000 600 83 1.000000 0.057000 0.057000 1.200000 0.128000 0.155000
1559729603397288117	1500 78 1.200000 0.637000 0.822000 1900 65 1.200000 4.437000 5.603000 600 84 1.000000 0.057000 0.057000 1.200000 0.126000 0.152000
1559729603953356409	1500 77 1.200000 0.636000 0.821000 1700 65 1.200000 4.404000 5.549000 600 83 1.000000 0.057000 0.057000 1.200000 0.126000 0.152000
1559729604521358451	1500 78 1.200000 0.635000 0.819000 1800 65 1.200000 4.036000 4.931000 600 83 1.000000 0.057000 0.057000 1.200000 0.125000 0.151000
1559729605085356076	1500 78 1.200000 0.635000 0.820000 1800 65 1.200000 4.033000 4.932000 600 83 1.000000 0.057000 0.057000 1.200000 0.125000 0.151000
1559729605645530618	1500 78 1.200000 0.635000 0.819000 1800 65 1.200000 3.944000 4.819000 600 83 1.000000 0.057000 0.057000 1.200000 0.127000 0.153000
1559729606205417534	1500 78 1.200000 0.633000 0.817000 1800 66 1.200000 3.951000 4.828000 600 83 1.000000 0.057000 0.057000 1.200000 0.127000 0.153000
1559729606769352701	1500 78 1.200000 0.636000 0.821000 1800 66 1.200000 4.027000 4.925000 600 83 1.000000 0.057000 0.057000 1.200000 0.126000 0.152000
1559729607329337660	1500 79 1.200000 0.637000 0.822000 1800 66 1.200000 4.052000 4.955000 600 84 1.000000 0.057000 0.057000 1.200000 0.125000 0.151000
1559729607893291701	1500 79 1.200000 0.637000 0.822000 1800 66 1.200000 4.047000 4.945000 600 84 1.000000 0.057000 0.057000 1.200000 0.124000 0.150000
1559729608445345910	1500 79 1.200000 0.637000 0.822000 1800 66 1.200000 3.984000 4.868000 600 84 1.000000 0.057000 0.057000 1.200000 0.127000 0.153000
1559729609013327618	1500 79 1.200000 0.638000 0.823000 1800 66 1.200000 3.960000 4.839000 600 84 1.000000 0.057000 0.057000 1.200000 0.127000 0.153000
1559729609561426202	1500 79 1.200000 0.638000 0.823000 1800 66 1.200000 4.040000 4.940000 600 84 1.000000 0.057000 0.057000 1.200000 0.125000 0.151000
1559729610113280827	1500 78 1.200000 0.637000 0.822000 1700 66 1.200000 4.039000 4.939000 600 83 1.000000 0.057000 0.057000 1.200000 0.126000 0.152000
1559729610657346368	1500 79 1.200000 0.638000 0.824000 1800 66 1.200000 3.938000 4.784000 600 84 1.000000 0.057000 0.057000 1.200000 0.125000 0.151000
1559729611225300577	1500 79 1.200000 0.637000 0.822000 1800 67 1.200000 3.937000 4.811000 600 84 1.000000 0.057000 0.057000 1.200000 0.129000 0.156000
1559729611789364868	1500 79 1.200000 0.637000 0.822000 1800 67 1.200000 3.919000 4.789000 600 84 1.000000 0.057000 0.057000 1.200000 0.128000 0.155000
1559729612349355910	1500 78 1.200000 0.639000 0.824000 1700 67 1.200000 3.931000 4.748000 600 83 1.000000 0.058000 0.058000 1.200000 0.125000 0.151000
1559729612901377077	1500 79 1.200000 0.637000 0.822000 1700 67 1.200000 4.057000 4.961000 600 84 1.000000 0.057000 0.057000 1.200000 0.126000 0.152000
1559729613465416744	1500 79 1.200000 0.637000 0.822000 1800 67 1.200000 3.834000 4.612000 600 84 1.000000 0.057000 0.057000 1.200000 0.126000 0.152000
1559729614025268327	1500 79 1.200000 0.636000 0.821000 1800 67 1.200000 3.806000 4.567000 600 84 1.000000 0.058000 0.058000 1.200000 0.127000 0.153000
1559729614577322410	1500 80 1.200000 0.634000 0.818000 1800 67 1.200000 3.952000 4.833000 600 84 1.000000 0.057000 0.057000 1.200000 0.127000 0.153000
1559729615137633702	1500 79 1.200000 0.633000 0.817000 1800 67 1.100000 3.814000 4.550000 600 84 1.000000 0.058000 0.058000 1.200000 0.126000 0.152000
1559729615693390661	1500 79 1.200000 0.632000 0.815000 1700 67 1.200000 4.010000 4.900000 600 83 1.000000 0.058000 0.058000 1.200000 0.126000 0.152000
1559729616253448536	1500 79 1.200000 0.632000 0.815000 1700 67 1.200000 3.968000 4.829000 600 84 1.000000 0.058000 0.058000 1.200000 0.126000 0.152000
1559729616817488911	1500 79 1.200000 0.632000 0.815000 1700 67 1.200000 3.886000 4.694000 600 84 1.000000 0.058000 0.058000 1.200000 0.126000 0.152000
1559729617377273661	1500 79 1.200000 0.631000 0.814000 1800 67 1.200000 3.945000 4.820000 600 84 1.000000 0.058000 0.058000 1.200000 0.128000 0.155000
1559729617945388911	1500 79 1.200000 0.631000 0.814000 1800 67 1.100000 3.802000 4.531000 600 84 1.000000 0.058000 0.058000 1.200000 0.126000 0.152000
1559729618501324203	1500 79 1.200000 0.632000 0.815000 1800 67 1.100000 3.771000 4.479000 600 84 1.000000 0.058000 0.058000 1.200000 0.125000 0.151000
1559729619065373536	1500 79 1.200000 0.631000 0.814000 1700 67 1.200000 3.974000 4.816000 600 84 1.000000 0.058000 0.058000 1.200000 0.126000 0.152000
1559729619632633911	1500 79 1.200000 0.631000 0.814000 1800 67 1.200000 3.950000 4.783000 600 84 1.000000 0.057000 0.057000 1.200000 0.126000 0.152000
1559729620193313953	1500 79 1.200000 0.631000 0.814000 1700 67 1.200000 3.969000 4.850000 600 84 1.000000 0.058000 0.058000 1.200000 0.128000 0.155000
1559729620761460286	1500 79 1.200000 0.631000 0.814000 1700 67 1.200000 3.814000 4.580000 600 84 1.000000 0.058000 0.058000 1.200000 0.127000 0.153000
1559729621325355745	1500 79 1.200000 0.631000 0.814000 1700 67 1.200000 3.866000 4.643000 600 84 1.000000 0.058000 0.058000 1.200000 0.126000 0.152000
1559729621885156453	1500 79 1.200000 0.630000 0.813000 1700 67 1.100000 3.738000 4.474000 600 84 1.000000 0.058000 0.058000 1.200000 0.127000 0.154000
1559729622395778245	300 68 1.200000 0.631000 0.815000 1200 64 1.100000 2.109000 2.332000 600 74 1.000000 0.058000 0.058000 1.200000 0.126000 0.152000
1559729622917926911	200 61 0.900000 0.025000 0.022000 200 60 0.900000 0.098000 0.089000 600 66 1.000000 0.057000 0.057000 1.200000 0.033000 0.039000
