#Timestamp	CPU(0) Frequency(MHz)	CPU(0) Temperature(C)	A7 Voltage(V)	A7 Current(A)	A7 Power(W)	CPU(4) Frequency(MHz)	CPU(4) Temperature(C)	A15 Voltage(V)	A15 Current(A)	A15 Power(W)	GPU Frequency(MHz)	GPU Temperature(C)	GPU Voltage(V)	GPU Current(A)	GPU Power(W)	RAM Voltage(V)	RAM Current(A)	RAM Power(W)
1553831210493963820	1000 43 1.100000 0.056000 0.061000 1600 39 1.100000 0.859000 0.973000 600 44 1.000000 0.052000 0.052000 1.200000 0.074000 0.089000
1553831211001379111	1000 44 1.100000 0.064000 0.070000 1600 39 1.100000 0.929000 1.052000 600 45 1.000000 0.053000 0.053000 1.200000 0.088000 0.106000
1553831211509199653	1000 43 1.100000 0.063000 0.069000 1600 40 1.100000 1.170000 1.325000 600 45 1.000000 0.053000 0.053000 1.200000 0.081000 0.098000
1553831212016957611	1000 43 1.100000 0.063000 0.069000 1600 40 1.100000 0.928000 1.051000 600 45 1.000000 0.053000 0.053000 1.200000 0.078000 0.094000
1553831212522404112	1000 48 1.100000 0.060000 0.066000 1600 41 1.100000 0.832000 0.944000 600 45 1.000000 0.053000 0.053000 1.200000 0.086000 0.104000
1553831213027531362	1000 49 1.100000 0.049000 0.053000 1600 41 1.100000 1.411000 1.598000 600 46 1.000000 0.053000 0.053000 1.200000 0.051000 0.061000
1553831213532764695	1000 49 1.100000 0.050000 0.055000 1600 41 1.100000 1.525000 1.730000 600 46 1.000000 0.053000 0.053000 1.200000 0.054000 0.065000
1553831214038062070	1000 49 1.100000 0.048000 0.052000 1600 42 1.100000 1.350000 1.529000 600 46 1.000000 0.053000 0.053000 1.200000 0.049000 0.059000
1553831214543410903	1000 49 1.100000 0.049000 0.053000 1600 42 1.100000 1.369000 1.551000 600 46 1.000000 0.053000 0.053000 1.200000 0.049000 0.059000
1553831215048973320	1000 49 1.100000 0.048000 0.052000 1600 42 1.100000 1.353000 1.532000 600 47 1.000000 0.053000 0.053000 1.200000 0.051000 0.061000
1553831215554899695	1000 49 1.100000 0.058000 0.063000 1600 42 1.100000 1.567000 1.778000 600 47 1.000000 0.053000 0.053000 1.200000 0.053000 0.064000
1553831216060296612	1000 46 1.000000 0.143000 0.156000 1600 42 1.100000 1.604000 1.820000 600 48 1.000000 0.053000 0.053000 1.200000 0.078000 0.094000
1553831216565529029	1000 46 1.000000 0.203000 0.221000 1600 42 1.100000 1.549000 1.758000 600 47 1.000000 0.053000 0.053000 1.200000 0.048000 0.057000
1553831217071867529	1000 47 1.000000 0.200000 0.218000 1600 42 1.100000 1.033000 1.172000 600 47 1.000000 0.053000 0.053000 1.200000 0.048000 0.057000
1553831217577398737	1000 45 1.000000 0.234000 0.255000 1600 42 1.100000 1.153000 1.309000 600 47 1.000000 0.053000 0.053000 1.200000 0.048000 0.058000
1553831218082488696	1000 46 1.000000 0.244000 0.265000 1600 42 1.100000 1.039000 1.177000 600 47 1.000000 0.053000 0.053000 1.200000 0.053000 0.064000
1553831218587606529	1000 45 1.000000 0.301000 0.326000 1600 42 1.100000 0.867000 0.984000 600 46 1.000000 0.053000 0.053000 1.200000 0.053000 0.064000
1553831219092944404	1000 46 1.000000 0.320000 0.347000 1600 41 1.100000 0.818000 0.929000 600 46 1.000000 0.053000 0.053000 1.200000 0.051000 0.061000
1553831219598243779	1000 44 1.000000 0.283000 0.307000 1600 41 1.100000 1.446000 1.641000 600 46 1.000000 0.053000 0.053000 1.200000 0.057000 0.068000
1553831220105587904	1000 48 1.000000 0.272000 0.295000 1600 42 1.100000 0.813000 0.921000 600 47 1.000000 0.053000 0.053000 1.200000 0.052000 0.062000
1553831220612023363	1000 51 1.000000 0.282000 0.306000 1600 43 1.100000 2.171000 2.468000 600 49 1.000000 0.053000 0.053000 1.200000 0.081000 0.098000
1553831221118033821	1000 49 1.000000 0.274000 0.297000 1600 43 1.100000 2.094000 2.380000 600 49 1.000000 0.053000 0.053000 1.200000 0.075000 0.090000
1553831221624809779	1000 51 1.000000 0.307000 0.333000 1600 43 1.100000 1.860000 2.112000 600 50 1.000000 0.053000 0.053000 1.200000 0.069000 0.083000
1553831222131792904	1000 53 1.000000 0.309000 0.335000 1600 44 1.100000 2.210000 2.512000 600 51 1.000000 0.053000 0.053000 1.200000 0.094000 0.113000
1553831222639124029	1000 55 1.000000 0.256000 0.278000 1600 45 1.100000 2.193000 2.493000 600 51 1.000000 0.053000 0.053000 1.200000 0.098000 0.118000
1553831223145102154	1000 54 1.000000 0.213000 0.232000 1600 45 1.100000 2.117000 2.407000 600 51 1.000000 0.053000 0.053000 1.200000 0.088000 0.106000
1553831223650504071	1000 54 1.000000 0.305000 0.331000 1600 45 1.100000 1.952000 2.217000 600 51 1.000000 0.053000 0.053000 1.200000 0.071000 0.085000
1553831224155882780	1000 51 1.000000 0.296000 0.321000 1600 45 1.100000 1.804000 2.049000 600 50 1.000000 0.053000 0.053000 1.200000 0.081000 0.098000
1553831224662629071	1000 51 1.000000 0.288000 0.313000 1600 44 1.100000 1.495000 1.693000 600 50 1.000000 0.053000 0.053000 1.200000 0.079000 0.095000
1553831225168415196	1000 49 1.000000 0.253000 0.275000 1600 45 1.100000 1.972000 2.242000 600 50 1.000000 0.053000 0.053000 1.200000 0.088000 0.106000
1553831225673713321	1000 51 1.000000 0.285000 0.309000 1600 45 1.100000 1.710000 1.940000 600 52 1.000000 0.053000 0.053000 1.200000 0.069000 0.083000
1553831226179322322	1000 53 1.000000 0.307000 0.333000 1600 45 1.100000 1.122000 1.270000 600 50 1.000000 0.053000 0.053000 1.200000 0.083000 0.100000
1553831226685149822	1000 50 1.000000 0.279000 0.303000 1600 45 1.100000 2.264000 2.574000 600 49 1.000000 0.053000 0.053000 1.200000 0.096000 0.116000
1553831227190674613	1000 46 1.000000 0.303000 0.329000 1600 44 1.100000 0.653000 0.739000 600 48 1.000000 0.053000 0.053000 1.200000 0.058000 0.070000
1553831227696025988	1000 45 1.000000 0.219000 0.238000 1600 43 1.100000 0.637000 0.722000 600 49 1.000000 0.053000 0.053000 1.200000 0.051000 0.061000
1553831228201017780	1000 45 1.000000 0.255000 0.277000 1600 42 1.100000 0.637000 0.722000 600 47 1.000000 0.053000 0.053000 1.200000 0.055000 0.066000
1553831228708296072	1000 44 1.000000 0.261000 0.283000 1600 42 1.100000 0.600000 0.681000 600 46 1.000000 0.053000 0.053000 1.200000 0.050000 0.060000
1553831229217387905	1000 45 1.000000 0.255000 0.277000 1600 41 1.100000 0.661000 0.750000 600 46 1.000000 0.053000 0.053000 1.200000 0.049000 0.059000
1553831229725343655	1000 48 1.000000 0.274000 0.297000 1600 42 1.100000 0.845000 0.957000 600 47 1.000000 0.053000 0.053000 1.200000 0.056000 0.067000
1553831230231719072	1000 47 1.000000 0.272000 0.295000 1600 43 1.100000 2.048000 2.328000 600 49 1.000000 0.053000 0.053000 1.200000 0.097000 0.117000
1553831230736934447	1000 48 1.000000 0.286000 0.310000 1600 43 1.100000 1.565000 1.776000 600 49 1.000000 0.053000 0.053000 1.200000 0.074000 0.089000
1553831231243093697	1000 53 1.000000 0.294000 0.319000 1600 44 1.100000 1.713000 1.944000 600 50 1.000000 0.053000 0.053000 1.200000 0.071000 0.085000
1553831231749237031	1000 54 1.000000 0.308000 0.334000 1600 45 1.100000 2.223000 2.527000 600 51 1.000000 0.053000 0.053000 1.200000 0.085000 0.102000
1553831232255246739	1000 55 1.000000 0.309000 0.335000 1600 45 1.100000 2.267000 2.579000 600 51 1.000000 0.053000 0.053000 1.200000 0.081000 0.098000
1553831232761392614	1000 54 1.000000 0.299000 0.324000 1600 46 1.100000 1.851000 2.102000 600 51 1.000000 0.053000 0.053000 1.200000 0.075000 0.090000
1553831233267155947	1000 55 1.000000 0.284000 0.308000 1600 46 1.100000 2.233000 2.538000 600 51 1.000000 0.053000 0.053000 1.200000 0.093000 0.112000
1553831233773542614	1000 55 1.000000 0.308000 0.334000 1600 46 1.100000 1.670000 1.895000 600 51 1.000000 0.053000 0.053000 1.200000 0.085000 0.102000
1553831234279668322	1000 55 1.000000 0.314000 0.340000 1600 46 1.100000 2.325000 2.645000 600 52 1.000000 0.053000 0.053000 1.200000 0.080000 0.096000
1553831234785517573	1000 56 1.000000 0.290000 0.314000 1600 47 1.100000 2.184000 2.483000 600 52 1.000000 0.053000 0.053000 1.200000 0.076000 0.091000
1553831235293422573	1000 54 1.000000 0.304000 0.329000 1600 47 1.100000 1.845000 2.095000 600 52 1.000000 0.054000 0.054000 1.200000 0.072000 0.087000
1553831235799986823	1000 56 1.000000 0.313000 0.339000 1600 47 1.100000 2.301000 2.618000 600 53 1.000000 0.054000 0.054000 1.200000 0.085000 0.102000
1553831236306084489	1000 53 1.000000 0.261000 0.283000 1600 46 1.100000 2.231000 2.536000 600 54 1.000000 0.054000 0.054000 1.200000 0.093000 0.112000
1553831236811667364	1000 51 1.000000 0.270000 0.293000 1600 46 1.100000 1.888000 2.142000 600 50 1.000000 0.053000 0.053000 1.200000 0.072000 0.087000
1553831237320461073	1000 50 1.000000 0.313000 0.339000 1600 45 1.100000 0.805000 0.910000 600 49 1.000000 0.053000 0.053000 1.200000 0.061000 0.073000
1553831237826832198	1000 55 1.000000 0.299000 0.324000 1600 46 1.100000 2.185000 2.484000 600 51 1.000000 0.053000 0.053000 1.200000 0.082000 0.099000
1553831238332786281	1000 52 1.000000 0.260000 0.282000 1600 45 1.100000 1.718000 1.951000 600 52 1.000000 0.053000 0.053000 1.200000 0.072000 0.087000
1553831238838755573	1000 55 1.000000 0.283000 0.307000 1600 46 1.100000 1.863000 2.116000 600 52 1.000000 0.054000 0.054000 1.200000 0.073000 0.088000
1553831239344775198	1000 56 1.000000 0.243000 0.264000 1600 46 1.100000 2.253000 2.561000 600 52 1.000000 0.054000 0.054000 1.200000 0.097000 0.117000
1553831239850655865	1000 55 1.000000 0.292000 0.317000 1600 47 1.100000 1.747000 1.982000 600 52 1.000000 0.053000 0.053000 1.200000 0.080000 0.096000
1553831240358195323	1000 55 1.000000 0.308000 0.334000 1600 46 1.100000 1.677000 1.903000 600 51 1.000000 0.053000 0.053000 1.200000 0.072000 0.087000
1553831240864556865	1000 51 1.000000 0.313000 0.339000 1600 47 1.100000 2.293000 2.607000 600 53 1.000000 0.053000 0.053000 1.200000 0.091000 0.110000
1553831241370407698	1000 50 1.000000 0.310000 0.336000 1600 46 1.100000 1.456000 1.649000 600 52 1.000000 0.054000 0.054000 1.200000 0.072000 0.087000
1553831241876273990	1000 55 1.000000 0.309000 0.335000 1600 46 1.100000 2.279000 2.593000 600 53 1.000000 0.053000 0.053000 1.200000 0.093000 0.112000
1553831242382323907	1000 56 1.000000 0.310000 0.336000 1600 47 1.100000 2.091000 2.377000 600 52 1.000000 0.054000 0.054000 1.200000 0.074000 0.089000
1553831242889320115	1000 54 1.000000 0.280000 0.304000 1600 47 1.100000 2.248000 2.558000 600 53 1.000000 0.053000 0.053000 1.200000 0.079000 0.095000
1553831243395368740	1000 55 1.000000 0.310000 0.336000 1600 47 1.100000 1.524000 1.731000 600 51 1.000000 0.054000 0.054000 1.200000 0.074000 0.089000
1553831243901468115	1000 55 1.000000 0.309000 0.335000 1600 46 1.100000 1.584000 1.797000 600 53 1.000000 0.054000 0.054000 1.200000 0.073000 0.088000
1553831244407496824	1000 55 1.000000 0.308000 0.334000 1600 47 1.100000 2.333000 2.654000 600 52 1.000000 0.053000 0.053000 1.200000 0.084000 0.101000
1553831244913516615	1000 56 1.000000 0.200000 0.218000 1600 47 1.100000 2.254000 2.565000 600 53 1.000000 0.054000 0.054000 1.200000 0.068000 0.082000
1553831245419523907	1000 57 1.000000 0.313000 0.339000 1600 47 1.100000 2.271000 2.584000 600 53 1.000000 0.054000 0.054000 1.200000 0.075000 0.090000
1553831245926778616	1000 57 1.000000 0.315000 0.341000 1600 48 1.100000 2.192000 2.492000 600 54 1.000000 0.054000 0.054000 1.200000 0.074000 0.089000
1553831246432932449	1000 57 1.000000 0.312000 0.338000 1600 48 1.100000 2.277000 2.591000 600 53 1.000000 0.054000 0.054000 1.200000 0.093000 0.112000
1553831246938799324	1000 57 1.000000 0.266000 0.289000 1600 48 1.100000 2.222000 2.526000 600 54 1.000000 0.054000 0.054000 1.200000 0.076000 0.091000
1553831247444761991	1000 56 1.000000 0.311000 0.337000 1600 48 1.100000 2.267000 2.577000 600 53 1.000000 0.054000 0.054000 1.200000 0.081000 0.098000
1553831247951164366	1000 57 1.000000 0.242000 0.263000 1600 48 1.100000 2.139000 2.434000 600 54 1.000000 0.054000 0.054000 1.200000 0.093000 0.112000
1553831248456665157	1000 57 1.000000 0.302000 0.327000 1600 48 1.100000 2.270000 2.580000 600 54 1.000000 0.054000 0.054000 1.200000 0.071000 0.085000
1553831248964988449	1000 55 1.000000 0.299000 0.324000 1600 48 1.100000 2.196000 2.496000 600 54 1.000000 0.054000 0.054000 1.200000 0.083000 0.100000
1553831249471268991	1000 57 1.000000 0.311000 0.337000 1600 48 1.100000 2.026000 2.303000 600 54 1.000000 0.054000 0.054000 1.200000 0.103000 0.124000
1553831249977320324	1000 57 1.000000 0.311000 0.337000 1600 48 1.100000 2.184000 2.483000 600 54 1.000000 0.054000 0.054000 1.200000 0.078000 0.094000
1553831250482698449	1000 57 1.000000 0.297000 0.322000 1600 48 1.100000 1.951000 2.216000 600 54 1.000000 0.054000 0.054000 1.200000 0.075000 0.090000
1553831250988012158	1000 53 1.000000 0.309000 0.335000 1600 47 1.100000 1.798000 2.042000 600 52 1.000000 0.054000 0.054000 1.200000 0.068000 0.082000
1553831251493218866	1000 50 1.000000 0.310000 0.336000 1600 46 1.100000 1.065000 1.204000 600 50 1.000000 0.054000 0.054000 1.200000 0.066000 0.079000
1553831251998535741	1000 51 1.000000 0.287000 0.311000 1600 45 1.100000 1.023000 1.157000 600 51 1.000000 0.053000 0.053000 1.200000 0.066000 0.079000
1553831252503677533	1000 50 1.000000 0.255000 0.277000 1600 46 1.100000 2.143000 2.436000 600 51 1.000000 0.053000 0.053000 1.200000 0.085000 0.102000
1553831253009137283	1000 48 1.000000 0.297000 0.322000 1600 45 1.100000 0.808000 0.913000 600 49 1.000000 0.053000 0.053000 1.200000 0.056000 0.067000
1553831253514127533	1000 47 1.000000 0.227000 0.247000 1600 44 1.100000 0.807000 0.915000 600 49 1.000000 0.053000 0.053000 1.200000 0.056000 0.067000
1553831254019066950	1000 46 1.000000 0.259000 0.281000 1600 43 1.100000 0.519000 0.589000 600 48 1.000000 0.053000 0.053000 1.200000 0.052000 0.062000
1553831254524146367	1000 44 1.000000 0.266000 0.289000 1600 43 1.100000 0.633000 0.718000 600 47 1.000000 0.053000 0.053000 1.200000 0.050000 0.060000
1553831255029335117	1000 45 1.000000 0.257000 0.279000 1600 42 1.100000 0.504000 0.572000 600 46 1.000000 0.053000 0.053000 1.200000 0.049000 0.059000
1553831255534350492	1000 45 1.000000 0.256000 0.278000 1600 42 1.100000 0.621000 0.705000 600 47 1.000000 0.053000 0.053000 1.200000 0.059000 0.071000
1553831256039807992	1000 51 1.000000 0.267000 0.290000 1600 43 1.100000 0.683000 0.773000 600 48 1.000000 0.053000 0.053000 1.200000 0.055000 0.066000
1553831256545397825	1000 53 1.000000 0.267000 0.290000 1600 44 1.100000 2.286000 2.599000 600 50 1.000000 0.053000 0.053000 1.200000 0.094000 0.113000
1553831257050776159	1000 53 1.000000 0.308000 0.334000 1600 45 1.100000 1.801000 2.045000 600 49 1.000000 0.053000 0.053000 1.200000 0.069000 0.083000
1553831257556595534	1000 54 1.000000 0.306000 0.332000 1600 45 1.100000 1.874000 2.128000 600 51 1.000000 0.053000 0.053000 1.200000 0.093000 0.112000
1553831258062108992	1000 55 1.000000 0.226000 0.246000 1600 46 1.100000 2.225000 2.532000 600 51 1.000000 0.053000 0.053000 1.200000 0.085000 0.102000
1553831258567876034	1000 55 1.000000 0.267000 0.290000 1600 46 1.100000 2.287000 2.602000 600 52 1.000000 0.053000 0.053000 1.200000 0.083000 0.100000
1553831259073927284	1000 56 1.000000 0.229000 0.249000 1600 47 1.100000 2.265000 2.575000 600 52 1.000000 0.053000 0.053000 1.200000 0.093000 0.112000
1553831259580069159	1000 56 1.000000 0.300000 0.325000 1600 47 1.100000 2.185000 2.484000 600 53 1.000000 0.053000 0.053000 1.200000 0.075000 0.090000
1553831260087739576	1000 56 1.000000 0.304000 0.329000 1600 47 1.100000 2.167000 2.463000 600 53 1.000000 0.054000 0.054000 1.200000 0.088000 0.106000
1553831260594252742	1000 57 1.000000 0.273000 0.296000 1600 47 1.100000 2.276000 2.590000 600 53 1.000000 0.054000 0.054000 1.200000 0.097000 0.117000
1553831261100492242	1000 55 1.000000 0.298000 0.323000 1600 47 1.100000 2.199000 2.500000 600 54 1.000000 0.054000 0.054000 1.200000 0.073000 0.088000
1553831261606734201	1000 56 1.000000 0.304000 0.329000 1600 47 1.100000 2.183000 2.482000 600 53 1.000000 0.054000 0.054000 1.200000 0.080000 0.096000
1553831262114275242	1000 57 1.000000 0.310000 0.336000 1600 48 1.100000 2.405000 2.736000 600 54 1.000000 0.054000 0.054000 1.200000 0.092000 0.111000
1553831262620455201	1000 56 1.000000 0.295000 0.320000 1600 47 1.100000 1.917000 2.177000 600 52 1.000000 0.054000 0.054000 1.200000 0.083000 0.100000
1553831263126505618	1000 57 1.000000 0.310000 0.336000 1600 48 1.100000 1.943000 2.207000 600 53 1.000000 0.054000 0.054000 1.200000 0.076000 0.092000
1553831263632792618	1000 57 1.000000 0.301000 0.326000 1600 48 1.100000 2.190000 2.490000 600 53 1.000000 0.054000 0.054000 1.200000 0.089000 0.107000
1553831264138719034	1000 55 1.000000 0.293000 0.318000 1600 48 1.100000 2.321000 2.641000 600 53 1.000000 0.054000 0.054000 1.200000 0.085000 0.102000
1553831264645053618	1000 56 1.000000 0.283000 0.307000 1600 47 1.100000 1.981000 2.250000 600 53 1.000000 0.054000 0.054000 1.200000 0.078000 0.094000
1553831265151203451	1000 57 1.000000 0.270000 0.293000 1600 48 1.100000 2.216000 2.519000 600 53 1.000000 0.054000 0.054000 1.200000 0.093000 0.112000
1553831265657347410	1000 57 1.000000 0.307000 0.333000 1600 48 1.100000 2.035000 2.313000 600 54 1.000000 0.054000 0.054000 1.200000 0.078000 0.094000
1553831266163400160	1000 57 1.000000 0.264000 0.286000 1600 48 1.100000 2.398000 2.728000 600 54 1.000000 0.054000 0.054000 1.200000 0.081000 0.098000
1553831266669361993	1000 57 1.000000 0.311000 0.337000 1600 48 1.100000 2.282000 2.594000 600 54 1.000000 0.054000 0.054000 1.200000 0.078000 0.094000
1553831267175882451	1000 58 1.000000 0.307000 0.333000 1600 48 1.100000 2.218000 2.521000 600 54 1.000000 0.054000 0.054000 1.200000 0.075000 0.090000
1553831267681953076	1000 57 1.000000 0.313000 0.339000 1600 48 1.100000 2.227000 2.532000 600 54 1.000000 0.054000 0.054000 1.200000 0.084000 0.101000
1553831268188128660	1000 56 1.000000 0.273000 0.296000 1600 48 1.100000 2.206000 2.508000 600 54 1.000000 0.054000 0.054000 1.200000 0.085000 0.102000
1553831268694288785	1000 58 1.000000 0.277000 0.300000 1600 48 1.100000 2.354000 2.678000 600 54 1.000000 0.054000 0.054000 1.200000 0.089000 0.107000
1553831269200289243	1000 58 1.000000 0.284000 0.308000 1600 49 1.100000 2.212000 2.515000 600 54 1.000000 0.054000 0.054000 1.200000 0.072000 0.087000
1553831269706164743	1000 55 1.000000 0.295000 0.320000 1600 48 1.100000 2.195000 2.495000 600 54 1.000000 0.054000 0.054000 1.200000 0.073000 0.088000
1553831270212254702	1000 58 1.000000 0.303000 0.328000 1600 48 1.100000 1.864000 2.117000 600 55 1.000000 0.054000 0.054000 1.200000 0.074000 0.089000
1553831270718053702	1000 52 1.000000 0.294000 0.318000 1600 47 1.100000 1.984000 2.255000 600 54 1.000000 0.054000 0.054000 1.200000 0.108000 0.130000
1553831271224064077	1000 57 1.000000 0.309000 0.335000 1600 48 1.100000 1.943000 2.207000 600 54 1.000000 0.054000 0.054000 1.200000 0.074000 0.089000
1553831271730251994	1000 57 1.000000 0.305000 0.330000 1600 48 1.100000 2.187000 2.486000 600 54 1.000000 0.054000 0.054000 1.200000 0.085000 0.102000
1553831272236530827	1000 52 1.000000 0.282000 0.306000 1600 48 1.100000 1.860000 2.112000 600 54 1.000000 0.054000 0.054000 1.200000 0.072000 0.087000
1553831272742366994	1000 50 1.000000 0.292000 0.317000 1600 47 1.100000 1.272000 1.441000 600 52 1.000000 0.054000 0.054000 1.200000 0.083000 0.100000
1553831273248533702	1000 55 1.000000 0.250000 0.272000 1600 46 1.100000 1.326000 1.505000 600 52 1.000000 0.054000 0.054000 1.200000 0.062000 0.075000
1553831273754453536	1000 50 1.000000 0.254000 0.276000 1600 45 1.100000 1.421000 1.612000 600 50 1.000000 0.053000 0.053000 1.200000 0.088000 0.106000
1553831274260171786	1000 49 1.000000 0.248000 0.269000 1600 45 1.100000 0.843000 0.956000 600 49 1.000000 0.054000 0.054000 1.200000 0.054000 0.065000
1553831274765882244	1000 47 1.000000 0.252000 0.273000 1600 44 1.100000 1.096000 1.241000 600 49 1.000000 0.053000 0.053000 1.200000 0.058000 0.070000
1553831275271788077	1000 48 1.000000 0.261000 0.283000 1600 44 1.100000 0.750000 0.851000 600 48 1.000000 0.053000 0.053000 1.200000 0.056000 0.067000
1553831275777819952	1000 53 1.000000 0.277000 0.301000 1600 45 1.100000 1.148000 1.302000 600 50 1.000000 0.053000 0.053000 1.200000 0.057000 0.068000
1553831276283348286	1000 54 1.000000 0.291000 0.315000 1600 46 1.100000 2.125000 2.416000 600 51 1.000000 0.053000 0.053000 1.200000 0.086000 0.104000
1553831276788364494	1000 47 1.000000 0.313000 0.339000 1600 45 1.100000 1.102000 1.247000 600 49 1.000000 0.053000 0.053000 1.200000 0.071000 0.085000
1553831277293656744	1000 47 1.000000 0.261000 0.283000 1600 44 1.100000 0.595000 0.675000 600 48 1.000000 0.053000 0.053000 1.200000 0.050000 0.060000
1553831277798784119	1000 45 1.000000 0.256000 0.278000 1600 43 1.100000 0.623000 0.707000 600 48 1.000000 0.053000 0.053000 1.200000 0.050000 0.060000
1553831278304516203	1000 48 1.000000 0.259000 0.281000 1600 43 1.100000 0.695000 0.787000 600 47 1.000000 0.053000 0.053000 1.200000 0.054000 0.065000
1553831278809930078	1000 53 1.000000 0.259000 0.281000 1600 44 1.100000 2.469000 2.809000 600 50 1.000000 0.053000 0.053000 1.200000 0.094000 0.113000
1553831279315225536	1000 54 1.000000 0.250000 0.272000 1600 45 1.100000 1.835000 2.084000 600 50 1.000000 0.053000 0.053000 1.200000 0.086000 0.104000
1553831279820708036	1000 54 1.000000 0.303000 0.329000 1600 46 1.100000 1.668000 1.893000 600 51 1.000000 0.053000 0.053000 1.200000 0.070000 0.084000
1553831280326050078	1000 55 1.000000 0.309000 0.335000 1600 46 1.100000 2.238000 2.544000 600 51 1.000000 0.053000 0.053000 1.200000 0.084000 0.101000
1553831280831488786	1000 55 1.000000 0.272000 0.295000 1600 46 1.100000 2.193000 2.493000 600 53 1.000000 0.053000 0.053000 1.200000 0.072000 0.087000
1553831281337163828	1000 55 1.000000 0.288000 0.312000 1600 47 1.100000 2.343000 2.663000 600 53 1.000000 0.053000 0.053000 1.200000 0.074000 0.089000
1553831281842444036	1000 56 1.000000 0.294000 0.319000 1600 47 1.100000 2.278000 2.590000 600 53 1.000000 0.054000 0.054000 1.200000 0.086000 0.104000
1553831282347916870	1000 56 1.000000 0.309000 0.335000 1600 47 1.100000 2.148000 2.442000 600 52 1.000000 0.054000 0.054000 1.200000 0.084000 0.101000
1553831282855119870	1000 55 1.000000 0.310000 0.336000 1600 47 1.100000 1.638000 1.859000 600 53 1.000000 0.054000 0.054000 1.200000 0.072000 0.087000
1553831283360818537	1000 56 1.000000 0.290000 0.314000 1600 47 1.100000 2.258000 2.567000 600 53 1.000000 0.053000 0.053000 1.200000 0.096000 0.116000
1553831283866291412	1000 56 1.000000 0.310000 0.336000 1600 47 1.100000 2.059000 2.339000 600 52 1.000000 0.054000 0.054000 1.200000 0.075000 0.090000
1553831284373047537	1000 56 1.000000 0.288000 0.312000 1600 47 1.100000 1.933000 2.195000 600 53 1.000000 0.054000 0.054000 1.200000 0.089000 0.107000
1553831284878583245	1000 56 1.000000 0.287000 0.311000 1600 47 1.100000 2.217000 2.520000 600 53 1.000000 0.054000 0.054000 1.200000 0.075000 0.090000
1553831285383977579	1000 56 1.000000 0.238000 0.259000 1600 48 1.100000 2.267000 2.579000 600 54 1.000000 0.054000 0.054000 1.200000 0.078000 0.094000
1553831285889318829	1000 56 1.000000 0.311000 0.337000 1600 47 1.100000 2.169000 2.466000 600 54 1.000000 0.054000 0.054000 1.200000 0.083000 0.100000
1553831286394696704	1000 54 1.000000 0.282000 0.306000 1600 47 1.100000 1.972000 2.242000 600 53 1.000000 0.053000 0.053000 1.200000 0.102000 0.123000
1553831286901751579	1000 56 1.000000 0.293000 0.317000 1600 47 1.100000 1.731000 1.964000 600 54 1.000000 0.054000 0.054000 1.200000 0.073000 0.088000
1553831287407708745	1000 57 1.000000 0.277000 0.300000 1600 48 1.100000 2.363000 2.689000 600 54 1.000000 0.054000 0.054000 1.200000 0.092000 0.111000
1553831287913654787	1000 57 1.000000 0.288000 0.312000 1600 48 1.100000 2.176000 2.474000 600 54 1.000000 0.054000 0.054000 1.200000 0.071000 0.085000
1553831288418961996	1000 53 1.000000 0.311000 0.337000 1600 48 1.100000 2.107000 2.395000 600 53 1.000000 0.054000 0.054000 1.200000 0.084000 0.101000
1553831288925124246	1000 57 1.000000 0.305000 0.330000 1600 48 1.100000 1.596000 1.811000 600 53 1.000000 0.054000 0.054000 1.200000 0.079000 0.095000
1553831289431300371	1000 57 1.000000 0.288000 0.312000 1600 48 1.100000 2.078000 2.362000 600 54 1.000000 0.054000 0.054000 1.200000 0.113000 0.137000
1553831289938327871	1000 57 1.000000 0.305000 0.331000 1600 48 1.100000 2.184000 2.483000 600 54 1.000000 0.053000 0.053000 1.200000 0.085000 0.102000
1553831290444370537	1000 57 1.000000 0.299000 0.324000 1600 48 1.100000 2.146000 2.440000 600 54 1.000000 0.054000 0.054000 1.200000 0.073000 0.088000
1553831290950281121	1000 57 1.000000 0.288000 0.313000 1600 48 1.100000 2.151000 2.445000 600 55 1.000000 0.054000 0.054000 1.200000 0.072000 0.087000
1553831291458480454	1000 57 1.000000 0.293000 0.318000 1600 48 1.100000 2.117000 2.407000 600 55 1.000000 0.054000 0.054000 1.200000 0.088000 0.106000
1553831291965032704	1000 57 1.000000 0.308000 0.334000 1600 48 1.100000 2.170000 2.467000 600 54 1.000000 0.054000 0.054000 1.200000 0.086000 0.104000
1553831292472433163	1000 57 1.000000 0.277000 0.300000 1600 48 1.100000 2.100000 2.385000 600 54 1.000000 0.054000 0.054000 1.200000 0.077000 0.093000
1553831292978531829	1000 58 1.000000 0.310000 0.336000 1600 48 1.100000 2.157000 2.450000 600 55 1.000000 0.054000 0.054000 1.200000 0.079000 0.095000
1553831293486455955	1000 57 1.000000 0.306000 0.332000 1600 49 1.100000 2.286000 2.599000 600 56 1.000000 0.054000 0.054000 1.200000 0.074000 0.089000
1553831293991971663	1000 58 1.000000 0.315000 0.341000 1600 49 1.100000 2.365000 2.691000 600 55 1.000000 0.054000 0.054000 1.200000 0.097000 0.117000
1553831294497363580	1000 58 1.000000 0.308000 0.334000 1600 49 1.100000 2.244000 2.551000 600 54 1.000000 0.054000 0.054000 1.200000 0.085000 0.102000
1553831295002863580	1000 58 1.000000 0.307000 0.333000 1600 49 1.100000 2.197000 2.497000 600 55 1.000000 0.054000 0.054000 1.200000 0.074000 0.089000
1553831295509499996	1000 58 1.000000 0.303000 0.329000 1600 49 1.100000 2.149000 2.443000 600 54 1.000000 0.054000 0.054000 1.200000 0.076000 0.092000
1553831296015620663	1000 58 1.000000 0.288000 0.312000 1600 49 1.100000 2.374000 2.701000 600 55 1.000000 0.054000 0.054000 1.200000 0.088000 0.106000
1553831296521099622	1000 57 1.000000 0.311000 0.337000 1600 49 1.100000 2.023000 2.300000 600 54 1.000000 0.054000 0.054000 1.200000 0.077000 0.093000
1553831297026641913	1000 58 1.000000 0.295000 0.320000 1600 49 1.100000 2.182000 2.480000 600 55 1.000000 0.054000 0.054000 1.200000 0.092000 0.111000
1553831297532207663	1000 58 1.000000 0.289000 0.313000 1600 49 1.100000 2.196000 2.496000 600 54 1.000000 0.054000 0.054000 1.200000 0.073000 0.088000
1553831298038145663	1000 59 1.000000 0.310000 0.336000 1600 49 1.100000 2.237000 2.543000 600 55 1.000000 0.055000 0.055000 1.200000 0.073000 0.088000
1553831298544116705	1000 58 1.000000 0.307000 0.333000 1600 49 1.100000 2.241000 2.548000 600 54 1.000000 0.054000 0.054000 1.200000 0.090000 0.108000
1553831299050900289	1000 58 1.000000 0.223000 0.243000 1600 49 1.100000 2.214000 2.517000 600 55 1.000000 0.054000 0.054000 1.200000 0.076000 0.091000
1553831299558029539	1000 57 1.000000 0.315000 0.341000 1600 49 1.100000 1.998000 2.269000 600 54 1.000000 0.054000 0.054000 1.200000 0.073000 0.088000
1553831300063880622	1000 55 1.000000 0.260000 0.282000 1600 48 1.100000 1.534000 1.742000 600 54 1.000000 0.054000 0.054000 1.200000 0.072000 0.087000
1553831300569815080	1000 53 1.000000 0.281000 0.305000 1600 47 1.100000 1.508000 1.708000 600 53 1.000000 0.054000 0.054000 1.200000 0.070000 0.084000
1553831301076160122	1000 52 1.000000 0.291000 0.316000 1600 47 1.100000 1.667000 1.892000 600 53 1.000000 0.054000 0.054000 1.200000 0.064000 0.077000
1553831301582875247	1000 56 1.000000 0.303000 0.328000 1600 47 1.100000 1.141000 1.291000 600 53 1.000000 0.054000 0.054000 1.200000 0.070000 0.084000
1553831302089046956	1000 57 1.000000 0.304000 0.329000 1600 48 1.100000 2.275000 2.586000 600 54 1.000000 0.053000 0.053000 1.200000 0.090000 0.109000
1553831302597642831	1000 57 1.000000 0.278000 0.301000 1600 48 1.100000 2.187000 2.486000 600 54 1.000000 0.054000 0.054000 1.200000 0.088000 0.106000
1553831303103700039	1000 57 1.000000 0.174000 0.190000 1600 48 1.100000 2.235000 2.541000 600 54 1.000000 0.054000 0.054000 1.200000 0.083000 0.100000
1553831303609623289	1000 58 1.000000 0.311000 0.337000 1600 49 1.100000 2.194000 2.494000 600 54 1.000000 0.054000 0.054000 1.200000 0.077000 0.093000
1553831304116294039	1000 57 1.000000 0.296000 0.321000 1600 49 1.100000 2.202000 2.503000 600 56 1.000000 0.054000 0.054000 1.200000 0.073000 0.088000
1553831304622491123	1000 58 1.000000 0.307000 0.333000 1600 49 1.100000 2.402000 2.733000 600 55 1.000000 0.054000 0.054000 1.200000 0.103000 0.124000
1553831305128539623	1000 58 1.000000 0.287000 0.311000 1600 49 1.100000 2.196000 2.496000 600 54 1.000000 0.054000 0.054000 1.200000 0.073000 0.088000
1553831305635668123	1000 58 1.000000 0.308000 0.334000 1600 49 1.100000 2.036000 2.312000 600 54 1.000000 0.054000 0.054000 1.200000 0.076000 0.092000
1553831306142767539	1000 58 1.000000 0.286000 0.310000 1600 49 1.100000 2.224000 2.528000 600 55 1.000000 0.054000 0.054000 1.200000 0.088000 0.106000
1553831306650124164	1000 58 1.000000 0.317000 0.343000 1600 49 1.100000 2.351000 2.675000 600 55 1.000000 0.054000 0.054000 1.200000 0.086000 0.104000
1553831307156584623	1000 58 1.000000 0.265000 0.288000 1600 49 1.100000 2.205000 2.507000 600 55 1.000000 0.054000 0.054000 1.200000 0.076000 0.092000
1553831307662659873	1000 56 1.000000 0.275000 0.298000 1600 49 1.100000 2.258000 2.567000 600 55 1.000000 0.054000 0.054000 1.200000 0.088000 0.106000
1553831308168922248	1000 59 1.000000 0.268000 0.291000 1600 49 1.100000 2.146000 2.440000 600 55 1.000000 0.054000 0.054000 1.200000 0.081000 0.098000
1553831308674945331	1000 58 1.000000 0.305000 0.331000 1600 49 1.100000 2.333000 2.654000 600 55 1.000000 0.054000 0.054000 1.200000 0.088000 0.106000
1553831309180922706	1000 58 1.000000 0.295000 0.320000 1600 49 1.100000 2.201000 2.502000 600 55 1.000000 0.054000 0.054000 1.200000 0.074000 0.089000
1553831309687110248	1000 58 1.000000 0.310000 0.336000 1600 49 1.100000 2.173000 2.470000 600 55 1.000000 0.054000 0.054000 1.200000 0.089000 0.107000
1553831310193860582	1000 58 1.000000 0.312000 0.338000 1600 49 1.100000 2.213000 2.516000 600 55 1.000000 0.054000 0.054000 1.200000 0.088000 0.106000
1553831310700356207	1000 59 1.000000 0.296000 0.321000 1600 49 1.100000 2.207000 2.509000 600 55 1.000000 0.054000 0.054000 1.200000 0.103000 0.124000
1553831311206399582	1000 58 1.000000 0.290000 0.314000 1600 49 1.100000 2.313000 2.629000 600 55 1.000000 0.054000 0.054000 1.200000 0.093000 0.112000
1553831311712289415	1000 56 1.000000 0.297000 0.322000 1600 49 1.100000 2.284000 2.596000 600 55 1.000000 0.054000 0.054000 1.200000 0.077000 0.093000
1553831312218205165	1000 58 1.000000 0.310000 0.336000 1600 49 1.100000 2.028000 2.305000 600 55 1.000000 0.054000 0.054000 1.200000 0.073000 0.088000
1553831312724091957	1000 58 1.000000 0.311000 0.337000 1600 49 1.100000 2.240000 2.546000 600 55 1.000000 0.054000 0.054000 1.200000 0.093000 0.112000
1553831313229550207	1000 59 1.000000 0.305000 0.330000 1600 49 1.100000 2.249000 2.557000 600 55 1.000000 0.054000 0.054000 1.200000 0.083000 0.100000
1553831313735293999	1000 59 1.000000 0.302000 0.327000 1600 49 1.100000 2.320000 2.640000 600 55 1.000000 0.054000 0.054000 1.200000 0.082000 0.099000
1553831314240817082	1000 59 1.000000 0.308000 0.334000 1600 49 1.100000 2.245000 2.552000 600 55 1.000000 0.054000 0.054000 1.200000 0.084000 0.101000
1553831314747547374	1000 57 1.000000 0.269000 0.292000 1600 49 1.100000 1.948000 2.214000 600 56 1.000000 0.054000 0.054000 1.200000 0.086000 0.104000
1553831315253351290	1000 58 1.000000 0.257000 0.279000 1600 49 1.100000 2.061000 2.341000 600 55 1.000000 0.054000 0.054000 1.200000 0.097000 0.117000
1553831315758517707	1000 57 1.000000 0.296000 0.321000 1600 49 1.100000 1.467000 1.665000 600 53 1.000000 0.054000 0.054000 1.200000 0.064000 0.077000
1553831316264959166	1000 56 1.000000 0.315000 0.341000 1600 48 1.100000 1.696000 1.924000 600 53 1.000000 0.054000 0.054000 1.200000 0.060000 0.072000
1553831316770262707	1000 54 1.000000 0.296000 0.321000 1600 48 1.100000 2.142000 2.435000 600 53 1.000000 0.054000 0.054000 1.200000 0.099000 0.119000
1553831317276262582	1000 51 1.000000 0.285000 0.309000 1600 47 1.100000 1.016000 1.153000 600 51 1.000000 0.054000 0.054000 1.200000 0.062000 0.075000
1553831317781254332	1000 48 1.000000 0.300000 0.325000 1600 46 1.100000 0.695000 0.786000 600 50 1.000000 0.054000 0.054000 1.200000 0.055000 0.066000
1553831318286244499	1000 48 1.000000 0.265000 0.288000 1600 45 1.100000 0.632000 0.717000 600 49 1.000000 0.054000 0.054000 1.200000 0.050000 0.060000
1553831318791727041	1000 54 1.000000 0.312000 0.338000 1600 46 1.100000 0.767000 0.866000 600 52 1.000000 0.053000 0.053000 1.200000 0.081000 0.098000
1553831319297207374	1000 54 1.000000 0.248000 0.269000 1600 47 1.100000 2.301000 2.616000 600 52 1.000000 0.053000 0.053000 1.200000 0.084000 0.101000
1553831319802521958	1000 54 1.000000 0.280000 0.304000 1600 46 1.100000 1.859000 2.111000 600 52 1.000000 0.053000 0.053000 1.200000 0.067000 0.081000
1553831320308058499	1000 56 1.000000 0.299000 0.324000 1600 47 1.100000 1.460000 1.654000 600 52 1.000000 0.053000 0.053000 1.200000 0.076000 0.091000
1553831320813475416	1000 52 1.000000 0.306000 0.332000 1600 47 1.100000 2.243000 2.550000 600 52 1.000000 0.054000 0.054000 1.200000 0.081000 0.098000
1553831321318937250	1000 57 1.000000 0.313000 0.339000 1600 47 1.100000 2.053000 2.332000 600 53 1.000000 0.054000 0.054000 1.200000 0.107000 0.129000
1553831321824952833	1000 57 1.000000 0.305000 0.331000 1600 48 1.100000 2.298000 2.615000 600 54 1.000000 0.054000 0.054000 1.200000 0.081000 0.098000
1553831322330931833	1000 57 1.000000 0.294000 0.319000 1600 48 1.100000 2.202000 2.503000 600 54 1.000000 0.054000 0.054000 1.200000 0.075000 0.090000
1553831322836430708	1000 57 1.000000 0.308000 0.334000 1600 48 1.100000 2.207000 2.509000 600 54 1.000000 0.054000 0.054000 1.200000 0.084000 0.101000
1553831323342577250	1000 58 1.000000 0.279000 0.302000 1600 48 1.100000 2.118000 2.408000 600 55 1.000000 0.054000 0.054000 1.200000 0.073000 0.088000
1553831323849844750	1000 57 1.000000 0.284000 0.308000 1600 48 1.100000 2.342000 2.665000 600 54 1.000000 0.054000 0.054000 1.200000 0.099000 0.119000
1553831324355853583	1000 54 1.000000 0.263000 0.285000 1600 48 1.100000 2.269000 2.579000 600 54 1.000000 0.054000 0.054000 1.200000 0.079000 0.095000
1553831324861512125	1000 55 1.000000 0.290000 0.314000 1600 47 1.100000 1.754000 1.990000 600 54 1.000000 0.054000 0.054000 1.200000 0.069000 0.083000
1553831325367056167	1000 51 1.000000 0.292000 0.317000 1600 47 1.100000 1.713000 1.944000 600 53 1.000000 0.054000 0.054000 1.200000 0.080000 0.096000
1553831325872609500	1000 52 1.000000 0.254000 0.276000 1600 46 1.100000 1.035000 1.171000 600 52 1.000000 0.054000 0.054000 1.200000 0.063000 0.076000
1553831326377910542	1000 54 1.000000 0.269000 0.292000 1600 47 1.100000 2.065000 2.347000 600 52 1.000000 0.054000 0.054000 1.200000 0.092000 0.111000
1553831326883276500	1000 50 1.000000 0.312000 0.338000 1600 46 1.100000 1.218000 1.378000 600 51 1.000000 0.054000 0.054000 1.200000 0.063000 0.076000
1553831327388860584	1000 49 1.000000 0.279000 0.303000 1600 45 1.100000 0.682000 0.770000 600 51 1.000000 0.054000 0.054000 1.200000 0.059000 0.071000
1553831327893939584	1000 46 1.000000 0.249000 0.270000 1600 44 1.100000 0.663000 0.753000 600 49 1.000000 0.053000 0.053000 1.200000 0.050000 0.060000
1553831328399241792	1000 48 1.000000 0.256000 0.278000 1600 44 1.100000 0.715000 0.809000 600 48 1.000000 0.053000 0.053000 1.200000 0.056000 0.067000
1553831328905226417	1000 53 1.000000 0.277000 0.301000 1600 45 1.100000 0.714000 0.808000 600 50 1.000000 0.053000 0.053000 1.200000 0.058000 0.070000
1553831329411754667	1000 55 1.000000 0.253000 0.275000 1600 46 1.100000 2.235000 2.541000 600 51 1.000000 0.053000 0.053000 1.200000 0.088000 0.106000
1553831329917603667	1000 55 1.000000 0.266000 0.288000 1600 46 1.100000 2.357000 2.682000 600 51 1.000000 0.053000 0.053000 1.200000 0.080000 0.096000
1553831330423758876	1000 56 1.000000 0.304000 0.329000 1600 47 1.100000 1.975000 2.243000 600 52 1.000000 0.053000 0.053000 1.200000 0.093000 0.112000
1553831330929912084	1000 56 1.000000 0.286000 0.310000 1600 47 1.100000 2.198000 2.499000 600 53 1.000000 0.054000 0.054000 1.200000 0.092000 0.111000
1553831331435926792	1000 57 1.000000 0.301000 0.326000 1600 48 1.100000 2.213000 2.516000 600 53 1.000000 0.054000 0.054000 1.200000 0.093000 0.112000
1553831331941897417	1000 57 1.000000 0.305000 0.330000 1600 48 1.100000 2.387000 2.716000 600 54 1.000000 0.054000 0.054000 1.200000 0.087000 0.105000
1553831332447884876	1000 57 1.000000 0.273000 0.296000 1600 48 1.100000 2.218000 2.521000 600 54 1.000000 0.054000 0.054000 1.200000 0.071000 0.085000
1553831332954282084	1000 57 1.000000 0.311000 0.337000 1600 48 1.100000 2.210000 2.512000 600 55 1.000000 0.054000 0.054000 1.200000 0.091000 0.110000
1553831333460467918	1000 58 1.000000 0.272000 0.295000 1600 48 1.100000 2.211000 2.513000 600 54 1.000000 0.054000 0.054000 1.200000 0.074000 0.089000
1553831333966450543	1000 55 1.000000 0.297000 0.322000 1600 48 1.100000 2.259000 2.568000 600 54 1.000000 0.054000 0.054000 1.200000 0.094000 0.113000
1553831334472481334	1000 57 1.000000 0.291000 0.315000 1600 48 1.100000 2.170000 2.467000 600 54 1.000000 0.054000 0.054000 1.200000 0.101000 0.122000
1553831334979632834	1000 58 1.000000 0.283000 0.307000 1600 48 1.100000 2.234000 2.540000 600 54 1.000000 0.054000 0.054000 1.200000 0.080000 0.096000
1553831335485487335	1000 55 1.000000 0.291000 0.316000 1600 49 1.100000 2.193000 2.493000 600 54 1.000000 0.054000 0.054000 1.200000 0.085000 0.102000
1553831335991410585	1000 58 1.000000 0.288000 0.312000 1600 49 1.100000 2.082000 2.365000 600 55 1.000000 0.054000 0.054000 1.200000 0.084000 0.101000
1553831336497353085	1000 55 1.000000 0.271000 0.294000 1600 48 1.100000 2.248000 2.555000 600 54 1.000000 0.054000 0.054000 1.200000 0.084000 0.101000
1553831337003433876	1000 57 1.000000 0.310000 0.336000 1600 48 1.100000 1.892000 2.149000 600 55 1.000000 0.054000 0.054000 1.200000 0.077000 0.093000
1553831337509324376	1000 58 1.000000 0.295000 0.320000 1600 49 1.100000 2.218000 2.521000 600 54 1.000000 0.054000 0.054000 1.200000 0.098000 0.118000
1553831338017389877	1000 58 1.000000 0.290000 0.314000 1600 49 1.100000 2.223000 2.527000 600 56 1.000000 0.054000 0.054000 1.200000 0.074000 0.089000
1553831338526867335	1000 57 1.000000 0.287000 0.311000 1600 49 1.100000 2.061000 2.343000 600 55 1.000000 0.054000 0.054000 1.200000 0.091000 0.110000
1553831339032859085	1000 53 1.000000 0.277000 0.300000 1600 48 1.100000 2.247000 2.554000 600 53 1.000000 0.054000 0.054000 1.200000 0.086000 0.104000
1553831339538872585	1000 53 1.000000 0.265000 0.288000 1600 47 1.100000 1.130000 1.279000 600 52 1.000000 0.054000 0.054000 1.200000 0.064000 0.077000
1553831340044703168	1000 52 1.000000 0.282000 0.306000 1600 47 1.100000 2.122000 2.412000 600 52 1.000000 0.054000 0.054000 1.200000 0.095000 0.115000
1553831340550393585	1000 49 1.000000 0.283000 0.307000 1600 46 1.100000 0.707000 0.800000 600 51 1.000000 0.053000 0.053000 1.200000 0.071000 0.085000
1553831341056036544	1000 47 1.000000 0.259000 0.281000 1600 45 1.100000 0.643000 0.728000 600 50 1.000000 0.054000 0.054000 1.200000 0.056000 0.067000
1553831341561539877	1000 47 1.000000 0.231000 0.252000 1600 44 1.100000 0.683000 0.773000 600 49 1.000000 0.053000 0.053000 1.200000 0.049000 0.059000
1553831342067224877	1000 47 1.000000 0.249000 0.270000 1600 44 1.100000 0.669000 0.757000 600 48 1.000000 0.053000 0.053000 1.200000 0.051000 0.061000
1553831342572813877	1000 47 1.000000 0.264000 0.286000 1600 43 1.100000 0.695000 0.787000 600 48 1.000000 0.053000 0.053000 1.200000 0.051000 0.061000
1553831343078621960	1000 47 1.000000 0.249000 0.270000 1600 43 1.100000 0.615000 0.698000 600 47 1.000000 0.053000 0.053000 1.200000 0.053000 0.064000
1553831343585778002	1000 47 1.000000 0.269000 0.292000 1600 43 1.100000 0.689000 0.780000 600 48 1.000000 0.053000 0.053000 1.200000 0.057000 0.068000
1553831344092402752	1000 53 1.000000 0.309000 0.335000 1600 44 1.100000 2.150000 2.444000 600 50 1.000000 0.053000 0.053000 1.200000 0.083000 0.100000
1553831344598240627	1000 50 1.000000 0.301000 0.326000 1600 45 1.100000 1.768000 2.006000 600 51 1.000000 0.053000 0.053000 1.200000 0.071000 0.085000
1553831345105313294	1000 53 1.000000 0.299000 0.324000 1600 45 1.100000 1.679000 1.905000 600 52 1.000000 0.053000 0.053000 1.200000 0.068000 0.082000
1553831345611462711	1000 55 1.000000 0.280000 0.304000 1600 46 1.100000 2.250000 2.558000 600 52 1.000000 0.053000 0.053000 1.200000 0.093000 0.112000
1553831346117285211	1000 53 1.000000 0.310000 0.336000 1600 46 1.100000 1.671000 1.896000 600 52 1.000000 0.054000 0.054000 1.200000 0.083000 0.100000
1553831346623464419	1000 54 1.000000 0.307000 0.333000 1600 46 1.100000 1.794000 2.037000 600 52 1.000000 0.054000 0.054000 1.200000 0.074000 0.089000
1553831347129559211	1000 56 1.000000 0.310000 0.336000 1600 47 1.100000 2.195000 2.495000 600 53 1.000000 0.054000 0.054000 1.200000 0.082000 0.099000
1553831347635118628	1000 56 1.000000 0.284000 0.308000 1600 47 1.100000 2.174000 2.471000 600 53 1.000000 0.053000 0.053000 1.200000 0.086000 0.104000
1553831348140513503	1000 54 1.000000 0.313000 0.339000 1600 47 1.100000 1.998000 2.269000 600 53 1.000000 0.053000 0.053000 1.200000 0.077000 0.093000
1553831348645941003	1000 56 1.000000 0.281000 0.305000 1600 47 1.100000 2.265000 2.575000 600 54 1.000000 0.053000 0.053000 1.200000 0.087000 0.105000
1553831349151412669	1000 57 1.000000 0.277000 0.300000 1600 48 1.100000 2.190000 2.490000 600 53 1.000000 0.053000 0.053000 1.200000 0.088000 0.106000
1553831349657008253	1000 57 1.000000 0.263000 0.285000 1600 48 1.100000 2.253000 2.561000 600 54 1.000000 0.054000 0.054000 1.200000 0.083000 0.100000
1553831350162334503	1000 57 1.000000 0.282000 0.306000 1600 48 1.100000 2.188000 2.487000 600 54 1.000000 0.054000 0.054000 1.200000 0.073000 0.088000
1553831350668568045	1000 55 1.000000 0.293000 0.318000 1600 48 1.100000 2.035000 2.311000 600 54 1.000000 0.054000 0.054000 1.200000 0.077000 0.093000
1553831351174234670	1000 58 1.000000 0.285000 0.309000 1600 48 1.100000 2.257000 2.566000 600 54 1.000000 0.054000 0.054000 1.200000 0.097000 0.117000
1553831351679915211	1000 57 1.000000 0.312000 0.338000 1600 48 1.100000 2.150000 2.444000 600 54 1.000000 0.054000 0.054000 1.200000 0.078000 0.094000
1553831352185265878	1000 57 1.000000 0.303000 0.328000 1600 48 1.100000 1.932000 2.194000 600 55 1.000000 0.054000 0.054000 1.200000 0.075000 0.090000
1553831352690629878	1000 58 1.000000 0.301000 0.326000 1600 48 1.100000 2.195000 2.495000 600 54 1.000000 0.054000 0.054000 1.200000 0.087000 0.105000
1553831353196019545	1000 57 1.000000 0.305000 0.331000 1600 49 1.100000 2.166000 2.462000 600 54 1.000000 0.054000 0.054000 1.200000 0.084000 0.101000
1553831353701428337	1000 57 1.000000 0.312000 0.338000 1600 48 1.100000 2.130000 2.421000 600 54 1.000000 0.054000 0.054000 1.200000 0.085000 0.102000
1553831354206492795	1000 58 1.000000 0.267000 0.290000 1600 49 1.100000 2.251000 2.559000 600 55 1.000000 0.054000 0.054000 1.200000 0.079000 0.095000
1553831354711743378	1000 57 1.000000 0.285000 0.309000 1600 49 1.100000 2.287000 2.602000 600 54 1.000000 0.054000 0.054000 1.200000 0.080000 0.096000
1553831355217059337	1000 58 1.000000 0.295000 0.320000 1600 49 1.100000 1.872000 2.126000 600 55 1.000000 0.054000 0.054000 1.200000 0.088000 0.106000
1553831355722579504	1000 57 1.000000 0.311000 0.337000 1600 49 1.100000 2.197000 2.497000 600 55 1.000000 0.054000 0.054000 1.200000 0.075000 0.090000
1553831356228926045	1000 55 1.000000 0.294000 0.319000 1600 48 1.100000 2.199000 2.500000 600 54 1.000000 0.054000 0.054000 1.200000 0.084000 0.101000
1553831356736365962	1000 57 1.000000 0.276000 0.299000 1600 49 1.100000 1.902000 2.160000 600 54 1.000000 0.054000 0.054000 1.200000 0.076000 0.092000
1553831357242525045	1000 54 1.000000 0.280000 0.304000 1600 48 1.100000 2.189000 2.488000 600 54 1.000000 0.054000 0.054000 1.200000 0.086000 0.104000
1553831357749793546	1000 57 1.000000 0.288000 0.312000 1600 48 1.100000 1.827000 2.075000 600 54 1.000000 0.054000 0.054000 1.200000 0.080000 0.096000
1553831358256609254	1000 58 1.000000 0.286000 0.310000 1600 49 1.100000 2.223000 2.527000 600 55 1.000000 0.054000 0.054000 1.200000 0.078000 0.094000
1553831358764017337	1000 57 1.000000 0.310000 0.336000 1600 49 1.100000 2.286000 2.599000 600 54 1.000000 0.054000 0.054000 1.200000 0.075000 0.090000
1553831359269943462	1000 57 1.000000 0.303000 0.328000 1600 49 1.100000 1.887000 2.143000 600 54 1.000000 0.054000 0.054000 1.200000 0.077000 0.093000
1553831359777182754	1000 56 1.000000 0.310000 0.336000 1600 49 1.100000 1.932000 2.194000 600 55 1.000000 0.054000 0.054000 1.200000 0.087000 0.105000
1553831360283280629	1000 57 1.000000 0.279000 0.302000 1600 49 1.100000 2.111000 2.400000 600 54 1.000000 0.054000 0.054000 1.200000 0.083000 0.100000
1553831360790659296	1000 58 1.000000 0.296000 0.321000 1600 49 1.100000 1.992000 2.262000 600 54 1.000000 0.054000 0.054000 1.200000 0.086000 0.104000
1553831361297687671	1000 58 1.000000 0.292000 0.317000 1600 49 1.100000 2.224000 2.528000 600 56 1.000000 0.054000 0.054000 1.200000 0.074000 0.089000
1553831361805260296	1000 58 1.000000 0.311000 0.337000 1600 49 1.100000 2.392000 2.722000 600 54 1.000000 0.054000 0.054000 1.200000 0.080000 0.096000
1553831362311684504	1000 56 1.000000 0.310000 0.336000 1600 49 1.100000 1.832000 2.081000 600 54 1.000000 0.054000 0.054000 1.200000 0.075000 0.090000
1553831362818794671	1000 57 1.000000 0.300000 0.325000 1600 49 1.100000 2.311000 2.627000 600 54 1.000000 0.054000 0.054000 1.200000 0.097000 0.117000
1553831363330200005	1000 57 1.000000 0.307000 0.333000 1600 48 1.100000 1.941000 2.203000 600 54 1.000000 0.054000 0.054000 1.200000 0.074000 0.089000
1553831363836904296	1000 58 1.000000 0.274000 0.297000 1600 49 1.100000 2.398000 2.728000 600 54 1.000000 0.054000 0.054000 1.200000 0.100000 0.121000
1553831364342852421	1000 56 1.000000 0.309000 0.335000 1600 49 1.100000 2.211000 2.513000 600 55 1.000000 0.054000 0.054000 1.200000 0.075000 0.090000
1553831364850147505	1000 53 1.000000 0.309000 0.335000 1600 48 1.100000 2.040000 2.317000 600 54 1.000000 0.054000 0.054000 1.200000 0.075000 0.090000
1553831365357574296	1000 58 1.000000 0.309000 0.335000 1600 49 1.100000 1.902000 2.160000 600 54 1.000000 0.054000 0.054000 1.200000 0.087000 0.105000
1553831365863786505	1000 57 1.000000 0.316000 0.342000 1600 48 1.100000 1.529000 1.735000 600 54 1.000000 0.054000 0.054000 1.200000 0.094000 0.114000
1553831366369849297	1000 57 1.000000 0.306000 0.332000 1600 48 1.100000 2.199000 2.500000 600 55 1.000000 0.054000 0.054000 1.200000 0.082000 0.099000
1553831366875930672	1000 58 1.000000 0.212000 0.231000 1600 49 1.100000 2.361000 2.686000 600 54 1.000000 0.054000 0.054000 1.200000 0.087000 0.105000
1553831367382522755	1000 57 1.000000 0.312000 0.338000 1600 49 1.100000 2.222000 2.526000 600 55 1.000000 0.054000 0.054000 1.200000 0.073000 0.088000
1553831367888641630	1000 58 1.000000 0.304000 0.330000 1600 49 1.100000 1.930000 2.192000 600 54 1.000000 0.054000 0.054000 1.200000 0.084000 0.101000
1553831368394486963	1000 53 1.000000 0.284000 0.308000 1600 48 1.100000 2.247000 2.554000 600 54 1.000000 0.054000 0.054000 1.200000 0.094000 0.113000
1553831368900463880	1000 55 1.000000 0.312000 0.338000 1600 48 1.100000 1.726000 1.960000 600 54 1.000000 0.054000 0.054000 1.200000 0.077000 0.093000
1553831369406476839	1000 58 1.000000 0.290000 0.314000 1600 49 1.100000 1.947000 2.211000 600 54 1.000000 0.054000 0.054000 1.200000 0.097000 0.117000
1553831369912623589	1000 58 1.000000 0.273000 0.296000 1600 49 1.100000 2.191000 2.491000 600 55 1.000000 0.054000 0.054000 1.200000 0.080000 0.096000
1553831370418764755	1000 58 1.000000 0.295000 0.320000 1600 49 1.100000 2.202000 2.503000 600 55 1.000000 0.054000 0.054000 1.200000 0.082000 0.099000
1553831370925444172	1000 55 1.000000 0.296000 0.321000 1600 49 1.100000 2.222000 2.526000 600 55 1.000000 0.054000 0.054000 1.200000 0.080000 0.096000
1553831371431158880	1000 50 1.000000 0.311000 0.337000 1600 48 1.100000 1.742000 1.977000 600 53 1.000000 0.054000 0.054000 1.200000 0.073000 0.088000
1553831371937994422	1000 51 1.000000 0.309000 0.335000 1600 47 1.100000 0.650000 0.735000 600 53 1.000000 0.054000 0.054000 1.200000 0.076000 0.091000
1553831372444024089	1000 50 1.000000 0.307000 0.333000 1600 46 1.100000 1.535000 1.742000 600 51 1.000000 0.054000 0.054000 1.200000 0.081000 0.098000
1553831372949952339	1000 49 1.000000 0.310000 0.336000 1600 46 1.100000 1.221000 1.382000 600 51 1.000000 0.053000 0.053000 1.200000 0.071000 0.085000
1553831373455765464	1000 49 1.000000 0.221000 0.241000 1600 45 1.100000 0.785000 0.890000 600 50 1.000000 0.054000 0.054000 1.200000 0.046000 0.055000
1553831373961321506	1000 47 1.000000 0.201000 0.220000 1600 44 1.100000 0.769000 0.873000 600 49 1.000000 0.053000 0.053000 1.200000 0.046000 0.055000
1553831374467292423	1000 47 1.000000 0.220000 0.240000 1600 44 1.100000 0.857000 0.970000 600 48 1.000000 0.053000 0.053000 1.200000 0.059000 0.071000
1553831374973181089	1000 47 1.000000 0.251000 0.272000 1600 43 1.100000 0.645000 0.732000 600 48 1.000000 0.053000 0.053000 1.200000 0.051000 0.061000
1553831375478732423	1000 45 1.000000 0.258000 0.280000 1600 43 1.100000 0.564000 0.640000 600 47 1.000000 0.053000 0.053000 1.200000 0.050000 0.060000
1553831375984652006	1000 46 1.000000 0.264000 0.287000 1600 43 1.100000 0.773000 0.875000 600 47 1.000000 0.053000 0.053000 1.200000 0.055000 0.066000
1553831376490820214	1000 52 1.000000 0.299000 0.324000 1600 44 1.100000 1.594000 1.809000 600 50 1.000000 0.053000 0.053000 1.200000 0.062000 0.075000
1553831376996653173	1000 54 1.000000 0.266000 0.289000 1600 45 1.100000 2.099000 2.386000 600 50 1.000000 0.053000 0.053000 1.200000 0.097000 0.117000
1553831377502656006	1000 54 1.000000 0.308000 0.334000 1600 45 1.100000 1.540000 1.744000 600 50 1.000000 0.053000 0.053000 1.200000 0.067000 0.081000
1553831378009842673	1000 55 1.000000 0.304000 0.330000 1600 46 1.100000 2.183000 2.482000 600 51 1.000000 0.053000 0.053000 1.200000 0.085000 0.103000
1553831378515958798	1000 52 1.000000 0.312000 0.338000 1600 46 1.100000 2.226000 2.530000 600 52 1.000000 0.053000 0.053000 1.200000 0.085000 0.102000
1553831379022003381	1000 53 1.000000 0.285000 0.309000 1600 46 1.100000 1.920000 2.181000 600 52 1.000000 0.053000 0.053000 1.200000 0.082000 0.099000
1553831379527584423	1000 56 1.000000 0.290000 0.314000 1600 47 1.100000 2.028000 2.305000 600 52 1.000000 0.053000 0.053000 1.200000 0.071000 0.085000
1553831380032774340	1000 56 1.000000 0.294000 0.319000 1600 47 1.100000 2.205000 2.507000 600 52 1.000000 0.053000 0.053000 1.200000 0.078000 0.094000
1553831380538178715	1000 56 1.000000 0.311000 0.337000 1600 47 1.100000 1.688000 1.915000 600 52 1.000000 0.054000 0.054000 1.200000 0.074000 0.089000
1553831381043536882	1000 57 1.000000 0.310000 0.336000 1600 47 1.100000 1.914000 2.174000 600 53 1.000000 0.054000 0.054000 1.200000 0.075000 0.090000
1553831381548970173	1000 57 1.000000 0.267000 0.290000 1600 48 1.100000 2.183000 2.482000 600 53 1.000000 0.054000 0.054000 1.200000 0.084000 0.101000
1553831382057831257	1000 56 1.000000 0.296000 0.321000 1600 48 1.100000 1.975000 2.243000 600 53 1.000000 0.054000 0.054000 1.200000 0.081000 0.098000
1553831382563276423	1000 57 1.000000 0.266000 0.289000 1600 48 1.100000 2.273000 2.584000 600 54 1.000000 0.054000 0.054000 1.200000 0.094000 0.113000
1553831383068600549	1000 57 1.000000 0.293000 0.318000 1600 48 1.100000 2.278000 2.590000 600 54 1.000000 0.053000 0.053000 1.200000 0.077000 0.093000
1553831383574042507	1000 57 1.000000 0.278000 0.302000 1600 48 1.100000 2.068000 2.349000 600 55 1.000000 0.054000 0.054000 1.200000 0.076000 0.091000
1553831384079494382	1000 57 1.000000 0.289000 0.313000 1600 48 1.100000 2.196000 2.496000 600 54 1.000000 0.054000 0.054000 1.200000 0.084000 0.101000
1553831384585254632	1000 57 1.000000 0.289000 0.313000 1600 48 1.100000 2.017000 2.291000 600 54 1.000000 0.054000 0.054000 1.200000 0.081000 0.098000
1553831385091640174	1000 58 1.000000 0.290000 0.314000 1600 48 1.100000 2.013000 2.288000 600 54 1.000000 0.054000 0.054000 1.200000 0.080000 0.096000
1553831385597126924	1000 57 1.000000 0.269000 0.292000 1600 48 1.100000 2.258000 2.567000 600 54 1.000000 0.054000 0.054000 1.200000 0.108000 0.130000
1553831386102396591	1000 55 1.000000 0.288000 0.312000 1600 48 1.100000 2.197000 2.497000 600 54 1.000000 0.053000 0.053000 1.200000 0.075000 0.090000
1553831386609054257	1000 57 1.000000 0.290000 0.314000 1600 48 1.100000 1.871000 2.125000 600 54 1.000000 0.054000 0.054000 1.200000 0.072000 0.087000
1553831387117965466	1000 57 1.000000 0.293000 0.317000 1600 49 1.100000 2.408000 2.740000 600 54 1.000000 0.054000 0.054000 1.200000 0.092000 0.111000
1553831387624308382	1000 57 1.000000 0.310000 0.336000 1600 49 1.100000 1.906000 2.165000 600 54 1.000000 0.054000 0.054000 1.200000 0.079000 0.095000
1553831388129709924	1000 57 1.000000 0.261000 0.283000 1600 49 1.100000 2.263000 2.573000 600 54 1.000000 0.054000 0.054000 1.200000 0.080000 0.096000
1553831388635162174	1000 58 1.000000 0.273000 0.297000 1600 49 1.100000 2.192000 2.492000 600 54 1.000000 0.054000 0.054000 1.200000 0.071000 0.085000
1553831389140662758	1000 57 1.000000 0.306000 0.332000 1600 49 1.100000 2.384000 2.712000 600 55 1.000000 0.054000 0.054000 1.200000 0.093000 0.112000
1553831389646506341	1000 58 1.000000 0.253000 0.275000 1600 49 1.100000 2.261000 2.570000 600 55 1.000000 0.054000 0.054000 1.200000 0.082000 0.099000
1553831390152038674	1000 58 1.000000 0.289000 0.313000 1600 49 1.100000 2.107000 2.395000 600 54 1.000000 0.054000 0.054000 1.200000 0.072000 0.087000
1553831390659067174	1000 58 1.000000 0.309000 0.335000 1600 49 1.100000 1.731000 1.966000 600 54 1.000000 0.054000 0.054000 1.200000 0.081000 0.098000
1553831391165289508	1000 58 1.000000 0.295000 0.320000 1600 49 1.100000 2.256000 2.565000 600 55 1.000000 0.054000 0.054000 1.200000 0.101000 0.122000
1553831391672319591	1000 58 1.000000 0.312000 0.338000 1600 49 1.100000 2.312000 2.631000 600 54 1.000000 0.054000 0.054000 1.200000 0.075000 0.090000
1553831392178188466	1000 57 1.000000 0.301000 0.326000 1600 49 1.100000 2.001000 2.273000 600 54 1.000000 0.054000 0.054000 1.200000 0.081000 0.098000
1553831392683777383	1000 58 1.000000 0.284000 0.308000 1600 49 1.100000 1.996000 2.267000 600 54 1.000000 0.054000 0.054000 1.200000 0.095000 0.115000
1553831393189224466	1000 58 1.000000 0.308000 0.334000 1600 49 1.100000 2.203000 2.504000 600 55 1.000000 0.054000 0.054000 1.200000 0.083000 0.100000
1553831393694661300	1000 58 1.000000 0.282000 0.306000 1600 49 1.100000 2.227000 2.532000 600 55 1.000000 0.054000 0.054000 1.200000 0.093000 0.112000
1553831394200017467	1000 58 1.000000 0.283000 0.307000 1600 49 1.100000 2.210000 2.512000 600 55 1.000000 0.054000 0.054000 1.200000 0.072000 0.087000
1553831394705388133	1000 57 1.000000 0.298000 0.323000 1600 49 1.100000 1.914000 2.174000 600 54 1.000000 0.054000 0.054000 1.200000 0.071000 0.085000
1553831395210557592	1000 56 1.000000 0.301000 0.326000 1600 48 1.100000 1.411000 1.598000 600 54 1.000000 0.054000 0.054000 1.200000 0.079000 0.095000
1553831395716011383	1000 57 1.000000 0.311000 0.337000 1600 48 1.100000 1.647000 1.869000 600 53 1.000000 0.054000 0.054000 1.200000 0.071000 0.085000
1553831396221416467	1000 52 1.000000 0.289000 0.313000 1600 47 1.100000 1.540000 1.744000 600 52 1.000000 0.054000 0.054000 1.200000 0.066000 0.079000
1553831396726832009	1000 49 1.000000 0.312000 0.338000 1600 46 1.100000 0.874000 0.988000 600 51 1.000000 0.054000 0.054000 1.200000 0.062000 0.074000
1553831397235289717	1000 55 1.000000 0.310000 0.336000 1600 47 1.100000 0.905000 1.023000 600 53 1.000000 0.054000 0.054000 1.200000 0.067000 0.081000
1553831397746697550	1000 56 1.000000 0.305000 0.330000 1600 47 1.100000 2.401000 2.732000 600 53 1.000000 0.053000 0.053000 1.200000 0.108000 0.130000
1553831398256613634	1000 53 1.000000 0.264000 0.286000 1600 47 1.100000 2.105000 2.393000 600 53 1.000000 0.054000 0.054000 1.200000 0.068000 0.082000
1553831398763609425	1000 57 1.000000 0.307000 0.333000 1600 48 1.100000 1.922000 2.183000 600 54 1.000000 0.054000 0.054000 1.200000 0.093000 0.112000
1553831399269795009	1000 57 1.000000 0.251000 0.273000 1600 48 1.100000 2.241000 2.548000 600 55 1.000000 0.054000 0.054000 1.200000 0.073000 0.088000
1553831399776038551	1000 57 1.000000 0.308000 0.334000 1600 48 1.100000 2.185000 2.484000 600 54 1.000000 0.054000 0.054000 1.200000 0.082000 0.099000
1553831400282075092	1000 58 1.000000 0.248000 0.269000 1600 49 1.100000 2.294000 2.608000 600 54 1.000000 0.054000 0.054000 1.200000 0.092000 0.111000
1553831400788066676	1000 57 1.000000 0.309000 0.335000 1600 49 1.100000 2.200000 2.501000 600 54 1.000000 0.054000 0.054000 1.200000 0.074000 0.089000
1553831401294572092	1000 55 1.000000 0.309000 0.335000 1600 48 1.100000 2.065000 2.345000 600 54 1.000000 0.054000 0.054000 1.200000 0.075000 0.090000
1553831401800590217	1000 53 1.000000 0.307000 0.333000 1600 48 1.100000 2.354000 2.678000 600 54 1.000000 0.054000 0.054000 1.200000 0.104000 0.126000
1553831402306665634	1000 54 1.000000 0.288000 0.312000 1600 48 1.100000 1.708000 1.938000 600 54 1.000000 0.054000 0.054000 1.200000 0.072000 0.087000
1553831402813661551	1000 58 1.000000 0.294000 0.319000 1600 48 1.100000 1.869000 2.123000 600 54 1.000000 0.054000 0.054000 1.200000 0.083000 0.100000
1553831403319878509	1000 58 1.000000 0.294000 0.319000 1600 49 1.100000 2.233000 2.538000 600 55 1.000000 0.054000 0.054000 1.200000 0.102000 0.123000
1553831403825805593	1000 54 1.000000 0.290000 0.314000 1600 48 1.100000 2.283000 2.595000 600 55 1.000000 0.054000 0.054000 1.200000 0.087000 0.105000
1553831404331693968	1000 54 1.000000 0.292000 0.316000 1600 48 1.100000 1.860000 2.112000 600 54 1.000000 0.054000 0.054000 1.200000 0.072000 0.087000
1553831404838792759	1000 58 1.000000 0.278000 0.301000 1600 49 1.100000 1.988000 2.260000 600 54 1.000000 0.054000 0.054000 1.200000 0.099000 0.119000
1553831405344680010	1000 56 1.000000 0.268000 0.291000 1600 48 1.100000 1.819000 2.064000 600 54 1.000000 0.054000 0.054000 1.200000 0.074000 0.089000
1553831405850580301	1000 58 1.000000 0.297000 0.322000 1600 49 1.100000 1.959000 2.225000 600 56 1.000000 0.054000 0.054000 1.200000 0.079000 0.095000
1553831406358201593	1000 58 1.000000 0.272000 0.295000 1600 49 1.100000 2.225000 2.529000 600 55 1.000000 0.054000 0.054000 1.200000 0.073000 0.088000
1553831406864608926	1000 55 1.000000 0.295000 0.320000 1600 48 1.100000 2.039000 2.318000 600 54 1.000000 0.054000 0.054000 1.200000 0.082000 0.099000
1553831407371391676	1000 57 1.000000 0.290000 0.314000 1600 48 1.100000 1.930000 2.192000 600 55 1.000000 0.054000 0.054000 1.200000 0.074000 0.089000
1553831407884791135	1000 56 1.000000 0.284000 0.308000 1600 48 1.100000 2.246000 2.553000 600 56 1.000000 0.054000 0.054000 1.200000 0.084000 0.101000
1553831408393013718	1000 57 1.000000 0.299000 0.324000 1600 48 1.100000 1.856000 2.108000 600 54 1.000000 0.054000 0.054000 1.200000 0.074000 0.089000
1553831408899191677	1000 58 1.000000 0.272000 0.295000 1600 49 1.100000 2.085000 2.368000 600 54 1.000000 0.054000 0.054000 1.200000 0.103000 0.124000
1553831409404956885	1000 58 1.000000 0.295000 0.320000 1600 49 1.100000 2.194000 2.494000 600 55 1.000000 0.054000 0.054000 1.200000 0.075000 0.090000
1553831409911127677	1000 55 1.000000 0.285000 0.309000 1600 49 1.100000 2.278000 2.590000 600 55 1.000000 0.054000 0.054000 1.200000 0.079000 0.095000
1553831410418318885	1000 58 1.000000 0.310000 0.336000 1600 49 1.100000 1.967000 2.234000 600 55 1.000000 0.054000 0.054000 1.200000 0.083000 0.100000
1553831410926102802	1000 58 1.000000 0.310000 0.336000 1600 49 1.100000 2.288000 2.601000 600 55 1.000000 0.054000 0.054000 1.200000 0.100000 0.121000
1553831411433489635	1000 58 1.000000 0.297000 0.322000 1600 49 1.100000 2.262000 2.574000 600 57 1.000000 0.054000 0.054000 1.200000 0.085000 0.102000
1553831411939841260	1000 59 1.000000 0.308000 0.334000 1600 49 1.100000 2.333000 2.654000 600 55 1.000000 0.054000 0.054000 1.200000 0.093000 0.112000
1553831412445848219	1000 59 1.000000 0.313000 0.339000 1600 50 1.100000 2.368000 2.694000 600 56 1.000000 0.054000 0.054000 1.200000 0.092000 0.111000
1553831412951739385	1000 59 1.000000 0.233000 0.254000 1600 49 1.100000 2.239000 2.545000 600 55 1.000000 0.055000 0.055000 1.200000 0.065000 0.078000
1553831413461609594	1000 58 1.000000 0.293000 0.318000 1600 49 1.100000 2.186000 2.485000 600 57 1.000000 0.054000 0.054000 1.200000 0.075000 0.090000
1553831413968470219	1000 59 1.000000 0.259000 0.281000 1600 49 1.100000 2.113000 2.402000 600 55 1.000000 0.054000 0.054000 1.200000 0.084000 0.101000
1553831414474442969	1000 55 1.000000 0.323000 0.350000 1600 49 1.100000 2.039000 2.318000 600 55 1.000000 0.054000 0.054000 1.200000 0.083000 0.100000
1553831414980335469	1000 53 1.000000 0.312000 0.338000 1600 48 1.100000 0.991000 1.120000 600 53 1.000000 0.054000 0.054000 1.200000 0.060000 0.072000
1553831415486575177	1000 49 1.000000 0.278000 0.302000 1600 47 1.100000 0.644000 0.729000 600 51 1.000000 0.054000 0.054000 1.200000 0.059000 0.071000
1553831415993892219	1000 50 1.000000 0.271000 0.294000 1600 46 1.100000 0.796000 0.901000 600 51 1.000000 0.054000 0.054000 1.200000 0.054000 0.065000
1553831416499485428	1000 52 1.000000 0.287000 0.311000 1600 47 1.100000 1.708000 1.940000 600 53 1.000000 0.054000 0.054000 1.200000 0.058000 0.070000
1553831417004752178	1000 51 1.000000 0.249000 0.270000 1600 46 1.100000 1.592000 1.806000 600 52 1.000000 0.054000 0.054000 1.200000 0.093000 0.112000
1553831417510104803	1000 52 1.000000 0.305000 0.331000 1600 46 1.100000 1.660000 1.884000 600 52 1.000000 0.054000 0.054000 1.200000 0.067000 0.080000
1553831418015659344	1000 56 1.000000 0.284000 0.308000 1600 47 1.100000 2.048000 2.328000 600 53 1.000000 0.053000 0.053000 1.200000 0.071000 0.085000
1553831418521178553	1000 52 1.000000 0.221000 0.241000 1600 47 1.100000 2.181000 2.479000 600 54 1.000000 0.054000 0.054000 1.200000 0.088000 0.106000
1553831419030747886	1000 54 1.000000 0.296000 0.321000 1600 47 1.100000 1.949000 2.214000 600 53 1.000000 0.053000 0.053000 1.200000 0.083000 0.100000
1553831419537111761	1000 57 1.000000 0.274000 0.297000 1600 48 1.100000 2.259000 2.570000 600 54 1.000000 0.054000 0.054000 1.200000 0.095000 0.115000
1553831420042361511	1000 57 1.000000 0.298000 0.323000 1600 48 1.100000 2.144000 2.437000 600 54 1.000000 0.054000 0.054000 1.200000 0.079000 0.095000
1553831420547785553	1000 57 1.000000 0.310000 0.336000 1600 48 1.100000 1.724000 1.956000 600 53 1.000000 0.053000 0.053000 1.200000 0.073000 0.088000
1553831421053143761	1000 58 1.000000 0.310000 0.336000 1600 48 1.100000 2.233000 2.538000 600 54 1.000000 0.054000 0.054000 1.200000 0.098000 0.118000
1553831421558418178	1000 57 1.000000 0.300000 0.325000 1600 48 1.100000 1.870000 2.124000 600 54 1.000000 0.054000 0.054000 1.200000 0.098000 0.118000
1553831422063889303	1000 56 1.000000 0.295000 0.320000 1600 48 1.100000 1.734000 1.969000 600 54 1.000000 0.054000 0.054000 1.200000 0.075000 0.090000
1553831422569465678	1000 57 1.000000 0.298000 0.323000 1600 48 1.100000 2.188000 2.487000 600 54 1.000000 0.054000 0.054000 1.200000 0.083000 0.100000
1553831423074919137	1000 58 1.000000 0.288000 0.312000 1600 49 1.100000 2.329000 2.650000 600 54 1.000000 0.054000 0.054000 1.200000 0.077000 0.093000
1553831423580305053	1000 57 1.000000 0.308000 0.334000 1600 49 1.100000 1.971000 2.239000 600 54 1.000000 0.054000 0.054000 1.200000 0.080000 0.096000
1553831424085826012	1000 57 1.000000 0.309000 0.335000 1600 49 1.100000 2.060000 2.342000 600 55 1.000000 0.054000 0.054000 1.200000 0.077000 0.093000
1553831424592027637	1000 58 1.000000 0.291000 0.315000 1600 49 1.100000 2.146000 2.440000 600 54 1.000000 0.054000 0.054000 1.200000 0.101000 0.122000
1553831425097882304	1000 57 1.000000 0.283000 0.307000 1600 49 1.100000 1.828000 2.076000 600 54 1.000000 0.054000 0.054000 1.200000 0.083000 0.100000
1553831425603873054	1000 56 1.000000 0.310000 0.336000 1600 48 1.100000 1.588000 1.802000 600 53 1.000000 0.054000 0.054000 1.200000 0.071000 0.085000
1553831426109452345	1000 52 1.000000 0.310000 0.336000 1600 48 1.100000 1.542000 1.747000 600 52 1.000000 0.054000 0.054000 1.200000 0.085000 0.102000
1553831426615096304	1000 49 1.000000 0.282000 0.306000 1600 47 1.100000 0.930000 1.052000 600 51 1.000000 0.054000 0.054000 1.200000 0.065000 0.078000
1553831427121181137	1000 56 1.000000 0.241000 0.262000 1600 47 1.100000 2.332000 2.651000 600 53 1.000000 0.053000 0.053000 1.200000 0.067000 0.081000
1553831427626800929	1000 51 1.000000 0.263000 0.286000 1600 47 1.100000 1.314000 1.492000 600 52 1.000000 0.053000 0.053000 1.200000 0.070000 0.084000
1553831428132662221	1000 49 1.000000 0.314000 0.341000 1600 46 1.100000 0.938000 1.060000 600 50 1.000000 0.053000 0.053000 1.200000 0.063000 0.076000
1553831428638272471	1000 47 1.000000 0.314000 0.340000 1600 45 1.100000 0.765000 0.865000 600 49 1.000000 0.054000 0.054000 1.200000 0.063000 0.076000
1553831429143853471	1000 47 1.000000 0.250000 0.271000 1600 44 1.100000 0.487000 0.552000 600 51 1.000000 0.053000 0.053000 1.200000 0.050000 0.060000
1553831429649937721	1000 47 1.000000 0.264000 0.286000 1600 44 1.100000 0.932000 1.055000 600 48 1.000000 0.053000 0.053000 1.200000 0.060000 0.072000
1553831430155523679	1000 53 1.000000 0.261000 0.283000 1600 45 1.100000 0.648000 0.733000 600 51 1.000000 0.053000 0.053000 1.200000 0.072000 0.087000
1553831430660646679	1000 55 1.000000 0.266000 0.289000 1600 46 1.100000 2.230000 2.535000 600 51 1.000000 0.054000 0.054000 1.200000 0.084000 0.101000
1553831431176356721	1000 54 1.000000 0.275000 0.298000 1600 46 1.100000 1.683000 1.911000 600 52 1.000000 0.054000 0.054000 1.200000 0.067000 0.081000
1553831431683507638	1000 56 1.000000 0.290000 0.315000 1600 47 1.100000 2.335000 2.657000 600 52 1.000000 0.053000 0.053000 1.200000 0.096000 0.116000
1553831432188889596	1000 56 1.000000 0.258000 0.280000 1600 47 1.100000 2.269000 2.579000 600 53 1.000000 0.053000 0.053000 1.200000 0.077000 0.093000
1553831432694180471	1000 56 1.000000 0.293000 0.318000 1600 48 1.100000 2.190000 2.490000 600 53 1.000000 0.054000 0.054000 1.200000 0.077000 0.093000
1553831433199412096	1000 56 1.000000 0.290000 0.314000 1600 47 1.100000 1.637000 1.857000 600 52 1.000000 0.054000 0.054000 1.200000 0.067000 0.081000
1553831433705702346	1000 51 1.000000 0.288000 0.312000 1600 46 1.100000 1.511000 1.711000 600 51 1.000000 0.053000 0.053000 1.200000 0.074000 0.089000
1553831434211127805	1000 52 1.000000 0.284000 0.308000 1600 46 1.100000 1.192000 1.349000 600 51 1.000000 0.053000 0.053000 1.200000 0.069000 0.083000
1553831434716191013	1000 47 1.000000 0.293000 0.318000 1600 45 1.100000 1.016000 1.150000 600 49 1.000000 0.054000 0.054000 1.200000 0.066000 0.079000
1553831435221328555	1000 49 1.000000 0.254000 0.276000 1600 44 1.100000 0.597000 0.677000 600 49 1.000000 0.054000 0.054000 1.200000 0.053000 0.064000
1553831435726415721	1000 48 1.000000 0.252000 0.274000 1600 44 1.100000 0.931000 1.054000 600 49 1.000000 0.053000 0.053000 1.200000 0.056000 0.067000
1553831436231601805	1000 46 1.000000 0.261000 0.283000 1600 44 1.100000 0.738000 0.836000 600 48 1.000000 0.053000 0.053000 1.200000 0.055000 0.066000
1553831436736603513	1000 45 1.000000 0.254000 0.276000 1600 43 1.100000 0.561000 0.636000 600 47 1.000000 0.053000 0.053000 1.200000 0.051000 0.061000
1553831437241643763	1000 45 1.000000 0.255000 0.277000 1600 43 1.100000 0.712000 0.808000 600 47 1.000000 0.053000 0.053000 1.200000 0.051000 0.061000
1553831437746936138	1000 49 1.000000 0.267000 0.290000 1600 43 1.100000 0.759000 0.859000 600 48 1.000000 0.053000 0.053000 1.200000 0.056000 0.067000
1553831438252421305	1000 52 1.000000 0.313000 0.339000 1600 44 1.100000 2.239000 2.545000 600 49 1.000000 0.053000 0.053000 1.200000 0.075000 0.090000
1553831438757473639	1000 53 1.000000 0.248000 0.270000 1600 45 1.100000 1.631000 1.851000 600 49 1.000000 0.053000 0.053000 1.200000 0.059000 0.071000
1553831439262499889	1000 49 1.000000 0.303000 0.329000 1600 44 1.100000 1.508000 1.708000 600 49 1.000000 0.053000 0.053000 1.200000 0.070000 0.084000
1553831439767956889	1000 51 1.000000 0.308000 0.334000 1600 45 1.100000 2.057000 2.336000 600 51 1.000000 0.053000 0.053000 1.200000 0.084000 0.101000
1553831440273447472	1000 54 1.000000 0.307000 0.333000 1600 45 1.100000 1.710000 1.940000 600 51 1.000000 0.053000 0.053000 1.200000 0.073000 0.088000
1553831440778626889	1000 51 1.000000 0.302000 0.327000 1600 46 1.100000 1.895000 2.152000 600 51 1.000000 0.053000 0.053000 1.200000 0.074000 0.089000
1553831441283955889	1000 51 1.000000 0.306000 0.332000 1600 45 1.100000 1.651000 1.873000 600 50 1.000000 0.053000 0.053000 1.200000 0.071000 0.085000
1553831441788960514	1000 48 1.000000 0.309000 0.335000 1600 45 1.100000 1.055000 1.193000 600 51 1.000000 0.053000 0.053000 1.200000 0.072000 0.087000
1553831442293971306	1000 48 1.000000 0.288000 0.312000 1600 44 1.100000 1.123000 1.272000 600 49 1.000000 0.053000 0.053000 1.200000 0.075000 0.090000
1553831442798904056	1000 47 1.000000 0.270000 0.293000 1600 44 1.100000 0.969000 1.095000 600 48 1.000000 0.053000 0.053000 1.200000 0.065000 0.078000
1553831443304329681	1000 47 1.000000 0.251000 0.273000 1600 43 1.100000 0.705000 0.800000 600 48 1.000000 0.053000 0.053000 1.200000 0.051000 0.061000
1553831443809637264	1000 46 1.000000 0.261000 0.283000 1600 43 1.100000 0.799000 0.905000 600 48 1.000000 0.053000 0.053000 1.200000 0.057000 0.068000
1553831444314786973	1000 45 1.000000 0.280000 0.304000 1600 43 1.100000 0.965000 1.093000 600 47 1.000000 0.053000 0.053000 1.200000 0.061000 0.073000
1553831444819836306	1000 44 1.000000 0.249000 0.270000 1600 43 1.100000 0.623000 0.707000 600 47 1.000000 0.053000 0.053000 1.200000 0.049000 0.059000
1553831445324900598	1000 45 1.000000 0.256000 0.278000 1600 42 1.100000 0.691000 0.784000 600 47 1.000000 0.053000 0.053000 1.200000 0.057000 0.068000
1553831445829936806	1000 50 1.000000 0.277000 0.301000 1600 43 1.100000 0.636000 0.721000 600 47 1.000000 0.053000 0.053000 1.200000 0.061000 0.073000
1553831446335380723	1000 52 1.000000 0.310000 0.336000 1600 44 1.100000 1.660000 1.884000 600 48 1.000000 0.053000 0.053000 1.200000 0.073000 0.088000
1553831446840826889	1000 52 1.000000 0.290000 0.314000 1600 45 1.100000 1.884000 2.140000 600 49 1.000000 0.053000 0.053000 1.200000 0.071000 0.085000
1553831447346114431	1000 48 1.000000 0.311000 0.337000 1600 44 1.100000 1.303000 1.476000 600 48 1.000000 0.053000 0.053000 1.200000 0.066000 0.079000
1553831447851491223	1000 53 1.000000 0.310000 0.336000 1600 45 1.100000 1.135000 1.284000 600 49 1.000000 0.053000 0.053000 1.200000 0.071000 0.085000
1553831448356873515	1000 51 1.000000 0.300000 0.325000 1600 45 1.100000 1.930000 2.194000 600 51 1.000000 0.053000 0.053000 1.200000 0.083000 0.100000
1553831448862268306	1000 54 1.000000 0.308000 0.334000 1600 46 1.100000 1.823000 2.069000 600 51 1.000000 0.053000 0.053000 1.200000 0.070000 0.084000
1553831449367655015	1000 55 1.000000 0.313000 0.339000 1600 46 1.100000 2.172000 2.469000 600 51 1.000000 0.053000 0.053000 1.200000 0.075000 0.090000
1553831449872835807	1000 56 1.000000 0.302000 0.327000 1600 47 1.100000 2.170000 2.467000 600 52 1.000000 0.054000 0.054000 1.200000 0.079000 0.095000
1553831450378070765	1000 55 1.000000 0.310000 0.336000 1600 47 1.100000 1.964000 2.231000 600 52 1.000000 0.054000 0.054000 1.200000 0.083000 0.100000
1553831450883490057	1000 53 1.000000 0.311000 0.337000 1600 47 1.100000 2.060000 2.342000 600 52 1.000000 0.054000 0.054000 1.200000 0.079000 0.095000
1553831451388579640	1000 48 1.000000 0.310000 0.336000 1600 46 1.100000 1.031000 1.166000 600 50 1.000000 0.054000 0.054000 1.200000 0.064000 0.077000
1553831451893865182	1000 48 1.000000 0.283000 0.307000 1600 45 1.100000 0.917000 1.038000 600 49 1.000000 0.053000 0.053000 1.200000 0.060000 0.072000
1553831452398931973	1000 48 1.000000 0.243000 0.265000 1600 44 1.100000 0.808000 0.917000 600 50 1.000000 0.053000 0.053000 1.200000 0.058000 0.070000
1553831452904134724	1000 46 1.000000 0.223000 0.243000 1600 43 1.100000 0.927000 1.050000 600 48 1.000000 0.053000 0.053000 1.200000 0.052000 0.062000
1553831453409314682	1000 45 1.000000 0.258000 0.280000 1600 43 1.100000 0.560000 0.636000 600 47 1.000000 0.053000 0.053000 1.200000 0.050000 0.060000
1553831453914433349	1000 44 1.000000 0.250000 0.272000 1600 42 1.100000 0.515000 0.584000 600 47 1.000000 0.053000 0.053000 1.200000 0.051000 0.061000
1553831454419257265	1000 45 1.000000 0.256000 0.279000 1600 42 1.100000 0.759000 0.859000 600 48 1.000000 0.053000 0.053000 1.200000 0.052000 0.062000
1553831454924685182	1000 51 1.000000 0.265000 0.288000 1600 43 1.100000 1.096000 1.241000 600 48 1.000000 0.053000 0.053000 1.200000 0.061000 0.073000
1553831455429895140	1000 52 1.000000 0.276000 0.299000 1600 44 1.100000 1.654000 1.877000 600 49 1.000000 0.053000 0.053000 1.200000 0.076000 0.092000
1553831455935387224	1000 51 1.000000 0.269000 0.292000 1600 44 1.100000 1.721000 1.953000 600 49 1.000000 0.053000 0.053000 1.200000 0.064000 0.077000
1553831456440814349	1000 54 1.000000 0.310000 0.336000 1600 45 1.100000 2.168000 2.465000 600 50 1.000000 0.053000 0.053000 1.200000 0.077000 0.093000
1553831456946097432	1000 50 1.000000 0.307000 0.333000 1600 45 1.100000 1.473000 1.668000 600 50 1.000000 0.053000 0.053000 1.200000 0.080000 0.096000
1553831457451138432	1000 47 1.000000 0.310000 0.336000 1600 44 1.100000 0.863000 0.975000 600 49 1.000000 0.053000 0.053000 1.200000 0.063000 0.076000
1553831457956083641	1000 45 1.000000 0.226000 0.246000 1600 43 1.100000 0.657000 0.744000 600 48 1.000000 0.053000 0.053000 1.200000 0.064000 0.077000
1553831458462221808	1000 47 1.000000 0.140000 0.153000 1600 42 1.100000 0.621000 0.705000 600 48 1.000000 0.053000 0.053000 1.200000 0.050000 0.060000
1553831458967691016	1000 43 1.100000 0.061000 0.067000 1600 41 1.100000 0.976000 1.104000 600 46 1.000000 0.053000 0.053000 1.200000 0.052000 0.062000
1553831459472756474	1000 41 1.100000 0.049000 0.053000 1600 41 1.100000 0.232000 0.264000 600 45 1.000000 0.053000 0.053000 1.200000 0.023000 0.027000
