#Timestamp	CPU(0) Frequency(MHz)	CPU(0) Temperature(C)	A7 Voltage(V)	A7 Current(A)	A7 Power(W)	CPU(4) Frequency(MHz)	CPU(4) Temperature(C)	A15 Voltage(V)	A15 Current(A)	A15 Power(W)	GPU Frequency(MHz)	GPU Temperature(C)	GPU Voltage(V)	GPU Current(A)	GPU Power(W)	RAM Voltage(V)	RAM Current(A)	RAM Power(W)
1517156260517555347	1100 36 1.000000 0.045000 0.049000 300 34 0.900000 0.246000 0.224000 600 39 1.000000 0.051000 0.051000 1.200000 0.043000 0.051000
1517156261038680805	1100 37 1.100000 0.556000 0.622000 300 36 0.900000 0.242000 0.220000 600 39 1.000000 0.051000 0.051000 1.200000 0.025000 0.030000
1517156261559438763	1100 38 1.100000 0.563000 0.630000 300 36 0.900000 0.245000 0.223000 600 39 1.000000 0.051000 0.051000 1.200000 0.026000 0.031000
1517156262080174138	1100 38 1.100000 0.563000 0.630000 300 36 0.900000 0.245000 0.223000 600 39 1.000000 0.051000 0.051000 1.200000 0.026000 0.031000
1517156262600682805	1100 38 1.100000 0.564000 0.630000 300 37 0.900000 0.245000 0.223000 600 39 1.000000 0.051000 0.051000 1.200000 0.025000 0.030000
1517156263121194514	1100 38 1.100000 0.564000 0.630000 300 37 0.900000 0.247000 0.225000 600 39 1.000000 0.051000 0.051000 1.200000 0.025000 0.030000
1517156263643391389	1100 38 1.100000 0.564000 0.630000 300 37 0.900000 0.243000 0.221000 600 40 1.000000 0.051000 0.051000 1.200000 0.025000 0.030000
1517156264164513680	1100 39 1.100000 0.558000 0.623000 300 37 0.900000 0.317000 0.288000 600 39 1.000000 0.051000 0.051000 1.200000 0.029000 0.035000
1517156264685167930	1100 39 1.100000 0.564000 0.630000 300 37 0.900000 0.242000 0.220000 600 39 1.000000 0.051000 0.051000 1.200000 0.026000 0.031000
1517156265205819722	1100 39 1.100000 0.564000 0.630000 300 37 0.900000 0.245000 0.223000 600 39 1.000000 0.051000 0.051000 1.200000 0.025000 0.030000
1517156265726440097	1100 39 1.100000 0.563000 0.629000 300 37 0.900000 0.246000 0.224000 600 39 1.000000 0.051000 0.051000 1.200000 0.026000 0.031000
1517156266247048639	1100 39 1.100000 0.563000 0.629000 300 37 0.900000 0.243000 0.221000 600 39 1.000000 0.051000 0.051000 1.200000 0.026000 0.031000
1517156266768061306	1100 39 1.100000 0.563000 0.629000 300 37 0.900000 0.246000 0.224000 600 39 1.000000 0.051000 0.051000 1.200000 0.026000 0.031000
1517156267292216056	1100 39 1.100000 0.561000 0.627000 300 37 0.900000 0.333000 0.303000 600 40 1.000000 0.051000 0.051000 1.200000 0.027000 0.032000
1517156267812958639	1100 39 1.100000 0.563000 0.629000 300 37 0.900000 0.244000 0.222000 600 39 1.000000 0.051000 0.051000 1.200000 0.029000 0.035000
1517156268333785306	1100 39 1.100000 0.564000 0.630000 300 37 0.900000 0.245000 0.223000 600 39 1.000000 0.051000 0.051000 1.200000 0.026000 0.031000
1517156268854410473	1100 39 1.100000 0.564000 0.630000 300 37 0.900000 0.247000 0.225000 600 39 1.000000 0.051000 0.051000 1.200000 0.026000 0.031000
1517156269375149056	1100 39 1.100000 0.563000 0.629000 300 37 0.900000 0.255000 0.232000 600 40 1.000000 0.051000 0.051000 1.200000 0.026000 0.031000
1517156269895595639	1100 39 1.100000 0.563000 0.629000 300 37 0.900000 0.254000 0.231000 600 39 1.000000 0.051000 0.051000 1.200000 0.026000 0.031000
1517156270419585264	1100 39 1.100000 0.563000 0.629000 300 37 0.900000 0.247000 0.225000 600 40 1.000000 0.051000 0.051000 1.200000 0.026000 0.031000
1517156270940698181	1100 39 1.100000 0.556000 0.621000 300 37 0.900000 0.334000 0.304000 600 39 1.000000 0.051000 0.051000 1.200000 0.028000 0.033000
1517156271461253681	1100 39 1.100000 0.563000 0.629000 300 37 0.900000 0.295000 0.268000 600 39 1.000000 0.051000 0.051000 1.200000 0.027000 0.032000
1517156271982003473	1100 39 1.100000 0.564000 0.630000 300 37 0.900000 0.253000 0.230000 600 39 1.000000 0.051000 0.051000 1.200000 0.026000 0.031000
1517156272502678681	1100 39 1.100000 0.563000 0.629000 300 37 0.900000 0.247000 0.225000 600 39 1.000000 0.051000 0.051000 1.200000 0.026000 0.031000
1517156273022986223	1100 39 1.100000 0.564000 0.630000 300 37 0.900000 0.254000 0.231000 600 39 1.000000 0.051000 0.051000 1.200000 0.026000 0.031000
1517156273543724931	1100 39 1.100000 0.564000 0.630000 300 37 0.900000 0.249000 0.226000 600 39 1.000000 0.051000 0.051000 1.200000 0.026000 0.031000
1517156274068545640	1100 39 1.100000 0.563000 0.629000 300 37 0.900000 0.249000 0.226000 600 40 1.000000 0.051000 0.051000 1.200000 0.027000 0.032000
1517156274591372390	1100 39 1.100000 0.556000 0.622000 300 37 0.900000 0.346000 0.314000 600 39 1.000000 0.051000 0.051000 1.200000 0.033000 0.039000
1517156275112064807	1100 39 1.100000 0.563000 0.629000 300 37 0.900000 0.251000 0.228000 600 39 1.000000 0.051000 0.051000 1.200000 0.026000 0.031000
1517156275632261765	1100 37 1.100000 0.563000 0.629000 300 36 0.900000 0.256000 0.233000 600 39 1.000000 0.051000 0.051000 1.200000 0.026000 0.031000
1517156276152353098	1100 36 1.100000 0.053000 0.060000 300 35 0.900000 0.078000 0.071000 600 39 1.000000 0.051000 0.051000 1.200000 0.023000 0.027000
