#Timestamp	CPU(0) Frequency(MHz)	CPU(0) Temperature(C)	A7 Voltage(V)	A7 Current(A)	A7 Power(W)	CPU(4) Frequency(MHz)	CPU(4) Temperature(C)	A15 Voltage(V)	A15 Current(A)	A15 Power(W)	GPU Frequency(MHz)	GPU Temperature(C)	GPU Voltage(V)	GPU Current(A)	GPU Power(W)	RAM Voltage(V)	RAM Current(A)	RAM Power(W)
1559801818696404177	300 32 0.900000 0.036000 0.032000 1700 31 1.100000 0.291000 0.339000 600 36 1.000000 0.050000 0.050000 1.200000 0.038000 0.045000
1559801819205599260	300 39 0.900000 0.017000 0.015000 1700 32 1.100000 1.010000 1.181000 600 37 1.000000 0.050000 0.050000 1.200000 0.060000 0.072000
1559801819714433260	300 40 0.900000 0.015000 0.013000 1700 33 1.100000 1.171000 1.371000 600 38 1.000000 0.050000 0.050000 1.200000 0.058000 0.070000
1559801820235700843	300 42 0.900000 0.015000 0.013000 1700 34 1.100000 1.165000 1.364000 600 38 1.000000 0.051000 0.051000 1.200000 0.042000 0.050000
1559801820747096885	300 42 0.900000 0.027000 0.024000 1700 34 1.100000 1.161000 1.358000 600 38 1.000000 0.051000 0.051000 1.200000 0.042000 0.050000
1559801821255808302	300 43 0.900000 0.015000 0.013000 1700 34 1.100000 1.171000 1.371000 600 38 1.000000 0.051000 0.051000 1.200000 0.032000 0.038000
1559801821765130052	300 43 0.900000 0.017000 0.015000 1700 34 1.100000 1.183000 1.385000 600 38 1.000000 0.051000 0.051000 1.200000 0.029000 0.035000
1559801822273822052	300 43 0.900000 0.015000 0.013000 1700 35 1.100000 1.168000 1.367000 600 38 1.000000 0.051000 0.051000 1.200000 0.030000 0.036000
1559801822782493010	300 43 0.900000 0.018000 0.016000 1700 35 1.100000 1.234000 1.445000 600 39 1.000000 0.051000 0.051000 1.200000 0.030000 0.036000
1559801823291024552	300 43 0.900000 0.015000 0.013000 1700 35 1.100000 1.173000 1.373000 600 39 1.000000 0.051000 0.051000 1.200000 0.035000 0.042000
1559801823799883177	300 43 0.900000 0.017000 0.015000 1700 35 1.100000 1.183000 1.385000 600 39 1.000000 0.051000 0.051000 1.200000 0.032000 0.038000
1559801824308491052	300 43 0.900000 0.015000 0.013000 1700 35 1.100000 1.162000 1.360000 600 39 1.000000 0.051000 0.051000 1.200000 0.032000 0.038000
1559801824817022552	300 43 0.900000 0.015000 0.013000 1700 35 1.100000 1.180000 1.381000 600 39 1.000000 0.051000 0.051000 1.200000 0.031000 0.037000
1559801825325786552	300 44 0.900000 0.020000 0.018000 1700 35 1.100000 1.249000 1.462000 600 39 1.000000 0.051000 0.051000 1.200000 0.047000 0.056000
1559801825834769636	300 44 0.900000 0.017000 0.015000 1700 35 1.100000 1.152000 1.348000 600 39 1.000000 0.051000 0.051000 1.200000 0.029000 0.035000
1559801826343560219	300 44 0.900000 0.027000 0.024000 1700 35 1.100000 1.154000 1.351000 600 39 1.000000 0.051000 0.051000 1.200000 0.034000 0.041000
1559801826852322344	300 44 0.900000 0.015000 0.013000 1700 35 1.100000 1.152000 1.348000 600 39 1.000000 0.051000 0.051000 1.200000 0.031000 0.037000
1559801827361074261	300 44 0.900000 0.022000 0.020000 1700 35 1.100000 1.324000 1.550000 600 39 1.000000 0.051000 0.051000 1.200000 0.039000 0.047000
1559801827881174011	300 44 0.900000 0.015000 0.013000 1700 35 1.100000 1.151000 1.347000 600 39 1.000000 0.051000 0.051000 1.200000 0.030000 0.036000
1559801828391983178	300 44 0.900000 0.027000 0.024000 1700 36 1.100000 1.158000 1.356000 600 39 1.000000 0.051000 0.051000 1.200000 0.037000 0.044000
1559801828900684678	300 44 0.900000 0.015000 0.013000 1700 36 1.100000 1.155000 1.352000 600 39 1.000000 0.051000 0.051000 1.200000 0.028000 0.033000
1559801829422794053	300 44 0.900000 0.015000 0.013000 1700 35 1.100000 1.164000 1.363000 600 39 1.000000 0.051000 0.051000 1.200000 0.032000 0.038000
1559801829934772928	300 44 0.900000 0.036000 0.032000 1700 36 1.100000 1.306000 1.529000 600 39 1.000000 0.051000 0.051000 1.200000 0.045000 0.054000
1559801830443591928	300 44 0.900000 0.018000 0.016000 1700 36 1.100000 1.188000 1.391000 600 39 1.000000 0.051000 0.051000 1.200000 0.029000 0.035000
1559801830952300095	300 44 0.900000 0.015000 0.013000 1700 36 1.100000 1.159000 1.357000 600 39 1.000000 0.051000 0.051000 1.200000 0.030000 0.036000
1559801831460796011	300 44 0.900000 0.015000 0.013000 1700 36 1.100000 1.174000 1.374000 600 39 1.000000 0.051000 0.051000 1.200000 0.030000 0.036000
1559801831969415053	300 44 0.900000 0.028000 0.025000 1700 36 1.100000 1.275000 1.493000 600 40 1.000000 0.051000 0.051000 1.200000 0.034000 0.041000
1559801832478003845	300 44 0.900000 0.018000 0.016000 1700 36 1.100000 1.156000 1.353000 600 39 1.000000 0.051000 0.051000 1.200000 0.033000 0.039000
1559801832986705178	300 44 0.900000 0.027000 0.024000 1700 36 1.100000 1.150000 1.345000 600 39 1.000000 0.051000 0.051000 1.200000 0.032000 0.038000
1559801833495049803	300 44 0.900000 0.015000 0.013000 1700 36 1.100000 1.154000 1.350000 600 39 1.000000 0.051000 0.051000 1.200000 0.029000 0.035000
1559801834016971720	300 44 0.900000 0.015000 0.013000 1700 36 1.100000 1.153000 1.350000 600 40 1.000000 0.051000 0.051000 1.200000 0.030000 0.036000
1559801834527863678	300 44 0.900000 0.037000 0.033000 1700 36 1.100000 1.203000 1.408000 600 40 1.000000 0.051000 0.051000 1.200000 0.047000 0.056000
1559801835036523512	300 44 0.900000 0.027000 0.024000 1700 36 1.100000 1.152000 1.348000 600 39 1.000000 0.051000 0.051000 1.200000 0.037000 0.044000
1559801835545121970	300 44 0.900000 0.015000 0.013000 1700 36 1.100000 1.152000 1.348000 600 39 1.000000 0.051000 0.051000 1.200000 0.030000 0.036000
1559801836053589012	300 44 0.900000 0.015000 0.013000 1700 36 1.100000 1.158000 1.356000 600 39 1.000000 0.051000 0.051000 1.200000 0.030000 0.036000
1559801836562273137	300 44 0.900000 0.028000 0.025000 1700 36 1.100000 1.268000 1.484000 600 40 1.000000 0.051000 0.051000 1.200000 0.038000 0.045000
1559801837071228012	300 44 0.900000 0.032000 0.029000 1700 36 1.100000 1.230000 1.440000 600 40 1.000000 0.051000 0.051000 1.200000 0.045000 0.054000
1559801837579956054	300 44 0.900000 0.015000 0.013000 1700 36 1.100000 1.164000 1.363000 600 40 1.000000 0.051000 0.051000 1.200000 0.030000 0.036000
1559801838088558887	300 44 0.900000 0.015000 0.013000 1700 36 1.100000 1.152000 1.348000 600 40 1.000000 0.051000 0.051000 1.200000 0.030000 0.036000
1559801838596950346	300 44 0.900000 0.015000 0.013000 1700 36 1.100000 1.156000 1.353000 600 39 1.000000 0.051000 0.051000 1.200000 0.030000 0.036000
1559801839105595804	300 44 0.900000 0.017000 0.015000 1700 36 1.100000 1.278000 1.496000 600 40 1.000000 0.051000 0.051000 1.200000 0.040000 0.048000
1559801839614227971	300 44 0.900000 0.033000 0.030000 1700 36 1.100000 1.209000 1.415000 600 39 1.000000 0.051000 0.051000 1.200000 0.031000 0.037000
1559801840122809054	300 44 0.900000 0.015000 0.013000 1700 36 1.100000 1.179000 1.380000 600 39 1.000000 0.051000 0.051000 1.200000 0.030000 0.036000
1559801840631623804	300 44 0.900000 0.015000 0.013000 1700 36 1.100000 1.162000 1.360000 600 40 1.000000 0.051000 0.051000 1.200000 0.031000 0.037000
1559801841141512596	300 44 0.900000 0.015000 0.013000 1700 36 1.100000 1.172000 1.372000 600 40 1.000000 0.051000 0.051000 1.200000 0.030000 0.036000
1559801841651576304	300 44 0.900000 0.042000 0.038000 1700 36 1.100000 1.354000 1.585000 600 40 1.000000 0.051000 0.051000 1.200000 0.043000 0.052000
1559801842160223513	300 44 0.900000 0.015000 0.013000 1700 36 1.100000 1.165000 1.364000 600 40 1.000000 0.051000 0.051000 1.200000 0.030000 0.036000
1559801842668959554	300 44 0.900000 0.015000 0.013000 1700 36 1.100000 1.166000 1.365000 600 40 1.000000 0.051000 0.051000 1.200000 0.029000 0.035000
1559801843177424096	300 44 0.900000 0.015000 0.013000 1700 36 1.100000 1.183000 1.385000 600 40 1.000000 0.051000 0.051000 1.200000 0.028000 0.033000
1559801843685903388	300 44 0.900000 0.049000 0.044000 1700 36 1.100000 1.259000 1.474000 600 40 1.000000 0.051000 0.051000 1.200000 0.049000 0.059000
1559801844194740221	300 44 0.900000 0.017000 0.015000 1700 36 1.100000 1.328000 1.556000 600 40 1.000000 0.051000 0.051000 1.200000 0.035000 0.042000
1559801844703325805	300 44 0.900000 0.015000 0.013000 1700 36 1.100000 1.172000 1.372000 600 40 1.000000 0.051000 0.051000 1.200000 0.030000 0.036000
1559801845212024721	300 44 0.900000 0.015000 0.013000 1700 36 1.100000 1.155000 1.352000 600 40 1.000000 0.051000 0.051000 1.200000 0.028000 0.033000
1559801845721293096	300 44 0.900000 0.015000 0.013000 1700 36 1.100000 1.174000 1.374000 600 40 1.000000 0.051000 0.051000 1.200000 0.030000 0.036000
1559801846231120347	300 44 0.900000 0.042000 0.038000 1700 36 1.100000 1.315000 1.539000 600 40 1.000000 0.051000 0.051000 1.200000 0.049000 0.059000
1559801846739675222	300 44 0.900000 0.015000 0.013000 1700 36 1.100000 1.157000 1.354000 600 40 1.000000 0.051000 0.051000 1.200000 0.029000 0.035000
1559801847249671055	300 41 0.900000 0.015000 0.013000 1700 36 1.100000 1.169000 1.368000 600 40 1.000000 0.051000 0.051000 1.200000 0.030000 0.036000
1559801847759970097	300 45 0.900000 0.018000 0.016000 1700 36 1.100000 1.082000 1.265000 600 49 1.000000 0.051000 0.051000 1.200000 0.101000 0.122000
1559801848282675847	300 47 0.900000 0.035000 0.031000 1700 37 1.100000 3.114000 3.674000 600 53 1.000000 0.051000 0.051000 1.200000 0.097000 0.117000
1559801848794183347	300 49 0.900000 0.021000 0.019000 1700 39 1.100000 3.135000 3.699000 600 55 1.000000 0.051000 0.051000 1.200000 0.089000 0.107000
1559801849304366930	300 50 0.900000 0.017000 0.015000 1700 39 1.100000 3.134000 3.698000 600 56 1.000000 0.052000 0.052000 1.200000 0.089000 0.107000
1559801849814562764	300 51 0.900000 0.017000 0.015000 1700 40 1.100000 3.138000 3.705000 600 57 1.000000 0.051000 0.051000 1.200000 0.089000 0.107000
1559801850335284097	300 51 0.900000 0.033000 0.030000 1700 41 1.100000 3.147000 3.716000 600 58 1.000000 0.051000 0.051000 1.200000 0.092000 0.111000
1559801850847259680	300 52 0.900000 0.028000 0.025000 1700 41 1.100000 3.207000 3.787000 600 59 1.000000 0.051000 0.051000 1.200000 0.098000 0.118000
1559801851357560847	300 52 0.900000 0.018000 0.016000 1700 42 1.100000 3.146000 3.715000 600 59 1.000000 0.052000 0.052000 1.200000 0.089000 0.107000
1559801851867874264	300 53 0.900000 0.018000 0.016000 1700 42 1.100000 3.151000 3.721000 600 60 1.000000 0.052000 0.052000 1.200000 0.088000 0.106000
1559801852378392389	300 53 0.900000 0.018000 0.016000 1700 43 1.100000 3.148000 3.717000 600 60 1.000000 0.052000 0.052000 1.200000 0.091000 0.110000
1559801852899164431	300 54 0.900000 0.033000 0.030000 1700 43 1.100000 3.163000 3.735000 600 60 1.000000 0.052000 0.052000 1.200000 0.091000 0.110000
1559801853410772431	300 54 0.900000 0.038000 0.034000 1700 43 1.100000 3.197000 3.775000 600 61 1.000000 0.052000 0.052000 1.200000 0.095000 0.115000
1559801853920904889	300 54 0.900000 0.019000 0.017000 1700 43 1.100000 3.165000 3.737000 600 61 1.000000 0.052000 0.052000 1.200000 0.089000 0.107000
1559801854431298389	300 54 0.900000 0.018000 0.016000 1700 44 1.100000 3.159000 3.730000 600 61 1.000000 0.052000 0.052000 1.200000 0.089000 0.107000
1559801854941739223	300 55 0.900000 0.034000 0.031000 1700 44 1.100000 3.163000 3.735000 600 61 1.000000 0.052000 0.052000 1.200000 0.091000 0.110000
1559801855451902723	300 55 0.900000 0.029000 0.026000 1700 44 1.100000 3.178000 3.753000 600 62 1.000000 0.052000 0.052000 1.200000 0.097000 0.117000
1559801855962365223	300 55 0.900000 0.018000 0.016000 1700 44 1.100000 3.170000 3.743000 600 62 1.000000 0.052000 0.052000 1.200000 0.089000 0.107000
1559801856472828514	300 55 0.900000 0.019000 0.017000 1700 44 1.100000 3.163000 3.735000 600 62 1.000000 0.053000 0.053000 1.200000 0.088000 0.106000
1559801856983127931	300 55 0.900000 0.034000 0.031000 1700 45 1.100000 3.167000 3.740000 600 62 1.000000 0.053000 0.053000 1.200000 0.093000 0.112000
1559801857493633473	300 55 0.900000 0.019000 0.017000 1700 45 1.100000 3.177000 3.752000 600 62 1.000000 0.053000 0.053000 1.200000 0.089000 0.107000
1559801858003960265	300 56 0.900000 0.035000 0.032000 1700 45 1.100000 3.192000 3.769000 600 63 1.000000 0.053000 0.053000 1.200000 0.096000 0.116000
1559801858514249890	300 56 0.900000 0.020000 0.018000 1700 45 1.100000 3.161000 3.733000 600 63 1.000000 0.053000 0.053000 1.200000 0.089000 0.107000
1559801859024291056	300 56 0.900000 0.018000 0.016000 1700 45 1.100000 3.163000 3.735000 600 63 1.000000 0.053000 0.053000 1.200000 0.092000 0.111000
1559801859534643015	300 56 0.900000 0.020000 0.018000 1700 45 1.100000 3.162000 3.734000 600 63 1.000000 0.053000 0.053000 1.200000 0.089000 0.107000
1559801860045512223	300 56 0.900000 0.022000 0.020000 1700 45 1.100000 3.175000 3.749000 600 63 1.000000 0.053000 0.053000 1.200000 0.097000 0.117000
1559801860556080932	300 56 0.900000 0.038000 0.034000 1700 46 1.100000 3.164000 3.736000 600 63 1.000000 0.053000 0.053000 1.200000 0.095000 0.115000
1559801861066441057	300 56 0.900000 0.019000 0.017000 1700 46 1.100000 3.175000 3.749000 600 63 1.000000 0.053000 0.053000 1.200000 0.089000 0.107000
1559801861577178682	300 56 0.900000 0.033000 0.030000 1700 46 1.100000 3.186000 3.762000 600 63 1.000000 0.053000 0.053000 1.200000 0.092000 0.111000
1559801862087477765	300 56 0.900000 0.019000 0.017000 1700 46 1.100000 3.178000 3.753000 600 63 1.000000 0.053000 0.053000 1.200000 0.090000 0.108000
1559801862597854973	300 56 0.900000 0.030000 0.027000 1700 46 1.100000 3.184000 3.760000 600 64 1.000000 0.053000 0.053000 1.200000 0.091000 0.110000
1559801863108020765	300 57 0.900000 0.020000 0.018000 1700 46 1.100000 3.179000 3.754000 600 64 1.000000 0.052000 0.052000 1.200000 0.096000 0.116000
1559801863618649057	300 57 0.900000 0.034000 0.031000 1700 46 1.100000 3.182000 3.757000 600 64 1.000000 0.052000 0.052000 1.200000 0.089000 0.107000
1559801864129063849	300 57 0.900000 0.019000 0.017000 1700 46 1.100000 3.177000 3.752000 600 64 1.000000 0.053000 0.053000 1.200000 0.090000 0.108000
1559801864644892140	300 57 0.900000 0.020000 0.018000 1700 46 1.100000 3.170000 3.743000 600 64 1.000000 0.053000 0.053000 1.200000 0.089000 0.107000
1559801865157103057	300 57 0.900000 0.037000 0.033000 1700 46 1.100000 3.211000 3.792000 600 64 1.000000 0.053000 0.053000 1.200000 0.098000 0.118000
1559801865667375182	300 57 0.900000 0.019000 0.017000 1700 46 1.100000 3.170000 3.743000 600 64 1.000000 0.053000 0.053000 1.200000 0.089000 0.107000
1559801866177784766	300 57 0.900000 0.020000 0.018000 1700 46 1.100000 3.169000 3.742000 600 64 1.000000 0.053000 0.053000 1.200000 0.090000 0.108000
1559801866687865974	300 57 0.900000 0.020000 0.018000 1700 46 1.100000 3.170000 3.743000 600 64 1.000000 0.053000 0.053000 1.200000 0.089000 0.107000
1559801867198498849	300 57 0.900000 0.025000 0.022000 1700 46 1.100000 3.202000 3.781000 600 64 1.000000 0.053000 0.053000 1.200000 0.089000 0.107000
1559801867709056307	300 57 0.900000 0.019000 0.017000 1700 47 1.100000 3.172000 3.746000 600 64 1.000000 0.053000 0.053000 1.200000 0.093000 0.112000
1559801868219393307	300 57 0.900000 0.020000 0.018000 1700 47 1.100000 3.172000 3.746000 600 64 1.000000 0.053000 0.053000 1.200000 0.092000 0.111000
1559801868730232058	300 57 0.900000 0.019000 0.017000 1700 47 1.100000 3.178000 3.753000 600 64 1.000000 0.053000 0.053000 1.200000 0.089000 0.107000
1559801869240476016	300 57 0.900000 0.020000 0.018000 1700 47 1.100000 3.179000 3.754000 600 64 1.000000 0.053000 0.053000 1.200000 0.089000 0.107000
1559801869750963516	300 58 0.900000 0.034000 0.031000 1700 47 1.100000 3.214000 3.795000 600 65 1.000000 0.053000 0.053000 1.200000 0.090000 0.108000
1559801870261221058	300 58 0.900000 0.034000 0.031000 1700 47 1.100000 3.193000 3.770000 600 65 1.000000 0.053000 0.053000 1.200000 0.092000 0.111000
1559801870771567224	300 58 0.900000 0.021000 0.019000 1700 47 1.100000 3.183000 3.759000 600 65 1.000000 0.053000 0.053000 1.200000 0.089000 0.107000
1559801871281799474	300 58 0.900000 0.020000 0.018000 1700 47 1.100000 3.174000 3.748000 600 65 1.000000 0.053000 0.053000 1.200000 0.090000 0.108000
1559801871793364183	300 58 0.900000 0.019000 0.017000 1700 47 1.100000 3.171000 3.744000 600 65 1.000000 0.053000 0.053000 1.200000 0.090000 0.108000
1559801872303717766	300 58 0.900000 0.038000 0.034000 1700 47 1.100000 3.189000 3.766000 600 65 1.000000 0.053000 0.053000 1.200000 0.100000 0.121000
1559801872814092975	300 58 0.900000 0.021000 0.019000 1700 47 1.100000 3.175000 3.749000 600 65 1.000000 0.053000 0.053000 1.200000 0.090000 0.108000
1559801873324186558	300 58 0.900000 0.020000 0.018000 1700 47 1.100000 3.175000 3.749000 600 65 1.000000 0.053000 0.053000 1.200000 0.090000 0.108000
1559801873834358558	300 58 0.900000 0.020000 0.018000 1700 47 1.100000 3.175000 3.749000 600 65 1.000000 0.053000 0.053000 1.200000 0.089000 0.107000
1559801874347796558	300 58 0.900000 0.032000 0.029000 1700 47 1.100000 3.221000 3.804000 600 65 1.000000 0.053000 0.053000 1.200000 0.093000 0.112000
1559801874859308892	300 58 0.900000 0.022000 0.020000 1700 47 1.100000 3.177000 3.752000 600 65 1.000000 0.053000 0.053000 1.200000 0.091000 0.110000
1559801875369590392	300 58 0.900000 0.019000 0.017000 1700 47 1.100000 3.175000 3.749000 600 65 1.000000 0.053000 0.053000 1.200000 0.088000 0.106000
1559801875879970975	300 58 0.900000 0.020000 0.018000 1700 47 1.100000 3.178000 3.753000 600 65 1.000000 0.053000 0.053000 1.200000 0.088000 0.106000
1559801876390794892	300 58 0.900000 0.021000 0.019000 1700 47 1.100000 3.193000 3.770000 600 65 1.000000 0.053000 0.053000 1.200000 0.089000 0.107000
1559801876901444767	300 58 0.900000 0.047000 0.042000 1700 47 1.100000 3.231000 3.815000 600 65 1.000000 0.053000 0.053000 1.200000 0.095000 0.115000
1559801877411646559	300 58 0.900000 0.029000 0.026000 1700 47 1.100000 3.181000 3.756000 600 65 1.000000 0.053000 0.053000 1.200000 0.089000 0.107000
1559801877921979475	300 58 0.900000 0.020000 0.018000 1700 47 1.100000 3.186000 3.762000 600 65 1.000000 0.053000 0.053000 1.200000 0.089000 0.107000
1559801878432347892	300 58 0.900000 0.020000 0.018000 1700 47 1.100000 3.190000 3.767000 600 65 1.000000 0.053000 0.053000 1.200000 0.089000 0.107000
1559801878955215934	300 58 0.900000 0.020000 0.018000 1700 48 1.100000 3.180000 3.755000 600 65 1.000000 0.053000 0.053000 1.200000 0.089000 0.107000
1559801879467115017	300 58 0.900000 0.046000 0.042000 1700 48 1.100000 3.206000 3.786000 600 66 1.000000 0.053000 0.053000 1.200000 0.099000 0.119000
1559801879977533684	300 58 0.900000 0.020000 0.018000 1700 48 1.100000 3.192000 3.769000 600 65 1.000000 0.053000 0.053000 1.200000 0.090000 0.109000
1559801880492109892	300 58 0.900000 0.020000 0.018000 1700 48 1.100000 3.191000 3.768000 600 65 1.000000 0.053000 0.053000 1.200000 0.090000 0.108000
1559801881003578142	300 59 0.900000 0.020000 0.018000 1700 48 1.100000 3.187000 3.763000 600 66 1.000000 0.053000 0.053000 1.200000 0.090000 0.109000
1559801881512426892	300 51 0.900000 0.035000 0.032000 1700 47 1.100000 3.237000 3.822000 600 58 1.000000 0.053000 0.053000 1.200000 0.098000 0.118000
1559801882020797559	300 46 0.900000 0.017000 0.015000 1700 44 1.100000 0.345000 0.402000 600 51 1.000000 0.053000 0.053000 1.200000 0.023000 0.027000
