#Timestamp	CPU(0) Frequency(MHz)	CPU(0) Temperature(C)	A7 Voltage(V)	A7 Current(A)	A7 Power(W)	CPU(4) Frequency(MHz)	CPU(4) Temperature(C)	A15 Voltage(V)	A15 Current(A)	A15 Power(W)	GPU Frequency(MHz)	GPU Temperature(C)	GPU Voltage(V)	GPU Current(A)	GPU Power(W)	RAM Voltage(V)	RAM Current(A)	RAM Power(W)
1553304170774348582	1100 32 0.900000 0.024000 0.023000 1200 31 0.900000 0.465000 0.461000 600 35 1.000000 0.050000 0.050000 1.200000 0.045000 0.054000
1553304171280177207	1100 32 1.100000 0.164000 0.185000 1200 31 1.000000 0.276000 0.282000 600 35 1.000000 0.050000 0.050000 1.200000 0.043000 0.051000
1553304171785707582	1100 32 1.100000 0.165000 0.186000 1200 31 1.000000 0.151000 0.154000 600 35 1.000000 0.050000 0.050000 1.200000 0.042000 0.050000
1553304172291204541	1100 32 1.100000 0.158000 0.179000 1200 31 1.000000 0.156000 0.160000 600 35 1.000000 0.050000 0.050000 1.200000 0.035000 0.042000
1553304172796959582	1100 32 1.100000 0.143000 0.162000 1200 31 1.000000 0.223000 0.228000 600 35 1.000000 0.050000 0.050000 1.200000 0.030000 0.036000
1553304173302618541	1100 32 1.100000 0.148000 0.167000 1200 31 1.000000 0.240000 0.246000 600 36 1.000000 0.050000 0.050000 1.200000 0.028000 0.033000
1553304173808259666	1100 32 1.100000 0.142000 0.161000 1200 31 1.000000 0.130000 0.133000 600 35 1.000000 0.050000 0.050000 1.200000 0.025000 0.030000
1553304174313723916	1100 32 1.100000 0.142000 0.161000 1200 31 1.000000 0.132000 0.135000 600 35 1.000000 0.050000 0.050000 1.200000 0.025000 0.030000
1553304174819452249	1100 32 1.100000 0.142000 0.161000 1200 31 1.000000 0.214000 0.218000 600 35 1.000000 0.050000 0.050000 1.200000 0.029000 0.035000
1553304175325240666	1100 33 1.100000 0.142000 0.161000 1200 31 1.000000 0.266000 0.272000 600 36 1.000000 0.050000 0.050000 1.200000 0.029000 0.035000
1553304175830783083	1100 32 1.100000 0.142000 0.161000 1200 31 1.000000 0.130000 0.133000 600 36 1.000000 0.051000 0.051000 1.200000 0.025000 0.030000
1553304176336297875	1100 32 1.100000 0.142000 0.161000 1200 31 1.000000 0.132000 0.135000 600 35 1.000000 0.050000 0.050000 1.200000 0.026000 0.031000
1553304176842045833	1100 32 1.100000 0.142000 0.161000 1200 31 1.000000 0.155000 0.159000 600 36 1.000000 0.051000 0.051000 1.200000 0.026000 0.031000
1553304177348210166	1100 33 1.100000 0.142000 0.161000 1200 32 1.000000 0.133000 0.136000 600 36 1.000000 0.051000 0.051000 1.200000 0.026000 0.031000
1553304177853974333	1100 32 1.100000 0.155000 0.175000 1200 31 1.000000 0.178000 0.182000 600 35 1.000000 0.050000 0.050000 1.200000 0.029000 0.035000
1553304178359626750	1100 32 1.100000 0.142000 0.161000 1200 31 1.000000 0.130000 0.133000 600 36 1.000000 0.050000 0.050000 1.200000 0.026000 0.031000
1553304178865420750	1100 32 1.100000 0.142000 0.161000 1200 31 1.000000 0.231000 0.236000 600 36 1.000000 0.051000 0.051000 1.200000 0.028000 0.033000
1553304179371430625	1100 32 1.100000 0.142000 0.161000 1200 31 1.000000 0.130000 0.133000 600 35 1.000000 0.050000 0.050000 1.200000 0.025000 0.030000
1553304179877390333	1100 32 1.100000 0.148000 0.167000 1200 31 1.000000 0.153000 0.156000 600 36 1.000000 0.050000 0.050000 1.200000 0.029000 0.035000
1553304180382898083	1100 32 1.100000 0.142000 0.161000 1200 31 1.000000 0.126000 0.129000 600 36 1.000000 0.051000 0.051000 1.200000 0.024000 0.028000
1553304180888756500	1100 32 1.100000 0.142000 0.161000 1200 31 1.000000 0.233000 0.238000 600 36 1.000000 0.051000 0.051000 1.200000 0.030000 0.036000
1553304181394336958	1100 32 1.100000 0.142000 0.161000 1200 31 1.000000 0.133000 0.136000 600 36 1.000000 0.050000 0.050000 1.200000 0.026000 0.031000
1553304181900189500	1100 32 1.100000 0.152000 0.172000 1200 31 1.000000 0.329000 0.336000 600 36 1.000000 0.050000 0.050000 1.200000 0.027000 0.032000
1553304182405726459	1100 32 1.100000 0.142000 0.161000 1200 31 1.000000 0.154000 0.158000 600 36 1.000000 0.050000 0.050000 1.200000 0.025000 0.030000
1553304182911486334	1100 32 1.100000 0.142000 0.161000 1200 31 1.000000 0.127000 0.130000 600 36 1.000000 0.050000 0.050000 1.200000 0.025000 0.030000
1553304183417191625	1100 32 1.100000 0.142000 0.161000 1200 31 1.000000 0.246000 0.252000 600 35 1.000000 0.050000 0.050000 1.200000 0.026000 0.031000
1553304183922945875	1100 32 1.100000 0.142000 0.161000 1200 31 1.000000 0.132000 0.135000 600 36 1.000000 0.051000 0.051000 1.200000 0.033000 0.039000
1553304184428519792	1100 32 1.100000 0.142000 0.161000 1200 31 1.000000 0.155000 0.159000 600 36 1.000000 0.051000 0.051000 1.200000 0.024000 0.028000
1553304184934378501	1100 32 1.100000 0.142000 0.161000 1200 31 1.000000 0.133000 0.136000 600 36 1.000000 0.050000 0.050000 1.200000 0.026000 0.031000
1553304185439960126	1100 32 1.100000 0.142000 0.161000 1200 31 1.000000 0.156000 0.160000 600 36 1.000000 0.050000 0.050000 1.200000 0.026000 0.031000
1553304185945747209	1100 32 1.100000 0.147000 0.166000 1200 32 1.000000 0.138000 0.141000 600 36 1.000000 0.050000 0.050000 1.200000 0.033000 0.039000
1553304186451365376	1100 32 1.100000 0.142000 0.161000 1200 31 1.000000 0.150000 0.153000 600 36 1.000000 0.050000 0.050000 1.200000 0.025000 0.030000
1553304186957267626	1100 33 1.100000 0.143000 0.162000 1200 32 1.000000 0.144000 0.147000 600 36 1.000000 0.050000 0.050000 1.200000 0.029000 0.035000
1553304187462910876	1100 32 1.100000 0.142000 0.161000 1200 32 1.000000 0.137000 0.140000 600 36 1.000000 0.050000 0.050000 1.200000 0.026000 0.031000
1553304187968587709	1100 33 1.100000 0.142000 0.161000 1200 32 1.000000 0.147000 0.150000 600 36 1.000000 0.050000 0.050000 1.200000 0.026000 0.031000
1553304188474156793	1100 32 1.100000 0.142000 0.161000 1200 32 1.000000 0.135000 0.138000 600 36 1.000000 0.051000 0.051000 1.200000 0.025000 0.030000
1553304188980060126	1100 33 1.100000 0.142000 0.161000 1200 31 1.000000 0.155000 0.159000 600 36 1.000000 0.050000 0.050000 1.200000 0.025000 0.030000
1553304189485651626	1100 32 1.100000 0.143000 0.162000 1200 31 1.000000 0.236000 0.241000 600 36 1.000000 0.050000 0.050000 1.200000 0.030000 0.036000
1553304189991984168	1100 33 1.100000 0.142000 0.161000 1200 32 1.000000 0.150000 0.153000 600 36 1.000000 0.051000 0.051000 1.200000 0.026000 0.031000
1553304190497729918	1100 32 1.100000 0.154000 0.174000 1200 31 1.000000 0.323000 0.330000 600 36 1.000000 0.050000 0.050000 1.200000 0.035000 0.042000
1553304191003480460	1100 33 1.100000 0.142000 0.161000 1200 31 1.000000 0.155000 0.159000 600 36 1.000000 0.050000 0.050000 1.200000 0.025000 0.030000
1553304191509265918	1100 32 1.100000 0.142000 0.161000 1200 32 1.000000 0.202000 0.207000 600 36 1.000000 0.050000 0.050000 1.200000 0.028000 0.033000
1553304192014961376	1100 32 1.100000 0.141000 0.160000 1200 31 1.000000 0.166000 0.170000 600 35 1.000000 0.051000 0.051000 1.200000 0.026000 0.031000
1553304192520686751	1100 32 1.100000 0.150000 0.170000 1200 32 1.000000 0.323000 0.330000 600 36 1.000000 0.050000 0.050000 1.200000 0.034000 0.041000
1553304193026481210	1100 33 1.100000 0.142000 0.161000 1200 32 1.000000 0.147000 0.150000 600 36 1.000000 0.051000 0.051000 1.200000 0.026000 0.031000
1553304193532140918	1100 32 1.100000 0.142000 0.161000 1200 32 1.000000 0.144000 0.147000 600 36 1.000000 0.051000 0.051000 1.200000 0.025000 0.030000
1553304194037606460	1100 32 1.100000 0.142000 0.161000 1200 32 1.000000 0.132000 0.135000 600 36 1.000000 0.050000 0.050000 1.200000 0.026000 0.031000
1553304194543229085	1100 32 1.100000 0.152000 0.172000 1200 32 1.000000 0.326000 0.333000 600 36 1.000000 0.050000 0.050000 1.200000 0.035000 0.042000
1553304195049109210	1100 33 1.100000 0.142000 0.161000 1200 32 1.000000 0.133000 0.136000 600 36 1.000000 0.051000 0.051000 1.200000 0.025000 0.030000
1553304195554874960	1100 32 1.100000 0.142000 0.161000 1200 32 1.000000 0.239000 0.244000 600 36 1.000000 0.051000 0.051000 1.200000 0.029000 0.035000
1553304196060462877	1100 32 1.100000 0.142000 0.161000 1200 31 1.000000 0.136000 0.139000 600 36 1.000000 0.050000 0.050000 1.200000 0.025000 0.030000
1553304196566156210	1100 32 1.100000 0.142000 0.161000 1200 32 1.000000 0.152000 0.155000 600 36 1.000000 0.050000 0.050000 1.200000 0.025000 0.030000
1553304197072164794	1100 33 1.100000 0.142000 0.161000 1200 32 1.000000 0.130000 0.133000 600 36 1.000000 0.051000 0.051000 1.200000 0.025000 0.030000
1553304197577835835	1100 32 1.100000 0.142000 0.161000 1200 32 1.000000 0.250000 0.256000 600 36 1.000000 0.050000 0.050000 1.200000 0.030000 0.036000
1553304198083269002	1100 32 1.100000 0.142000 0.161000 1200 31 1.000000 0.134000 0.137000 600 36 1.000000 0.050000 0.050000 1.200000 0.026000 0.031000
1553304198589039585	1100 33 1.100000 0.144000 0.163000 1200 32 1.000000 0.155000 0.159000 600 36 1.000000 0.050000 0.050000 1.200000 0.025000 0.030000
1553304199094994502	1100 33 1.100000 0.142000 0.161000 1200 31 1.000000 0.131000 0.134000 600 36 1.000000 0.050000 0.050000 1.200000 0.024000 0.028000
1553304199600871377	1100 32 1.100000 0.142000 0.161000 1200 32 1.000000 0.131000 0.134000 600 36 1.000000 0.050000 0.050000 1.200000 0.027000 0.032000
1553304200106327294	1100 32 1.100000 0.142000 0.161000 1200 31 1.000000 0.129000 0.132000 600 36 1.000000 0.050000 0.050000 1.200000 0.026000 0.031000
1553304200612389711	1100 33 1.100000 0.142000 0.161000 1200 32 1.000000 0.132000 0.135000 600 36 1.000000 0.051000 0.051000 1.200000 0.025000 0.030000
1553304201118500086	1100 32 1.100000 0.155000 0.175000 1200 32 1.000000 0.338000 0.345000 600 36 1.000000 0.050000 0.050000 1.200000 0.035000 0.042000
1553304201624317419	1100 32 1.100000 0.142000 0.161000 1200 32 1.000000 0.230000 0.235000 600 36 1.000000 0.051000 0.051000 1.200000 0.030000 0.036000
1553304202130027294	1100 32 1.100000 0.142000 0.161000 1200 31 1.000000 0.146000 0.149000 600 36 1.000000 0.050000 0.050000 1.200000 0.025000 0.030000
1553304202636532753	1100 33 1.100000 0.142000 0.161000 1200 31 1.000000 0.135000 0.138000 600 36 1.000000 0.050000 0.050000 1.200000 0.026000 0.031000
1553304203142244586	1100 32 1.100000 0.155000 0.175000 1200 31 1.000000 0.342000 0.349000 600 36 1.000000 0.050000 0.050000 1.200000 0.034000 0.041000
1553304203648055503	1100 32 1.100000 0.143000 0.162000 1200 32 1.000000 0.220000 0.225000 600 36 1.000000 0.050000 0.050000 1.200000 0.030000 0.036000
1553304204153660336	1100 32 1.100000 0.142000 0.161000 1200 31 1.000000 0.153000 0.156000 600 36 1.000000 0.050000 0.050000 1.200000 0.026000 0.031000
1553304204659082545	1100 32 1.100000 0.142000 0.161000 1200 32 1.000000 0.129000 0.132000 600 36 1.000000 0.050000 0.050000 1.200000 0.026000 0.031000
1553304205164830795	1100 32 1.100000 0.152000 0.172000 1200 32 1.000000 0.319000 0.326000 600 36 1.000000 0.051000 0.051000 1.200000 0.034000 0.041000
1553304205670621961	1100 32 1.100000 0.142000 0.161000 1200 32 1.000000 0.162000 0.166000 600 36 1.000000 0.051000 0.051000 1.200000 0.029000 0.035000
1553304206176272045	1100 32 1.100000 0.142000 0.161000 1200 32 1.000000 0.130000 0.133000 600 36 1.000000 0.051000 0.051000 1.200000 0.025000 0.030000
1553304206681684003	1100 32 1.100000 0.142000 0.161000 1200 32 1.000000 0.129000 0.132000 600 36 1.000000 0.051000 0.051000 1.200000 0.025000 0.030000
1553304207187494878	1100 33 1.100000 0.142000 0.161000 1200 31 1.000000 0.142000 0.145000 600 36 1.000000 0.050000 0.050000 1.200000 0.025000 0.030000
1553304207693328795	1100 32 1.100000 0.142000 0.161000 1200 32 1.000000 0.245000 0.251000 600 36 1.000000 0.050000 0.050000 1.200000 0.029000 0.035000
1553304208198922462	1100 32 1.100000 0.142000 0.161000 1200 32 1.000000 0.144000 0.147000 600 36 1.000000 0.050000 0.050000 1.200000 0.026000 0.031000
1553304208704368753	1100 32 1.100000 0.142000 0.161000 1200 31 1.000000 0.149000 0.152000 600 36 1.000000 0.050000 0.050000 1.200000 0.025000 0.030000
1553304209210074503	1100 33 1.100000 0.142000 0.161000 1200 32 1.000000 0.133000 0.136000 600 36 1.000000 0.050000 0.050000 1.200000 0.025000 0.030000
1553304209715880753	1100 33 1.100000 0.142000 0.161000 1200 32 1.000000 0.232000 0.237000 600 36 1.000000 0.050000 0.050000 1.200000 0.030000 0.036000
1553304210221938587	1100 32 1.100000 0.142000 0.161000 1200 31 1.000000 0.132000 0.135000 600 36 1.000000 0.051000 0.051000 1.200000 0.026000 0.031000
1553304210727952712	1100 33 1.100000 0.163000 0.184000 1200 32 1.000000 0.169000 0.173000 600 36 1.000000 0.050000 0.050000 1.200000 0.049000 0.059000
1553304211234152962	1100 33 1.100000 0.162000 0.183000 1200 32 1.000000 0.182000 0.186000 600 36 1.000000 0.050000 0.050000 1.200000 0.049000 0.059000
1553304211740487962	1100 33 1.100000 0.161000 0.182000 1200 32 1.000000 0.233000 0.238000 600 36 1.000000 0.050000 0.050000 1.200000 0.051000 0.061000
1553304212246775045	1100 33 1.100000 0.161000 0.182000 1200 32 1.000000 0.199000 0.204000 600 36 1.000000 0.050000 0.050000 1.200000 0.049000 0.059000
1553304212752859171	1100 33 1.100000 0.162000 0.183000 1200 32 1.000000 0.165000 0.169000 600 36 1.000000 0.050000 0.050000 1.200000 0.048000 0.057000
1553304213259691462	1100 33 1.100000 0.162000 0.183000 1200 32 1.000000 0.165000 0.169000 600 36 1.000000 0.050000 0.050000 1.200000 0.048000 0.057000
1553304213766128296	1100 33 1.100000 0.167000 0.189000 1200 32 1.000000 0.472000 0.481000 600 36 1.000000 0.051000 0.051000 1.200000 0.058000 0.070000
1553304214272358754	1100 33 1.100000 0.162000 0.183000 1200 32 1.000000 0.163000 0.167000 600 36 1.000000 0.051000 0.051000 1.200000 0.049000 0.059000
1553304214778315462	1100 33 1.100000 0.162000 0.183000 1200 32 1.000000 0.188000 0.192000 600 36 1.000000 0.050000 0.050000 1.200000 0.048000 0.057000
1553304215284431254	1100 33 1.100000 0.162000 0.183000 1200 32 1.000000 0.169000 0.173000 600 36 1.000000 0.051000 0.051000 1.200000 0.049000 0.059000
1553304215790704504	1100 33 1.100000 0.169000 0.191000 1200 32 1.000000 0.452000 0.461000 600 36 1.000000 0.051000 0.051000 1.200000 0.059000 0.071000
1553304216296371296	1100 33 1.100000 0.162000 0.183000 1200 32 1.000000 0.165000 0.169000 600 36 1.000000 0.051000 0.051000 1.200000 0.048000 0.057000
1553304216801903838	1100 33 1.100000 0.163000 0.185000 1200 32 1.000000 0.160000 0.164000 600 36 1.000000 0.051000 0.051000 1.200000 0.048000 0.057000
1553304217307294921	1100 33 1.100000 0.162000 0.183000 1200 32 1.000000 0.162000 0.166000 600 36 1.000000 0.050000 0.050000 1.200000 0.048000 0.057000
1553304217813017338	1100 33 1.100000 0.172000 0.194000 1200 32 1.000000 0.433000 0.442000 600 36 1.000000 0.050000 0.050000 1.200000 0.057000 0.068000
1553304218318574588	1100 33 1.100000 0.164000 0.185000 1200 32 1.000000 0.160000 0.164000 600 36 1.000000 0.050000 0.050000 1.200000 0.046000 0.055000
1553304218824126338	1100 33 1.100000 0.164000 0.185000 1200 32 1.000000 0.161000 0.165000 600 36 1.000000 0.051000 0.051000 1.200000 0.047000 0.056000
1553304219329552880	1100 33 1.100000 0.164000 0.185000 1200 32 1.000000 0.159000 0.163000 600 36 1.000000 0.051000 0.051000 1.200000 0.047000 0.056000
1553304219835159005	1100 33 1.100000 0.163000 0.184000 1200 32 1.000000 0.258000 0.263000 600 36 1.000000 0.050000 0.050000 1.200000 0.047000 0.056000
1553304220341502755	1100 33 1.100000 0.169000 0.191000 1200 32 1.000000 0.161000 0.165000 600 36 1.000000 0.051000 0.051000 1.200000 0.048000 0.057000
1553304220847861338	1100 33 1.100000 0.094000 0.106000 1200 32 1.000000 0.160000 0.164000 600 36 1.000000 0.051000 0.051000 1.200000 0.031000 0.037000
