#Timestamp	CPU(0) Frequency(MHz)	CPU(0) Temperature(C)	A7 Voltage(V)	A7 Current(A)	A7 Power(W)	CPU(4) Frequency(MHz)	CPU(4) Temperature(C)	A15 Voltage(V)	A15 Current(A)	A15 Power(W)	GPU Frequency(MHz)	GPU Temperature(C)	GPU Voltage(V)	GPU Current(A)	GPU Power(W)	RAM Voltage(V)	RAM Current(A)	RAM Power(W)
1517294173252210079	800 44 1.000000 0.106000 0.110000 1600 35 1.100000 3.105000 3.545000 600 49 1.000000 0.051000 0.051000 1.200000 0.029000 0.035000
1517294173757329245	800 47 1.000000 0.242000 0.244000 1600 37 1.100000 3.115000 3.557000 600 52 1.000000 0.051000 0.051000 1.200000 0.028000 0.033000
1517294174262470620	800 49 1.000000 0.242000 0.244000 1600 39 1.100000 3.214000 3.670000 600 55 1.000000 0.051000 0.051000 1.200000 0.031000 0.037000
1517294174767549371	800 50 1.000000 0.243000 0.245000 1600 40 1.100000 3.138000 3.583000 600 56 1.000000 0.051000 0.051000 1.200000 0.028000 0.033000
1517294175272521787	800 51 1.000000 0.244000 0.246000 1600 41 1.100000 3.156000 3.604000 600 57 1.000000 0.052000 0.052000 1.200000 0.028000 0.033000
1517294175777553454	800 52 1.000000 0.244000 0.246000 1600 42 1.100000 3.150000 3.597000 600 58 1.000000 0.052000 0.052000 1.200000 0.027000 0.032000
1517294176282597204	800 53 1.000000 0.244000 0.246000 1600 42 1.100000 3.237000 3.696000 600 59 1.000000 0.052000 0.052000 1.200000 0.028000 0.033000
1517294176787555954	800 53 1.000000 0.245000 0.247000 1600 43 1.100000 3.155000 3.603000 600 59 1.000000 0.052000 0.052000 1.200000 0.028000 0.033000
1517294177292428287	800 54 1.000000 0.245000 0.247000 1600 43 1.100000 3.156000 3.604000 600 60 1.000000 0.052000 0.052000 1.200000 0.029000 0.035000
1517294177797433204	800 54 1.000000 0.245000 0.247000 1600 44 1.100000 3.174000 3.624000 600 60 1.000000 0.052000 0.052000 1.200000 0.028000 0.033000
1517294178302480038	800 55 1.000000 0.245000 0.247000 1600 44 1.100000 3.240000 3.700000 600 61 1.000000 0.052000 0.052000 1.200000 0.030000 0.036000
1517294178807413454	800 55 1.000000 0.246000 0.248000 1600 45 1.100000 3.183000 3.634000 600 61 1.000000 0.052000 0.052000 1.200000 0.028000 0.033000
1517294179312421163	800 55 1.000000 0.246000 0.248000 1600 45 1.100000 3.162000 3.611000 600 62 1.000000 0.053000 0.053000 1.200000 0.028000 0.033000
1517294179817436704	800 56 1.000000 0.246000 0.248000 1600 45 1.100000 3.156000 3.604000 600 62 1.000000 0.053000 0.053000 1.200000 0.029000 0.034000
1517294180322450663	800 56 1.000000 0.246000 0.248000 1600 45 1.100000 3.277000 3.742000 600 62 1.000000 0.053000 0.053000 1.200000 0.028000 0.033000
1517294180827461413	800 56 1.000000 0.246000 0.248000 1600 46 1.100000 3.172000 3.622000 600 62 1.000000 0.053000 0.053000 1.200000 0.029000 0.035000
1517294181332685788	800 57 1.000000 0.246000 0.248000 1600 46 1.100000 3.192000 3.645000 600 63 1.000000 0.053000 0.053000 1.200000 0.029000 0.034000
1517294181837791830	800 57 1.000000 0.246000 0.248000 1600 46 1.100000 3.185000 3.637000 600 63 1.000000 0.053000 0.053000 1.200000 0.029000 0.034000
1517294182342847788	800 57 1.000000 0.246000 0.248000 1600 46 1.100000 3.268000 3.732000 600 63 1.000000 0.053000 0.053000 1.200000 0.028000 0.033000
1517294182847898246	800 57 1.000000 0.246000 0.248000 1600 47 1.100000 3.210000 3.665000 600 63 1.000000 0.053000 0.053000 1.200000 0.028000 0.033000
1517294183352934622	800 57 1.000000 0.246000 0.248000 1600 47 1.100000 3.211000 3.666000 600 64 1.000000 0.053000 0.053000 1.200000 0.028000 0.033000
1517294183857987038	800 58 1.000000 0.246000 0.248000 1600 47 1.100000 3.238000 3.697000 600 64 1.000000 0.053000 0.053000 1.200000 0.028000 0.033000
1517294184363092913	800 58 1.000000 0.246000 0.248000 1600 47 1.100000 3.218000 3.674000 600 64 1.000000 0.053000 0.053000 1.200000 0.031000 0.037000
1517294184868075663	800 58 1.000000 0.246000 0.248000 1600 47 1.100000 3.205000 3.660000 600 64 1.000000 0.053000 0.053000 1.200000 0.028000 0.033000
1517294185373149413	800 58 1.000000 0.246000 0.248000 1600 47 1.100000 3.208000 3.663000 600 64 1.000000 0.053000 0.053000 1.200000 0.028000 0.033000
1517294185878032830	800 58 1.000000 0.246000 0.248000 1600 47 1.100000 3.206000 3.661000 600 64 1.000000 0.053000 0.053000 1.200000 0.029000 0.034000
1517294186383068414	800 58 1.000000 0.246000 0.248000 1600 48 1.100000 3.217000 3.673000 600 64 1.000000 0.053000 0.053000 1.200000 0.028000 0.033000
1517294186888001247	800 58 1.000000 0.246000 0.248000 1600 48 1.100000 3.224000 3.681000 600 64 1.000000 0.053000 0.053000 1.200000 0.030000 0.036000
1517294187392955830	800 58 1.000000 0.246000 0.248000 1600 48 1.100000 3.198000 3.652000 600 65 1.000000 0.053000 0.053000 1.200000 0.028000 0.033000
1517294187897921330	800 58 1.000000 0.247000 0.249000 1600 48 1.100000 3.242000 3.702000 600 65 1.000000 0.053000 0.053000 1.200000 0.028000 0.033000
1517294188403039497	800 59 1.000000 0.246000 0.248000 1600 48 1.100000 3.194000 3.647000 600 65 1.000000 0.053000 0.053000 1.200000 0.028000 0.033000
1517294188908028497	800 59 1.000000 0.247000 0.249000 1600 48 1.100000 3.178000 3.629000 600 65 1.000000 0.053000 0.053000 1.200000 0.028000 0.033000
1517294189413077331	800 59 1.000000 0.247000 0.249000 1600 48 1.100000 3.165000 3.614000 600 65 1.000000 0.053000 0.053000 1.200000 0.028000 0.033000
1517294189918017331	800 59 1.000000 0.247000 0.249000 1600 48 1.100000 3.175000 3.625000 600 65 1.000000 0.053000 0.053000 1.200000 0.028000 0.033000
1517294190423160747	800 59 1.000000 0.247000 0.249000 1600 48 1.100000 3.196000 3.649000 600 65 1.000000 0.053000 0.053000 1.200000 0.029000 0.034000
1517294190928170706	800 59 1.000000 0.247000 0.249000 1600 48 1.100000 3.180000 3.631000 600 65 1.000000 0.053000 0.053000 1.200000 0.028000 0.033000
1517294191433290206	800 59 1.000000 0.247000 0.249000 1600 48 1.100000 3.219000 3.676000 600 65 1.000000 0.053000 0.053000 1.200000 0.029000 0.035000
1517294191938212331	800 59 1.000000 0.247000 0.249000 1600 48 1.100000 3.218000 3.674000 600 65 1.000000 0.053000 0.053000 1.200000 0.028000 0.033000
1517294192443261248	800 59 1.000000 0.247000 0.249000 1600 49 1.100000 3.200000 3.654000 600 66 1.000000 0.053000 0.053000 1.200000 0.028000 0.033000
1517294192948254456	800 59 1.000000 0.247000 0.249000 1600 49 1.100000 3.252000 3.713000 600 66 1.000000 0.053000 0.053000 1.200000 0.029000 0.035000
1517294193453237581	800 59 1.000000 0.247000 0.249000 1600 49 1.100000 3.210000 3.665000 600 66 1.000000 0.053000 0.053000 1.200000 0.028000 0.033000
1517294193958199289	800 59 1.000000 0.247000 0.249000 1600 49 1.100000 3.206000 3.661000 600 66 1.000000 0.053000 0.053000 1.200000 0.028000 0.033000
1517294194463283498	800 60 1.000000 0.247000 0.249000 1600 49 1.100000 3.196000 3.649000 600 66 1.000000 0.053000 0.053000 1.200000 0.028000 0.033000
1517294194968234040	800 60 1.000000 0.247000 0.249000 1600 49 1.100000 3.203000 3.657000 600 66 1.000000 0.053000 0.053000 1.200000 0.028000 0.033000
1517294195473266873	800 60 1.000000 0.247000 0.249000 1600 49 1.100000 3.206000 3.661000 600 66 1.000000 0.053000 0.053000 1.200000 0.028000 0.033000
1517294195978230581	800 60 1.000000 0.247000 0.249000 1600 49 1.100000 3.206000 3.661000 600 66 1.000000 0.053000 0.053000 1.200000 0.028000 0.033000
1517294196483366040	800 60 1.000000 0.247000 0.249000 1600 49 1.100000 3.203000 3.657000 600 66 1.000000 0.053000 0.053000 1.200000 0.028000 0.033000
1517294196988432540	800 60 1.000000 0.246000 0.248000 1600 49 1.100000 3.204000 3.658000 600 66 1.000000 0.053000 0.053000 1.200000 0.029000 0.035000
1517294197493402957	800 60 1.000000 0.247000 0.249000 1600 49 1.100000 3.197000 3.650000 600 66 1.000000 0.053000 0.053000 1.200000 0.028000 0.033000
1517294197998342582	800 60 1.000000 0.247000 0.249000 1600 49 1.100000 3.216000 3.672000 600 66 1.000000 0.053000 0.053000 1.200000 0.028000 0.033000
1517294198503571707	800 60 1.000000 0.247000 0.249000 1600 49 1.100000 3.180000 3.631000 600 66 1.000000 0.053000 0.053000 1.200000 0.028000 0.033000
1517294199008524998	800 60 1.000000 0.247000 0.249000 1600 49 1.100000 3.237000 3.696000 600 66 1.000000 0.053000 0.053000 1.200000 0.028000 0.033000
1517294199513490248	800 60 1.000000 0.247000 0.249000 1600 49 1.100000 3.180000 3.631000 600 66 1.000000 0.053000 0.053000 1.200000 0.030000 0.036000
1517294200018376665	800 60 1.000000 0.247000 0.249000 1600 49 1.100000 3.200000 3.654000 600 66 1.000000 0.053000 0.053000 1.200000 0.030000 0.036000
1517294200523643832	800 60 1.000000 0.247000 0.249000 1600 49 1.100000 3.183000 3.634000 600 66 1.000000 0.053000 0.053000 1.200000 0.030000 0.036000
1517294201028652040	800 60 1.000000 0.247000 0.249000 1600 49 1.100000 3.169000 3.618000 600 66 1.000000 0.053000 0.053000 1.200000 0.030000 0.036000
1517294201533624915	800 60 1.000000 0.247000 0.249000 1600 49 1.100000 3.171000 3.621000 600 66 1.000000 0.054000 0.054000 1.200000 0.030000 0.036000
1517294202038583665	800 60 1.000000 0.247000 0.249000 1600 49 1.100000 3.173000 3.623000 600 66 1.000000 0.053000 0.053000 1.200000 0.030000 0.036000
1517294202543823874	800 60 1.000000 0.247000 0.249000 1600 50 1.100000 3.169000 3.618000 600 67 1.000000 0.053000 0.053000 1.200000 0.030000 0.036000
1517294203049049082	800 60 1.000000 0.247000 0.249000 1600 50 1.100000 3.170000 3.620000 600 67 1.000000 0.053000 0.053000 1.200000 0.033000 0.039000
1517294203554014041	800 60 1.000000 0.247000 0.249000 1600 50 1.100000 3.174000 3.624000 600 67 1.000000 0.053000 0.053000 1.200000 0.031000 0.037000
1517294204058850249	800 60 1.000000 0.247000 0.249000 1600 50 1.100000 3.197000 3.650000 600 67 1.000000 0.053000 0.053000 1.200000 0.030000 0.036000
1517294204564133457	800 60 1.000000 0.247000 0.249000 1600 50 1.100000 3.164000 3.613000 600 67 1.000000 0.053000 0.053000 1.200000 0.030000 0.036000
1517294205069243999	800 60 1.000000 0.247000 0.249000 1600 50 1.100000 3.251000 3.712000 600 67 1.000000 0.053000 0.053000 1.200000 0.031000 0.037000
1517294205574205749	800 60 1.000000 0.247000 0.249000 1600 50 1.100000 3.169000 3.618000 600 67 1.000000 0.053000 0.053000 1.200000 0.030000 0.036000
1517294206079186958	800 60 1.000000 0.247000 0.249000 1600 50 1.100000 3.154000 3.601000 600 67 1.000000 0.053000 0.053000 1.200000 0.030000 0.036000
1517294206584439999	800 60 1.000000 0.247000 0.249000 1600 50 1.100000 3.161000 3.609000 600 67 1.000000 0.053000 0.053000 1.200000 0.030000 0.036000
1517294207089840291	800 60 1.000000 0.247000 0.249000 1600 50 1.100000 3.155000 3.603000 600 67 1.000000 0.053000 0.053000 1.200000 0.031000 0.037000
1517294207594814291	800 60 1.000000 0.247000 0.249000 1600 50 1.100000 3.156000 3.604000 600 67 1.000000 0.053000 0.053000 1.200000 0.031000 0.037000
1517294208099752458	800 61 1.000000 0.247000 0.249000 1600 50 1.100000 3.160000 3.608000 600 67 1.000000 0.053000 0.053000 1.200000 0.031000 0.037000
1517294208623596958	800 60 1.000000 0.247000 0.249000 1600 50 1.100000 3.174000 3.624000 600 67 1.000000 0.053000 0.053000 1.200000 0.030000 0.036000
1517294209128742000	800 61 1.000000 0.247000 0.249000 1600 50 1.100000 3.195000 3.648000 600 67 1.000000 0.053000 0.053000 1.200000 0.031000 0.037000
1517294209633833750	800 61 1.000000 0.247000 0.249000 1600 50 1.100000 3.190000 3.642000 600 67 1.000000 0.053000 0.053000 1.200000 0.030000 0.036000
1517294210138832083	800 61 1.000000 0.247000 0.249000 1600 50 1.100000 3.186000 3.638000 600 67 1.000000 0.053000 0.053000 1.200000 0.030000 0.036000
1517294210658841416	800 61 1.000000 0.247000 0.249000 1600 50 1.100000 3.171000 3.621000 600 67 1.000000 0.054000 0.054000 1.200000 0.030000 0.036000
1517294211165853667	800 61 1.000000 0.247000 0.249000 1600 50 1.100000 3.261000 3.724000 600 67 1.000000 0.054000 0.054000 1.200000 0.031000 0.037000
1517294211670877208	800 61 1.000000 0.247000 0.249000 1600 50 1.100000 3.179000 3.630000 600 67 1.000000 0.053000 0.053000 1.200000 0.030000 0.036000
1517294212175755583	800 61 1.000000 0.247000 0.249000 1600 50 1.100000 3.167000 3.616000 600 67 1.000000 0.053000 0.053000 1.200000 0.030000 0.036000
1517294212696223375	800 61 1.000000 0.247000 0.249000 1600 50 1.100000 3.171000 3.621000 600 67 1.000000 0.053000 0.053000 1.200000 0.030000 0.036000
1517294213201826542	800 61 1.000000 0.247000 0.249000 1600 50 1.100000 3.194000 3.647000 600 67 1.000000 0.053000 0.053000 1.200000 0.030000 0.036000
1517294213706818917	800 61 1.000000 0.247000 0.249000 1600 50 1.100000 3.190000 3.642000 600 67 1.000000 0.053000 0.053000 1.200000 0.030000 0.036000
1517294214211770750	800 61 1.000000 0.247000 0.249000 1600 50 1.100000 3.184000 3.636000 600 67 1.000000 0.054000 0.054000 1.200000 0.030000 0.036000
1517294214716892667	800 61 1.000000 0.248000 0.250000 1600 51 1.100000 3.188000 3.640000 600 67 1.000000 0.054000 0.054000 1.200000 0.030000 0.036000
1517294215221950750	800 61 1.000000 0.247000 0.249000 1600 51 1.100000 3.198000 3.652000 600 68 1.000000 0.053000 0.053000 1.200000 0.031000 0.037000
1517294215726866000	800 61 1.000000 0.247000 0.249000 1600 51 1.100000 3.200000 3.654000 600 68 1.000000 0.053000 0.053000 1.200000 0.030000 0.036000
1517294216231910250	800 61 1.000000 0.247000 0.249000 1600 50 1.100000 3.194000 3.647000 600 68 1.000000 0.054000 0.054000 1.200000 0.030000 0.036000
1517294216736967001	800 61 1.000000 0.248000 0.250000 1600 51 1.100000 3.181000 3.632000 600 68 1.000000 0.054000 0.054000 1.200000 0.031000 0.037000
1517294217242230042	800 61 1.000000 0.247000 0.249000 1600 51 1.100000 3.260000 3.722000 600 68 1.000000 0.053000 0.053000 1.200000 0.031000 0.037000
1517294217747214084	800 61 1.000000 0.247000 0.249000 1600 51 1.100000 3.178000 3.629000 600 68 1.000000 0.054000 0.054000 1.200000 0.032000 0.038000
1517294218252268042	800 61 1.000000 0.247000 0.249000 1600 51 1.100000 3.176000 3.626000 600 68 1.000000 0.053000 0.053000 1.200000 0.031000 0.037000
1517294218757442626	800 61 1.000000 0.247000 0.249000 1600 51 1.100000 3.172000 3.622000 600 68 1.000000 0.054000 0.054000 1.200000 0.030000 0.036000
1517294219262526251	800 61 1.000000 0.247000 0.249000 1600 51 1.100000 3.180000 3.631000 600 68 1.000000 0.054000 0.054000 1.200000 0.033000 0.039000
1517294219767531501	800 61 1.000000 0.247000 0.249000 1600 51 1.100000 3.179000 3.630000 600 68 1.000000 0.054000 0.054000 1.200000 0.030000 0.036000
1517294220272645168	800 61 1.000000 0.248000 0.250000 1600 51 1.100000 3.183000 3.634000 600 68 1.000000 0.053000 0.053000 1.200000 0.030000 0.036000
1517294220777728168	800 61 1.000000 0.247000 0.249000 1600 51 1.100000 3.167000 3.616000 600 68 1.000000 0.054000 0.054000 1.200000 0.030000 0.036000
1517294221282922376	800 61 1.000000 0.247000 0.249000 1600 51 1.100000 3.255000 3.717000 600 68 1.000000 0.054000 0.054000 1.200000 0.033000 0.039000
1517294221787897834	800 61 1.000000 0.247000 0.249000 1600 51 1.100000 3.164000 3.613000 600 68 1.000000 0.053000 0.053000 1.200000 0.030000 0.036000
1517294222292879001	800 61 1.000000 0.248000 0.250000 1600 51 1.100000 3.180000 3.631000 600 68 1.000000 0.053000 0.053000 1.200000 0.030000 0.036000
1517294222797955793	800 61 1.000000 0.247000 0.249000 1600 51 1.100000 3.191000 3.644000 600 68 1.000000 0.054000 0.054000 1.200000 0.031000 0.037000
1517294223303010918	800 61 1.000000 0.247000 0.249000 1600 51 1.100000 3.186000 3.638000 600 68 1.000000 0.054000 0.054000 1.200000 0.030000 0.036000
1517294223808037460	800 61 1.000000 0.247000 0.249000 1600 51 1.100000 3.191000 3.644000 600 68 1.000000 0.054000 0.054000 1.200000 0.031000 0.037000
1517294224312964501	800 61 1.000000 0.247000 0.249000 1600 51 1.100000 3.180000 3.631000 600 68 1.000000 0.054000 0.054000 1.200000 0.030000 0.036000
1517294224817986418	800 61 1.000000 0.248000 0.250000 1600 51 1.100000 3.183000 3.634000 600 68 1.000000 0.053000 0.053000 1.200000 0.031000 0.037000
1517294225323080168	800 62 1.000000 0.248000 0.250000 1600 51 1.100000 3.261000 3.724000 600 68 1.000000 0.054000 0.054000 1.200000 0.034000 0.041000
1517294225828130168	800 62 1.000000 0.248000 0.250000 1600 51 1.100000 3.167000 3.616000 600 68 1.000000 0.054000 0.054000 1.200000 0.032000 0.038000
1517294226333155168	800 62 1.000000 0.248000 0.250000 1600 51 1.100000 3.186000 3.638000 600 68 1.000000 0.054000 0.054000 1.200000 0.032000 0.038000
1517294226838087043	800 62 1.000000 0.248000 0.250000 1600 51 1.100000 3.176000 3.626000 600 68 1.000000 0.053000 0.053000 1.200000 0.032000 0.038000
1517294227343158877	800 62 1.000000 0.248000 0.250000 1600 51 1.100000 3.284000 3.750000 600 68 1.000000 0.054000 0.054000 1.200000 0.034000 0.041000
1517294227848294835	800 62 1.000000 0.248000 0.250000 1600 51 1.100000 3.206000 3.661000 600 68 1.000000 0.054000 0.054000 1.200000 0.033000 0.039000
1517294228353254085	800 62 1.000000 0.248000 0.250000 1600 51 1.100000 3.203000 3.657000 600 68 1.000000 0.054000 0.054000 1.200000 0.032000 0.038000
1517294228858219419	800 62 1.000000 0.248000 0.250000 1600 51 1.100000 3.203000 3.657000 600 68 1.000000 0.053000 0.053000 1.200000 0.031000 0.037000
1517294229363292544	800 62 1.000000 0.248000 0.250000 1600 51 1.100000 3.192000 3.645000 600 68 1.000000 0.054000 0.054000 1.200000 0.032000 0.038000
1517294229868226085	800 62 1.000000 0.249000 0.251000 1600 51 1.100000 3.235000 3.694000 600 68 1.000000 0.053000 0.053000 1.200000 0.032000 0.038000
1517294230373254169	800 62 1.000000 0.248000 0.250000 1600 51 1.100000 3.218000 3.674000 600 68 1.000000 0.054000 0.054000 1.200000 0.031000 0.037000
1517294230878185211	800 62 1.000000 0.249000 0.251000 1600 51 1.100000 3.211000 3.666000 600 68 1.000000 0.054000 0.054000 1.200000 0.032000 0.038000
1517294231383235419	800 62 1.000000 0.248000 0.250000 1600 51 1.100000 3.306000 3.775000 600 69 1.000000 0.054000 0.054000 1.200000 0.035000 0.042000
1517294231888226294	800 62 1.000000 0.248000 0.250000 1600 51 1.100000 3.212000 3.668000 600 69 1.000000 0.054000 0.054000 1.200000 0.032000 0.038000
1517294232393260877	800 62 1.000000 0.249000 0.251000 1600 51 1.100000 3.226000 3.684000 600 68 1.000000 0.054000 0.054000 1.200000 0.032000 0.038000
1517294232898202252	800 62 1.000000 0.249000 0.251000 1600 51 1.100000 3.205000 3.660000 600 69 1.000000 0.054000 0.054000 1.200000 0.032000 0.038000
1517294233403303961	800 62 1.000000 0.248000 0.250000 1600 51 1.100000 3.300000 3.768000 600 69 1.000000 0.054000 0.054000 1.200000 0.035000 0.042000
1517294233908288836	800 62 1.000000 0.249000 0.251000 1600 52 1.100000 3.231000 3.689000 600 69 1.000000 0.054000 0.054000 1.200000 0.032000 0.038000
1517294234413332294	800 62 1.000000 0.249000 0.251000 1600 51 1.100000 3.214000 3.670000 600 69 1.000000 0.054000 0.054000 1.200000 0.032000 0.038000
1517294234918279336	800 62 1.000000 0.248000 0.250000 1600 51 1.100000 3.250000 3.711000 600 69 1.000000 0.054000 0.054000 1.200000 0.032000 0.038000
1517294235423367836	800 62 1.000000 0.248000 0.250000 1600 52 1.100000 3.244000 3.704000 600 69 1.000000 0.054000 0.054000 1.200000 0.032000 0.038000
1517294235928374253	800 62 1.000000 0.249000 0.251000 1600 52 1.100000 3.241000 3.701000 600 69 1.000000 0.054000 0.054000 1.200000 0.032000 0.038000
1517294236433345586	800 62 1.000000 0.248000 0.250000 1600 52 1.100000 3.254000 3.716000 600 69 1.000000 0.054000 0.054000 1.200000 0.032000 0.038000
1517294236938310211	800 63 1.000000 0.249000 0.251000 1600 52 1.100000 3.258000 3.720000 600 69 1.000000 0.054000 0.054000 1.200000 0.032000 0.038000
1517294237443321961	800 63 1.000000 0.249000 0.251000 1600 52 1.100000 3.309000 3.778000 600 69 1.000000 0.054000 0.054000 1.200000 0.035000 0.042000
1517294237948361795	800 63 1.000000 0.249000 0.251000 1600 52 1.100000 3.261000 3.724000 600 69 1.000000 0.054000 0.054000 1.200000 0.032000 0.038000
1517294238453456170	800 63 1.000000 0.249000 0.251000 1600 52 1.100000 3.271000 3.735000 600 69 1.000000 0.054000 0.054000 1.200000 0.032000 0.038000
1517294238958449503	800 63 1.000000 0.249000 0.251000 1600 52 1.100000 3.255000 3.717000 600 69 1.000000 0.054000 0.054000 1.200000 0.032000 0.038000
1517294239463517462	800 63 1.000000 0.249000 0.251000 1600 52 1.100000 3.344000 3.822000 600 69 1.000000 0.054000 0.054000 1.200000 0.035000 0.042000
1517294239968550003	800 63 1.000000 0.249000 0.251000 1600 52 1.100000 3.254000 3.716000 600 69 1.000000 0.054000 0.054000 1.200000 0.032000 0.038000
1517294240473557378	800 62 1.000000 0.249000 0.251000 1600 52 1.100000 3.247000 3.708000 600 69 1.000000 0.054000 0.054000 1.200000 0.032000 0.038000
1517294240978476503	800 63 1.000000 0.249000 0.251000 1600 52 1.100000 3.239000 3.698000 600 69 1.000000 0.054000 0.054000 1.200000 0.032000 0.038000
1517294241483655753	800 63 1.000000 0.249000 0.251000 1600 52 1.100000 3.254000 3.716000 600 69 1.000000 0.054000 0.054000 1.200000 0.032000 0.038000
1517294241988618087	800 63 1.000000 0.249000 0.251000 1600 52 1.100000 3.247000 3.708000 600 69 1.000000 0.054000 0.054000 1.200000 0.032000 0.038000
1517294242493605379	800 63 1.000000 0.249000 0.251000 1600 52 1.100000 3.249000 3.710000 600 69 1.000000 0.054000 0.054000 1.200000 0.031000 0.037000
1517294242998518795	800 63 1.000000 0.249000 0.251000 1600 52 1.100000 3.234000 3.693000 600 69 1.000000 0.054000 0.054000 1.200000 0.032000 0.038000
1517294243503756337	800 63 1.000000 0.249000 0.251000 1600 52 1.100000 3.231000 3.689000 600 69 1.000000 0.054000 0.054000 1.200000 0.034000 0.041000
1517294244008740295	800 63 1.000000 0.249000 0.251000 1600 52 1.100000 3.210000 3.665000 600 69 1.000000 0.054000 0.054000 1.200000 0.032000 0.038000
1517294244513819254	800 63 1.000000 0.249000 0.251000 1600 52 1.100000 3.237000 3.696000 600 69 1.000000 0.054000 0.054000 1.200000 0.032000 0.038000
1517294245018763796	800 63 1.000000 0.249000 0.251000 1600 52 1.100000 3.220000 3.677000 600 69 1.000000 0.054000 0.054000 1.200000 0.032000 0.038000
1517294245524131504	800 63 1.000000 0.249000 0.251000 1600 52 1.100000 3.214000 3.670000 600 69 1.000000 0.054000 0.054000 1.200000 0.032000 0.038000
1517294246029190046	800 63 1.000000 0.249000 0.251000 1600 52 1.100000 3.214000 3.670000 600 69 1.000000 0.054000 0.054000 1.200000 0.031000 0.037000
1517294246534138712	800 63 1.000000 0.249000 0.251000 1600 52 1.100000 3.226000 3.684000 600 69 1.000000 0.054000 0.054000 1.200000 0.032000 0.038000
1517294247039047629	800 63 1.000000 0.249000 0.251000 1600 52 1.100000 3.209000 3.664000 600 69 1.000000 0.054000 0.054000 1.200000 0.032000 0.038000
1517294247544283713	800 63 1.000000 0.249000 0.251000 1600 52 1.100000 3.228000 3.686000 600 69 1.000000 0.054000 0.054000 1.200000 0.032000 0.038000
1517294248049420421	800 63 1.000000 0.249000 0.251000 1600 52 1.100000 3.202000 3.656000 600 69 1.000000 0.054000 0.054000 1.200000 0.032000 0.038000
1517294248554327963	800 63 1.000000 0.249000 0.251000 1600 52 1.100000 3.212000 3.668000 600 69 1.000000 0.054000 0.054000 1.200000 0.032000 0.038000
1517294249059255963	800 63 1.000000 0.249000 0.251000 1600 52 1.100000 3.197000 3.650000 600 69 1.000000 0.054000 0.054000 1.200000 0.032000 0.038000
1517294249564648088	800 63 1.000000 0.249000 0.251000 1600 52 1.100000 3.235000 3.694000 600 69 1.000000 0.054000 0.054000 1.200000 0.032000 0.038000
1517294250069782380	800 63 1.000000 0.249000 0.251000 1600 52 1.100000 3.218000 3.674000 600 69 1.000000 0.054000 0.054000 1.200000 0.032000 0.038000
1517294250574686963	800 63 1.000000 0.249000 0.251000 1600 52 1.100000 3.221000 3.678000 600 69 1.000000 0.054000 0.054000 1.200000 0.031000 0.037000
1517294251079747838	800 63 1.000000 0.248000 0.250000 1600 52 1.100000 3.228000 3.686000 600 69 1.000000 0.054000 0.054000 1.200000 0.030000 0.036000
1517294251585070796	800 63 1.000000 0.248000 0.250000 1600 52 1.100000 3.224000 3.681000 600 69 1.000000 0.054000 0.054000 1.200000 0.030000 0.036000
1517294252090142713	800 63 1.000000 0.247000 0.249000 1600 52 1.100000 3.203000 3.657000 600 69 1.000000 0.054000 0.054000 1.200000 0.030000 0.036000
1517294252595071421	800 63 1.000000 0.248000 0.250000 1600 52 1.100000 3.210000 3.665000 600 69 1.000000 0.054000 0.054000 1.200000 0.029000 0.034000
1517294253100093922	800 63 1.000000 0.248000 0.250000 1600 52 1.100000 3.194000 3.647000 600 69 1.000000 0.054000 0.054000 1.200000 0.029000 0.034000
1517294253605482547	800 63 1.000000 0.248000 0.250000 1600 52 1.100000 3.212000 3.668000 600 69 1.000000 0.054000 0.054000 1.200000 0.030000 0.036000
1517294254110577922	800 63 1.000000 0.248000 0.250000 1600 52 1.100000 3.192000 3.645000 600 69 1.000000 0.054000 0.054000 1.200000 0.030000 0.036000
1517294254615474630	800 63 1.000000 0.248000 0.250000 1600 52 1.100000 3.220000 3.677000 600 69 1.000000 0.054000 0.054000 1.200000 0.030000 0.036000
1517294255120395838	800 63 1.000000 0.248000 0.250000 1600 52 1.100000 3.204000 3.658000 600 69 1.000000 0.054000 0.054000 1.200000 0.030000 0.036000
1517294255625705130	800 63 1.000000 0.248000 0.250000 1600 52 1.100000 3.204000 3.658000 600 69 1.000000 0.054000 0.054000 1.200000 0.029000 0.034000
1517294256130872422	800 63 1.000000 0.248000 0.250000 1600 52 1.100000 3.210000 3.665000 600 69 1.000000 0.054000 0.054000 1.200000 0.033000 0.039000
1517294256635876964	800 63 1.000000 0.248000 0.250000 1600 52 1.100000 3.192000 3.645000 600 69 1.000000 0.054000 0.054000 1.200000 0.029000 0.034000
1517294257140905422	800 63 1.000000 0.248000 0.250000 1600 52 1.100000 3.206000 3.661000 600 69 1.000000 0.054000 0.054000 1.200000 0.030000 0.036000
1517294257648179755	800 63 1.000000 0.248000 0.250000 1600 52 1.100000 3.228000 3.686000 600 69 1.000000 0.054000 0.054000 1.200000 0.030000 0.036000
1517294258153457297	800 63 1.000000 0.248000 0.250000 1600 52 1.100000 3.294000 3.765000 600 69 1.000000 0.054000 0.054000 1.200000 0.032000 0.038000
1517294258658468589	800 63 1.000000 0.248000 0.250000 1600 52 1.100000 3.226000 3.684000 600 69 1.000000 0.054000 0.054000 1.200000 0.031000 0.037000
1517294259163395214	800 63 1.000000 0.248000 0.250000 1600 52 1.100000 3.216000 3.672000 600 69 1.000000 0.054000 0.054000 1.200000 0.029000 0.034000
1517294259688310006	800 63 1.000000 0.248000 0.250000 1600 52 1.100000 3.207000 3.662000 600 69 1.000000 0.054000 0.054000 1.200000 0.030000 0.036000
1517294260193620131	800 63 1.000000 0.248000 0.250000 1600 52 1.100000 3.294000 3.761000 600 69 1.000000 0.054000 0.054000 1.200000 0.033000 0.039000
1517294260698554214	800 63 1.000000 0.248000 0.250000 1600 52 1.100000 3.184000 3.636000 600 69 1.000000 0.054000 0.054000 1.200000 0.030000 0.036000
1517294261203497964	800 63 1.000000 0.248000 0.250000 1600 52 1.100000 3.200000 3.654000 600 69 1.000000 0.054000 0.054000 1.200000 0.029000 0.034000
1517294261722880839	800 63 1.000000 0.248000 0.250000 1600 52 1.100000 3.175000 3.625000 600 69 1.000000 0.054000 0.054000 1.200000 0.030000 0.036000
1517294262229850256	800 63 1.000000 0.248000 0.250000 1600 52 1.100000 3.264000 3.727000 600 69 1.000000 0.054000 0.054000 1.200000 0.033000 0.039000
1517294262734858964	800 63 1.000000 0.248000 0.250000 1600 52 1.100000 3.196000 3.649000 600 69 1.000000 0.054000 0.054000 1.200000 0.030000 0.036000
1517294263239897548	800 63 1.000000 0.248000 0.250000 1600 52 1.100000 3.191000 3.644000 600 69 1.000000 0.054000 0.054000 1.200000 0.030000 0.036000
1517294263760361631	800 63 1.000000 0.248000 0.250000 1600 52 1.100000 3.192000 3.645000 600 69 1.000000 0.054000 0.054000 1.200000 0.029000 0.034000
1517294264269877048	800 63 1.000000 0.248000 0.250000 1600 52 1.100000 3.212000 3.668000 600 70 1.000000 0.054000 0.054000 1.200000 0.031000 0.037000
1517294264774918756	800 63 1.000000 0.248000 0.250000 1600 52 1.100000 3.208000 3.663000 600 69 1.000000 0.054000 0.054000 1.200000 0.030000 0.036000
1517294265279891548	800 63 1.000000 0.248000 0.250000 1600 52 1.100000 3.189000 3.641000 600 69 1.000000 0.054000 0.054000 1.200000 0.030000 0.036000
1517294265784899465	800 63 1.000000 0.248000 0.250000 1600 52 1.100000 3.203000 3.657000 600 69 1.000000 0.054000 0.054000 1.200000 0.029000 0.034000
1517294266290830298	800 63 1.000000 0.248000 0.250000 1600 52 1.100000 3.270000 3.734000 600 69 1.000000 0.054000 0.054000 1.200000 0.033000 0.039000
1517294266795764423	800 63 1.000000 0.248000 0.250000 1600 52 1.100000 3.197000 3.650000 600 69 1.000000 0.054000 0.054000 1.200000 0.030000 0.036000
1517294267300733798	800 63 1.000000 0.248000 0.250000 1600 53 1.100000 3.200000 3.654000 600 69 1.000000 0.054000 0.054000 1.200000 0.029000 0.034000
1517294267805783673	800 63 1.000000 0.248000 0.250000 1600 52 1.100000 3.186000 3.638000 600 69 1.000000 0.054000 0.054000 1.200000 0.030000 0.036000
1517294268310821132	800 63 1.000000 0.248000 0.250000 1600 52 1.100000 3.279000 3.744000 600 70 1.000000 0.054000 0.054000 1.200000 0.033000 0.039000
1517294268815891673	800 63 1.000000 0.248000 0.250000 1600 52 1.100000 3.196000 3.649000 600 69 1.000000 0.054000 0.054000 1.200000 0.030000 0.036000
1517294269320955798	800 63 1.000000 0.248000 0.250000 1600 52 1.100000 3.190000 3.642000 600 69 1.000000 0.054000 0.054000 1.200000 0.030000 0.036000
1517294269825960965	800 63 1.000000 0.248000 0.250000 1600 52 1.100000 3.218000 3.674000 600 70 1.000000 0.054000 0.054000 1.200000 0.029000 0.034000
1517294270330915757	800 63 1.000000 0.248000 0.250000 1600 53 1.100000 3.254000 3.716000 600 70 1.000000 0.054000 0.054000 1.200000 0.032000 0.038000
1517294270835956882	800 63 1.000000 0.248000 0.250000 1600 53 1.100000 3.211000 3.666000 600 70 1.000000 0.054000 0.054000 1.200000 0.030000 0.036000
1517294271340953007	800 63 1.000000 0.248000 0.250000 1600 52 1.100000 3.195000 3.648000 600 69 1.000000 0.054000 0.054000 1.200000 0.030000 0.036000
1517294271845872215	800 63 1.000000 0.248000 0.250000 1600 53 1.100000 3.183000 3.634000 600 70 1.000000 0.054000 0.054000 1.200000 0.029000 0.034000
1517294272350870757	800 63 1.000000 0.248000 0.250000 1600 52 1.100000 3.264000 3.730000 600 70 1.000000 0.054000 0.054000 1.200000 0.033000 0.039000
1517294272855890257	800 63 1.000000 0.248000 0.250000 1600 52 1.100000 3.169000 3.618000 600 70 1.000000 0.054000 0.054000 1.200000 0.029000 0.035000
1517294273360739591	800 63 1.000000 0.248000 0.250000 1600 52 1.100000 3.187000 3.639000 600 70 1.000000 0.054000 0.054000 1.200000 0.030000 0.036000
1517294273865831257	800 63 1.000000 0.248000 0.250000 1600 53 1.100000 3.189000 3.641000 600 70 1.000000 0.054000 0.054000 1.200000 0.030000 0.036000
1517294274370925132	800 63 1.000000 0.248000 0.250000 1600 52 1.100000 3.258000 3.720000 600 69 1.000000 0.054000 0.054000 1.200000 0.034000 0.041000
1517294274875877591	800 63 1.000000 0.248000 0.250000 1600 53 1.100000 3.196000 3.649000 600 69 1.000000 0.054000 0.054000 1.200000 0.029000 0.034000
1517294275380890508	800 63 1.000000 0.248000 0.250000 1600 52 1.100000 3.194000 3.647000 600 70 1.000000 0.054000 0.054000 1.200000 0.030000 0.036000
1517294275885854049	800 63 1.000000 0.248000 0.250000 1600 53 1.100000 3.172000 3.622000 600 70 1.000000 0.054000 0.054000 1.200000 0.030000 0.036000
1517294276390973174	800 63 1.000000 0.248000 0.250000 1600 53 1.100000 3.210000 3.665000 600 70 1.000000 0.054000 0.054000 1.200000 0.031000 0.037000
1517294276896049049	800 63 1.000000 0.248000 0.250000 1600 53 1.100000 3.188000 3.640000 600 70 1.000000 0.054000 0.054000 1.200000 0.030000 0.036000
1517294277401034758	800 63 1.000000 0.248000 0.250000 1600 53 1.100000 3.196000 3.649000 600 70 1.000000 0.054000 0.054000 1.200000 0.030000 0.036000
1517294277906021549	800 63 1.000000 0.248000 0.250000 1600 52 1.100000 3.185000 3.637000 600 70 1.000000 0.054000 0.054000 1.200000 0.030000 0.036000
1517294278411042508	800 63 1.000000 0.247000 0.249000 1600 53 1.100000 3.299000 3.767000 600 70 1.000000 0.054000 0.054000 1.200000 0.034000 0.041000
1517294278915990091	800 63 1.000000 0.248000 0.250000 1600 53 1.100000 3.220000 3.677000 600 70 1.000000 0.054000 0.054000 1.200000 0.031000 0.037000
1517294279421017758	800 63 1.000000 0.248000 0.250000 1600 53 1.100000 3.213000 3.669000 600 70 1.000000 0.054000 0.054000 1.200000 0.030000 0.036000
1517294279925981133	800 63 1.000000 0.248000 0.250000 1600 53 1.100000 3.231000 3.689000 600 70 1.000000 0.054000 0.054000 1.200000 0.030000 0.036000
1517294280430927091	800 63 1.000000 0.248000 0.250000 1600 53 1.100000 3.318000 3.789000 600 70 1.000000 0.054000 0.054000 1.200000 0.034000 0.041000
1517294280935964425	800 63 1.000000 0.248000 0.250000 1600 53 1.100000 3.214000 3.670000 600 70 1.000000 0.054000 0.054000 1.200000 0.030000 0.036000
1517294281441044300	800 63 1.000000 0.248000 0.250000 1600 53 1.100000 3.234000 3.693000 600 70 1.000000 0.054000 0.054000 1.200000 0.030000 0.036000
1517294281945995217	800 63 1.000000 0.248000 0.250000 1600 53 1.100000 3.197000 3.650000 600 70 1.000000 0.054000 0.054000 1.200000 0.030000 0.036000
1517294282450953383	800 63 1.000000 0.248000 0.250000 1600 53 1.100000 3.206000 3.661000 600 70 1.000000 0.054000 0.054000 1.200000 0.030000 0.036000
1517294282955945508	800 63 1.000000 0.248000 0.250000 1600 53 1.100000 3.197000 3.650000 600 70 1.000000 0.054000 0.054000 1.200000 0.030000 0.036000
1517294283461007050	800 63 1.000000 0.248000 0.250000 1600 53 1.100000 3.213000 3.669000 600 70 1.000000 0.054000 0.054000 1.200000 0.030000 0.036000
1517294283966084509	800 63 1.000000 0.248000 0.250000 1600 53 1.100000 3.217000 3.673000 600 70 1.000000 0.054000 0.054000 1.200000 0.030000 0.036000
1517294284471154009	800 63 1.000000 0.248000 0.250000 1600 53 1.100000 3.276000 3.744000 600 70 1.000000 0.054000 0.054000 1.200000 0.033000 0.039000
1517294284976210050	800 63 1.000000 0.248000 0.250000 1600 53 1.100000 3.226000 3.684000 600 70 1.000000 0.054000 0.054000 1.200000 0.031000 0.037000
1517294285481339550	800 63 1.000000 0.248000 0.250000 1600 53 1.100000 3.229000 3.687000 600 70 1.000000 0.054000 0.054000 1.200000 0.030000 0.036000
1517294285986285175	800 63 1.000000 0.248000 0.250000 1600 53 1.100000 3.206000 3.661000 600 70 1.000000 0.054000 0.054000 1.200000 0.030000 0.036000
1517294286491482342	800 63 1.000000 0.248000 0.250000 1600 53 1.100000 3.303000 3.772000 600 70 1.000000 0.054000 0.054000 1.200000 0.034000 0.041000
1517294286996498467	800 64 1.000000 0.248000 0.250000 1600 53 1.100000 3.222000 3.679000 600 70 1.000000 0.054000 0.054000 1.200000 0.030000 0.036000
1517294287501486884	800 63 1.000000 0.248000 0.250000 1600 53 1.100000 3.223000 3.680000 600 70 1.000000 0.054000 0.054000 1.200000 0.031000 0.037000
1517294288006470717	800 64 1.000000 0.248000 0.250000 1600 53 1.100000 3.231000 3.689000 600 70 1.000000 0.054000 0.054000 1.200000 0.030000 0.036000
1517294288511721759	800 63 1.000000 0.248000 0.250000 1600 53 1.100000 3.223000 3.680000 600 70 1.000000 0.054000 0.054000 1.200000 0.030000 0.036000
1517294289016893467	800 63 1.000000 0.248000 0.250000 1600 53 1.100000 3.227000 3.685000 600 70 1.000000 0.054000 0.054000 1.200000 0.030000 0.036000
1517294289521912551	800 63 1.000000 0.248000 0.250000 1600 53 1.100000 3.211000 3.666000 600 70 1.000000 0.054000 0.054000 1.200000 0.030000 0.036000
1517294290026860634	800 63 1.000000 0.248000 0.250000 1600 53 1.100000 3.214000 3.670000 600 70 1.000000 0.054000 0.054000 1.200000 0.031000 0.037000
1517294290532178801	800 63 1.000000 0.248000 0.250000 1600 53 1.100000 3.295000 3.766000 600 70 1.000000 0.054000 0.054000 1.200000 0.034000 0.041000
1517294291037341801	800 63 1.000000 0.248000 0.250000 1600 53 1.100000 3.212000 3.668000 600 70 1.000000 0.054000 0.054000 1.200000 0.031000 0.037000
1517294291542313926	800 64 1.000000 0.248000 0.250000 1600 53 1.100000 3.248000 3.709000 600 70 1.000000 0.054000 0.054000 1.200000 0.030000 0.036000
1517294292047248843	800 63 1.000000 0.248000 0.250000 1600 53 1.100000 3.226000 3.684000 600 70 1.000000 0.054000 0.054000 1.200000 0.030000 0.036000
1517294292552569468	800 64 1.000000 0.248000 0.250000 1600 53 1.100000 3.227000 3.685000 600 70 1.000000 0.054000 0.054000 1.200000 0.033000 0.039000
1517294293057610343	800 64 1.000000 0.248000 0.250000 1600 53 1.100000 3.207000 3.662000 600 70 1.000000 0.054000 0.054000 1.200000 0.031000 0.037000
1517294293562586260	800 63 1.000000 0.248000 0.250000 1600 53 1.100000 3.219000 3.676000 600 70 1.000000 0.054000 0.054000 1.200000 0.030000 0.036000
1517294294067644760	800 64 1.000000 0.248000 0.250000 1600 53 1.100000 3.202000 3.656000 600 70 1.000000 0.054000 0.054000 1.200000 0.030000 0.036000
1517294294572938010	800 64 1.000000 0.248000 0.250000 1600 53 1.100000 3.224000 3.681000 600 70 1.000000 0.054000 0.054000 1.200000 0.030000 0.036000
1517294295077950718	800 64 1.000000 0.248000 0.250000 1600 53 1.100000 3.297000 3.765000 600 70 1.000000 0.055000 0.055000 1.200000 0.033000 0.039000
1517294295582987385	800 63 1.000000 0.248000 0.250000 1600 53 1.100000 3.201000 3.655000 600 70 1.000000 0.054000 0.054000 1.200000 0.030000 0.036000
1517294296087875302	800 63 1.000000 0.248000 0.250000 1600 53 1.100000 3.197000 3.650000 600 70 1.000000 0.054000 0.054000 1.200000 0.030000 0.036000
1517294296593251718	800 64 1.000000 0.248000 0.250000 1600 53 1.100000 3.177000 3.628000 600 70 1.000000 0.054000 0.054000 1.200000 0.030000 0.036000
1517294297098302552	800 63 1.000000 0.248000 0.250000 1600 53 1.100000 3.190000 3.642000 600 70 1.000000 0.054000 0.054000 1.200000 0.030000 0.036000
1517294297603302510	800 63 1.000000 0.248000 0.250000 1600 53 1.100000 3.192000 3.645000 600 70 1.000000 0.054000 0.054000 1.200000 0.030000 0.036000
1517294298108281469	800 63 1.000000 0.248000 0.250000 1600 53 1.100000 3.183000 3.634000 600 70 1.000000 0.054000 0.054000 1.200000 0.030000 0.036000
1517294298613626594	800 64 1.000000 0.248000 0.250000 1600 53 1.100000 3.198000 3.652000 600 70 1.000000 0.054000 0.054000 1.200000 0.030000 0.036000
1517294299118706802	800 64 1.000000 0.248000 0.250000 1600 53 1.100000 3.198000 3.652000 600 70 1.000000 0.054000 0.054000 1.200000 0.031000 0.037000
1517294299623689302	800 63 1.000000 0.248000 0.250000 1600 53 1.100000 3.195000 3.648000 600 70 1.000000 0.054000 0.054000 1.200000 0.031000 0.037000
1517294300128657344	800 63 1.000000 0.248000 0.250000 1600 53 1.100000 3.191000 3.644000 600 70 1.000000 0.054000 0.054000 1.200000 0.031000 0.037000
1517294300634054219	800 64 1.000000 0.248000 0.250000 1600 53 1.100000 3.189000 3.641000 600 70 1.000000 0.054000 0.054000 1.200000 0.030000 0.036000
1517294301139088344	800 64 1.000000 0.248000 0.250000 1600 53 1.100000 3.289000 3.756000 600 70 1.000000 0.054000 0.054000 1.200000 0.033000 0.039000
1517294301644126594	800 63 1.000000 0.248000 0.250000 1600 53 1.100000 3.191000 3.644000 600 70 1.000000 0.054000 0.054000 1.200000 0.030000 0.036000
1517294302149187802	800 64 1.000000 0.248000 0.250000 1600 53 1.100000 3.197000 3.650000 600 70 1.000000 0.054000 0.054000 1.200000 0.030000 0.036000
1517294302654452636	800 64 1.000000 0.248000 0.250000 1600 53 1.100000 3.183000 3.634000 600 70 1.000000 0.054000 0.054000 1.200000 0.030000 0.036000
1517294303159523719	800 63 1.000000 0.249000 0.251000 1600 53 1.100000 3.184000 3.636000 600 70 1.000000 0.054000 0.054000 1.200000 0.030000 0.036000
1517294303664486344	800 63 1.000000 0.249000 0.251000 1600 53 1.100000 3.197000 3.650000 600 70 1.000000 0.054000 0.054000 1.200000 0.029000 0.035000
1517294304169480428	800 63 1.000000 0.249000 0.251000 1600 53 1.100000 3.197000 3.650000 600 70 1.000000 0.054000 0.054000 1.200000 0.029000 0.034000
1517294304674669803	800 64 1.000000 0.249000 0.251000 1600 53 1.100000 3.203000 3.657000 600 70 1.000000 0.054000 0.054000 1.200000 0.029000 0.034000
1517294305179802594	800 64 1.000000 0.249000 0.251000 1600 53 1.100000 3.194000 3.647000 600 70 1.000000 0.054000 0.054000 1.200000 0.029000 0.034000
1517294305684897469	800 64 1.000000 0.249000 0.251000 1600 53 1.100000 3.218000 3.674000 600 70 1.000000 0.054000 0.054000 1.200000 0.029000 0.035000
1517294306189857595	800 64 1.000000 0.249000 0.251000 1600 53 1.100000 3.203000 3.657000 600 70 1.000000 0.054000 0.054000 1.200000 0.029000 0.035000
1517294306695184636	800 64 1.000000 0.249000 0.251000 1600 53 1.100000 3.184000 3.636000 600 70 1.000000 0.055000 0.055000 1.200000 0.029000 0.034000
1517294307200156678	800 63 1.000000 0.249000 0.251000 1600 53 1.100000 3.281000 3.746000 600 70 1.000000 0.054000 0.054000 1.200000 0.032000 0.038000
1517294307705179970	800 64 1.000000 0.249000 0.251000 1600 53 1.100000 3.192000 3.645000 600 70 1.000000 0.054000 0.054000 1.200000 0.029000 0.034000
1517294308210017595	800 63 1.000000 0.249000 0.251000 1600 53 1.100000 3.189000 3.641000 600 70 1.000000 0.054000 0.054000 1.200000 0.028000 0.033000
1517294308716620136	800 64 1.000000 0.249000 0.251000 1600 53 1.100000 3.202000 3.656000 600 70 1.000000 0.054000 0.054000 1.200000 0.029000 0.035000
1517294309221762845	800 64 1.000000 0.249000 0.251000 1600 53 1.100000 3.239000 3.698000 600 70 1.000000 0.054000 0.054000 1.200000 0.031000 0.037000
1517294309726756720	800 64 1.000000 0.249000 0.251000 1600 53 1.100000 3.206000 3.661000 600 70 1.000000 0.054000 0.054000 1.200000 0.030000 0.036000
1517294310231628803	800 64 1.000000 0.249000 0.251000 1600 53 1.100000 3.182000 3.633000 600 70 1.000000 0.054000 0.054000 1.200000 0.029000 0.034000
1517294310756505387	800 64 1.000000 0.249000 0.251000 1600 53 1.100000 3.208000 3.663000 600 70 1.000000 0.054000 0.054000 1.200000 0.029000 0.034000
1517294311261852595	800 63 1.000000 0.249000 0.251000 1600 53 1.100000 3.197000 3.650000 600 70 1.000000 0.054000 0.054000 1.200000 0.029000 0.034000
1517294311766840762	800 64 1.000000 0.249000 0.251000 1600 53 1.100000 3.197000 3.650000 600 70 1.000000 0.054000 0.054000 1.200000 0.030000 0.036000
1517294312271815220	800 64 1.000000 0.249000 0.251000 1600 53 1.100000 3.196000 3.649000 600 70 1.000000 0.054000 0.054000 1.200000 0.029000 0.035000
1517294312794799262	800 64 1.000000 0.249000 0.251000 1600 53 1.100000 3.187000 3.639000 600 70 1.000000 0.054000 0.054000 1.200000 0.029000 0.035000
1517294313299939679	800 64 1.000000 0.249000 0.251000 1600 53 1.100000 3.269000 3.733000 600 70 1.000000 0.054000 0.054000 1.200000 0.032000 0.038000
1517294313804934470	800 64 1.000000 0.249000 0.251000 1600 53 1.100000 3.185000 3.637000 600 70 1.000000 0.054000 0.054000 1.200000 0.029000 0.035000
1517294314309952762	800 64 1.000000 0.249000 0.251000 1600 53 1.100000 3.221000 3.678000 600 70 1.000000 0.054000 0.054000 1.200000 0.029000 0.034000
1517294314828732012	800 64 1.000000 0.249000 0.251000 1600 53 1.100000 3.227000 3.685000 600 70 1.000000 0.054000 0.054000 1.200000 0.029000 0.034000
1517294315337792262	800 64 1.000000 0.249000 0.251000 1600 53 1.100000 3.286000 3.755000 600 70 1.000000 0.054000 0.054000 1.200000 0.034000 0.041000
1517294315842802596	800 64 1.000000 0.249000 0.251000 1600 53 1.100000 3.221000 3.678000 600 70 1.000000 0.054000 0.054000 1.200000 0.030000 0.036000
1517294316347872012	800 64 1.000000 0.249000 0.251000 1600 53 1.100000 3.209000 3.664000 600 70 1.000000 0.054000 0.054000 1.200000 0.029000 0.034000
1517294316852957846	800 64 1.000000 0.249000 0.251000 1600 53 1.100000 3.203000 3.657000 600 70 1.000000 0.054000 0.054000 1.200000 0.030000 0.036000
1517294317358289554	800 64 1.000000 0.249000 0.251000 1600 53 1.100000 3.215000 3.671000 600 70 1.000000 0.054000 0.054000 1.200000 0.029000 0.034000
1517294317863247346	800 64 1.000000 0.249000 0.251000 1600 53 1.100000 3.202000 3.656000 600 70 1.000000 0.054000 0.054000 1.200000 0.029000 0.035000
1517294318368169971	800 64 1.000000 0.249000 0.251000 1600 53 1.100000 3.222000 3.679000 600 70 1.000000 0.054000 0.054000 1.200000 0.029000 0.034000
1517294318873242721	800 64 1.000000 0.249000 0.251000 1600 53 1.100000 3.228000 3.686000 600 70 1.000000 0.054000 0.054000 1.200000 0.029000 0.034000
1517294319378257221	800 64 1.000000 0.249000 0.251000 1600 53 1.100000 3.318000 3.789000 600 70 1.000000 0.054000 0.054000 1.200000 0.033000 0.039000
1517294319883328263	800 64 1.000000 0.249000 0.251000 1600 53 1.100000 3.237000 3.696000 600 70 1.000000 0.055000 0.055000 1.200000 0.029000 0.034000
1517294320388252055	800 64 1.000000 0.249000 0.251000 1600 53 1.100000 3.217000 3.673000 600 70 1.000000 0.054000 0.054000 1.200000 0.030000 0.036000
1517294320893300971	800 64 1.000000 0.249000 0.251000 1600 53 1.100000 3.223000 3.680000 600 70 1.000000 0.054000 0.054000 1.200000 0.029000 0.034000
1517294321398282263	800 64 1.000000 0.249000 0.251000 1600 53 1.100000 3.292000 3.759000 600 70 1.000000 0.054000 0.054000 1.200000 0.034000 0.041000
1517294321903316888	800 64 1.000000 0.249000 0.251000 1600 53 1.100000 3.217000 3.673000 600 70 1.000000 0.054000 0.054000 1.200000 0.029000 0.034000
1517294322408228763	800 64 1.000000 0.249000 0.251000 1600 53 1.100000 3.219000 3.676000 600 70 1.000000 0.054000 0.054000 1.200000 0.029000 0.034000
1517294322913252805	800 64 1.000000 0.249000 0.251000 1600 53 1.100000 3.199000 3.653000 600 70 1.000000 0.054000 0.054000 1.200000 0.029000 0.034000
1517294323418383347	800 64 1.000000 0.249000 0.251000 1600 53 1.100000 3.218000 3.674000 600 70 1.000000 0.054000 0.054000 1.200000 0.029000 0.034000
1517294323923389013	800 64 1.000000 0.249000 0.251000 1600 53 1.100000 3.215000 3.671000 600 70 1.000000 0.055000 0.055000 1.200000 0.029000 0.034000
1517294324428339847	800 64 1.000000 0.249000 0.251000 1600 53 1.100000 3.199000 3.653000 600 70 1.000000 0.054000 0.054000 1.200000 0.029000 0.035000
1517294324933408180	800 64 1.000000 0.249000 0.251000 1600 53 1.100000 3.231000 3.689000 600 70 1.000000 0.054000 0.054000 1.200000 0.029000 0.035000
1517294325438412930	800 64 1.000000 0.249000 0.251000 1600 53 1.100000 3.284000 3.753000 600 70 1.000000 0.054000 0.054000 1.200000 0.033000 0.039000
1517294325943422180	800 64 1.000000 0.249000 0.251000 1600 53 1.100000 3.203000 3.657000 600 70 1.000000 0.055000 0.055000 1.200000 0.029000 0.034000
1517294326448399680	800 64 1.000000 0.249000 0.251000 1600 53 1.100000 3.220000 3.677000 600 70 1.000000 0.054000 0.054000 1.200000 0.029000 0.035000
1517294326953415514	800 64 1.000000 0.249000 0.251000 1600 53 1.100000 3.217000 3.673000 600 70 1.000000 0.054000 0.054000 1.200000 0.029000 0.034000
1517294327458542972	800 64 1.000000 0.249000 0.251000 1600 53 1.100000 3.211000 3.666000 600 70 1.000000 0.055000 0.055000 1.200000 0.032000 0.038000
1517294327963476389	800 64 1.000000 0.249000 0.251000 1600 53 1.100000 3.207000 3.662000 600 70 1.000000 0.054000 0.054000 1.200000 0.030000 0.036000
1517294328468410514	800 64 1.000000 0.249000 0.251000 1600 53 1.100000 3.202000 3.656000 600 70 1.000000 0.054000 0.054000 1.200000 0.029000 0.034000
1517294328973420806	800 64 1.000000 0.249000 0.251000 1600 53 1.100000 3.184000 3.636000 600 70 1.000000 0.054000 0.054000 1.200000 0.029000 0.034000
1517294329478455014	800 64 1.000000 0.248000 0.250000 1600 53 1.100000 3.302000 3.770000 600 70 1.000000 0.054000 0.054000 1.200000 0.031000 0.037000
1517294329983503222	800 64 1.000000 0.249000 0.251000 1600 53 1.100000 3.233000 3.692000 600 70 1.000000 0.054000 0.054000 1.200000 0.030000 0.036000
1517294330488519806	800 64 1.000000 0.248000 0.250000 1600 53 1.100000 3.220000 3.677000 600 70 1.000000 0.055000 0.055000 1.200000 0.030000 0.036000
1517294330993599597	800 64 1.000000 0.249000 0.251000 1600 53 1.100000 3.220000 3.677000 600 70 1.000000 0.054000 0.054000 1.200000 0.030000 0.036000
1517294331498784014	800 64 1.000000 0.249000 0.251000 1600 53 1.100000 3.204000 3.658000 600 71 1.000000 0.054000 0.054000 1.200000 0.034000 0.041000
1517294332003902931	800 64 1.000000 0.249000 0.251000 1600 53 1.100000 3.226000 3.684000 600 71 1.000000 0.055000 0.055000 1.200000 0.031000 0.037000
1517294332508941264	800 64 1.000000 0.248000 0.250000 1600 53 1.100000 3.218000 3.674000 600 71 1.000000 0.054000 0.054000 1.200000 0.030000 0.036000
1517294333013969306	800 64 1.000000 0.248000 0.250000 1600 53 1.100000 3.220000 3.677000 600 71 1.000000 0.054000 0.054000 1.200000 0.030000 0.036000
1517294333519146139	800 64 1.000000 0.248000 0.250000 1600 53 1.100000 3.231000 3.689000 600 71 1.000000 0.054000 0.054000 1.200000 0.031000 0.037000
1517294334024202473	800 64 1.000000 0.248000 0.250000 1600 53 1.100000 3.200000 3.654000 600 70 1.000000 0.054000 0.054000 1.200000 0.031000 0.037000
1517294334529254390	800 64 1.000000 0.248000 0.250000 1600 53 1.100000 3.220000 3.677000 600 70 1.000000 0.054000 0.054000 1.200000 0.031000 0.037000
1517294335034261140	800 64 1.000000 0.248000 0.250000 1600 53 1.100000 3.224000 3.681000 600 70 1.000000 0.055000 0.055000 1.200000 0.031000 0.037000
1517294335539598015	800 64 1.000000 0.248000 0.250000 1600 53 1.100000 3.284000 3.753000 600 71 1.000000 0.054000 0.054000 1.200000 0.031000 0.037000
1517294336044586181	800 64 1.000000 0.248000 0.250000 1600 53 1.100000 3.216000 3.672000 600 71 1.000000 0.055000 0.055000 1.200000 0.032000 0.038000
1517294336549580306	800 64 1.000000 0.249000 0.251000 1600 53 1.100000 3.210000 3.665000 600 71 1.000000 0.055000 0.055000 1.200000 0.030000 0.036000
1517294337054478598	800 64 1.000000 0.249000 0.251000 1600 53 1.100000 3.210000 3.665000 600 70 1.000000 0.054000 0.054000 1.200000 0.030000 0.036000
1517294337559749848	800 64 1.000000 0.249000 0.251000 1600 53 1.100000 3.197000 3.650000 600 71 1.000000 0.054000 0.054000 1.200000 0.030000 0.036000
1517294338064925890	800 64 1.000000 0.249000 0.251000 1600 53 1.100000 3.203000 3.657000 600 71 1.000000 0.054000 0.054000 1.200000 0.030000 0.036000
1517294338569858015	800 64 1.000000 0.249000 0.251000 1600 53 1.100000 3.209000 3.664000 600 70 1.000000 0.055000 0.055000 1.200000 0.031000 0.037000
1517294339074847682	800 64 1.000000 0.249000 0.251000 1600 53 1.100000 3.191000 3.644000 600 70 1.000000 0.054000 0.054000 1.200000 0.030000 0.036000
1517294339580108390	800 64 1.000000 0.248000 0.250000 1600 53 1.100000 3.222000 3.679000 600 70 1.000000 0.054000 0.054000 1.200000 0.030000 0.036000
1517294340085181099	800 64 1.000000 0.248000 0.250000 1600 53 1.100000 3.224000 3.681000 600 70 1.000000 0.054000 0.054000 1.200000 0.031000 0.037000
1517294340590146557	800 64 1.000000 0.248000 0.250000 1600 53 1.100000 3.216000 3.672000 600 70 1.000000 0.054000 0.054000 1.200000 0.031000 0.037000
1517294341095104682	800 64 1.000000 0.248000 0.250000 1600 53 1.100000 3.237000 3.696000 600 70 1.000000 0.054000 0.054000 1.200000 0.031000 0.037000
1517294341600344765	800 64 1.000000 0.248000 0.250000 1600 53 1.100000 3.287000 3.757000 600 71 1.000000 0.054000 0.054000 1.200000 0.031000 0.037000
1517294342105515599	800 64 1.000000 0.249000 0.251000 1600 54 1.100000 3.234000 3.693000 600 70 1.000000 0.054000 0.054000 1.200000 0.031000 0.037000
1517294342610514057	800 64 1.000000 0.248000 0.250000 1600 53 1.100000 3.218000 3.674000 600 70 1.000000 0.054000 0.054000 1.200000 0.030000 0.036000
1517294343115460391	800 64 1.000000 0.249000 0.251000 1600 53 1.100000 3.201000 3.655000 600 70 1.000000 0.054000 0.054000 1.200000 0.031000 0.037000
1517294343620844849	800 64 1.000000 0.249000 0.251000 1600 53 1.100000 3.210000 3.665000 600 70 1.000000 0.054000 0.054000 1.200000 0.030000 0.036000
1517294344125914599	800 64 1.000000 0.248000 0.250000 1600 53 1.100000 3.200000 3.654000 600 70 1.000000 0.054000 0.054000 1.200000 0.031000 0.037000
1517294344630851391	800 64 1.000000 0.248000 0.250000 1600 53 1.100000 3.223000 3.680000 600 70 1.000000 0.054000 0.054000 1.200000 0.031000 0.037000
1517294345135855058	800 64 1.000000 0.249000 0.251000 1600 53 1.100000 3.221000 3.678000 600 70 1.000000 0.054000 0.054000 1.200000 0.031000 0.037000
1517294345641238016	800 64 1.000000 0.248000 0.250000 1600 53 1.100000 3.222000 3.679000 600 71 1.000000 0.055000 0.055000 1.200000 0.031000 0.037000
1517294346146277849	800 64 1.000000 0.248000 0.250000 1600 53 1.100000 3.220000 3.677000 600 70 1.000000 0.055000 0.055000 1.200000 0.031000 0.037000
1517294346651238433	800 64 1.000000 0.249000 0.251000 1600 53 1.100000 3.234000 3.693000 600 70 1.000000 0.054000 0.054000 1.200000 0.031000 0.037000
1517294347156188766	800 64 1.000000 0.249000 0.251000 1600 53 1.100000 3.220000 3.677000 600 70 1.000000 0.055000 0.055000 1.200000 0.031000 0.037000
1517294347661562349	800 64 1.000000 0.248000 0.250000 1600 54 1.100000 3.266000 3.729000 600 71 1.000000 0.054000 0.054000 1.200000 0.030000 0.036000
1517294348166623558	800 64 1.000000 0.249000 0.251000 1600 54 1.100000 3.227000 3.685000 600 71 1.000000 0.054000 0.054000 1.200000 0.031000 0.037000
1517294348671523725	800 64 1.000000 0.248000 0.250000 1600 53 1.100000 3.214000 3.670000 600 71 1.000000 0.055000 0.055000 1.200000 0.030000 0.036000
1517294349176445558	800 64 1.000000 0.248000 0.250000 1600 53 1.100000 3.198000 3.652000 600 70 1.000000 0.054000 0.054000 1.200000 0.030000 0.036000
1517294349681878308	800 64 1.000000 0.249000 0.251000 1600 53 1.100000 3.220000 3.677000 600 71 1.000000 0.054000 0.054000 1.200000 0.030000 0.036000
1517294350187028600	800 64 1.000000 0.248000 0.250000 1600 54 1.100000 3.228000 3.686000 600 71 1.000000 0.054000 0.054000 1.200000 0.031000 0.037000
1517294350692044225	800 64 1.000000 0.248000 0.250000 1600 53 1.100000 3.246000 3.706000 600 71 1.000000 0.055000 0.055000 1.200000 0.031000 0.037000
1517294351197054933	800 64 1.000000 0.249000 0.251000 1600 53 1.100000 3.226000 3.684000 600 71 1.000000 0.054000 0.054000 1.200000 0.031000 0.037000
1517294351702404392	800 64 1.000000 0.248000 0.250000 1600 54 1.100000 3.225000 3.682000 600 71 1.000000 0.054000 0.054000 1.200000 0.031000 0.037000
1517294352207455433	800 64 1.000000 0.248000 0.250000 1600 53 1.100000 3.214000 3.670000 600 71 1.000000 0.054000 0.054000 1.200000 0.031000 0.037000
1517294352712437600	800 64 1.000000 0.249000 0.251000 1600 53 1.100000 3.212000 3.668000 600 71 1.000000 0.054000 0.054000 1.200000 0.031000 0.037000
1517294353217473517	800 64 1.000000 0.249000 0.251000 1600 53 1.100000 3.211000 3.666000 600 70 1.000000 0.055000 0.055000 1.200000 0.030000 0.036000
1517294353722743684	800 64 1.000000 0.249000 0.251000 1600 53 1.100000 3.224000 3.681000 600 71 1.000000 0.054000 0.054000 1.200000 0.030000 0.036000
1517294354227845434	800 64 1.000000 0.249000 0.251000 1600 54 1.100000 3.234000 3.693000 600 71 1.000000 0.054000 0.054000 1.200000 0.031000 0.037000
1517294354732876892	800 64 1.000000 0.249000 0.251000 1600 53 1.100000 3.237000 3.696000 600 71 1.000000 0.054000 0.054000 1.200000 0.031000 0.037000
1517294355237751434	800 64 1.000000 0.249000 0.251000 1600 54 1.100000 3.236000 3.698000 600 71 1.000000 0.054000 0.054000 1.200000 0.032000 0.038000
1517294355743028850	800 64 1.000000 0.249000 0.251000 1600 54 1.100000 3.246000 3.706000 600 71 1.000000 0.054000 0.054000 1.200000 0.030000 0.036000
1517294356248055059	800 64 1.000000 0.249000 0.251000 1600 54 1.100000 3.240000 3.700000 600 71 1.000000 0.054000 0.054000 1.200000 0.031000 0.037000
1517294356753080309	800 64 1.000000 0.249000 0.251000 1600 54 1.100000 3.228000 3.686000 600 71 1.000000 0.054000 0.054000 1.200000 0.030000 0.036000
1517294357258025726	800 64 1.000000 0.249000 0.251000 1600 54 1.100000 3.232000 3.690000 600 71 1.000000 0.054000 0.054000 1.200000 0.030000 0.036000
1517294357763239434	800 64 1.000000 0.249000 0.251000 1600 54 1.100000 3.228000 3.686000 600 71 1.000000 0.054000 0.054000 1.200000 0.030000 0.036000
1517294358268336767	800 64 1.000000 0.249000 0.251000 1600 54 1.100000 3.218000 3.674000 600 71 1.000000 0.054000 0.054000 1.200000 0.031000 0.037000
1517294358773512434	800 64 1.000000 0.249000 0.251000 1600 54 1.100000 3.212000 3.668000 600 71 1.000000 0.055000 0.055000 1.200000 0.030000 0.036000
1517294359278507559	800 64 1.000000 0.249000 0.251000 1600 53 1.100000 3.203000 3.657000 600 71 1.000000 0.054000 0.054000 1.200000 0.030000 0.036000
1517294359783783143	800 64 1.000000 0.249000 0.251000 1600 53 1.100000 3.194000 3.647000 600 71 1.000000 0.054000 0.054000 1.200000 0.030000 0.036000
1517294360288900226	800 64 1.000000 0.249000 0.251000 1600 53 1.100000 3.292000 3.762000 600 71 1.000000 0.054000 0.054000 1.200000 0.033000 0.039000
1517294360793942976	800 64 1.000000 0.249000 0.251000 1600 53 1.100000 3.213000 3.669000 600 71 1.000000 0.054000 0.054000 1.200000 0.030000 0.036000
1517294361298975309	800 64 1.000000 0.249000 0.251000 1600 54 1.100000 3.210000 3.665000 600 71 1.000000 0.054000 0.054000 1.200000 0.031000 0.037000
1517294361820641684	800 64 1.000000 0.249000 0.251000 1600 54 1.100000 3.180000 3.631000 600 70 1.000000 0.054000 0.054000 1.200000 0.031000 0.037000
1517294362326076935	800 64 1.000000 0.249000 0.251000 1600 54 1.100000 3.186000 3.638000 600 71 1.000000 0.054000 0.054000 1.200000 0.032000 0.038000
1517294362830997143	800 64 1.000000 0.249000 0.251000 1600 53 1.100000 3.168000 3.617000 600 71 1.000000 0.054000 0.054000 1.200000 0.030000 0.036000
1517294363335897393	800 64 1.000000 0.249000 0.251000 1600 54 1.100000 3.179000 3.630000 600 70 1.000000 0.054000 0.054000 1.200000 0.030000 0.036000
1517294363854911351	800 64 1.000000 0.249000 0.251000 1600 54 1.100000 3.176000 3.626000 600 70 1.000000 0.055000 0.055000 1.200000 0.031000 0.037000
1517294364361964226	800 64 1.000000 0.249000 0.251000 1600 54 1.100000 3.266000 3.729000 600 71 1.000000 0.055000 0.055000 1.200000 0.031000 0.037000
1517294364867004352	800 64 1.000000 0.249000 0.251000 1600 54 1.100000 3.186000 3.638000 600 70 1.000000 0.054000 0.054000 1.200000 0.031000 0.037000
1517294365371897643	800 64 1.000000 0.249000 0.251000 1600 53 1.100000 3.186000 3.638000 600 70 1.000000 0.055000 0.055000 1.200000 0.030000 0.036000
1517294365892655018	800 64 1.000000 0.249000 0.251000 1600 53 1.100000 3.188000 3.640000 600 70 1.000000 0.055000 0.055000 1.200000 0.030000 0.036000
1517294366397957643	800 64 1.000000 0.249000 0.251000 1600 53 1.100000 3.283000 3.749000 600 70 1.000000 0.055000 0.055000 1.200000 0.030000 0.036000
1517294366902912018	800 64 1.000000 0.249000 0.251000 1600 54 1.100000 3.183000 3.634000 600 70 1.000000 0.054000 0.054000 1.200000 0.030000 0.036000
1517294367407979185	800 64 1.000000 0.249000 0.251000 1600 54 1.100000 3.185000 3.637000 600 70 1.000000 0.054000 0.054000 1.200000 0.031000 0.037000
1517294367912992935	800 64 1.000000 0.249000 0.251000 1600 54 1.100000 3.170000 3.620000 600 70 1.000000 0.054000 0.054000 1.200000 0.030000 0.036000
1517294368418034852	800 64 1.000000 0.249000 0.251000 1600 54 1.100000 3.265000 3.728000 600 70 1.000000 0.054000 0.054000 1.200000 0.033000 0.039000
1517294368922964560	800 64 1.000000 0.249000 0.251000 1600 54 1.100000 3.204000 3.658000 600 71 1.000000 0.054000 0.054000 1.200000 0.031000 0.037000
1517294369427929227	800 64 1.000000 0.249000 0.251000 1600 54 1.100000 3.211000 3.666000 600 70 1.000000 0.054000 0.054000 1.200000 0.030000 0.036000
1517294369932972477	800 64 1.000000 0.249000 0.251000 1600 54 1.100000 3.235000 3.694000 600 70 1.000000 0.054000 0.054000 1.200000 0.031000 0.037000
1517294370438107102	800 64 1.000000 0.249000 0.251000 1600 54 1.100000 3.336000 3.813000 600 71 1.000000 0.054000 0.054000 1.200000 0.033000 0.039000
1517294370943110686	800 64 1.000000 0.249000 0.251000 1600 54 1.100000 3.240000 3.700000 600 71 1.000000 0.055000 0.055000 1.200000 0.031000 0.037000
1517294371448065394	800 64 1.000000 0.249000 0.251000 1600 54 1.100000 3.265000 3.728000 600 71 1.000000 0.054000 0.054000 1.200000 0.031000 0.037000
1517294371953036936	800 64 1.000000 0.249000 0.251000 1600 54 1.100000 3.235000 3.694000 600 71 1.000000 0.054000 0.054000 1.200000 0.030000 0.036000
1517294372458122602	800 64 1.000000 0.249000 0.251000 1600 54 1.100000 3.323000 3.794000 600 71 1.000000 0.054000 0.054000 1.200000 0.034000 0.041000
1517294372963102811	800 64 1.000000 0.249000 0.251000 1600 54 1.100000 3.251000 3.712000 600 71 1.000000 0.054000 0.054000 1.200000 0.031000 0.037000
1517294373467956186	800 64 1.000000 0.249000 0.251000 1600 54 1.100000 3.228000 3.686000 600 71 1.000000 0.054000 0.054000 1.200000 0.031000 0.037000
1517294373972974894	800 64 1.000000 0.249000 0.251000 1600 54 1.100000 3.231000 3.689000 600 71 1.000000 0.054000 0.054000 1.200000 0.030000 0.036000
1517294374478038186	800 64 1.000000 0.249000 0.251000 1600 54 1.100000 3.308000 3.777000 600 71 1.000000 0.054000 0.054000 1.200000 0.030000 0.036000
1517294374982936644	800 64 1.000000 0.249000 0.251000 1600 54 1.100000 3.239000 3.698000 600 71 1.000000 0.054000 0.054000 1.200000 0.031000 0.037000
1517294375487981478	800 64 1.000000 0.249000 0.251000 1600 54 1.100000 3.253000 3.714000 600 71 1.000000 0.054000 0.054000 1.200000 0.030000 0.036000
1517294375993118270	800 64 1.000000 0.249000 0.251000 1600 54 1.100000 3.228000 3.686000 600 71 1.000000 0.054000 0.054000 1.200000 0.031000 0.037000
1517294376498187145	800 64 1.000000 0.249000 0.251000 1600 54 1.100000 3.344000 3.818000 600 71 1.000000 0.054000 0.054000 1.200000 0.034000 0.041000
1517294377003202478	800 64 1.000000 0.249000 0.251000 1600 54 1.100000 3.225000 3.682000 600 71 1.000000 0.055000 0.055000 1.200000 0.031000 0.037000
1517294377508102478	800 64 1.000000 0.249000 0.251000 1600 54 1.100000 3.220000 3.677000 600 71 1.000000 0.054000 0.054000 1.200000 0.031000 0.037000
1517294378013136728	800 64 1.000000 0.249000 0.251000 1600 54 1.100000 3.248000 3.709000 600 71 1.000000 0.054000 0.054000 1.200000 0.030000 0.036000
1517294378518431895	800 64 1.000000 0.249000 0.251000 1600 54 1.100000 3.300000 3.768000 600 71 1.000000 0.054000 0.054000 1.200000 0.034000 0.041000
1517294379023600770	800 64 1.000000 0.249000 0.251000 1600 54 1.100000 3.221000 3.678000 600 71 1.000000 0.054000 0.054000 1.200000 0.031000 0.037000
1517294379528549478	800 64 1.000000 0.249000 0.251000 1600 54 1.100000 3.192000 3.645000 600 71 1.000000 0.054000 0.054000 1.200000 0.031000 0.037000
1517294380033571103	800 64 1.000000 0.249000 0.251000 1600 54 1.100000 3.211000 3.666000 600 71 1.000000 0.055000 0.055000 1.200000 0.030000 0.036000
1517294380538886770	800 64 1.000000 0.249000 0.251000 1600 54 1.100000 3.264000 3.727000 600 71 1.000000 0.055000 0.055000 1.200000 0.031000 0.037000
1517294381044049228	800 64 1.000000 0.250000 0.252000 1600 54 1.100000 3.205000 3.660000 600 71 1.000000 0.054000 0.054000 1.200000 0.032000 0.038000
1517294381549090895	800 64 1.000000 0.249000 0.251000 1600 54 1.100000 3.240000 3.700000 600 71 1.000000 0.054000 0.054000 1.200000 0.031000 0.037000
1517294382053988729	800 64 1.000000 0.250000 0.252000 1600 54 1.100000 3.215000 3.671000 600 71 1.000000 0.055000 0.055000 1.200000 0.031000 0.037000
1517294382559290437	800 64 1.000000 0.249000 0.251000 1600 53 1.100000 3.283000 3.749000 600 71 1.000000 0.055000 0.055000 1.200000 0.035000 0.042000
1517294383064340770	800 64 1.000000 0.249000 0.251000 1600 54 1.100000 3.229000 3.687000 600 71 1.000000 0.054000 0.054000 1.200000 0.031000 0.037000
1517294383569385104	800 64 1.000000 0.249000 0.251000 1600 54 1.100000 3.206000 3.661000 600 71 1.000000 0.055000 0.055000 1.200000 0.031000 0.037000
1517294384074351729	800 64 1.000000 0.249000 0.251000 1600 54 1.100000 3.225000 3.682000 600 71 1.000000 0.054000 0.054000 1.200000 0.030000 0.036000
1517294384579674687	800 64 1.000000 0.249000 0.251000 1600 54 1.100000 3.308000 3.781000 600 71 1.000000 0.054000 0.054000 1.200000 0.034000 0.041000
1517294385084878646	800 64 1.000000 0.249000 0.251000 1600 54 1.100000 3.223000 3.680000 600 71 1.000000 0.055000 0.055000 1.200000 0.031000 0.037000
1517294385589830521	800 64 1.000000 0.249000 0.251000 1600 54 1.100000 3.239000 3.698000 600 71 1.000000 0.054000 0.054000 1.200000 0.031000 0.037000
1517294386094820687	800 64 1.000000 0.249000 0.251000 1600 54 1.100000 3.216000 3.672000 600 70 1.000000 0.055000 0.055000 1.200000 0.030000 0.036000
1517294386600083312	800 55 1.000000 0.249000 0.251000 1600 52 1.100000 2.295000 2.609000 600 68 1.000000 0.055000 0.055000 1.200000 0.031000 0.037000
1517294387105158729	800 52 1.000000 0.249000 0.251000 1600 50 1.100000 1.369000 1.551000 600 66 1.000000 0.054000 0.054000 1.200000 0.031000 0.037000
1517294387610109479	800 51 1.000000 0.248000 0.250000 1600 49 1.100000 1.336000 1.513000 600 65 1.000000 0.054000 0.054000 1.200000 0.030000 0.036000
1517294388114960813	800 50 1.000000 0.247000 0.249000 1600 48 1.100000 1.362000 1.543000 600 64 1.000000 0.054000 0.054000 1.200000 0.030000 0.036000
1517294388620085063	800 50 1.000000 0.247000 0.249000 1600 48 1.100000 1.438000 1.629000 600 64 1.000000 0.054000 0.054000 1.200000 0.032000 0.038000
1517294389125210688	800 49 1.000000 0.246000 0.248000 1600 47 1.100000 1.339000 1.517000 600 63 1.000000 0.053000 0.053000 1.200000 0.030000 0.036000
1517294389630131188	800 49 1.000000 0.246000 0.248000 1600 47 1.100000 1.349000 1.528000 600 63 1.000000 0.053000 0.053000 1.200000 0.030000 0.036000
1517294390135130771	800 48 1.000000 0.246000 0.248000 1600 46 1.100000 1.319000 1.494000 600 62 1.000000 0.053000 0.053000 1.200000 0.030000 0.036000
1517294390640267230	800 48 1.000000 0.246000 0.248000 1600 46 1.100000 1.049000 1.191000 600 54 1.000000 0.053000 0.053000 1.200000 0.033000 0.039000
1517294391145241521	800 46 1.000000 0.246000 0.248000 1600 45 1.100000 0.277000 0.314000 600 51 1.000000 0.053000 0.053000 1.200000 0.031000 0.037000
1517294391650077063	800 45 1.000000 0.246000 0.248000 1600 45 1.100000 0.265000 0.301000 600 49 1.000000 0.053000 0.053000 1.200000 0.030000 0.036000
1517294392154898688	800 45 1.000000 0.246000 0.248000 1600 44 1.100000 0.275000 0.312000 600 48 1.000000 0.053000 0.053000 1.200000 0.030000 0.036000
1517294392660053605	800 44 1.000000 0.246000 0.248000 1600 43 1.100000 0.229000 0.260000 600 48 1.000000 0.053000 0.053000 1.200000 0.030000 0.036000
1517294393165054355	800 44 1.000000 0.246000 0.248000 1600 43 1.100000 0.269000 0.306000 600 47 1.000000 0.052000 0.052000 1.200000 0.031000 0.037000
1517294393670008938	800 43 1.000000 0.246000 0.248000 1600 42 1.100000 0.253000 0.287000 600 46 1.000000 0.052000 0.052000 1.200000 0.030000 0.036000
1517294394174866147	800 43 1.000000 0.245000 0.247000 1600 42 1.100000 0.224000 0.254000 600 46 1.000000 0.052000 0.052000 1.200000 0.030000 0.036000
1517294394679938813	800 43 1.000000 0.245000 0.247000 1600 42 1.100000 0.376000 0.427000 600 46 1.000000 0.052000 0.052000 1.200000 0.032000 0.038000
1517294395184915522	800 42 1.000000 0.245000 0.247000 1600 42 1.100000 0.220000 0.250000 600 45 1.000000 0.052000 0.052000 1.200000 0.030000 0.036000
1517294395689791605	800 42 1.000000 0.245000 0.247000 1600 41 1.100000 0.218000 0.248000 600 45 1.000000 0.052000 0.052000 1.200000 0.030000 0.036000
1517294396194572439	800 42 1.000000 0.245000 0.247000 1600 41 1.100000 0.213000 0.242000 600 45 1.000000 0.052000 0.052000 1.200000 0.030000 0.036000
1517294396699774397	800 42 1.000000 0.245000 0.247000 1600 41 1.100000 0.335000 0.380000 600 45 1.000000 0.052000 0.052000 1.200000 0.030000 0.036000
1517294397204629897	800 41 1.000000 0.244000 0.246000 1600 41 1.100000 0.273000 0.310000 600 44 1.000000 0.052000 0.052000 1.200000 0.031000 0.037000
1517294397709478189	800 41 1.000000 0.245000 0.247000 1600 40 1.100000 0.228000 0.259000 600 44 1.000000 0.052000 0.052000 1.200000 0.030000 0.036000
1517294398214278980	800 41 1.000000 0.244000 0.246000 1600 40 1.100000 0.247000 0.281000 600 44 1.000000 0.052000 0.052000 1.200000 0.030000 0.036000
1517294398719387814	800 41 1.000000 0.244000 0.246000 1600 40 1.100000 0.226000 0.257000 600 44 1.000000 0.052000 0.052000 1.200000 0.030000 0.036000
1517294399224258814	800 41 1.000000 0.244000 0.246000 1600 40 1.100000 0.369000 0.419000 600 43 1.000000 0.052000 0.052000 1.200000 0.030000 0.036000
1517294399729167106	800 41 1.000000 0.244000 0.246000 1600 40 1.100000 0.215000 0.244000 600 43 1.000000 0.052000 0.052000 1.200000 0.030000 0.036000
1517294400233942106	800 40 1.000000 0.244000 0.246000 1600 39 1.100000 0.253000 0.287000 600 43 1.000000 0.052000 0.052000 1.200000 0.030000 0.036000
1517294400739030314	800 40 1.000000 0.244000 0.246000 1600 39 1.100000 0.242000 0.275000 600 43 1.000000 0.052000 0.052000 1.200000 0.031000 0.037000
1517294401243975689	800 40 1.000000 0.244000 0.246000 1600 39 1.100000 0.276000 0.313000 600 43 1.000000 0.052000 0.052000 1.200000 0.030000 0.036000
1517294401748728189	800 40 1.000000 0.244000 0.246000 1600 39 1.100000 0.238000 0.270000 600 43 1.000000 0.052000 0.052000 1.200000 0.030000 0.036000
1517294402253626939	800 40 1.000000 0.244000 0.246000 1600 39 1.100000 0.269000 0.305000 600 43 1.000000 0.052000 0.052000 1.200000 0.030000 0.036000
1517294402758865606	800 40 1.000000 0.244000 0.246000 1600 39 1.100000 0.237000 0.269000 600 43 1.000000 0.052000 0.052000 1.200000 0.030000 0.036000
1517294403263850814	800 39 1.000000 0.244000 0.246000 1600 39 1.100000 0.320000 0.363000 600 43 1.000000 0.052000 0.052000 1.200000 0.031000 0.037000
1517294403768677398	800 39 1.000000 0.244000 0.246000 1600 39 1.100000 0.226000 0.257000 600 42 1.000000 0.052000 0.052000 1.200000 0.031000 0.037000
1517294404273504398	800 39 1.000000 0.244000 0.246000 1600 39 1.100000 0.231000 0.262000 600 42 1.000000 0.052000 0.052000 1.200000 0.030000 0.036000
1517294404778636023	800 39 1.000000 0.244000 0.246000 1600 39 1.100000 0.216000 0.245000 600 42 1.000000 0.052000 0.052000 1.200000 0.030000 0.036000
1517294405283557856	800 39 1.000000 0.244000 0.246000 1600 38 1.100000 0.360000 0.409000 600 42 1.000000 0.051000 0.051000 1.200000 0.030000 0.036000
1517294405788345565	800 39 1.000000 0.244000 0.246000 1600 38 1.100000 0.224000 0.254000 600 42 1.000000 0.051000 0.051000 1.200000 0.031000 0.037000
1517294406293212898	800 39 1.000000 0.180000 0.183000 1600 38 1.100000 0.280000 0.318000 600 42 1.000000 0.051000 0.051000 1.200000 0.025000 0.030000
1517294406798261107	800 38 1.000000 0.106000 0.108000 1600 37 1.100000 0.230000 0.261000 600 42 1.000000 0.051000 0.051000 1.200000 0.025000 0.030000
1517294407303225190	800 38 1.000000 0.036000 0.036000 1600 37 1.100000 0.259000 0.294000 600 42 1.000000 0.051000 0.051000 1.200000 0.022000 0.026000
