#Timestamp	CPU(0) Frequency(MHz)	CPU(0) Temperature(C)	A7 Voltage(V)	A7 Current(A)	A7 Power(W)	CPU(4) Frequency(MHz)	CPU(4) Temperature(C)	A15 Voltage(V)	A15 Current(A)	A15 Power(W)	GPU Frequency(MHz)	GPU Temperature(C)	GPU Voltage(V)	GPU Current(A)	GPU Power(W)	RAM Voltage(V)	RAM Current(A)	RAM Power(W)
1559789818684589663	1200 29 1.100000 0.087000 0.102000 600 28 0.900000 0.342000 0.311000 600 32 1.000000 0.050000 0.050000 1.200000 0.041000 0.049000
1559789819195551079	1200 29 1.100000 0.154000 0.180000 600 28 0.900000 0.085000 0.077000 600 32 1.000000 0.050000 0.050000 1.200000 0.044000 0.053000
1559789819706652163	1200 29 1.100000 0.157000 0.183000 600 28 0.900000 0.200000 0.182000 600 33 1.000000 0.050000 0.050000 1.200000 0.047000 0.056000
1559789820217922371	1200 29 1.100000 0.153000 0.179000 600 28 0.900000 0.091000 0.083000 600 33 1.000000 0.050000 0.050000 1.200000 0.044000 0.053000
1559789820728837913	1200 29 1.100000 0.171000 0.200000 600 28 0.900000 0.071000 0.064000 600 32 1.000000 0.050000 0.050000 1.200000 0.029000 0.035000
1559789821239683080	1200 29 1.100000 0.172000 0.201000 600 28 0.900000 0.066000 0.060000 600 32 1.000000 0.050000 0.050000 1.200000 0.025000 0.030000
1559789821750788288	1200 30 1.100000 0.171000 0.200000 600 29 0.900000 0.072000 0.065000 600 33 1.000000 0.050000 0.050000 1.200000 0.025000 0.030000
1559789822261883871	1200 29 1.100000 0.172000 0.201000 600 29 0.900000 0.239000 0.217000 600 33 1.000000 0.050000 0.050000 1.200000 0.031000 0.037000
1559789822772862830	1200 29 1.100000 0.171000 0.200000 600 29 0.900000 0.133000 0.121000 600 32 1.000000 0.050000 0.050000 1.200000 0.026000 0.031000
1559789823283852497	1200 29 1.100000 0.171000 0.200000 600 28 0.900000 0.075000 0.068000 600 32 1.000000 0.050000 0.050000 1.200000 0.025000 0.030000
1559789823795424205	1200 30 1.100000 0.171000 0.200000 600 29 0.900000 0.072000 0.065000 600 33 1.000000 0.050000 0.050000 1.200000 0.026000 0.031000
1559789824306653788	1200 30 1.100000 0.171000 0.200000 600 29 0.900000 0.273000 0.248000 600 33 1.000000 0.050000 0.050000 1.200000 0.035000 0.042000
1559789824817680580	1200 29 1.100000 0.171000 0.200000 600 29 0.900000 0.096000 0.087000 600 33 1.000000 0.050000 0.050000 1.200000 0.026000 0.031000
1559789825328539372	1200 29 1.100000 0.171000 0.200000 600 29 0.900000 0.080000 0.073000 600 33 1.000000 0.050000 0.050000 1.200000 0.025000 0.030000
1559789825839339372	1200 29 1.100000 0.171000 0.200000 600 29 0.900000 0.073000 0.066000 600 32 1.000000 0.050000 0.050000 1.200000 0.026000 0.031000
1559789826350555747	1200 30 1.100000 0.171000 0.200000 600 29 0.900000 0.193000 0.176000 600 33 1.000000 0.050000 0.050000 1.200000 0.032000 0.038000
1559789826861602122	1200 30 1.100000 0.171000 0.200000 600 29 0.900000 0.078000 0.071000 600 33 1.000000 0.050000 0.050000 1.200000 0.025000 0.030000
1559789827372530372	1200 29 1.100000 0.172000 0.201000 600 29 0.900000 0.066000 0.060000 600 32 1.000000 0.050000 0.050000 1.200000 0.025000 0.030000
1559789827883389247	1200 29 1.100000 0.171000 0.200000 600 29 0.900000 0.065000 0.059000 600 33 1.000000 0.050000 0.050000 1.200000 0.025000 0.030000
1559789828394778247	1200 30 1.100000 0.172000 0.201000 600 29 0.900000 0.103000 0.094000 600 34 1.000000 0.050000 0.050000 1.200000 0.029000 0.035000
1559789828905903414	1200 30 1.100000 0.172000 0.201000 600 29 0.900000 0.066000 0.060000 600 33 1.000000 0.050000 0.050000 1.200000 0.025000 0.030000
1559789829416821414	1200 29 1.100000 0.172000 0.201000 600 29 0.900000 0.066000 0.060000 600 33 1.000000 0.050000 0.050000 1.200000 0.025000 0.030000
1559789829927935039	1200 29 1.100000 0.171000 0.200000 600 29 0.900000 0.082000 0.074000 600 33 1.000000 0.050000 0.050000 1.200000 0.026000 0.031000
1559789830439895414	1200 30 1.100000 0.172000 0.201000 600 29 0.900000 0.076000 0.069000 600 33 1.000000 0.050000 0.050000 1.200000 0.026000 0.031000
1559789830951315206	1200 29 1.100000 0.172000 0.201000 600 29 0.900000 0.331000 0.301000 600 33 1.000000 0.050000 0.050000 1.200000 0.039000 0.047000
1559789831462408039	1200 29 1.100000 0.172000 0.201000 600 29 0.900000 0.072000 0.065000 600 33 1.000000 0.050000 0.050000 1.200000 0.025000 0.030000
1559789831973430373	1200 29 1.100000 0.171000 0.200000 600 29 0.900000 0.080000 0.073000 600 32 1.000000 0.050000 0.050000 1.200000 0.026000 0.031000
1559789832484135498	1200 29 1.100000 0.172000 0.201000 600 29 0.900000 0.081000 0.073000 600 33 1.000000 0.050000 0.050000 1.200000 0.026000 0.031000
1559789832995312373	1200 30 1.100000 0.171000 0.200000 600 29 0.900000 0.264000 0.240000 600 33 1.000000 0.050000 0.050000 1.200000 0.036000 0.043000
1559789833506279706	1200 29 1.100000 0.171000 0.200000 600 29 0.900000 0.070000 0.063000 600 33 1.000000 0.050000 0.050000 1.200000 0.025000 0.030000
1559789834017181040	1200 29 1.100000 0.172000 0.201000 600 29 0.900000 0.068000 0.062000 600 33 1.000000 0.050000 0.050000 1.200000 0.025000 0.030000
1559789834527903165	1200 30 1.100000 0.171000 0.200000 600 29 0.900000 0.066000 0.060000 600 33 1.000000 0.050000 0.050000 1.200000 0.025000 0.030000
1559789835038936748	1200 30 1.100000 0.171000 0.200000 600 29 0.900000 0.173000 0.157000 600 33 1.000000 0.050000 0.050000 1.200000 0.031000 0.037000
1559789835550029873	1200 30 1.100000 0.172000 0.201000 600 29 0.900000 0.064000 0.058000 600 33 1.000000 0.050000 0.050000 1.200000 0.025000 0.030000
1559789836060812540	1200 30 1.100000 0.171000 0.200000 600 29 0.900000 0.066000 0.060000 600 33 1.000000 0.050000 0.050000 1.200000 0.025000 0.030000
1559789836571605873	1200 29 1.100000 0.172000 0.201000 600 29 0.900000 0.067000 0.061000 600 33 1.000000 0.050000 0.050000 1.200000 0.025000 0.030000
1559789837083330290	1200 30 1.100000 0.170000 0.199000 600 29 0.900000 0.128000 0.116000 600 33 1.000000 0.050000 0.050000 1.200000 0.026000 0.031000
1559789837594430290	1200 29 1.100000 0.171000 0.200000 600 29 0.900000 0.071000 0.064000 600 33 1.000000 0.050000 0.050000 1.200000 0.025000 0.030000
1559789838105585540	1200 29 1.100000 0.172000 0.201000 600 29 0.900000 0.071000 0.064000 600 33 1.000000 0.050000 0.050000 1.200000 0.025000 0.030000
1559789838616507123	1200 29 1.100000 0.171000 0.200000 600 29 0.900000 0.070000 0.063000 600 33 1.000000 0.050000 0.050000 1.200000 0.025000 0.030000
1559789839127703248	1200 30 1.100000 0.171000 0.200000 600 29 0.900000 0.137000 0.125000 600 33 1.000000 0.050000 0.050000 1.200000 0.030000 0.036000
1559789839638795540	1200 30 1.100000 0.171000 0.200000 600 29 0.900000 0.188000 0.171000 600 33 1.000000 0.050000 0.050000 1.200000 0.031000 0.037000
1559789840149625707	1200 29 1.100000 0.172000 0.201000 600 29 0.900000 0.078000 0.071000 600 33 1.000000 0.050000 0.050000 1.200000 0.026000 0.031000
1559789840660288499	1200 30 1.100000 0.172000 0.201000 600 29 0.900000 0.069000 0.062000 600 33 1.000000 0.050000 0.050000 1.200000 0.025000 0.030000
1559789841171530665	1200 29 1.100000 0.172000 0.201000 600 29 0.900000 0.143000 0.130000 600 33 1.000000 0.050000 0.050000 1.200000 0.029000 0.035000
1559789841682642915	1200 30 1.100000 0.172000 0.201000 600 29 0.900000 0.096000 0.087000 600 33 1.000000 0.050000 0.050000 1.200000 0.028000 0.033000
1559789842193522791	1200 30 1.100000 0.175000 0.204000 600 29 0.900000 0.066000 0.060000 600 33 1.000000 0.050000 0.050000 1.200000 0.025000 0.030000
1559789842704182749	1200 30 1.100000 0.171000 0.200000 600 29 0.900000 0.065000 0.059000 600 33 1.000000 0.050000 0.050000 1.200000 0.025000 0.030000
1559789843215539624	1200 30 1.100000 0.171000 0.200000 600 29 0.900000 0.146000 0.133000 600 33 1.000000 0.050000 0.050000 1.200000 0.030000 0.036000
1559789843727673666	1200 30 1.100000 0.171000 0.200000 600 29 0.900000 0.066000 0.060000 600 33 1.000000 0.050000 0.050000 1.200000 0.024000 0.029000
1559789844238891499	1200 30 1.100000 0.175000 0.204000 600 29 0.900000 0.069000 0.062000 600 33 1.000000 0.050000 0.050000 1.200000 0.025000 0.030000
1559789844750096874	1200 29 1.100000 0.172000 0.201000 600 29 0.900000 0.067000 0.061000 600 33 1.000000 0.050000 0.050000 1.200000 0.026000 0.031000
1559789845261192666	1200 30 1.100000 0.172000 0.201000 600 29 0.900000 0.141000 0.128000 600 33 1.000000 0.050000 0.050000 1.200000 0.029000 0.035000
1559789845772497624	1200 30 1.100000 0.172000 0.201000 600 29 0.900000 0.064000 0.058000 600 33 1.000000 0.050000 0.050000 1.200000 0.026000 0.031000
1559789846284089833	1200 30 1.100000 0.178000 0.208000 600 29 0.900000 0.172000 0.156000 600 33 1.000000 0.050000 0.050000 1.200000 0.025000 0.030000
1559789846795070374	1200 30 1.100000 0.174000 0.203000 600 29 0.900000 0.081000 0.073000 600 33 1.000000 0.050000 0.050000 1.200000 0.029000 0.035000
1559789847306246499	1200 30 1.100000 0.171000 0.200000 600 29 0.900000 0.081000 0.073000 600 33 1.000000 0.050000 0.050000 1.200000 0.026000 0.031000
1559789847817197833	1200 30 1.100000 0.172000 0.201000 600 29 0.900000 0.064000 0.058000 600 33 1.000000 0.050000 0.050000 1.200000 0.031000 0.037000
1559789848328399875	1200 30 1.100000 0.172000 0.201000 600 29 0.900000 0.093000 0.084000 600 33 1.000000 0.050000 0.050000 1.200000 0.026000 0.031000
1559789848839318916	1200 30 1.100000 0.175000 0.204000 600 29 0.900000 0.066000 0.060000 600 33 1.000000 0.050000 0.050000 1.200000 0.034000 0.041000
1559789849350496541	1200 30 1.100000 0.172000 0.201000 600 29 0.900000 0.068000 0.062000 600 33 1.000000 0.050000 0.050000 1.200000 0.025000 0.030000
1559789849861587500	1200 29 1.100000 0.171000 0.200000 600 29 0.900000 0.160000 0.145000 600 33 1.000000 0.050000 0.050000 1.200000 0.029000 0.035000
1559789850373050291	1200 30 1.100000 0.171000 0.200000 600 29 0.900000 0.072000 0.065000 600 33 1.000000 0.050000 0.050000 1.200000 0.026000 0.031000
1559789850884130458	1200 29 1.100000 0.175000 0.204000 600 29 0.900000 0.234000 0.213000 600 33 1.000000 0.050000 0.050000 1.200000 0.037000 0.044000
1559789851395233833	1200 30 1.100000 0.171000 0.200000 600 29 0.900000 0.078000 0.071000 600 33 1.000000 0.050000 0.050000 1.200000 0.025000 0.030000
1559789851906287250	1200 30 1.100000 0.171000 0.200000 600 29 0.900000 0.129000 0.117000 600 33 1.000000 0.050000 0.050000 1.200000 0.026000 0.031000
1559789852417074500	1200 29 1.100000 0.172000 0.201000 600 29 0.900000 0.077000 0.070000 600 33 1.000000 0.050000 0.050000 1.200000 0.025000 0.030000
1559789852928115167	1200 30 1.100000 0.176000 0.206000 600 29 0.900000 0.180000 0.164000 600 33 1.000000 0.050000 0.050000 1.200000 0.035000 0.042000
1559789853440078459	1200 30 1.100000 0.172000 0.201000 600 29 0.900000 0.073000 0.066000 600 33 1.000000 0.050000 0.050000 1.200000 0.026000 0.031000
1559789853951353417	1200 29 1.100000 0.171000 0.200000 600 29 0.900000 0.091000 0.083000 600 33 1.000000 0.050000 0.050000 1.200000 0.026000 0.031000
1559789854462579917	1200 29 1.100000 0.172000 0.201000 600 29 0.900000 0.082000 0.074000 600 33 1.000000 0.050000 0.050000 1.200000 0.025000 0.030000
1559789854973567959	1200 30 1.100000 0.172000 0.201000 600 29 0.900000 0.078000 0.071000 600 33 1.000000 0.050000 0.050000 1.200000 0.025000 0.030000
1559789855485331250	1200 30 1.100000 0.175000 0.204000 600 29 0.900000 0.199000 0.181000 600 33 1.000000 0.050000 0.050000 1.200000 0.033000 0.039000
1559789855996632125	1200 29 1.100000 0.172000 0.201000 600 29 0.900000 0.151000 0.137000 600 33 1.000000 0.050000 0.050000 1.200000 0.031000 0.037000
1559789856507753501	1200 30 1.100000 0.172000 0.201000 600 29 0.900000 0.078000 0.071000 600 33 1.000000 0.050000 0.050000 1.200000 0.025000 0.030000
1559789857019478292	1200 30 1.100000 0.172000 0.201000 600 29 0.900000 0.083000 0.075000 600 33 1.000000 0.050000 0.050000 1.200000 0.026000 0.031000
1559789857531196834	1200 30 1.100000 0.176000 0.206000 600 29 0.900000 0.248000 0.226000 600 33 1.000000 0.050000 0.050000 1.200000 0.037000 0.044000
1559789858042663417	1200 30 1.100000 0.172000 0.201000 600 29 0.900000 0.148000 0.134000 600 33 1.000000 0.050000 0.050000 1.200000 0.030000 0.036000
1559789858553695042	1200 30 1.100000 0.171000 0.200000 600 29 0.900000 0.072000 0.065000 600 33 1.000000 0.050000 0.050000 1.200000 0.026000 0.031000
1559789859064525293	1200 30 1.100000 0.172000 0.201000 600 29 0.900000 0.076000 0.069000 600 33 1.000000 0.050000 0.050000 1.200000 0.026000 0.031000
1559789859575861626	1200 30 1.100000 0.175000 0.204000 600 29 0.900000 0.203000 0.185000 600 33 1.000000 0.050000 0.050000 1.200000 0.035000 0.042000
1559789860086884751	1200 30 1.100000 0.171000 0.200000 600 29 0.900000 0.160000 0.145000 600 33 1.000000 0.050000 0.050000 1.200000 0.030000 0.036000
1559789860597834668	1200 29 1.100000 0.171000 0.200000 600 29 0.900000 0.072000 0.065000 600 33 1.000000 0.050000 0.050000 1.200000 0.025000 0.030000
1559789861108674376	1200 30 1.100000 0.173000 0.202000 600 29 0.900000 0.067000 0.061000 600 33 1.000000 0.050000 0.050000 1.200000 0.025000 0.030000
1559789861619768626	1200 30 1.100000 0.175000 0.204000 600 29 0.900000 0.120000 0.109000 600 33 1.000000 0.050000 0.050000 1.200000 0.030000 0.036000
1559789862130747876	1200 30 1.100000 0.171000 0.200000 600 29 0.900000 0.143000 0.130000 600 33 1.000000 0.050000 0.050000 1.200000 0.029000 0.035000
1559789862641842376	1200 29 1.100000 0.171000 0.200000 600 29 0.900000 0.076000 0.069000 600 33 1.000000 0.050000 0.050000 1.200000 0.025000 0.030000
1559789863152713793	1200 29 1.100000 0.172000 0.201000 600 29 0.900000 0.069000 0.062000 600 33 1.000000 0.050000 0.050000 1.200000 0.026000 0.031000
1559789863664522460	1200 30 1.100000 0.172000 0.201000 600 29 0.900000 0.073000 0.066000 600 33 1.000000 0.050000 0.050000 1.200000 0.026000 0.031000
1559789864176097376	1200 30 1.100000 0.177000 0.207000 600 29 0.900000 0.252000 0.229000 600 33 1.000000 0.050000 0.050000 1.200000 0.038000 0.045000
1559789864687158960	1200 30 1.100000 0.171000 0.200000 600 29 0.900000 0.081000 0.073000 600 33 1.000000 0.050000 0.050000 1.200000 0.026000 0.031000
1559789865198119960	1200 30 1.100000 0.172000 0.201000 600 29 0.900000 0.076000 0.069000 600 33 1.000000 0.050000 0.050000 1.200000 0.026000 0.031000
1559789865708785960	1200 29 1.100000 0.170000 0.199000 600 29 0.900000 0.070000 0.063000 600 33 1.000000 0.050000 0.050000 1.200000 0.025000 0.030000
1559789866219976502	1200 30 1.100000 0.173000 0.202000 600 29 0.900000 0.237000 0.216000 600 33 1.000000 0.050000 0.050000 1.200000 0.038000 0.045000
1559789866730992085	1200 29 1.100000 0.171000 0.200000 600 29 0.900000 0.082000 0.074000 600 33 1.000000 0.050000 0.050000 1.200000 0.026000 0.031000
1559789867241939752	1200 29 1.100000 0.172000 0.201000 600 29 0.900000 0.081000 0.073000 600 33 1.000000 0.050000 0.050000 1.200000 0.026000 0.031000
1559789867752811127	1200 29 1.100000 0.172000 0.201000 600 29 0.900000 0.074000 0.067000 600 33 1.000000 0.050000 0.050000 1.200000 0.025000 0.030000
1559789868263934502	1200 30 1.100000 0.174000 0.203000 600 29 0.900000 0.177000 0.161000 600 33 1.000000 0.050000 0.050000 1.200000 0.034000 0.041000
1559789868774936085	1200 30 1.100000 0.172000 0.201000 600 29 0.900000 0.066000 0.060000 600 33 1.000000 0.050000 0.050000 1.200000 0.025000 0.030000
1559789869285865169	1200 30 1.100000 0.172000 0.201000 600 29 0.900000 0.067000 0.061000 600 33 1.000000 0.050000 0.050000 1.200000 0.025000 0.030000
1559789869796570294	1200 30 1.100000 0.172000 0.201000 600 29 0.900000 0.066000 0.060000 600 33 1.000000 0.050000 0.050000 1.200000 0.025000 0.030000
1559789870308399336	1200 30 1.100000 0.174000 0.203000 600 29 0.900000 0.144000 0.131000 600 33 1.000000 0.050000 0.050000 1.200000 0.029000 0.035000
1559789870819708294	1200 30 1.100000 0.178000 0.208000 600 29 0.900000 0.243000 0.221000 600 33 1.000000 0.050000 0.050000 1.200000 0.037000 0.044000
1559789871330683877	1200 29 1.100000 0.171000 0.200000 600 29 0.900000 0.078000 0.071000 600 33 1.000000 0.050000 0.050000 1.200000 0.026000 0.031000
1559789871841756294	1200 30 1.100000 0.171000 0.200000 600 29 0.900000 0.082000 0.074000 600 33 1.000000 0.050000 0.050000 1.200000 0.026000 0.031000
1559789872352877086	1200 30 1.100000 0.171000 0.200000 600 29 0.900000 0.077000 0.070000 600 33 1.000000 0.050000 0.050000 1.200000 0.025000 0.030000
1559789872864094794	1200 30 1.100000 0.173000 0.202000 600 29 0.900000 0.208000 0.189000 600 33 1.000000 0.050000 0.050000 1.200000 0.036000 0.043000
1559789873375088253	1200 30 1.100000 0.172000 0.201000 600 29 0.900000 0.072000 0.065000 600 33 1.000000 0.050000 0.050000 1.200000 0.026000 0.031000
1559789873886038003	1200 30 1.100000 0.172000 0.201000 600 29 0.900000 0.079000 0.072000 600 33 1.000000 0.050000 0.050000 1.200000 0.026000 0.031000
1559789874397568128	1200 30 1.100000 0.172000 0.201000 600 29 0.900000 0.083000 0.075000 600 33 1.000000 0.050000 0.050000 1.200000 0.025000 0.030000
1559789874908583211	1200 30 1.100000 0.172000 0.201000 600 29 0.900000 0.135000 0.123000 600 33 1.000000 0.050000 0.050000 1.200000 0.030000 0.036000
1559789875419519628	1200 30 1.100000 0.172000 0.201000 600 29 0.900000 0.065000 0.059000 600 33 1.000000 0.050000 0.050000 1.200000 0.025000 0.030000
1559789875930404378	1200 29 1.100000 0.172000 0.201000 600 29 0.900000 0.066000 0.060000 600 33 1.000000 0.050000 0.050000 1.200000 0.025000 0.030000
1559789876441692586	1200 30 1.100000 0.172000 0.201000 600 29 0.900000 0.066000 0.060000 600 33 1.000000 0.050000 0.050000 1.200000 0.025000 0.030000
1559789876953404170	1200 30 1.100000 0.172000 0.201000 600 29 0.900000 0.066000 0.060000 600 33 1.000000 0.050000 0.050000 1.200000 0.026000 0.031000
1559789877464442086	1200 30 1.100000 0.171000 0.200000 600 29 0.900000 0.065000 0.059000 600 33 1.000000 0.050000 0.050000 1.200000 0.025000 0.030000
1559789877975505670	1200 30 1.100000 0.171000 0.200000 600 29 0.900000 0.064000 0.058000 600 33 1.000000 0.050000 0.050000 1.200000 0.025000 0.030000
1559789878486631878	1200 30 1.100000 0.171000 0.200000 600 29 0.900000 0.065000 0.059000 600 33 1.000000 0.050000 0.050000 1.200000 0.026000 0.031000
1559789878997591087	1200 30 1.100000 0.171000 0.200000 600 29 0.900000 0.158000 0.144000 600 33 1.000000 0.050000 0.050000 1.200000 0.029000 0.035000
1559789879508748212	1200 30 1.100000 0.172000 0.201000 600 29 0.900000 0.227000 0.207000 600 33 1.000000 0.050000 0.050000 1.200000 0.036000 0.043000
1559789880019839503	1200 29 1.100000 0.171000 0.200000 600 29 0.900000 0.074000 0.067000 600 33 1.000000 0.050000 0.050000 1.200000 0.025000 0.030000
1559789880531275420	1200 30 1.100000 0.172000 0.201000 600 29 0.900000 0.069000 0.062000 600 33 1.000000 0.050000 0.050000 1.200000 0.025000 0.030000
1559789881042410837	1200 30 1.100000 0.171000 0.200000 600 29 0.900000 0.114000 0.104000 600 33 1.000000 0.050000 0.050000 1.200000 0.027000 0.032000
1559789881553421045	1200 30 1.100000 0.172000 0.201000 600 29 0.900000 0.146000 0.133000 600 33 1.000000 0.050000 0.050000 1.200000 0.032000 0.038000
1559789882064268087	1200 30 1.100000 0.172000 0.201000 600 29 0.900000 0.067000 0.061000 600 33 1.000000 0.050000 0.050000 1.200000 0.025000 0.030000
1559789882575556295	1200 30 1.100000 0.172000 0.201000 600 29 0.900000 0.064000 0.058000 600 33 1.000000 0.050000 0.050000 1.200000 0.025000 0.030000
1559789883086780420	1200 30 1.100000 0.172000 0.201000 600 29 0.900000 0.066000 0.060000 600 33 1.000000 0.050000 0.050000 1.200000 0.025000 0.030000
1559789883598666379	1200 30 1.100000 0.172000 0.201000 600 29 0.900000 0.076000 0.069000 600 33 1.000000 0.050000 0.050000 1.200000 0.026000 0.031000
1559789884109816504	1200 30 1.100000 0.172000 0.201000 600 29 0.900000 0.067000 0.061000 600 33 1.000000 0.050000 0.050000 1.200000 0.025000 0.030000
1559789884620766671	1200 30 1.100000 0.171000 0.200000 600 29 0.900000 0.067000 0.061000 600 33 1.000000 0.050000 0.050000 1.200000 0.025000 0.030000
1559789885131910046	1200 30 1.100000 0.172000 0.201000 600 29 0.900000 0.065000 0.059000 600 33 1.000000 0.050000 0.050000 1.200000 0.026000 0.031000
1559789885643673671	1200 30 1.100000 0.172000 0.201000 600 29 0.900000 0.065000 0.059000 600 33 1.000000 0.050000 0.050000 1.200000 0.025000 0.030000
1559789886154796962	1200 30 1.100000 0.180000 0.210000 600 29 0.900000 0.080000 0.073000 600 33 1.000000 0.050000 0.050000 1.200000 0.025000 0.030000
1559789886665681879	1200 30 1.100000 0.172000 0.201000 600 29 0.900000 0.067000 0.061000 600 33 1.000000 0.050000 0.050000 1.200000 0.025000 0.030000
1559789887176914421	1200 30 1.100000 0.171000 0.200000 600 29 0.900000 0.158000 0.144000 600 33 1.000000 0.050000 0.050000 1.200000 0.031000 0.037000
1559789887688011879	1200 30 1.100000 0.171000 0.200000 600 29 0.900000 0.072000 0.065000 600 33 1.000000 0.050000 0.050000 1.200000 0.026000 0.031000
1559789888199116046	1200 30 1.100000 0.172000 0.201000 600 29 0.900000 0.153000 0.139000 600 33 1.000000 0.050000 0.050000 1.200000 0.025000 0.030000
1559789888710174879	1200 30 1.100000 0.172000 0.201000 600 29 0.900000 0.066000 0.060000 600 33 1.000000 0.050000 0.050000 1.200000 0.030000 0.036000
1559789889221432754	1200 30 1.100000 0.172000 0.201000 600 29 0.900000 0.145000 0.132000 600 33 1.000000 0.050000 0.050000 1.200000 0.025000 0.030000
1559789889732399713	1200 30 1.100000 0.171000 0.200000 600 29 0.900000 0.077000 0.070000 600 33 1.000000 0.050000 0.050000 1.200000 0.026000 0.031000
1559789890243944505	1200 30 1.100000 0.172000 0.201000 600 29 0.900000 0.071000 0.064000 600 33 1.000000 0.050000 0.050000 1.200000 0.026000 0.031000
1559789890755171796	1200 30 1.100000 0.171000 0.200000 600 29 0.900000 0.220000 0.200000 600 33 1.000000 0.050000 0.050000 1.200000 0.035000 0.042000
1559789891266628838	1200 30 1.100000 0.137000 0.160000 600 29 0.900000 0.115000 0.104000 600 33 1.000000 0.050000 0.050000 1.200000 0.062000 0.075000
1559789891777871755	1200 30 1.100000 0.126000 0.147000 600 30 0.900000 0.126000 0.115000 600 33 1.000000 0.050000 0.050000 1.200000 0.067000 0.081000
1559789892289433046	1200 31 1.100000 0.274000 0.318000 600 30 0.900000 0.111000 0.101000 600 33 1.000000 0.050000 0.050000 1.200000 0.048000 0.058000
1559789892800690380	1200 31 1.100000 0.288000 0.334000 600 30 0.900000 0.244000 0.222000 600 33 1.000000 0.050000 0.050000 1.200000 0.056000 0.067000
1559789893311837088	1200 31 1.100000 0.272000 0.315000 600 30 0.900000 0.121000 0.110000 600 33 1.000000 0.050000 0.050000 1.200000 0.049000 0.059000
1559789893822815547	1200 31 1.100000 0.272000 0.315000 600 30 0.900000 0.113000 0.103000 600 33 1.000000 0.050000 0.050000 1.200000 0.048000 0.058000
1559789894333658422	1200 31 1.100000 0.271000 0.314000 600 30 0.900000 0.115000 0.104000 600 33 1.000000 0.050000 0.050000 1.200000 0.048000 0.057000
1559789894844702797	1200 31 1.100000 0.285000 0.330000 600 30 0.900000 0.187000 0.170000 600 33 1.000000 0.050000 0.050000 1.200000 0.053000 0.064000
1559789895356020380	1200 31 1.100000 0.271000 0.314000 600 30 0.900000 0.175000 0.159000 600 33 1.000000 0.050000 0.050000 1.200000 0.052000 0.062000
1559789895867154630	1200 31 1.100000 0.272000 0.315000 600 30 0.900000 0.137000 0.125000 600 33 1.000000 0.050000 0.050000 1.200000 0.049000 0.059000
1559789896377976130	1200 31 1.100000 0.273000 0.316000 600 30 0.900000 0.114000 0.104000 600 33 1.000000 0.050000 0.050000 1.200000 0.048000 0.058000
1559789896890048755	1200 32 1.100000 0.272000 0.315000 600 30 0.900000 0.115000 0.104000 600 34 1.000000 0.050000 0.050000 1.200000 0.048000 0.058000
1559789897401380422	1200 31 1.100000 0.272000 0.315000 600 30 0.900000 0.239000 0.217000 600 34 1.000000 0.050000 0.050000 1.200000 0.055000 0.066000
1559789897912250464	1200 31 1.100000 0.272000 0.315000 600 30 0.900000 0.106000 0.096000 600 33 1.000000 0.050000 0.050000 1.200000 0.049000 0.059000
1559789898423167922	1200 31 1.100000 0.273000 0.316000 600 30 0.900000 0.108000 0.098000 600 33 1.000000 0.050000 0.050000 1.200000 0.049000 0.059000
1559789898934785839	1200 31 1.100000 0.271000 0.314000 600 30 0.900000 0.115000 0.104000 600 33 1.000000 0.050000 0.050000 1.200000 0.048000 0.058000
1559789899446120297	1200 31 1.100000 0.287000 0.333000 600 30 0.900000 0.246000 0.224000 600 34 1.000000 0.050000 0.050000 1.200000 0.056000 0.067000
1559789899956982756	1200 31 1.100000 0.272000 0.315000 600 30 0.900000 0.110000 0.100000 600 34 1.000000 0.050000 0.050000 1.200000 0.049000 0.059000
1559789900467905589	1200 31 1.100000 0.272000 0.315000 600 30 0.900000 0.106000 0.096000 600 34 1.000000 0.050000 0.050000 1.200000 0.049000 0.059000
1559789900978988298	1200 31 1.100000 0.271000 0.314000 600 30 0.900000 0.109000 0.099000 600 33 1.000000 0.050000 0.050000 1.200000 0.049000 0.059000
1559789901490126006	1200 31 1.100000 0.285000 0.330000 600 30 0.900000 0.186000 0.169000 600 34 1.000000 0.050000 0.050000 1.200000 0.053000 0.064000
1559789902001074298	1200 31 1.100000 0.273000 0.316000 600 30 0.900000 0.103000 0.094000 600 33 1.000000 0.050000 0.050000 1.200000 0.048000 0.058000
1559789902511930339	1200 31 1.100000 0.273000 0.316000 600 30 0.900000 0.102000 0.093000 600 34 1.000000 0.050000 0.050000 1.200000 0.049000 0.059000
1559789903022631048	1200 31 1.100000 0.272000 0.315000 600 30 0.900000 0.102000 0.093000 600 34 1.000000 0.050000 0.050000 1.200000 0.049000 0.059000
1559789903534465589	1200 32 1.100000 0.273000 0.316000 600 30 0.900000 0.112000 0.102000 600 34 1.000000 0.050000 0.050000 1.200000 0.048000 0.058000
1559789904045919215	1200 31 1.100000 0.283000 0.328000 600 30 0.900000 0.320000 0.291000 600 34 1.000000 0.050000 0.050000 1.200000 0.058000 0.070000
1559789904556772173	1200 31 1.100000 0.273000 0.316000 600 30 0.900000 0.113000 0.103000 600 34 1.000000 0.050000 0.050000 1.200000 0.048000 0.058000
1559789905067761965	1200 31 1.100000 0.273000 0.316000 600 30 0.900000 0.108000 0.098000 600 33 1.000000 0.050000 0.050000 1.200000 0.049000 0.059000
1559789905579866381	1200 31 1.100000 0.272000 0.315000 600 30 0.900000 0.105000 0.095000 600 34 1.000000 0.050000 0.050000 1.200000 0.049000 0.059000
1559789906091333423	1200 31 1.100000 0.283000 0.328000 600 30 0.900000 0.302000 0.275000 600 34 1.000000 0.050000 0.050000 1.200000 0.057000 0.069000
1559789906602286215	1200 31 1.100000 0.272000 0.315000 600 30 0.900000 0.116000 0.105000 600 33 1.000000 0.050000 0.050000 1.200000 0.048000 0.058000
1559789907113099882	1200 31 1.100000 0.272000 0.315000 600 30 0.900000 0.114000 0.104000 600 34 1.000000 0.051000 0.051000 1.200000 0.049000 0.059000
1559789907624722340	1200 31 1.100000 0.272000 0.315000 600 30 0.900000 0.106000 0.096000 600 34 1.000000 0.050000 0.050000 1.200000 0.048000 0.058000
1559789908135953173	1200 31 1.100000 0.282000 0.327000 600 30 0.900000 0.217000 0.197000 600 34 1.000000 0.050000 0.050000 1.200000 0.054000 0.065000
1559789908647027007	1200 31 1.100000 0.272000 0.315000 600 30 0.900000 0.103000 0.094000 600 34 1.000000 0.050000 0.050000 1.200000 0.048000 0.058000
1559789909157836923	1200 31 1.100000 0.274000 0.318000 600 30 0.900000 0.103000 0.094000 600 34 1.000000 0.050000 0.050000 1.200000 0.049000 0.059000
1559789909668489424	1200 31 1.100000 0.272000 0.315000 600 30 0.900000 0.102000 0.093000 600 34 1.000000 0.050000 0.050000 1.200000 0.049000 0.059000
1559789910180435257	1200 32 1.100000 0.272000 0.315000 600 30 0.900000 0.129000 0.117000 600 34 1.000000 0.050000 0.050000 1.200000 0.049000 0.059000
1559789910691738049	1200 31 1.100000 0.277000 0.321000 600 30 0.900000 0.102000 0.093000 600 34 1.000000 0.050000 0.050000 1.200000 0.049000 0.059000
1559789911202619924	1200 31 1.100000 0.271000 0.314000 600 30 0.900000 0.103000 0.094000 600 34 1.000000 0.050000 0.050000 1.200000 0.049000 0.059000
1559789911713653007	1200 31 1.100000 0.273000 0.316000 600 30 0.900000 0.116000 0.105000 600 33 1.000000 0.050000 0.050000 1.200000 0.049000 0.059000
1559789912225611591	1200 31 1.100000 0.271000 0.314000 600 30 0.900000 0.181000 0.165000 600 33 1.000000 0.050000 0.050000 1.200000 0.050000 0.060000
1559789912736896966	1200 31 1.100000 0.279000 0.323000 600 30 0.900000 0.220000 0.200000 600 34 1.000000 0.050000 0.050000 1.200000 0.055000 0.066000
1559789913247768507	1200 31 1.100000 0.272000 0.315000 600 30 0.900000 0.108000 0.098000 600 34 1.000000 0.050000 0.050000 1.200000 0.049000 0.059000
1559789913758793216	1200 31 1.100000 0.273000 0.316000 600 30 0.900000 0.113000 0.103000 600 34 1.000000 0.050000 0.050000 1.200000 0.048000 0.058000
1559789914269917174	1200 31 1.100000 0.271000 0.314000 600 30 0.900000 0.183000 0.166000 600 34 1.000000 0.050000 0.050000 1.200000 0.051000 0.061000
1559789914780978258	1200 31 1.100000 0.278000 0.322000 600 30 0.900000 0.167000 0.152000 600 34 1.000000 0.050000 0.050000 1.200000 0.052000 0.062000
1559789915291999091	1200 31 1.100000 0.272000 0.315000 600 30 0.900000 0.106000 0.096000 600 34 1.000000 0.050000 0.050000 1.200000 0.049000 0.059000
1559789915802827924	1200 31 1.100000 0.273000 0.316000 600 30 0.900000 0.103000 0.094000 600 34 1.000000 0.050000 0.050000 1.200000 0.048000 0.058000
1559789916314000466	1200 31 1.100000 0.272000 0.315000 600 30 0.900000 0.174000 0.158000 600 34 1.000000 0.050000 0.050000 1.200000 0.051000 0.061000
1559789916826079758	1200 32 1.100000 0.271000 0.314000 600 30 0.900000 0.103000 0.094000 600 34 1.000000 0.050000 0.050000 1.200000 0.048000 0.058000
1559789917337157091	1200 31 1.100000 0.280000 0.325000 600 30 0.900000 0.101000 0.092000 600 34 1.000000 0.050000 0.050000 1.200000 0.048000 0.058000
1559789917848273258	1200 31 1.100000 0.272000 0.315000 600 30 0.900000 0.100000 0.091000 600 34 1.000000 0.050000 0.050000 1.200000 0.048000 0.058000
1559789918359472383	1200 31 1.100000 0.272000 0.315000 600 30 0.900000 0.172000 0.157000 600 34 1.000000 0.050000 0.050000 1.200000 0.050000 0.060000
1559789918871033550	1200 31 1.100000 0.273000 0.316000 600 30 0.900000 0.103000 0.094000 600 34 1.000000 0.050000 0.050000 1.200000 0.048000 0.058000
1559789919382296550	1200 31 1.100000 0.281000 0.326000 600 30 0.900000 0.137000 0.125000 600 34 1.000000 0.050000 0.050000 1.200000 0.050000 0.060000
1559789919893120716	1200 31 1.100000 0.272000 0.315000 600 30 0.900000 0.110000 0.100000 600 34 1.000000 0.050000 0.050000 1.200000 0.049000 0.059000
1559789920404448883	1200 31 1.100000 0.272000 0.315000 600 30 0.900000 0.105000 0.095000 600 34 1.000000 0.050000 0.050000 1.200000 0.048000 0.058000
1559789920915603550	1200 31 1.100000 0.272000 0.315000 600 30 0.900000 0.109000 0.099000 600 34 1.000000 0.050000 0.050000 1.200000 0.049000 0.059000
1559789921426712800	1200 31 1.100000 0.276000 0.320000 600 30 0.900000 0.160000 0.145000 600 34 1.000000 0.050000 0.050000 1.200000 0.051000 0.061000
1559789921937666633	1200 31 1.100000 0.272000 0.315000 600 30 0.900000 0.115000 0.104000 600 34 1.000000 0.050000 0.050000 1.200000 0.049000 0.059000
1559789922448708175	1200 31 1.100000 0.271000 0.314000 600 30 0.900000 0.121000 0.110000 600 34 1.000000 0.050000 0.050000 1.200000 0.049000 0.059000
1559789922959770258	1200 31 1.100000 0.273000 0.316000 600 30 0.900000 0.101000 0.092000 600 34 1.000000 0.050000 0.050000 1.200000 0.048000 0.058000
1559789923471541550	1200 32 1.100000 0.272000 0.315000 600 30 0.900000 0.102000 0.093000 600 34 1.000000 0.050000 0.050000 1.200000 0.048000 0.058000
1559789923982814342	1200 31 1.100000 0.283000 0.328000 600 30 0.900000 0.104000 0.094000 600 34 1.000000 0.050000 0.050000 1.200000 0.048000 0.058000
1559789924494061717	1200 32 1.100000 0.271000 0.314000 600 30 0.900000 0.155000 0.141000 600 34 1.000000 0.050000 0.050000 1.200000 0.050000 0.060000
1559789925005497384	1200 31 1.100000 0.272000 0.315000 600 30 0.900000 0.101000 0.092000 600 34 1.000000 0.050000 0.050000 1.200000 0.048000 0.058000
1559789925516476717	1200 31 1.100000 0.273000 0.316000 600 30 0.900000 0.101000 0.092000 600 34 1.000000 0.050000 0.050000 1.200000 0.049000 0.059000
1559789926027789676	1200 31 1.100000 0.283000 0.328000 600 30 0.900000 0.148000 0.135000 600 34 1.000000 0.050000 0.050000 1.200000 0.051000 0.061000
1559789926538889551	1200 31 1.100000 0.273000 0.316000 600 30 0.900000 0.170000 0.155000 600 34 1.000000 0.050000 0.050000 1.200000 0.050000 0.060000
1559789927049996134	1200 31 1.100000 0.271000 0.314000 600 30 0.900000 0.102000 0.093000 600 34 1.000000 0.050000 0.050000 1.200000 0.048000 0.058000
1559789927560900134	1200 31 1.100000 0.272000 0.315000 600 30 0.900000 0.100000 0.091000 600 34 1.000000 0.050000 0.050000 1.200000 0.048000 0.058000
1559789928072059884	1200 32 1.100000 0.273000 0.316000 600 30 0.900000 0.146000 0.133000 600 34 1.000000 0.050000 0.050000 1.200000 0.050000 0.060000
1559789928583195884	1200 31 1.100000 0.272000 0.315000 600 30 0.900000 0.113000 0.103000 600 34 1.000000 0.050000 0.050000 1.200000 0.049000 0.059000
1559789929094246801	1200 31 1.100000 0.272000 0.315000 600 30 0.900000 0.105000 0.095000 600 34 1.000000 0.050000 0.050000 1.200000 0.048000 0.058000
1559789929605476343	1200 31 1.100000 0.273000 0.316000 600 30 0.900000 0.112000 0.102000 600 34 1.000000 0.050000 0.050000 1.200000 0.048000 0.058000
1559789930117569051	1200 32 1.100000 0.272000 0.315000 600 30 0.900000 0.107000 0.097000 600 34 1.000000 0.050000 0.050000 1.200000 0.048000 0.058000
1559789930628708384	1200 31 1.100000 0.286000 0.331000 600 30 0.900000 0.251000 0.228000 600 34 1.000000 0.050000 0.050000 1.200000 0.057000 0.068000
1559789931139745843	1200 31 1.100000 0.272000 0.315000 600 30 0.900000 0.182000 0.165000 600 34 1.000000 0.050000 0.050000 1.200000 0.050000 0.060000
1559789931650516593	1200 31 1.100000 0.272000 0.315000 600 30 0.900000 0.116000 0.105000 600 34 1.000000 0.050000 0.050000 1.200000 0.048000 0.058000
1559789932161219343	1200 31 1.100000 0.273000 0.316000 600 30 0.900000 0.111000 0.101000 600 34 1.000000 0.050000 0.050000 1.200000 0.049000 0.059000
1559789932672681260	1200 32 1.100000 0.286000 0.332000 600 30 0.900000 0.196000 0.178000 600 34 1.000000 0.050000 0.050000 1.200000 0.053000 0.064000
1559789933183887551	1200 31 1.100000 0.272000 0.315000 600 30 0.900000 0.179000 0.163000 600 34 1.000000 0.050000 0.050000 1.200000 0.051000 0.061000
1559789933694908551	1200 31 1.100000 0.272000 0.315000 600 30 0.900000 0.115000 0.104000 600 34 1.000000 0.050000 0.050000 1.200000 0.049000 0.059000
1559789934205736760	1200 31 1.100000 0.273000 0.316000 600 30 0.900000 0.115000 0.104000 600 34 1.000000 0.050000 0.050000 1.200000 0.049000 0.059000
1559789934717434052	1200 32 1.100000 0.286000 0.331000 600 30 0.900000 0.143000 0.130000 600 34 1.000000 0.050000 0.050000 1.200000 0.050000 0.060000
1559789935228779927	1200 31 1.100000 0.273000 0.316000 600 30 0.900000 0.180000 0.164000 600 34 1.000000 0.050000 0.050000 1.200000 0.051000 0.061000
1559789935740064260	1200 31 1.100000 0.272000 0.315000 600 30 0.900000 0.104000 0.094000 600 34 1.000000 0.050000 0.050000 1.200000 0.049000 0.059000
1559789936251244218	1200 31 1.100000 0.272000 0.315000 600 30 0.900000 0.114000 0.104000 600 34 1.000000 0.050000 0.050000 1.200000 0.048000 0.058000
1559789936763120718	1200 32 1.100000 0.272000 0.315000 600 31 0.900000 0.115000 0.104000 600 34 1.000000 0.050000 0.050000 1.200000 0.049000 0.059000
1559789937274555510	1200 31 1.100000 0.287000 0.332000 600 30 0.900000 0.277000 0.252000 600 34 1.000000 0.050000 0.050000 1.200000 0.057000 0.068000
1559789937785559344	1200 31 1.100000 0.273000 0.316000 600 30 0.900000 0.106000 0.096000 600 34 1.000000 0.050000 0.050000 1.200000 0.049000 0.059000
1559789938296424760	1200 31 1.100000 0.273000 0.316000 600 31 0.900000 0.108000 0.098000 600 34 1.000000 0.050000 0.050000 1.200000 0.048000 0.058000
1559789938807314635	1200 31 1.100000 0.273000 0.316000 600 30 0.900000 0.114000 0.104000 600 34 1.000000 0.050000 0.050000 1.200000 0.048000 0.058000
1559789939318519552	1200 31 1.100000 0.287000 0.333000 600 30 0.900000 0.245000 0.223000 600 34 1.000000 0.050000 0.050000 1.200000 0.054000 0.065000
1559789939829631760	1200 31 1.100000 0.272000 0.315000 600 30 0.900000 0.110000 0.100000 600 34 1.000000 0.050000 0.050000 1.200000 0.049000 0.059000
1559789940340399261	1200 31 1.100000 0.272000 0.315000 600 30 0.900000 0.106000 0.096000 600 34 1.000000 0.050000 0.050000 1.200000 0.048000 0.058000
1559789940851492219	1200 31 1.100000 0.272000 0.315000 600 31 0.900000 0.110000 0.100000 600 34 1.000000 0.050000 0.050000 1.200000 0.049000 0.059000
1559789941362622344	1200 32 1.100000 0.286000 0.331000 600 31 0.900000 0.203000 0.185000 600 34 1.000000 0.050000 0.050000 1.200000 0.051000 0.061000
1559789941873659677	1200 31 1.100000 0.274000 0.318000 600 31 0.900000 0.115000 0.104000 600 34 1.000000 0.050000 0.050000 1.200000 0.049000 0.059000
1559789942384402469	1200 31 1.100000 0.272000 0.315000 600 31 0.900000 0.107000 0.097000 600 34 1.000000 0.050000 0.050000 1.200000 0.048000 0.058000
1559789942895221428	1200 31 1.100000 0.272000 0.315000 600 31 0.900000 0.102000 0.093000 600 34 1.000000 0.050000 0.050000 1.200000 0.048000 0.058000
1559789943406962053	1200 32 1.100000 0.271000 0.314000 600 31 0.900000 0.171000 0.156000 600 34 1.000000 0.050000 0.050000 1.200000 0.050000 0.060000
1559789943918215219	1200 31 1.100000 0.275000 0.319000 600 31 0.900000 0.116000 0.105000 600 34 1.000000 0.050000 0.050000 1.200000 0.049000 0.059000
1559789944429090011	1200 31 1.100000 0.273000 0.316000 600 30 0.900000 0.113000 0.103000 600 34 1.000000 0.050000 0.050000 1.200000 0.049000 0.059000
1559789944940076053	1200 31 1.100000 0.272000 0.315000 600 31 0.900000 0.106000 0.096000 600 34 1.000000 0.050000 0.050000 1.200000 0.049000 0.059000
1559789945451368303	1200 31 1.100000 0.273000 0.316000 600 31 0.900000 0.106000 0.096000 600 34 1.000000 0.050000 0.050000 1.200000 0.049000 0.059000
1559789945962529345	1200 31 1.100000 0.283000 0.328000 600 31 0.900000 0.189000 0.172000 600 34 1.000000 0.050000 0.050000 1.200000 0.052000 0.062000
1559789946473439511	1200 31 1.100000 0.272000 0.315000 600 31 0.900000 0.116000 0.105000 600 34 1.000000 0.050000 0.050000 1.200000 0.048000 0.058000
1559789946984195011	1200 31 1.100000 0.272000 0.315000 600 31 0.900000 0.110000 0.100000 600 34 1.000000 0.050000 0.050000 1.200000 0.048000 0.058000
1559789947495361928	1200 31 1.100000 0.272000 0.315000 600 30 0.900000 0.105000 0.095000 600 34 1.000000 0.050000 0.050000 1.200000 0.049000 0.059000
1559789948006586553	1200 32 1.100000 0.282000 0.327000 600 31 0.900000 0.120000 0.109000 600 34 1.000000 0.050000 0.050000 1.200000 0.049000 0.059000
1559789948517614095	1200 31 1.100000 0.274000 0.318000 600 31 0.900000 0.116000 0.105000 600 34 1.000000 0.050000 0.050000 1.200000 0.049000 0.059000
1559789949028335637	1200 31 1.100000 0.272000 0.315000 600 30 0.900000 0.115000 0.104000 600 34 1.000000 0.050000 0.050000 1.200000 0.048000 0.058000
1559789949539649303	1200 31 1.100000 0.273000 0.316000 600 31 0.900000 0.102000 0.093000 600 34 1.000000 0.050000 0.050000 1.200000 0.048000 0.058000
1559789950051576887	1200 32 1.100000 0.272000 0.315000 600 31 0.900000 0.101000 0.092000 600 34 1.000000 0.050000 0.050000 1.200000 0.048000 0.058000
1559789950562646053	1200 32 1.100000 0.276000 0.320000 600 31 0.900000 0.114000 0.104000 600 34 1.000000 0.050000 0.050000 1.200000 0.050000 0.060000
1559789951073472178	1200 31 1.100000 0.273000 0.316000 600 31 0.900000 0.104000 0.094000 600 34 1.000000 0.050000 0.050000 1.200000 0.048000 0.058000
1559789951584699095	1200 31 1.100000 0.274000 0.318000 600 30 0.900000 0.128000 0.116000 600 34 1.000000 0.050000 0.050000 1.200000 0.049000 0.059000
1559789952095582012	1200 31 1.100000 0.273000 0.316000 600 31 0.900000 0.101000 0.092000 600 34 1.000000 0.050000 0.050000 1.200000 0.048000 0.058000
1559789952606816054	1200 31 1.100000 0.281000 0.326000 600 31 0.900000 0.172000 0.156000 600 34 1.000000 0.050000 0.050000 1.200000 0.052000 0.062000
1559789953117930220	1200 31 1.100000 0.273000 0.316000 600 30 0.900000 0.112000 0.102000 600 34 1.000000 0.050000 0.050000 1.200000 0.049000 0.059000
1559789953629108304	1200 31 1.100000 0.272000 0.315000 600 31 0.900000 0.115000 0.104000 600 34 1.000000 0.050000 0.050000 1.200000 0.049000 0.059000
1559789954140154096	1200 31 1.100000 0.272000 0.315000 600 31 0.900000 0.120000 0.109000 600 34 1.000000 0.050000 0.050000 1.200000 0.049000 0.059000
1559789954651382387	1200 32 1.100000 0.273000 0.316000 600 31 0.900000 0.118000 0.107000 600 34 1.000000 0.050000 0.050000 1.200000 0.048000 0.058000
1559789955162606887	1200 31 1.100000 0.279000 0.323000 600 31 0.900000 0.108000 0.098000 600 34 1.000000 0.050000 0.050000 1.200000 0.049000 0.059000
1559789955673879221	1200 32 1.100000 0.272000 0.315000 600 31 0.900000 0.113000 0.103000 600 34 1.000000 0.050000 0.050000 1.200000 0.049000 0.059000
1559789956184774596	1200 31 1.100000 0.273000 0.316000 600 30 0.900000 0.103000 0.093000 600 34 1.000000 0.050000 0.050000 1.200000 0.049000 0.059000
1559789956696713262	1200 32 1.100000 0.273000 0.316000 600 31 0.900000 0.104000 0.094000 600 34 1.000000 0.050000 0.050000 1.200000 0.048000 0.058000
1559789957207916304	1200 31 1.100000 0.280000 0.325000 600 31 0.900000 0.126000 0.115000 600 34 1.000000 0.050000 0.050000 1.200000 0.050000 0.060000
1559789957719447554	1200 32 1.100000 0.272000 0.315000 600 31 0.900000 0.100000 0.091000 600 34 1.000000 0.050000 0.050000 1.200000 0.048000 0.058000
1559789958230702346	1200 31 1.100000 0.274000 0.318000 600 30 0.900000 0.102000 0.093000 600 34 1.000000 0.050000 0.050000 1.200000 0.048000 0.058000
1559789958741583888	1200 31 1.100000 0.273000 0.316000 600 30 0.900000 0.104000 0.094000 600 34 1.000000 0.050000 0.050000 1.200000 0.049000 0.059000
1559789959252628388	1200 32 1.100000 0.281000 0.326000 600 30 0.900000 0.181000 0.165000 600 34 1.000000 0.050000 0.050000 1.200000 0.053000 0.064000
1559789959764024138	1200 32 1.100000 0.273000 0.316000 600 30 0.900000 0.101000 0.092000 600 34 1.000000 0.050000 0.050000 1.200000 0.049000 0.059000
1559789960275367721	1200 32 1.100000 0.273000 0.316000 600 31 0.900000 0.101000 0.092000 600 34 1.000000 0.050000 0.050000 1.200000 0.049000 0.059000
1559789960786779346	1200 31 1.100000 0.272000 0.315000 600 31 0.900000 0.112000 0.102000 600 34 1.000000 0.050000 0.050000 1.200000 0.049000 0.059000
1559789961297866971	1200 32 1.100000 0.274000 0.318000 600 31 0.900000 0.118000 0.107000 600 34 1.000000 0.050000 0.050000 1.200000 0.048000 0.058000
1559789961808652471	1200 31 1.100000 0.282000 0.327000 600 31 0.900000 0.112000 0.102000 600 34 1.000000 0.050000 0.050000 1.200000 0.049000 0.059000
1559789962320005597	1200 31 1.100000 0.274000 0.318000 600 30 0.900000 0.172000 0.156000 600 34 1.000000 0.050000 0.050000 1.200000 0.050000 0.060000
1559789962830992138	1200 31 1.100000 0.273000 0.316000 600 30 0.900000 0.101000 0.092000 600 34 1.000000 0.050000 0.050000 1.200000 0.049000 0.059000
1559789963342960513	1200 32 1.100000 0.273000 0.316000 600 31 0.900000 0.103000 0.094000 600 34 1.000000 0.050000 0.050000 1.200000 0.048000 0.058000
1559789963854213972	1200 32 1.100000 0.282000 0.327000 600 31 0.900000 0.128000 0.116000 600 34 1.000000 0.050000 0.050000 1.200000 0.050000 0.060000
1559789964365508180	1200 31 1.100000 0.273000 0.316000 600 30 0.900000 0.163000 0.148000 600 34 1.000000 0.050000 0.050000 1.200000 0.051000 0.061000
1559789964876561847	1200 31 1.100000 0.272000 0.315000 600 30 0.900000 0.101000 0.092000 600 34 1.000000 0.050000 0.050000 1.200000 0.048000 0.058000
1559789965387547097	1200 31 1.100000 0.273000 0.316000 600 31 0.900000 0.101000 0.092000 600 34 1.000000 0.050000 0.050000 1.200000 0.048000 0.058000
1559789965898543680	1200 32 1.100000 0.284000 0.329000 600 31 0.900000 0.192000 0.175000 600 34 1.000000 0.050000 0.050000 1.200000 0.054000 0.065000
1559789966409740264	1200 32 1.100000 0.274000 0.318000 600 31 0.900000 0.131000 0.119000 600 34 1.000000 0.050000 0.050000 1.200000 0.050000 0.060000
1559789966920804222	1200 31 1.100000 0.274000 0.318000 600 30 0.900000 0.103000 0.094000 600 34 1.000000 0.050000 0.050000 1.200000 0.048000 0.058000
1559789967431928264	1200 31 1.100000 0.273000 0.316000 600 31 0.900000 0.100000 0.091000 600 34 1.000000 0.050000 0.050000 1.200000 0.049000 0.059000
1559789967943074306	1200 32 1.100000 0.275000 0.319000 600 31 0.900000 0.247000 0.225000 600 34 1.000000 0.050000 0.050000 1.200000 0.056000 0.067000
1559789968454203014	1200 31 1.100000 0.272000 0.315000 600 30 0.900000 0.104000 0.094000 600 34 1.000000 0.050000 0.050000 1.200000 0.049000 0.059000
1559789968965590806	1200 32 1.100000 0.274000 0.318000 600 31 0.900000 0.115000 0.104000 600 34 1.000000 0.050000 0.050000 1.200000 0.049000 0.059000
1559789969476410264	1200 31 1.100000 0.273000 0.316000 600 30 0.900000 0.103000 0.094000 600 34 1.000000 0.050000 0.050000 1.200000 0.049000 0.059000
1559789969988348597	1200 32 1.100000 0.273000 0.316000 600 30 0.900000 0.105000 0.095000 600 34 1.000000 0.050000 0.050000 1.200000 0.049000 0.059000
1559789970499786931	1200 32 1.100000 0.285000 0.330000 600 30 0.900000 0.219000 0.199000 600 34 1.000000 0.050000 0.050000 1.200000 0.053000 0.064000
1559789971010701389	1200 31 1.100000 0.273000 0.316000 600 31 0.900000 0.115000 0.104000 600 34 1.000000 0.050000 0.050000 1.200000 0.048000 0.058000
1559789971521472556	1200 31 1.100000 0.273000 0.316000 600 31 0.900000 0.115000 0.104000 600 34 1.000000 0.050000 0.050000 1.200000 0.048000 0.058000
1559789972032233014	1200 31 1.100000 0.273000 0.316000 600 30 0.900000 0.108000 0.098000 600 34 1.000000 0.050000 0.050000 1.200000 0.049000 0.059000
1559789972543328973	1200 31 1.100000 0.287000 0.332000 600 31 0.900000 0.157000 0.143000 600 34 1.000000 0.050000 0.050000 1.200000 0.056000 0.067000
1559789973054468389	1200 31 1.100000 0.274000 0.318000 600 31 0.900000 0.114000 0.104000 600 34 1.000000 0.050000 0.050000 1.200000 0.049000 0.059000
1559789973565442056	1200 31 1.100000 0.273000 0.316000 600 31 0.900000 0.116000 0.105000 600 34 1.000000 0.050000 0.050000 1.200000 0.049000 0.059000
1559789974076197806	1200 31 1.100000 0.274000 0.318000 600 30 0.900000 0.112000 0.102000 600 34 1.000000 0.050000 0.050000 1.200000 0.049000 0.059000
1559789974587233515	1200 32 1.100000 0.273000 0.316000 600 31 0.900000 0.106000 0.096000 600 34 1.000000 0.050000 0.050000 1.200000 0.049000 0.059000
1559789975098457556	1200 31 1.100000 0.272000 0.315000 600 30 0.900000 0.110000 0.100000 600 34 1.000000 0.050000 0.050000 1.200000 0.049000 0.059000
1559789975609358681	1200 31 1.100000 0.273000 0.316000 600 30 0.900000 0.114000 0.103000 600 34 1.000000 0.050000 0.050000 1.200000 0.049000 0.059000
1559789976120242556	1200 31 1.100000 0.273000 0.316000 600 31 0.900000 0.116000 0.105000 600 34 1.000000 0.050000 0.050000 1.200000 0.049000 0.059000
1559789976632177182	1200 32 1.100000 0.274000 0.318000 600 31 0.900000 0.103000 0.094000 600 34 1.000000 0.050000 0.050000 1.200000 0.049000 0.059000
1559789977143462890	1200 32 1.100000 0.285000 0.330000 600 31 0.900000 0.278000 0.253000 600 34 1.000000 0.050000 0.050000 1.200000 0.056000 0.067000
1559789977654530807	1200 31 1.100000 0.273000 0.316000 600 31 0.900000 0.107000 0.097000 600 34 1.000000 0.050000 0.050000 1.200000 0.048000 0.058000
1559789978165341015	1200 31 1.100000 0.272000 0.315000 600 31 0.900000 0.114000 0.104000 600 34 1.000000 0.050000 0.050000 1.200000 0.048000 0.058000
1559789978676443057	1200 32 1.100000 0.272000 0.315000 600 31 0.900000 0.115000 0.104000 600 34 1.000000 0.050000 0.050000 1.200000 0.049000 0.059000
1559789979187534765	1200 32 1.100000 0.287000 0.332000 600 31 0.900000 0.206000 0.187000 600 34 1.000000 0.051000 0.051000 1.200000 0.052000 0.062000
1559789979698642474	1200 31 1.100000 0.273000 0.316000 600 31 0.900000 0.106000 0.096000 600 34 1.000000 0.050000 0.050000 1.200000 0.048000 0.058000
1559789980209505807	1200 31 1.100000 0.272000 0.315000 600 30 0.900000 0.109000 0.099000 600 34 1.000000 0.050000 0.050000 1.200000 0.049000 0.059000
1559789980720723932	1200 32 1.100000 0.273000 0.316000 600 31 0.900000 0.115000 0.104000 600 34 1.000000 0.050000 0.050000 1.200000 0.049000 0.059000
1559789981232080765	1200 32 1.100000 0.273000 0.316000 600 31 0.900000 0.143000 0.130000 600 34 1.000000 0.050000 0.050000 1.200000 0.050000 0.060000
1559789981743340640	1200 31 1.100000 0.272000 0.315000 600 31 0.900000 0.111000 0.101000 600 34 1.000000 0.050000 0.050000 1.200000 0.049000 0.059000
1559789982254183182	1200 31 1.100000 0.273000 0.316000 600 30 0.900000 0.106000 0.096000 600 34 1.000000 0.050000 0.050000 1.200000 0.049000 0.059000
1559789982766075099	1200 32 1.100000 0.273000 0.316000 600 31 0.900000 0.111000 0.101000 600 34 1.000000 0.050000 0.050000 1.200000 0.048000 0.058000
1559789983278033599	1200 32 1.100000 0.273000 0.316000 600 31 0.900000 0.105000 0.095000 600 34 1.000000 0.050000 0.050000 1.200000 0.049000 0.059000
1559789983789584349	1200 32 1.100000 0.274000 0.318000 600 31 0.900000 0.161000 0.146000 600 34 1.000000 0.050000 0.050000 1.200000 0.052000 0.062000
1559789984300619474	1200 31 1.100000 0.274000 0.318000 600 31 0.900000 0.102000 0.093000 600 34 1.000000 0.050000 0.050000 1.200000 0.048000 0.058000
1559789984812334058	1200 32 1.100000 0.273000 0.316000 600 30 0.900000 0.100000 0.091000 600 34 1.000000 0.050000 0.050000 1.200000 0.048000 0.058000
1559789985323852266	1200 31 1.100000 0.273000 0.316000 600 30 0.900000 0.177000 0.161000 600 34 1.000000 0.050000 0.050000 1.200000 0.051000 0.061000
1559789985835176683	1200 32 1.100000 0.285000 0.330000 600 31 0.900000 0.146000 0.133000 600 34 1.000000 0.050000 0.050000 1.200000 0.049000 0.059000
1559789986346132683	1200 32 1.100000 0.275000 0.319000 600 31 0.900000 0.116000 0.105000 600 34 1.000000 0.050000 0.050000 1.200000 0.049000 0.059000
1559789986857650891	1200 31 1.100000 0.274000 0.318000 600 30 0.900000 0.110000 0.100000 600 34 1.000000 0.050000 0.050000 1.200000 0.049000 0.059000
1559789987368724058	1200 31 1.100000 0.273000 0.316000 600 31 0.900000 0.175000 0.159000 600 34 1.000000 0.050000 0.050000 1.200000 0.051000 0.061000
1559789987880001266	1200 32 1.100000 0.273000 0.316000 600 31 0.900000 0.109000 0.099000 600 34 1.000000 0.050000 0.050000 1.200000 0.049000 0.059000
1559789988391017141	1200 31 1.100000 0.276000 0.320000 600 31 0.900000 0.116000 0.105000 600 34 1.000000 0.050000 0.050000 1.200000 0.050000 0.060000
1559789988901932766	1200 31 1.100000 0.273000 0.316000 600 31 0.900000 0.116000 0.105000 600 34 1.000000 0.050000 0.050000 1.200000 0.049000 0.059000
1559789989413347350	1200 32 1.100000 0.273000 0.316000 600 31 0.900000 0.178000 0.162000 600 34 1.000000 0.050000 0.050000 1.200000 0.050000 0.060000
1559789989924999266	1200 32 1.100000 0.273000 0.316000 600 31 0.900000 0.105000 0.095000 600 34 1.000000 0.050000 0.050000 1.200000 0.049000 0.059000
1559789990436213933	1200 32 1.100000 0.277000 0.321000 600 31 0.900000 0.166000 0.151000 600 34 1.000000 0.050000 0.050000 1.200000 0.053000 0.064000
1559789990947069517	1200 31 1.100000 0.273000 0.316000 600 31 0.900000 0.103000 0.094000 600 34 1.000000 0.050000 0.050000 1.200000 0.048000 0.058000
1559789991458281683	1200 32 1.100000 0.272000 0.315000 600 31 0.900000 0.169000 0.154000 600 34 1.000000 0.050000 0.050000 1.200000 0.051000 0.061000
1559789991969206058	1200 32 1.100000 0.273000 0.316000 600 31 0.900000 0.101000 0.092000 600 34 1.000000 0.050000 0.050000 1.200000 0.048000 0.058000
1559789992480235933	1200 32 1.100000 0.282000 0.327000 600 31 0.900000 0.224000 0.204000 600 34 1.000000 0.050000 0.050000 1.200000 0.056000 0.067000
1559789992991404308	1200 32 1.100000 0.273000 0.316000 600 31 0.900000 0.101000 0.092000 600 34 1.000000 0.050000 0.050000 1.200000 0.048000 0.058000
1559789993502963559	1200 32 1.100000 0.274000 0.318000 600 31 0.900000 0.132000 0.120000 600 34 1.000000 0.050000 0.050000 1.200000 0.049000 0.059000
1559789994014059892	1200 32 1.100000 0.272000 0.315000 600 31 0.900000 0.115000 0.104000 600 34 1.000000 0.050000 0.050000 1.200000 0.049000 0.059000
1559789994525331767	1200 32 1.100000 0.273000 0.316000 600 31 0.900000 0.108000 0.098000 600 34 1.000000 0.051000 0.051000 1.200000 0.049000 0.059000
1559789995036384350	1200 32 1.100000 0.278000 0.322000 600 31 0.900000 0.115000 0.104000 600 34 1.000000 0.050000 0.050000 1.200000 0.050000 0.060000
1559789995547664100	1200 32 1.100000 0.273000 0.316000 600 31 0.900000 0.163000 0.148000 600 34 1.000000 0.050000 0.050000 1.200000 0.049000 0.059000
1559789996058533226	1200 32 1.100000 0.273000 0.316000 600 31 0.900000 0.116000 0.105000 600 34 1.000000 0.050000 0.050000 1.200000 0.049000 0.059000
1559789996570316809	1200 31 1.100000 0.274000 0.318000 600 30 0.900000 0.113000 0.103000 600 34 1.000000 0.050000 0.050000 1.200000 0.048000 0.058000
1559789997081489684	1200 30 1.100000 0.065000 0.076000 600 30 0.900000 0.144000 0.131000 600 34 1.000000 0.050000 0.050000 1.200000 0.030000 0.036000
