#Timestamp	CPU(0) Frequency(MHz)	CPU(0) Temperature(C)	A7 Voltage(V)	A7 Current(A)	A7 Power(W)	CPU(4) Frequency(MHz)	CPU(4) Temperature(C)	A15 Voltage(V)	A15 Current(A)	A15 Power(W)	GPU Frequency(MHz)	GPU Temperature(C)	GPU Voltage(V)	GPU Current(A)	GPU Power(W)	RAM Voltage(V)	RAM Current(A)	RAM Power(W)
1517202739223435971	1300 42 1.200000 0.171000 0.208000 800 40 0.900000 0.193000 0.178000 600 45 1.000000 0.052000 0.052000 1.200000 0.069000 0.083000
1517202739731589346	1300 42 1.200000 0.071000 0.086000 800 40 0.900000 0.419000 0.385000 600 44 1.000000 0.052000 0.052000 1.200000 0.050000 0.060000
1517202740239446721	1300 42 1.200000 0.071000 0.086000 800 40 0.900000 0.431000 0.394000 600 44 1.000000 0.051000 0.051000 1.200000 0.032000 0.038000
1517202740747545346	1300 42 1.200000 0.070000 0.085000 800 39 0.900000 0.429000 0.392000 600 43 1.000000 0.052000 0.052000 1.200000 0.030000 0.036000
1517202741255771387	1300 41 1.200000 0.134000 0.163000 800 39 0.900000 0.430000 0.393000 600 43 1.000000 0.051000 0.051000 1.200000 0.034000 0.041000
1517202741763810763	1300 41 1.200000 0.073000 0.089000 800 39 0.900000 0.428000 0.392000 600 43 1.000000 0.052000 0.052000 1.200000 0.029000 0.035000
1517202742271844054	1300 41 1.200000 0.071000 0.086000 800 39 0.900000 0.428000 0.391000 600 43 1.000000 0.051000 0.051000 1.200000 0.030000 0.036000
1517202742780448554	1300 41 1.200000 0.073000 0.089000 800 38 0.900000 0.431000 0.395000 600 43 1.000000 0.051000 0.051000 1.200000 0.032000 0.038000
1517202743289272679	1300 41 1.200000 0.096000 0.117000 800 38 0.900000 0.430000 0.393000 600 45 1.000000 0.051000 0.051000 1.200000 0.036000 0.043000
1517202743798357804	1300 42 1.200000 0.228000 0.276000 800 39 0.900000 1.212000 1.112000 600 46 1.000000 0.052000 0.052000 1.200000 0.038000 0.045000
1517202744307984638	1300 42 1.200000 0.217000 0.263000 800 39 0.900000 1.212000 1.112000 600 46 1.000000 0.051000 0.051000 1.200000 0.037000 0.044000
1517202744817904930	1300 42 1.200000 0.223000 0.270000 800 39 0.900000 1.220000 1.119000 600 46 1.000000 0.051000 0.051000 1.200000 0.037000 0.044000
1517202745328488805	1300 43 1.200000 0.232000 0.281000 800 40 0.900000 1.214000 1.114000 600 47 1.000000 0.051000 0.051000 1.200000 0.041000 0.049000
1517202745839332638	1300 42 1.200000 0.213000 0.258000 800 40 0.900000 1.208000 1.108000 600 47 1.000000 0.052000 0.052000 1.200000 0.045000 0.054000
1517202746347953513	1300 43 1.200000 0.218000 0.264000 800 40 0.900000 1.218000 1.120000 600 47 1.000000 0.052000 0.052000 1.200000 0.040000 0.048000
1517202746857190638	1300 43 1.200000 0.216000 0.261000 800 40 0.900000 1.214000 1.116000 600 47 1.000000 0.052000 0.052000 1.200000 0.034000 0.041000
1517202747367032097	1300 43 1.200000 0.214000 0.260000 800 40 0.900000 1.214000 1.114000 600 47 1.000000 0.051000 0.051000 1.200000 0.039000 0.047000
1517202747876048930	1300 43 1.200000 0.217000 0.263000 800 40 0.900000 1.216000 1.116000 600 47 1.000000 0.051000 0.051000 1.200000 0.054000 0.065000
1517202748385004013	1300 43 1.200000 0.216000 0.262000 800 40 0.900000 1.214000 1.114000 600 47 1.000000 0.052000 0.052000 1.200000 0.034000 0.041000
1517202748893904013	1300 43 1.200000 0.218000 0.264000 800 40 0.900000 1.204000 1.105000 600 47 1.000000 0.052000 0.052000 1.200000 0.035000 0.042000
1517202749402896222	1300 43 1.200000 0.222000 0.269000 800 40 0.900000 1.214000 1.114000 600 47 1.000000 0.051000 0.051000 1.200000 0.045000 0.054000
1517202749911748264	1300 43 1.200000 0.221000 0.267000 800 40 0.900000 1.216000 1.118000 600 47 1.000000 0.051000 0.051000 1.200000 0.042000 0.050000
1517202750420765097	1300 43 1.200000 0.206000 0.249000 800 40 0.900000 1.215000 1.115000 600 47 1.000000 0.052000 0.052000 1.200000 0.037000 0.044000
1517202750929618930	1300 43 1.200000 0.219000 0.265000 800 40 0.900000 1.216000 1.116000 600 47 1.000000 0.052000 0.052000 1.200000 0.039000 0.047000
1517202751439095180	1300 43 1.200000 0.244000 0.295000 800 40 0.900000 1.216000 1.116000 600 47 1.000000 0.052000 0.052000 1.200000 0.041000 0.049000
1517202751948749764	1300 43 1.200000 0.219000 0.265000 800 40 0.900000 1.212000 1.115000 600 47 1.000000 0.051000 0.051000 1.200000 0.035000 0.042000
1517202752459060097	1300 43 1.200000 0.213000 0.258000 800 40 0.900000 1.220000 1.119000 600 47 1.000000 0.052000 0.052000 1.200000 0.035000 0.042000
1517202752968034764	1300 43 1.200000 0.216000 0.261000 800 40 0.900000 1.216000 1.118000 600 47 1.000000 0.052000 0.052000 1.200000 0.039000 0.047000
1517202753479421597	1300 43 1.200000 0.232000 0.281000 800 40 0.900000 1.215000 1.115000 600 47 1.000000 0.052000 0.052000 1.200000 0.042000 0.050000
1517202753988821222	1300 43 1.200000 0.219000 0.265000 800 40 0.900000 1.215000 1.115000 600 47 1.000000 0.051000 0.051000 1.200000 0.034000 0.041000
1517202754498617972	1300 43 1.200000 0.208000 0.252000 800 40 0.900000 1.217000 1.117000 600 47 1.000000 0.052000 0.052000 1.200000 0.038000 0.045000
1517202755007428306	1300 43 1.200000 0.221000 0.268000 800 40 0.900000 1.220000 1.119000 600 47 1.000000 0.052000 0.052000 1.200000 0.035000 0.042000
1517202755516207889	1300 43 1.200000 0.216000 0.262000 800 40 0.900000 1.203000 1.104000 600 47 1.000000 0.051000 0.051000 1.200000 0.036000 0.043000
1517202756025020556	1300 43 1.200000 0.218000 0.264000 800 40 0.900000 1.219000 1.121000 600 47 1.000000 0.052000 0.052000 1.200000 0.037000 0.044000
1517202756533782973	1300 43 1.200000 0.227000 0.275000 800 40 0.900000 1.215000 1.115000 600 47 1.000000 0.052000 0.052000 1.200000 0.053000 0.064000
1517202757042886806	1300 43 1.200000 0.213000 0.258000 800 40 0.900000 1.214000 1.114000 600 47 1.000000 0.052000 0.052000 1.200000 0.037000 0.044000
1517202757551929889	1300 43 1.200000 0.226000 0.273000 800 40 0.900000 1.213000 1.115000 600 47 1.000000 0.051000 0.051000 1.200000 0.043000 0.052000
1517202758060876348	1300 43 1.200000 0.216000 0.261000 800 40 0.900000 1.218000 1.120000 600 47 1.000000 0.051000 0.051000 1.200000 0.035000 0.042000
1517202758570850931	1300 43 1.200000 0.236000 0.286000 800 40 0.900000 1.214000 1.114000 600 47 1.000000 0.052000 0.052000 1.200000 0.046000 0.055000
1517202759080424973	1300 43 1.200000 0.210000 0.255000 800 40 0.900000 1.217000 1.117000 600 47 1.000000 0.052000 0.052000 1.200000 0.041000 0.049000
1517202759588997890	1300 43 1.200000 0.238000 0.288000 800 40 0.900000 1.216000 1.116000 600 47 1.000000 0.052000 0.052000 1.200000 0.041000 0.049000
1517202760097764765	1300 43 1.200000 0.217000 0.263000 800 40 0.900000 1.216000 1.116000 600 47 1.000000 0.052000 0.052000 1.200000 0.037000 0.044000
1517202760606508306	1300 43 1.200000 0.231000 0.279000 800 40 0.900000 1.217000 1.117000 600 47 1.000000 0.052000 0.052000 1.200000 0.037000 0.044000
1517202761115338348	1300 43 1.200000 0.216000 0.262000 800 40 0.900000 1.218000 1.118000 600 47 1.000000 0.052000 0.052000 1.200000 0.036000 0.043000
1517202761624201140	1300 43 1.200000 0.224000 0.271000 800 40 0.900000 1.218000 1.118000 600 47 1.000000 0.052000 0.052000 1.200000 0.044000 0.053000
1517202762133179640	1300 43 1.200000 0.220000 0.267000 800 40 0.900000 1.218000 1.118000 600 47 1.000000 0.052000 0.052000 1.200000 0.034000 0.041000
1517202762642916807	1300 43 1.200000 0.218000 0.264000 800 40 0.900000 1.213000 1.113000 600 47 1.000000 0.052000 0.052000 1.200000 0.036000 0.043000
1517202763154963432	1300 43 1.200000 0.235000 0.284000 800 40 0.900000 1.213000 1.113000 600 47 1.000000 0.052000 0.052000 1.200000 0.061000 0.073000
1517202763665364515	1300 42 1.200000 0.221000 0.268000 800 40 0.900000 1.216000 1.116000 600 47 1.000000 0.051000 0.051000 1.200000 0.035000 0.042000
1517202764173858099	1300 42 1.200000 0.220000 0.266000 800 40 0.900000 1.217000 1.117000 600 47 1.000000 0.052000 0.052000 1.200000 0.035000 0.042000
1517202764682630474	1300 43 1.200000 0.218000 0.264000 800 40 0.900000 1.218000 1.118000 600 47 1.000000 0.052000 0.052000 1.200000 0.040000 0.048000
1517202765191380765	1300 43 1.200000 0.245000 0.296000 800 40 0.900000 1.213000 1.113000 600 47 1.000000 0.051000 0.051000 1.200000 0.060000 0.072000
1517202765700294682	1300 43 1.200000 0.221000 0.268000 800 40 0.900000 1.216000 1.116000 600 47 1.000000 0.052000 0.052000 1.200000 0.038000 0.045000
1517202766209337807	1300 43 1.200000 0.217000 0.263000 800 40 0.900000 1.221000 1.123000 600 47 1.000000 0.052000 0.052000 1.200000 0.035000 0.042000
1517202766718385391	1300 43 1.200000 0.214000 0.259000 800 40 0.900000 1.205000 1.106000 600 47 1.000000 0.052000 0.052000 1.200000 0.035000 0.042000
1517202767227274724	1300 43 1.200000 0.264000 0.319000 800 40 0.900000 1.232000 1.130000 600 47 1.000000 0.052000 0.052000 1.200000 0.053000 0.064000
1517202767736804557	1300 43 1.200000 0.228000 0.276000 800 40 0.900000 1.246000 1.146000 600 47 1.000000 0.051000 0.051000 1.200000 0.039000 0.047000
1517202768247606016	1300 42 1.200000 0.223000 0.270000 800 40 0.900000 1.248000 1.145000 600 47 1.000000 0.052000 0.052000 1.200000 0.034000 0.041000
1517202768756217432	1300 43 1.200000 0.214000 0.259000 800 40 0.900000 1.246000 1.143000 600 47 1.000000 0.052000 0.052000 1.200000 0.036000 0.043000
1517202769265596307	1300 43 1.200000 0.221000 0.267000 800 40 0.900000 1.241000 1.139000 600 47 1.000000 0.052000 0.052000 1.200000 0.049000 0.059000
1517202769774678974	1300 43 1.200000 0.227000 0.275000 800 40 0.900000 1.247000 1.144000 600 47 1.000000 0.052000 0.052000 1.200000 0.042000 0.050000
1517202770283777683	1300 43 1.200000 0.238000 0.288000 800 40 0.900000 1.249000 1.146000 600 47 1.000000 0.052000 0.052000 1.200000 0.038000 0.045000
1517202770792733349	1300 43 1.200000 0.210000 0.254000 800 40 0.900000 1.243000 1.141000 600 47 1.000000 0.052000 0.052000 1.200000 0.035000 0.042000
1517202771303147224	1300 43 1.200000 0.223000 0.270000 800 40 0.900000 1.246000 1.143000 600 47 1.000000 0.051000 0.051000 1.200000 0.037000 0.044000
1517202771813579516	1300 43 1.200000 0.270000 0.326000 800 40 0.900000 1.238000 1.136000 600 47 1.000000 0.051000 0.051000 1.200000 0.058000 0.070000
1517202772322333141	1300 42 1.200000 0.220000 0.266000 800 40 0.900000 1.246000 1.143000 600 47 1.000000 0.052000 0.052000 1.200000 0.035000 0.042000
1517202772831012433	1300 43 1.200000 0.221000 0.267000 800 40 0.900000 1.249000 1.149000 600 47 1.000000 0.052000 0.052000 1.200000 0.036000 0.043000
1517202773339713516	1300 43 1.200000 0.220000 0.266000 800 40 0.900000 1.248000 1.145000 600 47 1.000000 0.052000 0.052000 1.200000 0.037000 0.044000
1517202773848275725	1300 43 1.200000 0.275000 0.333000 800 40 0.900000 1.237000 1.135000 600 47 1.000000 0.052000 0.052000 1.200000 0.058000 0.070000
1517202774357163475	1300 43 1.200000 0.224000 0.271000 800 40 0.900000 1.246000 1.143000 600 47 1.000000 0.051000 0.051000 1.200000 0.040000 0.048000
1517202774865984100	1300 43 1.200000 0.224000 0.271000 800 40 0.900000 1.247000 1.147000 600 47 1.000000 0.051000 0.051000 1.200000 0.037000 0.044000
1517202775375027892	1300 43 1.200000 0.220000 0.266000 800 40 0.900000 1.243000 1.143000 600 47 1.000000 0.051000 0.051000 1.200000 0.035000 0.042000
1517202775884269267	1300 43 1.200000 0.218000 0.264000 800 40 0.900000 1.244000 1.141000 600 47 1.000000 0.052000 0.052000 1.200000 0.038000 0.045000
1517202776392997225	1300 42 1.200000 0.219000 0.265000 800 40 0.900000 1.236000 1.134000 600 47 1.000000 0.052000 0.052000 1.200000 0.038000 0.045000
1517202776901346767	1300 43 1.200000 0.221000 0.268000 800 40 0.900000 1.242000 1.142000 600 47 1.000000 0.052000 0.052000 1.200000 0.041000 0.049000
1517202777410257933	1300 43 1.200000 0.224000 0.271000 800 40 0.900000 1.246000 1.146000 600 47 1.000000 0.051000 0.051000 1.200000 0.035000 0.042000
1517202777920443892	1300 43 1.200000 0.213000 0.258000 800 40 0.900000 1.244000 1.141000 600 47 1.000000 0.051000 0.051000 1.200000 0.036000 0.043000
1517202778429639350	1300 43 1.200000 0.287000 0.347000 800 40 0.900000 1.244000 1.141000 600 47 1.000000 0.051000 0.051000 1.200000 0.059000 0.071000
1517202778938777267	1300 43 1.200000 0.221000 0.267000 800 40 0.900000 1.229000 1.128000 600 47 1.000000 0.052000 0.052000 1.200000 0.036000 0.043000
1517202779447838934	1300 43 1.200000 0.221000 0.268000 800 40 0.900000 1.242000 1.140000 600 47 1.000000 0.051000 0.051000 1.200000 0.042000 0.050000
1517202779959470017	1300 43 1.200000 0.218000 0.264000 800 40 0.900000 1.239000 1.137000 600 47 1.000000 0.051000 0.051000 1.200000 0.037000 0.044000
1517202780468664267	1300 43 1.200000 0.258000 0.312000 800 40 0.900000 1.232000 1.130000 600 47 1.000000 0.051000 0.051000 1.200000 0.051000 0.061000
1517202780977085059	1300 43 1.200000 0.224000 0.271000 800 40 0.900000 1.246000 1.143000 600 47 1.000000 0.052000 0.052000 1.200000 0.038000 0.045000
1517202781485732517	1300 43 1.200000 0.217000 0.263000 800 39 0.900000 1.246000 1.143000 600 47 1.000000 0.051000 0.051000 1.200000 0.038000 0.045000
1517202781995274892	1300 43 1.200000 0.223000 0.270000 800 40 0.900000 1.239000 1.137000 600 47 1.000000 0.051000 0.051000 1.200000 0.037000 0.044000
1517202782504246559	1300 43 1.200000 0.266000 0.322000 800 40 0.900000 1.231000 1.130000 600 47 1.000000 0.051000 0.051000 1.200000 0.048000 0.058000
1517202783013088517	1300 43 1.200000 0.220000 0.266000 800 39 0.900000 1.232000 1.133000 600 47 1.000000 0.051000 0.051000 1.200000 0.038000 0.045000
1517202783522483643	1300 43 1.200000 0.213000 0.258000 800 39 0.900000 1.228000 1.127000 600 47 1.000000 0.051000 0.051000 1.200000 0.036000 0.043000
1517202784033739726	1300 42 1.200000 0.218000 0.264000 800 39 0.900000 1.228000 1.127000 600 47 1.000000 0.052000 0.052000 1.200000 0.040000 0.048000
1517202784542614643	1300 43 1.200000 0.247000 0.299000 800 40 0.900000 1.240000 1.140000 600 47 1.000000 0.051000 0.051000 1.200000 0.039000 0.047000
1517202785051222476	1300 42 1.200000 0.236000 0.286000 800 40 0.900000 1.237000 1.135000 600 47 1.000000 0.051000 0.051000 1.200000 0.060000 0.072000
1517202785559992143	1300 42 1.200000 0.220000 0.266000 800 39 0.900000 1.242000 1.140000 600 47 1.000000 0.052000 0.052000 1.200000 0.038000 0.045000
1517202786068865101	1300 43 1.200000 0.222000 0.269000 800 40 0.900000 1.227000 1.128000 600 47 1.000000 0.051000 0.051000 1.200000 0.036000 0.043000
1517202786578625185	1300 43 1.200000 0.241000 0.292000 800 40 0.900000 1.236000 1.137000 600 47 1.000000 0.051000 0.051000 1.200000 0.046000 0.055000
1517202787087869851	1300 42 1.200000 0.255000 0.309000 800 40 0.900000 1.230000 1.131000 600 47 1.000000 0.052000 0.052000 1.200000 0.061000 0.073000
1517202787597593768	1300 42 1.200000 0.220000 0.266000 800 39 0.900000 1.229000 1.130000 600 47 1.000000 0.052000 0.052000 1.200000 0.038000 0.045000
1517202788108268851	1300 42 1.200000 0.222000 0.269000 800 39 0.900000 1.238000 1.138000 600 47 1.000000 0.051000 0.051000 1.200000 0.035000 0.042000
1517202788616814685	1300 42 1.200000 0.244000 0.295000 800 39 0.900000 1.235000 1.136000 600 47 1.000000 0.051000 0.051000 1.200000 0.042000 0.050000
1517202789125407268	1300 42 1.200000 0.259000 0.313000 800 39 0.900000 1.228000 1.129000 600 47 1.000000 0.051000 0.051000 1.200000 0.060000 0.072000
1517202789634533018	1300 42 1.200000 0.217000 0.263000 800 39 0.900000 1.228000 1.129000 600 47 1.000000 0.052000 0.052000 1.200000 0.036000 0.043000
1517202790143328143	1300 42 1.200000 0.219000 0.266000 800 39 0.900000 1.227000 1.126000 600 47 1.000000 0.052000 0.052000 1.200000 0.035000 0.042000
1517202790652372477	1300 43 1.200000 0.252000 0.305000 800 40 0.900000 1.216000 1.118000 600 47 1.000000 0.052000 0.052000 1.200000 0.044000 0.053000
1517202791161245977	1300 43 1.200000 0.264000 0.319000 800 40 0.900000 1.221000 1.120000 600 47 1.000000 0.051000 0.051000 1.200000 0.054000 0.065000
1517202791671173435	1300 42 1.200000 0.218000 0.264000 800 39 0.900000 1.230000 1.129000 600 47 1.000000 0.051000 0.051000 1.200000 0.034000 0.041000
1517202792181359644	1300 42 1.200000 0.223000 0.270000 800 39 0.900000 1.231000 1.130000 600 47 1.000000 0.051000 0.051000 1.200000 0.038000 0.045000
1517202792690015269	1300 42 1.200000 0.228000 0.276000 800 39 0.900000 1.209000 1.109000 600 47 1.000000 0.051000 0.051000 1.200000 0.035000 0.042000
1517202793199406269	1300 43 1.200000 0.221000 0.267000 800 39 0.900000 1.215000 1.115000 600 47 1.000000 0.051000 0.051000 1.200000 0.035000 0.042000
1517202793708380685	1300 42 1.200000 0.268000 0.324000 800 39 0.900000 1.229000 1.128000 600 47 1.000000 0.052000 0.052000 1.200000 0.053000 0.064000
1517202794217361019	1300 42 1.200000 0.220000 0.266000 800 39 0.900000 1.229000 1.128000 600 47 1.000000 0.051000 0.051000 1.200000 0.037000 0.044000
1517202794726363394	1300 42 1.200000 0.217000 0.263000 800 39 0.900000 1.218000 1.118000 600 47 1.000000 0.051000 0.051000 1.200000 0.040000 0.048000
1517202795237031727	1300 42 1.200000 0.216000 0.262000 800 39 0.900000 1.235000 1.133000 600 47 1.000000 0.051000 0.051000 1.200000 0.038000 0.045000
1517202795746888561	1300 42 1.200000 0.266000 0.322000 800 39 0.900000 1.205000 1.106000 600 47 1.000000 0.052000 0.052000 1.200000 0.060000 0.072000
1517202796255665977	1300 42 1.200000 0.210000 0.255000 800 39 0.900000 1.234000 1.132000 600 47 1.000000 0.051000 0.051000 1.200000 0.040000 0.048000
1517202796764211394	1300 42 1.200000 0.238000 0.288000 800 39 0.900000 1.226000 1.125000 600 47 1.000000 0.052000 0.052000 1.200000 0.041000 0.049000
1517202797272833061	1300 42 1.200000 0.216000 0.262000 800 39 0.900000 1.219000 1.119000 600 47 1.000000 0.051000 0.051000 1.200000 0.036000 0.043000
1517202797781610519	1300 42 1.200000 0.262000 0.317000 800 39 0.900000 1.226000 1.125000 600 47 1.000000 0.052000 0.052000 1.200000 0.058000 0.070000
1517202798290419603	1300 42 1.200000 0.217000 0.263000 800 39 0.900000 1.223000 1.125000 600 47 1.000000 0.051000 0.051000 1.200000 0.037000 0.044000
1517202798799443769	1300 42 1.200000 0.237000 0.287000 800 39 0.900000 1.229000 1.130000 600 47 1.000000 0.052000 0.052000 1.200000 0.044000 0.053000
1517202799308564353	1300 42 1.200000 0.237000 0.287000 800 39 0.900000 1.230000 1.131000 600 47 1.000000 0.051000 0.051000 1.200000 0.035000 0.042000
1517202799817871603	1300 42 1.200000 0.216000 0.262000 800 39 0.900000 1.206000 1.107000 600 47 1.000000 0.051000 0.051000 1.200000 0.039000 0.047000
1517202800326652353	1300 42 1.200000 0.258000 0.312000 800 39 0.900000 1.226000 1.125000 600 46 1.000000 0.051000 0.051000 1.200000 0.039000 0.047000
1517202800835343645	1300 42 1.200000 0.217000 0.263000 800 39 0.900000 1.209000 1.109000 600 47 1.000000 0.051000 0.051000 1.200000 0.038000 0.045000
1517202801343991603	1300 42 1.200000 0.213000 0.258000 800 39 0.900000 1.206000 1.107000 600 47 1.000000 0.051000 0.051000 1.200000 0.039000 0.047000
1517202801853853561	1300 42 1.200000 0.209000 0.253000 800 39 0.900000 1.209000 1.109000 600 47 1.000000 0.051000 0.051000 1.200000 0.036000 0.043000
1517202802362963978	1300 42 1.200000 0.247000 0.299000 800 39 0.900000 1.208000 1.108000 600 47 1.000000 0.052000 0.052000 1.200000 0.045000 0.054000
1517202802872006228	1300 42 1.200000 0.217000 0.263000 800 39 0.900000 1.204000 1.105000 600 46 1.000000 0.051000 0.051000 1.200000 0.036000 0.043000
1517202803381061145	1300 42 1.200000 0.208000 0.252000 800 39 0.900000 1.214000 1.114000 600 47 1.000000 0.051000 0.051000 1.200000 0.040000 0.048000
1517202803892063978	1300 42 1.200000 0.217000 0.263000 800 39 0.900000 1.228000 1.127000 600 46 1.000000 0.052000 0.052000 1.200000 0.034000 0.041000
1517202804401076353	1300 42 1.200000 0.233000 0.282000 800 39 0.900000 1.213000 1.113000 600 47 1.000000 0.052000 0.052000 1.200000 0.049000 0.059000
1517202804909740770	1300 42 1.200000 0.238000 0.288000 800 39 0.900000 1.206000 1.107000 600 47 1.000000 0.052000 0.052000 1.200000 0.041000 0.049000
1517202805418447312	1300 42 1.200000 0.209000 0.253000 800 39 0.900000 1.214000 1.114000 600 46 1.000000 0.051000 0.051000 1.200000 0.036000 0.043000
1517202805927219770	1300 42 1.200000 0.215000 0.260000 800 39 0.900000 1.207000 1.108000 600 46 1.000000 0.051000 0.051000 1.200000 0.037000 0.044000
1517202806436215395	1300 42 1.200000 0.214000 0.260000 800 39 0.900000 1.206000 1.107000 600 46 1.000000 0.051000 0.051000 1.200000 0.039000 0.047000
1517202806945239104	1300 42 1.200000 0.229000 0.277000 800 39 0.900000 1.209000 1.112000 600 46 1.000000 0.051000 0.051000 1.200000 0.035000 0.042000
1517202807454495437	1300 42 1.200000 0.228000 0.276000 800 39 0.900000 1.208000 1.108000 600 46 1.000000 0.051000 0.051000 1.200000 0.037000 0.044000
1517202807965863937	1300 42 1.200000 0.216000 0.262000 800 39 0.900000 1.199000 1.103000 600 46 1.000000 0.051000 0.051000 1.200000 0.037000 0.044000
1517202808475071437	1300 42 1.200000 0.215000 0.260000 800 39 0.900000 1.207000 1.108000 600 46 1.000000 0.052000 0.052000 1.200000 0.038000 0.045000
1517202808983675354	1300 42 1.200000 0.213000 0.258000 800 39 0.900000 1.206000 1.107000 600 46 1.000000 0.052000 0.052000 1.200000 0.034000 0.041000
1517202809492325687	1300 42 1.200000 0.216000 0.262000 800 39 0.900000 1.206000 1.109000 600 46 1.000000 0.051000 0.051000 1.200000 0.035000 0.042000
1517202810001144896	1300 42 1.200000 0.213000 0.258000 800 39 0.900000 1.214000 1.114000 600 46 1.000000 0.051000 0.051000 1.200000 0.036000 0.043000
1517202810510696979	1300 42 1.200000 0.211000 0.255000 800 39 0.900000 1.211000 1.111000 600 46 1.000000 0.051000 0.051000 1.200000 0.041000 0.049000
1517202811019708937	1300 42 1.200000 0.213000 0.258000 800 39 0.900000 1.206000 1.109000 600 46 1.000000 0.052000 0.052000 1.200000 0.035000 0.042000
1517202811528832563	1300 42 1.200000 0.213000 0.258000 800 39 0.900000 1.217000 1.117000 600 46 1.000000 0.051000 0.051000 1.200000 0.036000 0.043000
1517202812040301896	1300 42 1.200000 0.218000 0.264000 800 39 0.900000 1.222000 1.124000 600 46 1.000000 0.052000 0.052000 1.200000 0.035000 0.042000
1517202812549041563	1300 42 1.200000 0.210000 0.255000 800 39 0.900000 1.199000 1.103000 600 46 1.000000 0.051000 0.051000 1.200000 0.034000 0.041000
1517202813057426813	1300 42 1.200000 0.262000 0.317000 800 39 0.900000 1.211000 1.111000 600 46 1.000000 0.052000 0.052000 1.200000 0.045000 0.054000
1517202813566152146	1300 42 1.200000 0.212000 0.256000 800 39 0.900000 1.209000 1.109000 600 46 1.000000 0.052000 0.052000 1.200000 0.037000 0.044000
1517202814075183396	1300 42 1.200000 0.216000 0.262000 800 39 0.900000 1.209000 1.109000 600 46 1.000000 0.051000 0.051000 1.200000 0.037000 0.044000
1517202814584201980	1300 42 1.200000 0.205000 0.249000 800 39 0.900000 1.210000 1.110000 600 46 1.000000 0.052000 0.052000 1.200000 0.038000 0.045000
1517202815093080980	1300 42 1.200000 0.214000 0.260000 800 39 0.900000 1.200000 1.101000 600 46 1.000000 0.052000 0.052000 1.200000 0.048000 0.058000
1517202815602712980	1300 42 1.200000 0.239000 0.289000 800 39 0.900000 1.208000 1.108000 600 46 1.000000 0.051000 0.051000 1.200000 0.040000 0.048000
1517202816113756938	1300 42 1.200000 0.213000 0.258000 800 39 0.900000 1.208000 1.108000 600 46 1.000000 0.052000 0.052000 1.200000 0.037000 0.044000
1517202816622450855	1300 42 1.200000 0.212000 0.257000 800 39 0.900000 1.206000 1.107000 600 46 1.000000 0.052000 0.052000 1.200000 0.035000 0.042000
1517202817132070313	1300 42 1.200000 0.212000 0.257000 800 39 0.900000 1.209000 1.109000 600 46 1.000000 0.051000 0.051000 1.200000 0.037000 0.044000
1517202817641102438	1300 42 1.200000 0.213000 0.258000 800 39 0.900000 1.209000 1.109000 600 46 1.000000 0.052000 0.052000 1.200000 0.060000 0.072000
1517202818149885230	1300 42 1.200000 0.212000 0.257000 800 39 0.900000 1.205000 1.106000 600 46 1.000000 0.051000 0.051000 1.200000 0.040000 0.048000
1517202818659006480	1300 42 1.200000 0.213000 0.258000 800 39 0.900000 1.205000 1.106000 600 46 1.000000 0.051000 0.051000 1.200000 0.037000 0.044000
1517202819171144147	1300 42 1.200000 0.216000 0.262000 800 39 0.900000 1.209000 1.109000 600 46 1.000000 0.052000 0.052000 1.200000 0.038000 0.045000
1517202819680942772	1300 42 1.200000 0.283000 0.342000 800 39 0.900000 1.199000 1.100000 600 46 1.000000 0.051000 0.051000 1.200000 0.064000 0.077000
1517202820189667189	1300 42 1.200000 0.207000 0.250000 800 39 0.900000 1.205000 1.106000 600 46 1.000000 0.051000 0.051000 1.200000 0.038000 0.045000
1517202820698313189	1300 42 1.200000 0.213000 0.258000 800 39 0.900000 1.208000 1.108000 600 46 1.000000 0.052000 0.052000 1.200000 0.039000 0.047000
1517202821207274730	1300 42 1.200000 0.214000 0.259000 800 39 0.900000 1.204000 1.105000 600 46 1.000000 0.051000 0.051000 1.200000 0.036000 0.043000
1517202821716083355	1300 42 1.200000 0.241000 0.292000 800 39 0.900000 1.208000 1.108000 600 46 1.000000 0.051000 0.051000 1.200000 0.037000 0.044000
1517202822224986980	1300 42 1.200000 0.214000 0.259000 800 39 0.900000 1.201000 1.102000 600 46 1.000000 0.052000 0.052000 1.200000 0.038000 0.045000
1517202822733897606	1300 42 1.200000 0.216000 0.261000 800 39 0.900000 1.209000 1.109000 600 46 1.000000 0.051000 0.051000 1.200000 0.038000 0.045000
1517202823243080689	1300 42 1.200000 0.215000 0.260000 800 39 0.900000 1.209000 1.109000 600 46 1.000000 0.051000 0.051000 1.200000 0.038000 0.045000
1517202823752450064	1300 42 1.200000 0.244000 0.295000 800 39 0.900000 1.205000 1.106000 600 46 1.000000 0.051000 0.051000 1.200000 0.042000 0.050000
1517202824261288522	1300 42 1.200000 0.215000 0.261000 800 39 0.900000 1.226000 1.125000 600 46 1.000000 0.051000 0.051000 1.200000 0.043000 0.052000
1517202824769967022	1300 42 1.200000 0.214000 0.259000 800 39 0.900000 1.210000 1.110000 600 46 1.000000 0.051000 0.051000 1.200000 0.035000 0.042000
1517202825278807981	1300 42 1.200000 0.215000 0.260000 800 39 0.900000 1.206000 1.107000 600 46 1.000000 0.052000 0.052000 1.200000 0.042000 0.050000
1517202825788231439	1300 42 1.200000 0.238000 0.288000 800 39 0.900000 1.204000 1.105000 600 46 1.000000 0.051000 0.051000 1.200000 0.041000 0.049000
1517202826297364564	1300 42 1.200000 0.238000 0.288000 800 39 0.900000 1.205000 1.106000 600 46 1.000000 0.051000 0.051000 1.200000 0.049000 0.059000
1517202826806499898	1300 42 1.200000 0.213000 0.258000 800 39 0.900000 1.200000 1.101000 600 46 1.000000 0.051000 0.051000 1.200000 0.036000 0.043000
1517202827315496439	1300 42 1.200000 0.205000 0.249000 800 39 0.900000 1.205000 1.108000 600 46 1.000000 0.051000 0.051000 1.200000 0.036000 0.043000
1517202827826599731	1300 42 1.200000 0.236000 0.286000 800 39 0.900000 1.209000 1.109000 600 46 1.000000 0.052000 0.052000 1.200000 0.044000 0.053000
1517202828335697565	1300 42 1.200000 0.247000 0.299000 800 39 0.900000 1.206000 1.107000 600 46 1.000000 0.052000 0.052000 1.200000 0.040000 0.048000
1517202828844344773	1300 42 1.200000 0.214000 0.259000 800 39 0.900000 1.206000 1.107000 600 46 1.000000 0.051000 0.051000 1.200000 0.037000 0.044000
1517202829353030898	1300 42 1.200000 0.211000 0.255000 800 39 0.900000 1.202000 1.105000 600 46 1.000000 0.052000 0.052000 1.200000 0.035000 0.042000
1517202829861879815	1300 42 1.200000 0.237000 0.287000 800 39 0.900000 1.206000 1.107000 600 46 1.000000 0.051000 0.051000 1.200000 0.037000 0.044000
1517202830370910023	1300 42 1.200000 0.250000 0.303000 800 39 0.900000 1.210000 1.110000 600 46 1.000000 0.051000 0.051000 1.200000 0.039000 0.047000
1517202830879763273	1300 42 1.200000 0.221000 0.268000 800 39 0.900000 1.206000 1.107000 600 46 1.000000 0.051000 0.051000 1.200000 0.035000 0.042000
1517202831389331607	1300 42 1.200000 0.214000 0.260000 800 39 0.900000 1.210000 1.110000 600 46 1.000000 0.051000 0.051000 1.200000 0.038000 0.045000
1517202831900773565	1300 42 1.200000 0.216000 0.261000 800 39 0.900000 1.208000 1.108000 600 46 1.000000 0.051000 0.051000 1.200000 0.041000 0.049000
1517202832409674732	1300 42 1.200000 0.213000 0.258000 800 39 0.900000 1.210000 1.113000 600 46 1.000000 0.051000 0.051000 1.200000 0.041000 0.049000
1517202832918421148	1300 42 1.200000 0.207000 0.250000 800 39 0.900000 1.210000 1.110000 600 46 1.000000 0.051000 0.051000 1.200000 0.036000 0.043000
1517202833427170773	1300 42 1.200000 0.215000 0.261000 800 39 0.900000 1.207000 1.108000 600 46 1.000000 0.052000 0.052000 1.200000 0.036000 0.043000
1517202833935936440	1300 42 1.200000 0.234000 0.283000 800 39 0.900000 1.205000 1.106000 600 46 1.000000 0.051000 0.051000 1.200000 0.042000 0.050000
1517202834446746274	1300 42 1.200000 0.203000 0.246000 800 39 0.900000 1.206000 1.107000 600 46 1.000000 0.052000 0.052000 1.200000 0.035000 0.042000
1517202834955889732	1300 42 1.200000 0.212000 0.256000 800 39 0.900000 1.209000 1.109000 600 46 1.000000 0.051000 0.051000 1.200000 0.041000 0.049000
1517202835465806774	1300 42 1.200000 0.213000 0.258000 800 39 0.900000 1.205000 1.106000 600 46 1.000000 0.052000 0.052000 1.200000 0.036000 0.043000
1517202835976040857	1300 42 1.200000 0.216000 0.261000 800 39 0.900000 1.208000 1.108000 600 46 1.000000 0.051000 0.051000 1.200000 0.036000 0.043000
1517202836484716149	1300 42 1.200000 0.204000 0.247000 800 39 0.900000 1.209000 1.109000 600 46 1.000000 0.052000 0.052000 1.200000 0.038000 0.045000
1517202836993255857	1300 42 1.200000 0.258000 0.312000 800 39 0.900000 1.206000 1.107000 600 46 1.000000 0.052000 0.052000 1.200000 0.052000 0.062000
1517202837502005024	1300 42 1.200000 0.213000 0.258000 800 39 0.900000 1.209000 1.109000 600 46 1.000000 0.051000 0.051000 1.200000 0.041000 0.049000
1517202838011335399	1300 42 1.200000 0.216000 0.261000 800 39 0.900000 1.206000 1.107000 600 46 1.000000 0.052000 0.052000 1.200000 0.039000 0.047000
1517202838520343899	1300 42 1.200000 0.206000 0.249000 800 39 0.900000 1.205000 1.106000 600 46 1.000000 0.051000 0.051000 1.200000 0.038000 0.045000
1517202839029346941	1300 42 1.200000 0.215000 0.260000 800 39 0.900000 1.199000 1.100000 600 46 1.000000 0.052000 0.052000 1.200000 0.042000 0.050000
1517202839537720483	1300 38 1.200000 0.123000 0.150000 800 38 0.900000 0.089000 0.082000 600 43 1.000000 0.052000 0.052000 1.200000 0.026000 0.031000
1517202840045960108	1300 38 1.200000 0.073000 0.089000 800 37 0.900000 0.091000 0.084000 600 42 1.000000 0.051000 0.051000 1.200000 0.023000 0.027000
