#Timestamp	CPU(0) Frequency(MHz)	CPU(0) Temperature(C)	A7 Voltage(V)	A7 Current(A)	A7 Power(W)	CPU(4) Frequency(MHz)	CPU(4) Temperature(C)	A15 Voltage(V)	A15 Current(A)	A15 Power(W)	GPU Frequency(MHz)	GPU Temperature(C)	GPU Voltage(V)	GPU Current(A)	GPU Power(W)	RAM Voltage(V)	RAM Current(A)	RAM Power(W)
1517321506707263920	200 38 0.900000 0.033000 0.030000 1300 33 1.000000 0.741000 0.774000 600 42 1.000000 0.050000 0.050000 1.200000 0.041000 0.049000
1517321507220932545	200 40 0.900000 0.048000 0.043000 1300 34 1.000000 1.867000 1.954000 600 44 1.000000 0.051000 0.051000 1.200000 0.023000 0.027000
1517321507730152837	200 41 0.900000 0.049000 0.044000 1300 35 1.000000 1.876000 1.964000 600 46 1.000000 0.051000 0.051000 1.200000 0.024000 0.028000
1517321508244781879	200 41 0.900000 0.058000 0.052000 1300 35 1.000000 1.919000 2.009000 600 46 1.000000 0.051000 0.051000 1.200000 0.042000 0.050000
1517321508756550296	200 42 0.900000 0.053000 0.048000 1300 36 1.000000 1.883000 1.971000 600 47 1.000000 0.051000 0.051000 1.200000 0.033000 0.039000
1517321509268318212	200 42 0.900000 0.049000 0.044000 1300 36 1.000000 1.886000 1.974000 600 47 1.000000 0.051000 0.051000 1.200000 0.025000 0.030000
1517321509779765337	200 42 0.900000 0.049000 0.044000 1300 37 1.000000 1.888000 1.976000 600 48 1.000000 0.051000 0.051000 1.200000 0.024000 0.028000
1517321510288776588	200 43 0.900000 0.049000 0.044000 1300 37 1.000000 1.887000 1.975000 600 48 1.000000 0.051000 0.051000 1.200000 0.024000 0.028000
1517321510800222421	200 43 0.900000 0.058000 0.052000 1300 37 1.000000 2.017000 2.113000 600 48 1.000000 0.051000 0.051000 1.200000 0.043000 0.051000
1517321511312047046	200 43 0.900000 0.050000 0.045000 1300 37 1.000000 1.889000 1.977000 600 49 1.000000 0.051000 0.051000 1.200000 0.025000 0.030000
1517321511823595379	200 43 0.900000 0.049000 0.044000 1300 38 1.000000 1.890000 1.978000 600 49 1.000000 0.051000 0.051000 1.200000 0.023000 0.027000
1517321512334943379	200 44 0.900000 0.050000 0.045000 1300 38 1.000000 1.893000 1.981000 600 49 1.000000 0.051000 0.051000 1.200000 0.023000 0.027000
1517321512871792754	200 44 0.900000 0.058000 0.052000 1300 38 1.000000 1.949000 2.040000 600 49 1.000000 0.051000 0.051000 1.200000 0.039000 0.047000
1517321513392971005	200 44 0.900000 0.049000 0.044000 1300 38 1.000000 1.919000 2.009000 600 49 1.000000 0.051000 0.051000 1.200000 0.023000 0.027000
1517321513904350630	200 44 0.900000 0.050000 0.045000 1300 38 1.000000 1.886000 1.974000 600 49 1.000000 0.051000 0.051000 1.200000 0.024000 0.028000
1517321514415790046	200 44 0.900000 0.048000 0.043000 1300 38 1.000000 1.892000 1.980000 600 49 1.000000 0.051000 0.051000 1.200000 0.023000 0.027000
1517321514924796463	200 44 0.900000 0.058000 0.052000 1300 38 1.000000 1.915000 2.005000 600 50 1.000000 0.051000 0.051000 1.200000 0.032000 0.038000
1517321515436442838	200 44 0.900000 0.057000 0.052000 1300 38 1.000000 1.947000 2.038000 600 50 1.000000 0.051000 0.051000 1.200000 0.042000 0.050000
1517321515948280338	200 44 0.900000 0.049000 0.044000 1300 38 1.000000 1.881000 1.969000 600 50 1.000000 0.052000 0.052000 1.200000 0.023000 0.027000
1517321516459763463	200 44 0.900000 0.050000 0.045000 1300 38 1.000000 1.881000 1.969000 600 50 1.000000 0.051000 0.051000 1.200000 0.023000 0.027000
1517321516968690963	200 44 0.900000 0.050000 0.045000 1300 38 1.000000 1.892000 1.980000 600 50 1.000000 0.051000 0.051000 1.200000 0.024000 0.028000
1517321517480875672	200 44 0.900000 0.062000 0.056000 1300 39 1.000000 1.905000 1.994000 600 50 1.000000 0.051000 0.051000 1.200000 0.032000 0.038000
1517321517992737463	200 45 0.900000 0.059000 0.053000 1300 39 1.000000 1.948000 2.039000 600 50 1.000000 0.052000 0.052000 1.200000 0.042000 0.050000
1517321518504370255	200 45 0.900000 0.050000 0.045000 1300 39 1.000000 1.886000 1.974000 600 50 1.000000 0.051000 0.051000 1.200000 0.024000 0.028000
1517321519015410714	200 45 0.900000 0.050000 0.045000 1300 39 1.000000 1.892000 1.980000 600 50 1.000000 0.051000 0.051000 1.200000 0.024000 0.028000
1517321519526966797	200 45 0.900000 0.056000 0.051000 1300 39 1.000000 1.924000 2.014000 600 50 1.000000 0.052000 0.052000 1.200000 0.034000 0.041000
1517321520037094755	200 45 0.900000 0.052000 0.047000 1300 39 1.000000 1.893000 1.981000 600 50 1.000000 0.051000 0.051000 1.200000 0.029000 0.035000
1517321520548733422	200 45 0.900000 0.053000 0.048000 1300 39 1.000000 1.934000 2.024000 600 50 1.000000 0.051000 0.051000 1.200000 0.029000 0.035000
1517321521060508297	200 45 0.900000 0.050000 0.045000 1300 39 1.000000 1.890000 1.978000 600 50 1.000000 0.051000 0.051000 1.200000 0.023000 0.027000
1517321521572910589	200 45 0.900000 0.056000 0.051000 1300 39 1.000000 1.883000 1.971000 600 50 1.000000 0.051000 0.051000 1.200000 0.030000 0.036000
1517321522084315547	200 45 0.900000 0.050000 0.045000 1300 39 1.000000 1.882000 1.970000 600 50 1.000000 0.051000 0.051000 1.200000 0.023000 0.027000
1517321522611800214	200 45 0.900000 0.054000 0.049000 1300 39 1.000000 1.936000 2.026000 600 51 1.000000 0.051000 0.051000 1.200000 0.042000 0.050000
1517321523125478089	200 45 0.900000 0.052000 0.047000 1300 39 1.000000 1.883000 1.971000 600 50 1.000000 0.051000 0.051000 1.200000 0.023000 0.027000
1517321523634529756	200 45 0.900000 0.049000 0.044000 1300 39 1.000000 1.894000 1.983000 600 50 1.000000 0.052000 0.052000 1.200000 0.029000 0.035000
1517321524159177839	200 45 0.900000 0.050000 0.045000 1300 39 1.000000 1.881000 1.969000 600 51 1.000000 0.051000 0.051000 1.200000 0.023000 0.027000
1517321524670223548	200 45 0.900000 0.049000 0.044000 1300 39 1.000000 1.880000 1.968000 600 51 1.000000 0.051000 0.051000 1.200000 0.024000 0.028000
1517321525187481798	200 45 0.900000 0.059000 0.053000 1300 39 1.000000 1.945000 2.036000 600 51 1.000000 0.052000 0.052000 1.200000 0.034000 0.041000
1517321525696314839	200 45 0.900000 0.050000 0.045000 1300 39 1.000000 1.883000 1.971000 600 51 1.000000 0.052000 0.052000 1.200000 0.024000 0.028000
1517321526208163214	200 45 0.900000 0.056000 0.051000 1300 39 1.000000 1.881000 1.969000 600 51 1.000000 0.051000 0.051000 1.200000 0.032000 0.038000
1517321526719594798	200 45 0.900000 0.050000 0.045000 1300 39 1.000000 1.894000 1.983000 600 51 1.000000 0.052000 0.052000 1.200000 0.024000 0.028000
1517321527228461506	200 45 0.900000 0.050000 0.045000 1300 39 1.000000 1.894000 1.983000 600 51 1.000000 0.052000 0.052000 1.200000 0.023000 0.027000
1517321527740644048	200 45 0.900000 0.058000 0.052000 1300 39 1.000000 1.950000 2.043000 600 51 1.000000 0.052000 0.052000 1.200000 0.041000 0.049000
1517321528252782090	200 45 0.900000 0.050000 0.045000 1300 39 1.000000 1.922000 2.012000 600 51 1.000000 0.052000 0.052000 1.200000 0.024000 0.028000
1517321528764780923	200 45 0.900000 0.050000 0.045000 1300 39 1.000000 1.891000 1.979000 600 51 1.000000 0.051000 0.051000 1.200000 0.024000 0.028000
1517321529276469965	200 45 0.900000 0.050000 0.045000 1300 40 1.000000 1.885000 1.973000 600 51 1.000000 0.052000 0.052000 1.200000 0.024000 0.028000
1517321529788394590	200 45 0.900000 0.050000 0.045000 1300 40 1.000000 1.915000 2.005000 600 51 1.000000 0.052000 0.052000 1.200000 0.024000 0.028000
1517321530300830257	200 45 0.900000 0.055000 0.050000 1300 39 1.000000 1.972000 2.064000 600 51 1.000000 0.051000 0.051000 1.200000 0.039000 0.047000
1517321530812461757	200 45 0.900000 0.050000 0.045000 1300 40 1.000000 1.879000 1.967000 600 51 1.000000 0.052000 0.052000 1.200000 0.025000 0.030000
1517321531323684840	200 45 0.900000 0.050000 0.045000 1300 39 1.000000 1.883000 1.971000 600 51 1.000000 0.051000 0.051000 1.200000 0.024000 0.028000
1517321531834923840	200 45 0.900000 0.049000 0.044000 1300 39 1.000000 1.877000 1.965000 600 51 1.000000 0.052000 0.052000 1.200000 0.024000 0.028000
1517321532362711215	200 46 0.900000 0.058000 0.052000 1300 40 1.000000 2.032000 2.129000 600 51 1.000000 0.051000 0.051000 1.200000 0.035000 0.042000
1517321532876861007	200 45 0.900000 0.050000 0.045000 1300 40 1.000000 1.878000 1.966000 600 51 1.000000 0.051000 0.051000 1.200000 0.027000 0.032000
1517321533388318882	200 45 0.900000 0.050000 0.045000 1300 39 1.000000 1.882000 1.970000 600 51 1.000000 0.052000 0.052000 1.200000 0.024000 0.028000
1517321533899587882	200 45 0.900000 0.050000 0.045000 1300 40 1.000000 1.881000 1.969000 600 51 1.000000 0.052000 0.052000 1.200000 0.024000 0.028000
1517321534408792965	200 45 0.900000 0.049000 0.044000 1300 40 1.000000 1.941000 2.032000 600 51 1.000000 0.052000 0.052000 1.200000 0.025000 0.030000
1517321534920445507	200 45 0.900000 0.059000 0.053000 1300 40 1.000000 1.924000 2.014000 600 51 1.000000 0.052000 0.052000 1.200000 0.042000 0.050000
1517321535432545507	200 45 0.900000 0.053000 0.048000 1300 40 1.000000 1.890000 1.978000 600 51 1.000000 0.051000 0.051000 1.200000 0.028000 0.033000
1517321535943710049	200 45 0.900000 0.050000 0.045000 1300 40 1.000000 1.889000 1.977000 600 51 1.000000 0.051000 0.051000 1.200000 0.024000 0.028000
1517321536453022716	200 45 0.900000 0.050000 0.045000 1300 40 1.000000 1.886000 1.974000 600 51 1.000000 0.052000 0.052000 1.200000 0.024000 0.028000
1517321536966358799	200 46 0.900000 0.058000 0.052000 1300 40 1.000000 1.883000 1.971000 600 51 1.000000 0.052000 0.052000 1.200000 0.033000 0.039000
1517321537479832841	200 46 0.900000 0.059000 0.053000 1300 40 1.000000 1.933000 2.023000 600 51 1.000000 0.051000 0.051000 1.200000 0.042000 0.050000
1517321537991804091	200 45 0.900000 0.050000 0.045000 1300 40 1.000000 1.872000 1.959000 600 51 1.000000 0.052000 0.052000 1.200000 0.024000 0.028000
1517321538503354091	200 46 0.900000 0.050000 0.045000 1300 40 1.000000 1.888000 1.976000 600 51 1.000000 0.052000 0.052000 1.200000 0.024000 0.028000
1517321539015502008	200 46 0.900000 0.056000 0.051000 1300 40 1.000000 1.899000 1.988000 600 51 1.000000 0.052000 0.052000 1.200000 0.033000 0.039000
1517321539524331508	200 46 0.900000 0.056000 0.051000 1300 40 1.000000 1.881000 1.969000 600 51 1.000000 0.052000 0.052000 1.200000 0.027000 0.032000
1517321540035985841	200 46 0.900000 0.050000 0.045000 1300 40 1.000000 1.949000 2.042000 600 51 1.000000 0.052000 0.052000 1.200000 0.033000 0.039000
1517321540547467299	200 46 0.900000 0.049000 0.044000 1300 40 1.000000 1.889000 1.977000 600 51 1.000000 0.052000 0.052000 1.200000 0.024000 0.028000
1517321541059016633	200 46 0.900000 0.051000 0.046000 1300 40 1.000000 1.919000 2.009000 600 51 1.000000 0.052000 0.052000 1.200000 0.031000 0.037000
1517321541570521633	200 46 0.900000 0.050000 0.045000 1300 40 1.000000 1.890000 1.978000 600 51 1.000000 0.051000 0.051000 1.200000 0.023000 0.027000
1517321542081939716	200 46 0.900000 0.058000 0.052000 1300 40 1.000000 1.931000 2.021000 600 51 1.000000 0.052000 0.052000 1.200000 0.042000 0.050000
1517321542593342466	200 46 0.900000 0.050000 0.045000 1300 40 1.000000 1.895000 1.984000 600 51 1.000000 0.051000 0.051000 1.200000 0.024000 0.028000
1517321543105652800	200 46 0.900000 0.052000 0.047000 1300 40 1.000000 1.888000 1.976000 600 51 1.000000 0.052000 0.052000 1.200000 0.027000 0.032000
1517321543617684008	200 46 0.900000 0.053000 0.048000 1300 40 1.000000 1.931000 2.023000 600 51 1.000000 0.052000 0.052000 1.200000 0.031000 0.037000
1517321544127667717	200 46 0.900000 0.050000 0.045000 1300 40 1.000000 1.892000 1.980000 600 51 1.000000 0.052000 0.052000 1.200000 0.024000 0.028000
1517321544639451883	200 46 0.900000 0.059000 0.053000 1300 40 1.000000 1.918000 2.010000 600 51 1.000000 0.052000 0.052000 1.200000 0.040000 0.048000
1517321545148398217	200 46 0.900000 0.050000 0.045000 1300 40 1.000000 1.897000 1.986000 600 51 1.000000 0.052000 0.052000 1.200000 0.024000 0.028000
1517321545660310717	200 46 0.900000 0.054000 0.049000 1300 40 1.000000 1.937000 2.028000 600 51 1.000000 0.052000 0.052000 1.200000 0.032000 0.038000
1517321546171473883	200 46 0.900000 0.049000 0.044000 1300 40 1.000000 1.885000 1.975000 600 51 1.000000 0.052000 0.052000 1.200000 0.024000 0.028000
1517321546685267134	200 46 0.900000 0.052000 0.047000 1300 40 1.000000 1.888000 1.976000 600 51 1.000000 0.052000 0.052000 1.200000 0.024000 0.028000
1517321547196855759	200 46 0.900000 0.058000 0.052000 1300 40 1.000000 1.954000 2.045000 600 51 1.000000 0.051000 0.051000 1.200000 0.041000 0.049000
1517321547708680300	200 46 0.900000 0.055000 0.050000 1300 40 1.000000 1.894000 1.983000 600 51 1.000000 0.052000 0.052000 1.200000 0.034000 0.041000
1517321548220251175	200 46 0.900000 0.050000 0.045000 1300 40 1.000000 1.896000 1.985000 600 51 1.000000 0.051000 0.051000 1.200000 0.024000 0.028000
1517321548731435259	200 46 0.900000 0.050000 0.045000 1300 40 1.000000 1.887000 1.975000 600 51 1.000000 0.051000 0.051000 1.200000 0.023000 0.027000
1517321549240463092	200 46 0.900000 0.054000 0.049000 1300 40 1.000000 1.915000 2.005000 600 51 1.000000 0.052000 0.052000 1.200000 0.034000 0.041000
1517321549752267926	200 46 0.900000 0.053000 0.048000 1300 40 1.000000 1.899000 1.988000 600 51 1.000000 0.052000 0.052000 1.200000 0.029000 0.035000
1517321550263732217	200 46 0.900000 0.050000 0.045000 1300 40 1.000000 1.879000 1.967000 600 51 1.000000 0.052000 0.052000 1.200000 0.023000 0.027000
1517321550774977634	200 46 0.900000 0.050000 0.045000 1300 40 1.000000 1.883000 1.971000 600 51 1.000000 0.052000 0.052000 1.200000 0.023000 0.027000
1517321551285967176	200 46 0.900000 0.050000 0.045000 1300 40 1.000000 1.876000 1.964000 600 51 1.000000 0.051000 0.051000 1.200000 0.023000 0.027000
1517321551797582384	200 46 0.900000 0.055000 0.050000 1300 40 1.000000 1.891000 1.979000 600 52 1.000000 0.052000 0.052000 1.200000 0.031000 0.037000
1517321552309259218	200 46 0.900000 0.052000 0.047000 1300 40 1.000000 1.978000 2.072000 600 52 1.000000 0.052000 0.052000 1.200000 0.031000 0.037000
1517321552820723968	200 46 0.900000 0.050000 0.045000 1300 40 1.000000 1.887000 1.975000 600 51 1.000000 0.052000 0.052000 1.200000 0.024000 0.028000
1517321553332189843	200 46 0.900000 0.050000 0.045000 1300 40 1.000000 1.893000 1.981000 600 51 1.000000 0.051000 0.051000 1.200000 0.024000 0.028000
1517321553867135176	200 46 0.900000 0.050000 0.045000 1300 40 1.000000 1.888000 1.976000 600 51 1.000000 0.052000 0.052000 1.200000 0.024000 0.028000
1517321554386033676	200 46 0.900000 0.060000 0.054000 1300 40 1.000000 2.018000 2.114000 600 52 1.000000 0.052000 0.052000 1.200000 0.043000 0.051000
1517321554897432634	200 46 0.900000 0.050000 0.045000 1300 40 1.000000 1.895000 1.984000 600 51 1.000000 0.052000 0.052000 1.200000 0.024000 0.028000
1517321555408562135	200 46 0.900000 0.049000 0.044000 1300 40 1.000000 1.889000 1.977000 600 51 1.000000 0.051000 0.051000 1.200000 0.024000 0.028000
1517321555917345843	200 46 0.900000 0.050000 0.045000 1300 40 1.000000 1.888000 1.976000 600 52 1.000000 0.052000 0.052000 1.200000 0.024000 0.028000
1517321556429544968	200 46 0.900000 0.058000 0.052000 1300 40 1.000000 1.892000 1.980000 600 51 1.000000 0.051000 0.051000 1.200000 0.030000 0.036000
1517321556944601010	200 46 0.900000 0.056000 0.051000 1300 40 1.000000 1.925000 2.015000 600 52 1.000000 0.052000 0.052000 1.200000 0.033000 0.039000
1517321557456376843	200 46 0.900000 0.050000 0.045000 1300 40 1.000000 1.891000 1.979000 600 51 1.000000 0.051000 0.051000 1.200000 0.023000 0.027000
1517321557967601927	200 46 0.900000 0.050000 0.045000 1300 40 1.000000 1.877000 1.965000 600 52 1.000000 0.051000 0.051000 1.200000 0.023000 0.027000
1517321558479300677	200 46 0.900000 0.055000 0.050000 1300 40 1.000000 1.933000 2.023000 600 52 1.000000 0.052000 0.052000 1.200000 0.031000 0.037000
1517321558988402343	200 46 0.900000 0.059000 0.053000 1300 40 1.000000 1.934000 2.024000 600 52 1.000000 0.052000 0.052000 1.200000 0.041000 0.049000
1517321559505428677	200 46 0.900000 0.050000 0.045000 1300 40 1.000000 1.878000 1.966000 600 52 1.000000 0.052000 0.052000 1.200000 0.023000 0.027000
1517321560017178760	200 46 0.900000 0.050000 0.045000 1300 40 1.000000 1.879000 1.967000 600 52 1.000000 0.052000 0.052000 1.200000 0.023000 0.027000
1517321560528832218	200 46 0.900000 0.051000 0.046000 1300 40 1.000000 1.956000 2.047000 600 52 1.000000 0.052000 0.052000 1.200000 0.029000 0.035000
1517321561049589469	200 46 0.900000 0.050000 0.045000 1300 40 1.000000 1.881000 1.969000 600 52 1.000000 0.052000 0.052000 1.200000 0.023000 0.027000
1517321561564754969	200 46 0.900000 0.060000 0.054000 1300 40 1.000000 1.956000 2.047000 600 52 1.000000 0.052000 0.052000 1.200000 0.036000 0.043000
1517321562076264635	200 46 0.900000 0.052000 0.047000 1300 40 1.000000 1.888000 1.976000 600 52 1.000000 0.052000 0.052000 1.200000 0.024000 0.028000
1517321562587867219	200 46 0.900000 0.050000 0.045000 1300 40 1.000000 1.887000 1.975000 600 52 1.000000 0.052000 0.052000 1.200000 0.027000 0.032000
1517321563099074885	200 46 0.900000 0.050000 0.045000 1300 40 1.000000 1.893000 1.981000 600 52 1.000000 0.052000 0.052000 1.200000 0.024000 0.028000
1517321563607952927	200 46 0.900000 0.050000 0.045000 1300 40 1.000000 1.888000 1.976000 600 52 1.000000 0.052000 0.052000 1.200000 0.023000 0.027000
1517321564122493802	200 46 0.900000 0.060000 0.054000 1300 40 1.000000 1.950000 2.043000 600 52 1.000000 0.052000 0.052000 1.200000 0.038000 0.045000
1517321564633999927	200 46 0.900000 0.050000 0.045000 1300 40 1.000000 1.885000 1.973000 600 52 1.000000 0.052000 0.052000 1.200000 0.024000 0.028000
1517321565145291511	200 46 0.900000 0.050000 0.045000 1300 40 1.000000 1.879000 1.967000 600 52 1.000000 0.052000 0.052000 1.200000 0.024000 0.028000
1517321565656762969	200 46 0.900000 0.050000 0.045000 1300 40 1.000000 1.883000 1.971000 600 52 1.000000 0.052000 0.052000 1.200000 0.023000 0.027000
1517321566165556594	200 46 0.900000 0.050000 0.045000 1300 40 1.000000 1.917000 2.007000 600 52 1.000000 0.051000 0.051000 1.200000 0.036000 0.043000
1517321566674653053	200 46 0.900000 0.058000 0.052000 1300 40 1.000000 1.894000 1.983000 600 52 1.000000 0.052000 0.052000 1.200000 0.023000 0.027000
1517321567186609719	200 46 0.900000 0.056000 0.051000 1300 40 1.000000 1.914000 2.003000 600 52 1.000000 0.052000 0.052000 1.200000 0.023000 0.027000
1517321567698519178	200 46 0.900000 0.050000 0.045000 1300 40 1.000000 1.879000 1.967000 600 52 1.000000 0.051000 0.051000 1.200000 0.023000 0.027000
1517321568223410136	200 46 0.900000 0.050000 0.045000 1300 40 1.000000 1.882000 1.970000 600 52 1.000000 0.052000 0.052000 1.200000 0.024000 0.028000
1517321568737004594	200 46 0.900000 0.059000 0.053000 1300 40 1.000000 1.951000 2.042000 600 52 1.000000 0.052000 0.052000 1.200000 0.036000 0.043000
1517321569248779678	200 46 0.900000 0.058000 0.052000 1300 40 1.000000 1.883000 1.971000 600 52 1.000000 0.052000 0.052000 1.200000 0.033000 0.039000
1517321569760155595	200 46 0.900000 0.050000 0.045000 1300 40 1.000000 1.880000 1.968000 600 52 1.000000 0.052000 0.052000 1.200000 0.024000 0.028000
1517321570271853470	200 46 0.900000 0.050000 0.045000 1300 40 1.000000 1.879000 1.967000 600 52 1.000000 0.051000 0.051000 1.200000 0.023000 0.027000
1517321570785267761	200 46 0.900000 0.050000 0.045000 1300 40 1.000000 1.888000 1.976000 600 52 1.000000 0.052000 0.052000 1.200000 0.024000 0.028000
1517321571297022845	200 46 0.900000 0.059000 0.053000 1300 40 1.000000 1.994000 2.089000 600 52 1.000000 0.052000 0.052000 1.200000 0.032000 0.038000
1517321571808637262	200 46 0.900000 0.050000 0.045000 1300 40 1.000000 1.885000 1.973000 600 52 1.000000 0.052000 0.052000 1.200000 0.030000 0.036000
1517321572319971637	200 46 0.900000 0.050000 0.045000 1300 40 1.000000 1.880000 1.968000 600 52 1.000000 0.052000 0.052000 1.200000 0.024000 0.028000
1517321572831200387	200 46 0.900000 0.050000 0.045000 1300 40 1.000000 1.883000 1.971000 600 52 1.000000 0.051000 0.051000 1.200000 0.024000 0.028000
1517321573340630470	200 46 0.900000 0.050000 0.045000 1300 40 1.000000 1.881000 1.969000 600 52 1.000000 0.052000 0.052000 1.200000 0.023000 0.027000
1517321573852452553	200 46 0.900000 0.058000 0.052000 1300 41 1.000000 1.905000 1.994000 600 52 1.000000 0.052000 0.052000 1.200000 0.043000 0.051000
1517321574363821470	200 46 0.900000 0.050000 0.045000 1300 40 1.000000 1.880000 1.968000 600 52 1.000000 0.052000 0.052000 1.200000 0.025000 0.030000
1517321574875151387	200 46 0.900000 0.049000 0.044000 1300 40 1.000000 1.879000 1.967000 600 52 1.000000 0.052000 0.052000 1.200000 0.024000 0.028000
1517321575383815595	200 46 0.900000 0.050000 0.045000 1300 40 1.000000 1.881000 1.969000 600 52 1.000000 0.052000 0.052000 1.200000 0.024000 0.028000
1517321575895300595	200 46 0.900000 0.060000 0.054000 1300 40 1.000000 1.988000 2.083000 600 52 1.000000 0.052000 0.052000 1.200000 0.040000 0.048000
1517321576406660429	200 46 0.900000 0.050000 0.045000 1300 40 1.000000 1.892000 1.980000 600 52 1.000000 0.052000 0.052000 1.200000 0.025000 0.030000
1517321576917806470	200 46 0.900000 0.050000 0.045000 1300 40 1.000000 1.890000 1.978000 600 52 1.000000 0.052000 0.052000 1.200000 0.024000 0.028000
1517321577429019471	200 46 0.900000 0.050000 0.045000 1300 40 1.000000 1.896000 1.985000 600 52 1.000000 0.052000 0.052000 1.200000 0.024000 0.028000
1517321577937979804	200 46 0.900000 0.059000 0.053000 1300 40 1.000000 1.895000 1.984000 600 52 1.000000 0.052000 0.052000 1.200000 0.028000 0.033000
1517321578463081387	200 46 0.900000 0.059000 0.053000 1300 40 1.000000 1.953000 2.044000 600 52 1.000000 0.052000 0.052000 1.200000 0.042000 0.050000
1517321578977154054	200 46 0.900000 0.051000 0.046000 1300 40 1.000000 1.879000 1.967000 600 52 1.000000 0.052000 0.052000 1.200000 0.023000 0.027000
1517321579488670721	200 46 0.900000 0.050000 0.045000 1300 40 1.000000 1.891000 1.979000 600 52 1.000000 0.052000 0.052000 1.200000 0.024000 0.028000
1517321580000509804	200 46 0.900000 0.050000 0.045000 1300 40 1.000000 1.888000 1.976000 600 52 1.000000 0.052000 0.052000 1.200000 0.024000 0.028000
1517321580513895804	200 46 0.900000 0.058000 0.052000 1300 40 1.000000 1.933000 2.023000 600 52 1.000000 0.052000 0.052000 1.200000 0.028000 0.033000
1517321581029002638	200 46 0.900000 0.059000 0.053000 1300 40 1.000000 1.965000 2.057000 600 52 1.000000 0.052000 0.052000 1.200000 0.042000 0.050000
1517321581540692054	200 46 0.900000 0.050000 0.045000 1300 40 1.000000 1.890000 1.978000 600 52 1.000000 0.052000 0.052000 1.200000 0.024000 0.028000
1517321582049330888	200 46 0.900000 0.050000 0.045000 1300 40 1.000000 1.887000 1.975000 600 52 1.000000 0.052000 0.052000 1.200000 0.024000 0.028000
1517321582561067388	200 46 0.900000 0.054000 0.049000 1300 40 1.000000 1.944000 2.035000 600 52 1.000000 0.052000 0.052000 1.200000 0.033000 0.039000
1517321583070436680	200 46 0.900000 0.057000 0.052000 1300 40 1.000000 1.906000 1.995000 600 52 1.000000 0.052000 0.052000 1.200000 0.031000 0.037000
1517321583595371221	200 46 0.900000 0.050000 0.045000 1300 40 1.000000 1.912000 2.001000 600 52 1.000000 0.052000 0.052000 1.200000 0.028000 0.033000
1517321584109211096	200 46 0.900000 0.049000 0.044000 1300 40 1.000000 1.886000 1.974000 600 52 1.000000 0.052000 0.052000 1.200000 0.026000 0.031000
1517321584621006555	200 46 0.900000 0.055000 0.050000 1300 40 1.000000 1.924000 2.014000 600 52 1.000000 0.052000 0.052000 1.200000 0.034000 0.041000
1517321585130133596	200 46 0.900000 0.050000 0.045000 1300 40 1.000000 1.889000 1.977000 600 52 1.000000 0.052000 0.052000 1.200000 0.024000 0.028000
1517321585642291763	200 46 0.900000 0.058000 0.052000 1300 40 1.000000 1.946000 2.037000 600 52 1.000000 0.052000 0.052000 1.200000 0.042000 0.050000
1517321586166941597	200 46 0.900000 0.050000 0.045000 1300 40 1.000000 1.887000 1.975000 600 52 1.000000 0.052000 0.052000 1.200000 0.023000 0.027000
1517321586680958097	200 46 0.900000 0.055000 0.050000 1300 40 1.000000 1.881000 1.969000 600 52 1.000000 0.052000 0.052000 1.200000 0.030000 0.036000
1517321587192514930	200 46 0.900000 0.050000 0.045000 1300 40 1.000000 1.885000 1.973000 600 52 1.000000 0.052000 0.052000 1.200000 0.023000 0.027000
1517321587705925888	200 46 0.900000 0.050000 0.045000 1300 40 1.000000 1.878000 1.966000 600 52 1.000000 0.052000 0.052000 1.200000 0.024000 0.028000
1517321588221088097	200 46 0.900000 0.055000 0.050000 1300 41 1.000000 1.940000 2.031000 600 52 1.000000 0.052000 0.052000 1.200000 0.034000 0.041000
1517321588733077722	200 46 0.900000 0.050000 0.045000 1300 41 1.000000 1.890000 1.978000 600 52 1.000000 0.052000 0.052000 1.200000 0.024000 0.028000
1517321589244746764	200 46 0.900000 0.053000 0.048000 1300 40 1.000000 1.900000 1.989000 600 52 1.000000 0.052000 0.052000 1.200000 0.028000 0.033000
1517321589756418430	200 46 0.900000 0.050000 0.045000 1300 40 1.000000 1.889000 1.977000 600 52 1.000000 0.052000 0.052000 1.200000 0.024000 0.028000
1517321590272486597	200 46 0.900000 0.052000 0.047000 1300 40 1.000000 1.893000 1.981000 600 52 1.000000 0.052000 0.052000 1.200000 0.024000 0.028000
1517321590790641764	200 46 0.900000 0.053000 0.048000 1300 41 1.000000 1.952000 2.043000 600 52 1.000000 0.052000 0.052000 1.200000 0.036000 0.043000
1517321591302224139	200 46 0.900000 0.051000 0.046000 1300 40 1.000000 1.969000 2.061000 600 52 1.000000 0.052000 0.052000 1.200000 0.027000 0.032000
1517321591827148014	200 46 0.900000 0.050000 0.045000 1300 40 1.000000 1.895000 1.984000 600 52 1.000000 0.052000 0.052000 1.200000 0.024000 0.028000
1517321592341217847	200 46 0.900000 0.051000 0.046000 1300 40 1.000000 1.878000 1.966000 600 52 1.000000 0.052000 0.052000 1.200000 0.026000 0.031000
1517321592852791931	200 46 0.900000 0.055000 0.050000 1300 41 1.000000 1.930000 2.020000 600 52 1.000000 0.052000 0.052000 1.200000 0.040000 0.048000
1517321593364437306	200 46 0.900000 0.051000 0.046000 1300 40 1.000000 1.917000 2.007000 600 52 1.000000 0.052000 0.052000 1.200000 0.024000 0.028000
1517321593875810681	200 46 0.900000 0.050000 0.045000 1300 40 1.000000 1.885000 1.973000 600 52 1.000000 0.052000 0.052000 1.200000 0.023000 0.027000
1517321594387417806	200 46 0.900000 0.050000 0.045000 1300 40 1.000000 1.894000 1.983000 600 52 1.000000 0.052000 0.052000 1.200000 0.023000 0.027000
1517321594901138139	200 46 0.900000 0.050000 0.045000 1300 40 1.000000 1.881000 1.969000 600 52 1.000000 0.052000 0.052000 1.200000 0.023000 0.027000
1517321595413048223	200 46 0.900000 0.056000 0.051000 1300 41 1.000000 2.044000 2.142000 600 52 1.000000 0.052000 0.052000 1.200000 0.035000 0.042000
1517321595924862348	200 46 0.900000 0.050000 0.045000 1300 40 1.000000 1.883000 1.971000 600 52 1.000000 0.052000 0.052000 1.200000 0.023000 0.027000
1517321596436552556	200 46 0.900000 0.050000 0.045000 1300 40 1.000000 1.879000 1.967000 600 52 1.000000 0.052000 0.052000 1.200000 0.023000 0.027000
1517321596948067765	200 46 0.900000 0.050000 0.045000 1300 40 1.000000 1.880000 1.968000 600 52 1.000000 0.052000 0.052000 1.200000 0.023000 0.027000
1517321597460983515	200 46 0.900000 0.053000 0.048000 1300 40 1.000000 2.031000 2.128000 600 52 1.000000 0.052000 0.052000 1.200000 0.042000 0.050000
1517321597977109265	200 46 0.900000 0.050000 0.045000 1300 40 1.000000 1.876000 1.964000 600 52 1.000000 0.052000 0.052000 1.200000 0.023000 0.027000
1517321598488683140	200 46 0.900000 0.050000 0.045000 1300 40 1.000000 1.889000 1.977000 600 52 1.000000 0.052000 0.052000 1.200000 0.024000 0.028000
1517321599000762723	200 46 0.900000 0.050000 0.045000 1300 40 1.000000 1.897000 1.986000 600 52 1.000000 0.052000 0.052000 1.200000 0.024000 0.028000
1517321599520006556	200 46 0.900000 0.050000 0.045000 1300 40 1.000000 1.886000 1.974000 600 52 1.000000 0.052000 0.052000 1.200000 0.024000 0.028000
1517321600031622182	200 46 0.900000 0.058000 0.052000 1300 41 1.000000 2.034000 2.131000 600 52 1.000000 0.052000 0.052000 1.200000 0.045000 0.054000
1517321600542802973	200 46 0.900000 0.050000 0.045000 1300 41 1.000000 1.896000 1.985000 600 52 1.000000 0.052000 0.052000 1.200000 0.024000 0.028000
1517321601054115932	200 46 0.900000 0.050000 0.045000 1300 41 1.000000 1.885000 1.973000 600 52 1.000000 0.052000 0.052000 1.200000 0.023000 0.027000
1517321601567841057	200 46 0.900000 0.050000 0.045000 1300 41 1.000000 1.887000 1.975000 600 52 1.000000 0.052000 0.052000 1.200000 0.023000 0.027000
1517321602109380890	200 46 0.900000 0.058000 0.052000 1300 41 1.000000 1.942000 2.033000 600 52 1.000000 0.052000 0.052000 1.200000 0.036000 0.043000
1517321602625167349	200 46 0.900000 0.052000 0.047000 1300 40 1.000000 1.918000 2.008000 600 52 1.000000 0.052000 0.052000 1.200000 0.026000 0.031000
1517321603136723474	200 46 0.900000 0.050000 0.045000 1300 41 1.000000 1.885000 1.973000 600 52 1.000000 0.052000 0.052000 1.200000 0.023000 0.027000
1517321603648208099	200 46 0.900000 0.050000 0.045000 1300 41 1.000000 1.882000 1.970000 600 52 1.000000 0.052000 0.052000 1.200000 0.023000 0.027000
1517321604159991057	200 46 0.900000 0.052000 0.047000 1300 41 1.000000 1.928000 2.018000 600 52 1.000000 0.052000 0.052000 1.200000 0.031000 0.037000
1517321604671517932	200 47 0.900000 0.055000 0.050000 1300 41 1.000000 1.953000 2.044000 600 52 1.000000 0.051000 0.051000 1.200000 0.042000 0.050000
1517321605182996849	200 46 0.900000 0.050000 0.045000 1300 41 1.000000 1.878000 1.966000 600 52 1.000000 0.052000 0.052000 1.200000 0.023000 0.027000
1517321605694246557	200 46 0.900000 0.050000 0.045000 1300 40 1.000000 1.882000 1.970000 600 52 1.000000 0.052000 0.052000 1.200000 0.023000 0.027000
1517321606205750974	200 46 0.900000 0.052000 0.047000 1300 41 1.000000 1.933000 2.023000 600 52 1.000000 0.052000 0.052000 1.200000 0.031000 0.037000
1517321606726906182	200 46 0.900000 0.050000 0.045000 1300 41 1.000000 1.884000 1.972000 600 52 1.000000 0.052000 0.052000 1.200000 0.027000 0.032000
1517321607241447432	200 46 0.900000 0.058000 0.052000 1300 41 1.000000 1.922000 2.014000 600 52 1.000000 0.052000 0.052000 1.200000 0.030000 0.036000
1517321607753245557	200 46 0.900000 0.050000 0.045000 1300 41 1.000000 1.884000 1.972000 600 52 1.000000 0.051000 0.051000 1.200000 0.023000 0.027000
1517321608262221266	200 46 0.900000 0.053000 0.048000 1300 41 1.000000 1.911000 2.000000 600 52 1.000000 0.052000 0.052000 1.200000 0.024000 0.028000
1517321608772868183	200 46 0.900000 0.055000 0.050000 1300 41 1.000000 1.899000 1.988000 600 52 1.000000 0.052000 0.052000 1.200000 0.032000 0.038000
1517321609285823641	200 46 0.900000 0.050000 0.045000 1300 41 1.000000 1.897000 1.986000 600 52 1.000000 0.052000 0.052000 1.200000 0.024000 0.028000
1517321609801054474	200 46 0.900000 0.055000 0.050000 1300 41 1.000000 1.923000 2.013000 600 52 1.000000 0.052000 0.052000 1.200000 0.042000 0.050000
1517321610309528849	200 46 0.900000 0.050000 0.045000 1300 41 1.000000 1.887000 1.975000 600 52 1.000000 0.052000 0.052000 1.200000 0.024000 0.028000
1517321610821482183	200 46 0.900000 0.054000 0.049000 1300 41 1.000000 1.927000 2.017000 600 52 1.000000 0.051000 0.051000 1.200000 0.028000 0.033000
1517321611332871475	200 46 0.900000 0.050000 0.045000 1300 41 1.000000 1.881000 1.969000 600 52 1.000000 0.052000 0.052000 1.200000 0.024000 0.028000
1517321611841660683	200 46 0.900000 0.051000 0.046000 1300 41 1.000000 1.947000 2.038000 600 52 1.000000 0.052000 0.052000 1.200000 0.024000 0.028000
1517321612353119058	200 46 0.900000 0.053000 0.048000 1300 41 1.000000 1.877000 1.965000 600 52 1.000000 0.052000 0.052000 1.200000 0.035000 0.042000
1517321612864879266	200 46 0.900000 0.056000 0.051000 1300 41 1.000000 1.914000 2.003000 600 52 1.000000 0.052000 0.052000 1.200000 0.028000 0.033000
1517321613376587891	200 46 0.900000 0.050000 0.045000 1300 41 1.000000 1.884000 1.972000 600 52 1.000000 0.052000 0.052000 1.200000 0.024000 0.028000
1517321613886262600	200 46 0.900000 0.050000 0.045000 1300 41 1.000000 1.884000 1.972000 600 52 1.000000 0.052000 0.052000 1.200000 0.024000 0.028000
1517321614411420392	200 46 0.900000 0.060000 0.054000 1300 41 1.000000 1.939000 2.030000 600 52 1.000000 0.052000 0.052000 1.200000 0.040000 0.048000
1517321614925354767	200 46 0.900000 0.056000 0.051000 1300 41 1.000000 1.888000 1.976000 600 52 1.000000 0.052000 0.052000 1.200000 0.025000 0.030000
1517321615437016392	200 46 0.900000 0.050000 0.045000 1300 41 1.000000 1.886000 1.974000 600 52 1.000000 0.052000 0.052000 1.200000 0.024000 0.028000
1517321615948186975	200 46 0.900000 0.050000 0.045000 1300 40 1.000000 1.894000 1.983000 600 52 1.000000 0.052000 0.052000 1.200000 0.024000 0.028000
1517321616461505850	200 46 0.900000 0.050000 0.045000 1300 41 1.000000 1.889000 1.977000 600 52 1.000000 0.052000 0.052000 1.200000 0.023000 0.027000
1517321616973978767	200 46 0.900000 0.059000 0.053000 1300 41 1.000000 1.974000 2.066000 600 52 1.000000 0.052000 0.052000 1.200000 0.040000 0.048000
1517321617485919059	200 46 0.900000 0.057000 0.052000 1300 41 1.000000 1.940000 2.031000 600 52 1.000000 0.052000 0.052000 1.200000 0.035000 0.042000
1517321617997450975	200 46 0.900000 0.050000 0.045000 1300 41 1.000000 1.895000 1.984000 600 52 1.000000 0.052000 0.052000 1.200000 0.024000 0.028000
1517321618508806225	200 46 0.900000 0.050000 0.045000 1300 41 1.000000 1.887000 1.975000 600 52 1.000000 0.052000 0.052000 1.200000 0.023000 0.027000
1517321619019537434	200 46 0.900000 0.050000 0.045000 1300 41 1.000000 1.892000 1.980000 600 52 1.000000 0.052000 0.052000 1.200000 0.024000 0.028000
1517321619549450809	200 46 0.900000 0.058000 0.052000 1300 41 1.000000 2.041000 2.138000 600 52 1.000000 0.052000 0.052000 1.200000 0.044000 0.053000
1517321620061137559	200 46 0.900000 0.050000 0.045000 1300 41 1.000000 1.894000 1.983000 600 52 1.000000 0.052000 0.052000 1.200000 0.025000 0.030000
1517321620572366642	200 46 0.900000 0.050000 0.045000 1300 40 1.000000 1.898000 1.987000 600 52 1.000000 0.052000 0.052000 1.200000 0.025000 0.030000
1517321621083778851	200 46 0.900000 0.050000 0.045000 1300 41 1.000000 1.886000 1.974000 600 52 1.000000 0.052000 0.052000 1.200000 0.024000 0.028000
1517321621594910267	200 47 0.900000 0.060000 0.054000 1300 41 1.000000 1.956000 2.047000 600 52 1.000000 0.052000 0.052000 1.200000 0.033000 0.039000
1517321622106522976	200 46 0.900000 0.050000 0.045000 1300 41 1.000000 1.905000 1.994000 600 52 1.000000 0.052000 0.052000 1.200000 0.025000 0.030000
1517321622617523601	200 46 0.900000 0.050000 0.045000 1300 41 1.000000 1.894000 1.983000 600 52 1.000000 0.052000 0.052000 1.200000 0.025000 0.030000
1517321623128989726	200 46 0.900000 0.050000 0.045000 1300 41 1.000000 1.899000 1.988000 600 52 1.000000 0.052000 0.052000 1.200000 0.024000 0.028000
1517321623641531184	200 46 0.900000 0.051000 0.046000 1300 41 1.000000 1.920000 2.010000 600 52 1.000000 0.052000 0.052000 1.200000 0.030000 0.036000
1517321624156911434	200 46 0.900000 0.060000 0.054000 1300 41 1.000000 1.975000 2.067000 600 52 1.000000 0.052000 0.052000 1.200000 0.042000 0.050000
1517321624668470726	200 46 0.900000 0.050000 0.045000 1300 41 1.000000 1.892000 1.980000 600 52 1.000000 0.052000 0.052000 1.200000 0.023000 0.027000
1517321625179971560	200 46 0.900000 0.050000 0.045000 1300 41 1.000000 1.882000 1.970000 600 52 1.000000 0.052000 0.052000 1.200000 0.023000 0.027000
1517321625691837143	200 46 0.900000 0.052000 0.047000 1300 40 1.000000 1.890000 1.978000 600 52 1.000000 0.052000 0.052000 1.200000 0.026000 0.031000
1517321626201015768	200 46 0.900000 0.054000 0.049000 1300 41 1.000000 1.885000 1.973000 600 52 1.000000 0.052000 0.052000 1.200000 0.029000 0.035000
1517321626713161726	200 47 0.900000 0.060000 0.054000 1300 41 1.000000 1.957000 2.048000 600 52 1.000000 0.052000 0.052000 1.200000 0.042000 0.050000
1517321627224837476	200 46 0.900000 0.050000 0.045000 1300 41 1.000000 1.894000 1.983000 600 52 1.000000 0.052000 0.052000 1.200000 0.024000 0.028000
1517321627733662977	200 46 0.900000 0.050000 0.045000 1300 41 1.000000 1.882000 1.970000 600 52 1.000000 0.052000 0.052000 1.200000 0.024000 0.028000
1517321628245371810	200 46 0.900000 0.055000 0.050000 1300 41 1.000000 1.946000 2.037000 600 52 1.000000 0.052000 0.052000 1.200000 0.034000 0.041000
1517321628757886310	200 46 0.900000 0.055000 0.050000 1300 41 1.000000 1.898000 1.987000 600 52 1.000000 0.052000 0.052000 1.200000 0.028000 0.033000
1517321629273106477	200 46 0.900000 0.059000 0.053000 1300 41 1.000000 1.932000 2.022000 600 52 1.000000 0.052000 0.052000 1.200000 0.032000 0.038000
1517321629784456685	200 46 0.900000 0.050000 0.045000 1300 41 1.000000 1.895000 1.984000 600 52 1.000000 0.052000 0.052000 1.200000 0.024000 0.028000
1517321630296559518	200 46 0.900000 0.050000 0.045000 1300 41 1.000000 1.968000 2.060000 600 52 1.000000 0.052000 0.052000 1.200000 0.030000 0.036000
1517321630808360727	200 46 0.900000 0.050000 0.045000 1300 41 1.000000 1.896000 1.985000 600 52 1.000000 0.052000 0.052000 1.200000 0.024000 0.028000
1517321631319858102	200 46 0.900000 0.057000 0.052000 1300 41 1.000000 1.945000 2.036000 600 52 1.000000 0.052000 0.052000 1.200000 0.042000 0.050000
1517321631831337560	200 47 0.900000 0.050000 0.045000 1300 41 1.000000 1.887000 1.975000 600 52 1.000000 0.052000 0.052000 1.200000 0.023000 0.027000
1517321632343177060	200 46 0.900000 0.057000 0.052000 1300 41 1.000000 1.940000 2.031000 600 52 1.000000 0.052000 0.052000 1.200000 0.032000 0.038000
1517321632854335894	200 46 0.900000 0.050000 0.045000 1300 41 1.000000 1.881000 1.969000 600 52 1.000000 0.051000 0.051000 1.200000 0.023000 0.027000
1517321633366714894	200 46 0.900000 0.050000 0.045000 1300 41 1.000000 1.887000 1.975000 600 52 1.000000 0.052000 0.052000 1.200000 0.023000 0.027000
1517321633880662186	200 46 0.900000 0.056000 0.051000 1300 41 1.000000 1.943000 2.034000 600 52 1.000000 0.052000 0.052000 1.200000 0.037000 0.044000
1517321634392526436	200 46 0.900000 0.058000 0.052000 1300 41 1.000000 1.923000 2.013000 600 52 1.000000 0.052000 0.052000 1.200000 0.034000 0.041000
1517321634917446394	200 46 0.900000 0.050000 0.045000 1300 41 1.000000 1.910000 1.999000 600 52 1.000000 0.052000 0.052000 1.200000 0.025000 0.030000
1517321635431490394	200 46 0.900000 0.050000 0.045000 1300 41 1.000000 1.885000 1.973000 600 52 1.000000 0.052000 0.052000 1.200000 0.026000 0.031000
1517321635945253436	200 46 0.900000 0.050000 0.045000 1300 41 1.000000 1.896000 1.985000 600 52 1.000000 0.052000 0.052000 1.200000 0.024000 0.028000
1517321636460392228	200 46 0.900000 0.059000 0.053000 1300 41 1.000000 1.977000 2.069000 600 52 1.000000 0.052000 0.052000 1.200000 0.040000 0.048000
1517321636971749644	200 46 0.900000 0.056000 0.051000 1300 41 1.000000 1.937000 2.028000 600 52 1.000000 0.052000 0.052000 1.200000 0.026000 0.031000
1517321637483216103	200 47 0.900000 0.050000 0.045000 1300 41 1.000000 1.896000 1.985000 600 52 1.000000 0.052000 0.052000 1.200000 0.024000 0.028000
1517321637994640728	200 46 0.900000 0.050000 0.045000 1300 41 1.000000 1.898000 1.987000 600 52 1.000000 0.052000 0.052000 1.200000 0.024000 0.028000
1517321638508839978	200 47 0.900000 0.054000 0.049000 1300 41 1.000000 1.934000 2.024000 600 52 1.000000 0.052000 0.052000 1.200000 0.035000 0.042000
1517321639020957103	200 47 0.900000 0.053000 0.048000 1300 41 1.000000 1.918000 2.010000 600 52 1.000000 0.052000 0.052000 1.200000 0.027000 0.032000
1517321639532588270	200 47 0.900000 0.050000 0.045000 1300 41 1.000000 1.890000 1.978000 600 52 1.000000 0.052000 0.052000 1.200000 0.023000 0.027000
1517321640044074895	200 47 0.900000 0.050000 0.045000 1300 41 1.000000 1.888000 1.976000 600 52 1.000000 0.052000 0.052000 1.200000 0.023000 0.027000
1517321640552907561	200 47 0.900000 0.050000 0.045000 1300 41 1.000000 1.888000 1.976000 600 52 1.000000 0.052000 0.052000 1.200000 0.023000 0.027000
1517321641064663478	200 47 0.900000 0.056000 0.051000 1300 41 1.000000 2.061000 2.159000 600 52 1.000000 0.052000 0.052000 1.200000 0.040000 0.048000
1517321641576300895	200 47 0.900000 0.050000 0.045000 1300 41 1.000000 1.889000 1.977000 600 52 1.000000 0.052000 0.052000 1.200000 0.023000 0.027000
1517321642087343353	200 47 0.900000 0.050000 0.045000 1300 41 1.000000 1.886000 1.974000 600 52 1.000000 0.052000 0.052000 1.200000 0.023000 0.027000
1517321642598726645	200 46 0.900000 0.050000 0.045000 1300 41 1.000000 1.888000 1.976000 600 52 1.000000 0.052000 0.052000 1.200000 0.023000 0.027000
1517321643108679978	200 47 0.900000 0.053000 0.048000 1300 41 1.000000 2.042000 2.140000 600 52 1.000000 0.052000 0.052000 1.200000 0.041000 0.049000
1517321643620806270	200 47 0.900000 0.051000 0.046000 1300 41 1.000000 1.890000 1.978000 600 52 1.000000 0.052000 0.052000 1.200000 0.023000 0.027000
1517321644132426478	200 47 0.900000 0.050000 0.045000 1300 41 1.000000 1.899000 1.988000 600 52 1.000000 0.052000 0.052000 1.200000 0.024000 0.028000
1517321644644071645	200 47 0.900000 0.050000 0.045000 1300 41 1.000000 1.895000 1.984000 600 52 1.000000 0.052000 0.052000 1.200000 0.024000 0.028000
1517321645157214104	200 46 0.900000 0.050000 0.045000 1300 41 1.000000 1.897000 1.988000 600 52 1.000000 0.052000 0.052000 1.200000 0.024000 0.028000
1517321645668778645	200 47 0.900000 0.057000 0.052000 1300 41 1.000000 2.045000 2.143000 600 52 1.000000 0.052000 0.052000 1.200000 0.044000 0.053000
1517321646180473812	200 47 0.900000 0.050000 0.045000 1300 41 1.000000 1.890000 1.978000 600 52 1.000000 0.052000 0.052000 1.200000 0.023000 0.027000
1517321646691826562	200 47 0.900000 0.050000 0.045000 1300 41 1.000000 1.888000 1.976000 600 52 1.000000 0.052000 0.052000 1.200000 0.023000 0.027000
1517321647202989895	200 47 0.900000 0.050000 0.045000 1300 41 1.000000 1.888000 1.976000 600 52 1.000000 0.052000 0.052000 1.200000 0.023000 0.027000
1517321647711877354	200 46 0.900000 0.055000 0.050000 1300 41 1.000000 1.934000 2.024000 600 52 1.000000 0.052000 0.052000 1.200000 0.029000 0.035000
1517321648223335312	200 47 0.900000 0.059000 0.053000 1300 41 1.000000 1.945000 2.036000 600 52 1.000000 0.052000 0.052000 1.200000 0.035000 0.042000
1517321648734636396	200 47 0.900000 0.050000 0.045000 1300 41 1.000000 1.888000 1.976000 600 52 1.000000 0.052000 0.052000 1.200000 0.023000 0.027000
1517321649245989396	200 47 0.900000 0.050000 0.045000 1300 41 1.000000 1.888000 1.976000 600 52 1.000000 0.052000 0.052000 1.200000 0.024000 0.028000
1517321649757662979	200 47 0.900000 0.053000 0.048000 1300 41 1.000000 1.932000 2.022000 600 52 1.000000 0.052000 0.052000 1.200000 0.025000 0.030000
1517321650266735521	200 47 0.900000 0.051000 0.046000 1300 41 1.000000 1.932000 2.024000 600 52 1.000000 0.052000 0.052000 1.200000 0.025000 0.030000
1517321650784326104	200 47 0.900000 0.053000 0.048000 1300 41 1.000000 1.889000 1.977000 600 52 1.000000 0.052000 0.052000 1.200000 0.038000 0.045000
1517321651295876563	200 46 0.900000 0.050000 0.045000 1300 41 1.000000 1.899000 1.988000 600 52 1.000000 0.052000 0.052000 1.200000 0.024000 0.028000
1517321651807596271	200 47 0.900000 0.054000 0.049000 1300 41 1.000000 1.903000 1.992000 600 52 1.000000 0.052000 0.052000 1.200000 0.024000 0.028000
1517321652319092646	200 47 0.900000 0.053000 0.048000 1300 41 1.000000 1.929000 2.021000 600 52 1.000000 0.052000 0.052000 1.200000 0.032000 0.038000
1517321652829117563	200 47 0.900000 0.053000 0.048000 1300 41 1.000000 1.891000 1.979000 600 52 1.000000 0.052000 0.052000 1.200000 0.024000 0.028000
1517321653340558938	200 47 0.900000 0.051000 0.046000 1300 41 1.000000 1.977000 2.071000 600 52 1.000000 0.052000 0.052000 1.200000 0.041000 0.049000
1517321653852246146	200 47 0.900000 0.050000 0.045000 1300 41 1.000000 1.900000 1.989000 600 52 1.000000 0.052000 0.052000 1.200000 0.024000 0.028000
1517321654363838438	200 46 0.900000 0.050000 0.045000 1300 41 1.000000 1.978000 2.072000 600 52 1.000000 0.052000 0.052000 1.200000 0.030000 0.036000
1517321654890725271	200 46 0.900000 0.050000 0.045000 1300 41 1.000000 1.898000 1.989000 600 52 1.000000 0.052000 0.052000 1.200000 0.023000 0.027000
1517321655419027605	200 47 0.900000 0.054000 0.049000 1300 41 1.000000 1.943000 2.036000 600 52 1.000000 0.052000 0.052000 1.200000 0.034000 0.041000
1517321655930033147	200 46 0.900000 0.050000 0.045000 1300 41 1.000000 1.897000 1.986000 600 52 1.000000 0.052000 0.052000 1.200000 0.025000 0.030000
1517321656455100772	200 47 0.900000 0.056000 0.051000 1300 41 1.000000 1.965000 2.059000 600 52 1.000000 0.052000 0.052000 1.200000 0.034000 0.041000
1517321656968940980	200 47 0.900000 0.051000 0.046000 1300 41 1.000000 1.891000 1.979000 600 52 1.000000 0.052000 0.052000 1.200000 0.025000 0.030000
1517321657477963855	200 47 0.900000 0.050000 0.045000 1300 41 1.000000 1.898000 1.987000 600 52 1.000000 0.052000 0.052000 1.200000 0.024000 0.028000
1517321658006521563	200 46 0.900000 0.058000 0.052000 1300 41 1.000000 1.966000 2.060000 600 52 1.000000 0.052000 0.052000 1.200000 0.042000 0.050000
1517321658520228939	200 46 0.900000 0.058000 0.052000 1300 41 1.000000 1.935000 2.025000 600 52 1.000000 0.052000 0.052000 1.200000 0.033000 0.039000
1517321659032297772	200 47 0.900000 0.050000 0.045000 1300 41 1.000000 1.902000 1.991000 600 52 1.000000 0.052000 0.052000 1.200000 0.024000 0.028000
1517321659543637230	200 46 0.900000 0.050000 0.045000 1300 41 1.000000 1.897000 1.986000 600 52 1.000000 0.052000 0.052000 1.200000 0.024000 0.028000
1517321660057769272	200 47 0.900000 0.059000 0.053000 1300 41 1.000000 1.921000 2.011000 600 52 1.000000 0.052000 0.052000 1.200000 0.030000 0.036000
1517321660569598980	200 47 0.900000 0.056000 0.051000 1300 41 1.000000 1.931000 2.023000 600 52 1.000000 0.052000 0.052000 1.200000 0.034000 0.041000
1517321661080823230	200 47 0.900000 0.050000 0.045000 1300 41 1.000000 1.896000 1.985000 600 52 1.000000 0.052000 0.052000 1.200000 0.023000 0.027000
1517321661592390981	200 46 0.900000 0.050000 0.045000 1300 41 1.000000 1.890000 1.978000 600 52 1.000000 0.052000 0.052000 1.200000 0.023000 0.027000
1517321662134508814	200 46 0.900000 0.050000 0.045000 1300 41 1.000000 1.890000 1.978000 600 52 1.000000 0.052000 0.052000 1.200000 0.023000 0.027000
1517321662662976981	200 47 0.900000 0.059000 0.053000 1300 41 1.000000 2.031000 2.128000 600 52 1.000000 0.052000 0.052000 1.200000 0.043000 0.051000
1517321663176917189	200 47 0.900000 0.050000 0.045000 1300 41 1.000000 1.888000 1.976000 600 52 1.000000 0.052000 0.052000 1.200000 0.023000 0.027000
1517321663688318231	200 46 0.900000 0.050000 0.045000 1300 41 1.000000 1.888000 1.976000 600 52 1.000000 0.052000 0.052000 1.200000 0.023000 0.027000
1517321664199429106	200 47 0.900000 0.050000 0.045000 1300 41 1.000000 1.889000 1.977000 600 52 1.000000 0.052000 0.052000 1.200000 0.023000 0.027000
1517321664708507856	200 46 0.900000 0.050000 0.045000 1300 41 1.000000 1.903000 1.992000 600 52 1.000000 0.052000 0.052000 1.200000 0.024000 0.028000
1517321665220575231	200 47 0.900000 0.060000 0.054000 1300 41 1.000000 1.972000 2.066000 600 52 1.000000 0.052000 0.052000 1.200000 0.044000 0.053000
1517321665732270398	200 47 0.900000 0.050000 0.045000 1300 41 1.000000 1.901000 1.990000 600 52 1.000000 0.052000 0.052000 1.200000 0.024000 0.028000
1517321666243803148	200 47 0.900000 0.050000 0.045000 1300 41 1.000000 1.899000 1.988000 600 52 1.000000 0.052000 0.052000 1.200000 0.024000 0.028000
1517321666755538439	200 47 0.900000 0.053000 0.048000 1300 41 1.000000 1.901000 1.990000 600 52 1.000000 0.052000 0.052000 1.200000 0.024000 0.028000
1517321667277424773	200 46 0.900000 0.053000 0.048000 1300 41 1.000000 1.902000 1.991000 600 52 1.000000 0.052000 0.052000 1.200000 0.025000 0.030000
1517321667791772648	200 46 0.900000 0.058000 0.052000 1300 41 1.000000 1.947000 2.040000 600 52 1.000000 0.052000 0.052000 1.200000 0.034000 0.041000
1517321668303342856	200 47 0.900000 0.050000 0.045000 1300 41 1.000000 1.897000 1.986000 600 52 1.000000 0.052000 0.052000 1.200000 0.024000 0.028000
1517321668815155398	200 47 0.900000 0.051000 0.046000 1300 41 1.000000 1.900000 1.989000 600 52 1.000000 0.052000 0.052000 1.200000 0.024000 0.028000
1517321669326675315	200 46 0.900000 0.050000 0.045000 1300 41 1.000000 1.902000 1.991000 600 52 1.000000 0.052000 0.052000 1.200000 0.024000 0.028000
1517321669838119065	200 47 0.900000 0.058000 0.052000 1300 41 1.000000 1.959000 2.051000 600 52 1.000000 0.052000 0.052000 1.200000 0.041000 0.049000
1517321670349966648	200 47 0.900000 0.050000 0.045000 1300 41 1.000000 1.890000 1.978000 600 52 1.000000 0.052000 0.052000 1.200000 0.023000 0.027000
1517321670858837815	200 46 0.900000 0.050000 0.045000 1300 41 1.000000 1.888000 1.976000 600 52 1.000000 0.052000 0.052000 1.200000 0.023000 0.027000
1517321671370263107	200 46 0.900000 0.050000 0.045000 1300 41 1.000000 1.891000 1.979000 600 52 1.000000 0.052000 0.052000 1.200000 0.023000 0.027000
1517321671880447648	200 46 0.900000 0.050000 0.045000 1300 41 1.000000 1.888000 1.976000 600 52 1.000000 0.052000 0.052000 1.200000 0.023000 0.027000
1517321672391821982	200 47 0.900000 0.055000 0.050000 1300 41 1.000000 1.945000 2.038000 600 52 1.000000 0.052000 0.052000 1.200000 0.038000 0.045000
1517321672903221232	200 46 0.900000 0.050000 0.045000 1300 41 1.000000 1.887000 1.975000 600 52 1.000000 0.052000 0.052000 1.200000 0.023000 0.027000
1517321673415302399	200 46 0.900000 0.050000 0.045000 1300 41 1.000000 1.907000 1.996000 600 52 1.000000 0.052000 0.052000 1.200000 0.031000 0.037000
1517321673926943774	200 47 0.900000 0.050000 0.045000 1300 41 1.000000 1.901000 1.990000 600 52 1.000000 0.052000 0.052000 1.200000 0.024000 0.028000
1517321674441070774	200 46 0.900000 0.050000 0.045000 1300 41 1.000000 1.898000 1.987000 600 52 1.000000 0.052000 0.052000 1.200000 0.024000 0.028000
1517321674952867065	200 46 0.900000 0.060000 0.054000 1300 41 1.000000 1.973000 2.067000 600 52 1.000000 0.052000 0.052000 1.200000 0.041000 0.049000
1517321675464885816	200 47 0.900000 0.050000 0.045000 1300 41 1.000000 1.898000 1.987000 600 52 1.000000 0.052000 0.052000 1.200000 0.030000 0.036000
1517321675976779357	200 47 0.900000 0.050000 0.045000 1300 41 1.000000 1.899000 1.988000 600 52 1.000000 0.052000 0.052000 1.200000 0.024000 0.028000
1517321676488399691	200 46 0.900000 0.050000 0.045000 1300 41 1.000000 1.901000 1.990000 600 52 1.000000 0.052000 0.052000 1.200000 0.024000 0.028000
1517321676997318066	200 47 0.900000 0.055000 0.050000 1300 41 1.000000 1.921000 2.011000 600 52 1.000000 0.052000 0.052000 1.200000 0.034000 0.041000
1517321677509177857	200 47 0.900000 0.053000 0.048000 1300 41 1.000000 1.929000 2.019000 600 52 1.000000 0.052000 0.052000 1.200000 0.030000 0.036000
1517321678020907399	200 47 0.900000 0.050000 0.045000 1300 41 1.000000 1.889000 1.977000 600 52 1.000000 0.052000 0.052000 1.200000 0.023000 0.027000
1517321678532444649	200 46 0.900000 0.050000 0.045000 1300 41 1.000000 1.889000 1.977000 600 52 1.000000 0.052000 0.052000 1.200000 0.023000 0.027000
1517321679043957774	200 46 0.900000 0.050000 0.045000 1300 41 1.000000 1.888000 1.976000 600 52 1.000000 0.052000 0.052000 1.200000 0.023000 0.027000
1517321679555374774	200 47 0.900000 0.056000 0.051000 1300 41 1.000000 1.969000 2.063000 600 52 1.000000 0.052000 0.052000 1.200000 0.042000 0.050000
1517321680067005941	200 46 0.900000 0.051000 0.046000 1300 41 1.000000 1.886000 1.974000 600 52 1.000000 0.052000 0.052000 1.200000 0.023000 0.027000
1517321680578488441	200 46 0.900000 0.050000 0.045000 1300 41 1.000000 1.888000 1.976000 600 52 1.000000 0.052000 0.052000 1.200000 0.023000 0.027000
1517321681090211650	200 47 0.900000 0.050000 0.045000 1300 41 1.000000 1.889000 1.977000 600 52 1.000000 0.052000 0.052000 1.200000 0.023000 0.027000
1517321681614380816	200 46 0.900000 0.050000 0.045000 1300 41 1.000000 1.900000 1.989000 600 52 1.000000 0.052000 0.052000 1.200000 0.024000 0.028000
1517321682138949983	200 47 0.900000 0.055000 0.050000 1300 41 1.000000 2.115000 2.216000 600 52 1.000000 0.052000 0.052000 1.200000 0.034000 0.041000
1517321682653111650	200 46 0.900000 0.051000 0.046000 1300 41 1.000000 1.895000 1.984000 600 52 1.000000 0.052000 0.052000 1.200000 0.026000 0.031000
1517321683164579275	200 46 0.900000 0.050000 0.045000 1300 41 1.000000 1.899000 1.988000 600 52 1.000000 0.052000 0.052000 1.200000 0.024000 0.028000
1517321683675831650	200 46 0.900000 0.050000 0.045000 1300 41 1.000000 1.903000 1.992000 600 52 1.000000 0.051000 0.051000 1.200000 0.024000 0.028000
1517321684187265858	200 47 0.900000 0.056000 0.051000 1300 41 1.000000 2.031000 2.128000 600 52 1.000000 0.052000 0.052000 1.200000 0.041000 0.049000
1517321684699058983	200 47 0.900000 0.050000 0.045000 1300 41 1.000000 1.888000 1.976000 600 52 1.000000 0.052000 0.052000 1.200000 0.023000 0.027000
1517321685210623067	200 46 0.900000 0.050000 0.045000 1300 41 1.000000 1.889000 1.977000 600 52 1.000000 0.052000 0.052000 1.200000 0.024000 0.028000
1517321685735109942	200 46 0.900000 0.050000 0.045000 1300 41 1.000000 1.889000 1.977000 600 52 1.000000 0.052000 0.052000 1.200000 0.023000 0.027000
1517321686247366025	200 47 0.900000 0.051000 0.046000 1300 41 1.000000 1.934000 2.024000 600 52 1.000000 0.052000 0.052000 1.200000 0.033000 0.039000
1517321686758776567	200 47 0.900000 0.057000 0.052000 1300 41 1.000000 1.968000 2.060000 600 52 1.000000 0.052000 0.052000 1.200000 0.041000 0.049000
1517321687270078234	200 47 0.900000 0.050000 0.045000 1300 41 1.000000 1.887000 1.975000 600 52 1.000000 0.052000 0.052000 1.200000 0.023000 0.027000
1517321687781323317	200 46 0.900000 0.050000 0.045000 1300 41 1.000000 1.888000 1.976000 600 52 1.000000 0.052000 0.052000 1.200000 0.023000 0.027000
1517321688293169442	200 46 0.900000 0.051000 0.046000 1300 41 1.000000 1.938000 2.029000 600 52 1.000000 0.052000 0.052000 1.200000 0.032000 0.038000
1517321688801947150	200 46 0.900000 0.050000 0.045000 1300 41 1.000000 1.899000 1.988000 600 52 1.000000 0.052000 0.052000 1.200000 0.024000 0.028000
1517321689313220026	200 47 0.900000 0.056000 0.051000 1300 41 1.000000 1.945000 2.038000 600 52 1.000000 0.052000 0.052000 1.200000 0.042000 0.050000
1517321689824976942	200 46 0.900000 0.050000 0.045000 1300 41 1.000000 1.899000 1.988000 600 52 1.000000 0.052000 0.052000 1.200000 0.024000 0.028000
1517321690333855942	200 46 0.900000 0.052000 0.047000 1300 41 1.000000 1.901000 1.990000 600 52 1.000000 0.052000 0.052000 1.200000 0.024000 0.028000
1517321690845576317	200 47 0.900000 0.050000 0.045000 1300 41 1.000000 1.908000 1.997000 600 52 1.000000 0.052000 0.052000 1.200000 0.025000 0.030000
1517321691354481026	200 47 0.900000 0.052000 0.047000 1300 41 1.000000 1.890000 1.978000 600 52 1.000000 0.052000 0.052000 1.200000 0.024000 0.028000
1517321691871975526	200 46 0.900000 0.054000 0.049000 1300 41 1.000000 1.957000 2.050000 600 52 1.000000 0.052000 0.052000 1.200000 0.042000 0.050000
1517321692380999651	200 46 0.900000 0.050000 0.045000 1300 41 1.000000 1.898000 1.987000 600 52 1.000000 0.052000 0.052000 1.200000 0.024000 0.028000
1517321692892786276	200 46 0.900000 0.053000 0.048000 1300 41 1.000000 1.908000 1.997000 600 52 1.000000 0.052000 0.052000 1.200000 0.027000 0.032000
1517321693404469193	200 47 0.900000 0.050000 0.045000 1300 41 1.000000 1.897000 1.986000 600 52 1.000000 0.052000 0.052000 1.200000 0.024000 0.028000
1517321693915729068	200 47 0.900000 0.053000 0.048000 1300 41 1.000000 1.905000 1.994000 600 52 1.000000 0.052000 0.052000 1.200000 0.027000 0.032000
1517321694427236401	200 46 0.900000 0.053000 0.048000 1300 41 1.000000 1.930000 2.020000 600 52 1.000000 0.051000 0.051000 1.200000 0.032000 0.038000
1517321694939433193	200 47 0.900000 0.054000 0.049000 1300 41 1.000000 1.927000 2.017000 600 52 1.000000 0.052000 0.052000 1.200000 0.026000 0.031000
1517321695451125860	200 46 0.900000 0.050000 0.045000 1300 41 1.000000 1.902000 1.991000 600 52 1.000000 0.052000 0.052000 1.200000 0.025000 0.030000
1517321695960900651	200 47 0.900000 0.050000 0.045000 1300 41 1.000000 1.897000 1.986000 600 52 1.000000 0.052000 0.052000 1.200000 0.024000 0.028000
1517321696472578818	200 47 0.900000 0.060000 0.054000 1300 41 1.000000 1.964000 2.056000 600 52 1.000000 0.052000 0.052000 1.200000 0.042000 0.050000
1517321696984285943	200 47 0.900000 0.055000 0.050000 1300 41 1.000000 1.897000 1.986000 600 52 1.000000 0.052000 0.052000 1.200000 0.024000 0.028000
1517321697496029068	200 47 0.900000 0.050000 0.045000 1300 41 1.000000 1.901000 1.990000 600 52 1.000000 0.052000 0.052000 1.200000 0.024000 0.028000
1517321698007104110	200 46 0.900000 0.050000 0.045000 1300 41 1.000000 1.901000 1.990000 600 52 1.000000 0.052000 0.052000 1.200000 0.024000 0.028000
1517321698526634443	200 47 0.900000 0.050000 0.045000 1300 41 1.000000 1.888000 1.976000 600 52 1.000000 0.052000 0.052000 1.200000 0.023000 0.027000
1517321699035634652	200 47 0.900000 0.058000 0.052000 1300 41 1.000000 1.944000 2.035000 600 52 1.000000 0.052000 0.052000 1.200000 0.037000 0.044000
1517321699547322277	200 47 0.900000 0.056000 0.051000 1300 41 1.000000 1.891000 1.979000 600 52 1.000000 0.052000 0.052000 1.200000 0.024000 0.028000
1517321700059026735	200 47 0.900000 0.050000 0.045000 1300 41 1.000000 1.894000 1.983000 600 52 1.000000 0.052000 0.052000 1.200000 0.024000 0.028000
1517321700570484360	200 47 0.900000 0.050000 0.045000 1300 41 1.000000 1.897000 1.986000 600 52 1.000000 0.052000 0.052000 1.200000 0.024000 0.028000
1517321701082519235	200 46 0.900000 0.050000 0.045000 1300 41 1.000000 1.897000 1.986000 600 52 1.000000 0.052000 0.052000 1.200000 0.024000 0.028000
1517321701596805652	200 47 0.900000 0.056000 0.051000 1300 41 1.000000 2.043000 2.141000 600 52 1.000000 0.052000 0.052000 1.200000 0.045000 0.054000
1517321702108376402	200 46 0.900000 0.050000 0.045000 1300 41 1.000000 1.902000 1.991000 600 52 1.000000 0.052000 0.052000 1.200000 0.024000 0.028000
1517321702619863527	200 47 0.900000 0.050000 0.045000 1300 41 1.000000 1.896000 1.985000 600 52 1.000000 0.052000 0.052000 1.200000 0.024000 0.028000
1517321703131151860	200 46 0.900000 0.050000 0.045000 1300 41 1.000000 1.894000 1.983000 600 52 1.000000 0.051000 0.051000 1.200000 0.024000 0.028000
1517321703643064777	200 47 0.900000 0.058000 0.052000 1300 41 1.000000 2.007000 2.103000 600 52 1.000000 0.052000 0.052000 1.200000 0.035000 0.042000
1517321704154492027	200 47 0.900000 0.050000 0.045000 1300 41 1.000000 1.901000 1.990000 600 52 1.000000 0.051000 0.051000 1.200000 0.024000 0.028000
1517321704679308027	200 47 0.900000 0.050000 0.045000 1300 41 1.000000 1.903000 1.992000 600 52 1.000000 0.052000 0.052000 1.200000 0.024000 0.028000
1517321705193102236	200 47 0.900000 0.051000 0.046000 1300 41 1.000000 1.894000 1.983000 600 52 1.000000 0.052000 0.052000 1.200000 0.026000 0.031000
1517321705703715694	200 47 0.900000 0.050000 0.045000 1300 41 1.000000 1.889000 1.977000 600 52 1.000000 0.052000 0.052000 1.200000 0.026000 0.031000
1517321706215324528	200 47 0.900000 0.059000 0.053000 1300 41 1.000000 1.932000 2.022000 600 52 1.000000 0.052000 0.052000 1.200000 0.037000 0.044000
1517321706726797194	200 47 0.900000 0.050000 0.045000 1300 41 1.000000 1.889000 1.977000 600 52 1.000000 0.052000 0.052000 1.200000 0.023000 0.027000
1517321707237982528	200 47 0.900000 0.050000 0.045000 1300 41 1.000000 1.890000 1.978000 600 52 1.000000 0.052000 0.052000 1.200000 0.024000 0.028000
1517321707746779319	200 47 0.900000 0.050000 0.045000 1300 41 1.000000 1.886000 1.974000 600 52 1.000000 0.052000 0.052000 1.200000 0.023000 0.027000
1517321708259500069	200 47 0.900000 0.059000 0.053000 1300 41 1.000000 1.950000 2.043000 600 52 1.000000 0.052000 0.052000 1.200000 0.039000 0.047000
1517321708787505236	200 47 0.900000 0.056000 0.051000 1300 41 1.000000 1.946000 2.039000 600 52 1.000000 0.052000 0.052000 1.200000 0.039000 0.047000
1517321709301294445	200 47 0.900000 0.051000 0.046000 1300 41 1.000000 1.893000 1.981000 600 52 1.000000 0.052000 0.052000 1.200000 0.025000 0.030000
1517321709812844986	200 47 0.900000 0.050000 0.045000 1300 41 1.000000 1.900000 1.989000 600 52 1.000000 0.052000 0.052000 1.200000 0.024000 0.028000
1517321710324815820	200 47 0.900000 0.058000 0.052000 1300 41 1.000000 1.927000 2.019000 600 52 1.000000 0.052000 0.052000 1.200000 0.030000 0.036000
1517321710836249236	200 47 0.900000 0.060000 0.054000 1300 41 1.000000 1.949000 2.040000 600 52 1.000000 0.052000 0.052000 1.200000 0.036000 0.043000
1517321711347400653	200 47 0.900000 0.055000 0.050000 1300 41 1.000000 1.900000 1.989000 600 52 1.000000 0.052000 0.052000 1.200000 0.024000 0.028000
1517321711859265820	200 47 0.900000 0.050000 0.045000 1300 41 1.000000 1.900000 1.989000 600 52 1.000000 0.052000 0.052000 1.200000 0.023000 0.027000
1517321712371283237	200 47 0.900000 0.050000 0.045000 1300 41 1.000000 1.900000 1.989000 600 52 1.000000 0.052000 0.052000 1.200000 0.025000 0.030000
1517321712880480570	200 47 0.900000 0.050000 0.045000 1300 41 1.000000 1.897000 1.986000 600 52 1.000000 0.052000 0.052000 1.200000 0.024000 0.028000
1517321713392272987	200 47 0.900000 0.060000 0.054000 1300 41 1.000000 1.945000 2.036000 600 52 1.000000 0.052000 0.052000 1.200000 0.042000 0.050000
1517321713904016737	200 47 0.900000 0.050000 0.045000 1300 41 1.000000 1.890000 1.978000 600 52 1.000000 0.052000 0.052000 1.200000 0.023000 0.027000
1517321714413087070	200 47 0.900000 0.050000 0.045000 1300 41 1.000000 1.887000 1.975000 600 52 1.000000 0.052000 0.052000 1.200000 0.023000 0.027000
1517321714924818737	200 47 0.900000 0.050000 0.045000 1300 41 1.000000 1.888000 1.976000 600 52 1.000000 0.052000 0.052000 1.200000 0.023000 0.027000
1517321715436650862	200 47 0.900000 0.054000 0.049000 1300 41 1.000000 1.907000 1.996000 600 52 1.000000 0.052000 0.052000 1.200000 0.031000 0.037000
1517321715948391070	200 47 0.900000 0.052000 0.047000 1300 41 1.000000 1.908000 1.997000 600 52 1.000000 0.052000 0.052000 1.200000 0.028000 0.033000
1517321716498890529	200 47 0.900000 0.050000 0.045000 1300 41 1.000000 1.888000 1.976000 600 52 1.000000 0.052000 0.052000 1.200000 0.023000 0.027000
1517321717014958070	200 47 0.900000 0.050000 0.045000 1300 41 1.000000 1.889000 1.977000 600 52 1.000000 0.052000 0.052000 1.200000 0.023000 0.027000
1517321717526365404	200 47 0.900000 0.050000 0.045000 1300 41 1.000000 1.886000 1.974000 600 52 1.000000 0.052000 0.052000 1.200000 0.023000 0.027000
1517321718036980529	200 47 0.900000 0.056000 0.051000 1300 41 1.000000 1.951000 2.042000 600 52 1.000000 0.052000 0.052000 1.200000 0.042000 0.050000
1517321718545511529	200 47 0.900000 0.050000 0.045000 1300 41 1.000000 1.888000 1.976000 600 52 1.000000 0.052000 0.052000 1.200000 0.023000 0.027000
1517321719057280696	200 47 0.900000 0.054000 0.049000 1300 41 1.000000 1.933000 2.023000 600 52 1.000000 0.052000 0.052000 1.200000 0.033000 0.039000
1517321719568799112	200 47 0.900000 0.050000 0.045000 1300 41 1.000000 1.897000 1.986000 600 52 1.000000 0.052000 0.052000 1.200000 0.024000 0.028000
1517321720085012946	200 47 0.900000 0.050000 0.045000 1300 41 1.000000 1.898000 1.987000 600 52 1.000000 0.052000 0.052000 1.200000 0.024000 0.028000
1517321720603087321	200 47 0.900000 0.057000 0.052000 1300 41 1.000000 1.978000 2.070000 600 52 1.000000 0.052000 0.052000 1.200000 0.042000 0.050000
1517321721114665113	200 47 0.900000 0.055000 0.050000 1300 41 1.000000 1.925000 2.015000 600 52 1.000000 0.052000 0.052000 1.200000 0.033000 0.039000
1517321721626085238	200 47 0.900000 0.050000 0.045000 1300 41 1.000000 1.889000 1.977000 600 52 1.000000 0.052000 0.052000 1.200000 0.023000 0.027000
1517321722137559196	200 47 0.900000 0.050000 0.045000 1300 41 1.000000 1.886000 1.974000 600 52 1.000000 0.052000 0.052000 1.200000 0.023000 0.027000
1517321722646054904	200 47 0.900000 0.050000 0.045000 1300 41 1.000000 1.889000 1.977000 600 52 1.000000 0.052000 0.052000 1.200000 0.023000 0.027000
1517321723157746613	200 47 0.900000 0.058000 0.052000 1300 41 1.000000 2.007000 2.101000 600 52 1.000000 0.052000 0.052000 1.200000 0.042000 0.050000
1517321723670019446	200 47 0.900000 0.050000 0.045000 1300 41 1.000000 1.888000 1.976000 600 52 1.000000 0.052000 0.052000 1.200000 0.023000 0.027000
1517321724181436030	200 47 0.900000 0.050000 0.045000 1300 41 1.000000 1.886000 1.974000 600 52 1.000000 0.052000 0.052000 1.200000 0.023000 0.027000
1517321724692811113	200 47 0.900000 0.050000 0.045000 1300 41 1.000000 1.887000 1.975000 600 52 1.000000 0.052000 0.052000 1.200000 0.023000 0.027000
1517321725201474155	200 47 0.900000 0.050000 0.045000 1300 41 1.000000 2.033000 2.130000 600 52 1.000000 0.052000 0.052000 1.200000 0.037000 0.044000
1517321725713541280	200 47 0.900000 0.052000 0.047000 1300 41 1.000000 1.889000 1.977000 600 52 1.000000 0.052000 0.052000 1.200000 0.023000 0.027000
1517321726225242988	200 47 0.900000 0.050000 0.045000 1300 41 1.000000 1.902000 1.991000 600 52 1.000000 0.052000 0.052000 1.200000 0.023000 0.027000
1517321726737038280	200 47 0.900000 0.050000 0.045000 1300 41 1.000000 1.901000 1.990000 600 52 1.000000 0.052000 0.052000 1.200000 0.023000 0.027000
1517321727249514822	200 46 0.900000 0.050000 0.045000 1300 41 1.000000 1.898000 1.987000 600 52 1.000000 0.052000 0.052000 1.200000 0.024000 0.028000
1517321727761415363	200 47 0.900000 0.056000 0.051000 1300 41 1.000000 1.897000 1.986000 600 52 1.000000 0.052000 0.052000 1.200000 0.044000 0.053000
1517321728273401322	200 47 0.900000 0.050000 0.045000 1300 41 1.000000 1.939000 2.030000 600 52 1.000000 0.052000 0.052000 1.200000 0.023000 0.027000
1517321728784843072	200 47 0.900000 0.050000 0.045000 1300 41 1.000000 1.897000 1.986000 600 52 1.000000 0.052000 0.052000 1.200000 0.024000 0.028000
1517321729296781072	200 47 0.900000 0.050000 0.045000 1300 41 1.000000 1.898000 1.987000 600 52 1.000000 0.052000 0.052000 1.200000 0.024000 0.028000
1517321729808569905	200 47 0.900000 0.058000 0.053000 1300 41 1.000000 1.930000 2.020000 600 52 1.000000 0.052000 0.052000 1.200000 0.025000 0.030000
1517321730320142447	200 47 0.900000 0.057000 0.052000 1300 41 1.000000 1.952000 2.043000 600 52 1.000000 0.052000 0.052000 1.200000 0.039000 0.047000
1517321730832057572	200 47 0.900000 0.050000 0.045000 1300 41 1.000000 1.897000 1.986000 600 52 1.000000 0.052000 0.052000 1.200000 0.024000 0.028000
1517321731343261947	200 47 0.900000 0.050000 0.045000 1300 41 1.000000 1.895000 1.984000 600 52 1.000000 0.052000 0.052000 1.200000 0.024000 0.028000
1517321731855150197	200 47 0.900000 0.050000 0.045000 1300 41 1.000000 1.898000 1.987000 600 52 1.000000 0.052000 0.052000 1.200000 0.024000 0.028000
1517321732368495781	200 47 0.900000 0.050000 0.045000 1300 41 1.000000 1.903000 1.992000 600 52 1.000000 0.052000 0.052000 1.200000 0.025000 0.030000
1517321732884085781	200 47 0.900000 0.056000 0.051000 1300 41 1.000000 1.958000 2.050000 600 52 1.000000 0.052000 0.052000 1.200000 0.040000 0.048000
1517321733395475781	200 47 0.900000 0.050000 0.045000 1300 41 1.000000 1.901000 1.990000 600 52 1.000000 0.052000 0.052000 1.200000 0.025000 0.030000
1517321733905845864	200 47 0.900000 0.050000 0.045000 1300 41 1.000000 1.897000 1.986000 600 52 1.000000 0.052000 0.052000 1.200000 0.024000 0.028000
1517321734417244281	200 47 0.900000 0.050000 0.045000 1300 41 1.000000 1.894000 1.983000 600 52 1.000000 0.052000 0.052000 1.200000 0.026000 0.031000
1517321734942672156	200 47 0.900000 0.060000 0.054000 1300 41 1.000000 1.936000 2.026000 600 52 1.000000 0.052000 0.052000 1.200000 0.035000 0.042000
1517321735455738531	200 47 0.900000 0.050000 0.045000 1300 41 1.000000 1.888000 1.976000 600 52 1.000000 0.052000 0.052000 1.200000 0.025000 0.030000
1517321735964372406	200 47 0.900000 0.051000 0.046000 1300 41 1.000000 1.887000 1.975000 600 52 1.000000 0.052000 0.052000 1.200000 0.023000 0.027000
1517321736476218489	200 47 0.900000 0.051000 0.046000 1300 41 1.000000 1.892000 1.980000 600 52 1.000000 0.052000 0.052000 1.200000 0.028000 0.033000
1517321736985162865	200 47 0.900000 0.050000 0.045000 1300 41 1.000000 1.897000 1.986000 600 52 1.000000 0.052000 0.052000 1.200000 0.024000 0.028000
1517321737497415615	200 47 0.900000 0.053000 0.048000 1300 41 1.000000 1.939000 2.030000 600 52 1.000000 0.052000 0.052000 1.200000 0.032000 0.038000
1517321738008803781	200 47 0.900000 0.052000 0.047000 1300 41 1.000000 1.909000 1.998000 600 52 1.000000 0.052000 0.052000 1.200000 0.028000 0.033000
1517321738520742573	200 47 0.900000 0.052000 0.047000 1300 41 1.000000 1.928000 2.018000 600 52 1.000000 0.052000 0.052000 1.200000 0.027000 0.032000
1517321739032520115	200 47 0.900000 0.050000 0.045000 1300 41 1.000000 1.895000 1.984000 600 52 1.000000 0.052000 0.052000 1.200000 0.024000 0.028000
1517321739548549823	200 47 0.900000 0.050000 0.045000 1300 41 1.000000 1.899000 1.988000 600 52 1.000000 0.052000 0.052000 1.200000 0.023000 0.027000
1517321740063370698	200 47 0.900000 0.058000 0.052000 1300 41 1.000000 1.981000 2.074000 600 52 1.000000 0.052000 0.052000 1.200000 0.042000 0.050000
1517321740575641032	200 47 0.900000 0.053000 0.048000 1300 41 1.000000 1.900000 1.989000 600 52 1.000000 0.052000 0.052000 1.200000 0.024000 0.028000
1517321741087040782	200 47 0.900000 0.050000 0.045000 1300 41 1.000000 1.897000 1.986000 600 52 1.000000 0.052000 0.052000 1.200000 0.025000 0.030000
1517321741598536990	200 47 0.900000 0.050000 0.045000 1300 41 1.000000 1.901000 1.990000 600 52 1.000000 0.052000 0.052000 1.200000 0.024000 0.028000
1517321742107474948	200 47 0.900000 0.058000 0.052000 1300 41 1.000000 1.914000 2.003000 600 52 1.000000 0.052000 0.052000 1.200000 0.028000 0.033000
1517321742616746990	200 47 0.900000 0.057000 0.052000 1300 41 1.000000 1.925000 2.015000 600 52 1.000000 0.052000 0.052000 1.200000 0.033000 0.039000
1517321743128552740	200 47 0.900000 0.054000 0.049000 1300 41 1.000000 1.889000 1.977000 600 52 1.000000 0.052000 0.052000 1.200000 0.025000 0.030000
1517321743640273449	200 47 0.900000 0.050000 0.045000 1300 41 1.000000 1.887000 1.975000 600 52 1.000000 0.052000 0.052000 1.200000 0.023000 0.027000
1517321744152326324	200 47 0.900000 0.050000 0.045000 1300 41 1.000000 1.887000 1.975000 600 52 1.000000 0.052000 0.052000 1.200000 0.023000 0.027000
1517321744677569324	200 47 0.900000 0.059000 0.053000 1300 41 1.000000 1.946000 2.037000 600 52 1.000000 0.052000 0.052000 1.200000 0.042000 0.050000
1517321745192789824	200 47 0.900000 0.050000 0.045000 1300 41 1.000000 1.893000 1.983000 600 52 1.000000 0.052000 0.052000 1.200000 0.024000 0.028000
1517321745704597241	200 47 0.900000 0.050000 0.045000 1300 41 1.000000 1.898000 1.987000 600 52 1.000000 0.052000 0.052000 1.200000 0.024000 0.028000
1517321746216233741	200 47 0.900000 0.050000 0.045000 1300 41 1.000000 1.903000 1.992000 600 52 1.000000 0.052000 0.052000 1.200000 0.024000 0.028000
1517321746749718116	200 47 0.900000 0.050000 0.045000 1300 41 1.000000 1.897000 1.986000 600 52 1.000000 0.052000 0.052000 1.200000 0.024000 0.028000
1517321747261637616	200 47 0.900000 0.058000 0.052000 1300 41 1.000000 2.047000 2.145000 600 53 1.000000 0.052000 0.052000 1.200000 0.043000 0.051000
1517321747773283657	200 47 0.900000 0.050000 0.045000 1300 41 1.000000 1.899000 1.988000 600 52 1.000000 0.052000 0.052000 1.200000 0.025000 0.030000
1517321748284704741	200 47 0.900000 0.050000 0.045000 1300 41 1.000000 1.899000 1.988000 600 52 1.000000 0.052000 0.052000 1.200000 0.025000 0.030000
1517321748814511824	200 47 0.900000 0.050000 0.045000 1300 41 1.000000 1.901000 1.990000 600 52 1.000000 0.052000 0.052000 1.200000 0.024000 0.028000
1517321749325211491	200 47 0.900000 0.050000 0.045000 1300 41 1.000000 1.982000 2.077000 600 52 1.000000 0.052000 0.052000 1.200000 0.030000 0.036000
1517321749839827699	200 47 0.900000 0.060000 0.054000 1300 41 1.000000 1.970000 2.062000 600 52 1.000000 0.052000 0.052000 1.200000 0.043000 0.051000
1517321750351558366	200 47 0.900000 0.050000 0.045000 1300 41 1.000000 1.906000 1.995000 600 52 1.000000 0.052000 0.052000 1.200000 0.024000 0.028000
1517321750882536450	200 47 0.900000 0.050000 0.045000 1300 41 1.000000 1.888000 1.976000 600 52 1.000000 0.052000 0.052000 1.200000 0.024000 0.028000
1517321751396028866	200 47 0.900000 0.058000 0.052000 1300 41 1.000000 1.894000 1.983000 600 52 1.000000 0.052000 0.052000 1.200000 0.034000 0.041000
1517321751906108533	200 47 0.900000 0.053000 0.048000 1300 41 1.000000 1.933000 2.023000 600 52 1.000000 0.052000 0.052000 1.200000 0.032000 0.038000
1517321752417747866	200 47 0.900000 0.052000 0.047000 1300 41 1.000000 1.899000 1.988000 600 52 1.000000 0.052000 0.052000 1.200000 0.027000 0.032000
1517321752929420325	200 47 0.900000 0.050000 0.045000 1300 41 1.000000 1.888000 1.976000 600 52 1.000000 0.052000 0.052000 1.200000 0.023000 0.027000
1517321753441601908	200 47 0.900000 0.056000 0.051000 1300 41 1.000000 1.936000 2.026000 600 52 1.000000 0.052000 0.052000 1.200000 0.033000 0.039000
1517321753953234617	200 47 0.900000 0.050000 0.045000 1300 41 1.000000 1.887000 1.975000 600 52 1.000000 0.052000 0.052000 1.200000 0.023000 0.027000
1517321754464701033	200 47 0.900000 0.060000 0.054000 1300 41 1.000000 1.947000 2.038000 600 52 1.000000 0.052000 0.052000 1.200000 0.042000 0.050000
1517321754976463033	200 47 0.900000 0.050000 0.045000 1300 41 1.000000 1.891000 1.979000 600 52 1.000000 0.051000 0.051000 1.200000 0.024000 0.028000
1517321755488144742	200 47 0.900000 0.050000 0.045000 1300 41 1.000000 1.926000 2.016000 600 52 1.000000 0.052000 0.052000 1.200000 0.031000 0.037000
1517321756000009033	200 47 0.900000 0.059000 0.053000 1300 41 1.000000 1.910000 1.999000 600 52 1.000000 0.052000 0.052000 1.200000 0.027000 0.032000
1517321756509772409	200 47 0.900000 0.050000 0.045000 1300 41 1.000000 1.898000 1.987000 600 52 1.000000 0.052000 0.052000 1.200000 0.024000 0.028000
1517321757021426825	200 47 0.900000 0.057000 0.052000 1300 41 1.000000 1.954000 2.045000 600 52 1.000000 0.052000 0.052000 1.200000 0.042000 0.050000
1517321757530308242	200 47 0.900000 0.050000 0.045000 1300 41 1.000000 1.896000 1.985000 600 52 1.000000 0.052000 0.052000 1.200000 0.025000 0.030000
1517321758042235742	200 47 0.900000 0.057000 0.052000 1300 41 1.000000 1.937000 2.028000 600 52 1.000000 0.052000 0.052000 1.200000 0.030000 0.036000
1517321758553587450	200 47 0.900000 0.050000 0.045000 1300 41 1.000000 1.887000 1.975000 600 52 1.000000 0.052000 0.052000 1.200000 0.024000 0.028000
1517321759063872075	200 47 0.900000 0.050000 0.045000 1300 41 1.000000 1.889000 1.977000 600 52 1.000000 0.052000 0.052000 1.200000 0.023000 0.027000
1517321759575649784	200 47 0.900000 0.057000 0.052000 1300 41 1.000000 1.927000 2.017000 600 52 1.000000 0.052000 0.052000 1.200000 0.036000 0.043000
1517321760087561992	200 47 0.900000 0.050000 0.045000 1300 41 1.000000 1.894000 1.983000 600 52 1.000000 0.052000 0.052000 1.200000 0.025000 0.030000
1517321760599235159	200 47 0.900000 0.050000 0.045000 1300 41 1.000000 1.889000 1.977000 600 52 1.000000 0.052000 0.052000 1.200000 0.025000 0.030000
1517321761110650576	200 47 0.900000 0.050000 0.045000 1300 41 1.000000 1.890000 1.978000 600 52 1.000000 0.052000 0.052000 1.200000 0.024000 0.028000
1517321761619711784	200 47 0.900000 0.050000 0.045000 1300 41 1.000000 1.947000 2.038000 600 52 1.000000 0.052000 0.052000 1.200000 0.038000 0.045000
1517321762131949118	200 47 0.900000 0.056000 0.051000 1300 41 1.000000 1.890000 1.978000 600 53 1.000000 0.052000 0.052000 1.200000 0.023000 0.027000
1517321762643543118	200 47 0.900000 0.051000 0.046000 1300 41 1.000000 1.892000 1.980000 600 52 1.000000 0.052000 0.052000 1.200000 0.024000 0.028000
1517321763154875993	200 47 0.900000 0.050000 0.045000 1300 41 1.000000 1.891000 1.979000 600 52 1.000000 0.052000 0.052000 1.200000 0.024000 0.028000
1517321763666243993	200 47 0.900000 0.050000 0.045000 1300 41 1.000000 1.897000 1.986000 600 52 1.000000 0.052000 0.052000 1.200000 0.023000 0.027000
1517321764178019868	200 47 0.900000 0.051000 0.046000 1300 41 1.000000 1.886000 1.974000 600 52 1.000000 0.052000 0.052000 1.200000 0.032000 0.038000
1517321764689575868	200 47 0.900000 0.050000 0.045000 1300 41 1.000000 1.943000 2.034000 600 52 1.000000 0.052000 0.052000 1.200000 0.024000 0.028000
1517321765201004785	200 47 0.900000 0.050000 0.045000 1300 41 1.000000 1.899000 1.988000 600 53 1.000000 0.052000 0.052000 1.200000 0.025000 0.030000
1517321765712634368	200 47 0.900000 0.050000 0.045000 1300 41 1.000000 1.905000 1.994000 600 52 1.000000 0.052000 0.052000 1.200000 0.023000 0.027000
1517321766224685743	200 47 0.900000 0.051000 0.046000 1300 41 1.000000 1.894000 1.983000 600 53 1.000000 0.052000 0.052000 1.200000 0.029000 0.035000
1517321766736538326	200 47 0.900000 0.050000 0.045000 1300 41 1.000000 2.042000 2.140000 600 52 1.000000 0.052000 0.052000 1.200000 0.023000 0.027000
1517321767248186326	200 47 0.900000 0.050000 0.045000 1300 41 1.000000 1.899000 1.988000 600 52 1.000000 0.051000 0.051000 1.200000 0.024000 0.028000
1517321767759701493	200 47 0.900000 0.050000 0.045000 1300 41 1.000000 1.900000 1.989000 600 52 1.000000 0.052000 0.052000 1.200000 0.023000 0.027000
1517321768275619743	200 47 0.900000 0.050000 0.045000 1300 41 1.000000 1.899000 1.988000 600 52 1.000000 0.052000 0.052000 1.200000 0.024000 0.028000
1517321768787734493	200 47 0.900000 0.058000 0.052000 1300 41 1.000000 2.023000 2.120000 600 53 1.000000 0.052000 0.052000 1.200000 0.045000 0.054000
1517321769299308993	200 47 0.900000 0.050000 0.045000 1300 41 1.000000 1.904000 1.993000 600 52 1.000000 0.052000 0.052000 1.200000 0.025000 0.030000
1517321769811049993	200 47 0.900000 0.050000 0.045000 1300 41 1.000000 1.901000 1.990000 600 52 1.000000 0.052000 0.052000 1.200000 0.024000 0.028000
1517321770319673619	200 47 0.900000 0.050000 0.045000 1300 41 1.000000 1.899000 1.988000 600 52 1.000000 0.052000 0.052000 1.200000 0.024000 0.028000
1517321770829355744	200 47 0.900000 0.053000 0.048000 1300 41 1.000000 1.949000 2.042000 600 52 1.000000 0.052000 0.052000 1.200000 0.033000 0.039000
1517321771341066702	200 47 0.900000 0.053000 0.048000 1300 41 1.000000 1.954000 2.047000 600 52 1.000000 0.052000 0.052000 1.200000 0.040000 0.048000
1517321771852852410	200 47 0.900000 0.050000 0.045000 1300 41 1.000000 1.891000 1.979000 600 52 1.000000 0.052000 0.052000 1.200000 0.025000 0.030000
1517321772364451494	200 47 0.900000 0.050000 0.045000 1300 41 1.000000 1.894000 1.983000 600 52 1.000000 0.052000 0.052000 1.200000 0.023000 0.027000
1517321772876562160	200 47 0.900000 0.056000 0.051000 1300 41 1.000000 1.898000 1.989000 600 53 1.000000 0.051000 0.051000 1.200000 0.024000 0.028000
1517321773390115536	200 47 0.900000 0.054000 0.049000 1300 41 1.000000 1.903000 1.992000 600 52 1.000000 0.052000 0.052000 1.200000 0.025000 0.030000
1517321773901570369	200 47 0.900000 0.052000 0.047000 1300 41 1.000000 1.962000 2.056000 600 52 1.000000 0.052000 0.052000 1.200000 0.042000 0.050000
1517321774412910911	200 47 0.900000 0.050000 0.045000 1300 41 1.000000 1.906000 1.995000 600 52 1.000000 0.052000 0.052000 1.200000 0.024000 0.028000
1517321774924817244	200 47 0.900000 0.050000 0.045000 1300 41 1.000000 1.897000 1.986000 600 53 1.000000 0.052000 0.052000 1.200000 0.024000 0.028000
1517321775436573077	200 47 0.900000 0.050000 0.045000 1300 41 1.000000 1.899000 1.990000 600 52 1.000000 0.052000 0.052000 1.200000 0.026000 0.031000
1517321775948202786	200 47 0.900000 0.055000 0.050000 1300 41 1.000000 1.934000 2.026000 600 53 1.000000 0.052000 0.052000 1.200000 0.033000 0.039000
1517321776460058203	200 47 0.900000 0.050000 0.045000 1300 41 1.000000 1.902000 1.991000 600 52 1.000000 0.052000 0.052000 1.200000 0.028000 0.033000
1517321776988812078	200 47 0.900000 0.050000 0.045000 1300 41 1.000000 1.902000 1.991000 600 52 1.000000 0.052000 0.052000 1.200000 0.024000 0.028000
1517321777502850328	200 47 0.900000 0.051000 0.046000 1300 41 1.000000 1.896000 1.985000 600 52 1.000000 0.052000 0.052000 1.200000 0.029000 0.035000
1517321778015419994	200 47 0.900000 0.050000 0.045000 1300 41 1.000000 1.898000 1.987000 600 52 1.000000 0.052000 0.052000 1.200000 0.025000 0.030000
1517321778527082828	200 47 0.900000 0.058000 0.052000 1300 41 1.000000 1.954000 2.045000 600 53 1.000000 0.052000 0.052000 1.200000 0.043000 0.051000
1517321779035777786	200 47 0.900000 0.050000 0.045000 1300 41 1.000000 1.893000 1.981000 600 52 1.000000 0.052000 0.052000 1.200000 0.024000 0.028000
1517321779547533745	200 47 0.900000 0.050000 0.045000 1300 41 1.000000 1.936000 2.026000 600 52 1.000000 0.052000 0.052000 1.200000 0.030000 0.036000
1517321780059327370	200 47 0.900000 0.050000 0.045000 1300 41 1.000000 1.893000 1.981000 600 52 1.000000 0.052000 0.052000 1.200000 0.024000 0.028000
1517321780568518911	200 47 0.900000 0.050000 0.045000 1300 41 1.000000 1.909000 1.998000 600 53 1.000000 0.052000 0.052000 1.200000 0.027000 0.032000
1517321781080452578	200 47 0.900000 0.056000 0.051000 1300 41 1.000000 1.906000 1.995000 600 53 1.000000 0.052000 0.052000 1.200000 0.033000 0.039000
1517321781592321453	200 47 0.900000 0.050000 0.045000 1300 41 1.000000 1.933000 2.023000 600 53 1.000000 0.052000 0.052000 1.200000 0.025000 0.030000
1517321782104121287	200 47 0.900000 0.050000 0.045000 1300 41 1.000000 1.907000 1.996000 600 52 1.000000 0.052000 0.052000 1.200000 0.024000 0.028000
1517321782629185037	200 47 0.900000 0.050000 0.045000 1300 41 1.000000 1.903000 1.992000 600 52 1.000000 0.052000 0.052000 1.200000 0.024000 0.028000
1517321783142915995	200 47 0.900000 0.051000 0.046000 1300 41 1.000000 1.906000 1.995000 600 52 1.000000 0.052000 0.052000 1.200000 0.026000 0.031000
1517321783654734370	200 47 0.900000 0.054000 0.049000 1300 41 1.000000 1.938000 2.031000 600 53 1.000000 0.052000 0.052000 1.200000 0.035000 0.042000
1517321784166005703	200 47 0.900000 0.050000 0.045000 1300 41 1.000000 1.902000 1.991000 600 53 1.000000 0.052000 0.052000 1.200000 0.025000 0.030000
1517321784677549912	200 47 0.900000 0.050000 0.045000 1300 41 1.000000 1.904000 1.993000 600 53 1.000000 0.052000 0.052000 1.200000 0.024000 0.028000
1517321785186884162	200 47 0.900000 0.050000 0.045000 1300 41 1.000000 1.901000 1.990000 600 52 1.000000 0.052000 0.052000 1.200000 0.024000 0.028000
1517321785699139245	200 47 0.900000 0.060000 0.054000 1300 41 1.000000 1.947000 2.040000 600 53 1.000000 0.052000 0.052000 1.200000 0.041000 0.049000
1517321786211096662	200 47 0.900000 0.050000 0.045000 1300 41 1.000000 1.889000 1.977000 600 53 1.000000 0.052000 0.052000 1.200000 0.025000 0.030000
1517321786722167245	200 47 0.900000 0.050000 0.045000 1300 41 1.000000 1.896000 1.985000 600 53 1.000000 0.052000 0.052000 1.200000 0.024000 0.028000
1517321787234287079	200 47 0.900000 0.050000 0.045000 1300 41 1.000000 1.888000 1.976000 600 53 1.000000 0.052000 0.052000 1.200000 0.024000 0.028000
1517321787750346787	200 43 0.900000 0.050000 0.045000 1300 40 1.000000 1.334000 1.394000 600 49 1.000000 0.052000 0.052000 1.200000 0.024000 0.028000
1517321788266728871	200 40 0.900000 0.054000 0.049000 1300 39 1.000000 0.385000 0.403000 600 45 1.000000 0.052000 0.052000 1.200000 0.025000 0.030000
1517321788777967121	200 39 0.900000 0.050000 0.045000 1300 38 1.000000 0.158000 0.166000 600 44 1.000000 0.051000 0.051000 1.200000 0.023000 0.027000
1517321789289203787	200 38 0.900000 0.050000 0.045000 1300 37 1.000000 0.153000 0.160000 600 42 1.000000 0.051000 0.051000 1.200000 0.023000 0.027000
1517321789800532912	200 38 0.900000 0.024000 0.021000 1300 37 1.000000 0.149000 0.156000 600 42 1.000000 0.051000 0.051000 1.200000 0.022000 0.026000
1517321790312143996	200 38 0.900000 0.037000 0.033000 1300 37 1.000000 0.280000 0.294000 600 42 1.000000 0.051000 0.051000 1.200000 0.042000 0.050000
1517321790823794413	200 37 0.900000 0.027000 0.024000 1300 36 1.000000 0.199000 0.209000 600 41 1.000000 0.051000 0.051000 1.200000 0.030000 0.036000
1517321791335616954	200 39 0.900000 0.024000 0.021000 1300 36 1.000000 0.172000 0.180000 600 40 1.000000 0.051000 0.051000 1.200000 0.023000 0.027000
1517321791847960454	200 41 0.900000 0.012000 0.010000 1300 37 1.000000 0.868000 0.904000 600 41 1.000000 0.051000 0.051000 1.200000 0.032000 0.038000
1517321792357211788	200 41 0.900000 0.019000 0.017000 1300 37 1.000000 0.929000 0.968000 600 42 1.000000 0.051000 0.051000 1.200000 0.038000 0.045000
1517321792875732246	200 38 0.900000 0.025000 0.022000 1300 36 1.000000 0.953000 0.993000 600 41 1.000000 0.051000 0.051000 1.200000 0.048000 0.057000
1517321793392163705	200 36 0.900000 0.020000 0.018000 1300 36 1.000000 0.175000 0.183000 600 40 1.000000 0.051000 0.051000 1.200000 0.029000 0.035000
