#Timestamp	CPU(0) Frequency(MHz)	CPU(0) Temperature(C)	A7 Voltage(V)	A7 Current(A)	A7 Power(W)	CPU(4) Frequency(MHz)	CPU(4) Temperature(C)	A15 Voltage(V)	A15 Current(A)	A15 Power(W)	GPU Frequency(MHz)	GPU Temperature(C)	GPU Voltage(V)	GPU Current(A)	GPU Power(W)	RAM Voltage(V)	RAM Current(A)	RAM Power(W)
1559812860227556659	900 35 1.000000 0.104000 0.110000 1100 32 1.000000 0.350000 0.350000 600 37 1.000000 0.051000 0.051000 1.200000 0.053000 0.064000
1559812860737391118	900 36 1.000000 0.077000 0.081000 1100 33 0.900000 0.659000 0.653000 600 37 1.000000 0.050000 0.050000 1.200000 0.049000 0.059000
1559812861247357076	900 37 1.000000 0.041000 0.043000 1100 33 0.900000 0.658000 0.652000 600 38 1.000000 0.050000 0.050000 1.200000 0.045000 0.054000
1559812861757148368	900 37 1.000000 0.044000 0.046000 1100 33 0.900000 0.632000 0.626000 600 37 1.000000 0.051000 0.051000 1.200000 0.045000 0.054000
1559812862268894493	900 37 1.000000 0.041000 0.043000 1100 34 0.900000 0.616000 0.611000 600 38 1.000000 0.051000 0.051000 1.200000 0.029000 0.035000
1559812862778808201	900 38 1.000000 0.066000 0.070000 1100 34 0.900000 0.618000 0.612000 600 38 1.000000 0.050000 0.050000 1.200000 0.044000 0.053000
1559812863288627327	900 38 1.000000 0.043000 0.045000 1100 34 0.900000 0.618000 0.612000 600 38 1.000000 0.051000 0.051000 1.200000 0.029000 0.035000
1559812863798709993	900 38 1.000000 0.041000 0.043000 1100 34 0.900000 0.618000 0.612000 600 38 1.000000 0.051000 0.051000 1.200000 0.028000 0.033000
1559812864316816285	900 38 1.000000 0.040000 0.042000 1100 34 0.900000 0.616000 0.610000 600 38 1.000000 0.051000 0.051000 1.200000 0.028000 0.033000
1559812864830934660	900 38 1.000000 0.066000 0.070000 1100 34 0.900000 0.634000 0.628000 600 38 1.000000 0.050000 0.050000 1.200000 0.048000 0.058000
1559812865340660452	900 38 1.000000 0.040000 0.042000 1100 34 0.900000 0.620000 0.614000 600 38 1.000000 0.051000 0.051000 1.200000 0.027000 0.032000
1559812865850584285	900 38 1.000000 0.059000 0.062000 1100 34 0.900000 0.618000 0.612000 600 38 1.000000 0.051000 0.051000 1.200000 0.030000 0.036000
1559812866360382660	900 38 1.000000 0.039000 0.041000 1100 34 0.900000 0.616000 0.610000 600 38 1.000000 0.051000 0.051000 1.200000 0.029000 0.035000
1559812866870379952	900 38 1.000000 0.060000 0.063000 1100 34 0.900000 0.625000 0.619000 600 38 1.000000 0.051000 0.051000 1.200000 0.042000 0.050000
1559812867380247660	900 38 1.000000 0.043000 0.045000 1100 34 0.900000 0.618000 0.612000 600 38 1.000000 0.050000 0.050000 1.200000 0.028000 0.033000
1559812867890135285	900 38 1.000000 0.040000 0.042000 1100 34 0.900000 0.620000 0.614000 600 38 1.000000 0.051000 0.051000 1.200000 0.028000 0.033000
1559812868399963077	900 38 1.000000 0.064000 0.068000 1100 34 0.900000 0.623000 0.617000 600 38 1.000000 0.051000 0.051000 1.200000 0.034000 0.041000
1559812868909768661	900 38 1.000000 0.041000 0.043000 1100 34 0.900000 0.615000 0.609000 600 38 1.000000 0.050000 0.050000 1.200000 0.028000 0.033000
1559812869419698119	900 38 1.000000 0.068000 0.072000 1100 34 0.900000 0.632000 0.626000 600 38 1.000000 0.051000 0.051000 1.200000 0.042000 0.050000
1559812869929549786	900 38 1.000000 0.043000 0.045000 1100 34 0.900000 0.618000 0.612000 600 38 1.000000 0.051000 0.051000 1.200000 0.030000 0.036000
1559812870439424494	900 38 1.000000 0.041000 0.043000 1100 34 0.900000 0.626000 0.620000 600 38 1.000000 0.050000 0.050000 1.200000 0.031000 0.037000
1559812870962411119	900 38 1.000000 0.043000 0.045000 1100 34 0.900000 0.616000 0.610000 600 38 1.000000 0.051000 0.051000 1.200000 0.028000 0.033000
1559812871475174161	900 38 1.000000 0.068000 0.072000 1100 34 0.900000 0.634000 0.628000 600 38 1.000000 0.051000 0.051000 1.200000 0.049000 0.059000
1559812871985120911	900 38 1.000000 0.040000 0.042000 1100 34 0.900000 0.618000 0.612000 600 38 1.000000 0.051000 0.051000 1.200000 0.028000 0.033000
1559812872494917328	900 38 1.000000 0.040000 0.042000 1100 34 0.900000 0.623000 0.617000 600 38 1.000000 0.051000 0.051000 1.200000 0.028000 0.033000
1559812873004635244	900 38 1.000000 0.041000 0.043000 1100 34 0.900000 0.618000 0.612000 600 38 1.000000 0.051000 0.051000 1.200000 0.028000 0.033000
1559812873514686786	900 38 1.000000 0.056000 0.059000 1100 34 0.900000 0.628000 0.622000 600 38 1.000000 0.051000 0.051000 1.200000 0.046000 0.055000
1559812874024645619	900 38 1.000000 0.043000 0.045000 1100 34 0.900000 0.615000 0.609000 600 38 1.000000 0.051000 0.051000 1.200000 0.027000 0.032000
1559812874534578911	900 38 1.000000 0.045000 0.047000 1100 34 0.900000 0.617000 0.611000 600 38 1.000000 0.051000 0.051000 1.200000 0.027000 0.032000
1559812875044423620	900 38 1.000000 0.040000 0.042000 1100 34 0.900000 0.619000 0.613000 600 38 1.000000 0.051000 0.051000 1.200000 0.028000 0.033000
1559812875554378411	900 38 1.000000 0.055000 0.058000 1100 34 0.900000 0.621000 0.615000 600 38 1.000000 0.051000 0.051000 1.200000 0.038000 0.045000
1559812876087639161	900 38 1.000000 0.040000 0.042000 1100 34 0.900000 0.615000 0.609000 600 38 1.000000 0.051000 0.051000 1.200000 0.028000 0.033000
1559812876597516578	900 38 1.000000 0.040000 0.042000 1100 34 0.900000 0.616000 0.610000 600 38 1.000000 0.051000 0.051000 1.200000 0.027000 0.032000
1559812877107398786	900 38 1.000000 0.043000 0.045000 1100 34 0.900000 0.617000 0.611000 600 38 1.000000 0.051000 0.051000 1.200000 0.028000 0.033000
1559812877629962620	900 38 1.000000 0.041000 0.043000 1100 34 0.900000 0.619000 0.613000 600 38 1.000000 0.051000 0.051000 1.200000 0.029000 0.035000
1559812878172663537	900 38 1.000000 0.070000 0.074000 1100 34 0.900000 0.637000 0.631000 600 38 1.000000 0.051000 0.051000 1.200000 0.046000 0.055000
1559812878682675953	900 38 1.000000 0.056000 0.059000 1100 34 0.900000 0.621000 0.615000 600 38 1.000000 0.051000 0.051000 1.200000 0.034000 0.041000
1559812879192381287	900 38 1.000000 0.042000 0.044000 1100 34 0.900000 0.617000 0.611000 600 38 1.000000 0.051000 0.051000 1.200000 0.029000 0.035000
1559812879703680703	900 38 1.000000 0.043000 0.045000 1100 34 0.900000 0.618000 0.612000 600 38 1.000000 0.051000 0.051000 1.200000 0.029000 0.035000
1559812880236713870	900 38 1.000000 0.055000 0.058000 1100 35 0.900000 0.632000 0.626000 600 38 1.000000 0.051000 0.051000 1.200000 0.047000 0.056000
1559812880746980620	900 38 1.000000 0.060000 0.063000 1100 35 0.900000 0.623000 0.617000 600 38 1.000000 0.051000 0.051000 1.200000 0.035000 0.042000
1559812881256729329	900 38 1.000000 0.042000 0.044000 1100 34 0.900000 0.615000 0.609000 600 38 1.000000 0.051000 0.051000 1.200000 0.028000 0.033000
1559812881766717829	900 38 1.000000 0.043000 0.045000 1100 35 0.900000 0.618000 0.612000 600 38 1.000000 0.051000 0.051000 1.200000 0.029000 0.035000
1559812882280573162	900 38 1.000000 0.055000 0.058000 1100 35 0.900000 0.625000 0.619000 600 38 1.000000 0.051000 0.051000 1.200000 0.040000 0.048000
1559812882794937912	900 38 1.000000 0.061000 0.064000 1100 34 0.900000 0.623000 0.617000 600 38 1.000000 0.051000 0.051000 1.200000 0.032000 0.038000
1559812883304783412	900 38 1.000000 0.040000 0.042000 1100 34 0.900000 0.615000 0.609000 600 38 1.000000 0.051000 0.051000 1.200000 0.026000 0.031000
1559812883814631829	900 38 1.000000 0.040000 0.042000 1100 34 0.900000 0.615000 0.609000 600 38 1.000000 0.051000 0.051000 1.200000 0.028000 0.033000
1559812884324663621	900 38 1.000000 0.054000 0.057000 1100 34 0.900000 0.617000 0.611000 600 39 1.000000 0.051000 0.051000 1.200000 0.032000 0.038000
1559812884834729287	900 38 1.000000 0.040000 0.042000 1100 35 0.900000 0.623000 0.617000 600 38 1.000000 0.051000 0.051000 1.200000 0.028000 0.033000
1559812885344474287	900 38 1.000000 0.040000 0.042000 1100 34 0.900000 0.617000 0.611000 600 38 1.000000 0.051000 0.051000 1.200000 0.028000 0.033000
1559812885854461746	900 38 1.000000 0.041000 0.043000 1100 34 0.900000 0.615000 0.609000 600 39 1.000000 0.051000 0.051000 1.200000 0.028000 0.033000
1559812886377649288	900 38 1.000000 0.043000 0.045000 1100 34 0.900000 0.615000 0.609000 600 38 1.000000 0.051000 0.051000 1.200000 0.027000 0.032000
1559812886892505663	900 38 1.000000 0.089000 0.094000 1100 35 0.900000 0.626000 0.620000 600 39 1.000000 0.051000 0.051000 1.200000 0.034000 0.041000
1559812887402670663	900 38 1.000000 0.040000 0.042000 1100 34 0.900000 0.618000 0.612000 600 38 1.000000 0.051000 0.051000 1.200000 0.028000 0.033000
1559812887912414371	900 38 1.000000 0.043000 0.045000 1100 35 0.900000 0.618000 0.612000 600 39 1.000000 0.051000 0.051000 1.200000 0.029000 0.035000
1559812888422299913	900 38 1.000000 0.041000 0.043000 1100 35 0.900000 0.616000 0.610000 600 38 1.000000 0.051000 0.051000 1.200000 0.028000 0.033000
1559812888932098955	900 38 1.000000 0.046000 0.048000 1100 35 0.900000 0.621000 0.615000 600 39 1.000000 0.051000 0.051000 1.200000 0.037000 0.044000
1559812889442020038	900 38 1.000000 0.043000 0.045000 1100 35 0.900000 0.619000 0.613000 600 38 1.000000 0.051000 0.051000 1.200000 0.029000 0.035000
1559812889951943371	900 38 1.000000 0.040000 0.042000 1100 34 0.900000 0.618000 0.612000 600 38 1.000000 0.051000 0.051000 1.200000 0.028000 0.033000
1559812890461921746	900 38 1.000000 0.040000 0.042000 1100 34 0.900000 0.616000 0.610000 600 38 1.000000 0.051000 0.051000 1.200000 0.026000 0.031000
1559812890984837163	900 38 1.000000 0.058000 0.061000 1100 35 0.900000 0.621000 0.615000 600 39 1.000000 0.051000 0.051000 1.200000 0.034000 0.041000
1559812891499737038	900 38 1.000000 0.040000 0.042000 1100 35 0.900000 0.621000 0.615000 600 38 1.000000 0.051000 0.051000 1.200000 0.028000 0.033000
1559812892009831788	900 38 1.000000 0.044000 0.046000 1100 35 0.900000 0.618000 0.612000 600 38 1.000000 0.051000 0.051000 1.200000 0.028000 0.033000
1559812892519529413	900 38 1.000000 0.041000 0.043000 1100 34 0.900000 0.617000 0.611000 600 38 1.000000 0.051000 0.051000 1.200000 0.026000 0.031000
1559812893029433497	900 38 1.000000 0.041000 0.043000 1100 35 0.900000 0.621000 0.615000 600 39 1.000000 0.051000 0.051000 1.200000 0.032000 0.038000
1559812893539322247	900 38 1.000000 0.088000 0.093000 1100 35 0.900000 0.628000 0.622000 600 38 1.000000 0.051000 0.051000 1.200000 0.035000 0.042000
1559812894049211705	900 38 1.000000 0.041000 0.043000 1100 35 0.900000 0.617000 0.611000 600 39 1.000000 0.051000 0.051000 1.200000 0.027000 0.032000
1559812894559082455	900 38 1.000000 0.040000 0.042000 1100 34 0.900000 0.618000 0.612000 600 38 1.000000 0.051000 0.051000 1.200000 0.029000 0.035000
1559812895068897289	900 38 1.000000 0.060000 0.063000 1100 35 0.900000 0.623000 0.617000 600 38 1.000000 0.051000 0.051000 1.200000 0.033000 0.039000
1559812895578893539	900 38 1.000000 0.041000 0.043000 1100 35 0.900000 0.616000 0.610000 600 39 1.000000 0.051000 0.051000 1.200000 0.034000 0.041000
1559812896088524955	900 38 1.000000 0.043000 0.045000 1100 35 0.900000 0.617000 0.611000 600 38 1.000000 0.051000 0.051000 1.200000 0.043000 0.051000
1559812896598594372	900 38 1.000000 0.042000 0.044000 1100 35 0.900000 0.619000 0.613000 600 39 1.000000 0.051000 0.051000 1.200000 0.029000 0.035000
1559812897108375622	900 38 1.000000 0.041000 0.043000 1100 35 0.900000 0.618000 0.612000 600 38 1.000000 0.051000 0.051000 1.200000 0.026000 0.031000
1559812897630193372	900 38 1.000000 0.040000 0.042000 1100 35 0.900000 0.616000 0.610000 600 39 1.000000 0.051000 0.051000 1.200000 0.034000 0.041000
1559812898144996247	900 38 1.000000 0.040000 0.042000 1100 35 0.900000 0.616000 0.610000 600 39 1.000000 0.051000 0.051000 1.200000 0.049000 0.059000
1559812898655031039	900 38 1.000000 0.042000 0.044000 1100 35 0.900000 0.617000 0.611000 600 39 1.000000 0.051000 0.051000 1.200000 0.027000 0.032000
1559812899164998997	900 38 1.000000 0.043000 0.045000 1100 35 0.900000 0.617000 0.611000 600 39 1.000000 0.051000 0.051000 1.200000 0.027000 0.032000
1559812899680538581	900 38 1.000000 0.045000 0.047000 1100 35 0.900000 0.617000 0.611000 600 39 1.000000 0.051000 0.051000 1.200000 0.033000 0.039000
1559812900192848373	900 38 1.000000 0.083000 0.088000 1100 35 0.900000 0.625000 0.619000 600 39 1.000000 0.051000 0.051000 1.200000 0.042000 0.050000
1559812900702827623	900 38 1.000000 0.042000 0.044000 1100 35 0.900000 0.615000 0.609000 600 38 1.000000 0.051000 0.051000 1.200000 0.028000 0.033000
1559812901212661373	900 38 1.000000 0.043000 0.045000 1100 35 0.900000 0.621000 0.615000 600 39 1.000000 0.051000 0.051000 1.200000 0.027000 0.032000
1559812901722606164	900 38 1.000000 0.040000 0.042000 1100 35 0.900000 0.619000 0.613000 600 38 1.000000 0.050000 0.050000 1.200000 0.027000 0.032000
1559812902232367831	900 39 1.000000 0.081000 0.086000 1100 35 0.900000 0.619000 0.613000 600 39 1.000000 0.051000 0.051000 1.200000 0.035000 0.042000
1559812902742268540	900 38 1.000000 0.040000 0.042000 1100 35 0.900000 0.615000 0.609000 600 39 1.000000 0.051000 0.051000 1.200000 0.030000 0.036000
1559812903252047873	900 38 1.000000 0.048000 0.051000 1100 35 0.900000 0.618000 0.612000 600 39 1.000000 0.051000 0.051000 1.200000 0.029000 0.035000
1559812903762093831	900 38 1.000000 0.040000 0.042000 1100 35 0.900000 0.619000 0.613000 600 39 1.000000 0.051000 0.051000 1.200000 0.028000 0.033000
1559812904284775748	900 37 1.000000 0.042000 0.044000 1100 35 0.900000 0.618000 0.612000 600 39 1.000000 0.051000 0.051000 1.200000 0.027000 0.032000
1559812904799974040	900 40 1.000000 0.082000 0.087000 1100 36 0.900000 0.598000 0.592000 600 44 1.000000 0.051000 0.051000 1.200000 0.095000 0.115000
1559812905325634498	900 42 1.000000 0.241000 0.253000 1100 37 0.900000 2.002000 1.997000 600 46 1.000000 0.051000 0.051000 1.200000 0.101000 0.122000
1559812905838435623	900 43 1.000000 0.259000 0.271000 1100 37 0.900000 2.000000 1.994000 600 47 1.000000 0.051000 0.051000 1.200000 0.105000 0.127000
1559812906364751790	900 43 1.000000 0.242000 0.254000 1100 38 0.900000 2.004000 1.999000 600 48 1.000000 0.051000 0.051000 1.200000 0.101000 0.122000
1559812906883901790	900 44 1.000000 0.265000 0.278000 1100 39 0.900000 2.000000 1.996000 600 49 1.000000 0.051000 0.051000 1.200000 0.109000 0.132000
1559812907420205040	900 44 1.000000 0.244000 0.256000 1100 39 0.900000 2.008000 2.003000 600 49 1.000000 0.052000 0.052000 1.200000 0.101000 0.122000
1559812907935966665	900 45 1.000000 0.262000 0.274000 1100 39 0.900000 2.005000 1.998000 600 49 1.000000 0.051000 0.051000 1.200000 0.105000 0.127000
1559812908448758457	900 45 1.000000 0.244000 0.256000 1100 40 0.900000 2.009000 2.004000 600 50 1.000000 0.051000 0.051000 1.200000 0.101000 0.122000
1559812908961817415	900 45 1.000000 0.259000 0.271000 1100 40 0.900000 2.010000 2.005000 600 50 1.000000 0.051000 0.051000 1.200000 0.101000 0.122000
1559812909498072624	900 45 1.000000 0.243000 0.255000 1100 40 0.900000 2.010000 2.005000 600 50 1.000000 0.052000 0.052000 1.200000 0.101000 0.122000
1559812910010874624	900 46 1.000000 0.248000 0.260000 1100 40 0.900000 2.009000 2.004000 600 50 1.000000 0.052000 0.052000 1.200000 0.106000 0.128000
1559812910524040832	900 46 1.000000 0.241000 0.253000 1100 41 0.900000 2.011000 2.006000 600 51 1.000000 0.051000 0.051000 1.200000 0.101000 0.122000
1559812911051758582	900 46 1.000000 0.242000 0.254000 1100 41 0.900000 2.013000 2.008000 600 51 1.000000 0.052000 0.052000 1.200000 0.101000 0.122000
1559812911594164166	900 46 1.000000 0.274000 0.287000 1100 41 0.900000 2.006000 1.999000 600 51 1.000000 0.052000 0.052000 1.200000 0.109000 0.132000
1559812912107330957	900 46 1.000000 0.261000 0.274000 1100 41 0.900000 2.010000 2.005000 600 51 1.000000 0.052000 0.052000 1.200000 0.105000 0.127000
1559812912619907582	900 46 1.000000 0.243000 0.255000 1100 41 0.900000 2.014000 2.009000 600 51 1.000000 0.052000 0.052000 1.200000 0.101000 0.122000
1559812913147294916	900 47 1.000000 0.243000 0.255000 1100 41 0.900000 2.013000 2.006000 600 51 1.000000 0.052000 0.052000 1.200000 0.101000 0.122000
1559812913681622624	900 47 1.000000 0.279000 0.292000 1100 41 0.900000 2.004000 1.997000 600 51 1.000000 0.052000 0.052000 1.200000 0.115000 0.139000
1559812914205916916	900 47 1.000000 0.262000 0.274000 1100 42 0.900000 2.011000 2.006000 600 52 1.000000 0.052000 0.052000 1.200000 0.105000 0.127000
1559812914718857499	900 47 1.000000 0.243000 0.255000 1100 42 0.900000 2.015000 2.008000 600 52 1.000000 0.052000 0.052000 1.200000 0.101000 0.122000
1559812915231723333	900 47 1.000000 0.242000 0.254000 1100 42 0.900000 2.017000 2.012000 600 52 1.000000 0.052000 0.052000 1.200000 0.101000 0.122000
1559812915744526749	900 47 1.000000 0.269000 0.281000 1100 42 0.900000 2.013000 2.008000 600 52 1.000000 0.052000 0.052000 1.200000 0.108000 0.130000
1559812916257224291	900 47 1.000000 0.245000 0.257000 1100 42 0.900000 2.013000 2.008000 600 52 1.000000 0.052000 0.052000 1.200000 0.104000 0.126000
1559812916770217583	900 47 1.000000 0.242000 0.253000 1100 42 0.900000 2.015000 2.010000 600 52 1.000000 0.052000 0.052000 1.200000 0.100000 0.121000
1559812917283048958	900 47 1.000000 0.243000 0.255000 1100 42 0.900000 2.016000 2.011000 600 52 1.000000 0.052000 0.052000 1.200000 0.100000 0.121000
1559812917806870666	900 47 1.000000 0.244000 0.256000 1100 42 0.900000 2.016000 2.011000 600 52 1.000000 0.052000 0.052000 1.200000 0.100000 0.121000
1559812918325896333	900 47 1.000000 0.281000 0.294000 1100 42 0.900000 2.012000 2.007000 600 52 1.000000 0.052000 0.052000 1.200000 0.106000 0.128000
1559812918839067458	900 48 1.000000 0.246000 0.258000 1100 42 0.900000 2.017000 2.012000 600 52 1.000000 0.052000 0.052000 1.200000 0.102000 0.123000
1559812919352703042	900 48 1.000000 0.243000 0.254000 1100 42 0.900000 2.016000 2.011000 600 52 1.000000 0.052000 0.052000 1.200000 0.101000 0.122000
1559812919865527708	900 48 1.000000 0.243000 0.254000 1100 42 0.900000 2.015000 2.010000 600 52 1.000000 0.052000 0.052000 1.200000 0.101000 0.122000
1559812920378680083	900 48 1.000000 0.244000 0.255000 1100 42 0.900000 2.014000 2.009000 600 52 1.000000 0.052000 0.052000 1.200000 0.104000 0.126000
1559812920891997708	900 48 1.000000 0.257000 0.269000 1100 42 0.900000 2.011000 2.006000 600 52 1.000000 0.052000 0.052000 1.200000 0.106000 0.128000
1559812921404612375	900 48 1.000000 0.245000 0.256000 1100 43 0.900000 2.016000 2.011000 600 53 1.000000 0.052000 0.052000 1.200000 0.102000 0.123000
1559812921917197625	900 48 1.000000 0.246000 0.257000 1100 43 0.900000 2.016000 2.011000 600 53 1.000000 0.052000 0.052000 1.200000 0.102000 0.123000
1559812922445668709	900 48 1.000000 0.245000 0.257000 1100 43 0.900000 2.018000 2.013000 600 53 1.000000 0.052000 0.052000 1.200000 0.101000 0.122000
1559812922958423625	900 48 1.000000 0.265000 0.277000 1100 43 0.900000 2.006000 2.001000 600 53 1.000000 0.052000 0.052000 1.200000 0.113000 0.136000
1559812923471591375	900 48 1.000000 0.243000 0.255000 1100 43 0.900000 2.016000 2.011000 600 53 1.000000 0.052000 0.052000 1.200000 0.101000 0.122000
1559812923984396625	900 48 1.000000 0.246000 0.258000 1100 43 0.900000 2.016000 2.011000 600 53 1.000000 0.052000 0.052000 1.200000 0.101000 0.122000
1559812924497071792	900 48 1.000000 0.244000 0.256000 1100 43 0.900000 2.016000 2.011000 600 53 1.000000 0.052000 0.052000 1.200000 0.101000 0.122000
1559812925009975292	900 48 1.000000 0.251000 0.263000 1100 43 0.900000 2.010000 2.005000 600 53 1.000000 0.052000 0.052000 1.200000 0.111000 0.134000
1559812925523110126	900 48 1.000000 0.244000 0.256000 1100 43 0.900000 2.017000 2.012000 600 53 1.000000 0.052000 0.052000 1.200000 0.101000 0.122000
1559812926036175001	900 48 1.000000 0.245000 0.257000 1100 43 0.900000 2.017000 2.012000 600 53 1.000000 0.052000 0.052000 1.200000 0.101000 0.122000
1559812926549000709	900 48 1.000000 0.246000 0.258000 1100 43 0.900000 2.017000 2.012000 600 53 1.000000 0.052000 0.052000 1.200000 0.101000 0.122000
1559812927074414917	900 48 1.000000 0.243000 0.255000 1100 43 0.900000 2.016000 2.011000 600 53 1.000000 0.052000 0.052000 1.200000 0.104000 0.125000
1559812927593952834	900 48 1.000000 0.242000 0.254000 1100 43 0.900000 2.017000 2.012000 600 53 1.000000 0.052000 0.052000 1.200000 0.101000 0.122000
1559812928107063334	900 48 1.000000 0.243000 0.255000 1100 43 0.900000 2.019000 2.014000 600 53 1.000000 0.052000 0.052000 1.200000 0.101000 0.122000
1559812928619917251	900 48 1.000000 0.253000 0.265000 1100 43 0.900000 2.018000 2.013000 600 53 1.000000 0.052000 0.052000 1.200000 0.103000 0.124000
1559812929143056543	900 48 1.000000 0.242000 0.254000 1100 43 0.900000 2.017000 2.012000 600 53 1.000000 0.052000 0.052000 1.200000 0.101000 0.122000
1559812929656125626	900 48 1.000000 0.272000 0.285000 1100 43 0.900000 2.010000 2.005000 600 53 1.000000 0.053000 0.053000 1.200000 0.107000 0.129000
1559812930168906459	900 48 1.000000 0.245000 0.257000 1100 43 0.900000 2.017000 2.012000 600 53 1.000000 0.052000 0.052000 1.200000 0.101000 0.122000
1559812930681640043	900 48 1.000000 0.245000 0.257000 1100 43 0.900000 2.015000 2.010000 600 53 1.000000 0.052000 0.052000 1.200000 0.104000 0.125000
1559812931194324793	900 49 1.000000 0.264000 0.276000 1100 43 0.900000 2.015000 2.010000 600 53 1.000000 0.052000 0.052000 1.200000 0.103000 0.124000
1559812931707710418	900 49 1.000000 0.244000 0.256000 1100 43 0.900000 2.015000 2.010000 600 53 1.000000 0.052000 0.052000 1.200000 0.104000 0.125000
1559812932220320835	900 49 1.000000 0.262000 0.275000 1100 43 0.900000 2.014000 2.009000 600 53 1.000000 0.052000 0.052000 1.200000 0.103000 0.124000
1559812932747352126	900 49 1.000000 0.245000 0.256000 1100 43 0.900000 2.016000 2.011000 600 53 1.000000 0.052000 0.052000 1.200000 0.103000 0.124000
1559812933260069460	900 49 1.000000 0.265000 0.277000 1100 43 0.900000 2.015000 2.010000 600 54 1.000000 0.052000 0.052000 1.200000 0.103000 0.124000
1559812933788506918	900 49 1.000000 0.245000 0.256000 1100 43 0.900000 2.016000 2.011000 600 53 1.000000 0.052000 0.052000 1.200000 0.103000 0.124000
1559812934307559293	900 49 1.000000 0.272000 0.285000 1100 43 0.900000 2.010000 2.005000 600 54 1.000000 0.052000 0.052000 1.200000 0.110000 0.133000
1559812934845111043	900 49 1.000000 0.244000 0.255000 1100 44 0.900000 2.017000 2.012000 600 54 1.000000 0.052000 0.052000 1.200000 0.101000 0.122000
1559812935358718085	900 49 1.000000 0.245000 0.257000 1100 44 0.900000 2.017000 2.012000 600 54 1.000000 0.052000 0.052000 1.200000 0.101000 0.122000
1559812935871711127	900 49 1.000000 0.243000 0.255000 1100 44 0.900000 2.016000 2.011000 600 54 1.000000 0.052000 0.052000 1.200000 0.102000 0.123000
1559812936384333335	900 49 1.000000 0.244000 0.256000 1100 43 0.900000 2.008000 2.003000 600 54 1.000000 0.052000 0.052000 1.200000 0.116000 0.140000
1559812936898384002	900 45 1.000000 0.245000 0.257000 1100 43 0.900000 2.019000 2.014000 600 50 1.000000 0.053000 0.053000 1.200000 0.102000 0.123000
1559812937408091794	900 42 1.000000 0.068000 0.072000 1100 41 1.000000 0.133000 0.133000 600 46 1.000000 0.052000 0.052000 1.200000 0.037000 0.044000
