#Timestamp	CPU(0) Frequency(MHz)	CPU(0) Temperature(C)	A7 Voltage(V)	A7 Current(A)	A7 Power(W)	CPU(4) Frequency(MHz)	CPU(4) Temperature(C)	A15 Voltage(V)	A15 Current(A)	A15 Power(W)	GPU Frequency(MHz)	GPU Temperature(C)	GPU Voltage(V)	GPU Current(A)	GPU Power(W)	RAM Voltage(V)	RAM Current(A)	RAM Power(W)
1559807863256985814	300 32 0.900000 0.039000 0.035000 1400 31 0.900000 0.106000 0.103000 600 36 1.000000 0.050000 0.050000 1.200000 0.044000 0.053000
1559807863780578564	300 37 0.900000 0.025000 0.022000 1400 32 1.000000 0.186000 0.200000 600 37 1.000000 0.050000 0.050000 1.200000 0.040000 0.048000
1559807864307849439	300 37 0.900000 0.016000 0.014000 1400 33 1.000000 0.871000 0.930000 600 37 1.000000 0.051000 0.051000 1.200000 0.056000 0.067000
1559807864832462856	300 39 0.900000 0.044000 0.040000 1400 33 1.000000 0.866000 0.924000 600 37 1.000000 0.050000 0.050000 1.200000 0.070000 0.084000
1559807865356069147	300 39 0.900000 0.016000 0.014000 1400 33 1.000000 0.851000 0.908000 600 38 1.000000 0.051000 0.051000 1.200000 0.030000 0.036000
1559807865879610731	300 39 0.900000 0.016000 0.014000 1400 34 1.000000 0.855000 0.913000 600 37 1.000000 0.050000 0.050000 1.200000 0.031000 0.037000
1559807866402839023	300 39 0.900000 0.016000 0.014000 1400 34 1.000000 0.852000 0.909000 600 38 1.000000 0.051000 0.051000 1.200000 0.030000 0.036000
1559807866928574023	300 39 0.900000 0.023000 0.021000 1400 34 1.000000 0.854000 0.912000 600 38 1.000000 0.050000 0.050000 1.200000 0.033000 0.039000
1559807867451677939	300 39 0.900000 0.038000 0.034000 1400 34 1.000000 0.872000 0.931000 600 38 1.000000 0.051000 0.051000 1.200000 0.047000 0.056000
1559807867975221773	300 40 0.900000 0.016000 0.014000 1400 34 1.000000 0.854000 0.912000 600 38 1.000000 0.051000 0.051000 1.200000 0.030000 0.036000
1559807868498454148	300 39 0.900000 0.017000 0.015000 1400 34 1.000000 0.856000 0.914000 600 38 1.000000 0.051000 0.051000 1.200000 0.030000 0.036000
1559807869022041231	300 40 0.900000 0.023000 0.021000 1400 34 1.000000 0.852000 0.909000 600 38 1.000000 0.051000 0.051000 1.200000 0.030000 0.036000
1559807869545385565	300 40 0.900000 0.033000 0.030000 1400 34 1.000000 0.857000 0.915000 600 38 1.000000 0.051000 0.051000 1.200000 0.036000 0.043000
1559807870068563398	300 40 0.900000 0.015000 0.013000 1400 34 1.000000 0.863000 0.921000 600 38 1.000000 0.051000 0.051000 1.200000 0.037000 0.044000
1559807870592288231	300 40 0.900000 0.015000 0.013000 1400 34 1.000000 0.857000 0.915000 600 38 1.000000 0.051000 0.051000 1.200000 0.031000 0.037000
1559807871116001565	300 40 0.900000 0.021000 0.019000 1400 34 1.000000 0.852000 0.909000 600 38 1.000000 0.051000 0.051000 1.200000 0.029000 0.035000
1559807871641749940	300 40 0.900000 0.026000 0.023000 1400 34 1.000000 0.855000 0.913000 600 38 1.000000 0.051000 0.051000 1.200000 0.032000 0.038000
1559807872167211440	300 40 0.900000 0.035000 0.032000 1400 34 1.000000 0.870000 0.929000 600 38 1.000000 0.051000 0.051000 1.200000 0.046000 0.055000
1559807872690878565	300 40 0.900000 0.016000 0.014000 1400 34 1.000000 0.852000 0.909000 600 38 1.000000 0.051000 0.051000 1.200000 0.030000 0.036000
1559807873214852773	300 40 0.900000 0.017000 0.015000 1400 34 1.000000 0.856000 0.914000 600 38 1.000000 0.051000 0.051000 1.200000 0.031000 0.037000
1559807873739290357	300 40 0.900000 0.026000 0.023000 1400 34 1.000000 0.859000 0.917000 600 38 1.000000 0.051000 0.051000 1.200000 0.036000 0.043000
1559807874267312023	300 40 0.900000 0.017000 0.015000 1400 34 1.000000 0.852000 0.909000 600 38 1.000000 0.050000 0.050000 1.200000 0.029000 0.035000
1559807874791405982	300 40 0.900000 0.034000 0.031000 1400 34 1.000000 0.873000 0.932000 600 38 1.000000 0.051000 0.051000 1.200000 0.046000 0.055000
1559807875315594899	300 40 0.900000 0.016000 0.014000 1400 34 1.000000 0.855000 0.913000 600 38 1.000000 0.050000 0.050000 1.200000 0.031000 0.037000
1559807875839205815	300 40 0.900000 0.025000 0.022000 1400 34 1.000000 0.866000 0.924000 600 38 1.000000 0.051000 0.051000 1.200000 0.039000 0.047000
1559807876362922732	300 40 0.900000 0.015000 0.013000 1400 34 1.000000 0.851000 0.908000 600 38 1.000000 0.051000 0.051000 1.200000 0.030000 0.036000
1559807876891018732	300 40 0.900000 0.035000 0.032000 1400 34 1.000000 0.860000 0.918000 600 38 1.000000 0.051000 0.051000 1.200000 0.039000 0.047000
1559807877415302982	300 40 0.900000 0.014000 0.012000 1400 34 1.000000 0.859000 0.917000 600 38 1.000000 0.051000 0.051000 1.200000 0.033000 0.039000
1559807877938728774	300 40 0.900000 0.022000 0.020000 1400 34 1.000000 0.863000 0.921000 600 38 1.000000 0.051000 0.051000 1.200000 0.037000 0.044000
1559807878462220274	300 40 0.900000 0.017000 0.015000 1400 34 1.000000 0.855000 0.913000 600 38 1.000000 0.051000 0.051000 1.200000 0.031000 0.037000
1559807878988288274	300 40 0.900000 0.016000 0.014000 1400 34 1.000000 0.851000 0.908000 600 38 1.000000 0.051000 0.051000 1.200000 0.031000 0.037000
1559807879512385899	300 40 0.900000 0.039000 0.035000 1400 34 1.000000 0.871000 0.930000 600 38 1.000000 0.051000 0.051000 1.200000 0.046000 0.055000
1559807880036177232	300 40 0.900000 0.021000 0.019000 1400 34 1.000000 0.857000 0.915000 600 38 1.000000 0.051000 0.051000 1.200000 0.033000 0.039000
1559807880560410358	300 40 0.900000 0.017000 0.015000 1400 34 1.000000 0.855000 0.913000 600 38 1.000000 0.051000 0.051000 1.200000 0.028000 0.033000
1559807881084036858	300 40 0.900000 0.015000 0.013000 1400 34 1.000000 0.852000 0.909000 600 38 1.000000 0.051000 0.051000 1.200000 0.029000 0.035000
1559807881609088399	300 40 0.900000 0.015000 0.013000 1400 34 1.000000 0.848000 0.905000 600 38 1.000000 0.051000 0.051000 1.200000 0.028000 0.033000
1559807882132730066	300 40 0.900000 0.034000 0.031000 1400 34 1.000000 0.871000 0.930000 600 38 1.000000 0.051000 0.051000 1.200000 0.044000 0.053000
1559807882656156108	300 40 0.900000 0.015000 0.013000 1400 34 1.000000 0.852000 0.909000 600 38 1.000000 0.051000 0.051000 1.200000 0.029000 0.035000
1559807883179482025	300 40 0.900000 0.015000 0.013000 1400 34 1.000000 0.852000 0.909000 600 38 1.000000 0.051000 0.051000 1.200000 0.027000 0.032000
1559807883702779733	300 40 0.900000 0.015000 0.013000 1400 34 1.000000 0.850000 0.907000 600 38 1.000000 0.050000 0.050000 1.200000 0.028000 0.033000
1559807884228466275	300 40 0.900000 0.019000 0.017000 1400 34 1.000000 0.863000 0.921000 600 38 1.000000 0.051000 0.051000 1.200000 0.040000 0.048000
1559807884752980566	300 40 0.900000 0.041000 0.037000 1400 34 1.000000 0.858000 0.916000 600 38 1.000000 0.051000 0.051000 1.200000 0.032000 0.038000
1559807885276312816	300 40 0.900000 0.017000 0.015000 1400 34 1.000000 0.852000 0.909000 600 38 1.000000 0.051000 0.051000 1.200000 0.028000 0.033000
1559807885800035233	300 40 0.900000 0.016000 0.014000 1400 34 1.000000 0.850000 0.907000 600 38 1.000000 0.051000 0.051000 1.200000 0.029000 0.035000
1559807886324465150	300 40 0.900000 0.016000 0.014000 1400 34 1.000000 0.848000 0.905000 600 38 1.000000 0.051000 0.051000 1.200000 0.029000 0.035000
1559807886849416483	300 40 0.900000 0.050000 0.045000 1400 34 1.000000 0.880000 0.939000 600 38 1.000000 0.051000 0.051000 1.200000 0.049000 0.059000
1559807887373043108	300 40 0.900000 0.015000 0.013000 1400 34 1.000000 0.851000 0.908000 600 38 1.000000 0.051000 0.051000 1.200000 0.029000 0.035000
1559807887896453233	300 40 0.900000 0.014000 0.012000 1400 34 1.000000 0.854000 0.912000 600 38 1.000000 0.051000 0.051000 1.200000 0.029000 0.035000
1559807888419891358	300 40 0.900000 0.015000 0.013000 1400 34 1.000000 0.851000 0.908000 600 38 1.000000 0.051000 0.051000 1.200000 0.030000 0.036000
1559807888945523275	300 40 0.900000 0.034000 0.031000 1400 34 1.000000 0.857000 0.915000 600 38 1.000000 0.051000 0.051000 1.200000 0.037000 0.044000
1559807889469446567	300 40 0.900000 0.027000 0.024000 1400 34 1.000000 0.868000 0.927000 600 38 1.000000 0.051000 0.051000 1.200000 0.040000 0.048000
1559807889992797484	300 40 0.900000 0.014000 0.012000 1400 34 1.000000 0.852000 0.909000 600 38 1.000000 0.051000 0.051000 1.200000 0.029000 0.035000
1559807890516172234	300 40 0.900000 0.016000 0.014000 1400 34 1.000000 0.852000 0.909000 600 38 1.000000 0.050000 0.050000 1.200000 0.028000 0.033000
1559807891039999359	300 40 0.900000 0.017000 0.015000 1400 34 1.000000 0.856000 0.914000 600 38 1.000000 0.051000 0.051000 1.200000 0.034000 0.041000
1559807891564978317	300 40 0.900000 0.020000 0.018000 1400 34 1.000000 0.863000 0.921000 600 38 1.000000 0.051000 0.051000 1.200000 0.042000 0.050000
1559807892089417151	300 40 0.900000 0.026000 0.023000 1400 34 1.000000 0.851000 0.908000 600 38 1.000000 0.051000 0.051000 1.200000 0.029000 0.035000
1559807892612741026	300 40 0.900000 0.015000 0.013000 1400 34 1.000000 0.852000 0.909000 600 38 1.000000 0.051000 0.051000 1.200000 0.029000 0.035000
1559807893136659151	300 40 0.900000 0.014000 0.012000 1400 34 1.000000 0.853000 0.911000 600 38 1.000000 0.051000 0.051000 1.200000 0.032000 0.038000
1559807893660511526	300 40 0.900000 0.016000 0.014000 1400 34 1.000000 0.848000 0.905000 600 38 1.000000 0.051000 0.051000 1.200000 0.027000 0.032000
1559807894184506359	300 40 0.900000 0.036000 0.032000 1400 34 1.000000 0.870000 0.929000 600 38 1.000000 0.051000 0.051000 1.200000 0.046000 0.055000
1559807894708003609	300 40 0.900000 0.014000 0.012000 1400 34 1.000000 0.852000 0.909000 600 38 1.000000 0.051000 0.051000 1.200000 0.028000 0.033000
1559807895232027609	300 39 0.900000 0.014000 0.012000 1400 34 1.000000 0.853000 0.911000 600 38 1.000000 0.051000 0.051000 1.200000 0.028000 0.033000
1559807895755708109	300 40 0.900000 0.014000 0.012000 1400 34 1.000000 0.850000 0.907000 600 38 1.000000 0.051000 0.051000 1.200000 0.029000 0.035000
1559807896281720526	300 39 0.900000 0.016000 0.014000 1400 34 1.000000 0.851000 0.908000 600 38 1.000000 0.051000 0.051000 1.200000 0.029000 0.035000
1559807896805787401	300 40 0.900000 0.021000 0.019000 1400 34 1.000000 0.874000 0.933000 600 38 1.000000 0.051000 0.051000 1.200000 0.047000 0.056000
1559807897328954860	300 40 0.900000 0.024000 0.021000 1400 34 1.000000 0.853000 0.911000 600 38 1.000000 0.051000 0.051000 1.200000 0.029000 0.035000
1559807897852256151	300 39 0.900000 0.017000 0.015000 1400 34 1.000000 0.862000 0.920000 600 38 1.000000 0.051000 0.051000 1.200000 0.037000 0.044000
1559807898377536485	300 39 0.900000 0.017000 0.015000 1400 34 1.000000 0.789000 0.842000 600 43 1.000000 0.051000 0.051000 1.200000 0.091000 0.110000
1559807898904401901	300 42 0.900000 0.035000 0.032000 1400 35 1.000000 2.823000 3.043000 600 48 1.000000 0.051000 0.051000 1.200000 0.101000 0.122000
1559807899430065026	300 44 0.900000 0.059000 0.053000 1400 36 1.000000 2.821000 3.038000 600 50 1.000000 0.051000 0.051000 1.200000 0.107000 0.129000
1559807899955256027	300 45 0.900000 0.040000 0.036000 1400 37 1.000000 2.829000 3.046000 600 51 1.000000 0.051000 0.051000 1.200000 0.102000 0.123000
1559807900480742277	300 46 0.900000 0.040000 0.036000 1400 38 1.000000 2.836000 3.057000 600 52 1.000000 0.051000 0.051000 1.200000 0.101000 0.122000
1559807901006091193	300 46 0.900000 0.041000 0.037000 1400 38 1.000000 2.838000 3.059000 600 53 1.000000 0.051000 0.051000 1.200000 0.101000 0.122000
1559807901535673527	300 47 0.900000 0.046000 0.041000 1400 39 1.000000 2.840000 3.061000 600 53 1.000000 0.051000 0.051000 1.200000 0.101000 0.122000
1559807902061392027	300 47 0.900000 0.050000 0.045000 1400 39 1.000000 2.836000 3.057000 600 54 1.000000 0.051000 0.051000 1.200000 0.109000 0.132000
1559807902586467985	300 48 0.900000 0.041000 0.037000 1400 40 1.000000 2.841000 3.062000 600 54 1.000000 0.051000 0.051000 1.200000 0.105000 0.127000
1559807903111387610	300 48 0.900000 0.040000 0.036000 1400 40 1.000000 2.846000 3.067000 600 55 1.000000 0.051000 0.051000 1.200000 0.101000 0.122000
1559807903643062569	300 48 0.900000 0.041000 0.037000 1400 40 1.000000 2.848000 3.070000 600 55 1.000000 0.051000 0.051000 1.200000 0.101000 0.122000
1559807904169828944	300 48 0.900000 0.046000 0.041000 1400 41 1.000000 2.849000 3.071000 600 55 1.000000 0.052000 0.052000 1.200000 0.102000 0.123000
1559807904695287194	300 49 0.900000 0.066000 0.060000 1400 41 1.000000 2.840000 3.061000 600 55 1.000000 0.052000 0.052000 1.200000 0.109000 0.132000
1559807905220567485	300 49 0.900000 0.042000 0.038000 1400 41 1.000000 2.849000 3.071000 600 56 1.000000 0.052000 0.052000 1.200000 0.101000 0.122000
1559807905746087902	300 49 0.900000 0.040000 0.036000 1400 41 1.000000 2.849000 3.071000 600 56 1.000000 0.052000 0.052000 1.200000 0.101000 0.122000
1559807906279477361	300 49 0.900000 0.041000 0.037000 1400 41 1.000000 2.847000 3.069000 600 56 1.000000 0.052000 0.052000 1.200000 0.101000 0.122000
1559807906805509069	300 49 0.900000 0.071000 0.064000 1400 42 1.000000 2.845000 3.066000 600 56 1.000000 0.052000 0.052000 1.200000 0.108000 0.130000
1559807907331084777	300 50 0.900000 0.041000 0.037000 1400 42 1.000000 2.850000 3.072000 600 56 1.000000 0.051000 0.051000 1.200000 0.102000 0.123000
1559807907856323944	300 50 0.900000 0.041000 0.037000 1400 42 1.000000 2.852000 3.074000 600 56 1.000000 0.052000 0.052000 1.200000 0.101000 0.122000
1559807908381924944	300 50 0.900000 0.041000 0.037000 1400 42 1.000000 2.853000 3.075000 600 57 1.000000 0.052000 0.052000 1.200000 0.101000 0.122000
1559807908908487194	300 50 0.900000 0.051000 0.046000 1400 42 1.000000 2.855000 3.077000 600 57 1.000000 0.052000 0.052000 1.200000 0.101000 0.122000
1559807909436564903	300 50 0.900000 0.068000 0.062000 1400 42 1.000000 2.847000 3.069000 600 57 1.000000 0.052000 0.052000 1.200000 0.109000 0.132000
1559807909962362361	300 50 0.900000 0.040000 0.036000 1400 42 1.000000 2.855000 3.077000 600 57 1.000000 0.052000 0.052000 1.200000 0.101000 0.122000
1559807910487634194	300 50 0.900000 0.042000 0.038000 1400 42 1.000000 2.853000 3.075000 600 57 1.000000 0.052000 0.052000 1.200000 0.101000 0.122000
1559807911012908736	300 50 0.900000 0.041000 0.037000 1400 42 1.000000 2.846000 3.067000 600 57 1.000000 0.052000 0.052000 1.200000 0.100000 0.121000
1559807911539847236	300 50 0.900000 0.051000 0.046000 1400 43 1.000000 2.852000 3.074000 600 57 1.000000 0.052000 0.052000 1.200000 0.103000 0.124000
1559807912065851361	300 50 0.900000 0.057000 0.052000 1400 43 1.000000 2.848000 3.070000 600 57 1.000000 0.052000 0.052000 1.200000 0.107000 0.129000
1559807912591321278	300 50 0.900000 0.041000 0.037000 1400 43 1.000000 2.856000 3.078000 600 57 1.000000 0.052000 0.052000 1.200000 0.101000 0.122000
1559807913116203195	300 51 0.900000 0.041000 0.037000 1400 43 1.000000 2.857000 3.079000 600 57 1.000000 0.052000 0.052000 1.200000 0.101000 0.122000
1559807913643266861	300 51 0.900000 0.052000 0.047000 1400 43 1.000000 2.847000 3.069000 600 57 1.000000 0.053000 0.053000 1.200000 0.104000 0.126000
1559807914169372653	300 51 0.900000 0.061000 0.055000 1400 43 1.000000 2.856000 3.078000 600 58 1.000000 0.052000 0.052000 1.200000 0.104000 0.126000
1559807914695105028	300 51 0.900000 0.041000 0.037000 1400 43 1.000000 2.851000 3.073000 600 58 1.000000 0.052000 0.052000 1.200000 0.103000 0.124000
1559807915221176737	300 51 0.900000 0.040000 0.036000 1400 43 1.000000 2.858000 3.080000 600 58 1.000000 0.052000 0.052000 1.200000 0.101000 0.122000
1559807915746638112	300 51 0.900000 0.045000 0.041000 1400 43 1.000000 2.856000 3.078000 600 58 1.000000 0.052000 0.052000 1.200000 0.103000 0.124000
1559807916272646695	300 51 0.900000 0.042000 0.038000 1400 43 1.000000 2.857000 3.079000 600 58 1.000000 0.053000 0.053000 1.200000 0.100000 0.121000
1559807916800342154	300 51 0.900000 0.060000 0.054000 1400 43 1.000000 2.851000 3.073000 600 58 1.000000 0.052000 0.052000 1.200000 0.108000 0.130000
1559807917325626154	300 51 0.900000 0.041000 0.037000 1400 43 1.000000 2.859000 3.082000 600 58 1.000000 0.052000 0.052000 1.200000 0.101000 0.122000
1559807917851286279	300 51 0.900000 0.046000 0.042000 1400 43 1.000000 2.853000 3.075000 600 58 1.000000 0.053000 0.053000 1.200000 0.102000 0.123000
1559807918376171904	300 51 0.900000 0.041000 0.037000 1400 43 1.000000 2.860000 3.083000 600 58 1.000000 0.053000 0.053000 1.200000 0.101000 0.122000
1559807918905909570	300 51 0.900000 0.042000 0.038000 1400 44 1.000000 2.861000 3.084000 600 58 1.000000 0.052000 0.052000 1.200000 0.101000 0.122000
1559807919431515904	300 51 0.900000 0.060000 0.054000 1400 44 1.000000 2.852000 3.074000 600 58 1.000000 0.052000 0.052000 1.200000 0.108000 0.130000
1559807919956698196	300 51 0.900000 0.044000 0.040000 1400 44 1.000000 2.859000 3.082000 600 58 1.000000 0.052000 0.052000 1.200000 0.100000 0.121000
1559807920481987279	300 51 0.900000 0.041000 0.037000 1400 44 1.000000 2.858000 3.080000 600 58 1.000000 0.053000 0.053000 1.200000 0.101000 0.122000
1559807921006969112	300 51 0.900000 0.040000 0.036000 1400 44 1.000000 2.860000 3.083000 600 58 1.000000 0.052000 0.052000 1.200000 0.101000 0.122000
1559807921533666154	300 51 0.900000 0.056000 0.051000 1400 44 1.000000 2.855000 3.077000 600 58 1.000000 0.052000 0.052000 1.200000 0.104000 0.126000
1559807922060674571	300 52 0.900000 0.061000 0.055000 1400 44 1.000000 2.856000 3.078000 600 58 1.000000 0.052000 0.052000 1.200000 0.104000 0.126000
1559807922585961738	300 51 0.900000 0.057000 0.052000 1400 44 1.000000 2.858000 3.080000 600 58 1.000000 0.052000 0.052000 1.200000 0.102000 0.123000
1559807923111149821	300 52 0.900000 0.041000 0.037000 1400 44 1.000000 2.861000 3.084000 600 58 1.000000 0.052000 0.052000 1.200000 0.101000 0.122000
1559807923640880696	300 52 0.900000 0.042000 0.038000 1400 44 1.000000 2.862000 3.085000 600 59 1.000000 0.052000 0.052000 1.200000 0.101000 0.122000
1559807924170194446	300 52 0.900000 0.057000 0.052000 1400 44 1.000000 2.853000 3.075000 600 59 1.000000 0.053000 0.053000 1.200000 0.108000 0.130000
1559807924695851238	300 52 0.900000 0.059000 0.053000 1400 44 1.000000 2.857000 3.079000 600 59 1.000000 0.053000 0.053000 1.200000 0.103000 0.124000
1559807925221134863	300 52 0.900000 0.042000 0.038000 1400 44 1.000000 2.861000 3.084000 600 59 1.000000 0.053000 0.053000 1.200000 0.101000 0.122000
1559807925746439863	300 52 0.900000 0.042000 0.038000 1400 44 1.000000 2.849000 3.071000 600 59 1.000000 0.052000 0.052000 1.200000 0.100000 0.121000
1559807926273100821	300 52 0.900000 0.042000 0.038000 1400 44 1.000000 2.860000 3.083000 600 59 1.000000 0.053000 0.053000 1.200000 0.101000 0.122000
1559807926798952946	300 52 0.900000 0.077000 0.070000 1400 44 1.000000 2.852000 3.074000 600 59 1.000000 0.053000 0.053000 1.200000 0.112000 0.135000
1559807927324227905	300 52 0.900000 0.040000 0.036000 1400 44 1.000000 2.861000 3.084000 600 59 1.000000 0.053000 0.053000 1.200000 0.101000 0.122000
1559807927849075863	300 52 0.900000 0.040000 0.036000 1400 44 1.000000 2.859000 3.082000 600 59 1.000000 0.053000 0.053000 1.200000 0.101000 0.122000
1559807928374497280	300 52 0.900000 0.041000 0.037000 1400 44 1.000000 2.861000 3.084000 600 59 1.000000 0.053000 0.053000 1.200000 0.101000 0.122000
1559807928900970530	300 52 0.900000 0.042000 0.038000 1400 44 1.000000 2.859000 3.082000 600 59 1.000000 0.053000 0.053000 1.200000 0.104000 0.126000
1559807929427076988	300 52 0.900000 0.063000 0.057000 1400 44 1.000000 2.855000 3.077000 600 59 1.000000 0.053000 0.053000 1.200000 0.106000 0.128000
1559807929952533738	300 52 0.900000 0.041000 0.037000 1400 44 1.000000 2.862000 3.085000 600 59 1.000000 0.053000 0.053000 1.200000 0.100000 0.121000
1559807930478358697	300 52 0.900000 0.041000 0.037000 1400 44 1.000000 2.864000 3.087000 600 59 1.000000 0.053000 0.053000 1.200000 0.100000 0.121000
1559807931003597864	300 46 0.900000 0.042000 0.038000 1400 43 1.000000 2.863000 3.086000 600 52 1.000000 0.053000 0.053000 1.200000 0.100000 0.121000
1559807931532512030	300 43 0.900000 0.035000 0.032000 1400 41 1.000000 0.213000 0.229000 600 48 1.000000 0.052000 0.052000 1.200000 0.039000 0.047000
