#Timestamp	CPU(0) Frequency(MHz)	CPU(0) Temperature(C)	A7 Voltage(V)	A7 Current(A)	A7 Power(W)	CPU(4) Frequency(MHz)	CPU(4) Temperature(C)	A15 Voltage(V)	A15 Current(A)	A15 Power(W)	GPU Frequency(MHz)	GPU Temperature(C)	GPU Voltage(V)	GPU Current(A)	GPU Power(W)	RAM Voltage(V)	RAM Current(A)	RAM Power(W)
1553298699623314722	1200 38 0.900000 0.029000 0.027000 1100 35 1.000000 0.657000 0.676000 600 39 1.000000 0.051000 0.051000 1.200000 0.051000 0.061000
1553298700130794138	1200 39 1.100000 0.060000 0.070000 1100 35 0.900000 0.696000 0.689000 600 40 1.000000 0.051000 0.051000 1.200000 0.036000 0.043000
1553298700637934597	1200 39 1.100000 0.060000 0.070000 1100 35 0.900000 0.859000 0.851000 600 40 1.000000 0.051000 0.051000 1.200000 0.031000 0.037000
1553298701145201222	1200 39 1.100000 0.060000 0.070000 1100 35 0.900000 1.059000 1.050000 600 41 1.000000 0.051000 0.051000 1.200000 0.028000 0.033000
1553298701652379555	1200 40 1.100000 0.084000 0.098000 1100 36 0.900000 1.237000 1.228000 600 41 1.000000 0.051000 0.051000 1.200000 0.039000 0.047000
1553298702159369097	1200 40 1.100000 0.061000 0.071000 1100 36 0.900000 1.058000 1.049000 600 41 1.000000 0.051000 0.051000 1.200000 0.028000 0.033000
1553298702666400555	1200 40 1.100000 0.061000 0.071000 1100 36 0.900000 1.046000 1.037000 600 41 1.000000 0.051000 0.051000 1.200000 0.027000 0.032000
1553298703173412597	1200 40 1.100000 0.061000 0.071000 1100 36 0.900000 1.045000 1.036000 600 41 1.000000 0.051000 0.051000 1.200000 0.028000 0.033000
1553298703680688805	1200 40 1.100000 0.098000 0.114000 1100 36 0.900000 1.196000 1.187000 600 41 1.000000 0.051000 0.051000 1.200000 0.041000 0.049000
1553298704187675347	1200 40 1.100000 0.061000 0.071000 1100 36 0.900000 1.044000 1.035000 600 41 1.000000 0.051000 0.051000 1.200000 0.028000 0.033000
1553298704694784514	1200 40 1.100000 0.061000 0.071000 1100 36 0.900000 1.046000 1.037000 600 41 1.000000 0.051000 0.051000 1.200000 0.028000 0.033000
1553298705201859181	1200 40 1.100000 0.061000 0.071000 1100 36 0.900000 1.044000 1.035000 600 41 1.000000 0.051000 0.051000 1.200000 0.028000 0.033000
1553298705708791472	1200 40 1.100000 0.068000 0.079000 1100 36 0.900000 1.284000 1.275000 600 42 1.000000 0.051000 0.051000 1.200000 0.035000 0.042000
1553298706215859306	1200 40 1.100000 0.065000 0.076000 1100 36 0.900000 1.047000 1.038000 600 41 1.000000 0.051000 0.051000 1.200000 0.028000 0.033000
1553298706722952472	1200 40 1.100000 0.063000 0.073000 1100 36 0.900000 1.064000 1.055000 600 41 1.000000 0.051000 0.051000 1.200000 0.028000 0.033000
1553298707229961264	1200 40 1.100000 0.061000 0.071000 1100 36 0.900000 1.050000 1.041000 600 41 1.000000 0.051000 0.051000 1.200000 0.029000 0.035000
1553298707736815181	1200 41 1.100000 0.062000 0.072000 1100 36 0.900000 1.128000 1.118000 600 42 1.000000 0.051000 0.051000 1.200000 0.028000 0.033000
1553298708243930306	1200 40 1.100000 0.062000 0.072000 1100 36 0.900000 1.045000 1.036000 600 41 1.000000 0.051000 0.051000 1.200000 0.033000 0.039000
1553298708751033889	1200 40 1.100000 0.062000 0.072000 1100 36 0.900000 1.046000 1.037000 600 41 1.000000 0.051000 0.051000 1.200000 0.029000 0.035000
1553298709258078556	1200 40 1.100000 0.061000 0.071000 1100 36 0.900000 1.048000 1.039000 600 41 1.000000 0.051000 0.051000 1.200000 0.028000 0.033000
1553298709768893890	1200 40 1.100000 0.063000 0.073000 1100 36 0.900000 1.119000 1.110000 600 42 1.000000 0.051000 0.051000 1.200000 0.029000 0.035000
1553298710277431306	1200 41 1.100000 0.062000 0.072000 1100 36 0.900000 1.047000 1.038000 600 41 1.000000 0.051000 0.051000 1.200000 0.036000 0.043000
1553298710785030765	1200 41 1.100000 0.061000 0.071000 1100 36 0.900000 1.045000 1.036000 600 41 1.000000 0.051000 0.051000 1.200000 0.030000 0.036000
1553298711292380765	1200 40 1.100000 0.062000 0.072000 1100 36 0.900000 0.801000 0.793000 600 41 1.000000 0.051000 0.051000 1.200000 0.030000 0.036000
1553298711799773223	1200 40 1.100000 0.061000 0.071000 1100 36 0.900000 0.795000 0.787000 600 41 1.000000 0.051000 0.051000 1.200000 0.027000 0.032000
1553298712307095265	1200 40 1.100000 0.075000 0.087000 1100 36 0.900000 0.721000 0.714000 600 41 1.000000 0.051000 0.051000 1.200000 0.043000 0.051000
1553298712814812723	1200 40 1.100000 0.060000 0.070000 1100 36 0.900000 0.736000 0.729000 600 40 1.000000 0.051000 0.051000 1.200000 0.028000 0.033000
1553298713322281432	1200 40 1.100000 0.060000 0.070000 1100 36 0.900000 0.723000 0.716000 600 40 1.000000 0.051000 0.051000 1.200000 0.029000 0.035000
1553298713829516057	1200 40 1.100000 0.060000 0.070000 1100 36 0.900000 0.725000 0.718000 600 40 1.000000 0.051000 0.051000 1.200000 0.029000 0.035000
1553298714336752140	1200 40 1.100000 0.063000 0.073000 1100 36 0.900000 0.875000 0.867000 600 40 1.000000 0.051000 0.051000 1.200000 0.029000 0.035000
1553298714844234557	1200 40 1.100000 0.060000 0.070000 1100 36 0.900000 0.738000 0.731000 600 40 1.000000 0.051000 0.051000 1.200000 0.029000 0.035000
1553298715351633474	1200 39 1.100000 0.059000 0.069000 1100 36 0.900000 0.732000 0.725000 600 40 1.000000 0.051000 0.051000 1.200000 0.028000 0.033000
1553298715858357099	1200 39 1.100000 0.060000 0.070000 1100 35 0.900000 0.752000 0.745000 600 40 1.000000 0.051000 0.051000 1.200000 0.029000 0.035000
1553298716365541474	1200 39 1.100000 0.069000 0.080000 1100 36 0.900000 0.749000 0.742000 600 40 1.000000 0.051000 0.051000 1.200000 0.027000 0.032000
1553298716872839640	1200 39 1.100000 0.060000 0.070000 1100 35 0.900000 0.742000 0.735000 600 40 1.000000 0.051000 0.051000 1.200000 0.028000 0.033000
1553298717380183224	1200 39 1.100000 0.060000 0.070000 1100 35 0.900000 0.744000 0.737000 600 40 1.000000 0.051000 0.051000 1.200000 0.028000 0.033000
1553298717887234932	1200 36 1.100000 0.060000 0.070000 1100 35 0.900000 0.735000 0.728000 600 40 1.000000 0.051000 0.051000 1.200000 0.033000 0.039000
1553298718393987474	1200 35 1.100000 0.061000 0.071000 1100 34 1.000000 0.178000 0.178000 600 39 1.000000 0.051000 0.051000 1.200000 0.029000 0.035000
