#Timestamp	CPU(0) Frequency(MHz)	CPU(0) Temperature(C)	A7 Voltage(V)	A7 Current(A)	A7 Power(W)	CPU(4) Frequency(MHz)	CPU(4) Temperature(C)	A15 Voltage(V)	A15 Current(A)	A15 Power(W)	GPU Frequency(MHz)	GPU Temperature(C)	GPU Voltage(V)	GPU Current(A)	GPU Power(W)	RAM Voltage(V)	RAM Current(A)	RAM Power(W)
1553306120204021690	200 37 0.900000 0.032000 0.029000 1200 33 1.000000 0.532000 0.543000 600 37 1.000000 0.050000 0.050000 1.200000 0.054000 0.065000
1553306120716266356	200 37 0.900000 0.016000 0.014000 1200 33 1.000000 0.800000 0.813000 600 38 1.000000 0.051000 0.051000 1.200000 0.046000 0.055000
1553306121227989815	200 39 0.900000 0.027000 0.024000 1200 34 1.000000 1.525000 1.557000 600 43 1.000000 0.051000 0.051000 1.200000 0.034000 0.041000
1553306121739736356	200 39 0.900000 0.038000 0.034000 1200 34 1.000000 1.639000 1.673000 600 44 1.000000 0.051000 0.051000 1.200000 0.031000 0.037000
1553306122270402731	200 40 0.900000 0.044000 0.040000 1200 35 1.000000 1.700000 1.737000 600 45 1.000000 0.051000 0.051000 1.200000 0.041000 0.049000
1553306122784777857	200 40 0.900000 0.043000 0.039000 1200 35 1.000000 1.681000 1.716000 600 46 1.000000 0.051000 0.051000 1.200000 0.036000 0.043000
1553306123296696190	200 41 0.900000 0.038000 0.034000 1200 36 1.000000 1.642000 1.676000 600 46 1.000000 0.051000 0.051000 1.200000 0.031000 0.037000
1553306123808158815	200 41 0.900000 0.038000 0.034000 1200 36 1.000000 1.643000 1.677000 600 46 1.000000 0.051000 0.051000 1.200000 0.031000 0.037000
1553306124339402232	200 41 0.900000 0.038000 0.034000 1200 36 1.000000 1.643000 1.677000 600 46 1.000000 0.051000 0.051000 1.200000 0.032000 0.038000
1553306124853082940	200 39 0.900000 0.054000 0.049000 1200 36 1.000000 1.690000 1.727000 600 44 1.000000 0.051000 0.051000 1.200000 0.046000 0.055000
1553306125364047357	200 36 0.900000 0.048000 0.043000 1200 35 1.000000 0.434000 0.444000 600 40 1.000000 0.051000 0.051000 1.200000 0.039000 0.047000
1553306125874740440	200 35 0.900000 0.038000 0.034000 1200 34 1.000000 0.147000 0.150000 600 39 1.000000 0.051000 0.051000 1.200000 0.025000 0.030000
1553306126385253440	200 35 0.900000 0.039000 0.035000 1200 34 1.000000 0.145000 0.148000 600 38 1.000000 0.051000 0.051000 1.200000 0.024000 0.028000
1553306126896276774	200 34 0.900000 0.038000 0.034000 1200 34 1.000000 0.150000 0.153000 600 38 1.000000 0.051000 0.051000 1.200000 0.025000 0.030000
1553306127406941107	200 34 0.900000 0.048000 0.043000 1200 33 1.000000 0.302000 0.309000 600 38 1.000000 0.051000 0.051000 1.200000 0.045000 0.054000
1553306127917549815	200 34 0.900000 0.038000 0.034000 1200 33 1.000000 0.144000 0.147000 600 38 1.000000 0.051000 0.051000 1.200000 0.025000 0.030000
1553306128428436024	200 33 0.900000 0.038000 0.034000 1200 33 1.000000 0.133000 0.136000 600 37 1.000000 0.051000 0.051000 1.200000 0.025000 0.030000
1553306128938856774	200 33 0.900000 0.038000 0.034000 1200 33 1.000000 0.135000 0.138000 600 37 1.000000 0.051000 0.051000 1.200000 0.024000 0.028000
1553306129447137357	200 33 0.900000 0.038000 0.034000 1200 32 1.000000 0.148000 0.151000 600 37 1.000000 0.050000 0.050000 1.200000 0.024000 0.028000
1553306129957710732	200 33 0.900000 0.051000 0.046000 1200 32 1.000000 0.216000 0.221000 600 37 1.000000 0.050000 0.050000 1.200000 0.039000 0.047000
1553306130468638399	200 33 0.900000 0.038000 0.034000 1200 32 1.000000 0.130000 0.133000 600 37 1.000000 0.051000 0.051000 1.200000 0.024000 0.028000
1553306130979159399	200 33 0.900000 0.038000 0.034000 1200 32 1.000000 0.132000 0.135000 600 37 1.000000 0.051000 0.051000 1.200000 0.024000 0.028000
1553306131489473608	200 33 0.900000 0.038000 0.034000 1200 32 1.000000 0.131000 0.134000 600 36 1.000000 0.051000 0.051000 1.200000 0.024000 0.028000
1553306131999929191	200 33 0.900000 0.042000 0.038000 1200 32 1.000000 0.256000 0.262000 600 37 1.000000 0.051000 0.051000 1.200000 0.044000 0.053000
1553306132510482233	200 33 0.900000 0.045000 0.041000 1200 32 1.000000 0.129000 0.132000 600 37 1.000000 0.051000 0.051000 1.200000 0.024000 0.028000
1553306133021057233	200 33 0.900000 0.038000 0.034000 1200 32 1.000000 0.132000 0.135000 600 36 1.000000 0.051000 0.051000 1.200000 0.024000 0.028000
1553306133531727441	200 33 0.900000 0.038000 0.034000 1200 32 1.000000 0.146000 0.149000 600 36 1.000000 0.050000 0.050000 1.200000 0.024000 0.028000
1553306134043026025	200 33 0.900000 0.038000 0.034000 1200 32 1.000000 0.140000 0.143000 600 36 1.000000 0.051000 0.051000 1.200000 0.024000 0.028000
1553306134574057733	200 33 0.900000 0.049000 0.044000 1200 32 1.000000 0.213000 0.218000 600 36 1.000000 0.051000 0.051000 1.200000 0.041000 0.049000
1553306135087294858	200 32 0.900000 0.048000 0.043000 1200 32 1.000000 0.164000 0.168000 600 36 1.000000 0.051000 0.051000 1.200000 0.031000 0.037000
1553306135597826233	200 33 0.900000 0.038000 0.034000 1200 32 1.000000 0.132000 0.135000 600 36 1.000000 0.051000 0.051000 1.200000 0.025000 0.030000
1553306136108366233	200 32 0.900000 0.038000 0.034000 1200 32 1.000000 0.134000 0.137000 600 36 1.000000 0.051000 0.051000 1.200000 0.024000 0.028000
1553306136619244983	200 32 0.900000 0.045000 0.041000 1200 32 1.000000 0.206000 0.211000 600 36 1.000000 0.050000 0.050000 1.200000 0.033000 0.039000
1553306137129768442	200 33 0.900000 0.049000 0.044000 1200 32 1.000000 0.254000 0.260000 600 36 1.000000 0.051000 0.051000 1.200000 0.043000 0.051000
1553306137640301400	200 32 0.900000 0.038000 0.034000 1200 31 1.000000 0.130000 0.133000 600 36 1.000000 0.050000 0.050000 1.200000 0.024000 0.028000
1553306138150697983	200 32 0.900000 0.038000 0.034000 1200 31 1.000000 0.131000 0.134000 600 36 1.000000 0.051000 0.051000 1.200000 0.023000 0.027000
1553306138661707358	200 32 0.900000 0.038000 0.034000 1200 32 1.000000 0.187000 0.191000 600 36 1.000000 0.050000 0.050000 1.200000 0.033000 0.039000
1553306139179917900	200 32 0.900000 0.038000 0.034000 1200 32 1.000000 0.143000 0.146000 600 36 1.000000 0.051000 0.051000 1.200000 0.024000 0.028000
1553306139692800859	200 32 0.900000 0.050000 0.045000 1200 32 1.000000 0.229000 0.234000 600 36 1.000000 0.050000 0.050000 1.200000 0.039000 0.047000
1553306140203481234	200 32 0.900000 0.038000 0.034000 1200 31 1.000000 0.143000 0.146000 600 36 1.000000 0.050000 0.050000 1.200000 0.024000 0.028000
1553306140714439067	200 32 0.900000 0.037000 0.033000 1200 31 1.000000 0.141000 0.144000 600 36 1.000000 0.050000 0.050000 1.200000 0.029000 0.035000
1553306141225360692	200 32 0.900000 0.038000 0.034000 1200 31 1.000000 0.157000 0.161000 600 36 1.000000 0.050000 0.050000 1.200000 0.024000 0.028000
1553306141736714067	200 32 0.900000 0.040000 0.036000 1200 31 1.000000 0.149000 0.152000 600 36 1.000000 0.051000 0.051000 1.200000 0.035000 0.042000
1553306142247484651	200 32 0.900000 0.049000 0.044000 1200 31 1.000000 0.229000 0.234000 600 36 1.000000 0.050000 0.050000 1.200000 0.041000 0.049000
1553306142758171026	200 32 0.900000 0.038000 0.034000 1200 31 1.000000 0.137000 0.140000 600 36 1.000000 0.051000 0.051000 1.200000 0.024000 0.028000
1553306143268785109	200 32 0.900000 0.046000 0.042000 1200 31 1.000000 0.199000 0.204000 600 36 1.000000 0.050000 0.050000 1.200000 0.028000 0.033000
1553306143779324234	200 32 0.900000 0.038000 0.034000 1200 31 1.000000 0.152000 0.155000 600 36 1.000000 0.050000 0.050000 1.200000 0.024000 0.028000
1553306144289897276	200 32 0.900000 0.043000 0.039000 1200 31 1.000000 0.142000 0.145000 600 36 1.000000 0.050000 0.050000 1.200000 0.024000 0.028000
1553306144801049359	200 32 0.900000 0.050000 0.045000 1200 31 1.000000 0.247000 0.253000 600 36 1.000000 0.050000 0.050000 1.200000 0.044000 0.053000
1553306145312045651	200 32 0.900000 0.038000 0.034000 1200 31 1.000000 0.150000 0.153000 600 36 1.000000 0.050000 0.050000 1.200000 0.025000 0.030000
1553306145822975151	200 32 0.900000 0.038000 0.034000 1200 31 1.000000 0.151000 0.154000 600 36 1.000000 0.050000 0.050000 1.200000 0.025000 0.030000
1553306146333428068	200 32 0.900000 0.038000 0.034000 1200 31 1.000000 0.148000 0.151000 600 36 1.000000 0.051000 0.051000 1.200000 0.025000 0.030000
1553306146871874193	200 32 0.900000 0.042000 0.038000 1200 31 1.000000 0.152000 0.155000 600 36 1.000000 0.050000 0.050000 1.200000 0.026000 0.031000
1553306147385077234	200 32 0.900000 0.045000 0.041000 1200 31 1.000000 0.196000 0.200000 600 36 1.000000 0.050000 0.050000 1.200000 0.038000 0.045000
1553306147896435235	200 32 0.900000 0.038000 0.034000 1200 31 1.000000 0.161000 0.165000 600 36 1.000000 0.050000 0.050000 1.200000 0.026000 0.031000
1553306148406988610	200 32 0.900000 0.037000 0.033000 1200 31 1.000000 0.145000 0.148000 600 36 1.000000 0.050000 0.050000 1.200000 0.025000 0.030000
1553306148917389985	200 32 0.900000 0.038000 0.034000 1200 31 1.000000 0.136000 0.139000 600 36 1.000000 0.051000 0.051000 1.200000 0.024000 0.028000
1553306149433001568	200 32 0.900000 0.051000 0.046000 1200 31 1.000000 0.251000 0.257000 600 36 1.000000 0.050000 0.050000 1.200000 0.039000 0.047000
1553306149944274401	200 32 0.900000 0.037000 0.033000 1200 31 1.000000 0.132000 0.135000 600 36 1.000000 0.050000 0.050000 1.200000 0.027000 0.032000
1553306150454650235	200 32 0.900000 0.037000 0.033000 1200 31 1.000000 0.134000 0.137000 600 36 1.000000 0.050000 0.050000 1.200000 0.025000 0.030000
1553306150965032152	200 32 0.900000 0.037000 0.033000 1200 31 1.000000 0.130000 0.133000 600 36 1.000000 0.050000 0.050000 1.200000 0.024000 0.028000
1553306151474265985	200 32 0.900000 0.037000 0.033000 1200 31 1.000000 0.142000 0.145000 600 36 1.000000 0.050000 0.050000 1.200000 0.024000 0.028000
1553306151984996235	200 32 0.900000 0.045000 0.041000 1200 31 1.000000 0.265000 0.271000 600 36 1.000000 0.050000 0.050000 1.200000 0.038000 0.045000
1553306152495449152	200 32 0.900000 0.038000 0.034000 1200 31 1.000000 0.149000 0.152000 600 36 1.000000 0.050000 0.050000 1.200000 0.025000 0.030000
1553306153005776860	200 32 0.900000 0.038000 0.034000 1200 31 1.000000 0.157000 0.161000 600 36 1.000000 0.050000 0.050000 1.200000 0.026000 0.031000
1553306153516511985	200 32 0.900000 0.038000 0.034000 1200 31 1.000000 0.140000 0.143000 600 36 1.000000 0.051000 0.051000 1.200000 0.024000 0.028000
1553306154046604444	200 32 0.900000 0.039000 0.035000 1200 31 1.000000 0.143000 0.146000 600 36 1.000000 0.050000 0.050000 1.200000 0.024000 0.028000
1553306154560832527	200 32 0.900000 0.050000 0.045000 1200 31 1.000000 0.245000 0.251000 600 36 1.000000 0.050000 0.050000 1.200000 0.044000 0.053000
1553306155071882860	200 32 0.900000 0.038000 0.034000 1200 31 1.000000 0.146000 0.149000 600 36 1.000000 0.050000 0.050000 1.200000 0.024000 0.028000
1553306155582337819	200 32 0.900000 0.038000 0.034000 1200 31 1.000000 0.155000 0.159000 600 35 1.000000 0.050000 0.050000 1.200000 0.025000 0.030000
1553306156093234652	200 32 0.900000 0.039000 0.035000 1200 31 1.000000 0.144000 0.147000 600 36 1.000000 0.051000 0.051000 1.200000 0.025000 0.030000
1553306156604660527	200 32 0.900000 0.046000 0.042000 1200 31 1.000000 0.180000 0.184000 600 36 1.000000 0.050000 0.050000 1.200000 0.030000 0.036000
1553306157115739527	200 32 0.900000 0.040000 0.036000 1200 31 1.000000 0.211000 0.216000 600 36 1.000000 0.051000 0.051000 1.200000 0.039000 0.047000
1553306157626602819	200 32 0.900000 0.038000 0.034000 1200 31 1.000000 0.132000 0.135000 600 35 1.000000 0.050000 0.050000 1.200000 0.025000 0.030000
1553306158137111611	200 32 0.900000 0.038000 0.034000 1200 31 1.000000 0.130000 0.133000 600 35 1.000000 0.050000 0.050000 1.200000 0.024000 0.028000
1553306158648036486	200 32 0.900000 0.042000 0.038000 1200 31 1.000000 0.146000 0.149000 600 35 1.000000 0.050000 0.050000 1.200000 0.028000 0.033000
1553306159162917986	200 32 0.900000 0.044000 0.040000 1200 31 1.000000 0.246000 0.252000 600 36 1.000000 0.050000 0.050000 1.200000 0.037000 0.044000
1553306159673409444	200 32 0.900000 0.041000 0.037000 1200 31 1.000000 0.136000 0.139000 600 36 1.000000 0.050000 0.050000 1.200000 0.029000 0.035000
1553306160184364403	200 32 0.900000 0.038000 0.034000 1200 31 1.000000 0.146000 0.149000 600 36 1.000000 0.050000 0.050000 1.200000 0.024000 0.028000
1553306160695517028	200 32 0.900000 0.042000 0.038000 1200 31 1.000000 0.201000 0.206000 600 35 1.000000 0.050000 0.050000 1.200000 0.029000 0.035000
1553306161206348986	200 32 0.900000 0.038000 0.034000 1200 31 1.000000 0.142000 0.145000 600 35 1.000000 0.050000 0.050000 1.200000 0.025000 0.030000
1553306161725806320	200 32 0.900000 0.043000 0.039000 1200 31 1.000000 0.165000 0.169000 600 36 1.000000 0.051000 0.051000 1.200000 0.030000 0.036000
1553306162243926070	200 32 0.900000 0.040000 0.036000 1200 31 1.000000 0.177000 0.181000 600 36 1.000000 0.051000 0.051000 1.200000 0.034000 0.041000
1553306162754936236	200 32 0.900000 0.043000 0.039000 1200 31 1.000000 0.158000 0.162000 600 36 1.000000 0.050000 0.050000 1.200000 0.024000 0.028000
1553306163265634570	200 32 0.900000 0.038000 0.034000 1200 31 1.000000 0.148000 0.151000 600 36 1.000000 0.050000 0.050000 1.200000 0.025000 0.030000
1553306163781799278	200 32 0.900000 0.038000 0.034000 1200 31 1.000000 0.136000 0.139000 600 35 1.000000 0.050000 0.050000 1.200000 0.025000 0.030000
1553306164292914903	200 32 0.900000 0.043000 0.039000 1200 31 1.000000 0.270000 0.276000 600 36 1.000000 0.050000 0.050000 1.200000 0.043000 0.052000
1553306164805248195	200 35 0.900000 0.039000 0.035000 1200 31 1.000000 0.131000 0.134000 600 36 1.000000 0.050000 0.050000 1.200000 0.025000 0.030000
1553306165317399487	200 36 0.900000 0.014000 0.012000 1200 32 1.000000 0.807000 0.820000 600 37 1.000000 0.050000 0.050000 1.200000 0.028000 0.033000
1553306165829754487	200 37 0.900000 0.012000 0.010000 1200 33 1.000000 0.806000 0.819000 600 37 1.000000 0.051000 0.051000 1.200000 0.027000 0.032000
1553306166343479903	200 37 0.900000 0.012000 0.010000 1200 33 1.000000 0.808000 0.821000 600 37 1.000000 0.050000 0.050000 1.200000 0.027000 0.032000
1553306166871170153	200 37 0.900000 0.024000 0.021000 1200 33 1.000000 0.870000 0.884000 600 38 1.000000 0.051000 0.051000 1.200000 0.047000 0.056000
1553306167385612612	200 38 0.900000 0.011000 0.010000 1200 33 1.000000 0.815000 0.828000 600 38 1.000000 0.051000 0.051000 1.200000 0.029000 0.035000
1553306167898107112	200 38 0.900000 0.011000 0.010000 1200 33 1.000000 0.812000 0.825000 600 38 1.000000 0.051000 0.051000 1.200000 0.026000 0.031000
1553306168409808070	200 38 0.900000 0.012000 0.010000 1200 34 1.000000 0.828000 0.842000 600 38 1.000000 0.051000 0.051000 1.200000 0.034000 0.041000
1553306168921331237	200 38 0.900000 0.020000 0.018000 1200 34 1.000000 0.858000 0.872000 600 38 1.000000 0.051000 0.051000 1.200000 0.036000 0.043000
1553306169432795320	200 38 0.900000 0.011000 0.010000 1200 34 1.000000 0.836000 0.850000 600 38 1.000000 0.051000 0.051000 1.200000 0.031000 0.037000
1553306169944815279	200 38 0.900000 0.011000 0.010000 1200 34 1.000000 0.842000 0.856000 600 38 1.000000 0.051000 0.051000 1.200000 0.027000 0.032000
1553306170456478987	200 38 0.900000 0.012000 0.010000 1200 34 1.000000 0.833000 0.847000 600 38 1.000000 0.051000 0.051000 1.200000 0.028000 0.033000
1553306170976027696	200 35 0.900000 0.012000 0.010000 1200 33 1.000000 0.834000 0.848000 600 38 1.000000 0.051000 0.051000 1.200000 0.028000 0.033000
1553306171489801737	200 34 0.900000 0.017000 0.015000 1200 33 1.000000 0.186000 0.190000 600 38 1.000000 0.051000 0.051000 1.200000 0.038000 0.045000
