#Timestamp	CPU(0) Frequency(MHz)	CPU(0) Temperature(C)	A7 Voltage(V)	A7 Current(A)	A7 Power(W)	CPU(4) Frequency(MHz)	CPU(4) Temperature(C)	A15 Voltage(V)	A15 Current(A)	A15 Power(W)	GPU Frequency(MHz)	GPU Temperature(C)	GPU Voltage(V)	GPU Current(A)	GPU Power(W)	RAM Voltage(V)	RAM Current(A)	RAM Power(W)
1517350064361644158	400 34 0.900000 0.014000 0.012000 1100 30 0.900000 0.255000 0.239000 600 38 1.000000 0.050000 0.050000 1.200000 0.037000 0.044000
1517350064869230825	400 35 0.900000 0.114000 0.103000 1100 31 0.900000 1.440000 1.432000 600 39 1.000000 0.050000 0.050000 1.200000 0.025000 0.030000
1517350065377802742	400 36 0.900000 0.114000 0.103000 1100 31 0.900000 1.452000 1.444000 600 40 1.000000 0.050000 0.050000 1.200000 0.024000 0.028000
1517350065885695575	400 37 0.900000 0.115000 0.104000 1100 32 0.900000 1.527000 1.519000 600 41 1.000000 0.050000 0.050000 1.200000 0.028000 0.033000
1517350066393141783	400 37 0.900000 0.114000 0.103000 1100 32 0.900000 1.446000 1.438000 600 42 1.000000 0.050000 0.050000 1.200000 0.024000 0.028000
1517350066900612700	400 37 0.900000 0.114000 0.103000 1100 33 0.900000 1.459000 1.451000 600 42 1.000000 0.050000 0.050000 1.200000 0.023000 0.027000
1517350067408038200	400 38 0.900000 0.115000 0.104000 1100 33 0.900000 1.444000 1.436000 600 42 1.000000 0.050000 0.050000 1.200000 0.024000 0.028000
1517350067915875992	400 38 0.900000 0.114000 0.103000 1100 33 0.900000 1.540000 1.532000 600 42 1.000000 0.051000 0.051000 1.200000 0.027000 0.032000
1517350068431107325	400 38 0.900000 0.115000 0.104000 1100 33 0.900000 1.450000 1.442000 600 43 1.000000 0.051000 0.051000 1.200000 0.024000 0.028000
1517350068942399825	400 38 0.900000 0.115000 0.104000 1100 34 0.900000 1.474000 1.466000 600 43 1.000000 0.050000 0.050000 1.200000 0.025000 0.030000
1517350069449987034	400 38 0.900000 0.114000 0.103000 1100 34 0.900000 1.445000 1.437000 600 43 1.000000 0.051000 0.051000 1.200000 0.023000 0.027000
1517350069957765825	400 39 0.900000 0.115000 0.104000 1100 34 0.900000 1.524000 1.516000 600 43 1.000000 0.051000 0.051000 1.200000 0.027000 0.032000
1517350070472255992	400 39 0.900000 0.115000 0.104000 1100 34 0.900000 1.443000 1.435000 600 43 1.000000 0.051000 0.051000 1.200000 0.023000 0.027000
1517350070983672367	400 39 0.900000 0.115000 0.104000 1100 34 0.900000 1.506000 1.498000 600 44 1.000000 0.051000 0.051000 1.200000 0.024000 0.028000
1517350071491280159	400 39 0.900000 0.115000 0.104000 1100 34 0.900000 1.446000 1.438000 600 44 1.000000 0.051000 0.051000 1.200000 0.024000 0.028000
1517350071998991076	400 39 0.900000 0.115000 0.104000 1100 35 0.900000 1.534000 1.526000 600 44 1.000000 0.051000 0.051000 1.200000 0.027000 0.032000
1517350072506735617	400 39 0.900000 0.115000 0.104000 1100 34 0.900000 1.451000 1.443000 600 44 1.000000 0.051000 0.051000 1.200000 0.023000 0.027000
1517350073014278826	400 39 0.900000 0.115000 0.104000 1100 35 0.900000 1.533000 1.525000 600 44 1.000000 0.050000 0.050000 1.200000 0.026000 0.031000
1517350073521806159	400 39 0.900000 0.115000 0.104000 1100 35 0.900000 1.455000 1.447000 600 44 1.000000 0.051000 0.051000 1.200000 0.023000 0.027000
1517350074029476451	400 39 0.900000 0.115000 0.104000 1100 35 0.900000 1.520000 1.512000 600 44 1.000000 0.051000 0.051000 1.200000 0.028000 0.033000
1517350074537002909	400 39 0.900000 0.115000 0.104000 1100 35 0.900000 1.461000 1.453000 600 44 1.000000 0.051000 0.051000 1.200000 0.023000 0.027000
1517350075044548409	400 40 0.900000 0.116000 0.105000 1100 35 0.900000 1.504000 1.496000 600 44 1.000000 0.051000 0.051000 1.200000 0.026000 0.031000
1517350075551985618	400 40 0.900000 0.115000 0.104000 1100 35 0.900000 1.446000 1.438000 600 44 1.000000 0.051000 0.051000 1.200000 0.023000 0.027000
1517350076059495076	400 40 0.900000 0.115000 0.104000 1100 35 0.900000 1.517000 1.509000 600 44 1.000000 0.051000 0.051000 1.200000 0.027000 0.032000
1517350076567141118	400 40 0.900000 0.115000 0.104000 1100 35 0.900000 1.447000 1.439000 600 44 1.000000 0.051000 0.051000 1.200000 0.023000 0.027000
1517350077074407701	400 40 0.900000 0.115000 0.104000 1100 35 0.900000 1.473000 1.465000 600 45 1.000000 0.051000 0.051000 1.200000 0.025000 0.030000
1517350077581951493	400 40 0.900000 0.115000 0.104000 1100 35 0.900000 1.448000 1.440000 600 44 1.000000 0.051000 0.051000 1.200000 0.023000 0.027000
1517350078089941201	400 40 0.900000 0.115000 0.104000 1100 35 0.900000 1.470000 1.462000 600 44 1.000000 0.051000 0.051000 1.200000 0.023000 0.027000
1517350078597402326	400 40 0.900000 0.115000 0.104000 1100 35 0.900000 1.445000 1.437000 600 44 1.000000 0.051000 0.051000 1.200000 0.023000 0.027000
1517350079114141660	400 40 0.900000 0.115000 0.104000 1100 35 0.900000 1.462000 1.454000 600 45 1.000000 0.051000 0.051000 1.200000 0.024000 0.028000
1517350079623409618	400 40 0.900000 0.115000 0.104000 1100 35 0.900000 1.620000 1.611000 600 45 1.000000 0.051000 0.051000 1.200000 0.028000 0.033000
1517350080131250660	400 40 0.900000 0.115000 0.104000 1100 35 0.900000 1.544000 1.536000 600 45 1.000000 0.051000 0.051000 1.200000 0.028000 0.033000
1517350080638817410	400 40 0.900000 0.115000 0.104000 1100 35 0.900000 1.447000 1.439000 600 45 1.000000 0.051000 0.051000 1.200000 0.023000 0.027000
1517350081146165368	400 40 0.900000 0.115000 0.104000 1100 35 0.900000 1.445000 1.437000 600 44 1.000000 0.051000 0.051000 1.200000 0.024000 0.028000
1517350081653826660	400 40 0.900000 0.115000 0.104000 1100 36 0.900000 1.618000 1.609000 600 45 1.000000 0.051000 0.051000 1.200000 0.027000 0.032000
1517350082161580285	400 40 0.900000 0.115000 0.104000 1100 36 0.900000 1.526000 1.518000 600 45 1.000000 0.051000 0.051000 1.200000 0.028000 0.033000
1517350082669136285	400 40 0.900000 0.115000 0.104000 1100 36 0.900000 1.448000 1.437000 600 45 1.000000 0.051000 0.051000 1.200000 0.023000 0.027000
1517350083176665452	400 40 0.900000 0.115000 0.104000 1100 36 0.900000 1.443000 1.432000 600 45 1.000000 0.051000 0.051000 1.200000 0.023000 0.027000
1517350083684177035	400 40 0.900000 0.115000 0.104000 1100 36 0.900000 1.618000 1.609000 600 45 1.000000 0.051000 0.051000 1.200000 0.027000 0.032000
1517350084191773869	400 40 0.900000 0.116000 0.105000 1100 36 0.900000 1.522000 1.514000 600 45 1.000000 0.051000 0.051000 1.200000 0.027000 0.032000
1517350084699325202	400 40 0.900000 0.116000 0.105000 1100 36 0.900000 1.445000 1.437000 600 45 1.000000 0.051000 0.051000 1.200000 0.023000 0.027000
1517350085206796119	400 40 0.900000 0.116000 0.105000 1100 36 0.900000 1.449000 1.441000 600 45 1.000000 0.051000 0.051000 1.200000 0.023000 0.027000
1517350085714145827	400 40 0.900000 0.115000 0.104000 1100 36 0.900000 1.460000 1.452000 600 45 1.000000 0.051000 0.051000 1.200000 0.023000 0.027000
1517350086221997369	400 40 0.900000 0.115000 0.104000 1100 36 0.900000 1.474000 1.466000 600 45 1.000000 0.051000 0.051000 1.200000 0.024000 0.028000
1517350086729569494	400 40 0.900000 0.115000 0.104000 1100 36 0.900000 1.447000 1.439000 600 45 1.000000 0.051000 0.051000 1.200000 0.023000 0.027000
1517350087237063119	400 40 0.900000 0.115000 0.104000 1100 36 0.900000 1.447000 1.439000 600 45 1.000000 0.051000 0.051000 1.200000 0.023000 0.027000
1517350087753760578	400 40 0.900000 0.116000 0.105000 1100 36 0.900000 1.443000 1.435000 600 45 1.000000 0.051000 0.051000 1.200000 0.023000 0.027000
1517350088265410411	400 41 0.900000 0.115000 0.104000 1100 36 0.900000 1.517000 1.509000 600 45 1.000000 0.051000 0.051000 1.200000 0.027000 0.032000
1517350088773070494	400 41 0.900000 0.116000 0.105000 1100 36 0.900000 1.443000 1.435000 600 45 1.000000 0.051000 0.051000 1.200000 0.023000 0.027000
1517350089280584328	400 40 0.900000 0.115000 0.104000 1100 36 0.900000 1.447000 1.439000 600 45 1.000000 0.051000 0.051000 1.200000 0.023000 0.027000
1517350089788013786	400 41 0.900000 0.115000 0.104000 1100 36 0.900000 1.448000 1.440000 600 45 1.000000 0.051000 0.051000 1.200000 0.023000 0.027000
1517350090295843911	400 41 0.900000 0.116000 0.105000 1100 36 0.900000 1.537000 1.529000 600 45 1.000000 0.051000 0.051000 1.200000 0.027000 0.032000
1517350090803436286	400 41 0.900000 0.115000 0.104000 1100 36 0.900000 1.446000 1.438000 600 45 1.000000 0.051000 0.051000 1.200000 0.023000 0.027000
1517350091310925120	400 40 0.900000 0.115000 0.104000 1100 36 0.900000 1.444000 1.436000 600 45 1.000000 0.051000 0.051000 1.200000 0.023000 0.027000
1517350091818349911	400 40 0.900000 0.116000 0.105000 1100 36 0.900000 1.444000 1.436000 600 45 1.000000 0.051000 0.051000 1.200000 0.023000 0.027000
1517350092326172286	400 41 0.900000 0.116000 0.105000 1100 36 0.900000 1.585000 1.577000 600 45 1.000000 0.051000 0.051000 1.200000 0.027000 0.032000
1517350092833819286	400 40 0.900000 0.115000 0.104000 1100 36 0.900000 1.585000 1.577000 600 45 1.000000 0.051000 0.051000 1.200000 0.024000 0.028000
1517350093341350578	400 41 0.900000 0.116000 0.105000 1100 36 0.900000 1.440000 1.432000 600 45 1.000000 0.051000 0.051000 1.200000 0.024000 0.028000
1517350093848846203	400 41 0.900000 0.116000 0.105000 1100 36 0.900000 1.459000 1.451000 600 45 1.000000 0.051000 0.051000 1.200000 0.023000 0.027000
1517350094356294287	400 41 0.900000 0.116000 0.105000 1100 36 0.900000 1.454000 1.446000 600 46 1.000000 0.051000 0.051000 1.200000 0.025000 0.030000
1517350094863838328	400 41 0.900000 0.116000 0.105000 1100 36 0.900000 1.593000 1.585000 600 45 1.000000 0.051000 0.051000 1.200000 0.023000 0.027000
1517350095371226662	400 41 0.900000 0.115000 0.104000 1100 36 0.900000 1.457000 1.449000 600 45 1.000000 0.051000 0.051000 1.200000 0.023000 0.027000
1517350095878905787	400 41 0.900000 0.115000 0.104000 1100 36 0.900000 1.448000 1.437000 600 45 1.000000 0.051000 0.051000 1.200000 0.023000 0.027000
1517350096391571454	400 41 0.900000 0.115000 0.104000 1100 36 0.900000 1.455000 1.447000 600 45 1.000000 0.051000 0.051000 1.200000 0.024000 0.028000
1517350096903404745	400 41 0.900000 0.115000 0.104000 1100 36 0.900000 1.623000 1.614000 600 45 1.000000 0.051000 0.051000 1.200000 0.030000 0.036000
1517350097410966370	400 41 0.900000 0.115000 0.104000 1100 36 0.900000 1.446000 1.438000 600 45 1.000000 0.051000 0.051000 1.200000 0.024000 0.028000
1517350097918449079	400 41 0.900000 0.115000 0.104000 1100 36 0.900000 1.448000 1.437000 600 45 1.000000 0.051000 0.051000 1.200000 0.023000 0.027000
1517350098426037620	400 41 0.900000 0.115000 0.104000 1100 36 0.900000 1.458000 1.450000 600 46 1.000000 0.051000 0.051000 1.200000 0.023000 0.027000
1517350098933941746	400 41 0.900000 0.116000 0.105000 1100 36 0.900000 1.533000 1.525000 600 46 1.000000 0.051000 0.051000 1.200000 0.026000 0.031000
1517350099441491496	400 41 0.900000 0.116000 0.105000 1100 36 0.900000 1.452000 1.444000 600 46 1.000000 0.051000 0.051000 1.200000 0.023000 0.027000
1517350099948882496	400 41 0.900000 0.116000 0.105000 1100 36 0.900000 1.447000 1.439000 600 45 1.000000 0.051000 0.051000 1.200000 0.024000 0.028000
1517350100456398287	400 41 0.900000 0.115000 0.104000 1100 36 0.900000 1.460000 1.452000 600 46 1.000000 0.051000 0.051000 1.200000 0.023000 0.027000
1517350100964174371	400 41 0.900000 0.116000 0.105000 1100 36 0.900000 1.528000 1.520000 600 46 1.000000 0.051000 0.051000 1.200000 0.028000 0.033000
1517350101471639204	400 41 0.900000 0.116000 0.105000 1100 36 0.900000 1.459000 1.448000 600 46 1.000000 0.051000 0.051000 1.200000 0.023000 0.027000
1517350101979109996	400 41 0.900000 0.115000 0.104000 1100 36 0.900000 1.456000 1.448000 600 45 1.000000 0.051000 0.051000 1.200000 0.023000 0.027000
1517350102492095621	400 41 0.900000 0.115000 0.104000 1100 36 0.900000 1.441000 1.433000 600 46 1.000000 0.051000 0.051000 1.200000 0.023000 0.027000
1517350102999532663	400 41 0.900000 0.115000 0.104000 1100 36 0.900000 1.533000 1.525000 600 46 1.000000 0.051000 0.051000 1.200000 0.027000 0.032000
1517350103507054621	400 41 0.900000 0.115000 0.104000 1100 36 0.900000 1.456000 1.445000 600 46 1.000000 0.051000 0.051000 1.200000 0.024000 0.028000
1517350104014315204	400 41 0.900000 0.115000 0.104000 1100 36 0.900000 1.443000 1.432000 600 46 1.000000 0.051000 0.051000 1.200000 0.024000 0.028000
1517350104542568121	400 41 0.900000 0.115000 0.104000 1100 36 0.900000 1.446000 1.435000 600 46 1.000000 0.051000 0.051000 1.200000 0.023000 0.027000
1517350105057164246	400 41 0.900000 0.115000 0.104000 1100 36 0.900000 1.442000 1.431000 600 46 1.000000 0.051000 0.051000 1.200000 0.024000 0.028000
1517350105567249330	400 41 0.900000 0.116000 0.105000 1100 36 0.900000 1.437000 1.426000 600 46 1.000000 0.051000 0.051000 1.200000 0.024000 0.028000
1517350106074647246	400 41 0.900000 0.115000 0.104000 1100 36 0.900000 1.448000 1.440000 600 46 1.000000 0.051000 0.051000 1.200000 0.023000 0.027000
1517350106606616621	400 41 0.900000 0.115000 0.104000 1100 36 0.900000 1.466000 1.455000 600 46 1.000000 0.051000 0.051000 1.200000 0.023000 0.027000
1517350107122412080	400 41 0.900000 0.115000 0.104000 1100 36 0.900000 1.524000 1.516000 600 46 1.000000 0.051000 0.051000 1.200000 0.028000 0.033000
1517350107631345455	400 41 0.900000 0.116000 0.105000 1100 37 0.900000 1.594000 1.586000 600 46 1.000000 0.051000 0.051000 1.200000 0.028000 0.033000
1517350108138865413	400 41 0.900000 0.116000 0.105000 1100 37 0.900000 1.458000 1.450000 600 46 1.000000 0.051000 0.051000 1.200000 0.023000 0.027000
1517350108670662497	400 41 0.900000 0.115000 0.104000 1100 37 0.900000 1.448000 1.437000 600 46 1.000000 0.051000 0.051000 1.200000 0.024000 0.028000
1517350109178369830	400 41 0.900000 0.116000 0.105000 1100 37 0.900000 1.523000 1.515000 600 46 1.000000 0.051000 0.051000 1.200000 0.028000 0.033000
1517350109685974455	400 41 0.900000 0.116000 0.105000 1100 37 0.900000 1.583000 1.575000 600 46 1.000000 0.051000 0.051000 1.200000 0.026000 0.031000
1517350110193554830	400 41 0.900000 0.115000 0.104000 1100 37 0.900000 1.440000 1.432000 600 46 1.000000 0.051000 0.051000 1.200000 0.023000 0.027000
1517350110718909955	400 41 0.900000 0.116000 0.105000 1100 36 0.900000 1.454000 1.443000 600 46 1.000000 0.051000 0.051000 1.200000 0.024000 0.028000
1517350111226623914	400 41 0.900000 0.115000 0.104000 1100 36 0.900000 1.536000 1.528000 600 46 1.000000 0.051000 0.051000 1.200000 0.028000 0.033000
1517350111734231872	400 41 0.900000 0.115000 0.104000 1100 37 0.900000 1.543000 1.535000 600 46 1.000000 0.051000 0.051000 1.200000 0.025000 0.030000
1517350112241600830	400 41 0.900000 0.115000 0.104000 1100 36 0.900000 1.453000 1.442000 600 46 1.000000 0.051000 0.051000 1.200000 0.023000 0.027000
1517350112770568539	400 41 0.900000 0.115000 0.104000 1100 36 0.900000 1.450000 1.439000 600 46 1.000000 0.051000 0.051000 1.200000 0.023000 0.027000
1517350113278334122	400 41 0.900000 0.115000 0.104000 1100 37 0.900000 1.465000 1.454000 600 46 1.000000 0.051000 0.051000 1.200000 0.027000 0.032000
1517350113785921456	400 41 0.900000 0.115000 0.104000 1100 37 0.900000 1.512000 1.501000 600 46 1.000000 0.051000 0.051000 1.200000 0.025000 0.030000
1517350114293382997	400 41 0.900000 0.115000 0.104000 1100 37 0.900000 1.452000 1.441000 600 46 1.000000 0.051000 0.051000 1.200000 0.023000 0.027000
1517350114800862081	400 41 0.900000 0.116000 0.105000 1100 37 0.900000 1.439000 1.428000 600 46 1.000000 0.051000 0.051000 1.200000 0.023000 0.027000
1517350115308650997	400 41 0.900000 0.116000 0.105000 1100 37 0.900000 1.439000 1.428000 600 46 1.000000 0.051000 0.051000 1.200000 0.023000 0.027000
1517350115827994914	400 41 0.900000 0.116000 0.105000 1100 37 0.900000 1.455000 1.444000 600 46 1.000000 0.051000 0.051000 1.200000 0.024000 0.028000
1517350116335425164	400 41 0.900000 0.116000 0.105000 1100 37 0.900000 1.580000 1.572000 600 46 1.000000 0.051000 0.051000 1.200000 0.027000 0.032000
1517350116842643623	400 41 0.900000 0.116000 0.105000 1100 37 0.900000 1.459000 1.448000 600 46 1.000000 0.051000 0.051000 1.200000 0.023000 0.027000
1517350117350353498	400 41 0.900000 0.116000 0.105000 1100 37 0.900000 1.526000 1.518000 600 46 1.000000 0.051000 0.051000 1.200000 0.028000 0.033000
1517350117866282664	400 41 0.900000 0.115000 0.104000 1100 37 0.900000 1.462000 1.454000 600 46 1.000000 0.051000 0.051000 1.200000 0.024000 0.028000
1517350118377648790	400 41 0.900000 0.116000 0.105000 1100 37 0.900000 1.614000 1.605000 600 46 1.000000 0.051000 0.051000 1.200000 0.029000 0.035000
1517350118885211290	400 41 0.900000 0.115000 0.104000 1100 37 0.900000 1.457000 1.449000 600 46 1.000000 0.051000 0.051000 1.200000 0.024000 0.028000
1517350119392927998	400 41 0.900000 0.115000 0.104000 1100 37 0.900000 1.526000 1.518000 600 46 1.000000 0.051000 0.051000 1.200000 0.027000 0.032000
1517350119900583956	400 41 0.900000 0.115000 0.104000 1100 37 0.900000 1.443000 1.432000 600 46 1.000000 0.051000 0.051000 1.200000 0.023000 0.027000
1517350120408232206	400 41 0.900000 0.115000 0.104000 1100 37 0.900000 1.612000 1.603000 600 46 1.000000 0.051000 0.051000 1.200000 0.028000 0.033000
1517350120915586081	400 41 0.900000 0.115000 0.104000 1100 37 0.900000 1.448000 1.437000 600 46 1.000000 0.051000 0.051000 1.200000 0.023000 0.027000
1517350121423408373	400 41 0.900000 0.115000 0.104000 1100 37 0.900000 1.449000 1.438000 600 46 1.000000 0.051000 0.051000 1.200000 0.025000 0.030000
1517350121931000498	400 41 0.900000 0.115000 0.104000 1100 37 0.900000 1.438000 1.430000 600 46 1.000000 0.051000 0.051000 1.200000 0.023000 0.027000
1517350122438414373	400 41 0.900000 0.116000 0.105000 1100 37 0.900000 1.616000 1.607000 600 46 1.000000 0.051000 0.051000 1.200000 0.027000 0.032000
1517350122946436915	400 41 0.900000 0.116000 0.105000 1100 37 0.900000 1.448000 1.437000 600 46 1.000000 0.051000 0.051000 1.200000 0.023000 0.027000
1517350123454091040	400 41 0.900000 0.116000 0.105000 1100 37 0.900000 1.527000 1.519000 600 46 1.000000 0.051000 0.051000 1.200000 0.028000 0.033000
1517350123961687332	400 41 0.900000 0.116000 0.105000 1100 37 0.900000 1.447000 1.439000 600 46 1.000000 0.051000 0.051000 1.200000 0.023000 0.027000
1517350124469050374	400 42 0.900000 0.116000 0.105000 1100 37 0.900000 1.453000 1.445000 600 46 1.000000 0.051000 0.051000 1.200000 0.023000 0.027000
1517350124976532249	400 41 0.900000 0.115000 0.104000 1100 37 0.900000 1.446000 1.435000 600 46 1.000000 0.051000 0.051000 1.200000 0.024000 0.028000
1517350125484258082	400 41 0.900000 0.116000 0.105000 1100 37 0.900000 1.517000 1.509000 600 46 1.000000 0.051000 0.051000 1.200000 0.027000 0.032000
1517350125992107999	400 41 0.900000 0.115000 0.104000 1100 37 0.900000 1.446000 1.435000 600 46 1.000000 0.051000 0.051000 1.200000 0.023000 0.027000
1517350126509331707	400 41 0.900000 0.115000 0.104000 1100 37 0.900000 1.444000 1.433000 600 46 1.000000 0.051000 0.051000 1.200000 0.023000 0.027000
1517350127018037249	400 41 0.900000 0.116000 0.105000 1100 37 0.900000 1.440000 1.429000 600 46 1.000000 0.051000 0.051000 1.200000 0.023000 0.027000
1517350127525952666	400 41 0.900000 0.116000 0.105000 1100 37 0.900000 1.526000 1.518000 600 46 1.000000 0.051000 0.051000 1.200000 0.027000 0.032000
1517350128033526541	400 42 0.900000 0.116000 0.105000 1100 37 0.900000 1.445000 1.434000 600 46 1.000000 0.051000 0.051000 1.200000 0.023000 0.027000
1517350128540937957	400 41 0.900000 0.116000 0.105000 1100 37 0.900000 1.440000 1.429000 600 46 1.000000 0.051000 0.051000 1.200000 0.023000 0.027000
1517350129048391916	400 42 0.900000 0.115000 0.104000 1100 37 0.900000 1.445000 1.437000 600 46 1.000000 0.051000 0.051000 1.200000 0.024000 0.028000
1517350129556209124	400 42 0.900000 0.115000 0.104000 1100 37 0.900000 1.446000 1.435000 600 46 1.000000 0.051000 0.051000 1.200000 0.026000 0.031000
1517350130063723499	400 41 0.900000 0.115000 0.104000 1100 37 0.900000 1.456000 1.445000 600 46 1.000000 0.051000 0.051000 1.200000 0.023000 0.027000
1517350130571342041	400 41 0.900000 0.115000 0.104000 1100 37 0.900000 1.451000 1.440000 600 46 1.000000 0.051000 0.051000 1.200000 0.024000 0.028000
1517350131078885291	400 41 0.900000 0.116000 0.105000 1100 37 0.900000 1.443000 1.432000 600 46 1.000000 0.051000 0.051000 1.200000 0.026000 0.031000
1517350131586473583	400 42 0.900000 0.116000 0.105000 1100 37 0.900000 1.493000 1.482000 600 46 1.000000 0.051000 0.051000 1.200000 0.027000 0.032000
1517350132094179083	400 41 0.900000 0.116000 0.105000 1100 37 0.900000 1.447000 1.436000 600 46 1.000000 0.051000 0.051000 1.200000 0.023000 0.027000
1517350132601547833	400 41 0.900000 0.116000 0.105000 1100 37 0.900000 1.456000 1.448000 600 46 1.000000 0.051000 0.051000 1.200000 0.023000 0.027000
1517350133108848250	400 42 0.900000 0.116000 0.105000 1100 37 0.900000 1.452000 1.441000 600 46 1.000000 0.051000 0.051000 1.200000 0.025000 0.030000
1517350133616308458	400 42 0.900000 0.116000 0.105000 1100 37 0.900000 1.516000 1.508000 600 46 1.000000 0.051000 0.051000 1.200000 0.027000 0.032000
1517350134123867625	400 41 0.900000 0.116000 0.105000 1100 37 0.900000 1.451000 1.440000 600 46 1.000000 0.051000 0.051000 1.200000 0.023000 0.027000
1517350134631266083	400 42 0.900000 0.116000 0.105000 1100 37 0.900000 1.451000 1.443000 600 46 1.000000 0.051000 0.051000 1.200000 0.023000 0.027000
1517350135143440250	400 42 0.900000 0.115000 0.104000 1100 37 0.900000 1.462000 1.451000 600 46 1.000000 0.051000 0.051000 1.200000 0.024000 0.028000
1517350135654858708	400 42 0.900000 0.116000 0.105000 1100 37 0.900000 1.538000 1.530000 600 46 1.000000 0.051000 0.051000 1.200000 0.028000 0.033000
1517350136162194292	400 42 0.900000 0.116000 0.105000 1100 37 0.900000 1.445000 1.434000 600 46 1.000000 0.051000 0.051000 1.200000 0.023000 0.027000
1517350136669453958	400 42 0.900000 0.116000 0.105000 1100 37 0.900000 1.444000 1.433000 600 46 1.000000 0.051000 0.051000 1.200000 0.023000 0.027000
1517350137176868792	400 42 0.900000 0.116000 0.105000 1100 37 0.900000 1.453000 1.445000 600 46 1.000000 0.051000 0.051000 1.200000 0.023000 0.027000
1517350137684510417	400 42 0.900000 0.116000 0.105000 1100 37 0.900000 1.507000 1.499000 600 46 1.000000 0.051000 0.051000 1.200000 0.023000 0.027000
1517350138192144875	400 42 0.900000 0.116000 0.105000 1100 37 0.900000 1.457000 1.449000 600 46 1.000000 0.051000 0.051000 1.200000 0.025000 0.030000
1517350138699409167	400 41 0.900000 0.115000 0.104000 1100 37 0.900000 1.452000 1.444000 600 46 1.000000 0.052000 0.052000 1.200000 0.023000 0.027000
1517350139206883375	400 42 0.900000 0.116000 0.105000 1100 37 0.900000 1.458000 1.450000 600 46 1.000000 0.051000 0.051000 1.200000 0.023000 0.027000
1517350139714414167	400 42 0.900000 0.116000 0.105000 1100 37 0.900000 1.473000 1.465000 600 46 1.000000 0.051000 0.051000 1.200000 0.024000 0.028000
1517350140221964334	400 42 0.900000 0.115000 0.104000 1100 37 0.900000 1.463000 1.455000 600 46 1.000000 0.051000 0.051000 1.200000 0.023000 0.027000
1517350140729381834	400 42 0.900000 0.116000 0.105000 1100 37 0.900000 1.446000 1.438000 600 46 1.000000 0.051000 0.051000 1.200000 0.023000 0.027000
1517350141237008084	400 42 0.900000 0.116000 0.105000 1100 37 0.900000 1.454000 1.446000 600 46 1.000000 0.051000 0.051000 1.200000 0.023000 0.027000
1517350141823111501	400 42 0.900000 0.116000 0.105000 1100 37 0.900000 1.454000 1.446000 600 47 1.000000 0.051000 0.051000 1.200000 0.023000 0.027000
1517350142371777501	400 42 0.900000 0.116000 0.105000 1100 37 0.900000 1.691000 1.684000 600 47 1.000000 0.051000 0.051000 1.200000 0.041000 0.049000
1517350142879375751	400 42 0.900000 0.116000 0.105000 1100 37 0.900000 1.458000 1.450000 600 46 1.000000 0.051000 0.051000 1.200000 0.023000 0.027000
1517350143386901501	400 42 0.900000 0.116000 0.105000 1100 37 0.900000 1.451000 1.443000 600 46 1.000000 0.051000 0.051000 1.200000 0.024000 0.028000
1517350143894464918	400 42 0.900000 0.116000 0.105000 1100 37 0.900000 1.458000 1.447000 600 46 1.000000 0.051000 0.051000 1.200000 0.024000 0.028000
1517350144402089668	400 42 0.900000 0.116000 0.105000 1100 37 0.900000 1.640000 1.631000 600 46 1.000000 0.051000 0.051000 1.200000 0.031000 0.037000
1517350144909613126	400 42 0.900000 0.116000 0.105000 1100 37 0.900000 1.446000 1.438000 600 46 1.000000 0.051000 0.051000 1.200000 0.024000 0.028000
1517350145417085709	400 42 0.900000 0.116000 0.105000 1100 37 0.900000 1.448000 1.440000 600 46 1.000000 0.051000 0.051000 1.200000 0.023000 0.027000
1517350145924877876	400 42 0.900000 0.116000 0.105000 1100 37 0.900000 1.509000 1.501000 600 46 1.000000 0.051000 0.051000 1.200000 0.023000 0.027000
1517350146432477210	400 42 0.900000 0.116000 0.105000 1100 37 0.900000 1.616000 1.607000 600 46 1.000000 0.051000 0.051000 1.200000 0.027000 0.032000
1517350146940124876	400 42 0.900000 0.115000 0.104000 1100 37 0.900000 1.454000 1.443000 600 46 1.000000 0.051000 0.051000 1.200000 0.023000 0.027000
1517350147447709626	400 42 0.900000 0.115000 0.104000 1100 37 0.900000 1.459000 1.448000 600 46 1.000000 0.051000 0.051000 1.200000 0.024000 0.028000
1517350147955502918	400 42 0.900000 0.115000 0.104000 1100 37 0.900000 1.451000 1.440000 600 46 1.000000 0.051000 0.051000 1.200000 0.023000 0.027000
1517350148462873668	400 42 0.900000 0.116000 0.105000 1100 37 0.900000 1.448000 1.437000 600 47 1.000000 0.051000 0.051000 1.200000 0.024000 0.028000
1517350148970267335	400 42 0.900000 0.116000 0.105000 1100 37 0.900000 1.465000 1.454000 600 46 1.000000 0.051000 0.051000 1.200000 0.024000 0.028000
1517350149477736252	400 42 0.900000 0.116000 0.105000 1100 37 0.900000 1.443000 1.432000 600 46 1.000000 0.051000 0.051000 1.200000 0.023000 0.027000
1517350149985228918	400 42 0.900000 0.116000 0.105000 1100 37 0.900000 1.459000 1.451000 600 47 1.000000 0.052000 0.052000 1.200000 0.023000 0.027000
1517350150502449543	400 42 0.900000 0.116000 0.105000 1100 37 0.900000 1.448000 1.440000 600 47 1.000000 0.051000 0.051000 1.200000 0.023000 0.027000
1517350151010815293	400 42 0.900000 0.116000 0.105000 1100 37 0.900000 1.451000 1.443000 600 47 1.000000 0.051000 0.051000 1.200000 0.025000 0.030000
1517350151518151085	400 42 0.900000 0.116000 0.105000 1100 37 0.900000 1.443000 1.435000 600 46 1.000000 0.051000 0.051000 1.200000 0.024000 0.028000
1517350152025632919	400 42 0.900000 0.116000 0.105000 1100 37 0.900000 1.445000 1.437000 600 47 1.000000 0.051000 0.051000 1.200000 0.023000 0.027000
1517350152542581627	400 42 0.900000 0.116000 0.105000 1100 37 0.900000 1.447000 1.439000 600 46 1.000000 0.051000 0.051000 1.200000 0.023000 0.027000
1517350153052558960	400 42 0.900000 0.116000 0.105000 1100 37 0.900000 1.482000 1.474000 600 47 1.000000 0.051000 0.051000 1.200000 0.025000 0.030000
1517350153560098044	400 42 0.900000 0.116000 0.105000 1100 37 0.900000 1.446000 1.438000 600 46 1.000000 0.051000 0.051000 1.200000 0.023000 0.027000
1517350154067748335	400 42 0.900000 0.115000 0.104000 1100 37 0.900000 1.460000 1.452000 600 47 1.000000 0.051000 0.051000 1.200000 0.023000 0.027000
1517350154575406377	400 42 0.900000 0.116000 0.105000 1100 37 0.900000 1.449000 1.441000 600 46 1.000000 0.051000 0.051000 1.200000 0.027000 0.032000
1517350155082862586	400 42 0.900000 0.116000 0.105000 1100 37 0.900000 1.554000 1.546000 600 47 1.000000 0.051000 0.051000 1.200000 0.025000 0.030000
1517350155590240169	400 42 0.900000 0.115000 0.104000 1100 37 0.900000 1.448000 1.440000 600 46 1.000000 0.051000 0.051000 1.200000 0.023000 0.027000
1517350156097768294	400 42 0.900000 0.115000 0.104000 1100 37 0.900000 1.460000 1.452000 600 47 1.000000 0.051000 0.051000 1.200000 0.023000 0.027000
1517350156605311002	400 42 0.900000 0.116000 0.105000 1100 37 0.900000 1.451000 1.443000 600 47 1.000000 0.051000 0.051000 1.200000 0.023000 0.027000
1517350157113146252	400 42 0.900000 0.116000 0.105000 1100 37 0.900000 1.523000 1.515000 600 47 1.000000 0.051000 0.051000 1.200000 0.024000 0.028000
1517350157620671003	400 42 0.900000 0.116000 0.105000 1100 37 0.900000 1.449000 1.441000 600 47 1.000000 0.051000 0.051000 1.200000 0.024000 0.028000
1517350158128123961	400 42 0.900000 0.116000 0.105000 1100 37 0.900000 1.440000 1.432000 600 47 1.000000 0.051000 0.051000 1.200000 0.023000 0.027000
1517350158635640336	400 42 0.900000 0.115000 0.104000 1100 37 0.900000 1.443000 1.435000 600 46 1.000000 0.051000 0.051000 1.200000 0.023000 0.027000
1517350159143125544	400 42 0.900000 0.116000 0.105000 1100 37 0.900000 1.496000 1.488000 600 47 1.000000 0.051000 0.051000 1.200000 0.023000 0.027000
1517350159650803794	400 42 0.900000 0.116000 0.105000 1100 37 0.900000 1.443000 1.435000 600 47 1.000000 0.051000 0.051000 1.200000 0.023000 0.027000
1517350160158262836	400 42 0.900000 0.116000 0.105000 1100 37 0.900000 1.438000 1.430000 600 47 1.000000 0.051000 0.051000 1.200000 0.023000 0.027000
1517350160665888378	400 42 0.900000 0.116000 0.105000 1100 37 0.900000 1.529000 1.521000 600 46 1.000000 0.051000 0.051000 1.200000 0.028000 0.033000
1517350161183724878	400 42 0.900000 0.116000 0.105000 1100 37 0.900000 1.463000 1.455000 600 46 1.000000 0.051000 0.051000 1.200000 0.024000 0.028000
1517350161691363836	400 42 0.900000 0.116000 0.105000 1100 37 0.900000 1.594000 1.586000 600 47 1.000000 0.051000 0.051000 1.200000 0.028000 0.033000
1517350162198900503	400 42 0.900000 0.115000 0.104000 1100 37 0.900000 1.448000 1.440000 600 47 1.000000 0.051000 0.051000 1.200000 0.023000 0.027000
1517350162706354961	400 42 0.900000 0.115000 0.104000 1100 37 0.900000 1.447000 1.439000 600 47 1.000000 0.051000 0.051000 1.200000 0.026000 0.031000
1517350163213891837	400 42 0.900000 0.116000 0.105000 1100 37 0.900000 1.442000 1.434000 600 46 1.000000 0.051000 0.051000 1.200000 0.023000 0.027000
1517350163721595212	400 42 0.900000 0.116000 0.105000 1100 37 0.900000 1.613000 1.604000 600 47 1.000000 0.051000 0.051000 1.200000 0.027000 0.032000
1517350164249377753	400 42 0.900000 0.115000 0.104000 1100 37 0.900000 1.445000 1.437000 600 47 1.000000 0.051000 0.051000 1.200000 0.023000 0.027000
1517350164756976045	400 42 0.900000 0.115000 0.104000 1100 37 0.900000 1.446000 1.438000 600 47 1.000000 0.051000 0.051000 1.200000 0.023000 0.027000
1517350165264579128	400 42 0.900000 0.116000 0.105000 1100 37 0.900000 1.439000 1.431000 600 46 1.000000 0.051000 0.051000 1.200000 0.023000 0.027000
1517350165772240837	400 42 0.900000 0.115000 0.104000 1100 37 0.900000 1.617000 1.610000 600 47 1.000000 0.051000 0.051000 1.200000 0.027000 0.032000
1517350166294635670	400 42 0.900000 0.116000 0.105000 1100 37 0.900000 1.451000 1.443000 600 46 1.000000 0.051000 0.051000 1.200000 0.023000 0.027000
1517350166807523462	400 42 0.900000 0.116000 0.105000 1100 37 0.900000 1.442000 1.434000 600 47 1.000000 0.051000 0.051000 1.200000 0.023000 0.027000
1517350167315117337	400 42 0.900000 0.116000 0.105000 1100 37 0.900000 1.443000 1.435000 600 47 1.000000 0.051000 0.051000 1.200000 0.023000 0.027000
1517350167822599837	400 42 0.900000 0.116000 0.105000 1100 37 0.900000 1.621000 1.614000 600 47 1.000000 0.051000 0.051000 1.200000 0.027000 0.032000
1517350168349542379	400 42 0.900000 0.116000 0.105000 1100 37 0.900000 1.443000 1.435000 600 47 1.000000 0.051000 0.051000 1.200000 0.023000 0.027000
1517350168857288337	400 42 0.900000 0.116000 0.105000 1100 37 0.900000 1.447000 1.439000 600 47 1.000000 0.051000 0.051000 1.200000 0.023000 0.027000
1517350169364890962	400 42 0.900000 0.116000 0.105000 1100 37 0.900000 1.447000 1.439000 600 47 1.000000 0.052000 0.052000 1.200000 0.023000 0.027000
1517350169873029254	400 42 0.900000 0.116000 0.105000 1100 37 0.900000 1.460000 1.452000 600 47 1.000000 0.051000 0.051000 1.200000 0.024000 0.028000
1517350170380534837	400 42 0.900000 0.116000 0.105000 1100 37 0.900000 1.616000 1.609000 600 47 1.000000 0.051000 0.051000 1.200000 0.024000 0.028000
1517350170888301462	400 42 0.900000 0.116000 0.105000 1100 38 0.900000 1.530000 1.522000 600 47 1.000000 0.051000 0.051000 1.200000 0.027000 0.032000
1517350171396030088	400 42 0.900000 0.116000 0.105000 1100 37 0.900000 1.450000 1.442000 600 47 1.000000 0.051000 0.051000 1.200000 0.023000 0.027000
1517350171910474213	400 42 0.900000 0.116000 0.105000 1100 37 0.900000 1.456000 1.448000 600 47 1.000000 0.051000 0.051000 1.200000 0.023000 0.027000
1517350172421384504	400 42 0.900000 0.116000 0.105000 1100 37 0.900000 1.627000 1.620000 600 47 1.000000 0.051000 0.051000 1.200000 0.024000 0.028000
1517350172929072463	400 42 0.900000 0.116000 0.105000 1100 37 0.900000 1.539000 1.531000 600 47 1.000000 0.051000 0.051000 1.200000 0.023000 0.027000
1517350173436595046	400 42 0.900000 0.115000 0.104000 1100 37 0.900000 1.449000 1.441000 600 47 1.000000 0.051000 0.051000 1.200000 0.023000 0.027000
1517350173944190171	400 42 0.900000 0.116000 0.105000 1100 37 0.900000 1.460000 1.452000 600 47 1.000000 0.051000 0.051000 1.200000 0.023000 0.027000
1517350174451753963	400 42 0.900000 0.116000 0.105000 1100 37 0.900000 1.599000 1.591000 600 47 1.000000 0.051000 0.051000 1.200000 0.025000 0.030000
1517350174959552338	400 42 0.900000 0.115000 0.104000 1100 37 0.900000 1.547000 1.539000 600 47 1.000000 0.051000 0.051000 1.200000 0.023000 0.027000
1517350175467199838	400 42 0.900000 0.116000 0.105000 1100 37 0.900000 1.448000 1.437000 600 47 1.000000 0.051000 0.051000 1.200000 0.023000 0.027000
1517350175975125546	400 42 0.900000 0.116000 0.105000 1100 37 0.900000 1.454000 1.446000 600 47 1.000000 0.051000 0.051000 1.200000 0.023000 0.027000
1517350176482820005	400 42 0.900000 0.116000 0.105000 1100 37 0.900000 1.463000 1.455000 600 47 1.000000 0.051000 0.051000 1.200000 0.025000 0.030000
1517350176990417130	400 42 0.900000 0.116000 0.105000 1100 37 0.900000 1.491000 1.483000 600 47 1.000000 0.051000 0.051000 1.200000 0.027000 0.032000
1517350177497906005	400 42 0.900000 0.116000 0.105000 1100 37 0.900000 1.465000 1.457000 600 47 1.000000 0.051000 0.051000 1.200000 0.023000 0.027000
1517350178005522880	400 42 0.900000 0.116000 0.105000 1100 37 0.900000 1.453000 1.445000 600 47 1.000000 0.051000 0.051000 1.200000 0.023000 0.027000
1517350178512927797	400 42 0.900000 0.116000 0.105000 1100 37 0.900000 1.460000 1.452000 600 47 1.000000 0.051000 0.051000 1.200000 0.023000 0.027000
1517350179020639713	400 42 0.900000 0.116000 0.105000 1100 37 0.900000 1.603000 1.594000 600 47 1.000000 0.051000 0.051000 1.200000 0.026000 0.031000
1517350179528200505	400 42 0.900000 0.116000 0.105000 1100 37 0.900000 1.458000 1.450000 600 47 1.000000 0.051000 0.051000 1.200000 0.024000 0.028000
1517350180035761589	400 42 0.900000 0.116000 0.105000 1100 37 0.900000 1.460000 1.452000 600 47 1.000000 0.051000 0.051000 1.200000 0.023000 0.027000
1517350180548587797	400 42 0.900000 0.116000 0.105000 1100 37 0.900000 1.449000 1.441000 600 47 1.000000 0.051000 0.051000 1.200000 0.024000 0.028000
1517350181059615380	400 42 0.900000 0.115000 0.104000 1100 38 0.900000 1.627000 1.620000 600 47 1.000000 0.051000 0.051000 1.200000 0.032000 0.038000
1517350181567264214	400 42 0.900000 0.115000 0.104000 1100 37 0.900000 1.446000 1.438000 600 47 1.000000 0.051000 0.051000 1.200000 0.024000 0.028000
1517350182074792130	400 42 0.900000 0.115000 0.104000 1100 37 0.900000 1.445000 1.437000 600 47 1.000000 0.051000 0.051000 1.200000 0.024000 0.028000
1517350182582093047	400 42 0.900000 0.115000 0.104000 1100 37 0.900000 1.451000 1.443000 600 47 1.000000 0.051000 0.051000 1.200000 0.023000 0.027000
1517350183089748839	400 42 0.900000 0.115000 0.104000 1100 37 0.900000 1.501000 1.493000 600 47 1.000000 0.051000 0.051000 1.200000 0.023000 0.027000
1517350183597292422	400 42 0.900000 0.116000 0.105000 1100 37 0.900000 1.448000 1.440000 600 47 1.000000 0.051000 0.051000 1.200000 0.024000 0.028000
1517350184104860756	400 42 0.900000 0.116000 0.105000 1100 37 0.900000 1.460000 1.452000 600 47 1.000000 0.051000 0.051000 1.200000 0.023000 0.027000
1517350184612424547	400 42 0.900000 0.116000 0.105000 1100 37 0.900000 1.455000 1.447000 600 47 1.000000 0.051000 0.051000 1.200000 0.023000 0.027000
1517350185119685089	400 42 0.900000 0.116000 0.105000 1100 38 0.900000 1.460000 1.452000 600 47 1.000000 0.051000 0.051000 1.200000 0.023000 0.027000
1517350185627314298	400 42 0.900000 0.116000 0.105000 1100 38 0.900000 1.453000 1.445000 600 47 1.000000 0.051000 0.051000 1.200000 0.024000 0.028000
1517350186134803506	400 42 0.900000 0.116000 0.105000 1100 38 0.900000 1.467000 1.459000 600 47 1.000000 0.051000 0.051000 1.200000 0.023000 0.027000
1517350186642264589	400 42 0.900000 0.116000 0.105000 1100 37 0.900000 1.446000 1.438000 600 47 1.000000 0.051000 0.051000 1.200000 0.023000 0.027000
1517350187159636048	400 42 0.900000 0.116000 0.105000 1100 38 0.900000 1.472000 1.464000 600 47 1.000000 0.051000 0.051000 1.200000 0.024000 0.028000
1517350187668314089	400 42 0.900000 0.116000 0.105000 1100 38 0.900000 1.454000 1.446000 600 47 1.000000 0.051000 0.051000 1.200000 0.025000 0.030000
1517350188175807631	400 42 0.900000 0.116000 0.105000 1100 37 0.900000 1.441000 1.433000 600 47 1.000000 0.051000 0.051000 1.200000 0.023000 0.027000
1517350188683294173	400 42 0.900000 0.116000 0.105000 1100 37 0.900000 1.447000 1.439000 600 47 1.000000 0.051000 0.051000 1.200000 0.023000 0.027000
1517350189201213965	400 42 0.900000 0.115000 0.104000 1100 37 0.900000 1.525000 1.517000 600 47 1.000000 0.051000 0.051000 1.200000 0.025000 0.030000
1517350189709879465	400 42 0.900000 0.116000 0.105000 1100 37 0.900000 1.483000 1.475000 600 47 1.000000 0.051000 0.051000 1.200000 0.026000 0.031000
1517350190217589256	400 42 0.900000 0.115000 0.104000 1100 38 0.900000 1.467000 1.459000 600 47 1.000000 0.051000 0.051000 1.200000 0.023000 0.027000
1517350190725029506	400 42 0.900000 0.115000 0.104000 1100 37 0.900000 1.456000 1.448000 600 47 1.000000 0.051000 0.051000 1.200000 0.023000 0.027000
1517350191232691007	400 42 0.900000 0.115000 0.104000 1100 38 0.900000 1.453000 1.445000 600 47 1.000000 0.051000 0.051000 1.200000 0.024000 0.028000
1517350191740100090	400 42 0.900000 0.116000 0.105000 1100 37 0.900000 1.568000 1.560000 600 47 1.000000 0.051000 0.051000 1.200000 0.025000 0.030000
1517350192247615340	400 42 0.900000 0.116000 0.105000 1100 37 0.900000 1.463000 1.455000 600 47 1.000000 0.051000 0.051000 1.200000 0.024000 0.028000
1517350192755070757	400 42 0.900000 0.116000 0.105000 1100 38 0.900000 1.454000 1.446000 600 47 1.000000 0.051000 0.051000 1.200000 0.023000 0.027000
1517350193262669215	400 42 0.900000 0.116000 0.105000 1100 37 0.900000 1.451000 1.443000 600 47 1.000000 0.051000 0.051000 1.200000 0.023000 0.027000
1517350193770261257	400 42 0.900000 0.116000 0.105000 1100 38 0.900000 1.531000 1.523000 600 47 1.000000 0.051000 0.051000 1.200000 0.024000 0.028000
1517350194277782132	400 42 0.900000 0.116000 0.105000 1100 37 0.900000 1.451000 1.443000 600 47 1.000000 0.051000 0.051000 1.200000 0.023000 0.027000
1517350194785279257	400 42 0.900000 0.116000 0.105000 1100 37 0.900000 1.452000 1.444000 600 47 1.000000 0.051000 0.051000 1.200000 0.023000 0.027000
1517350195292924507	400 42 0.900000 0.116000 0.105000 1100 37 0.900000 1.493000 1.485000 600 47 1.000000 0.051000 0.051000 1.200000 0.023000 0.027000
1517350195800372924	400 42 0.900000 0.116000 0.105000 1100 38 0.900000 1.506000 1.498000 600 47 1.000000 0.051000 0.051000 1.200000 0.023000 0.027000
1517350196307708007	400 42 0.900000 0.116000 0.105000 1100 37 0.900000 1.452000 1.444000 600 47 1.000000 0.051000 0.051000 1.200000 0.023000 0.027000
1517350196815454841	400 42 0.900000 0.116000 0.105000 1100 37 0.900000 1.455000 1.447000 600 47 1.000000 0.051000 0.051000 1.200000 0.023000 0.027000
1517350197322944382	400 42 0.900000 0.116000 0.105000 1100 37 0.900000 1.467000 1.459000 600 47 1.000000 0.051000 0.051000 1.200000 0.024000 0.028000
1517350197835328132	400 42 0.900000 0.115000 0.104000 1100 38 0.900000 1.454000 1.446000 600 47 1.000000 0.051000 0.051000 1.200000 0.025000 0.030000
1517350198346616049	400 42 0.900000 0.116000 0.105000 1100 37 0.900000 1.605000 1.596000 600 47 1.000000 0.052000 0.052000 1.200000 0.029000 0.035000
1517350198854081882	400 42 0.900000 0.116000 0.105000 1100 37 0.900000 1.462000 1.454000 600 47 1.000000 0.051000 0.051000 1.200000 0.023000 0.027000
1517350199361543508	400 42 0.900000 0.115000 0.104000 1100 38 0.900000 1.453000 1.445000 600 47 1.000000 0.051000 0.051000 1.200000 0.023000 0.027000
1517350199869079174	400 42 0.900000 0.116000 0.105000 1100 38 0.900000 1.453000 1.445000 600 47 1.000000 0.051000 0.051000 1.200000 0.023000 0.027000
1517350200376727008	400 42 0.900000 0.116000 0.105000 1100 38 0.900000 1.624000 1.617000 600 47 1.000000 0.051000 0.051000 1.200000 0.029000 0.035000
1517350200884228799	400 42 0.900000 0.116000 0.105000 1100 37 0.900000 1.450000 1.442000 600 47 1.000000 0.051000 0.051000 1.200000 0.023000 0.027000
1517350201391670383	400 42 0.900000 0.116000 0.105000 1100 37 0.900000 1.453000 1.445000 600 47 1.000000 0.051000 0.051000 1.200000 0.023000 0.027000
1517350201899066549	400 42 0.900000 0.116000 0.105000 1100 38 0.900000 1.454000 1.446000 600 47 1.000000 0.051000 0.051000 1.200000 0.023000 0.027000
1517350202406447216	400 42 0.900000 0.116000 0.105000 1100 37 0.900000 1.621000 1.614000 600 47 1.000000 0.051000 0.051000 1.200000 0.027000 0.032000
1517350202914199716	400 42 0.900000 0.116000 0.105000 1100 37 0.900000 1.451000 1.443000 600 47 1.000000 0.051000 0.051000 1.200000 0.023000 0.027000
1517350203421736175	400 42 0.900000 0.116000 0.105000 1100 37 0.900000 1.497000 1.489000 600 47 1.000000 0.052000 0.052000 1.200000 0.023000 0.027000
1517350203929304966	400 42 0.900000 0.116000 0.105000 1100 38 0.900000 1.489000 1.481000 600 47 1.000000 0.051000 0.051000 1.200000 0.028000 0.033000
1517350204436705008	400 42 0.900000 0.116000 0.105000 1100 37 0.900000 1.457000 1.449000 600 47 1.000000 0.051000 0.051000 1.200000 0.023000 0.027000
1517350204944200842	400 42 0.900000 0.116000 0.105000 1100 38 0.900000 1.452000 1.444000 600 47 1.000000 0.051000 0.051000 1.200000 0.024000 0.028000
1517350205461904425	400 42 0.900000 0.116000 0.105000 1100 38 0.900000 1.451000 1.443000 600 47 1.000000 0.051000 0.051000 1.200000 0.023000 0.027000
1517350205969557092	400 42 0.900000 0.116000 0.105000 1100 37 0.900000 1.453000 1.445000 600 47 1.000000 0.051000 0.051000 1.200000 0.025000 0.030000
1517350206484754592	400 42 0.900000 0.116000 0.105000 1100 38 0.900000 1.453000 1.445000 600 47 1.000000 0.051000 0.051000 1.200000 0.023000 0.027000
1517350206995391925	400 42 0.900000 0.116000 0.105000 1100 38 0.900000 1.454000 1.448000 600 47 1.000000 0.051000 0.051000 1.200000 0.024000 0.028000
1517350207519104050	400 42 0.900000 0.116000 0.105000 1100 38 0.900000 1.470000 1.462000 600 47 1.000000 0.051000 0.051000 1.200000 0.023000 0.027000
1517350208029751592	400 42 0.900000 0.116000 0.105000 1100 38 0.900000 1.534000 1.526000 600 47 1.000000 0.051000 0.051000 1.200000 0.023000 0.027000
1517350208542197967	400 42 0.900000 0.116000 0.105000 1100 38 0.900000 1.459000 1.451000 600 47 1.000000 0.051000 0.051000 1.200000 0.023000 0.027000
1517350209050837217	400 42 0.900000 0.116000 0.105000 1100 38 0.900000 1.632000 1.625000 600 47 1.000000 0.051000 0.051000 1.200000 0.024000 0.028000
1517350209578538717	400 42 0.900000 0.116000 0.105000 1100 38 0.900000 1.465000 1.457000 600 47 1.000000 0.051000 0.051000 1.200000 0.023000 0.027000
1517350210089809550	400 42 0.900000 0.116000 0.105000 1100 38 0.900000 1.537000 1.529000 600 47 1.000000 0.051000 0.051000 1.200000 0.023000 0.027000
1517350210597439967	400 42 0.900000 0.116000 0.105000 1100 37 0.900000 1.455000 1.447000 600 47 1.000000 0.051000 0.051000 1.200000 0.023000 0.027000
1517350211105150051	400 42 0.900000 0.116000 0.105000 1100 38 0.900000 1.622000 1.615000 600 47 1.000000 0.051000 0.051000 1.200000 0.025000 0.030000
1517350211630753592	400 42 0.900000 0.116000 0.105000 1100 38 0.900000 1.454000 1.446000 600 47 1.000000 0.051000 0.051000 1.200000 0.023000 0.027000
1517350212138451384	400 42 0.900000 0.116000 0.105000 1100 37 0.900000 1.500000 1.492000 600 47 1.000000 0.051000 0.051000 1.200000 0.023000 0.027000
1517350212646472301	400 42 0.900000 0.116000 0.105000 1100 37 0.900000 1.461000 1.453000 600 47 1.000000 0.051000 0.051000 1.200000 0.024000 0.028000
1517350213154131676	400 42 0.900000 0.116000 0.105000 1100 38 0.900000 1.456000 1.448000 600 47 1.000000 0.051000 0.051000 1.200000 0.025000 0.030000
1517350213681937176	400 42 0.900000 0.116000 0.105000 1100 38 0.900000 1.510000 1.502000 600 47 1.000000 0.051000 0.051000 1.200000 0.023000 0.027000
1517350214189654009	400 42 0.900000 0.116000 0.105000 1100 38 0.900000 1.531000 1.523000 600 47 1.000000 0.051000 0.051000 1.200000 0.026000 0.031000
1517350214697241468	400 42 0.900000 0.116000 0.105000 1100 37 0.900000 1.459000 1.451000 600 47 1.000000 0.051000 0.051000 1.200000 0.023000 0.027000
1517350215204561593	400 42 0.900000 0.116000 0.105000 1100 38 0.900000 1.465000 1.457000 600 47 1.000000 0.051000 0.051000 1.200000 0.024000 0.028000
1517350215712302384	400 42 0.900000 0.116000 0.105000 1100 38 0.900000 1.530000 1.522000 600 47 1.000000 0.051000 0.051000 1.200000 0.023000 0.027000
1517350216220077301	400 42 0.900000 0.116000 0.105000 1100 38 0.900000 1.540000 1.532000 600 47 1.000000 0.051000 0.051000 1.200000 0.023000 0.027000
1517350216727537968	400 42 0.900000 0.116000 0.105000 1100 38 0.900000 1.455000 1.447000 600 47 1.000000 0.051000 0.051000 1.200000 0.023000 0.027000
1517350217239822426	400 42 0.900000 0.116000 0.105000 1100 38 0.900000 1.464000 1.456000 600 47 1.000000 0.051000 0.051000 1.200000 0.023000 0.027000
1517350217751132926	400 42 0.900000 0.116000 0.105000 1100 38 0.900000 1.560000 1.552000 600 47 1.000000 0.052000 0.052000 1.200000 0.023000 0.027000
1517350218258806593	400 42 0.900000 0.116000 0.105000 1100 38 0.900000 1.537000 1.529000 600 47 1.000000 0.051000 0.051000 1.200000 0.028000 0.033000
1517350218766141843	400 42 0.900000 0.116000 0.105000 1100 38 0.900000 1.453000 1.445000 600 47 1.000000 0.051000 0.051000 1.200000 0.024000 0.028000
1517350219273787718	400 42 0.900000 0.116000 0.105000 1100 38 0.900000 1.451000 1.443000 600 47 1.000000 0.051000 0.051000 1.200000 0.023000 0.027000
1517350219781244760	400 42 0.900000 0.116000 0.105000 1100 38 0.900000 1.587000 1.579000 600 47 1.000000 0.051000 0.051000 1.200000 0.028000 0.033000
1517350220289101552	400 42 0.900000 0.116000 0.105000 1100 38 0.900000 1.503000 1.495000 600 47 1.000000 0.051000 0.051000 1.200000 0.023000 0.027000
1517350220796721177	400 42 0.900000 0.116000 0.105000 1100 38 0.900000 1.457000 1.449000 600 47 1.000000 0.051000 0.051000 1.200000 0.024000 0.028000
1517350221304363885	400 42 0.900000 0.116000 0.105000 1100 38 0.900000 1.462000 1.454000 600 47 1.000000 0.051000 0.051000 1.200000 0.024000 0.028000
1517350221811839969	400 42 0.900000 0.116000 0.105000 1100 38 0.900000 1.478000 1.470000 600 47 1.000000 0.051000 0.051000 1.200000 0.023000 0.027000
1517350222319536677	400 42 0.900000 0.116000 0.105000 1100 38 0.900000 1.539000 1.531000 600 47 1.000000 0.051000 0.051000 1.200000 0.025000 0.030000
1517350222827161177	400 42 0.900000 0.116000 0.105000 1100 38 0.900000 1.469000 1.461000 600 47 1.000000 0.051000 0.051000 1.200000 0.023000 0.027000
1517350223334516969	400 42 0.900000 0.116000 0.105000 1100 37 0.900000 1.454000 1.446000 600 47 1.000000 0.051000 0.051000 1.200000 0.024000 0.028000
1517350223841973385	400 42 0.900000 0.116000 0.105000 1100 38 0.900000 1.469000 1.461000 600 47 1.000000 0.051000 0.051000 1.200000 0.023000 0.027000
1517350224349825844	400 42 0.900000 0.116000 0.105000 1100 38 0.900000 1.531000 1.523000 600 47 1.000000 0.051000 0.051000 1.200000 0.028000 0.033000
1517350224857255261	400 42 0.900000 0.116000 0.105000 1100 38 0.900000 1.452000 1.444000 600 47 1.000000 0.051000 0.051000 1.200000 0.025000 0.030000
1517350225364812136	400 42 0.900000 0.116000 0.105000 1100 38 0.900000 1.457000 1.449000 600 47 1.000000 0.051000 0.051000 1.200000 0.024000 0.028000
1517350225882466511	400 42 0.900000 0.116000 0.105000 1100 38 0.900000 1.452000 1.444000 600 47 1.000000 0.051000 0.051000 1.200000 0.024000 0.028000
1517350226391547219	400 42 0.900000 0.116000 0.105000 1100 38 0.900000 1.522000 1.514000 600 47 1.000000 0.051000 0.051000 1.200000 0.027000 0.032000
1517350226899319802	400 42 0.900000 0.116000 0.105000 1100 37 0.900000 1.450000 1.442000 600 47 1.000000 0.051000 0.051000 1.200000 0.023000 0.027000
1517350227406740011	400 42 0.900000 0.116000 0.105000 1100 37 0.900000 1.460000 1.452000 600 47 1.000000 0.051000 0.051000 1.200000 0.023000 0.027000
1517350227919350261	400 42 0.900000 0.116000 0.105000 1100 37 0.900000 1.459000 1.451000 600 47 1.000000 0.051000 0.051000 1.200000 0.023000 0.027000
1517350228430858886	400 42 0.900000 0.116000 0.105000 1100 38 0.900000 1.671000 1.664000 600 47 1.000000 0.051000 0.051000 1.200000 0.026000 0.031000
1517350228938341678	400 42 0.900000 0.116000 0.105000 1100 38 0.900000 1.468000 1.460000 600 47 1.000000 0.051000 0.051000 1.200000 0.023000 0.027000
1517350229445894886	400 42 0.900000 0.116000 0.105000 1100 38 0.900000 1.453000 1.445000 600 47 1.000000 0.051000 0.051000 1.200000 0.023000 0.027000
1517350229953401594	400 42 0.900000 0.116000 0.105000 1100 38 0.900000 1.466000 1.458000 600 47 1.000000 0.051000 0.051000 1.200000 0.024000 0.028000
1517350230461158136	400 42 0.900000 0.116000 0.105000 1100 38 0.900000 1.661000 1.654000 600 47 1.000000 0.051000 0.051000 1.200000 0.027000 0.032000
1517350230968697095	400 42 0.900000 0.116000 0.105000 1100 38 0.900000 1.454000 1.446000 600 47 1.000000 0.051000 0.051000 1.200000 0.024000 0.028000
1517350231476223720	400 42 0.900000 0.116000 0.105000 1100 38 0.900000 1.451000 1.443000 600 47 1.000000 0.051000 0.051000 1.200000 0.023000 0.027000
1517350231983666220	400 42 0.900000 0.116000 0.105000 1100 38 0.900000 1.451000 1.443000 600 47 1.000000 0.051000 0.051000 1.200000 0.023000 0.027000
1517350232490900095	400 42 0.900000 0.116000 0.105000 1100 38 0.900000 1.631000 1.624000 600 47 1.000000 0.051000 0.051000 1.200000 0.028000 0.033000
1517350232998402012	400 42 0.900000 0.116000 0.105000 1100 38 0.900000 1.454000 1.446000 600 47 1.000000 0.051000 0.051000 1.200000 0.023000 0.027000
1517350233505709470	400 42 0.900000 0.116000 0.105000 1100 38 0.900000 1.451000 1.443000 600 47 1.000000 0.051000 0.051000 1.200000 0.023000 0.027000
1517350234013342428	400 42 0.900000 0.116000 0.105000 1100 38 0.900000 1.454000 1.446000 600 47 1.000000 0.051000 0.051000 1.200000 0.023000 0.027000
1517350234531582220	400 42 0.900000 0.116000 0.105000 1100 38 0.900000 1.463000 1.455000 600 47 1.000000 0.051000 0.051000 1.200000 0.024000 0.028000
1517350235040337678	400 42 0.900000 0.116000 0.105000 1100 38 0.900000 1.559000 1.551000 600 47 1.000000 0.051000 0.051000 1.200000 0.028000 0.033000
1517350235547671678	400 42 0.900000 0.116000 0.105000 1100 38 0.900000 1.471000 1.463000 600 47 1.000000 0.051000 0.051000 1.200000 0.024000 0.028000
1517350236055088595	400 42 0.900000 0.116000 0.105000 1100 38 0.900000 1.455000 1.447000 600 47 1.000000 0.051000 0.051000 1.200000 0.023000 0.027000
1517350236572480762	400 42 0.900000 0.116000 0.105000 1100 38 0.900000 1.473000 1.465000 600 47 1.000000 0.052000 0.052000 1.200000 0.023000 0.027000
1517350237080026804	400 42 0.900000 0.116000 0.105000 1100 38 0.900000 1.590000 1.583000 600 47 1.000000 0.051000 0.051000 1.200000 0.028000 0.033000
1517350237587475054	400 42 0.900000 0.116000 0.105000 1100 38 0.900000 1.453000 1.445000 600 47 1.000000 0.051000 0.051000 1.200000 0.024000 0.028000
1517350238094833554	400 42 0.900000 0.116000 0.105000 1100 38 0.900000 1.452000 1.441000 600 47 1.000000 0.051000 0.051000 1.200000 0.023000 0.027000
1517350238602527637	400 42 0.900000 0.116000 0.105000 1100 37 0.900000 1.519000 1.511000 600 47 1.000000 0.051000 0.051000 1.200000 0.023000 0.027000
1517350239110184512	400 42 0.900000 0.116000 0.105000 1100 38 0.900000 1.622000 1.613000 600 47 1.000000 0.051000 0.051000 1.200000 0.027000 0.032000
1517350239617812221	400 42 0.900000 0.116000 0.105000 1100 38 0.900000 1.453000 1.445000 600 47 1.000000 0.051000 0.051000 1.200000 0.023000 0.027000
1517350240125204304	400 42 0.900000 0.116000 0.105000 1100 38 0.900000 1.453000 1.445000 600 47 1.000000 0.051000 0.051000 1.200000 0.023000 0.027000
1517350240632925846	400 42 0.900000 0.116000 0.105000 1100 38 0.900000 1.526000 1.518000 600 47 1.000000 0.052000 0.052000 1.200000 0.027000 0.032000
1517350241140687762	400 42 0.900000 0.116000 0.105000 1100 38 0.900000 1.465000 1.457000 600 47 1.000000 0.051000 0.051000 1.200000 0.024000 0.028000
1517350241648318513	400 42 0.900000 0.116000 0.105000 1100 38 0.900000 1.454000 1.446000 600 47 1.000000 0.051000 0.051000 1.200000 0.023000 0.027000
1517350242155745263	400 42 0.900000 0.116000 0.105000 1100 38 0.900000 1.470000 1.462000 600 47 1.000000 0.051000 0.051000 1.200000 0.024000 0.028000
1517350242663412679	400 42 0.900000 0.116000 0.105000 1100 38 0.900000 1.453000 1.445000 600 47 1.000000 0.051000 0.051000 1.200000 0.023000 0.027000
1517350243170840804	400 42 0.900000 0.116000 0.105000 1100 38 0.900000 1.451000 1.443000 600 47 1.000000 0.051000 0.051000 1.200000 0.023000 0.027000
1517350243678165596	400 42 0.900000 0.116000 0.105000 1100 38 0.900000 1.451000 1.443000 600 47 1.000000 0.051000 0.051000 1.200000 0.024000 0.028000
1517350244185523805	400 42 0.900000 0.116000 0.105000 1100 38 0.900000 1.451000 1.443000 600 47 1.000000 0.051000 0.051000 1.200000 0.023000 0.027000
1517350244693098263	400 42 0.900000 0.116000 0.105000 1100 38 0.900000 1.492000 1.484000 600 47 1.000000 0.051000 0.051000 1.200000 0.023000 0.027000
1517350245210564846	400 42 0.900000 0.116000 0.105000 1100 38 0.900000 1.454000 1.446000 600 47 1.000000 0.051000 0.051000 1.200000 0.023000 0.027000
1517350245719347263	400 42 0.900000 0.116000 0.105000 1100 38 0.900000 1.630000 1.623000 600 47 1.000000 0.051000 0.051000 1.200000 0.024000 0.028000
1517350246226771055	400 42 0.900000 0.116000 0.105000 1100 38 0.900000 1.465000 1.457000 600 47 1.000000 0.051000 0.051000 1.200000 0.023000 0.027000
1517350246734436346	400 42 0.900000 0.116000 0.105000 1100 38 0.900000 1.462000 1.454000 600 47 1.000000 0.051000 0.051000 1.200000 0.023000 0.027000
1517350247241809263	400 42 0.900000 0.116000 0.105000 1100 38 0.900000 1.461000 1.453000 600 47 1.000000 0.051000 0.051000 1.200000 0.023000 0.027000
1517350247749408305	400 42 0.900000 0.116000 0.105000 1100 38 0.900000 1.636000 1.627000 600 47 1.000000 0.051000 0.051000 1.200000 0.024000 0.028000
1517350248256897305	400 42 0.900000 0.116000 0.105000 1100 38 0.900000 1.456000 1.448000 600 47 1.000000 0.051000 0.051000 1.200000 0.024000 0.028000
1517350248764462805	400 42 0.900000 0.116000 0.105000 1100 38 0.900000 1.468000 1.460000 600 47 1.000000 0.051000 0.051000 1.200000 0.023000 0.027000
1517350249272098472	400 42 0.900000 0.116000 0.105000 1100 38 0.900000 1.530000 1.523000 600 47 1.000000 0.051000 0.051000 1.200000 0.024000 0.028000
1517350249779754847	400 42 0.900000 0.115000 0.104000 1100 38 0.900000 1.465000 1.457000 600 47 1.000000 0.051000 0.051000 1.200000 0.025000 0.030000
1517350250287208139	400 42 0.900000 0.116000 0.105000 1100 38 0.900000 1.463000 1.455000 600 47 1.000000 0.051000 0.051000 1.200000 0.023000 0.027000
1517350250794620472	400 42 0.900000 0.116000 0.105000 1100 38 0.900000 1.460000 1.452000 600 47 1.000000 0.051000 0.051000 1.200000 0.023000 0.027000
1517350251302235805	400 42 0.900000 0.116000 0.105000 1100 38 0.900000 1.534000 1.526000 600 47 1.000000 0.051000 0.051000 1.200000 0.023000 0.027000
1517350251809560222	400 42 0.900000 0.116000 0.105000 1100 38 0.900000 1.457000 1.449000 600 47 1.000000 0.051000 0.051000 1.200000 0.024000 0.028000
1517350252317066514	400 42 0.900000 0.116000 0.105000 1100 38 0.900000 1.502000 1.494000 600 47 1.000000 0.052000 0.052000 1.200000 0.023000 0.027000
1517350252824934056	400 42 0.900000 0.116000 0.105000 1100 38 0.900000 1.453000 1.445000 600 47 1.000000 0.051000 0.051000 1.200000 0.023000 0.027000
1517350253332498514	400 42 0.900000 0.116000 0.105000 1100 38 0.900000 1.492000 1.484000 600 47 1.000000 0.051000 0.051000 1.200000 0.023000 0.027000
1517350253850547514	400 42 0.900000 0.116000 0.105000 1100 38 0.900000 1.459000 1.451000 600 47 1.000000 0.051000 0.051000 1.200000 0.023000 0.027000
1517350254359354556	400 42 0.900000 0.116000 0.105000 1100 38 0.900000 1.517000 1.509000 600 47 1.000000 0.051000 0.051000 1.200000 0.023000 0.027000
1517350254878126722	400 42 0.900000 0.116000 0.105000 1100 38 0.900000 1.452000 1.444000 600 47 1.000000 0.051000 0.051000 1.200000 0.024000 0.028000
1517350255386135723	400 42 0.900000 0.116000 0.105000 1100 38 0.900000 1.536000 1.528000 600 47 1.000000 0.051000 0.051000 1.200000 0.027000 0.032000
1517350255893804514	400 42 0.900000 0.116000 0.105000 1100 38 0.900000 1.459000 1.451000 600 47 1.000000 0.051000 0.051000 1.200000 0.024000 0.028000
1517350256401376931	400 42 0.900000 0.116000 0.105000 1100 38 0.900000 1.543000 1.535000 600 47 1.000000 0.051000 0.051000 1.200000 0.027000 0.032000
1517350256926861848	400 42 0.900000 0.116000 0.105000 1100 38 0.900000 1.454000 1.446000 600 47 1.000000 0.051000 0.051000 1.200000 0.023000 0.027000
1517350257441462181	400 42 0.900000 0.116000 0.105000 1100 38 0.900000 1.535000 1.527000 600 47 1.000000 0.051000 0.051000 1.200000 0.023000 0.027000
1517350257949020723	400 42 0.900000 0.116000 0.105000 1100 38 0.900000 1.465000 1.457000 600 47 1.000000 0.051000 0.051000 1.200000 0.023000 0.027000
1517350258456688306	400 42 0.900000 0.116000 0.105000 1100 38 0.900000 1.516000 1.508000 600 47 1.000000 0.051000 0.051000 1.200000 0.027000 0.032000
1517350258978669931	400 42 0.900000 0.116000 0.105000 1100 38 0.900000 1.460000 1.452000 600 47 1.000000 0.051000 0.051000 1.200000 0.024000 0.028000
1517350259491560181	400 42 0.900000 0.116000 0.105000 1100 38 0.900000 1.541000 1.533000 600 47 1.000000 0.051000 0.051000 1.200000 0.028000 0.033000
1517350259999287098	400 42 0.900000 0.116000 0.105000 1100 38 0.900000 1.454000 1.446000 600 47 1.000000 0.051000 0.051000 1.200000 0.023000 0.027000
1517350260506838306	400 42 0.900000 0.116000 0.105000 1100 38 0.900000 1.488000 1.480000 600 47 1.000000 0.051000 0.051000 1.200000 0.024000 0.028000
1517350261034754932	400 42 0.900000 0.116000 0.105000 1100 38 0.900000 1.462000 1.454000 600 47 1.000000 0.051000 0.051000 1.200000 0.023000 0.027000
1517350261542389390	400 42 0.900000 0.116000 0.105000 1100 38 0.900000 1.497000 1.489000 600 47 1.000000 0.051000 0.051000 1.200000 0.029000 0.035000
1517350262050142307	400 42 0.900000 0.116000 0.105000 1100 38 0.900000 1.453000 1.445000 600 47 1.000000 0.051000 0.051000 1.200000 0.023000 0.027000
1517350262557640682	400 42 0.900000 0.116000 0.105000 1100 38 0.900000 1.450000 1.442000 600 47 1.000000 0.051000 0.051000 1.200000 0.023000 0.027000
1517350263065379348	400 42 0.900000 0.116000 0.105000 1100 38 0.900000 1.452000 1.444000 600 47 1.000000 0.051000 0.051000 1.200000 0.024000 0.028000
1517350263573063265	400 42 0.900000 0.116000 0.105000 1100 38 0.900000 1.454000 1.446000 600 47 1.000000 0.051000 0.051000 1.200000 0.028000 0.033000
1517350264080775974	400 42 0.900000 0.116000 0.105000 1100 38 0.900000 1.456000 1.448000 600 47 1.000000 0.051000 0.051000 1.200000 0.024000 0.028000
1517350264597400140	400 42 0.900000 0.116000 0.105000 1100 38 0.900000 1.471000 1.463000 600 47 1.000000 0.051000 0.051000 1.200000 0.023000 0.027000
1517350265107261890	400 42 0.900000 0.116000 0.105000 1100 38 0.900000 1.639000 1.632000 600 47 1.000000 0.051000 0.051000 1.200000 0.028000 0.033000
1517350265614989807	400 42 0.900000 0.116000 0.105000 1100 38 0.900000 1.543000 1.535000 600 47 1.000000 0.051000 0.051000 1.200000 0.028000 0.033000
1517350266122443974	400 42 0.900000 0.116000 0.105000 1100 38 0.900000 1.459000 1.451000 600 47 1.000000 0.051000 0.051000 1.200000 0.024000 0.028000
1517350266629938807	400 42 0.900000 0.116000 0.105000 1100 38 0.900000 1.468000 1.460000 600 47 1.000000 0.051000 0.051000 1.200000 0.023000 0.027000
1517350267137557016	400 42 0.900000 0.116000 0.105000 1100 38 0.900000 1.625000 1.618000 600 47 1.000000 0.051000 0.051000 1.200000 0.026000 0.031000
1517350267645378807	400 42 0.900000 0.116000 0.105000 1100 38 0.900000 1.535000 1.527000 600 47 1.000000 0.051000 0.051000 1.200000 0.029000 0.035000
1517350268153106057	400 42 0.900000 0.116000 0.105000 1100 38 0.900000 1.453000 1.445000 600 47 1.000000 0.051000 0.051000 1.200000 0.023000 0.027000
1517350268660627224	400 42 0.900000 0.116000 0.105000 1100 38 0.900000 1.453000 1.445000 600 47 1.000000 0.051000 0.051000 1.200000 0.024000 0.028000
1517350269168249058	400 42 0.900000 0.116000 0.105000 1100 38 0.900000 1.621000 1.612000 600 47 1.000000 0.051000 0.051000 1.200000 0.026000 0.031000
1517350269675789099	400 42 0.900000 0.116000 0.105000 1100 38 0.900000 1.488000 1.480000 600 47 1.000000 0.051000 0.051000 1.200000 0.027000 0.032000
1517350270183296474	400 42 0.900000 0.116000 0.105000 1100 38 0.900000 1.450000 1.442000 600 47 1.000000 0.051000 0.051000 1.200000 0.023000 0.027000
1517350270691158808	400 42 0.900000 0.116000 0.105000 1100 38 0.900000 1.452000 1.444000 600 47 1.000000 0.051000 0.051000 1.200000 0.023000 0.027000
1517350271198480974	400 42 0.900000 0.116000 0.105000 1100 38 0.900000 1.467000 1.459000 600 47 1.000000 0.051000 0.051000 1.200000 0.024000 0.028000
1517350271706122808	400 42 0.900000 0.116000 0.105000 1100 38 0.900000 1.528000 1.520000 600 47 1.000000 0.051000 0.051000 1.200000 0.025000 0.030000
1517350272213824433	400 42 0.900000 0.116000 0.105000 1100 38 0.900000 1.463000 1.455000 600 47 1.000000 0.051000 0.051000 1.200000 0.023000 0.027000
1517350272721279016	400 42 0.900000 0.116000 0.105000 1100 38 0.900000 1.462000 1.454000 600 47 1.000000 0.051000 0.051000 1.200000 0.023000 0.027000
1517350273238201391	400 42 0.900000 0.116000 0.105000 1100 38 0.900000 1.454000 1.446000 600 47 1.000000 0.051000 0.051000 1.200000 0.023000 0.027000
1517350273749894558	400 42 0.900000 0.116000 0.105000 1100 38 0.900000 1.545000 1.537000 600 47 1.000000 0.051000 0.051000 1.200000 0.031000 0.037000
1517350274257425350	400 42 0.900000 0.116000 0.105000 1100 38 0.900000 1.451000 1.443000 600 47 1.000000 0.051000 0.051000 1.200000 0.023000 0.027000
1517350274764813350	400 42 0.900000 0.116000 0.105000 1100 38 0.900000 1.452000 1.444000 600 47 1.000000 0.051000 0.051000 1.200000 0.024000 0.028000
1517350275277307600	400 42 0.900000 0.116000 0.105000 1100 38 0.900000 1.456000 1.448000 600 47 1.000000 0.051000 0.051000 1.200000 0.023000 0.027000
1517350275786084642	400 42 0.900000 0.116000 0.105000 1100 38 0.900000 1.582000 1.575000 600 47 1.000000 0.051000 0.051000 1.200000 0.032000 0.038000
1517350276293640017	400 42 0.900000 0.116000 0.105000 1100 38 0.900000 1.453000 1.445000 600 47 1.000000 0.051000 0.051000 1.200000 0.023000 0.027000
1517350276801144225	400 42 0.900000 0.116000 0.105000 1100 38 0.900000 1.450000 1.442000 600 47 1.000000 0.051000 0.051000 1.200000 0.023000 0.027000
1517350277308709267	400 42 0.900000 0.116000 0.105000 1100 38 0.900000 1.454000 1.446000 600 47 1.000000 0.051000 0.051000 1.200000 0.023000 0.027000
1517350277816648184	400 42 0.900000 0.116000 0.105000 1100 38 0.900000 1.524000 1.516000 600 47 1.000000 0.051000 0.051000 1.200000 0.023000 0.027000
1517350278324141892	400 42 0.900000 0.116000 0.105000 1100 38 0.900000 1.462000 1.454000 600 47 1.000000 0.052000 0.052000 1.200000 0.023000 0.027000
1517350278831510142	400 42 0.900000 0.116000 0.105000 1100 38 0.900000 1.463000 1.455000 600 47 1.000000 0.051000 0.051000 1.200000 0.024000 0.028000
1517350279338841142	400 42 0.900000 0.116000 0.105000 1100 38 0.900000 1.452000 1.444000 600 47 1.000000 0.051000 0.051000 1.200000 0.023000 0.027000
1517350279846206184	400 43 0.900000 0.116000 0.105000 1100 38 0.900000 1.537000 1.529000 600 47 1.000000 0.051000 0.051000 1.200000 0.023000 0.027000
1517350280353813476	400 42 0.900000 0.116000 0.105000 1100 38 0.900000 1.455000 1.447000 600 47 1.000000 0.051000 0.051000 1.200000 0.024000 0.028000
1517350280861248809	400 42 0.900000 0.116000 0.105000 1100 38 0.900000 1.453000 1.445000 600 47 1.000000 0.051000 0.051000 1.200000 0.024000 0.028000
1517350281368842934	400 42 0.900000 0.116000 0.105000 1100 38 0.900000 1.453000 1.445000 600 47 1.000000 0.052000 0.052000 1.200000 0.023000 0.027000
1517350281886063767	400 42 0.900000 0.116000 0.105000 1100 38 0.900000 1.528000 1.520000 600 47 1.000000 0.051000 0.051000 1.200000 0.025000 0.030000
1517350282397579517	400 42 0.900000 0.116000 0.105000 1100 38 0.900000 1.454000 1.446000 600 47 1.000000 0.051000 0.051000 1.200000 0.024000 0.028000
1517350282905328642	400 42 0.900000 0.116000 0.105000 1100 38 0.900000 1.454000 1.446000 600 47 1.000000 0.051000 0.051000 1.200000 0.023000 0.027000
1517350283412685684	400 42 0.900000 0.116000 0.105000 1100 38 0.900000 1.459000 1.451000 600 47 1.000000 0.051000 0.051000 1.200000 0.023000 0.027000
1517350283920157143	400 42 0.900000 0.116000 0.105000 1100 38 0.900000 1.463000 1.455000 600 47 1.000000 0.051000 0.051000 1.200000 0.028000 0.033000
1517350284427836476	400 42 0.900000 0.116000 0.105000 1100 38 0.900000 1.633000 1.626000 600 47 1.000000 0.051000 0.051000 1.200000 0.025000 0.030000
1517350284935461184	400 42 0.900000 0.116000 0.105000 1100 38 0.900000 1.452000 1.444000 600 47 1.000000 0.051000 0.051000 1.200000 0.023000 0.027000
1517350285442989601	400 42 0.900000 0.116000 0.105000 1100 38 0.900000 1.469000 1.461000 600 47 1.000000 0.051000 0.051000 1.200000 0.023000 0.027000
1517350285950692976	400 42 0.900000 0.116000 0.105000 1100 38 0.900000 1.453000 1.445000 600 47 1.000000 0.051000 0.051000 1.200000 0.023000 0.027000
1517350286458327476	400 42 0.900000 0.116000 0.105000 1100 38 0.900000 1.537000 1.529000 600 47 1.000000 0.051000 0.051000 1.200000 0.025000 0.030000
1517350286965852976	400 42 0.900000 0.116000 0.105000 1100 38 0.900000 1.459000 1.451000 600 47 1.000000 0.051000 0.051000 1.200000 0.024000 0.028000
1517350287473224976	400 42 0.900000 0.116000 0.105000 1100 38 0.900000 1.462000 1.454000 600 47 1.000000 0.051000 0.051000 1.200000 0.023000 0.027000
1517350287980975768	400 42 0.900000 0.116000 0.105000 1100 38 0.900000 1.463000 1.455000 600 47 1.000000 0.051000 0.051000 1.200000 0.023000 0.027000
1517350288488385810	400 42 0.900000 0.116000 0.105000 1100 38 0.900000 1.460000 1.452000 600 47 1.000000 0.051000 0.051000 1.200000 0.025000 0.030000
1517350288995978352	400 42 0.900000 0.116000 0.105000 1100 38 0.900000 1.477000 1.469000 600 47 1.000000 0.051000 0.051000 1.200000 0.023000 0.027000
1517350289503537310	400 42 0.900000 0.116000 0.105000 1100 38 0.900000 1.455000 1.447000 600 47 1.000000 0.051000 0.051000 1.200000 0.023000 0.027000
1517350290011061143	400 42 0.900000 0.116000 0.105000 1100 38 0.900000 1.470000 1.462000 600 47 1.000000 0.051000 0.051000 1.200000 0.026000 0.031000
1517350290526687393	400 42 0.900000 0.116000 0.105000 1100 38 0.900000 1.457000 1.449000 600 47 1.000000 0.051000 0.051000 1.200000 0.023000 0.027000
1517350291035620018	400 42 0.900000 0.116000 0.105000 1100 38 0.900000 1.493000 1.485000 600 47 1.000000 0.051000 0.051000 1.200000 0.023000 0.027000
1517350291543000394	400 42 0.900000 0.116000 0.105000 1100 38 0.900000 1.453000 1.445000 600 47 1.000000 0.051000 0.051000 1.200000 0.023000 0.027000
1517350292050483935	400 42 0.900000 0.116000 0.105000 1100 38 0.900000 1.465000 1.457000 600 47 1.000000 0.051000 0.051000 1.200000 0.023000 0.027000
1517350292558073727	400 42 0.900000 0.116000 0.105000 1100 38 0.900000 1.540000 1.532000 600 47 1.000000 0.051000 0.051000 1.200000 0.024000 0.028000
1517350293065658394	400 42 0.900000 0.116000 0.105000 1100 38 0.900000 1.564000 1.556000 600 47 1.000000 0.051000 0.051000 1.200000 0.028000 0.033000
1517350293573259727	400 42 0.900000 0.116000 0.105000 1100 38 0.900000 1.455000 1.447000 600 47 1.000000 0.051000 0.051000 1.200000 0.023000 0.027000
1517350294080849269	400 42 0.900000 0.116000 0.105000 1100 38 0.900000 1.465000 1.457000 600 47 1.000000 0.051000 0.051000 1.200000 0.023000 0.027000
1517350294588412852	400 42 0.900000 0.116000 0.105000 1100 38 0.900000 1.517000 1.509000 600 47 1.000000 0.051000 0.051000 1.200000 0.023000 0.027000
1517350295095999227	400 42 0.900000 0.116000 0.105000 1100 38 0.900000 1.537000 1.530000 600 47 1.000000 0.051000 0.051000 1.200000 0.027000 0.032000
1517350295603410602	400 42 0.900000 0.116000 0.105000 1100 38 0.900000 1.465000 1.457000 600 47 1.000000 0.051000 0.051000 1.200000 0.023000 0.027000
1517350296110801269	400 42 0.900000 0.116000 0.105000 1100 38 0.900000 1.456000 1.448000 600 47 1.000000 0.052000 0.052000 1.200000 0.023000 0.027000
1517350296618313769	400 42 0.900000 0.116000 0.105000 1100 38 0.900000 1.470000 1.462000 600 47 1.000000 0.051000 0.051000 1.200000 0.023000 0.027000
1517350297125957936	400 43 0.900000 0.116000 0.105000 1100 38 0.900000 1.501000 1.493000 600 47 1.000000 0.051000 0.051000 1.200000 0.027000 0.032000
1517350297633418644	400 42 0.900000 0.116000 0.105000 1100 38 0.900000 1.451000 1.443000 600 47 1.000000 0.051000 0.051000 1.200000 0.023000 0.027000
1517350298141261186	400 42 0.900000 0.116000 0.105000 1100 38 0.900000 1.451000 1.443000 600 47 1.000000 0.051000 0.051000 1.200000 0.026000 0.031000
1517350298648960686	400 42 0.900000 0.116000 0.105000 1100 38 0.900000 1.531000 1.523000 600 47 1.000000 0.051000 0.051000 1.200000 0.025000 0.030000
1517350299159436103	400 42 0.900000 0.116000 0.105000 1100 38 0.900000 1.461000 1.453000 600 47 1.000000 0.051000 0.051000 1.200000 0.023000 0.027000
1517350299666940519	400 42 0.900000 0.116000 0.105000 1100 38 0.900000 1.609000 1.600000 600 47 1.000000 0.051000 0.051000 1.200000 0.023000 0.027000
1517350300191873436	400 42 0.900000 0.116000 0.105000 1100 38 0.900000 1.465000 1.457000 600 47 1.000000 0.051000 0.051000 1.200000 0.024000 0.028000
1517350300699508936	400 42 0.900000 0.116000 0.105000 1100 38 0.900000 1.533000 1.525000 600 47 1.000000 0.051000 0.051000 1.200000 0.027000 0.032000
1517350301211838145	400 42 0.900000 0.116000 0.105000 1100 38 0.900000 1.460000 1.452000 600 47 1.000000 0.051000 0.051000 1.200000 0.024000 0.028000
1517350301723410353	400 42 0.900000 0.116000 0.105000 1100 38 0.900000 1.632000 1.625000 600 47 1.000000 0.051000 0.051000 1.200000 0.028000 0.033000
1517350302250419895	400 42 0.900000 0.116000 0.105000 1100 38 0.900000 1.470000 1.462000 600 47 1.000000 0.051000 0.051000 1.200000 0.023000 0.027000
1517350302758180853	400 42 0.900000 0.116000 0.105000 1100 38 0.900000 1.509000 1.501000 600 47 1.000000 0.051000 0.051000 1.200000 0.028000 0.033000
1517350303265666020	400 42 0.900000 0.116000 0.105000 1100 38 0.900000 1.459000 1.451000 600 47 1.000000 0.051000 0.051000 1.200000 0.024000 0.028000
1517350303773229937	400 42 0.900000 0.116000 0.105000 1100 38 0.900000 1.622000 1.615000 600 47 1.000000 0.051000 0.051000 1.200000 0.027000 0.032000
1517350304294913437	400 42 0.900000 0.116000 0.105000 1100 38 0.900000 1.453000 1.445000 600 47 1.000000 0.051000 0.051000 1.200000 0.024000 0.028000
1517350304811512562	400 42 0.900000 0.116000 0.105000 1100 38 0.900000 1.452000 1.444000 600 47 1.000000 0.051000 0.051000 1.200000 0.028000 0.033000
1517350305319169645	400 42 0.900000 0.116000 0.105000 1100 38 0.900000 1.449000 1.441000 600 47 1.000000 0.051000 0.051000 1.200000 0.024000 0.028000
1517350305826686270	400 43 0.900000 0.116000 0.105000 1100 38 0.900000 1.620000 1.613000 600 47 1.000000 0.051000 0.051000 1.200000 0.026000 0.031000
1517350306353153104	400 42 0.900000 0.116000 0.105000 1100 38 0.900000 1.453000 1.445000 600 47 1.000000 0.051000 0.051000 1.200000 0.024000 0.028000
1517350306860857270	400 42 0.900000 0.116000 0.105000 1100 38 0.900000 1.453000 1.445000 600 47 1.000000 0.051000 0.051000 1.200000 0.025000 0.030000
1517350307368516895	400 43 0.900000 0.116000 0.105000 1100 38 0.900000 1.450000 1.442000 600 47 1.000000 0.051000 0.051000 1.200000 0.023000 0.027000
1517350307875953312	400 43 0.900000 0.116000 0.105000 1100 38 0.900000 1.468000 1.460000 600 47 1.000000 0.051000 0.051000 1.200000 0.024000 0.028000
1517350308384702771	400 42 0.900000 0.116000 0.105000 1100 38 0.900000 1.451000 1.443000 600 47 1.000000 0.051000 0.051000 1.200000 0.025000 0.030000
1517350308892298021	400 43 0.900000 0.116000 0.105000 1100 38 0.900000 1.536000 1.528000 600 47 1.000000 0.052000 0.052000 1.200000 0.028000 0.033000
1517350309399856896	400 42 0.900000 0.116000 0.105000 1100 38 0.900000 1.457000 1.449000 600 47 1.000000 0.051000 0.051000 1.200000 0.024000 0.028000
1517350309912601479	400 42 0.900000 0.116000 0.105000 1100 38 0.900000 1.460000 1.452000 600 47 1.000000 0.051000 0.051000 1.200000 0.023000 0.027000
1517350310420275354	400 42 0.900000 0.116000 0.105000 1100 38 0.900000 1.455000 1.447000 600 47 1.000000 0.051000 0.051000 1.200000 0.026000 0.031000
1517350310928037312	400 42 0.900000 0.116000 0.105000 1100 38 0.900000 1.521000 1.513000 600 47 1.000000 0.051000 0.051000 1.200000 0.027000 0.032000
1517350311435499188	400 42 0.900000 0.116000 0.105000 1100 38 0.900000 1.453000 1.445000 600 47 1.000000 0.051000 0.051000 1.200000 0.023000 0.027000
1517350311952277104	400 42 0.900000 0.116000 0.105000 1100 38 0.900000 1.451000 1.443000 600 47 1.000000 0.051000 0.051000 1.200000 0.024000 0.028000
1517350312459793771	400 42 0.900000 0.116000 0.105000 1100 38 0.900000 1.474000 1.466000 600 47 1.000000 0.051000 0.051000 1.200000 0.028000 0.033000
1517350312967468563	400 42 0.900000 0.116000 0.105000 1100 38 0.900000 1.456000 1.448000 600 47 1.000000 0.051000 0.051000 1.200000 0.028000 0.033000
1517350313475074229	400 42 0.900000 0.116000 0.105000 1100 38 0.900000 1.450000 1.442000 600 47 1.000000 0.051000 0.051000 1.200000 0.023000 0.027000
1517350313982500563	400 42 0.900000 0.116000 0.105000 1100 38 0.900000 1.453000 1.445000 600 47 1.000000 0.052000 0.052000 1.200000 0.023000 0.027000
1517350314490334438	400 42 0.900000 0.116000 0.105000 1100 38 0.900000 1.577000 1.569000 600 47 1.000000 0.051000 0.051000 1.200000 0.023000 0.027000
1517350314998111480	400 43 0.900000 0.116000 0.105000 1100 38 0.900000 1.540000 1.532000 600 47 1.000000 0.051000 0.051000 1.200000 0.026000 0.031000
1517350315505653980	400 42 0.900000 0.116000 0.105000 1100 38 0.900000 1.455000 1.447000 600 47 1.000000 0.051000 0.051000 1.200000 0.023000 0.027000
1517350316013196230	400 42 0.900000 0.115000 0.104000 1100 38 0.900000 1.467000 1.459000 600 47 1.000000 0.051000 0.051000 1.200000 0.023000 0.027000
1517350316520880855	400 42 0.900000 0.116000 0.105000 1100 38 0.900000 1.547000 1.539000 600 47 1.000000 0.051000 0.051000 1.200000 0.023000 0.027000
1517350317028752980	400 43 0.900000 0.116000 0.105000 1100 38 0.900000 1.524000 1.516000 600 47 1.000000 0.051000 0.051000 1.200000 0.029000 0.035000
1517350317536287230	400 42 0.900000 0.116000 0.105000 1100 38 0.900000 1.449000 1.441000 600 47 1.000000 0.051000 0.051000 1.200000 0.024000 0.028000
1517350318043971938	400 42 0.900000 0.116000 0.105000 1100 38 0.900000 1.452000 1.444000 600 47 1.000000 0.051000 0.051000 1.200000 0.023000 0.027000
1517350318551283230	400 43 0.900000 0.116000 0.105000 1100 38 0.900000 1.512000 1.504000 600 47 1.000000 0.051000 0.051000 1.200000 0.024000 0.028000
1517350319059166147	400 42 0.900000 0.116000 0.105000 1100 38 0.900000 1.497000 1.489000 600 47 1.000000 0.051000 0.051000 1.200000 0.027000 0.032000
1517350319566534272	400 42 0.900000 0.116000 0.105000 1100 38 0.900000 1.449000 1.441000 600 47 1.000000 0.051000 0.051000 1.200000 0.023000 0.027000
1517350320073890147	400 42 0.900000 0.116000 0.105000 1100 38 0.900000 1.451000 1.445000 600 47 1.000000 0.051000 0.051000 1.200000 0.023000 0.027000
1517350320589993147	400 42 0.900000 0.116000 0.105000 1100 38 0.900000 1.488000 1.482000 600 47 1.000000 0.052000 0.052000 1.200000 0.023000 0.027000
1517350321101602980	400 43 0.900000 0.116000 0.105000 1100 38 0.900000 1.453000 1.447000 600 47 1.000000 0.051000 0.051000 1.200000 0.027000 0.032000
1517350321609797064	400 43 0.900000 0.116000 0.105000 1100 38 0.900000 1.453000 1.445000 600 47 1.000000 0.051000 0.051000 1.200000 0.023000 0.027000
1517350322117452147	400 42 0.900000 0.116000 0.105000 1100 38 0.900000 1.451000 1.443000 600 47 1.000000 0.051000 0.051000 1.200000 0.024000 0.028000
1517350322625061481	400 42 0.900000 0.116000 0.105000 1100 38 0.900000 1.462000 1.454000 600 47 1.000000 0.051000 0.051000 1.200000 0.023000 0.027000
1517350323132576606	400 43 0.900000 0.116000 0.105000 1100 38 0.900000 1.458000 1.450000 600 47 1.000000 0.051000 0.051000 1.200000 0.030000 0.036000
1517350323640139606	400 42 0.900000 0.116000 0.105000 1100 38 0.900000 1.459000 1.451000 600 47 1.000000 0.051000 0.051000 1.200000 0.023000 0.027000
1517350324147647314	400 42 0.900000 0.116000 0.105000 1100 38 0.900000 1.463000 1.455000 600 47 1.000000 0.051000 0.051000 1.200000 0.024000 0.028000
1517350324655223772	400 42 0.900000 0.116000 0.105000 1100 38 0.900000 1.454000 1.446000 600 47 1.000000 0.051000 0.051000 1.200000 0.024000 0.028000
1517350325162533314	400 43 0.900000 0.116000 0.105000 1100 38 0.900000 1.467000 1.459000 600 47 1.000000 0.051000 0.051000 1.200000 0.028000 0.033000
1517350325670147106	400 43 0.900000 0.116000 0.105000 1100 38 0.900000 1.469000 1.461000 600 47 1.000000 0.051000 0.051000 1.200000 0.023000 0.027000
1517350326177602106	400 42 0.900000 0.116000 0.105000 1100 38 0.900000 1.466000 1.458000 600 47 1.000000 0.051000 0.051000 1.200000 0.023000 0.027000
1517350326685119814	400 42 0.900000 0.116000 0.105000 1100 38 0.900000 1.456000 1.448000 600 47 1.000000 0.051000 0.051000 1.200000 0.023000 0.027000
1517350327197670648	400 42 0.900000 0.115000 0.104000 1100 38 0.900000 1.459000 1.451000 600 47 1.000000 0.051000 0.051000 1.200000 0.028000 0.033000
1517350327707282106	400 42 0.900000 0.116000 0.105000 1100 38 0.900000 1.499000 1.491000 600 47 1.000000 0.051000 0.051000 1.200000 0.023000 0.027000
1517350328214728606	400 42 0.900000 0.115000 0.104000 1100 38 0.900000 1.452000 1.444000 600 47 1.000000 0.051000 0.051000 1.200000 0.023000 0.027000
1517350328722303065	400 42 0.900000 0.116000 0.105000 1100 38 0.900000 1.457000 1.449000 600 47 1.000000 0.051000 0.051000 1.200000 0.024000 0.028000
1517350329234551273	400 42 0.900000 0.116000 0.105000 1100 38 0.900000 1.464000 1.456000 600 47 1.000000 0.051000 0.051000 1.200000 0.023000 0.027000
1517350329742595481	400 42 0.900000 0.116000 0.105000 1100 38 0.900000 1.571000 1.563000 600 47 1.000000 0.051000 0.051000 1.200000 0.028000 0.033000
1517350330250116023	400 42 0.900000 0.116000 0.105000 1100 38 0.900000 1.456000 1.448000 600 47 1.000000 0.051000 0.051000 1.200000 0.024000 0.028000
1517350330757530773	400 42 0.900000 0.116000 0.105000 1100 38 0.900000 1.468000 1.460000 600 47 1.000000 0.051000 0.051000 1.200000 0.023000 0.027000
1517350331265181065	400 43 0.900000 0.116000 0.105000 1100 38 0.900000 1.451000 1.443000 600 47 1.000000 0.051000 0.051000 1.200000 0.023000 0.027000
1517350331772797940	400 43 0.900000 0.116000 0.105000 1100 38 0.900000 1.529000 1.521000 600 47 1.000000 0.051000 0.051000 1.200000 0.027000 0.032000
1517350332280364648	400 42 0.900000 0.116000 0.105000 1100 38 0.900000 1.455000 1.447000 600 47 1.000000 0.051000 0.051000 1.200000 0.023000 0.027000
1517350332787860107	400 42 0.900000 0.116000 0.105000 1100 38 0.900000 1.462000 1.454000 600 47 1.000000 0.051000 0.051000 1.200000 0.023000 0.027000
1517350333295376440	400 43 0.900000 0.115000 0.104000 1100 38 0.900000 1.460000 1.452000 600 47 1.000000 0.051000 0.051000 1.200000 0.026000 0.031000
1517350333802857315	400 43 0.900000 0.116000 0.105000 1100 38 0.900000 1.489000 1.481000 600 47 1.000000 0.051000 0.051000 1.200000 0.027000 0.032000
1517350334310139982	400 43 0.900000 0.116000 0.105000 1100 38 0.900000 1.450000 1.442000 600 47 1.000000 0.051000 0.051000 1.200000 0.023000 0.027000
1517350334817574065	400 43 0.900000 0.116000 0.105000 1100 38 0.900000 1.451000 1.443000 600 47 1.000000 0.051000 0.051000 1.200000 0.023000 0.027000
1517350335325090899	400 42 0.900000 0.116000 0.105000 1100 38 0.900000 1.469000 1.461000 600 47 1.000000 0.051000 0.051000 1.200000 0.023000 0.027000
1517350335832460982	400 42 0.900000 0.116000 0.105000 1100 38 0.900000 1.524000 1.516000 600 47 1.000000 0.051000 0.051000 1.200000 0.023000 0.027000
1517350336339558524	400 42 0.900000 0.116000 0.105000 1100 38 0.900000 1.618000 1.611000 600 47 1.000000 0.051000 0.051000 1.200000 0.023000 0.027000
1517350336847012732	400 42 0.900000 0.116000 0.105000 1100 38 0.900000 1.455000 1.447000 600 47 1.000000 0.051000 0.051000 1.200000 0.023000 0.027000
1517350337354767274	400 42 0.900000 0.116000 0.105000 1100 38 0.900000 1.462000 1.454000 600 47 1.000000 0.051000 0.051000 1.200000 0.023000 0.027000
1517350337869831441	400 42 0.900000 0.116000 0.105000 1100 38 0.900000 1.463000 1.455000 600 47 1.000000 0.051000 0.051000 1.200000 0.023000 0.027000
1517350338379104774	400 43 0.900000 0.116000 0.105000 1100 38 0.900000 1.626000 1.619000 600 47 1.000000 0.051000 0.051000 1.200000 0.023000 0.027000
1517350338886599566	400 42 0.900000 0.116000 0.105000 1100 38 0.900000 1.451000 1.443000 600 47 1.000000 0.051000 0.051000 1.200000 0.023000 0.027000
1517350339394304983	400 43 0.900000 0.116000 0.105000 1100 38 0.900000 1.468000 1.460000 600 47 1.000000 0.051000 0.051000 1.200000 0.023000 0.027000
1517350339901803316	400 42 0.900000 0.115000 0.104000 1100 38 0.900000 1.451000 1.443000 600 47 1.000000 0.051000 0.051000 1.200000 0.023000 0.027000
1517350340409459441	400 43 0.900000 0.116000 0.105000 1100 38 0.900000 1.619000 1.612000 600 47 1.000000 0.051000 0.051000 1.200000 0.027000 0.032000
1517350340917026524	400 42 0.900000 0.116000 0.105000 1100 38 0.900000 1.449000 1.441000 600 47 1.000000 0.051000 0.051000 1.200000 0.023000 0.027000
1517350341424757233	400 43 0.900000 0.116000 0.105000 1100 38 0.900000 1.449000 1.441000 600 47 1.000000 0.051000 0.051000 1.200000 0.023000 0.027000
1517350341932404108	400 43 0.900000 0.116000 0.105000 1100 38 0.900000 1.451000 1.443000 600 47 1.000000 0.051000 0.051000 1.200000 0.024000 0.028000
1517350342439841150	400 43 0.900000 0.116000 0.105000 1100 38 0.900000 1.453000 1.445000 600 47 1.000000 0.051000 0.051000 1.200000 0.023000 0.027000
1517350342947497150	400 43 0.900000 0.116000 0.105000 1100 38 0.900000 1.469000 1.461000 600 47 1.000000 0.051000 0.051000 1.200000 0.026000 0.031000
1517350343457557483	400 43 0.900000 0.116000 0.105000 1100 38 0.900000 1.453000 1.445000 600 47 1.000000 0.051000 0.051000 1.200000 0.023000 0.027000
1517350343965226566	400 43 0.900000 0.116000 0.105000 1100 38 0.900000 1.537000 1.529000 600 47 1.000000 0.051000 0.051000 1.200000 0.028000 0.033000
1517350344472588983	400 43 0.900000 0.116000 0.105000 1100 38 0.900000 1.465000 1.457000 600 47 1.000000 0.051000 0.051000 1.200000 0.024000 0.028000
1517350344980140025	400 43 0.900000 0.116000 0.105000 1100 38 0.900000 1.454000 1.446000 600 47 1.000000 0.052000 0.052000 1.200000 0.025000 0.030000
1517350345509668442	400 42 0.900000 0.116000 0.105000 1100 38 0.900000 1.453000 1.445000 600 47 1.000000 0.051000 0.051000 1.200000 0.024000 0.028000
1517350346018987608	400 42 0.900000 0.116000 0.105000 1100 38 0.900000 1.450000 1.442000 600 47 1.000000 0.052000 0.052000 1.200000 0.028000 0.033000
1517350346534686067	400 42 0.900000 0.116000 0.105000 1100 38 0.900000 1.451000 1.443000 600 47 1.000000 0.052000 0.052000 1.200000 0.024000 0.028000
1517350347043284608	400 43 0.900000 0.116000 0.105000 1100 38 0.900000 1.454000 1.446000 600 47 1.000000 0.051000 0.051000 1.200000 0.027000 0.032000
1517350347570605525	400 42 0.900000 0.116000 0.105000 1100 38 0.900000 1.451000 1.443000 600 47 1.000000 0.051000 0.051000 1.200000 0.023000 0.027000
1517350348081119900	400 43 0.900000 0.116000 0.105000 1100 38 0.900000 1.450000 1.442000 600 47 1.000000 0.051000 0.051000 1.200000 0.027000 0.032000
1517350348598298734	400 42 0.900000 0.111000 0.101000 1100 38 0.900000 1.425000 1.417000 600 44 1.000000 0.051000 0.051000 1.200000 0.024000 0.028000
1517350349105572609	400 38 0.900000 0.094000 0.085000 1100 37 0.900000 0.421000 0.419000 600 42 1.000000 0.051000 0.051000 1.200000 0.027000 0.032000
1517350349630697150	400 37 0.900000 0.091000 0.082000 1100 36 1.000000 0.124000 0.124000 600 41 1.000000 0.051000 0.051000 1.200000 0.023000 0.027000
1517350350143216984	400 36 0.900000 0.092000 0.083000 1100 36 1.000000 0.121000 0.121000 600 40 1.000000 0.051000 0.051000 1.200000 0.024000 0.028000
1517350350650558067	400 36 0.900000 0.091000 0.082000 1100 35 1.000000 0.119000 0.119000 600 39 1.000000 0.051000 0.051000 1.200000 0.023000 0.027000
1517350351158047442	400 36 0.900000 0.093000 0.084000 1100 35 1.000000 0.277000 0.277000 600 39 1.000000 0.051000 0.051000 1.200000 0.023000 0.027000
1517350351683023151	400 35 0.900000 0.091000 0.082000 1100 35 1.000000 0.144000 0.144000 600 39 1.000000 0.051000 0.051000 1.200000 0.023000 0.027000
1517350352191346651	400 35 0.900000 0.092000 0.083000 1100 34 1.000000 0.231000 0.231000 600 38 1.000000 0.051000 0.051000 1.200000 0.028000 0.033000
1517350352698683984	400 35 0.900000 0.091000 0.082000 1100 34 1.000000 0.130000 0.130000 600 38 1.000000 0.051000 0.051000 1.200000 0.023000 0.027000
1517350353205938401	400 34 0.900000 0.044000 0.040000 1100 34 1.000000 0.247000 0.247000 600 38 1.000000 0.051000 0.051000 1.200000 0.023000 0.027000
1517350353734662818	400 36 0.900000 0.043000 0.039000 1100 34 1.000000 0.119000 0.119000 600 38 1.000000 0.051000 0.051000 1.200000 0.023000 0.027000
1517350354245049068	400 38 0.900000 0.031000 0.028000 1100 34 0.900000 0.709000 0.702000 600 39 1.000000 0.051000 0.051000 1.200000 0.036000 0.043000
1517350354752817818	400 38 0.900000 0.017000 0.015000 1100 34 0.900000 0.687000 0.680000 600 39 1.000000 0.051000 0.051000 1.200000 0.033000 0.039000
1517350355260517318	400 38 0.900000 0.018000 0.016000 1100 35 0.900000 0.739000 0.732000 600 39 1.000000 0.051000 0.051000 1.200000 0.033000 0.039000
1517350355768237693	400 34 0.900000 0.023000 0.021000 1100 34 1.000000 0.150000 0.150000 600 38 1.000000 0.051000 0.051000 1.200000 0.035000 0.042000
1517350356275648235	400 34 0.900000 0.017000 0.015000 1100 33 1.000000 0.119000 0.119000 600 38 1.000000 0.051000 0.051000 1.200000 0.025000 0.030000
