#Timestamp	CPU(0) Frequency(MHz)	CPU(0) Temperature(C)	A7 Voltage(V)	A7 Current(A)	A7 Power(W)	CPU(4) Frequency(MHz)	CPU(4) Temperature(C)	A15 Voltage(V)	A15 Current(A)	A15 Power(W)	GPU Frequency(MHz)	GPU Temperature(C)	GPU Voltage(V)	GPU Current(A)	GPU Power(W)	RAM Voltage(V)	RAM Current(A)	RAM Power(W)
1553347884462676668	300 58 0.900000 0.051000 0.049000 2000 47 1.300000 1.944000 2.540000 600 51 1.000000 0.053000 0.053000 1.200000 0.048000 0.057000
1553347885029019877	1500 66 0.900000 0.058000 0.054000 2000 51 1.300000 3.971000 5.293000 600 70 1.000000 0.053000 0.053000 1.200000 0.041000 0.049000
1553347885566105127	1500 72 1.200000 0.681000 0.879000 2000 55 1.300000 5.298000 7.109000 600 77 1.000000 0.053000 0.053000 1.200000 0.040000 0.048000
1553347886112882877	1500 75 1.200000 0.685000 0.884000 2000 57 1.300000 5.314000 7.131000 600 81 1.000000 0.054000 0.054000 1.200000 0.043000 0.051000
1553347886628195460	1500 58 1.200000 0.690000 0.890000 300 55 1.000000 1.469000 1.554000 600 61 1.000000 0.055000 0.055000 1.200000 0.036000 0.043000
1553347887145544585	1500 54 1.200000 0.684000 0.883000 200 53 0.900000 0.092000 0.083000 600 56 1.000000 0.054000 0.054000 1.200000 0.033000 0.039000
1553347887650550335	1500 52 1.200000 0.681000 0.879000 2000 51 0.900000 0.076000 0.069000 600 53 1.000000 0.054000 0.054000 1.200000 0.033000 0.039000
1553347888166327669	1500 51 1.200000 0.679000 0.876000 300 50 0.900000 0.075000 0.068000 600 52 1.000000 0.054000 0.054000 1.200000 0.033000 0.039000
1553347888675275127	300 63 0.900000 0.042000 0.040000 2000 51 1.300000 2.368000 3.142000 600 55 1.000000 0.053000 0.053000 1.200000 0.039000 0.047000
1553347889183933252	200 63 0.900000 0.015000 0.013000 2000 51 1.300000 2.033000 2.695000 600 56 1.000000 0.053000 0.053000 1.200000 0.032000 0.038000
1553347889692495127	200 63 0.900000 0.015000 0.013000 2000 51 1.300000 2.034000 2.697000 600 57 1.000000 0.053000 0.053000 1.200000 0.033000 0.039000
1553347890200291294	300 64 0.900000 0.019000 0.017000 2000 51 1.300000 2.042000 2.707000 600 57 1.000000 0.053000 0.053000 1.200000 0.036000 0.043000
1553347890707804836	200 65 0.900000 0.031000 0.029000 2000 51 1.300000 2.449000 3.249000 600 57 1.000000 0.053000 0.053000 1.200000 0.041000 0.049000
1553347891216251961	200 64 0.900000 0.027000 0.025000 2000 51 1.300000 2.095000 2.777000 600 57 1.000000 0.053000 0.053000 1.200000 0.033000 0.039000
1553347891726082961	200 64 0.900000 0.015000 0.013000 2000 51 1.300000 2.071000 2.746000 600 56 1.000000 0.053000 0.053000 1.200000 0.034000 0.041000
1553347892237629169	200 51 0.900000 0.038000 0.036000 700 49 1.300000 2.118000 2.808000 600 54 1.000000 0.053000 0.053000 1.200000 0.040000 0.048000
1553347892754726253	300 48 0.900000 0.023000 0.021000 300 47 0.900000 0.312000 0.300000 600 52 1.000000 0.053000 0.053000 1.200000 0.040000 0.048000
