#Timestamp	CPU(0) Frequency(MHz)	CPU(0) Temperature(C)	A7 Voltage(V)	A7 Current(A)	A7 Power(W)	CPU(4) Frequency(MHz)	CPU(4) Temperature(C)	A15 Voltage(V)	A15 Current(A)	A15 Power(W)	GPU Frequency(MHz)	GPU Temperature(C)	GPU Voltage(V)	GPU Current(A)	GPU Power(W)	RAM Voltage(V)	RAM Current(A)	RAM Power(W)
1559783233131678419	400 34 0.900000 0.017000 0.015000 1000 31 0.900000 0.586000 0.566000 600 36 1.000000 0.050000 0.050000 1.200000 0.044000 0.053000
1559783233640327086	400 34 0.900000 0.021000 0.019000 1000 31 0.900000 0.723000 0.699000 600 36 1.000000 0.050000 0.050000 1.200000 0.053000 0.064000
1559783234149574086	400 34 0.900000 0.021000 0.019000 1000 31 0.900000 0.580000 0.560000 600 36 1.000000 0.050000 0.050000 1.200000 0.055000 0.066000
1559783234658124336	400 35 0.900000 0.018000 0.016000 1000 32 0.900000 0.586000 0.566000 600 36 1.000000 0.050000 0.050000 1.200000 0.049000 0.059000
1559783235166424086	400 35 0.900000 0.017000 0.015000 1000 31 0.900000 0.549000 0.530000 600 36 1.000000 0.050000 0.050000 1.200000 0.028000 0.033000
1559783235674431336	400 35 0.900000 0.018000 0.016000 1000 32 0.900000 0.626000 0.604000 600 37 1.000000 0.050000 0.050000 1.200000 0.031000 0.037000
1559783236182791295	400 35 0.900000 0.020000 0.018000 1000 32 0.900000 0.758000 0.732000 600 36 1.000000 0.050000 0.050000 1.200000 0.034000 0.041000
1559783236691072211	400 35 0.900000 0.017000 0.015000 1000 32 0.900000 0.544000 0.525000 600 36 1.000000 0.050000 0.050000 1.200000 0.029000 0.035000
1559783237199428295	400 35 0.900000 0.017000 0.015000 1000 32 0.900000 0.558000 0.539000 600 36 1.000000 0.051000 0.051000 1.200000 0.027000 0.032000
1559783237713464045	400 35 0.900000 0.017000 0.015000 1000 32 0.900000 0.628000 0.606000 600 37 1.000000 0.051000 0.051000 1.200000 0.033000 0.039000
1559783238221786753	400 35 0.900000 0.018000 0.016000 1000 32 0.900000 0.758000 0.732000 600 36 1.000000 0.050000 0.050000 1.200000 0.035000 0.042000
1559783238730024878	400 35 0.900000 0.017000 0.015000 1000 32 0.900000 0.552000 0.533000 600 36 1.000000 0.050000 0.050000 1.200000 0.028000 0.033000
1559783239238353878	400 35 0.900000 0.017000 0.015000 1000 32 0.900000 0.559000 0.539000 600 36 1.000000 0.051000 0.051000 1.200000 0.028000 0.033000
1559783239746754212	400 35 0.900000 0.017000 0.015000 1000 32 0.900000 0.624000 0.602000 600 36 1.000000 0.051000 0.051000 1.200000 0.033000 0.039000
1559783240255080920	400 36 0.900000 0.021000 0.019000 1000 32 0.900000 0.766000 0.740000 600 36 1.000000 0.050000 0.050000 1.200000 0.034000 0.041000
1559783240763276254	400 35 0.900000 0.017000 0.015000 1000 32 0.900000 0.543000 0.524000 600 36 1.000000 0.050000 0.050000 1.200000 0.027000 0.032000
1559783241271487920	400 35 0.900000 0.017000 0.015000 1000 32 0.900000 0.549000 0.530000 600 36 1.000000 0.051000 0.051000 1.200000 0.029000 0.035000
1559783241779721629	400 35 0.900000 0.017000 0.015000 1000 32 0.900000 0.574000 0.554000 600 36 1.000000 0.051000 0.051000 1.200000 0.027000 0.032000
1559783242288062420	400 36 0.900000 0.017000 0.015000 1000 32 0.900000 0.546000 0.527000 600 36 1.000000 0.050000 0.050000 1.200000 0.029000 0.035000
1559783242796371962	400 35 0.900000 0.017000 0.015000 1000 32 0.900000 0.555000 0.536000 600 36 1.000000 0.051000 0.051000 1.200000 0.029000 0.035000
1559783243304817254	400 36 0.900000 0.017000 0.015000 1000 32 0.900000 0.558000 0.539000 600 36 1.000000 0.051000 0.051000 1.200000 0.027000 0.032000
1559783243813208004	400 36 0.900000 0.018000 0.016000 1000 32 0.900000 0.635000 0.613000 600 36 1.000000 0.051000 0.051000 1.200000 0.034000 0.041000
1559783244321385629	400 36 0.900000 0.017000 0.015000 1000 32 0.900000 0.558000 0.539000 600 37 1.000000 0.051000 0.051000 1.200000 0.028000 0.033000
1559783244829733004	400 35 0.900000 0.017000 0.015000 1000 32 0.900000 0.577000 0.557000 600 36 1.000000 0.051000 0.051000 1.200000 0.028000 0.033000
1559783245338001546	400 35 0.900000 0.017000 0.015000 1000 32 0.900000 0.551000 0.532000 600 36 1.000000 0.051000 0.051000 1.200000 0.029000 0.035000
1559783245846352296	400 35 0.900000 0.017000 0.015000 1000 32 0.900000 0.656000 0.633000 600 36 1.000000 0.050000 0.050000 1.200000 0.031000 0.037000
1559783246357396546	400 35 0.900000 0.017000 0.015000 1000 32 0.900000 0.545000 0.526000 600 37 1.000000 0.050000 0.050000 1.200000 0.027000 0.032000
1559783246866463588	400 35 0.900000 0.021000 0.019000 1000 32 0.900000 0.607000 0.586000 600 36 1.000000 0.050000 0.050000 1.200000 0.029000 0.035000
1559783247374844046	400 35 0.900000 0.017000 0.015000 1000 32 0.900000 0.541000 0.522000 600 36 1.000000 0.050000 0.050000 1.200000 0.027000 0.032000
1559783247883348588	400 36 0.900000 0.017000 0.015000 1000 32 0.900000 0.550000 0.531000 600 36 1.000000 0.050000 0.050000 1.200000 0.028000 0.033000
1559783248391748838	400 35 0.900000 0.017000 0.015000 1000 32 0.900000 0.554000 0.535000 600 36 1.000000 0.051000 0.051000 1.200000 0.028000 0.033000
1559783248900140713	400 36 0.900000 0.019000 0.017000 1000 32 0.900000 0.649000 0.626000 600 36 1.000000 0.050000 0.050000 1.200000 0.031000 0.037000
1559783249408454838	400 35 0.900000 0.017000 0.015000 1000 32 0.900000 0.542000 0.523000 600 36 1.000000 0.051000 0.051000 1.200000 0.028000 0.033000
1559783249916787296	400 36 0.900000 0.018000 0.016000 1000 32 0.900000 0.580000 0.560000 600 36 1.000000 0.050000 0.050000 1.200000 0.030000 0.036000
1559783250425044713	400 36 0.900000 0.017000 0.015000 1000 32 0.900000 0.554000 0.535000 600 36 1.000000 0.050000 0.050000 1.200000 0.027000 0.032000
1559783250933215130	400 36 0.900000 0.020000 0.018000 1000 32 0.900000 0.608000 0.587000 600 36 1.000000 0.051000 0.051000 1.200000 0.031000 0.037000
1559783251441759630	400 35 0.900000 0.017000 0.015000 1000 32 0.900000 0.563000 0.543000 600 36 1.000000 0.051000 0.051000 1.200000 0.028000 0.033000
1559783251950072755	400 35 0.900000 0.017000 0.015000 1000 32 0.900000 0.626000 0.604000 600 36 1.000000 0.050000 0.050000 1.200000 0.031000 0.037000
1559783252458376505	400 36 0.900000 0.017000 0.015000 1000 32 0.900000 0.542000 0.523000 600 36 1.000000 0.051000 0.051000 1.200000 0.027000 0.032000
1559783252966578422	400 36 0.900000 0.017000 0.015000 1000 32 0.900000 0.564000 0.544000 600 37 1.000000 0.051000 0.051000 1.200000 0.029000 0.035000
1559783253474907797	400 36 0.900000 0.017000 0.015000 1000 32 0.900000 0.543000 0.524000 600 36 1.000000 0.051000 0.051000 1.200000 0.027000 0.032000
1559783253983148088	400 36 0.900000 0.018000 0.016000 1000 32 0.900000 0.620000 0.598000 600 36 1.000000 0.051000 0.051000 1.200000 0.031000 0.037000
1559783254491502047	400 35 0.900000 0.017000 0.015000 1000 32 0.900000 0.539000 0.520000 600 36 1.000000 0.051000 0.051000 1.200000 0.027000 0.032000
1559783255003101422	400 35 0.900000 0.018000 0.016000 1000 32 0.900000 0.550000 0.531000 600 37 1.000000 0.050000 0.050000 1.200000 0.028000 0.033000
1559783255511331714	400 35 0.900000 0.021000 0.019000 1000 32 0.900000 0.751000 0.726000 600 36 1.000000 0.050000 0.050000 1.200000 0.034000 0.041000
1559783256019649755	400 36 0.900000 0.017000 0.015000 1000 32 0.900000 0.554000 0.535000 600 36 1.000000 0.051000 0.051000 1.200000 0.028000 0.033000
1559783256528236464	400 36 0.900000 0.017000 0.015000 1000 32 0.900000 0.547000 0.528000 600 36 1.000000 0.051000 0.051000 1.200000 0.027000 0.032000
1559783257036629756	400 36 0.900000 0.017000 0.015000 1000 32 0.900000 0.561000 0.541000 600 36 1.000000 0.051000 0.051000 1.200000 0.029000 0.035000
1559783257544982214	400 36 0.900000 0.022000 0.020000 1000 32 0.900000 0.743000 0.718000 600 36 1.000000 0.051000 0.051000 1.200000 0.033000 0.039000
1559783258053331256	400 36 0.900000 0.018000 0.016000 1000 32 0.900000 0.580000 0.560000 600 36 1.000000 0.051000 0.051000 1.200000 0.029000 0.035000
1559783258561852422	400 36 0.900000 0.017000 0.015000 1000 32 0.900000 0.542000 0.523000 600 36 1.000000 0.050000 0.050000 1.200000 0.027000 0.032000
1559783259070208589	400 36 0.900000 0.017000 0.015000 1000 32 0.900000 0.541000 0.522000 600 36 1.000000 0.051000 0.051000 1.200000 0.027000 0.032000
1559783259578513047	400 36 0.900000 0.019000 0.017000 1000 32 0.900000 0.741000 0.716000 600 37 1.000000 0.051000 0.051000 1.200000 0.033000 0.039000
1559783260086917548	400 36 0.900000 0.017000 0.015000 1000 32 0.900000 0.621000 0.599000 600 37 1.000000 0.051000 0.051000 1.200000 0.031000 0.037000
1559783260595193381	400 36 0.900000 0.017000 0.015000 1000 32 0.900000 0.543000 0.524000 600 36 1.000000 0.051000 0.051000 1.200000 0.027000 0.032000
1559783261103529881	400 36 0.900000 0.017000 0.015000 1000 32 0.900000 0.541000 0.522000 600 36 1.000000 0.050000 0.050000 1.200000 0.027000 0.032000
1559783261611796964	400 36 0.900000 0.019000 0.017000 1000 32 0.900000 0.750000 0.725000 600 37 1.000000 0.051000 0.051000 1.200000 0.034000 0.041000
1559783262120076173	400 36 0.900000 0.020000 0.018000 1000 32 0.900000 0.553000 0.534000 600 36 1.000000 0.051000 0.051000 1.200000 0.027000 0.032000
1559783262628520923	400 36 0.900000 0.017000 0.015000 1000 32 0.900000 0.557000 0.538000 600 36 1.000000 0.051000 0.051000 1.200000 0.028000 0.033000
1559783263136892756	400 36 0.900000 0.017000 0.015000 1000 32 0.900000 0.546000 0.527000 600 36 1.000000 0.051000 0.051000 1.200000 0.028000 0.033000
1559783263647756673	400 35 0.900000 0.017000 0.015000 1000 32 0.900000 0.559000 0.539000 600 37 1.000000 0.051000 0.051000 1.200000 0.028000 0.033000
1559783264155959465	400 36 0.900000 0.018000 0.016000 1000 32 0.900000 0.587000 0.567000 600 37 1.000000 0.050000 0.050000 1.200000 0.029000 0.035000
1559783264664269256	400 36 0.900000 0.017000 0.015000 1000 32 0.900000 0.543000 0.524000 600 36 1.000000 0.050000 0.050000 1.200000 0.028000 0.033000
1559783265172609548	400 36 0.900000 0.017000 0.015000 1000 32 0.900000 0.544000 0.525000 600 36 1.000000 0.050000 0.050000 1.200000 0.027000 0.032000
1559783265681674090	400 35 0.900000 0.017000 0.015000 1000 32 0.900000 0.544000 0.525000 600 36 1.000000 0.051000 0.051000 1.200000 0.027000 0.032000
1559783266189842632	400 36 0.900000 0.021000 0.019000 1000 32 0.900000 0.663000 0.641000 600 37 1.000000 0.050000 0.050000 1.200000 0.031000 0.037000
1559783266698199465	400 36 0.900000 0.017000 0.015000 1000 32 0.900000 0.539000 0.520000 600 36 1.000000 0.050000 0.050000 1.200000 0.027000 0.032000
1559783267206535923	400 36 0.900000 0.017000 0.015000 1000 32 0.900000 0.541000 0.522000 600 36 1.000000 0.050000 0.050000 1.200000 0.027000 0.032000
1559783267714925215	400 36 0.900000 0.017000 0.015000 1000 32 0.900000 0.543000 0.524000 600 36 1.000000 0.051000 0.051000 1.200000 0.027000 0.032000
1559783268223202840	400 36 0.900000 0.022000 0.020000 1000 32 0.900000 0.750000 0.725000 600 37 1.000000 0.051000 0.051000 1.200000 0.035000 0.042000
1559783268731550340	400 36 0.900000 0.017000 0.015000 1000 32 0.900000 0.540000 0.521000 600 36 1.000000 0.051000 0.051000 1.200000 0.027000 0.032000
1559783269239973090	400 36 0.900000 0.017000 0.015000 1000 32 0.900000 0.560000 0.540000 600 36 1.000000 0.051000 0.051000 1.200000 0.028000 0.033000
1559783269748347382	400 36 0.900000 0.017000 0.015000 1000 32 0.900000 0.552000 0.533000 600 36 1.000000 0.051000 0.051000 1.200000 0.029000 0.035000
1559783270256431674	400 36 0.900000 0.017000 0.015000 1000 32 0.900000 0.587000 0.567000 600 37 1.000000 0.051000 0.051000 1.200000 0.030000 0.036000
1559783270764689424	400 36 0.900000 0.017000 0.015000 1000 32 0.900000 0.544000 0.525000 600 36 1.000000 0.050000 0.050000 1.200000 0.027000 0.032000
1559783271273062841	400 36 0.900000 0.017000 0.015000 1000 32 0.900000 0.541000 0.522000 600 36 1.000000 0.051000 0.051000 1.200000 0.027000 0.032000
1559783271781515632	400 36 0.900000 0.017000 0.015000 1000 32 0.900000 0.540000 0.521000 600 36 1.000000 0.051000 0.051000 1.200000 0.027000 0.032000
1559783272291699841	400 36 0.900000 0.017000 0.015000 1000 32 0.900000 0.544000 0.525000 600 38 1.000000 0.051000 0.051000 1.200000 0.027000 0.032000
1559783272800173257	400 36 0.900000 0.021000 0.019000 1000 32 0.900000 0.544000 0.525000 600 36 1.000000 0.051000 0.051000 1.200000 0.027000 0.032000
1559783273308516466	400 36 0.900000 0.017000 0.015000 1000 32 0.900000 0.542000 0.523000 600 36 1.000000 0.050000 0.050000 1.200000 0.027000 0.032000
1559783273816913174	400 36 0.900000 0.017000 0.015000 1000 32 0.900000 0.554000 0.535000 600 36 1.000000 0.050000 0.050000 1.200000 0.027000 0.032000
1559783274326567049	400 36 0.900000 0.017000 0.015000 1000 32 0.900000 0.545000 0.526000 600 37 1.000000 0.051000 0.051000 1.200000 0.027000 0.032000
1559783274835717716	400 36 0.900000 0.020000 0.018000 1000 32 0.900000 0.828000 0.800000 600 36 1.000000 0.050000 0.050000 1.200000 0.038000 0.045000
1559783275344167216	400 36 0.900000 0.017000 0.015000 1000 32 0.900000 0.555000 0.536000 600 36 1.000000 0.051000 0.051000 1.200000 0.028000 0.033000
1559783275852370174	400 36 0.900000 0.017000 0.015000 1000 32 0.900000 0.548000 0.529000 600 36 1.000000 0.051000 0.051000 1.200000 0.028000 0.033000
1559783276363538174	400 35 0.900000 0.017000 0.015000 1000 32 0.900000 0.561000 0.541000 600 37 1.000000 0.051000 0.051000 1.200000 0.027000 0.032000
1559783276871988258	400 36 0.900000 0.021000 0.019000 1000 32 0.900000 0.619000 0.598000 600 37 1.000000 0.051000 0.051000 1.200000 0.032000 0.038000
1559783277380247425	400 36 0.900000 0.017000 0.015000 1000 32 0.900000 0.547000 0.528000 600 36 1.000000 0.051000 0.051000 1.200000 0.028000 0.033000
1559783277888540716	400 36 0.900000 0.017000 0.015000 1000 32 0.900000 0.564000 0.544000 600 36 1.000000 0.050000 0.050000 1.200000 0.027000 0.032000
1559783278396651925	400 35 0.900000 0.017000 0.015000 1000 32 0.900000 0.549000 0.530000 600 36 1.000000 0.050000 0.050000 1.200000 0.028000 0.033000
1559783278904999133	400 36 0.900000 0.018000 0.016000 1000 32 0.900000 0.624000 0.602000 600 37 1.000000 0.051000 0.051000 1.200000 0.032000 0.038000
1559783279413444133	400 36 0.900000 0.017000 0.015000 1000 32 0.900000 0.558000 0.539000 600 36 1.000000 0.051000 0.051000 1.200000 0.027000 0.032000
1559783279921875633	400 36 0.900000 0.017000 0.015000 1000 32 0.900000 0.543000 0.524000 600 36 1.000000 0.051000 0.051000 1.200000 0.028000 0.033000
1559783280430229842	400 36 0.900000 0.017000 0.015000 1000 32 0.900000 0.558000 0.539000 600 36 1.000000 0.051000 0.051000 1.200000 0.028000 0.033000
1559783280938047717	400 36 0.900000 0.018000 0.016000 1000 32 0.900000 0.626000 0.604000 600 37 1.000000 0.050000 0.050000 1.200000 0.032000 0.038000
1559783281447447133	400 35 0.900000 0.017000 0.015000 1000 32 0.900000 0.569000 0.549000 600 36 1.000000 0.050000 0.050000 1.200000 0.030000 0.036000
1559783281957032467	400 36 0.900000 0.019000 0.017000 1000 32 0.900000 0.543000 0.524000 600 37 1.000000 0.051000 0.051000 1.200000 0.083000 0.100000
1559783282466627050	400 37 0.900000 0.132000 0.120000 1000 33 0.900000 1.064000 1.029000 600 38 1.000000 0.050000 0.050000 1.200000 0.082000 0.099000
1559783282978059842	400 37 0.900000 0.130000 0.118000 1000 33 0.900000 1.128000 1.091000 600 39 1.000000 0.051000 0.051000 1.200000 0.082000 0.099000
1559783283487681592	400 38 0.900000 0.126000 0.114000 1000 34 0.900000 1.186000 1.148000 600 39 1.000000 0.051000 0.051000 1.200000 0.084000 0.101000
1559783283996962759	400 38 0.900000 0.132000 0.120000 1000 34 0.900000 1.078000 1.043000 600 39 1.000000 0.051000 0.051000 1.200000 0.081000 0.098000
1559783284506479634	400 38 0.900000 0.132000 0.120000 1000 34 0.900000 1.069000 1.034000 600 39 1.000000 0.051000 0.051000 1.200000 0.081000 0.098000
1559783285016168676	400 38 0.900000 0.132000 0.120000 1000 34 0.900000 1.147000 1.110000 600 39 1.000000 0.051000 0.051000 1.200000 0.083000 0.100000
1559783285525668634	400 39 0.900000 0.133000 0.121000 1000 34 0.900000 1.129000 1.092000 600 40 1.000000 0.051000 0.051000 1.200000 0.082000 0.099000
1559783286034902967	400 39 0.900000 0.133000 0.121000 1000 35 0.900000 1.071000 1.036000 600 39 1.000000 0.051000 0.051000 1.200000 0.081000 0.098000
1559783286544032384	400 39 0.900000 0.132000 0.120000 1000 35 0.900000 1.069000 1.034000 600 39 1.000000 0.051000 0.051000 1.200000 0.081000 0.098000
1559783287053404926	400 39 0.900000 0.132000 0.120000 1000 35 0.900000 1.150000 1.113000 600 40 1.000000 0.051000 0.051000 1.200000 0.083000 0.100000
1559783287562536384	400 39 0.900000 0.132000 0.120000 1000 35 0.900000 1.073000 1.038000 600 40 1.000000 0.051000 0.051000 1.200000 0.080000 0.096000
1559783288072013676	400 39 0.900000 0.132000 0.120000 1000 35 0.900000 1.071000 1.036000 600 40 1.000000 0.051000 0.051000 1.200000 0.081000 0.098000
1559783288581216509	400 39 0.900000 0.132000 0.120000 1000 35 0.900000 1.065000 1.030000 600 40 1.000000 0.051000 0.051000 1.200000 0.081000 0.098000
1559783289090640759	400 39 0.900000 0.131000 0.119000 1000 35 0.900000 1.136000 1.099000 600 40 1.000000 0.051000 0.051000 1.200000 0.083000 0.100000
1559783289601617093	400 39 0.900000 0.131000 0.119000 1000 35 0.900000 1.066000 1.031000 600 41 1.000000 0.051000 0.051000 1.200000 0.080000 0.096000
1559783290110879884	400 39 0.900000 0.132000 0.120000 1000 35 0.900000 1.069000 1.034000 600 40 1.000000 0.051000 0.051000 1.200000 0.081000 0.098000
1559783290620424135	400 39 0.900000 0.132000 0.120000 1000 35 0.900000 1.079000 1.044000 600 40 1.000000 0.051000 0.051000 1.200000 0.080000 0.096000
1559783291129960010	400 39 0.900000 0.133000 0.121000 1000 35 0.900000 1.067000 1.032000 600 40 1.000000 0.051000 0.051000 1.200000 0.080000 0.096000
1559783291639363510	400 39 0.900000 0.132000 0.120000 1000 35 0.900000 1.074000 1.039000 600 40 1.000000 0.051000 0.051000 1.200000 0.081000 0.098000
1559783292148813468	400 39 0.900000 0.130000 0.118000 1000 35 0.900000 1.218000 1.181000 600 40 1.000000 0.051000 0.051000 1.200000 0.085000 0.103000
1559783292658317135	400 39 0.900000 0.132000 0.120000 1000 35 0.900000 1.073000 1.038000 600 40 1.000000 0.051000 0.051000 1.200000 0.081000 0.098000
1559783293167663343	400 39 0.900000 0.132000 0.120000 1000 35 0.900000 1.121000 1.085000 600 40 1.000000 0.051000 0.051000 1.200000 0.082000 0.099000
1559783293676953302	400 39 0.900000 0.133000 0.121000 1000 36 0.900000 1.082000 1.047000 600 40 1.000000 0.051000 0.051000 1.200000 0.081000 0.098000
1559783294186293177	400 39 0.900000 0.130000 0.118000 1000 36 0.900000 1.156000 1.119000 600 41 1.000000 0.050000 0.050000 1.200000 0.083000 0.100000
1559783294695332718	400 40 0.900000 0.133000 0.121000 1000 36 0.900000 1.068000 1.033000 600 40 1.000000 0.051000 0.051000 1.200000 0.081000 0.098000
1559783295204750260	400 40 0.900000 0.132000 0.120000 1000 36 0.900000 1.136000 1.099000 600 41 1.000000 0.051000 0.051000 1.200000 0.083000 0.100000
1559783295714218177	400 40 0.900000 0.132000 0.120000 1000 36 0.900000 1.066000 1.031000 600 40 1.000000 0.051000 0.051000 1.200000 0.080000 0.096000
1559783296223455385	400 40 0.900000 0.129000 0.117000 1000 36 0.900000 1.089000 1.054000 600 41 1.000000 0.051000 0.051000 1.200000 0.081000 0.098000
1559783296732907302	400 40 0.900000 0.132000 0.120000 1000 36 0.900000 1.066000 1.031000 600 41 1.000000 0.051000 0.051000 1.200000 0.080000 0.096000
1559783297242377969	400 40 0.900000 0.132000 0.120000 1000 36 0.900000 1.139000 1.102000 600 41 1.000000 0.051000 0.051000 1.200000 0.083000 0.100000
1559783297751894760	400 40 0.900000 0.132000 0.120000 1000 36 0.900000 1.065000 1.030000 600 41 1.000000 0.051000 0.051000 1.200000 0.081000 0.098000
1559783298262193969	400 40 0.900000 0.133000 0.121000 1000 36 0.900000 1.081000 1.046000 600 41 1.000000 0.051000 0.051000 1.200000 0.081000 0.098000
1559783298771519719	400 40 0.900000 0.129000 0.117000 1000 36 0.900000 1.257000 1.219000 600 41 1.000000 0.051000 0.051000 1.200000 0.087000 0.105000
1559783299281065386	400 40 0.900000 0.132000 0.120000 1000 36 0.900000 1.070000 1.035000 600 41 1.000000 0.051000 0.051000 1.200000 0.081000 0.098000
1559783299790606094	400 40 0.900000 0.131000 0.119000 1000 36 0.900000 1.078000 1.043000 600 41 1.000000 0.051000 0.051000 1.200000 0.081000 0.098000
1559783300300118386	400 40 0.900000 0.132000 0.120000 1000 36 0.900000 1.080000 1.045000 600 41 1.000000 0.051000 0.051000 1.200000 0.081000 0.098000
1559783300809523427	400 40 0.900000 0.129000 0.117000 1000 36 0.900000 1.243000 1.205000 600 41 1.000000 0.051000 0.051000 1.200000 0.086000 0.104000
1559783301318722969	400 40 0.900000 0.132000 0.120000 1000 36 0.900000 1.083000 1.048000 600 41 1.000000 0.051000 0.051000 1.200000 0.080000 0.096000
1559783301827865636	400 40 0.900000 0.133000 0.121000 1000 36 0.900000 1.065000 1.030000 600 41 1.000000 0.051000 0.051000 1.200000 0.080000 0.096000
1559783302337171344	400 40 0.900000 0.133000 0.121000 1000 36 0.900000 1.065000 1.030000 600 41 1.000000 0.051000 0.051000 1.200000 0.080000 0.096000
1559783302846427594	400 40 0.900000 0.129000 0.117000 1000 36 0.900000 1.178000 1.140000 600 41 1.000000 0.051000 0.051000 1.200000 0.084000 0.101000
1559783303355780219	400 40 0.900000 0.132000 0.120000 1000 36 0.900000 1.136000 1.099000 600 41 1.000000 0.051000 0.051000 1.200000 0.082000 0.099000
1559783303865171511	400 40 0.900000 0.133000 0.121000 1000 36 0.900000 1.064000 1.029000 600 41 1.000000 0.051000 0.051000 1.200000 0.080000 0.096000
1559783304374451261	400 40 0.900000 0.133000 0.121000 1000 36 0.900000 1.065000 1.030000 600 41 1.000000 0.051000 0.051000 1.200000 0.080000 0.096000
1559783304885571553	400 40 0.900000 0.133000 0.121000 1000 36 0.900000 1.122000 1.086000 600 42 1.000000 0.051000 0.051000 1.200000 0.081000 0.098000
1559783305396031761	400 40 0.900000 0.127000 0.115000 1000 36 0.900000 1.204000 1.165000 600 41 1.000000 0.051000 0.051000 1.200000 0.086000 0.104000
1559783305905498470	400 40 0.900000 0.132000 0.120000 1000 36 0.900000 1.068000 1.033000 600 41 1.000000 0.051000 0.051000 1.200000 0.081000 0.098000
1559783306414930470	400 40 0.900000 0.132000 0.120000 1000 36 0.900000 1.076000 1.041000 600 41 1.000000 0.051000 0.051000 1.200000 0.080000 0.096000
1559783306924257386	400 40 0.900000 0.133000 0.121000 1000 36 0.900000 1.080000 1.045000 600 41 1.000000 0.051000 0.051000 1.200000 0.081000 0.098000
1559783307433739595	400 40 0.900000 0.128000 0.116000 1000 36 0.900000 1.248000 1.210000 600 41 1.000000 0.051000 0.051000 1.200000 0.087000 0.105000
1559783307943125178	400 40 0.900000 0.133000 0.121000 1000 36 0.900000 1.065000 1.030000 600 41 1.000000 0.051000 0.051000 1.200000 0.081000 0.098000
1559783308452548720	400 40 0.900000 0.134000 0.122000 1000 36 0.900000 1.064000 1.029000 600 41 1.000000 0.051000 0.051000 1.200000 0.081000 0.098000
1559783308961992595	400 40 0.900000 0.132000 0.120000 1000 36 0.900000 1.065000 1.030000 600 41 1.000000 0.051000 0.051000 1.200000 0.081000 0.098000
1559783309471284928	400 40 0.900000 0.127000 0.115000 1000 36 0.900000 1.252000 1.211000 600 41 1.000000 0.051000 0.051000 1.200000 0.087000 0.105000
1559783309980570053	400 40 0.900000 0.132000 0.120000 1000 36 0.900000 1.066000 1.031000 600 41 1.000000 0.051000 0.051000 1.200000 0.080000 0.096000
1559783310489961762	400 40 0.900000 0.132000 0.120000 1000 36 0.900000 1.066000 1.031000 600 41 1.000000 0.051000 0.051000 1.200000 0.080000 0.096000
1559783310999292970	400 40 0.900000 0.132000 0.120000 1000 36 0.900000 1.067000 1.032000 600 41 1.000000 0.051000 0.051000 1.200000 0.080000 0.096000
1559783311508463262	400 40 0.900000 0.133000 0.121000 1000 36 0.900000 1.257000 1.219000 600 42 1.000000 0.051000 0.051000 1.200000 0.085000 0.102000
1559783312017781637	400 40 0.900000 0.133000 0.121000 1000 36 0.900000 1.067000 1.032000 600 41 1.000000 0.051000 0.051000 1.200000 0.080000 0.096000
1559783312527278387	400 40 0.900000 0.134000 0.122000 1000 36 0.900000 1.074000 1.039000 600 41 1.000000 0.051000 0.051000 1.200000 0.080000 0.096000
1559783313036612054	400 40 0.900000 0.133000 0.121000 1000 36 0.900000 1.066000 1.031000 600 41 1.000000 0.051000 0.051000 1.200000 0.081000 0.098000
1559783313554770304	400 40 0.900000 0.133000 0.121000 1000 36 0.900000 1.073000 1.038000 600 42 1.000000 0.051000 0.051000 1.200000 0.081000 0.098000
1559783314064388804	400 40 0.900000 0.127000 0.115000 1000 36 0.900000 1.215000 1.176000 600 41 1.000000 0.051000 0.051000 1.200000 0.085000 0.102000
1559783314573823137	400 40 0.900000 0.133000 0.121000 1000 36 0.900000 1.072000 1.037000 600 41 1.000000 0.051000 0.051000 1.200000 0.081000 0.098000
1559783315083218137	400 40 0.900000 0.133000 0.121000 1000 36 0.900000 1.071000 1.036000 600 41 1.000000 0.051000 0.051000 1.200000 0.081000 0.098000
1559783315594197971	400 40 0.900000 0.133000 0.121000 1000 36 0.900000 1.080000 1.045000 600 41 1.000000 0.051000 0.051000 1.200000 0.081000 0.098000
1559783316103650554	400 40 0.900000 0.127000 0.115000 1000 36 0.900000 1.157000 1.119000 600 41 1.000000 0.051000 0.051000 1.200000 0.087000 0.105000
1559783316613038429	400 40 0.900000 0.133000 0.121000 1000 36 0.900000 1.072000 1.037000 600 41 1.000000 0.051000 0.051000 1.200000 0.081000 0.098000
1559783317122521013	400 40 0.900000 0.134000 0.122000 1000 36 0.900000 1.084000 1.049000 600 41 1.000000 0.051000 0.051000 1.200000 0.081000 0.098000
1559783317632588513	400 40 0.900000 0.134000 0.122000 1000 36 0.900000 1.079000 1.044000 600 41 1.000000 0.051000 0.051000 1.200000 0.081000 0.098000
1559783318142186763	400 40 0.900000 0.132000 0.120000 1000 36 0.900000 1.141000 1.104000 600 42 1.000000 0.051000 0.051000 1.200000 0.084000 0.101000
1559783318651431138	400 40 0.900000 0.134000 0.122000 1000 36 0.900000 1.079000 1.044000 600 41 1.000000 0.051000 0.051000 1.200000 0.081000 0.098000
1559783319160740346	400 40 0.900000 0.133000 0.121000 1000 36 0.900000 1.083000 1.048000 600 41 1.000000 0.051000 0.051000 1.200000 0.081000 0.098000
1559783319670466138	400 40 0.900000 0.133000 0.121000 1000 36 0.900000 1.072000 1.037000 600 41 1.000000 0.051000 0.051000 1.200000 0.081000 0.098000
1559783320180571763	400 40 0.900000 0.133000 0.121000 1000 36 0.900000 1.138000 1.101000 600 42 1.000000 0.051000 0.051000 1.200000 0.084000 0.101000
1559783320690314680	400 40 0.900000 0.129000 0.117000 1000 36 0.900000 1.235000 1.197000 600 41 1.000000 0.051000 0.051000 1.200000 0.085000 0.103000
1559783321199600263	400 40 0.900000 0.133000 0.121000 1000 36 0.900000 1.075000 1.040000 600 41 1.000000 0.051000 0.051000 1.200000 0.081000 0.098000
1559783321708972472	400 40 0.900000 0.134000 0.122000 1000 36 0.900000 1.072000 1.037000 600 41 1.000000 0.051000 0.051000 1.200000 0.082000 0.099000
1559783322218486513	400 40 0.900000 0.132000 0.120000 1000 36 0.900000 1.144000 1.107000 600 41 1.000000 0.051000 0.051000 1.200000 0.082000 0.099000
1559783322727894305	400 40 0.900000 0.132000 0.120000 1000 36 0.900000 1.173000 1.135000 600 41 1.000000 0.051000 0.051000 1.200000 0.083000 0.100000
1559783323237212430	400 40 0.900000 0.134000 0.122000 1000 36 0.900000 1.070000 1.035000 600 41 1.000000 0.051000 0.051000 1.200000 0.082000 0.099000
1559783323746653347	400 40 0.900000 0.132000 0.120000 1000 36 0.900000 1.081000 1.046000 600 41 1.000000 0.051000 0.051000 1.200000 0.081000 0.098000
1559783324255981305	400 40 0.900000 0.132000 0.120000 1000 36 0.900000 1.148000 1.111000 600 41 1.000000 0.051000 0.051000 1.200000 0.083000 0.100000
1559783324765460097	400 41 0.900000 0.132000 0.120000 1000 36 0.900000 1.107000 1.071000 600 42 1.000000 0.051000 0.051000 1.200000 0.082000 0.099000
1559783325274835097	400 40 0.900000 0.132000 0.120000 1000 36 0.900000 1.077000 1.042000 600 41 1.000000 0.051000 0.051000 1.200000 0.081000 0.098000
1559783325783968764	400 41 0.900000 0.133000 0.121000 1000 36 0.900000 1.079000 1.044000 600 41 1.000000 0.051000 0.051000 1.200000 0.081000 0.098000
1559783326293459055	400 41 0.900000 0.132000 0.120000 1000 36 0.900000 1.144000 1.107000 600 41 1.000000 0.051000 0.051000 1.200000 0.084000 0.101000
1559783326802830805	400 41 0.900000 0.132000 0.120000 1000 36 0.900000 1.068000 1.033000 600 42 1.000000 0.051000 0.051000 1.200000 0.081000 0.098000
1559783327312171264	400 41 0.900000 0.133000 0.121000 1000 36 0.900000 1.067000 1.032000 600 42 1.000000 0.051000 0.051000 1.200000 0.081000 0.098000
1559783327821796056	400 41 0.900000 0.133000 0.121000 1000 36 0.900000 1.069000 1.034000 600 41 1.000000 0.051000 0.051000 1.200000 0.081000 0.098000
1559783328331183597	400 41 0.900000 0.132000 0.120000 1000 36 0.900000 1.076000 1.041000 600 41 1.000000 0.051000 0.051000 1.200000 0.081000 0.098000
1559783328843008097	400 41 0.900000 0.134000 0.122000 1000 37 0.900000 1.081000 1.046000 600 42 1.000000 0.051000 0.051000 1.200000 0.081000 0.098000
1559783329352609431	400 41 0.900000 0.131000 0.119000 1000 36 0.900000 1.257000 1.219000 600 42 1.000000 0.051000 0.051000 1.200000 0.086000 0.104000
1559783329861980389	400 41 0.900000 0.134000 0.122000 1000 36 0.900000 1.069000 1.034000 600 41 1.000000 0.051000 0.051000 1.200000 0.081000 0.098000
1559783330371501306	400 41 0.900000 0.133000 0.121000 1000 36 0.900000 1.114000 1.078000 600 41 1.000000 0.051000 0.051000 1.200000 0.082000 0.099000
1559783330880931931	400 41 0.900000 0.134000 0.122000 1000 36 0.900000 1.079000 1.044000 600 41 1.000000 0.051000 0.051000 1.200000 0.081000 0.098000
1559783331390556514	400 41 0.900000 0.130000 0.118000 1000 36 0.900000 1.201000 1.162000 600 42 1.000000 0.051000 0.051000 1.200000 0.085000 0.103000
1559783331900132223	400 41 0.900000 0.133000 0.121000 1000 36 0.900000 1.079000 1.044000 600 42 1.000000 0.051000 0.051000 1.200000 0.082000 0.099000
1559783332409564348	400 41 0.900000 0.132000 0.120000 1000 37 0.900000 1.141000 1.104000 600 42 1.000000 0.051000 0.051000 1.200000 0.083000 0.100000
1559783332918895931	400 41 0.900000 0.134000 0.122000 1000 36 0.900000 1.065000 1.030000 600 41 1.000000 0.051000 0.051000 1.200000 0.081000 0.098000
1559783333428104140	400 41 0.900000 0.129000 0.117000 1000 37 0.900000 1.134000 1.097000 600 42 1.000000 0.051000 0.051000 1.200000 0.082000 0.099000
1559783333937670056	400 41 0.900000 0.134000 0.122000 1000 36 0.900000 1.068000 1.033000 600 42 1.000000 0.051000 0.051000 1.200000 0.081000 0.098000
1559783334447076390	400 41 0.900000 0.133000 0.121000 1000 36 0.900000 1.133000 1.096000 600 42 1.000000 0.051000 0.051000 1.200000 0.083000 0.100000
1559783334956357348	400 41 0.900000 0.134000 0.122000 1000 37 0.900000 1.066000 1.031000 600 42 1.000000 0.051000 0.051000 1.200000 0.081000 0.098000
1559783335466485765	400 41 0.900000 0.134000 0.122000 1000 36 0.900000 1.082000 1.047000 600 42 1.000000 0.051000 0.051000 1.200000 0.082000 0.099000
1559783335976164973	400 41 0.900000 0.129000 0.117000 1000 36 0.900000 1.251000 1.210000 600 42 1.000000 0.051000 0.051000 1.200000 0.088000 0.106000
1559783336485772807	400 41 0.900000 0.134000 0.122000 1000 36 0.900000 1.079000 1.044000 600 42 1.000000 0.051000 0.051000 1.200000 0.081000 0.098000
1559783336995078473	400 41 0.900000 0.133000 0.121000 1000 37 0.900000 1.082000 1.047000 600 42 1.000000 0.051000 0.051000 1.200000 0.082000 0.099000
1559783337504535557	400 41 0.900000 0.133000 0.121000 1000 36 0.900000 1.075000 1.040000 600 42 1.000000 0.051000 0.051000 1.200000 0.081000 0.098000
1559783338013922723	400 41 0.900000 0.128000 0.116000 1000 37 0.900000 1.251000 1.213000 600 42 1.000000 0.051000 0.051000 1.200000 0.087000 0.105000
1559783338523310724	400 41 0.900000 0.132000 0.120000 1000 37 0.900000 1.085000 1.050000 600 42 1.000000 0.051000 0.051000 1.200000 0.081000 0.098000
1559783339032635390	400 41 0.900000 0.133000 0.121000 1000 36 0.900000 1.068000 1.033000 600 42 1.000000 0.051000 0.051000 1.200000 0.081000 0.098000
1559783339542286474	400 41 0.900000 0.133000 0.121000 1000 37 0.900000 1.066000 1.031000 600 42 1.000000 0.051000 0.051000 1.200000 0.081000 0.098000
1559783340051465265	400 41 0.900000 0.129000 0.117000 1000 36 0.900000 1.217000 1.178000 600 42 1.000000 0.051000 0.051000 1.200000 0.085000 0.102000
1559783340560929474	400 41 0.900000 0.133000 0.121000 1000 37 0.900000 1.133000 1.096000 600 42 1.000000 0.051000 0.051000 1.200000 0.082000 0.099000
1559783341070152682	400 41 0.900000 0.134000 0.122000 1000 37 0.900000 1.067000 1.032000 600 42 1.000000 0.051000 0.051000 1.200000 0.081000 0.098000
1559783341579639307	400 41 0.900000 0.133000 0.121000 1000 37 0.900000 1.097000 1.061000 600 42 1.000000 0.051000 0.051000 1.200000 0.082000 0.099000
1559783342091119182	400 41 0.900000 0.133000 0.121000 1000 37 0.900000 1.164000 1.126000 600 43 1.000000 0.051000 0.051000 1.200000 0.083000 0.100000
1559783342600554891	400 41 0.900000 0.128000 0.116000 1000 37 0.900000 1.158000 1.120000 600 42 1.000000 0.051000 0.051000 1.200000 0.085000 0.102000
1559783343110012516	400 41 0.900000 0.133000 0.121000 1000 37 0.900000 1.073000 1.038000 600 42 1.000000 0.051000 0.051000 1.200000 0.081000 0.098000
1559783343619284391	400 41 0.900000 0.133000 0.121000 1000 37 0.900000 1.084000 1.049000 600 42 1.000000 0.051000 0.051000 1.200000 0.081000 0.098000
1559783344136771099	400 41 0.900000 0.134000 0.122000 1000 37 0.900000 1.075000 1.040000 600 43 1.000000 0.051000 0.051000 1.200000 0.082000 0.099000
1559783344646616016	400 41 0.900000 0.125000 0.114000 1000 37 0.900000 1.319000 1.279000 600 42 1.000000 0.051000 0.051000 1.200000 0.092000 0.111000
1559783345156012183	400 41 0.900000 0.134000 0.122000 1000 37 0.900000 1.067000 1.032000 600 42 1.000000 0.051000 0.051000 1.200000 0.081000 0.098000
1559783345665150224	400 41 0.900000 0.133000 0.121000 1000 37 0.900000 1.068000 1.033000 600 42 1.000000 0.051000 0.051000 1.200000 0.081000 0.098000
1559783346174458058	400 41 0.900000 0.134000 0.122000 1000 37 0.900000 1.068000 1.033000 600 42 1.000000 0.051000 0.051000 1.200000 0.081000 0.098000
1559783346683753516	400 41 0.900000 0.129000 0.117000 1000 37 0.900000 1.252000 1.214000 600 42 1.000000 0.051000 0.051000 1.200000 0.087000 0.105000
1559783347193034141	400 41 0.900000 0.134000 0.122000 1000 37 0.900000 1.065000 1.030000 600 42 1.000000 0.051000 0.051000 1.200000 0.081000 0.098000
1559783347702479141	400 41 0.900000 0.134000 0.122000 1000 37 0.900000 1.065000 1.030000 600 42 1.000000 0.051000 0.051000 1.200000 0.081000 0.098000
1559783348210658225	400 36 0.900000 0.081000 0.073000 1000 35 0.900000 0.134000 0.130000 600 40 1.000000 0.051000 0.051000 1.200000 0.026000 0.031000
1559783348718582058	400 35 0.900000 0.018000 0.016000 1000 35 0.900000 0.369000 0.358000 600 40 1.000000 0.051000 0.051000 1.200000 0.028000 0.033000
