#Timestamp	CPU(0) Frequency(MHz)	CPU(0) Temperature(C)	A7 Voltage(V)	A7 Current(A)	A7 Power(W)	CPU(4) Frequency(MHz)	CPU(4) Temperature(C)	A15 Voltage(V)	A15 Current(A)	A15 Power(W)	GPU Frequency(MHz)	GPU Temperature(C)	GPU Voltage(V)	GPU Current(A)	GPU Power(W)	RAM Voltage(V)	RAM Current(A)	RAM Power(W)
1517204768258108629	200 37 0.900000 0.034000 0.031000 300 36 0.900000 0.071000 0.064000 600 41 1.000000 0.051000 0.051000 1.200000 0.043000 0.051000
1517204768795670671	200 37 0.900000 0.027000 0.024000 300 36 0.900000 0.058000 0.052000 600 40 1.000000 0.051000 0.051000 1.200000 0.041000 0.049000
1517204769335020046	200 36 0.900000 0.017000 0.015000 300 36 0.900000 0.149000 0.135000 600 40 1.000000 0.051000 0.051000 1.200000 0.030000 0.036000
1517204769872752379	200 37 0.900000 0.012000 0.010000 300 36 0.900000 0.170000 0.155000 600 40 1.000000 0.051000 0.051000 1.200000 0.051000 0.061000
1517204770412561796	200 37 0.900000 0.026000 0.023000 300 36 0.900000 0.173000 0.157000 600 40 1.000000 0.051000 0.051000 1.200000 0.044000 0.053000
1517204770950817463	200 36 0.900000 0.029000 0.026000 300 35 0.900000 0.176000 0.160000 600 40 1.000000 0.051000 0.051000 1.200000 0.037000 0.044000
1517204771488372504	200 36 0.900000 0.013000 0.011000 300 35 0.900000 0.168000 0.153000 600 40 1.000000 0.051000 0.051000 1.200000 0.026000 0.031000
1517204772026614921	200 36 0.900000 0.026000 0.023000 300 35 0.900000 0.172000 0.156000 600 40 1.000000 0.051000 0.051000 1.200000 0.033000 0.039000
1517204772563198963	200 36 0.900000 0.014000 0.012000 300 35 0.900000 0.170000 0.155000 600 39 1.000000 0.051000 0.051000 1.200000 0.025000 0.030000
1517204773102048671	200 36 0.900000 0.018000 0.016000 300 35 0.900000 0.171000 0.155000 600 39 1.000000 0.051000 0.051000 1.200000 0.042000 0.050000
1517204773639348005	200 36 0.900000 0.028000 0.025000 300 35 0.900000 0.176000 0.160000 600 39 1.000000 0.051000 0.051000 1.200000 0.042000 0.050000
1517204774175947213	200 36 0.900000 0.020000 0.018000 300 35 0.900000 0.170000 0.155000 600 39 1.000000 0.051000 0.051000 1.200000 0.037000 0.044000
1517204774712683130	200 36 0.900000 0.014000 0.012000 300 34 0.900000 0.168000 0.153000 600 39 1.000000 0.051000 0.051000 1.200000 0.028000 0.033000
1517204775248792797	200 35 0.900000 0.014000 0.012000 300 34 0.900000 0.169000 0.154000 600 39 1.000000 0.051000 0.051000 1.200000 0.029000 0.035000
1517204775788894130	200 35 0.900000 0.019000 0.017000 300 34 0.900000 0.168000 0.153000 600 39 1.000000 0.051000 0.051000 1.200000 0.038000 0.045000
1517204776328327005	200 35 0.900000 0.028000 0.025000 300 34 0.900000 0.175000 0.159000 600 39 1.000000 0.051000 0.051000 1.200000 0.047000 0.056000
1517204776864780505	200 35 0.900000 0.011000 0.010000 300 34 0.900000 0.166000 0.151000 600 39 1.000000 0.051000 0.051000 1.200000 0.029000 0.035000
1517204777401389797	200 35 0.900000 0.014000 0.012000 300 34 0.900000 0.167000 0.152000 600 39 1.000000 0.051000 0.051000 1.200000 0.030000 0.036000
1517204777937865130	200 35 0.900000 0.013000 0.011000 300 34 0.900000 0.166000 0.151000 600 38 1.000000 0.051000 0.051000 1.200000 0.030000 0.036000
1517204778483491547	200 35 0.900000 0.020000 0.018000 300 34 0.900000 0.172000 0.156000 600 39 1.000000 0.051000 0.051000 1.200000 0.035000 0.042000
1517204779021065672	200 35 0.900000 0.037000 0.033000 300 34 0.900000 0.177000 0.161000 600 39 1.000000 0.051000 0.051000 1.200000 0.051000 0.061000
1517204779557846089	200 35 0.900000 0.012000 0.010000 300 34 0.900000 0.167000 0.152000 600 38 1.000000 0.051000 0.051000 1.200000 0.029000 0.035000
1517204780095214047	200 35 0.900000 0.012000 0.010000 300 34 0.900000 0.199000 0.181000 600 39 1.000000 0.051000 0.051000 1.200000 0.030000 0.036000
1517204780633455339	200 35 0.900000 0.029000 0.026000 300 34 0.900000 0.471000 0.429000 600 40 1.000000 0.051000 0.051000 1.200000 0.030000 0.036000
1517204781175187214	200 36 0.900000 0.045000 0.041000 300 34 0.900000 0.470000 0.428000 600 40 1.000000 0.051000 0.051000 1.200000 0.042000 0.050000
1517204781712922172	200 36 0.900000 0.039000 0.035000 300 34 0.900000 0.476000 0.433000 600 40 1.000000 0.051000 0.051000 1.200000 0.048000 0.058000
1517204782251727797	200 36 0.900000 0.029000 0.026000 300 35 0.900000 0.472000 0.429000 600 40 1.000000 0.051000 0.051000 1.200000 0.029000 0.035000
1517204782789598173	200 36 0.900000 0.029000 0.026000 300 34 0.900000 0.466000 0.424000 600 40 1.000000 0.051000 0.051000 1.200000 0.037000 0.044000
1517204783328551631	200 36 0.900000 0.031000 0.028000 300 34 0.900000 0.471000 0.429000 600 40 1.000000 0.051000 0.051000 1.200000 0.029000 0.035000
1517204783870446673	200 36 0.900000 0.043000 0.039000 300 35 0.900000 0.472000 0.429000 600 40 1.000000 0.051000 0.051000 1.200000 0.038000 0.045000
1517204784409380506	200 36 0.900000 0.042000 0.038000 300 34 0.900000 0.471000 0.429000 600 40 1.000000 0.051000 0.051000 1.200000 0.051000 0.061000
1517204784947783839	200 36 0.900000 0.033000 0.030000 300 35 0.900000 0.469000 0.427000 600 40 1.000000 0.051000 0.051000 1.200000 0.037000 0.044000
1517204785486949214	200 36 0.900000 0.031000 0.028000 300 34 0.900000 0.475000 0.432000 600 40 1.000000 0.051000 0.051000 1.200000 0.029000 0.035000
1517204786024911798	200 36 0.900000 0.042000 0.038000 300 34 0.900000 0.472000 0.429000 600 40 1.000000 0.051000 0.051000 1.200000 0.039000 0.047000
1517204786569542756	200 36 0.900000 0.028000 0.025000 300 35 0.900000 0.469000 0.427000 600 40 1.000000 0.051000 0.051000 1.200000 0.039000 0.047000
1517204787113003381	200 36 0.900000 0.041000 0.037000 300 35 0.900000 0.469000 0.427000 600 40 1.000000 0.050000 0.050000 1.200000 0.054000 0.065000
1517204787652151298	200 36 0.900000 0.040000 0.036000 300 35 0.900000 0.474000 0.431000 600 40 1.000000 0.051000 0.051000 1.200000 0.049000 0.059000
1517204788189324173	200 36 0.900000 0.036000 0.032000 300 35 0.900000 0.473000 0.430000 600 40 1.000000 0.051000 0.051000 1.200000 0.029000 0.035000
1517204788727631173	200 36 0.900000 0.031000 0.028000 300 35 0.900000 0.472000 0.429000 600 40 1.000000 0.051000 0.051000 1.200000 0.038000 0.045000
1517204789271601215	200 36 0.900000 0.029000 0.026000 300 35 0.900000 0.468000 0.426000 600 40 1.000000 0.051000 0.051000 1.200000 0.030000 0.036000
1517204789817851215	200 36 0.900000 0.043000 0.039000 300 35 0.900000 0.470000 0.428000 600 40 1.000000 0.051000 0.051000 1.200000 0.047000 0.056000
1517204790356006173	200 36 0.900000 0.039000 0.035000 300 35 0.900000 0.476000 0.433000 600 40 1.000000 0.051000 0.051000 1.200000 0.037000 0.044000
1517204790893847965	200 36 0.900000 0.035000 0.032000 300 34 0.900000 0.471000 0.429000 600 40 1.000000 0.051000 0.051000 1.200000 0.027000 0.032000
1517204791431962090	200 36 0.900000 0.028000 0.025000 300 34 0.900000 0.473000 0.430000 600 40 1.000000 0.051000 0.051000 1.200000 0.035000 0.042000
1517204791974642799	200 36 0.900000 0.029000 0.026000 300 34 0.900000 0.472000 0.429000 600 40 1.000000 0.051000 0.051000 1.200000 0.032000 0.038000
1517204792527701965	200 36 0.900000 0.043000 0.039000 300 34 0.900000 0.473000 0.430000 600 40 1.000000 0.051000 0.051000 1.200000 0.047000 0.056000
1517204793065326049	200 36 0.900000 0.051000 0.046000 300 34 0.900000 0.472000 0.429000 600 40 1.000000 0.051000 0.051000 1.200000 0.049000 0.059000
1517204793602980257	200 36 0.900000 0.026000 0.023000 300 34 0.900000 0.469000 0.427000 600 40 1.000000 0.051000 0.051000 1.200000 0.040000 0.048000
1517204794141017466	200 36 0.900000 0.029000 0.026000 300 35 0.900000 0.476000 0.433000 600 40 1.000000 0.051000 0.051000 1.200000 0.028000 0.033000
1517204794677742549	200 36 0.900000 0.030000 0.027000 300 34 0.900000 0.473000 0.430000 600 40 1.000000 0.051000 0.051000 1.200000 0.028000 0.033000
1517204795220140841	200 36 0.900000 0.050000 0.045000 300 34 0.900000 0.473000 0.430000 600 40 1.000000 0.051000 0.051000 1.200000 0.045000 0.054000
1517204795757729299	200 36 0.900000 0.037000 0.033000 300 34 0.900000 0.469000 0.427000 600 40 1.000000 0.051000 0.051000 1.200000 0.055000 0.066000
1517204796295180841	200 36 0.900000 0.032000 0.029000 300 34 0.900000 0.475000 0.432000 600 40 1.000000 0.051000 0.051000 1.200000 0.028000 0.033000
1517204796833617758	200 36 0.900000 0.029000 0.026000 300 34 0.900000 0.472000 0.429000 600 40 1.000000 0.051000 0.051000 1.200000 0.028000 0.033000
1517204797373246758	200 36 0.900000 0.028000 0.025000 300 34 0.900000 0.472000 0.429000 600 40 1.000000 0.051000 0.051000 1.200000 0.039000 0.047000
1517204797914084549	200 36 0.900000 0.045000 0.041000 300 34 0.900000 0.472000 0.429000 600 40 1.000000 0.051000 0.051000 1.200000 0.043000 0.051000
1517204798452144299	200 36 0.900000 0.044000 0.040000 300 34 0.900000 0.473000 0.430000 600 40 1.000000 0.051000 0.051000 1.200000 0.048000 0.057000
1517204798990449383	200 36 0.900000 0.030000 0.027000 300 34 0.900000 0.469000 0.427000 600 40 1.000000 0.051000 0.051000 1.200000 0.028000 0.033000
1517204799528607341	200 36 0.900000 0.028000 0.025000 300 34 0.900000 0.476000 0.433000 600 40 1.000000 0.051000 0.051000 1.200000 0.037000 0.044000
1517204800066383883	200 36 0.900000 0.038000 0.034000 300 34 0.900000 0.472000 0.429000 600 40 1.000000 0.051000 0.051000 1.200000 0.036000 0.043000
1517204800607262216	200 36 0.900000 0.031000 0.028000 300 34 0.900000 0.472000 0.429000 600 40 1.000000 0.051000 0.051000 1.200000 0.028000 0.033000
1517204801146502216	200 36 0.900000 0.038000 0.034000 300 34 0.900000 0.472000 0.429000 600 40 1.000000 0.051000 0.051000 1.200000 0.046000 0.055000
1517204801684318300	200 36 0.900000 0.029000 0.026000 300 34 0.900000 0.469000 0.427000 600 40 1.000000 0.051000 0.051000 1.200000 0.025000 0.030000
1517204802222849716	200 36 0.900000 0.041000 0.037000 300 34 0.900000 0.477000 0.434000 600 40 1.000000 0.051000 0.051000 1.200000 0.043000 0.052000
1517204802760280508	200 36 0.900000 0.033000 0.030000 300 34 0.900000 0.472000 0.429000 600 40 1.000000 0.051000 0.051000 1.200000 0.032000 0.038000
1517204803305777633	200 36 0.900000 0.032000 0.029000 300 34 0.900000 0.472000 0.429000 600 40 1.000000 0.051000 0.051000 1.200000 0.038000 0.045000
1517204803845024758	200 35 0.900000 0.043000 0.039000 300 34 0.900000 0.468000 0.426000 600 40 1.000000 0.051000 0.051000 1.200000 0.046000 0.055000
1517204804384833592	200 36 0.900000 0.029000 0.026000 300 34 0.900000 0.473000 0.430000 600 40 1.000000 0.051000 0.051000 1.200000 0.036000 0.043000
1517204804923324883	200 36 0.900000 0.039000 0.035000 300 34 0.900000 0.473000 0.430000 600 40 1.000000 0.051000 0.051000 1.200000 0.032000 0.038000
1517204805461506759	200 36 0.900000 0.030000 0.027000 300 34 0.900000 0.472000 0.429000 600 40 1.000000 0.051000 0.051000 1.200000 0.024000 0.028000
1517204806003347800	200 36 0.900000 0.029000 0.026000 300 34 0.900000 0.471000 0.429000 600 40 1.000000 0.051000 0.051000 1.200000 0.030000 0.036000
1517204806541851217	200 36 0.900000 0.041000 0.037000 300 34 0.900000 0.473000 0.430000 600 40 1.000000 0.051000 0.051000 1.200000 0.053000 0.064000
1517204807084118759	200 35 0.900000 0.043000 0.039000 300 34 0.900000 0.473000 0.430000 600 40 1.000000 0.051000 0.051000 1.200000 0.039000 0.047000
1517204807622352467	200 35 0.900000 0.029000 0.026000 300 34 0.900000 0.469000 0.427000 600 40 1.000000 0.051000 0.051000 1.200000 0.025000 0.030000
1517204808160253634	200 36 0.900000 0.027000 0.024000 300 34 0.900000 0.476000 0.433000 600 40 1.000000 0.051000 0.051000 1.200000 0.035000 0.042000
1517204808705446259	200 36 0.900000 0.030000 0.027000 300 34 0.900000 0.473000 0.430000 600 40 1.000000 0.051000 0.051000 1.200000 0.025000 0.030000
1517204809248986426	200 35 0.900000 0.041000 0.037000 300 34 0.900000 0.469000 0.427000 600 40 1.000000 0.051000 0.051000 1.200000 0.050000 0.060000
1517204809788008467	200 35 0.900000 0.046000 0.042000 300 34 0.900000 0.469000 0.427000 600 40 1.000000 0.051000 0.051000 1.200000 0.037000 0.044000
1517204810325996509	200 35 0.900000 0.031000 0.028000 300 34 0.900000 0.472000 0.429000 600 40 1.000000 0.051000 0.051000 1.200000 0.038000 0.045000
1517204810863430134	200 35 0.900000 0.031000 0.028000 300 34 0.900000 0.472000 0.429000 600 40 1.000000 0.051000 0.051000 1.200000 0.028000 0.033000
1517204811408545259	200 35 0.900000 0.029000 0.026000 300 34 0.900000 0.467000 0.425000 600 40 1.000000 0.051000 0.051000 1.200000 0.028000 0.033000
1517204811952653134	200 35 0.900000 0.051000 0.046000 300 34 0.900000 0.470000 0.428000 600 40 1.000000 0.051000 0.051000 1.200000 0.056000 0.067000
1517204812491339593	200 35 0.900000 0.027000 0.024000 300 34 0.900000 0.469000 0.427000 600 40 1.000000 0.051000 0.051000 1.200000 0.025000 0.030000
1517204813029671093	200 35 0.900000 0.027000 0.024000 300 34 0.900000 0.475000 0.432000 600 40 1.000000 0.051000 0.051000 1.200000 0.035000 0.042000
1517204813568373385	200 35 0.900000 0.029000 0.026000 300 34 0.900000 0.472000 0.429000 600 40 1.000000 0.051000 0.051000 1.200000 0.025000 0.030000
1517204814109401593	200 35 0.900000 0.043000 0.039000 300 34 0.900000 0.467000 0.425000 600 40 1.000000 0.051000 0.051000 1.200000 0.038000 0.045000
1517204814651878843	200 35 0.900000 0.040000 0.036000 300 34 0.900000 0.469000 0.427000 600 40 1.000000 0.051000 0.051000 1.200000 0.052000 0.062000
1517204815189741885	200 35 0.900000 0.040000 0.036000 300 34 0.900000 0.471000 0.429000 600 40 1.000000 0.051000 0.051000 1.200000 0.030000 0.036000
1517204815729207010	200 35 0.900000 0.030000 0.027000 300 34 0.900000 0.472000 0.429000 600 40 1.000000 0.050000 0.050000 1.200000 0.024000 0.028000
1517204816267823135	200 35 0.900000 0.028000 0.025000 300 34 0.900000 0.466000 0.424000 600 40 1.000000 0.051000 0.051000 1.200000 0.035000 0.042000
1517204816809154010	200 35 0.900000 0.035000 0.032000 300 34 0.900000 0.469000 0.427000 600 40 1.000000 0.051000 0.051000 1.200000 0.037000 0.044000
1517204817350479927	200 35 0.900000 0.043000 0.039000 300 34 0.900000 0.473000 0.430000 600 40 1.000000 0.051000 0.051000 1.200000 0.054000 0.065000
1517204817889485135	200 35 0.900000 0.041000 0.037000 300 34 0.900000 0.472000 0.429000 600 40 1.000000 0.051000 0.051000 1.200000 0.028000 0.033000
1517204818428180510	200 35 0.900000 0.028000 0.025000 300 34 0.900000 0.471000 0.429000 600 40 1.000000 0.051000 0.051000 1.200000 0.037000 0.044000
1517204818965680010	200 35 0.900000 0.043000 0.039000 300 34 0.900000 0.475000 0.432000 600 40 1.000000 0.051000 0.051000 1.200000 0.040000 0.048000
1517204819505151094	200 35 0.900000 0.030000 0.027000 300 34 0.900000 0.471000 0.429000 600 40 1.000000 0.051000 0.051000 1.200000 0.028000 0.033000
1517204820051288927	200 35 0.900000 0.042000 0.038000 300 34 0.900000 0.469000 0.427000 600 40 1.000000 0.051000 0.051000 1.200000 0.043000 0.052000
1517204820590098135	200 35 0.900000 0.037000 0.033000 300 34 0.900000 0.471000 0.429000 600 40 1.000000 0.051000 0.051000 1.200000 0.049000 0.059000
1517204821128140969	200 35 0.900000 0.038000 0.034000 300 34 0.900000 0.476000 0.433000 600 40 1.000000 0.051000 0.051000 1.200000 0.028000 0.033000
1517204821666344760	200 35 0.900000 0.037000 0.033000 300 34 0.900000 0.472000 0.429000 600 40 1.000000 0.051000 0.051000 1.200000 0.032000 0.038000
1517204822205254552	200 35 0.900000 0.030000 0.027000 300 34 0.900000 0.472000 0.429000 600 40 1.000000 0.051000 0.051000 1.200000 0.028000 0.033000
1517204822745459052	200 35 0.900000 0.029000 0.026000 300 34 0.900000 0.467000 0.425000 600 40 1.000000 0.051000 0.051000 1.200000 0.035000 0.042000
1517204823285625011	200 35 0.900000 0.044000 0.040000 300 34 0.900000 0.476000 0.433000 600 40 1.000000 0.051000 0.051000 1.200000 0.048000 0.058000
1517204823823617344	200 35 0.900000 0.043000 0.039000 300 34 0.900000 0.473000 0.430000 600 40 1.000000 0.051000 0.051000 1.200000 0.040000 0.048000
1517204824361853136	200 35 0.900000 0.029000 0.026000 300 34 0.900000 0.472000 0.429000 600 40 1.000000 0.051000 0.051000 1.200000 0.025000 0.030000
1517204824900981053	200 35 0.900000 0.029000 0.026000 300 34 0.900000 0.472000 0.429000 600 40 1.000000 0.051000 0.051000 1.200000 0.031000 0.037000
1517204825444112303	200 35 0.900000 0.039000 0.035000 300 34 0.900000 0.468000 0.426000 600 40 1.000000 0.051000 0.051000 1.200000 0.044000 0.053000
1517204825983687178	200 35 0.900000 0.047000 0.043000 300 34 0.900000 0.473000 0.430000 600 40 1.000000 0.051000 0.051000 1.200000 0.054000 0.065000
1517204826521995594	200 35 0.900000 0.029000 0.026000 300 34 0.900000 0.473000 0.430000 600 40 1.000000 0.051000 0.051000 1.200000 0.028000 0.033000
1517204827060591219	200 35 0.900000 0.028000 0.025000 300 34 0.900000 0.464000 0.422000 600 40 1.000000 0.051000 0.051000 1.200000 0.040000 0.048000
1517204827598114261	200 35 0.900000 0.028000 0.025000 300 34 0.900000 0.474000 0.431000 600 40 1.000000 0.051000 0.051000 1.200000 0.028000 0.033000
1517204828144954553	200 35 0.900000 0.032000 0.029000 300 34 0.900000 0.473000 0.430000 600 40 1.000000 0.051000 0.051000 1.200000 0.035000 0.042000
1517204828683521428	200 35 0.900000 0.045000 0.041000 300 34 0.900000 0.469000 0.427000 600 40 1.000000 0.051000 0.051000 1.200000 0.055000 0.066000
1517204829222329095	200 35 0.900000 0.032000 0.029000 300 34 0.900000 0.468000 0.426000 600 40 1.000000 0.051000 0.051000 1.200000 0.029000 0.035000
1517204829761046095	200 35 0.900000 0.031000 0.028000 300 34 0.900000 0.472000 0.429000 600 39 1.000000 0.051000 0.051000 1.200000 0.028000 0.033000
1517204830300647928	200 35 0.900000 0.030000 0.027000 300 34 0.900000 0.472000 0.429000 600 40 1.000000 0.051000 0.051000 1.200000 0.034000 0.041000
1517204830843718720	200 35 0.900000 0.040000 0.036000 300 34 0.900000 0.464000 0.422000 600 40 1.000000 0.051000 0.051000 1.200000 0.049000 0.059000
1517204831381945762	200 35 0.900000 0.043000 0.039000 300 34 0.900000 0.471000 0.429000 600 40 1.000000 0.051000 0.051000 1.200000 0.049000 0.059000
1517204831919325803	200 35 0.900000 0.031000 0.028000 300 34 0.900000 0.472000 0.429000 600 39 1.000000 0.051000 0.051000 1.200000 0.030000 0.036000
1517204832458450178	200 35 0.900000 0.031000 0.028000 300 34 0.900000 0.472000 0.429000 600 39 1.000000 0.051000 0.051000 1.200000 0.031000 0.037000
1517204833026473762	200 35 0.900000 0.041000 0.037000 300 34 0.900000 0.467000 0.425000 600 40 1.000000 0.051000 0.051000 1.200000 0.041000 0.049000
1517204833572495512	200 35 0.900000 0.036000 0.032000 300 34 0.900000 0.472000 0.429000 600 39 1.000000 0.051000 0.051000 1.200000 0.036000 0.043000
1517204834112614679	200 35 0.900000 0.043000 0.039000 300 34 0.900000 0.472000 0.429000 600 39 1.000000 0.050000 0.050000 1.200000 0.048000 0.057000
1517204834649975554	200 35 0.900000 0.030000 0.027000 300 34 0.900000 0.472000 0.429000 600 39 1.000000 0.051000 0.051000 1.200000 0.025000 0.030000
1517204835187753470	200 35 0.900000 0.033000 0.030000 300 34 0.900000 0.466000 0.424000 600 40 1.000000 0.051000 0.051000 1.200000 0.044000 0.053000
1517204835725595179	200 35 0.900000 0.029000 0.026000 300 34 0.900000 0.472000 0.429000 600 39 1.000000 0.051000 0.051000 1.200000 0.029000 0.035000
1517204836267847846	200 35 0.900000 0.030000 0.027000 300 34 0.900000 0.471000 0.429000 600 39 1.000000 0.051000 0.051000 1.200000 0.027000 0.032000
1517204836807235429	200 35 0.900000 0.040000 0.036000 300 34 0.900000 0.468000 0.426000 600 39 1.000000 0.051000 0.051000 1.200000 0.048000 0.058000
1517204837345760304	200 35 0.900000 0.027000 0.024000 300 34 0.900000 0.471000 0.429000 600 39 1.000000 0.051000 0.051000 1.200000 0.036000 0.043000
1517204837889008512	200 35 0.900000 0.033000 0.030000 300 34 0.900000 0.471000 0.429000 600 39 1.000000 0.051000 0.051000 1.200000 0.030000 0.036000
1517204838427217221	200 35 0.900000 0.030000 0.027000 300 34 0.900000 0.467000 0.425000 600 39 1.000000 0.051000 0.051000 1.200000 0.025000 0.030000
1517204838971441846	200 35 0.900000 0.027000 0.024000 300 34 0.900000 0.475000 0.432000 600 39 1.000000 0.051000 0.051000 1.200000 0.037000 0.044000
1517204839514944638	200 35 0.900000 0.041000 0.037000 300 34 0.900000 0.472000 0.429000 600 39 1.000000 0.051000 0.051000 1.200000 0.048000 0.057000
1517204840054764763	200 35 0.900000 0.040000 0.036000 300 34 0.900000 0.468000 0.426000 600 39 1.000000 0.051000 0.051000 1.200000 0.041000 0.049000
1517204840592682846	200 35 0.900000 0.028000 0.025000 300 34 0.900000 0.468000 0.426000 600 39 1.000000 0.050000 0.050000 1.200000 0.037000 0.044000
1517204841130359971	200 35 0.900000 0.031000 0.028000 300 34 0.900000 0.472000 0.429000 600 39 1.000000 0.051000 0.051000 1.200000 0.035000 0.042000
1517204841671558096	200 35 0.900000 0.031000 0.028000 300 34 0.900000 0.472000 0.429000 600 39 1.000000 0.051000 0.051000 1.200000 0.028000 0.033000
1517204842219358930	200 35 0.900000 0.043000 0.039000 300 34 0.900000 0.470000 0.428000 600 39 1.000000 0.051000 0.051000 1.200000 0.050000 0.060000
1517204842758536971	200 35 0.900000 0.045000 0.041000 300 34 0.900000 0.467000 0.425000 600 39 1.000000 0.051000 0.051000 1.200000 0.044000 0.053000
1517204843297414430	200 35 0.900000 0.030000 0.027000 300 34 0.900000 0.471000 0.429000 600 39 1.000000 0.051000 0.051000 1.200000 0.041000 0.049000
1517204843834863971	200 35 0.900000 0.030000 0.027000 300 34 0.900000 0.472000 0.429000 600 39 1.000000 0.051000 0.051000 1.200000 0.027000 0.032000
1517204844389053513	200 35 0.900000 0.031000 0.028000 300 34 0.900000 0.471000 0.429000 600 39 1.000000 0.051000 0.051000 1.200000 0.028000 0.033000
1517204844931553055	200 35 0.900000 0.051000 0.046000 300 34 0.900000 0.470000 0.428000 600 39 1.000000 0.051000 0.051000 1.200000 0.058000 0.070000
1517204845469733972	200 35 0.900000 0.030000 0.027000 300 34 0.900000 0.470000 0.428000 600 39 1.000000 0.051000 0.051000 1.200000 0.027000 0.032000
1517204846007693013	200 35 0.900000 0.026000 0.023000 300 34 0.900000 0.476000 0.433000 600 39 1.000000 0.051000 0.051000 1.200000 0.036000 0.043000
1517204846544908013	200 35 0.900000 0.031000 0.028000 300 34 0.900000 0.472000 0.429000 600 39 1.000000 0.051000 0.051000 1.200000 0.025000 0.030000
1517204847083527014	200 35 0.900000 0.038000 0.034000 300 34 0.900000 0.472000 0.429000 600 39 1.000000 0.050000 0.050000 1.200000 0.040000 0.048000
1517204847629205055	200 35 0.900000 0.038000 0.034000 300 34 0.900000 0.471000 0.429000 600 39 1.000000 0.051000 0.051000 1.200000 0.046000 0.055000
1517204848167813347	200 35 0.900000 0.041000 0.037000 300 34 0.900000 0.470000 0.428000 600 40 1.000000 0.051000 0.051000 1.200000 0.042000 0.050000
1517204848705771514	200 35 0.900000 0.031000 0.028000 300 34 0.900000 0.471000 0.429000 600 39 1.000000 0.051000 0.051000 1.200000 0.032000 0.038000
1517204849244132305	200 35 0.900000 0.031000 0.028000 300 34 0.900000 0.472000 0.429000 600 39 1.000000 0.051000 0.051000 1.200000 0.032000 0.038000
1517204849782390097	200 35 0.900000 0.029000 0.026000 300 34 0.900000 0.471000 0.429000 600 39 1.000000 0.051000 0.051000 1.200000 0.028000 0.033000
1517204850322876014	200 35 0.900000 0.038000 0.034000 300 34 0.900000 0.475000 0.432000 600 39 1.000000 0.051000 0.051000 1.200000 0.053000 0.064000
1517204850860431014	200 35 0.900000 0.041000 0.037000 300 34 0.900000 0.477000 0.434000 600 39 1.000000 0.051000 0.051000 1.200000 0.042000 0.050000
1517204851399379264	200 35 0.900000 0.030000 0.027000 300 34 0.900000 0.480000 0.437000 600 39 1.000000 0.050000 0.050000 1.200000 0.025000 0.030000
1517204851938354847	200 35 0.900000 0.036000 0.032000 300 34 0.900000 0.479000 0.436000 600 39 1.000000 0.051000 0.051000 1.200000 0.040000 0.048000
1517204852476692889	200 35 0.900000 0.027000 0.024000 300 34 0.900000 0.486000 0.442000 600 39 1.000000 0.051000 0.051000 1.200000 0.034000 0.041000
1517204853022641431	200 35 0.900000 0.032000 0.029000 300 34 0.900000 0.482000 0.439000 600 39 1.000000 0.051000 0.051000 1.200000 0.041000 0.049000
1517204853560252348	200 35 0.900000 0.042000 0.038000 300 34 0.900000 0.473000 0.430000 600 39 1.000000 0.051000 0.051000 1.200000 0.047000 0.056000
1517204854097959764	200 35 0.900000 0.033000 0.030000 300 34 0.900000 0.475000 0.432000 600 39 1.000000 0.051000 0.051000 1.200000 0.045000 0.054000
1517204854635713931	200 35 0.900000 0.033000 0.030000 300 34 0.900000 0.485000 0.441000 600 39 1.000000 0.051000 0.051000 1.200000 0.026000 0.031000
1517204855177879973	200 35 0.900000 0.032000 0.029000 300 34 0.900000 0.485000 0.441000 600 39 1.000000 0.051000 0.051000 1.200000 0.026000 0.031000
1517204855719434223	200 35 0.900000 0.028000 0.025000 300 34 0.900000 0.477000 0.434000 600 39 1.000000 0.051000 0.051000 1.200000 0.035000 0.042000
1517204856258398306	200 35 0.900000 0.043000 0.039000 300 34 0.900000 0.487000 0.443000 600 39 1.000000 0.051000 0.051000 1.200000 0.055000 0.066000
1517204856795374056	200 35 0.900000 0.040000 0.036000 300 34 0.900000 0.482000 0.439000 600 39 1.000000 0.051000 0.051000 1.200000 0.031000 0.037000
1517204857338028598	200 35 0.900000 0.032000 0.029000 300 33 0.900000 0.485000 0.441000 600 39 1.000000 0.051000 0.051000 1.200000 0.028000 0.033000
1517204857877262390	200 35 0.900000 0.030000 0.027000 300 34 0.900000 0.486000 0.442000 600 39 1.000000 0.050000 0.050000 1.200000 0.026000 0.031000
1517204858420838348	200 35 0.900000 0.040000 0.036000 300 34 0.900000 0.477000 0.434000 600 39 1.000000 0.051000 0.051000 1.200000 0.048000 0.058000
1517204858958360265	200 35 0.900000 0.043000 0.039000 300 34 0.900000 0.484000 0.440000 600 40 1.000000 0.051000 0.051000 1.200000 0.054000 0.065000
1517204859497537307	200 35 0.900000 0.032000 0.029000 300 34 0.900000 0.484000 0.440000 600 39 1.000000 0.051000 0.051000 1.200000 0.029000 0.035000
1517204860037744973	200 35 0.900000 0.029000 0.026000 300 34 0.900000 0.484000 0.440000 600 39 1.000000 0.051000 0.051000 1.200000 0.036000 0.043000
1517204860576574057	200 35 0.900000 0.029000 0.026000 300 33 0.900000 0.479000 0.436000 600 39 1.000000 0.051000 0.051000 1.200000 0.037000 0.044000
1517204861119267224	200 35 0.900000 0.036000 0.032000 300 34 0.900000 0.487000 0.443000 600 39 1.000000 0.051000 0.051000 1.200000 0.032000 0.038000
1517204861658529724	200 35 0.900000 0.045000 0.041000 300 34 0.900000 0.486000 0.442000 600 39 1.000000 0.051000 0.051000 1.200000 0.048000 0.058000
1517204862196753932	200 35 0.900000 0.030000 0.027000 300 34 0.900000 0.485000 0.441000 600 39 1.000000 0.051000 0.051000 1.200000 0.043000 0.052000
1517204862735432265	200 35 0.900000 0.028000 0.025000 300 34 0.900000 0.477000 0.434000 600 39 1.000000 0.051000 0.051000 1.200000 0.030000 0.036000
1517204863273475390	200 35 0.900000 0.031000 0.028000 300 33 0.900000 0.484000 0.440000 600 39 1.000000 0.051000 0.051000 1.200000 0.029000 0.035000
1517204863816895682	200 35 0.900000 0.036000 0.032000 300 33 0.900000 0.485000 0.441000 600 39 1.000000 0.051000 0.051000 1.200000 0.041000 0.049000
1517204864358106057	200 35 0.900000 0.040000 0.036000 300 34 0.900000 0.474000 0.431000 600 39 1.000000 0.051000 0.051000 1.200000 0.053000 0.064000
1517204864897448474	200 35 0.900000 0.028000 0.025000 300 34 0.900000 0.477000 0.434000 600 39 1.000000 0.051000 0.051000 1.200000 0.043000 0.052000
1517204865436575724	200 35 0.900000 0.030000 0.027000 300 34 0.900000 0.484000 0.440000 600 39 1.000000 0.051000 0.051000 1.200000 0.029000 0.035000
1517204865976212516	200 35 0.900000 0.033000 0.030000 300 33 0.900000 0.486000 0.442000 600 39 1.000000 0.050000 0.050000 1.200000 0.042000 0.050000
1517204866521465057	200 35 0.900000 0.030000 0.027000 300 34 0.900000 0.476000 0.433000 600 39 1.000000 0.051000 0.051000 1.200000 0.037000 0.044000
1517204867065569766	200 35 0.900000 0.040000 0.036000 300 34 0.900000 0.485000 0.441000 600 39 1.000000 0.050000 0.050000 1.200000 0.043000 0.052000
1517204867603908808	200 35 0.900000 0.043000 0.039000 300 34 0.900000 0.485000 0.441000 600 39 1.000000 0.051000 0.051000 1.200000 0.047000 0.056000
1517204868142393558	200 35 0.900000 0.028000 0.025000 300 34 0.900000 0.484000 0.440000 600 39 1.000000 0.051000 0.051000 1.200000 0.038000 0.045000
1517204868680660474	200 35 0.900000 0.033000 0.030000 300 33 0.900000 0.479000 0.436000 600 39 1.000000 0.051000 0.051000 1.200000 0.040000 0.048000
1517204869222500474	200 35 0.900000 0.027000 0.024000 300 33 0.900000 0.475000 0.432000 600 39 1.000000 0.051000 0.051000 1.200000 0.035000 0.042000
1517204869767664433	200 35 0.900000 0.042000 0.038000 300 34 0.900000 0.481000 0.438000 600 39 1.000000 0.051000 0.051000 1.200000 0.047000 0.056000
1517204870306908433	200 35 0.900000 0.036000 0.032000 300 34 0.900000 0.487000 0.443000 600 39 1.000000 0.050000 0.050000 1.200000 0.036000 0.043000
1517204870845814308	200 35 0.900000 0.029000 0.026000 300 34 0.900000 0.485000 0.441000 600 39 1.000000 0.050000 0.050000 1.200000 0.038000 0.045000
1517204871384224933	200 35 0.900000 0.027000 0.024000 300 34 0.900000 0.478000 0.435000 600 39 1.000000 0.051000 0.051000 1.200000 0.034000 0.041000
1517204871923945558	200 35 0.900000 0.032000 0.029000 300 33 0.900000 0.487000 0.443000 600 39 1.000000 0.051000 0.051000 1.200000 0.027000 0.032000
1517204872466940308	200 35 0.900000 0.039000 0.035000 300 33 0.900000 0.484000 0.440000 600 39 1.000000 0.051000 0.051000 1.200000 0.047000 0.056000
1517204873005589433	200 35 0.900000 0.050000 0.045000 300 34 0.900000 0.483000 0.440000 600 39 1.000000 0.051000 0.051000 1.200000 0.057000 0.069000
1517204873543608725	200 35 0.900000 0.032000 0.029000 300 34 0.900000 0.478000 0.435000 600 39 1.000000 0.051000 0.051000 1.200000 0.029000 0.035000
1517204874080929225	200 35 0.900000 0.032000 0.029000 300 34 0.900000 0.485000 0.441000 600 39 1.000000 0.051000 0.051000 1.200000 0.028000 0.033000
1517204874619423642	200 35 0.900000 0.030000 0.027000 300 33 0.900000 0.477000 0.434000 600 39 1.000000 0.051000 0.051000 1.200000 0.030000 0.036000
1517204875163594600	200 35 0.900000 0.040000 0.036000 300 34 0.900000 0.487000 0.443000 600 39 1.000000 0.051000 0.051000 1.200000 0.048000 0.058000
1517204875701785184	200 35 0.900000 0.045000 0.041000 300 34 0.900000 0.485000 0.441000 600 39 1.000000 0.051000 0.051000 1.200000 0.050000 0.060000
1517204876239902017	200 35 0.900000 0.031000 0.028000 300 34 0.900000 0.484000 0.440000 600 39 1.000000 0.051000 0.051000 1.200000 0.029000 0.035000
1517204876778052100	200 35 0.900000 0.031000 0.028000 300 34 0.900000 0.476000 0.433000 600 39 1.000000 0.051000 0.051000 1.200000 0.035000 0.042000
1517204877317628309	200 35 0.900000 0.027000 0.024000 300 34 0.900000 0.485000 0.441000 600 39 1.000000 0.051000 0.051000 1.200000 0.038000 0.045000
1517204877858440017	200 35 0.900000 0.043000 0.039000 300 34 0.900000 0.478000 0.435000 600 39 1.000000 0.051000 0.051000 1.200000 0.043000 0.052000
1517204878400824976	200 35 0.900000 0.042000 0.038000 300 33 0.900000 0.480000 0.437000 600 39 1.000000 0.051000 0.051000 1.200000 0.048000 0.058000
1517204878938600684	200 35 0.900000 0.031000 0.028000 300 33 0.900000 0.478000 0.435000 600 39 1.000000 0.050000 0.050000 1.200000 0.039000 0.047000
1517204879477453851	200 35 0.900000 0.031000 0.028000 300 33 0.900000 0.484000 0.440000 600 39 1.000000 0.051000 0.051000 1.200000 0.034000 0.041000
1517204880015454434	200 35 0.900000 0.033000 0.030000 300 33 0.900000 0.484000 0.440000 600 39 1.000000 0.051000 0.051000 1.200000 0.035000 0.042000
1517204880560526601	200 35 0.900000 0.031000 0.028000 300 33 0.900000 0.476000 0.433000 600 39 1.000000 0.051000 0.051000 1.200000 0.029000 0.035000
1517204881099493226	200 35 0.900000 0.042000 0.038000 300 33 0.900000 0.484000 0.440000 600 39 1.000000 0.051000 0.051000 1.200000 0.046000 0.055000
1517204881637081809	200 35 0.900000 0.026000 0.023000 300 34 0.900000 0.475000 0.432000 600 39 1.000000 0.051000 0.051000 1.200000 0.036000 0.043000
1517204882174096393	200 35 0.900000 0.037000 0.033000 300 34 0.900000 0.483000 0.440000 600 39 1.000000 0.051000 0.051000 1.200000 0.042000 0.050000
1517204882714456226	200 35 0.900000 0.030000 0.027000 300 34 0.900000 0.485000 0.441000 600 39 1.000000 0.051000 0.051000 1.200000 0.025000 0.030000
1517204883259315893	200 35 0.900000 0.037000 0.033000 300 33 0.900000 0.473000 0.430000 600 39 1.000000 0.050000 0.050000 1.200000 0.034000 0.041000
1517204883797580643	200 35 0.900000 0.040000 0.036000 300 34 0.900000 0.476000 0.433000 600 39 1.000000 0.051000 0.051000 1.200000 0.052000 0.062000
1517204884337509476	200 35 0.900000 0.031000 0.028000 300 33 0.900000 0.484000 0.440000 600 39 1.000000 0.051000 0.051000 1.200000 0.027000 0.032000
1517204884875528268	200 35 0.900000 0.045000 0.041000 300 33 0.900000 0.484000 0.440000 600 39 1.000000 0.051000 0.051000 1.200000 0.030000 0.036000
1517204885414450851	200 35 0.900000 0.029000 0.026000 300 33 0.900000 0.476000 0.433000 600 39 1.000000 0.051000 0.051000 1.200000 0.026000 0.031000
1517204885959131768	200 35 0.900000 0.031000 0.028000 300 33 0.900000 0.483000 0.440000 600 39 1.000000 0.051000 0.051000 1.200000 0.035000 0.042000
1517204886502482310	200 35 0.900000 0.044000 0.040000 300 33 0.900000 0.484000 0.440000 600 39 1.000000 0.051000 0.051000 1.200000 0.048000 0.058000
1517204887042436602	200 35 0.900000 0.045000 0.041000 300 33 0.900000 0.478000 0.435000 600 39 1.000000 0.051000 0.051000 1.200000 0.039000 0.047000
1517204887580690435	200 35 0.900000 0.028000 0.025000 300 33 0.900000 0.476000 0.433000 600 39 1.000000 0.051000 0.051000 1.200000 0.033000 0.039000
1517204888117747893	200 35 0.900000 0.030000 0.027000 300 33 0.900000 0.484000 0.440000 600 39 1.000000 0.051000 0.051000 1.200000 0.037000 0.044000
1517204888658035477	200 35 0.900000 0.032000 0.029000 300 34 0.900000 0.484000 0.441000 600 39 1.000000 0.051000 0.051000 1.200000 0.028000 0.033000
1517204889205454102	200 35 0.900000 0.048000 0.043000 300 34 0.900000 0.482000 0.439000 600 39 1.000000 0.051000 0.051000 1.200000 0.051000 0.061000
1517204889743492519	200 35 0.900000 0.032000 0.029000 300 33 0.900000 0.475000 0.432000 600 39 1.000000 0.051000 0.051000 1.200000 0.040000 0.048000
1517204890282400060	200 35 0.900000 0.029000 0.026000 300 33 0.900000 0.484000 0.440000 600 39 1.000000 0.050000 0.050000 1.200000 0.035000 0.042000
1517204890819947102	200 35 0.900000 0.031000 0.028000 300 33 0.900000 0.484000 0.440000 600 39 1.000000 0.051000 0.051000 1.200000 0.028000 0.033000
1517204891363220852	200 35 0.900000 0.028000 0.025000 300 33 0.900000 0.477000 0.434000 600 39 1.000000 0.051000 0.051000 1.200000 0.028000 0.033000
1517204891913447352	200 35 0.900000 0.043000 0.039000 300 34 0.900000 0.478000 0.435000 600 39 1.000000 0.051000 0.051000 1.200000 0.059000 0.071000
1517204892452619894	200 35 0.900000 0.031000 0.028000 300 33 0.900000 0.478000 0.435000 600 39 1.000000 0.051000 0.051000 1.200000 0.035000 0.042000
1517204892990972561	200 35 0.900000 0.030000 0.027000 300 33 0.900000 0.483000 0.440000 600 39 1.000000 0.051000 0.051000 1.200000 0.034000 0.041000
1517204893529592936	200 35 0.900000 0.030000 0.027000 300 33 0.900000 0.483000 0.440000 600 39 1.000000 0.051000 0.051000 1.200000 0.025000 0.030000
1517204894071523061	200 35 0.900000 0.040000 0.036000 300 33 0.900000 0.469000 0.427000 600 39 1.000000 0.051000 0.051000 1.200000 0.037000 0.044000
1517204894612773811	200 35 0.900000 0.040000 0.036000 300 34 0.900000 0.473000 0.430000 600 39 1.000000 0.051000 0.051000 1.200000 0.053000 0.064000
1517204895151669103	200 35 0.900000 0.034000 0.031000 300 33 0.900000 0.483000 0.440000 600 39 1.000000 0.051000 0.051000 1.200000 0.028000 0.033000
1517204895689757353	200 35 0.900000 0.029000 0.026000 300 33 0.900000 0.482000 0.439000 600 39 1.000000 0.051000 0.051000 1.200000 0.025000 0.030000
1517204896228284269	200 35 0.900000 0.035000 0.032000 300 33 0.900000 0.478000 0.435000 600 39 1.000000 0.050000 0.050000 1.200000 0.034000 0.041000
1517204896768211478	200 35 0.900000 0.027000 0.024000 300 33 0.900000 0.481000 0.438000 600 39 1.000000 0.051000 0.051000 1.200000 0.035000 0.042000
1517204897308724353	200 35 0.900000 0.037000 0.033000 300 33 0.900000 0.481000 0.438000 600 39 1.000000 0.051000 0.051000 1.200000 0.048000 0.058000
1517204897846927603	200 35 0.900000 0.042000 0.038000 300 33 0.900000 0.482000 0.439000 600 39 1.000000 0.051000 0.051000 1.200000 0.034000 0.041000
1517204898386401603	200 35 0.900000 0.028000 0.025000 300 33 0.900000 0.475000 0.432000 600 39 1.000000 0.051000 0.051000 1.200000 0.031000 0.037000
1517204898924484520	200 35 0.900000 0.044000 0.040000 300 33 0.900000 0.482000 0.439000 600 39 1.000000 0.051000 0.051000 1.200000 0.041000 0.049000
1517204899461559770	200 35 0.900000 0.032000 0.029000 300 33 0.900000 0.480000 0.437000 600 39 1.000000 0.051000 0.051000 1.200000 0.025000 0.030000
1517204900006110145	200 35 0.900000 0.035000 0.032000 300 33 0.900000 0.481000 0.438000 600 39 1.000000 0.051000 0.051000 1.200000 0.047000 0.056000
1517204900548207145	200 35 0.900000 0.041000 0.037000 300 33 0.900000 0.472000 0.429000 600 39 1.000000 0.051000 0.051000 1.200000 0.049000 0.059000
1517204901086710187	200 35 0.900000 0.038000 0.034000 300 33 0.900000 0.479000 0.436000 600 39 1.000000 0.051000 0.051000 1.200000 0.029000 0.035000
1517204901624974603	200 35 0.900000 0.031000 0.028000 300 33 0.900000 0.481000 0.438000 600 39 1.000000 0.051000 0.051000 1.200000 0.035000 0.042000
1517204902163370770	200 35 0.900000 0.030000 0.027000 300 33 0.900000 0.470000 0.428000 600 39 1.000000 0.051000 0.051000 1.200000 0.037000 0.044000
1517204902709360645	200 35 0.900000 0.034000 0.031000 300 33 0.900000 0.476000 0.433000 600 39 1.000000 0.051000 0.051000 1.200000 0.028000 0.033000
1517204903250331937	200 35 0.900000 0.044000 0.040000 300 33 0.900000 0.480000 0.437000 600 39 1.000000 0.051000 0.051000 1.200000 0.047000 0.056000
1517204903791298229	200 35 0.900000 0.034000 0.031000 300 33 0.900000 0.480000 0.437000 600 39 1.000000 0.051000 0.051000 1.200000 0.028000 0.033000
1517204904328751854	200 35 0.900000 0.030000 0.027000 300 33 0.900000 0.477000 0.434000 600 39 1.000000 0.051000 0.051000 1.200000 0.029000 0.035000
1517204904866762187	200 35 0.900000 0.028000 0.025000 300 33 0.900000 0.475000 0.432000 600 39 1.000000 0.051000 0.051000 1.200000 0.039000 0.047000
1517204905417388604	200 35 0.900000 0.036000 0.032000 300 33 0.900000 0.476000 0.433000 600 39 1.000000 0.051000 0.051000 1.200000 0.037000 0.044000
1517204905961446187	200 35 0.900000 0.052000 0.047000 300 33 0.900000 0.477000 0.434000 600 39 1.000000 0.050000 0.050000 1.200000 0.054000 0.065000
1517204906499381771	200 35 0.900000 0.030000 0.027000 300 33 0.900000 0.483000 0.440000 600 39 1.000000 0.051000 0.051000 1.200000 0.036000 0.043000
1517204907037888979	200 35 0.900000 0.026000 0.023000 300 33 0.900000 0.471000 0.429000 600 39 1.000000 0.051000 0.051000 1.200000 0.037000 0.044000
1517204907575836854	200 35 0.900000 0.028000 0.025000 300 33 0.900000 0.476000 0.433000 600 39 1.000000 0.051000 0.051000 1.200000 0.029000 0.035000
1517204908162025687	200 35 0.900000 0.045000 0.041000 300 33 0.900000 0.477000 0.434000 600 39 1.000000 0.051000 0.051000 1.200000 0.034000 0.041000
1517204908703841896	200 35 0.900000 0.044000 0.040000 300 33 0.900000 0.476000 0.433000 600 39 1.000000 0.051000 0.051000 1.200000 0.054000 0.065000
1517204909241901271	200 35 0.900000 0.029000 0.026000 300 33 0.900000 0.477000 0.434000 600 39 1.000000 0.051000 0.051000 1.200000 0.050000 0.060000
1517204909779675438	200 35 0.900000 0.028000 0.025000 300 33 0.900000 0.484000 0.440000 600 39 1.000000 0.051000 0.051000 1.200000 0.028000 0.033000
1517204910319744854	200 35 0.900000 0.029000 0.026000 300 33 0.900000 0.478000 0.435000 600 39 1.000000 0.051000 0.051000 1.200000 0.029000 0.035000
1517204910864317229	200 35 0.900000 0.037000 0.033000 300 33 0.900000 0.480000 0.437000 600 39 1.000000 0.051000 0.051000 1.200000 0.046000 0.055000
1517204911405862855	200 35 0.900000 0.038000 0.034000 300 33 0.900000 0.474000 0.431000 600 39 1.000000 0.051000 0.051000 1.200000 0.042000 0.050000
1517204911943468855	200 35 0.900000 0.044000 0.040000 300 33 0.900000 0.479000 0.436000 600 39 1.000000 0.051000 0.051000 1.200000 0.048000 0.058000
1517204912485132188	200 35 0.900000 0.030000 0.027000 300 33 0.900000 0.475000 0.432000 600 39 1.000000 0.051000 0.051000 1.200000 0.031000 0.037000
1517204913023093521	200 35 0.900000 0.043000 0.039000 300 33 0.900000 0.474000 0.431000 600 39 1.000000 0.051000 0.051000 1.200000 0.040000 0.048000
1517204913566140980	200 35 0.900000 0.027000 0.024000 300 33 0.900000 0.475000 0.432000 600 39 1.000000 0.050000 0.050000 1.200000 0.035000 0.042000
1517204914106546480	200 35 0.900000 0.040000 0.036000 300 33 0.900000 0.480000 0.437000 600 39 1.000000 0.051000 0.051000 1.200000 0.048000 0.058000
1517204914648497063	200 35 0.900000 0.032000 0.029000 300 33 0.900000 0.476000 0.433000 600 39 1.000000 0.051000 0.051000 1.200000 0.036000 0.043000
1517204915190580147	200 35 0.900000 0.039000 0.035000 300 33 0.900000 0.473000 0.430000 600 39 1.000000 0.051000 0.051000 1.200000 0.033000 0.039000
1517204915728707147	200 35 0.900000 0.027000 0.024000 300 33 0.900000 0.478000 0.435000 600 39 1.000000 0.051000 0.051000 1.200000 0.037000 0.044000
1517204916271500355	200 35 0.900000 0.031000 0.028000 300 33 0.900000 0.476000 0.433000 600 39 1.000000 0.051000 0.051000 1.200000 0.026000 0.031000
1517204916816175897	200 35 0.900000 0.039000 0.035000 300 33 0.900000 0.481000 0.438000 600 39 1.000000 0.051000 0.051000 1.200000 0.048000 0.058000
1517204917356841439	200 35 0.900000 0.041000 0.037000 300 33 0.900000 0.474000 0.431000 600 39 1.000000 0.050000 0.050000 1.200000 0.048000 0.058000
1517204917895903689	200 34 0.900000 0.043000 0.039000 300 33 0.900000 0.481000 0.438000 600 39 1.000000 0.051000 0.051000 1.200000 0.046000 0.055000
1517204918434394647	200 34 0.900000 0.031000 0.028000 300 33 0.900000 0.476000 0.433000 600 39 1.000000 0.051000 0.051000 1.200000 0.029000 0.035000
1517204918973559147	200 34 0.900000 0.031000 0.028000 300 33 0.900000 0.479000 0.436000 600 39 1.000000 0.051000 0.051000 1.200000 0.028000 0.033000
1517204919518046897	200 35 0.900000 0.037000 0.033000 300 33 0.900000 0.477000 0.434000 600 39 1.000000 0.051000 0.051000 1.200000 0.049000 0.059000
1517204920061861647	200 35 0.900000 0.049000 0.044000 300 33 0.900000 0.480000 0.437000 600 39 1.000000 0.051000 0.051000 1.200000 0.056000 0.067000
1517204920599297439	200 35 0.900000 0.032000 0.029000 300 33 0.900000 0.479000 0.436000 600 39 1.000000 0.051000 0.051000 1.200000 0.028000 0.033000
1517204921137586314	200 35 0.900000 0.031000 0.028000 300 33 0.900000 0.469000 0.427000 600 39 1.000000 0.051000 0.051000 1.200000 0.029000 0.035000
1517204921676344147	200 34 0.900000 0.029000 0.026000 300 33 0.900000 0.473000 0.430000 600 39 1.000000 0.051000 0.051000 1.200000 0.036000 0.043000
1517204922223104147	200 35 0.900000 0.037000 0.033000 300 33 0.900000 0.476000 0.433000 600 39 1.000000 0.051000 0.051000 1.200000 0.034000 0.041000
1517204922761937689	200 35 0.900000 0.054000 0.049000 300 33 0.900000 0.477000 0.435000 600 39 1.000000 0.051000 0.051000 1.200000 0.052000 0.062000
1517204923301093648	200 35 0.900000 0.031000 0.028000 300 33 0.900000 0.477000 0.434000 600 39 1.000000 0.051000 0.051000 1.200000 0.031000 0.037000
1517204923839155856	200 35 0.900000 0.027000 0.024000 300 33 0.900000 0.467000 0.425000 600 39 1.000000 0.051000 0.051000 1.200000 0.025000 0.030000
1517204924378477773	200 34 0.900000 0.027000 0.024000 300 33 0.900000 0.475000 0.432000 600 39 1.000000 0.051000 0.051000 1.200000 0.036000 0.043000
1517204924923281064	200 35 0.900000 0.046000 0.042000 300 33 0.900000 0.479000 0.436000 600 39 1.000000 0.051000 0.051000 1.200000 0.048000 0.058000
1517204925462719065	200 35 0.900000 0.043000 0.039000 300 33 0.900000 0.477000 0.434000 600 39 1.000000 0.051000 0.051000 1.200000 0.047000 0.056000
1517204926000987315	200 35 0.900000 0.027000 0.024000 300 33 0.900000 0.473000 0.430000 600 39 1.000000 0.051000 0.051000 1.200000 0.026000 0.031000
1517204926538704981	200 35 0.900000 0.027000 0.024000 300 33 0.900000 0.475000 0.432000 600 39 1.000000 0.051000 0.051000 1.200000 0.035000 0.042000
1517204927076740148	200 35 0.900000 0.041000 0.037000 300 33 0.900000 0.475000 0.432000 600 39 1.000000 0.051000 0.051000 1.200000 0.040000 0.048000
1517204927618833981	200 35 0.900000 0.035000 0.032000 300 33 0.900000 0.467000 0.425000 600 39 1.000000 0.051000 0.051000 1.200000 0.034000 0.041000
1517204928158051440	200 34 0.900000 0.042000 0.038000 300 33 0.900000 0.471000 0.429000 600 39 1.000000 0.051000 0.051000 1.200000 0.050000 0.060000
1517204928696130482	200 34 0.900000 0.026000 0.023000 300 33 0.900000 0.478000 0.435000 600 39 1.000000 0.051000 0.051000 1.200000 0.035000 0.042000
1517204929233264982	200 34 0.900000 0.032000 0.029000 300 33 0.900000 0.475000 0.432000 600 39 1.000000 0.051000 0.051000 1.200000 0.028000 0.033000
1517204929771695357	200 34 0.900000 0.038000 0.034000 300 33 0.900000 0.475000 0.432000 600 39 1.000000 0.051000 0.051000 1.200000 0.028000 0.033000
1517204930312443065	200 34 0.900000 0.028000 0.025000 300 33 0.900000 0.471000 0.429000 600 39 1.000000 0.051000 0.051000 1.200000 0.036000 0.043000
1517204930851125732	200 34 0.900000 0.044000 0.040000 300 33 0.900000 0.474000 0.431000 600 39 1.000000 0.051000 0.051000 1.200000 0.052000 0.062000
1517204931389634690	200 35 0.900000 0.035000 0.032000 300 33 0.900000 0.476000 0.433000 600 39 1.000000 0.051000 0.051000 1.200000 0.026000 0.031000
1517204931927514399	200 34 0.900000 0.042000 0.038000 300 33 0.900000 0.467000 0.425000 600 39 1.000000 0.051000 0.051000 1.200000 0.038000 0.045000
1517204932465496690	200 34 0.900000 0.028000 0.025000 300 33 0.900000 0.474000 0.431000 600 39 1.000000 0.051000 0.051000 1.200000 0.037000 0.044000
1517204933007584107	200 35 0.900000 0.032000 0.029000 300 33 0.900000 0.479000 0.436000 600 39 1.000000 0.051000 0.051000 1.200000 0.029000 0.035000
1517204933549553690	200 34 0.900000 0.043000 0.039000 300 33 0.900000 0.476000 0.433000 600 39 1.000000 0.050000 0.050000 1.200000 0.048000 0.058000
1517204934089284232	200 35 0.900000 0.040000 0.036000 300 33 0.900000 0.470000 0.428000 600 39 1.000000 0.051000 0.051000 1.200000 0.041000 0.049000
1517204934627648649	200 34 0.900000 0.028000 0.025000 300 33 0.900000 0.478000 0.435000 600 39 1.000000 0.051000 0.051000 1.200000 0.038000 0.045000
1517204935166137649	200 34 0.900000 0.030000 0.027000 300 33 0.900000 0.467000 0.425000 600 39 1.000000 0.051000 0.051000 1.200000 0.028000 0.033000
1517204935712634107	200 34 0.900000 0.027000 0.024000 300 33 0.900000 0.474000 0.431000 600 39 1.000000 0.051000 0.051000 1.200000 0.029000 0.035000
1517204936259327316	200 35 0.900000 0.043000 0.039000 300 33 0.900000 0.475000 0.432000 600 39 1.000000 0.051000 0.051000 1.200000 0.052000 0.062000
1517204936801330649	200 35 0.900000 0.037000 0.033000 300 33 0.900000 0.469000 0.427000 600 39 1.000000 0.050000 0.050000 1.200000 0.026000 0.031000
1517204937339411441	200 34 0.900000 0.030000 0.027000 300 33 0.900000 0.473000 0.430000 600 39 1.000000 0.051000 0.051000 1.200000 0.035000 0.042000
1517204937880926733	200 34 0.900000 0.029000 0.026000 300 33 0.900000 0.476000 0.433000 600 39 1.000000 0.051000 0.051000 1.200000 0.025000 0.030000
1517204938428023733	200 34 0.900000 0.029000 0.026000 300 33 0.900000 0.467000 0.425000 600 39 1.000000 0.051000 0.051000 1.200000 0.025000 0.030000
1517204938969428441	200 34 0.900000 0.051000 0.046000 300 33 0.900000 0.474000 0.431000 600 39 1.000000 0.051000 0.051000 1.200000 0.052000 0.062000
1517204939508400025	200 34 0.900000 0.034000 0.031000 300 33 0.900000 0.480000 0.437000 600 39 1.000000 0.051000 0.051000 1.200000 0.037000 0.044000
1517204940050801441	200 34 0.900000 0.030000 0.027000 300 33 0.900000 0.474000 0.431000 600 39 1.000000 0.051000 0.051000 1.200000 0.025000 0.030000
1517204940588338858	200 34 0.900000 0.029000 0.026000 300 33 0.900000 0.476000 0.433000 600 39 1.000000 0.050000 0.050000 1.200000 0.025000 0.030000
1517204941128067525	200 34 0.900000 0.035000 0.032000 300 33 0.900000 0.471000 0.429000 600 39 1.000000 0.051000 0.051000 1.200000 0.045000 0.054000
1517204941672319691	200 34 0.900000 0.042000 0.038000 300 33 0.900000 0.467000 0.425000 600 39 1.000000 0.051000 0.051000 1.200000 0.043000 0.052000
1517204942212631983	200 34 0.900000 0.043000 0.039000 300 33 0.900000 0.475000 0.432000 600 39 1.000000 0.051000 0.051000 1.200000 0.048000 0.058000
1517204942752421108	200 34 0.900000 0.028000 0.025000 300 33 0.900000 0.466000 0.424000 600 39 1.000000 0.050000 0.050000 1.200000 0.036000 0.043000
1517204943290971483	200 34 0.900000 0.032000 0.029000 300 33 0.900000 0.474000 0.431000 600 39 1.000000 0.051000 0.051000 1.200000 0.029000 0.035000
1517204943829155358	200 34 0.900000 0.045000 0.041000 300 33 0.900000 0.479000 0.436000 600 39 1.000000 0.050000 0.050000 1.200000 0.042000 0.050000
1517204944369767192	200 34 0.900000 0.034000 0.031000 300 33 0.900000 0.475000 0.432000 600 39 1.000000 0.051000 0.051000 1.200000 0.037000 0.044000
1517204944909742609	200 34 0.900000 0.041000 0.037000 300 33 0.900000 0.469000 0.427000 600 39 1.000000 0.051000 0.051000 1.200000 0.053000 0.064000
1517204945451440484	200 34 0.900000 0.031000 0.028000 300 33 0.900000 0.475000 0.432000 600 39 1.000000 0.051000 0.051000 1.200000 0.029000 0.035000
1517204945989531234	200 34 0.900000 0.040000 0.036000 300 33 0.900000 0.474000 0.431000 600 39 1.000000 0.051000 0.051000 1.200000 0.030000 0.036000
1517204946527555900	200 34 0.900000 0.029000 0.026000 300 33 0.900000 0.474000 0.431000 600 39 1.000000 0.051000 0.051000 1.200000 0.026000 0.031000
1517204947071528859	200 34 0.900000 0.042000 0.038000 300 33 0.900000 0.479000 0.436000 600 39 1.000000 0.051000 0.051000 1.200000 0.045000 0.054000
1517204947609931984	200 34 0.900000 0.032000 0.029000 300 33 0.900000 0.462000 0.420000 600 39 1.000000 0.050000 0.050000 1.200000 0.054000 0.065000
1517204948147850901	200 34 0.900000 0.034000 0.031000 300 33 0.900000 0.468000 0.426000 600 39 1.000000 0.051000 0.051000 1.200000 0.035000 0.042000
1517204948686869567	200 34 0.900000 0.030000 0.027000 300 33 0.900000 0.466000 0.424000 600 39 1.000000 0.050000 0.050000 1.200000 0.029000 0.035000
1517204949225815609	200 34 0.900000 0.028000 0.025000 300 33 0.900000 0.467000 0.425000 600 39 1.000000 0.051000 0.051000 1.200000 0.037000 0.044000
1517204949771783817	200 34 0.900000 0.033000 0.030000 300 33 0.900000 0.469000 0.427000 600 39 1.000000 0.051000 0.051000 1.200000 0.039000 0.047000
1517204950309755192	200 34 0.900000 0.043000 0.039000 300 33 0.900000 0.473000 0.430000 600 39 1.000000 0.051000 0.051000 1.200000 0.049000 0.059000
1517204950848636526	200 34 0.900000 0.037000 0.033000 300 33 0.900000 0.474000 0.431000 600 39 1.000000 0.050000 0.050000 1.200000 0.037000 0.044000
1517204951387022359	200 34 0.900000 0.027000 0.024000 300 33 0.900000 0.474000 0.431000 600 39 1.000000 0.050000 0.050000 1.200000 0.038000 0.045000
1517204951925748818	200 34 0.900000 0.027000 0.024000 300 33 0.900000 0.474000 0.431000 600 38 1.000000 0.051000 0.051000 1.200000 0.029000 0.035000
1517204952469365401	200 34 0.900000 0.033000 0.030000 300 33 0.900000 0.474000 0.431000 600 39 1.000000 0.050000 0.050000 1.200000 0.028000 0.033000
1517204953008512609	200 34 0.900000 0.053000 0.048000 300 33 0.900000 0.474000 0.431000 600 39 1.000000 0.051000 0.051000 1.200000 0.053000 0.064000
1517204953547031401	200 34 0.900000 0.038000 0.034000 300 33 0.900000 0.481000 0.438000 600 38 1.000000 0.051000 0.051000 1.200000 0.039000 0.047000
1517204954085691110	200 34 0.900000 0.026000 0.023000 300 33 0.900000 0.467000 0.425000 600 38 1.000000 0.051000 0.051000 1.200000 0.029000 0.035000
1517204954623458276	200 34 0.900000 0.032000 0.029000 300 33 0.900000 0.474000 0.431000 600 38 1.000000 0.050000 0.050000 1.200000 0.028000 0.033000
1517204955168278568	200 34 0.900000 0.028000 0.025000 300 33 0.900000 0.473000 0.430000 600 38 1.000000 0.051000 0.051000 1.200000 0.036000 0.043000
1517204955707828235	200 34 0.900000 0.051000 0.046000 300 33 0.900000 0.477000 0.434000 600 38 1.000000 0.050000 0.050000 1.200000 0.058000 0.070000
1517204956245835443	200 34 0.900000 0.038000 0.034000 300 33 0.900000 0.467000 0.425000 600 38 1.000000 0.051000 0.051000 1.200000 0.038000 0.045000
1517204956783781818	200 34 0.900000 0.031000 0.028000 300 33 0.900000 0.475000 0.432000 600 38 1.000000 0.051000 0.051000 1.200000 0.029000 0.035000
1517204957323662860	200 34 0.900000 0.028000 0.025000 300 33 0.900000 0.471000 0.429000 600 38 1.000000 0.051000 0.051000 1.200000 0.038000 0.045000
1517204957868778568	200 34 0.900000 0.040000 0.036000 300 33 0.900000 0.467000 0.425000 600 38 1.000000 0.051000 0.051000 1.200000 0.043000 0.052000
1517204958415525193	200 34 0.900000 0.040000 0.036000 300 33 0.900000 0.472000 0.429000 600 38 1.000000 0.051000 0.051000 1.200000 0.053000 0.064000
1517204958954012777	200 34 0.900000 0.029000 0.026000 300 33 0.900000 0.467000 0.425000 600 38 1.000000 0.051000 0.051000 1.200000 0.025000 0.030000
1517204959491333360	200 34 0.900000 0.028000 0.025000 300 33 0.900000 0.467000 0.425000 600 38 1.000000 0.051000 0.051000 1.200000 0.025000 0.030000
1517204960029293235	200 34 0.900000 0.040000 0.036000 300 33 0.900000 0.471000 0.429000 600 38 1.000000 0.051000 0.051000 1.200000 0.045000 0.054000
1517204960569584527	200 34 0.900000 0.032000 0.029000 300 33 0.900000 0.474000 0.431000 600 38 1.000000 0.051000 0.051000 1.200000 0.032000 0.038000
1517204961115446652	200 34 0.900000 0.043000 0.039000 300 33 0.900000 0.467000 0.425000 600 38 1.000000 0.051000 0.051000 1.200000 0.047000 0.056000
1517204961653999902	200 34 0.900000 0.036000 0.032000 300 33 0.900000 0.460000 0.419000 600 38 1.000000 0.051000 0.051000 1.200000 0.029000 0.035000
1517204962194748902	200 34 0.900000 0.028000 0.025000 300 33 0.900000 0.467000 0.425000 600 38 1.000000 0.051000 0.051000 1.200000 0.038000 0.045000
1517204962732574986	200 34 0.900000 0.034000 0.031000 300 33 0.900000 0.474000 0.431000 600 38 1.000000 0.051000 0.051000 1.200000 0.028000 0.033000
1517204963274770694	200 34 0.900000 0.031000 0.028000 300 33 0.900000 0.466000 0.424000 600 38 1.000000 0.051000 0.051000 1.200000 0.027000 0.032000
1517204963819810277	200 34 0.900000 0.042000 0.038000 300 33 0.900000 0.469000 0.427000 600 38 1.000000 0.051000 0.051000 1.200000 0.047000 0.056000
1517204964360312611	200 34 0.900000 0.035000 0.032000 300 33 0.900000 0.474000 0.431000 600 38 1.000000 0.051000 0.051000 1.200000 0.048000 0.058000
1517204964898308028	200 34 0.900000 0.040000 0.036000 300 33 0.900000 0.467000 0.425000 600 38 1.000000 0.051000 0.051000 1.200000 0.038000 0.045000
1517204965440627444	200 34 0.900000 0.030000 0.027000 300 32 0.900000 0.466000 0.424000 600 38 1.000000 0.051000 0.051000 1.200000 0.029000 0.035000
1517204965981052694	200 34 0.900000 0.029000 0.026000 300 33 0.900000 0.466000 0.424000 600 38 1.000000 0.050000 0.050000 1.200000 0.034000 0.041000
1517204966522060361	200 34 0.900000 0.039000 0.035000 300 33 0.900000 0.472000 0.429000 600 38 1.000000 0.051000 0.051000 1.200000 0.051000 0.061000
1517204967063216236	200 34 0.900000 0.043000 0.039000 300 33 0.900000 0.467000 0.425000 600 38 1.000000 0.051000 0.051000 1.200000 0.053000 0.064000
1517204967604665736	200 34 0.900000 0.032000 0.029000 300 33 0.900000 0.467000 0.425000 600 38 1.000000 0.050000 0.050000 1.200000 0.028000 0.033000
1517204968143800903	200 34 0.900000 0.029000 0.026000 300 33 0.900000 0.467000 0.425000 600 38 1.000000 0.051000 0.051000 1.200000 0.038000 0.045000
1517204968682023653	200 34 0.900000 0.030000 0.027000 300 33 0.900000 0.467000 0.425000 600 38 1.000000 0.050000 0.050000 1.200000 0.034000 0.041000
1517204969226701111	200 34 0.900000 0.045000 0.041000 300 33 0.900000 0.480000 0.437000 600 38 1.000000 0.051000 0.051000 1.200000 0.058000 0.070000
1517204969766532361	200 34 0.900000 0.038000 0.034000 300 33 0.900000 0.467000 0.425000 600 38 1.000000 0.051000 0.051000 1.200000 0.035000 0.042000
1517204970305300737	200 34 0.900000 0.029000 0.026000 300 33 0.900000 0.475000 0.432000 600 38 1.000000 0.051000 0.051000 1.200000 0.025000 0.030000
1517204970843358570	200 34 0.900000 0.027000 0.024000 300 33 0.900000 0.472000 0.429000 600 38 1.000000 0.051000 0.051000 1.200000 0.035000 0.042000
1517204971381484778	200 34 0.900000 0.027000 0.024000 300 32 0.900000 0.477000 0.434000 600 38 1.000000 0.050000 0.050000 1.200000 0.033000 0.039000
1517204971923205278	200 34 0.900000 0.048000 0.043000 300 33 0.900000 0.467000 0.425000 600 38 1.000000 0.051000 0.051000 1.200000 0.051000 0.061000
1517204972461712528	200 34 0.900000 0.038000 0.034000 300 33 0.900000 0.464000 0.422000 600 38 1.000000 0.050000 0.050000 1.200000 0.042000 0.050000
1517204973000057612	200 34 0.900000 0.026000 0.023000 300 33 0.900000 0.466000 0.424000 600 38 1.000000 0.050000 0.050000 1.200000 0.036000 0.043000
1517204973537928445	200 34 0.900000 0.030000 0.027000 300 33 0.900000 0.466000 0.424000 600 38 1.000000 0.051000 0.051000 1.200000 0.026000 0.031000
1517204974076570862	200 34 0.900000 0.033000 0.030000 300 32 0.900000 0.467000 0.425000 600 38 1.000000 0.050000 0.050000 1.200000 0.040000 0.048000
1517204974621543529	200 34 0.900000 0.029000 0.026000 300 33 0.900000 0.461000 0.419000 600 38 1.000000 0.051000 0.051000 1.200000 0.040000 0.048000
1517204975159226612	200 34 0.900000 0.042000 0.038000 300 33 0.900000 0.466000 0.424000 600 38 1.000000 0.051000 0.051000 1.200000 0.053000 0.064000
1517204975696751779	200 34 0.900000 0.030000 0.027000 300 32 0.900000 0.467000 0.425000 600 38 1.000000 0.051000 0.051000 1.200000 0.025000 0.030000
1517204976236896196	200 34 0.900000 0.030000 0.027000 300 33 0.900000 0.466000 0.424000 600 38 1.000000 0.051000 0.051000 1.200000 0.027000 0.032000
1517204976775495737	200 34 0.900000 0.035000 0.032000 300 32 0.900000 0.469000 0.427000 600 38 1.000000 0.051000 0.051000 1.200000 0.033000 0.039000
1517204977315617696	200 34 0.900000 0.031000 0.028000 300 32 0.900000 0.472000 0.429000 600 38 1.000000 0.050000 0.050000 1.200000 0.040000 0.048000
1517204977852652154	200 34 0.900000 0.043000 0.039000 300 33 0.900000 0.467000 0.425000 600 38 1.000000 0.051000 0.051000 1.200000 0.047000 0.056000
1517204978391279654	200 34 0.900000 0.031000 0.028000 300 33 0.900000 0.467000 0.425000 600 38 1.000000 0.051000 0.051000 1.200000 0.026000 0.031000
1517204978929894571	200 34 0.900000 0.041000 0.037000 300 32 0.900000 0.469000 0.427000 600 38 1.000000 0.051000 0.051000 1.200000 0.046000 0.055000
1517204979467424279	200 34 0.900000 0.028000 0.025000 300 33 0.900000 0.467000 0.425000 600 38 1.000000 0.051000 0.051000 1.200000 0.033000 0.039000
1517204980011802946	200 34 0.900000 0.030000 0.027000 300 32 0.900000 0.467000 0.425000 600 38 1.000000 0.051000 0.051000 1.200000 0.028000 0.033000
1517204980550388571	200 34 0.900000 0.041000 0.037000 300 33 0.900000 0.463000 0.421000 600 38 1.000000 0.050000 0.050000 1.200000 0.047000 0.056000
1517204981087823863	200 34 0.900000 0.037000 0.033000 300 33 0.900000 0.467000 0.425000 600 38 1.000000 0.050000 0.050000 1.200000 0.036000 0.043000
1517204981625709155	200 34 0.900000 0.027000 0.024000 300 32 0.900000 0.468000 0.426000 600 38 1.000000 0.051000 0.051000 1.200000 0.035000 0.042000
1517204982163191571	200 34 0.900000 0.028000 0.025000 300 32 0.900000 0.469000 0.427000 600 38 1.000000 0.050000 0.050000 1.200000 0.034000 0.041000
1517204982707660530	200 34 0.900000 0.030000 0.027000 300 32 0.900000 0.475000 0.432000 600 38 1.000000 0.051000 0.051000 1.200000 0.038000 0.045000
1517204983254459821	200 34 0.900000 0.042000 0.038000 300 32 0.900000 0.467000 0.425000 600 38 1.000000 0.051000 0.051000 1.200000 0.054000 0.065000
1517204983792289196	200 34 0.900000 0.027000 0.024000 300 33 0.900000 0.471000 0.429000 600 38 1.000000 0.051000 0.051000 1.200000 0.041000 0.049000
1517204984329827363	200 34 0.900000 0.029000 0.026000 300 32 0.900000 0.475000 0.432000 600 38 1.000000 0.051000 0.051000 1.200000 0.029000 0.035000
1517204984867969280	200 34 0.900000 0.028000 0.025000 300 32 0.900000 0.467000 0.425000 600 38 1.000000 0.051000 0.051000 1.200000 0.037000 0.044000
1517204985417947655	200 34 0.900000 0.027000 0.024000 300 32 0.900000 0.462000 0.420000 600 38 1.000000 0.051000 0.051000 1.200000 0.038000 0.046000
1517204985959295155	200 34 0.900000 0.049000 0.044000 300 32 0.900000 0.468000 0.426000 600 38 1.000000 0.051000 0.051000 1.200000 0.053000 0.064000
1517204986499651530	200 34 0.900000 0.041000 0.037000 300 32 0.900000 0.466000 0.424000 600 38 1.000000 0.050000 0.050000 1.200000 0.044000 0.053000
1517204987038098530	200 34 0.900000 0.028000 0.025000 300 32 0.900000 0.467000 0.425000 600 38 1.000000 0.051000 0.051000 1.200000 0.038000 0.046000
1517204987576760822	200 34 0.900000 0.029000 0.026000 300 32 0.900000 0.472000 0.429000 600 38 1.000000 0.051000 0.051000 1.200000 0.034000 0.041000
1517204988122478239	200 34 0.900000 0.031000 0.028000 300 32 0.900000 0.479000 0.436000 600 38 1.000000 0.051000 0.051000 1.200000 0.028000 0.033000
1517204988666699947	200 34 0.900000 0.046000 0.042000 300 33 0.900000 0.474000 0.431000 600 38 1.000000 0.050000 0.050000 1.200000 0.045000 0.054000
1517204989205734614	200 34 0.900000 0.039000 0.035000 300 32 0.900000 0.466000 0.424000 600 38 1.000000 0.051000 0.051000 1.200000 0.053000 0.064000
1517204989744002239	200 34 0.900000 0.028000 0.025000 300 32 0.900000 0.467000 0.425000 600 38 1.000000 0.050000 0.050000 1.200000 0.029000 0.035000
1517204990285286906	200 34 0.900000 0.031000 0.028000 300 32 0.900000 0.469000 0.427000 600 38 1.000000 0.051000 0.051000 1.200000 0.028000 0.033000
1517204990832676781	200 34 0.900000 0.041000 0.037000 300 32 0.900000 0.465000 0.423000 600 38 1.000000 0.051000 0.051000 1.200000 0.043000 0.052000
1517204991377725572	200 34 0.900000 0.040000 0.036000 300 32 0.900000 0.467000 0.425000 600 38 1.000000 0.051000 0.051000 1.200000 0.040000 0.048000
1517204991915999531	200 34 0.900000 0.028000 0.025000 300 32 0.900000 0.464000 0.422000 600 38 1.000000 0.051000 0.051000 1.200000 0.044000 0.053000
1517204992459558114	200 34 0.900000 0.031000 0.028000 300 32 0.900000 0.466000 0.424000 600 38 1.000000 0.051000 0.051000 1.200000 0.026000 0.031000
1517204993002147948	200 34 0.900000 0.043000 0.039000 300 32 0.900000 0.474000 0.431000 600 38 1.000000 0.051000 0.051000 1.200000 0.039000 0.047000
1517204993540583948	200 34 0.900000 0.029000 0.026000 300 32 0.900000 0.461000 0.419000 600 38 1.000000 0.050000 0.050000 1.200000 0.028000 0.033000
1517204994082502073	200 34 0.900000 0.040000 0.036000 300 32 0.900000 0.467000 0.425000 600 38 1.000000 0.051000 0.051000 1.200000 0.053000 0.064000
1517204994621025406	200 34 0.900000 0.040000 0.036000 300 32 0.900000 0.467000 0.425000 600 38 1.000000 0.051000 0.051000 1.200000 0.047000 0.056000
1517204995161824114	200 34 0.900000 0.036000 0.032000 300 32 0.900000 0.466000 0.424000 600 38 1.000000 0.050000 0.050000 1.200000 0.035000 0.042000
1517204995700651865	200 34 0.900000 0.028000 0.025000 300 32 0.900000 0.471000 0.429000 600 38 1.000000 0.051000 0.051000 1.200000 0.034000 0.041000
1517204996239045990	200 34 0.900000 0.027000 0.024000 300 32 0.900000 0.478000 0.435000 600 38 1.000000 0.050000 0.050000 1.200000 0.038000 0.045000
1517204996781100198	200 34 0.900000 0.040000 0.036000 300 32 0.900000 0.466000 0.424000 600 38 1.000000 0.050000 0.050000 1.200000 0.041000 0.049000
1517204997322494031	200 34 0.900000 0.040000 0.036000 300 32 0.900000 0.474000 0.431000 600 38 1.000000 0.051000 0.051000 1.200000 0.048000 0.058000
1517204997861410073	200 34 0.900000 0.032000 0.029000 300 32 0.900000 0.472000 0.429000 600 38 1.000000 0.051000 0.051000 1.200000 0.044000 0.053000
1517204998399491073	200 34 0.900000 0.027000 0.024000 300 32 0.900000 0.466000 0.424000 600 38 1.000000 0.050000 0.050000 1.200000 0.034000 0.041000
1517204998936935490	200 34 0.900000 0.030000 0.027000 300 32 0.900000 0.466000 0.424000 600 38 1.000000 0.051000 0.051000 1.200000 0.028000 0.033000
1517204999484055157	200 34 0.900000 0.029000 0.026000 300 32 0.900000 0.463000 0.421000 600 38 1.000000 0.051000 0.051000 1.200000 0.034000 0.041000
1517205000022844448	200 34 0.900000 0.045000 0.041000 300 32 0.900000 0.468000 0.426000 600 38 1.000000 0.050000 0.050000 1.200000 0.058000 0.070000
1517205000561090073	200 34 0.900000 0.030000 0.027000 300 32 0.900000 0.466000 0.424000 600 38 1.000000 0.051000 0.051000 1.200000 0.028000 0.033000
1517205001098481365	200 34 0.900000 0.030000 0.027000 300 32 0.900000 0.466000 0.424000 600 38 1.000000 0.051000 0.051000 1.200000 0.029000 0.035000
1517205001637307074	200 34 0.900000 0.029000 0.026000 300 32 0.900000 0.465000 0.423000 600 38 1.000000 0.051000 0.051000 1.200000 0.031000 0.037000
1517205002178906365	200 34 0.900000 0.028000 0.025000 300 32 0.900000 0.464000 0.422000 600 38 1.000000 0.050000 0.050000 1.200000 0.037000 0.044000
1517205002718802115	200 34 0.900000 0.049000 0.044000 300 32 0.900000 0.467000 0.425000 600 38 1.000000 0.050000 0.050000 1.200000 0.053000 0.064000
1517205003256843407	200 34 0.900000 0.027000 0.024000 300 32 0.900000 0.466000 0.424000 600 38 1.000000 0.051000 0.051000 1.200000 0.027000 0.032000
1517205003795652616	200 34 0.900000 0.028000 0.025000 300 32 0.900000 0.466000 0.424000 600 38 1.000000 0.051000 0.051000 1.200000 0.025000 0.030000
1517205004334382824	200 34 0.900000 0.030000 0.027000 300 32 0.900000 0.468000 0.426000 600 38 1.000000 0.051000 0.051000 1.200000 0.027000 0.032000
1517205004877851032	200 34 0.900000 0.044000 0.040000 300 32 0.900000 0.469000 0.427000 600 38 1.000000 0.051000 0.051000 1.200000 0.046000 0.055000
1517205005419506574	200 34 0.900000 0.043000 0.039000 300 32 0.900000 0.466000 0.424000 600 38 1.000000 0.050000 0.050000 1.200000 0.048000 0.058000
1517205005957662532	200 34 0.900000 0.030000 0.027000 300 32 0.900000 0.466000 0.424000 600 38 1.000000 0.051000 0.051000 1.200000 0.025000 0.030000
1517205006495875616	200 34 0.900000 0.028000 0.025000 300 32 0.900000 0.467000 0.425000 600 38 1.000000 0.051000 0.051000 1.200000 0.031000 0.037000
1517205007033767699	200 34 0.900000 0.038000 0.034000 300 32 0.900000 0.472000 0.429000 600 38 1.000000 0.051000 0.051000 1.200000 0.047000 0.056000
1517205007574326033	200 34 0.900000 0.030000 0.027000 300 32 0.900000 0.466000 0.424000 600 38 1.000000 0.051000 0.051000 1.200000 0.025000 0.030000
1517205008115629366	200 34 0.900000 0.043000 0.039000 300 32 0.900000 0.466000 0.424000 600 38 1.000000 0.050000 0.050000 1.200000 0.047000 0.056000
1517205008653238866	200 34 0.900000 0.026000 0.023000 300 32 0.900000 0.465000 0.423000 600 38 1.000000 0.050000 0.050000 1.200000 0.036000 0.043000
1517205009191798074	200 34 0.900000 0.030000 0.027000 300 32 0.900000 0.467000 0.425000 600 38 1.000000 0.050000 0.050000 1.200000 0.032000 0.038000
1517205009729723825	200 34 0.900000 0.030000 0.027000 300 32 0.900000 0.466000 0.424000 600 38 1.000000 0.051000 0.051000 1.200000 0.029000 0.035000
1517205010271149908	200 34 0.900000 0.029000 0.026000 300 32 0.900000 0.464000 0.422000 600 38 1.000000 0.050000 0.050000 1.200000 0.027000 0.032000
1517205010820597116	200 34 0.900000 0.040000 0.036000 300 32 0.900000 0.467000 0.425000 600 38 1.000000 0.051000 0.051000 1.200000 0.053000 0.064000
1517205011359849408	200 34 0.900000 0.043000 0.039000 300 32 0.900000 0.466000 0.424000 600 38 1.000000 0.051000 0.051000 1.200000 0.034000 0.041000
1517205011898298908	200 34 0.900000 0.040000 0.036000 300 32 0.900000 0.473000 0.430000 600 38 1.000000 0.050000 0.050000 1.200000 0.038000 0.045000
1517205012435830033	200 34 0.900000 0.028000 0.025000 300 32 0.900000 0.462000 0.420000 600 38 1.000000 0.051000 0.051000 1.200000 0.031000 0.037000
1517205012976661367	200 34 0.900000 0.030000 0.027000 300 32 0.900000 0.468000 0.426000 600 38 1.000000 0.051000 0.051000 1.200000 0.037000 0.044000
1517205013521034700	200 34 0.900000 0.039000 0.035000 300 32 0.900000 0.466000 0.424000 600 38 1.000000 0.051000 0.051000 1.200000 0.049000 0.059000
1517205014061425908	200 34 0.900000 0.045000 0.041000 300 32 0.900000 0.467000 0.425000 600 38 1.000000 0.051000 0.051000 1.200000 0.048000 0.058000
1517205014599449450	200 34 0.900000 0.028000 0.025000 300 32 0.900000 0.466000 0.424000 600 38 1.000000 0.051000 0.051000 1.200000 0.025000 0.030000
1517205015137226659	200 34 0.900000 0.027000 0.024000 300 32 0.900000 0.460000 0.419000 600 38 1.000000 0.050000 0.050000 1.200000 0.026000 0.031000
1517205015677613617	200 34 0.900000 0.026000 0.023000 300 32 0.900000 0.467000 0.425000 600 38 1.000000 0.051000 0.051000 1.200000 0.035000 0.042000
1517205016227961242	200 34 0.900000 0.049000 0.044000 300 32 0.900000 0.466000 0.424000 600 38 1.000000 0.051000 0.051000 1.200000 0.053000 0.064000
1517205016767226784	200 34 0.900000 0.030000 0.027000 300 32 0.900000 0.466000 0.424000 600 38 1.000000 0.051000 0.051000 1.200000 0.028000 0.033000
1517205017305530909	200 34 0.900000 0.027000 0.024000 300 32 0.900000 0.466000 0.424000 600 38 1.000000 0.051000 0.051000 1.200000 0.033000 0.039000
1517205017843300784	200 34 0.900000 0.030000 0.027000 300 32 0.900000 0.471000 0.429000 600 38 1.000000 0.050000 0.050000 1.200000 0.034000 0.041000
1517205018386682701	200 34 0.900000 0.030000 0.027000 300 32 0.900000 0.466000 0.424000 600 38 1.000000 0.050000 0.050000 1.200000 0.026000 0.031000
1517205018930792784	200 34 0.900000 0.048000 0.043000 300 32 0.900000 0.474000 0.431000 600 38 1.000000 0.051000 0.051000 1.200000 0.050000 0.060000
1517205019470922534	200 34 0.900000 0.041000 0.037000 300 32 0.900000 0.468000 0.426000 600 38 1.000000 0.050000 0.050000 1.200000 0.042000 0.050000
1517205020009619909	200 34 0.900000 0.031000 0.028000 300 32 0.900000 0.469000 0.427000 600 38 1.000000 0.050000 0.050000 1.200000 0.032000 0.038000
1517205020551517951	200 34 0.900000 0.030000 0.027000 300 32 0.900000 0.466000 0.424000 600 38 1.000000 0.051000 0.051000 1.200000 0.025000 0.030000
1517205021090656201	200 33 0.900000 0.034000 0.031000 300 32 0.900000 0.466000 0.424000 600 38 1.000000 0.051000 0.051000 1.200000 0.038000 0.045000
1517205021636022993	200 34 0.900000 0.036000 0.032000 300 32 0.900000 0.466000 0.424000 600 38 1.000000 0.050000 0.050000 1.200000 0.051000 0.061000
1517205022175190076	200 34 0.900000 0.043000 0.039000 300 32 0.900000 0.466000 0.424000 600 38 1.000000 0.051000 0.051000 1.200000 0.046000 0.055000
1517205022714947951	200 34 0.900000 0.030000 0.027000 300 32 0.900000 0.465000 0.423000 600 38 1.000000 0.050000 0.050000 1.200000 0.025000 0.030000
1517205023254568660	200 34 0.900000 0.028000 0.025000 300 32 0.900000 0.461000 0.419000 600 38 1.000000 0.051000 0.051000 1.200000 0.027000 0.032000
1517205023793640243	200 34 0.900000 0.030000 0.027000 300 32 0.900000 0.465000 0.423000 600 38 1.000000 0.051000 0.051000 1.200000 0.039000 0.047000
1517205024338497910	200 34 0.900000 0.031000 0.028000 300 32 0.900000 0.474000 0.431000 600 38 1.000000 0.051000 0.051000 1.200000 0.040000 0.048000
1517205024878334410	200 34 0.900000 0.041000 0.037000 300 32 0.900000 0.467000 0.425000 600 38 1.000000 0.051000 0.051000 1.200000 0.053000 0.064000
1517205025417552868	200 34 0.900000 0.028000 0.025000 300 32 0.900000 0.466000 0.424000 600 38 1.000000 0.050000 0.050000 1.200000 0.035000 0.042000
1517205025955422035	200 34 0.900000 0.037000 0.033000 300 32 0.900000 0.460000 0.419000 600 38 1.000000 0.050000 0.050000 1.200000 0.048000 0.058000
1517205026493324910	200 34 0.900000 0.028000 0.025000 300 32 0.900000 0.467000 0.425000 600 38 1.000000 0.050000 0.050000 1.200000 0.029000 0.035000
1517205027033657785	200 33 0.900000 0.037000 0.033000 300 32 0.900000 0.467000 0.425000 600 38 1.000000 0.051000 0.051000 1.200000 0.033000 0.039000
1517205027572160702	200 34 0.900000 0.041000 0.037000 300 32 0.900000 0.466000 0.424000 600 38 1.000000 0.051000 0.051000 1.200000 0.053000 0.064000
1517205028109749952	200 34 0.900000 0.039000 0.035000 300 32 0.900000 0.467000 0.425000 600 38 1.000000 0.051000 0.051000 1.200000 0.040000 0.048000
1517205028647653493	200 34 0.900000 0.028000 0.025000 300 32 0.900000 0.468000 0.426000 600 38 1.000000 0.051000 0.051000 1.200000 0.029000 0.035000
1517205029205857452	200 34 0.900000 0.034000 0.031000 300 32 0.900000 0.466000 0.424000 600 38 1.000000 0.051000 0.051000 1.200000 0.028000 0.033000
1517205029752766702	200 33 0.900000 0.037000 0.033000 300 32 0.900000 0.468000 0.426000 600 38 1.000000 0.051000 0.051000 1.200000 0.043000 0.052000
1517205030291269744	200 34 0.900000 0.042000 0.038000 300 32 0.900000 0.466000 0.424000 600 38 1.000000 0.050000 0.050000 1.200000 0.049000 0.059000
1517205030829033494	200 34 0.900000 0.043000 0.039000 300 32 0.900000 0.466000 0.424000 600 38 1.000000 0.051000 0.051000 1.200000 0.037000 0.044000
1517205031368091285	200 34 0.900000 0.029000 0.026000 300 32 0.900000 0.464000 0.422000 600 38 1.000000 0.050000 0.050000 1.200000 0.032000 0.038000
1517205031905924661	200 33 0.900000 0.027000 0.024000 300 32 0.900000 0.465000 0.423000 600 38 1.000000 0.051000 0.051000 1.200000 0.037000 0.044000
1517205032446048619	200 34 0.900000 0.030000 0.027000 300 32 0.900000 0.466000 0.424000 600 38 1.000000 0.050000 0.050000 1.200000 0.029000 0.035000
1517205032983804744	200 34 0.900000 0.052000 0.047000 300 32 0.900000 0.467000 0.425000 600 38 1.000000 0.051000 0.051000 1.200000 0.053000 0.064000
1517205033522479494	200 34 0.900000 0.033000 0.030000 300 32 0.900000 0.469000 0.427000 600 38 1.000000 0.051000 0.051000 1.200000 0.043000 0.052000
1517205034061046244	200 33 0.900000 0.028000 0.025000 300 32 0.900000 0.472000 0.429000 600 38 1.000000 0.051000 0.051000 1.200000 0.037000 0.044000
1517205034599240536	200 33 0.900000 0.031000 0.028000 300 32 0.900000 0.466000 0.424000 600 38 1.000000 0.050000 0.050000 1.200000 0.028000 0.033000
1517205035140338203	200 34 0.900000 0.033000 0.030000 300 32 0.900000 0.466000 0.424000 600 38 1.000000 0.050000 0.050000 1.200000 0.029000 0.035000
1517205035681424203	200 34 0.900000 0.043000 0.039000 300 32 0.900000 0.466000 0.424000 600 38 1.000000 0.051000 0.051000 1.200000 0.056000 0.067000
1517205036222838119	200 34 0.900000 0.030000 0.027000 300 32 0.900000 0.467000 0.425000 600 38 1.000000 0.051000 0.051000 1.200000 0.050000 0.060000
1517205036760609744	200 33 0.900000 0.030000 0.027000 300 32 0.900000 0.472000 0.429000 600 38 1.000000 0.050000 0.050000 1.200000 0.035000 0.042000
1517205037299298703	200 34 0.900000 0.030000 0.027000 300 32 0.900000 0.466000 0.424000 600 38 1.000000 0.050000 0.050000 1.200000 0.025000 0.030000
1517205037842672911	200 34 0.900000 0.038000 0.034000 300 32 0.900000 0.467000 0.425000 600 38 1.000000 0.050000 0.050000 1.200000 0.032000 0.038000
1517205038383885495	200 34 0.900000 0.040000 0.036000 300 32 0.900000 0.465000 0.423000 600 38 1.000000 0.050000 0.050000 1.200000 0.052000 0.062000
1517205038922360953	200 34 0.900000 0.031000 0.028000 300 32 0.900000 0.469000 0.427000 600 38 1.000000 0.050000 0.050000 1.200000 0.036000 0.043000
1517205039461212828	200 33 0.900000 0.029000 0.026000 300 32 0.900000 0.466000 0.424000 600 38 1.000000 0.051000 0.051000 1.200000 0.026000 0.031000
1517205039999896078	200 33 0.900000 0.043000 0.039000 300 32 0.900000 0.467000 0.425000 600 38 1.000000 0.050000 0.050000 1.200000 0.039000 0.047000
1517205040540317453	200 33 0.900000 0.027000 0.024000 300 32 0.900000 0.465000 0.423000 600 38 1.000000 0.051000 0.051000 1.200000 0.037000 0.044000
1517205041086595495	200 34 0.900000 0.039000 0.035000 300 32 0.900000 0.466000 0.424000 600 38 1.000000 0.051000 0.051000 1.200000 0.049000 0.059000
1517205041626428953	200 33 0.900000 0.032000 0.029000 300 32 0.900000 0.466000 0.424000 600 38 1.000000 0.051000 0.051000 1.200000 0.040000 0.048000
1517205042163909245	200 34 0.900000 0.038000 0.034000 300 32 0.900000 0.463000 0.421000 600 38 1.000000 0.050000 0.050000 1.200000 0.036000 0.043000
1517205042701587870	200 33 0.900000 0.026000 0.023000 300 32 0.900000 0.467000 0.425000 600 38 1.000000 0.050000 0.050000 1.200000 0.039000 0.047000
1517205043247253037	200 33 0.900000 0.030000 0.027000 300 32 0.900000 0.466000 0.424000 600 38 1.000000 0.051000 0.051000 1.200000 0.028000 0.033000
1517205043791577912	200 34 0.900000 0.036000 0.032000 300 32 0.900000 0.467000 0.425000 600 38 1.000000 0.050000 0.050000 1.200000 0.045000 0.054000
1517205044331086495	200 34 0.900000 0.041000 0.037000 300 32 0.900000 0.466000 0.424000 600 38 1.000000 0.051000 0.051000 1.200000 0.052000 0.062000
1517205044869210620	200 33 0.900000 0.042000 0.038000 300 32 0.900000 0.473000 0.430000 600 38 1.000000 0.051000 0.051000 1.200000 0.046000 0.055000
1517205045406950662	200 33 0.900000 0.030000 0.027000 300 32 0.900000 0.466000 0.424000 600 38 1.000000 0.050000 0.050000 1.200000 0.029000 0.035000
1517205045950753537	200 34 0.900000 0.030000 0.027000 300 32 0.900000 0.466000 0.424000 600 38 1.000000 0.051000 0.051000 1.200000 0.029000 0.035000
1517205046498835662	200 33 0.900000 0.034000 0.031000 300 32 0.900000 0.469000 0.427000 600 38 1.000000 0.051000 0.051000 1.200000 0.046000 0.055000
1517205047038043537	200 34 0.900000 0.050000 0.045000 300 32 0.900000 0.467000 0.425000 600 38 1.000000 0.051000 0.051000 1.200000 0.055000 0.066000
1517205047575755121	200 33 0.900000 0.030000 0.027000 300 32 0.900000 0.471000 0.429000 600 38 1.000000 0.050000 0.050000 1.200000 0.029000 0.035000
1517205048116976954	200 33 0.900000 0.028000 0.025000 300 32 0.900000 0.466000 0.424000 600 38 1.000000 0.051000 0.051000 1.200000 0.025000 0.030000
1517205048656023204	200 33 0.900000 0.028000 0.025000 300 32 0.900000 0.467000 0.425000 600 38 1.000000 0.051000 0.051000 1.200000 0.025000 0.030000
1517205049197753329	200 33 0.900000 0.034000 0.031000 300 32 0.900000 0.467000 0.425000 600 38 1.000000 0.050000 0.050000 1.200000 0.057000 0.068000
1517205049736716704	200 33 0.900000 0.046000 0.042000 300 32 0.900000 0.469000 0.427000 600 38 1.000000 0.051000 0.051000 1.200000 0.049000 0.059000
1517205050274594496	200 33 0.900000 0.031000 0.028000 300 32 0.900000 0.466000 0.424000 600 38 1.000000 0.050000 0.050000 1.200000 0.025000 0.030000
1517205050813976871	200 33 0.900000 0.028000 0.025000 300 32 0.900000 0.467000 0.425000 600 38 1.000000 0.051000 0.051000 1.200000 0.025000 0.030000
1517205051352511996	200 33 0.900000 0.027000 0.024000 300 32 0.900000 0.468000 0.426000 600 38 1.000000 0.050000 0.050000 1.200000 0.035000 0.042000
1517205051893532621	200 34 0.900000 0.045000 0.041000 300 32 0.900000 0.467000 0.425000 600 38 1.000000 0.050000 0.050000 1.200000 0.046000 0.055000
1517205052432228871	200 34 0.900000 0.042000 0.038000 300 32 0.900000 0.466000 0.424000 600 38 1.000000 0.050000 0.050000 1.200000 0.047000 0.056000
1517205052970610746	200 33 0.900000 0.027000 0.024000 300 32 0.900000 0.461000 0.419000 600 38 1.000000 0.051000 0.051000 1.200000 0.028000 0.033000
1517205053509181580	200 33 0.900000 0.026000 0.023000 300 32 0.900000 0.467000 0.425000 600 38 1.000000 0.050000 0.050000 1.200000 0.035000 0.042000
1517205054047135247	200 33 0.900000 0.040000 0.036000 300 32 0.900000 0.466000 0.424000 600 38 1.000000 0.050000 0.050000 1.200000 0.039000 0.047000
1517205054590077038	200 34 0.900000 0.033000 0.030000 300 32 0.900000 0.466000 0.424000 600 38 1.000000 0.050000 0.050000 1.200000 0.031000 0.037000
1517205055129091205	200 34 0.900000 0.040000 0.036000 300 32 0.900000 0.466000 0.424000 600 38 1.000000 0.050000 0.050000 1.200000 0.050000 0.060000
1517205055667122288	200 33 0.900000 0.036000 0.032000 300 32 0.900000 0.472000 0.429000 600 38 1.000000 0.051000 0.051000 1.200000 0.036000 0.043000
1517205056205398163	200 34 0.900000 0.030000 0.027000 300 32 0.900000 0.466000 0.424000 600 38 1.000000 0.051000 0.051000 1.200000 0.028000 0.033000
1517205056744001622	200 33 0.900000 0.040000 0.036000 300 32 0.900000 0.467000 0.425000 600 38 1.000000 0.051000 0.051000 1.200000 0.030000 0.036000
1517205057285825705	200 33 0.900000 0.028000 0.025000 300 32 0.900000 0.465000 0.423000 600 38 1.000000 0.050000 0.050000 1.200000 0.039000 0.047000
1517205057825278497	200 33 0.900000 0.043000 0.039000 300 32 0.900000 0.468000 0.426000 600 38 1.000000 0.050000 0.050000 1.200000 0.052000 0.062000
1517205058363158997	200 33 0.900000 0.035000 0.032000 300 32 0.900000 0.467000 0.425000 600 38 1.000000 0.050000 0.050000 1.200000 0.028000 0.033000
1517205058902057205	200 33 0.900000 0.039000 0.035000 300 32 0.900000 0.465000 0.423000 600 38 1.000000 0.051000 0.051000 1.200000 0.040000 0.048000
1517205059440468289	200 33 0.900000 0.028000 0.025000 300 32 0.900000 0.467000 0.425000 600 38 1.000000 0.050000 0.050000 1.200000 0.038000 0.045000
1517205059981811331	200 33 0.900000 0.030000 0.027000 300 32 0.900000 0.467000 0.425000 600 38 1.000000 0.050000 0.050000 1.200000 0.046000 0.055000
1517205060525742206	200 34 0.900000 0.040000 0.036000 300 32 0.900000 0.470000 0.428000 600 38 1.000000 0.051000 0.051000 1.200000 0.052000 0.062000
1517205061063490372	200 34 0.900000 0.039000 0.035000 300 32 0.900000 0.467000 0.425000 600 38 1.000000 0.050000 0.050000 1.200000 0.036000 0.043000
1517205061601715706	200 33 0.900000 0.028000 0.025000 300 32 0.900000 0.467000 0.425000 600 38 1.000000 0.051000 0.051000 1.200000 0.026000 0.031000
1517205062140331122	200 33 0.900000 0.030000 0.027000 300 32 0.900000 0.465000 0.423000 600 38 1.000000 0.051000 0.051000 1.200000 0.036000 0.043000
1517205062680830248	200 33 0.900000 0.031000 0.028000 300 32 0.900000 0.466000 0.424000 600 38 1.000000 0.051000 0.051000 1.200000 0.028000 0.033000
1517205063231016748	200 33 0.900000 0.043000 0.039000 300 32 0.900000 0.467000 0.425000 600 38 1.000000 0.051000 0.051000 1.200000 0.052000 0.062000
1517205063769036039	200 33 0.900000 0.039000 0.035000 300 32 0.900000 0.460000 0.419000 600 38 1.000000 0.051000 0.051000 1.200000 0.028000 0.033000
1517205064307456289	200 33 0.900000 0.030000 0.027000 300 32 0.900000 0.467000 0.425000 600 38 1.000000 0.050000 0.050000 1.200000 0.035000 0.042000
1517205064845484998	200 33 0.900000 0.031000 0.028000 300 32 0.900000 0.466000 0.424000 600 38 1.000000 0.050000 0.050000 1.200000 0.025000 0.030000
1517205065388421498	200 33 0.900000 0.030000 0.027000 300 32 0.900000 0.466000 0.424000 600 38 1.000000 0.051000 0.051000 1.200000 0.026000 0.031000
1517205065930453331	200 34 0.900000 0.050000 0.045000 300 32 0.900000 0.468000 0.426000 600 38 1.000000 0.051000 0.051000 1.200000 0.055000 0.066000
1517205066468941456	200 33 0.900000 0.035000 0.032000 300 32 0.900000 0.471000 0.429000 600 38 1.000000 0.050000 0.050000 1.200000 0.048000 0.058000
1517205067009956123	200 33 0.900000 0.028000 0.025000 300 32 0.900000 0.466000 0.424000 600 38 1.000000 0.051000 0.051000 1.200000 0.029000 0.035000
1517205067547784373	200 33 0.900000 0.028000 0.025000 300 32 0.900000 0.466000 0.424000 600 38 1.000000 0.050000 0.050000 1.200000 0.038000 0.045000
1517205068087079707	200 34 0.900000 0.033000 0.030000 300 32 0.900000 0.467000 0.425000 600 38 1.000000 0.051000 0.051000 1.200000 0.029000 0.035000
1517205068627520665	200 34 0.900000 0.042000 0.038000 300 32 0.900000 0.470000 0.428000 600 38 1.000000 0.050000 0.050000 1.200000 0.041000 0.049000
1517205069169707040	200 33 0.900000 0.041000 0.037000 300 32 0.900000 0.464000 0.422000 600 38 1.000000 0.051000 0.051000 1.200000 0.049000 0.059000
1517205069709389373	200 33 0.900000 0.028000 0.025000 300 32 0.900000 0.466000 0.424000 600 38 1.000000 0.051000 0.051000 1.200000 0.037000 0.044000
1517205070245756332	200 32 0.900000 0.030000 0.027000 300 32 0.900000 0.466000 0.424000 600 36 1.000000 0.050000 0.050000 1.200000 0.027000 0.032000
1517205070783072749	200 32 0.900000 0.020000 0.018000 300 31 0.900000 0.054000 0.049000 600 36 1.000000 0.050000 0.050000 1.200000 0.035000 0.042000
