#Timestamp	CPU(0) Frequency(MHz)	CPU(0) Temperature(C)	A7 Voltage(V)	A7 Current(A)	A7 Power(W)	CPU(4) Frequency(MHz)	CPU(4) Temperature(C)	A15 Voltage(V)	A15 Current(A)	A15 Power(W)	GPU Frequency(MHz)	GPU Temperature(C)	GPU Voltage(V)	GPU Current(A)	GPU Power(W)	RAM Voltage(V)	RAM Current(A)	RAM Power(W)
1517160481906862558	1500 44 1.300000 0.097000 0.127000 2000 40 1.100000 1.062000 1.211000 600 48 1.000000 0.051000 0.051000 1.200000 0.049000 0.059000
1517160482412141475	1500 46 1.300000 0.094000 0.123000 2000 41 1.300000 1.984000 2.630000 600 50 1.000000 0.052000 0.052000 1.200000 0.056000 0.067000
1517160482917843683	1500 48 1.300000 0.094000 0.123000 2000 42 1.300000 2.010000 2.663000 600 54 1.000000 0.052000 0.052000 1.200000 0.057000 0.068000
1517160483424276975	1500 48 1.300000 0.095000 0.124000 2000 43 1.300000 2.353000 3.122000 600 53 1.000000 0.052000 0.052000 1.200000 0.064000 0.077000
1517160483932156850	1500 49 1.300000 0.096000 0.125000 2000 44 1.300000 2.123000 2.815000 600 53 1.000000 0.052000 0.052000 1.200000 0.061000 0.073000
1517160484437353600	1500 49 1.300000 0.096000 0.125000 2000 44 1.300000 2.014000 2.670000 600 54 1.000000 0.052000 0.052000 1.200000 0.057000 0.068000
1517160484945802100	1500 60 1.300000 0.097000 0.127000 2000 46 1.300000 2.010000 2.663000 600 64 1.000000 0.052000 0.052000 1.200000 0.057000 0.068000
1517160485494518100	1500 59 1.300000 0.223000 0.290000 2000 49 1.300000 3.711000 4.954000 600 64 1.000000 0.052000 0.052000 1.200000 0.132000 0.160000
1517160486053020559	1500 63 1.200000 0.389000 0.503000 2000 50 1.300000 3.311000 4.406000 600 68 1.000000 0.053000 0.053000 1.200000 0.281000 0.343000
1517160486609068517	1500 68 1.200000 0.592000 0.764000 2000 53 1.300000 4.387000 5.865000 600 73 1.000000 0.053000 0.053000 1.200000 0.265000 0.322000
1517160487118553850	1500 70 1.200000 0.595000 0.768000 2000 55 1.300000 4.463000 5.967000 600 76 1.000000 0.054000 0.054000 1.200000 0.263000 0.319000
1517160487689100684	1500 72 1.200000 0.606000 0.782000 2000 57 1.300000 4.479000 5.988000 600 79 1.000000 0.054000 0.054000 1.200000 0.250000 0.304000
1517160488260974976	1500 75 1.200000 0.632000 0.815000 2000 58 1.300000 4.605000 6.161000 600 81 1.000000 0.055000 0.055000 1.200000 0.244000 0.296000
1517160488820810267	1500 78 1.200000 0.611000 0.788000 2000 60 1.300000 4.793000 6.422000 600 83 1.000000 0.055000 0.055000 1.200000 0.238000 0.289000
1517160489364954351	1500 79 1.200000 0.643000 0.830000 2000 61 1.300000 5.075000 6.805000 600 84 1.000000 0.055000 0.055000 1.200000 0.204000 0.247000
1517160489916766392	1500 79 1.200000 0.622000 0.803000 2000 62 1.300000 5.063000 6.759000 600 84 1.000000 0.056000 0.056000 1.200000 0.217000 0.263000
1517160490489002601	1500 78 1.200000 0.616000 0.795000 1900 62 1.300000 4.958000 6.594000 600 85 1.000000 0.056000 0.056000 1.200000 0.221000 0.268000
1517160491036877976	1500 80 1.200000 0.650000 0.839000 1900 63 1.200000 4.485000 5.718000 600 84 1.000000 0.056000 0.056000 1.200000 0.207000 0.251000
1517160491542633309	1500 80 1.200000 0.648000 0.836000 1800 63 1.200000 4.462000 5.613000 600 85 1.000000 0.056000 0.056000 1.200000 0.184000 0.223000
1517160492047346518	1500 65 1.200000 0.555000 0.716000 2000 59 1.200000 4.479000 5.625000 600 71 1.000000 0.056000 0.056000 1.200000 0.112000 0.135000
1517160492551563684	1500 60 1.200000 0.257000 0.333000 2000 57 1.200000 1.932000 2.494000 600 65 1.000000 0.055000 0.055000 1.200000 0.049000 0.059000
1517160493056020684	1500 57 1.200000 0.270000 0.349000 2000 54 1.300000 0.865000 1.141000 600 61 1.000000 0.055000 0.055000 1.200000 0.053000 0.064000
1517160493560492434	1500 55 1.200000 0.265000 0.343000 2000 53 1.300000 0.488000 0.643000 600 58 1.000000 0.055000 0.055000 1.200000 0.042000 0.050000
1517160494112685268	1500 66 1.200000 0.273000 0.353000 2000 54 1.300000 0.475000 0.625000 600 70 1.000000 0.054000 0.054000 1.200000 0.029000 0.035000
1517160494653069310	1500 75 1.200000 0.626000 0.808000 2000 58 1.300000 4.778000 6.402000 600 81 1.000000 0.054000 0.054000 1.200000 0.220000 0.267000
1517160495195619851	1500 77 1.200000 0.639000 0.824000 2000 60 1.300000 5.149000 6.909000 600 85 1.000000 0.055000 0.055000 1.200000 0.200000 0.243000
1517160495756581518	1500 80 1.200000 0.638000 0.823000 2000 62 1.300000 4.887000 6.553000 600 85 1.000000 0.055000 0.055000 1.200000 0.226000 0.275000
1517160496312665226	1500 80 1.200000 0.653000 0.843000 1800 63 1.300000 5.224000 7.010000 600 86 1.000000 0.056000 0.056000 1.200000 0.199000 0.241000
1517160496876639935	1500 79 1.200000 0.656000 0.846000 1900 64 1.200000 4.471000 5.566000 600 84 1.000000 0.057000 0.057000 1.200000 0.184000 0.223000
1517160497381692810	1500 78 1.200000 0.653000 0.843000 1900 64 1.200000 4.210000 5.186000 600 82 1.000000 0.057000 0.057000 1.200000 0.178000 0.216000
1517160497948691977	1500 78 1.200000 0.628000 0.810000 1800 64 1.200000 4.343000 5.341000 600 84 1.000000 0.057000 0.057000 1.200000 0.161000 0.195000
1517160498466881768	1500 76 1.200000 0.656000 0.846000 1700 64 1.200000 4.585000 5.786000 600 84 1.000000 0.057000 0.057000 1.200000 0.166000 0.201000
1517160499024675852	1500 76 1.200000 0.661000 0.853000 1800 64 1.200000 4.043000 4.940000 600 84 1.000000 0.057000 0.057000 1.200000 0.192000 0.233000
1517160499588703519	1500 77 1.200000 0.704000 0.908000 1800 64 1.200000 4.086000 4.993000 600 81 1.000000 0.057000 0.057000 1.200000 0.175000 0.212000
1517160500144738644	1500 78 1.200000 0.690000 0.890000 1800 64 1.200000 4.212000 5.243000 600 84 1.000000 0.057000 0.057000 1.200000 0.176000 0.213000
1517160500712775102	1500 78 1.200000 0.663000 0.855000 1700 65 1.200000 4.471000 5.588000 600 84 1.000000 0.057000 0.057000 1.200000 0.167000 0.202000
1517160501272869269	1500 77 1.200000 0.680000 0.877000 1700 64 1.100000 4.060000 4.863000 600 83 1.000000 0.057000 0.057000 1.200000 0.151000 0.183000
1517160501828787977	1500 79 1.200000 0.686000 0.884000 1800 64 1.200000 4.042000 4.890000 600 84 1.000000 0.057000 0.057000 1.200000 0.171000 0.207000
1517160502392914394	1500 78 1.200000 0.679000 0.875000 1800 64 1.200000 4.308000 5.268000 600 83 1.000000 0.057000 0.057000 1.200000 0.155000 0.187000
1517160502940798894	1500 78 1.200000 0.712000 0.918000 1800 65 1.200000 3.974000 4.856000 600 82 1.000000 0.057000 0.057000 1.200000 0.181000 0.219000
1517160503496890394	1500 79 1.200000 0.712000 0.918000 1800 65 1.200000 4.272000 5.224000 600 83 1.000000 0.057000 0.057000 1.200000 0.156000 0.189000
1517160504056668186	1500 80 1.200000 0.700000 0.903000 1800 65 1.200000 4.238000 5.183000 600 85 1.000000 0.057000 0.057000 1.200000 0.154000 0.186000
1517160504616667227	1500 80 1.200000 0.735000 0.948000 1800 65 1.200000 4.218000 5.158000 600 83 1.000000 0.057000 0.057000 1.200000 0.149000 0.180000
1517160505164761728	1500 80 1.200000 0.737000 0.950000 1800 65 1.200000 4.381000 5.366000 600 85 1.000000 0.057000 0.057000 1.200000 0.133000 0.161000
1517160505736748436	1500 79 1.200000 0.702000 0.905000 1700 65 1.100000 4.193000 5.010000 600 84 1.000000 0.057000 0.057000 1.200000 0.119000 0.144000
1517160506292640019	1500 79 1.200000 0.646000 0.833000 1700 65 1.100000 4.050000 4.843000 600 84 1.000000 0.057000 0.057000 1.200000 0.140000 0.169000
1517160506848811769	1500 78 1.200000 0.682000 0.879000 1800 65 1.100000 3.890000 4.660000 600 83 1.000000 0.057000 0.057000 1.200000 0.166000 0.201000
1517160507404751936	1500 79 1.200000 0.679000 0.875000 1800 65 1.200000 3.947000 4.823000 600 83 1.000000 0.057000 0.057000 1.200000 0.208000 0.252000
1517160507952773270	1500 77 1.200000 0.710000 0.915000 1800 65 1.200000 3.915000 4.784000 600 84 1.000000 0.057000 0.057000 1.200000 0.197000 0.239000
1517160508516758478	1500 79 1.200000 0.730000 0.941000 1800 65 1.200000 4.052000 4.951000 600 83 1.000000 0.057000 0.057000 1.200000 0.176000 0.213000
1517160509072870186	1500 78 1.200000 0.697000 0.899000 1800 65 1.100000 3.918000 4.674000 600 83 1.000000 0.057000 0.057000 1.200000 0.152000 0.184000
1517160509628746686	1500 79 1.200000 0.728000 0.939000 1800 65 1.100000 3.839000 4.572000 600 83 1.000000 0.057000 0.057000 1.200000 0.163000 0.198000
1517160510180711353	1500 79 1.200000 0.721000 0.930000 1800 65 1.100000 3.931000 4.670000 600 84 1.000000 0.058000 0.058000 1.200000 0.147000 0.178000
1517160510724719103	1500 79 1.200000 0.729000 0.940000 1800 65 1.100000 4.056000 4.810000 600 85 1.000000 0.057000 0.057000 1.200000 0.118000 0.142000
1517160511284683062	1500 79 1.200000 0.744000 0.959000 1800 65 1.100000 3.866000 4.585000 600 84 1.000000 0.057000 0.057000 1.200000 0.126000 0.152000
1517160511844700895	1500 79 1.200000 0.762000 0.981000 1800 66 1.100000 3.991000 4.749000 600 84 1.000000 0.057000 0.057000 1.200000 0.121000 0.146000
1517160512400706478	1500 79 1.200000 0.683000 0.881000 1700 65 1.100000 4.081000 4.868000 600 84 1.000000 0.057000 0.057000 1.200000 0.124000 0.150000
1517160512960688520	1500 78 1.200000 0.725000 0.935000 1700 65 1.200000 4.351000 5.264000 600 83 1.000000 0.057000 0.057000 1.200000 0.117000 0.141000
1517160513516704229	1500 78 1.200000 0.742000 0.957000 1700 65 1.100000 4.158000 4.927000 600 83 1.000000 0.057000 0.057000 1.200000 0.115000 0.139000
1517160514068712687	1500 79 1.200000 0.726000 0.936000 1700 65 1.100000 4.067000 4.819000 600 83 1.000000 0.057000 0.057000 1.200000 0.110000 0.133000
1517160514597952312	1500 77 1.200000 0.640000 0.826000 1700 65 1.100000 4.083000 4.838000 600 83 1.000000 0.057000 0.057000 1.200000 0.133000 0.161000
1517160515160697312	1500 79 1.200000 0.690000 0.890000 1800 65 1.200000 3.830000 4.618000 600 83 1.000000 0.057000 0.057000 1.200000 0.186000 0.226000
1517160515716708854	1500 79 1.200000 0.703000 0.906000 1700 65 1.100000 4.001000 4.789000 600 84 1.000000 0.057000 0.057000 1.200000 0.147000 0.178000
1517160516268852771	1500 79 1.200000 0.708000 0.913000 1700 66 1.100000 4.120000 4.923000 600 84 1.000000 0.057000 0.057000 1.200000 0.138000 0.167000
1517160516828748146	1500 77 1.200000 0.714000 0.921000 1600 65 1.100000 4.090000 4.875000 600 83 1.000000 0.057000 0.057000 1.200000 0.135000 0.163000
1517160517388761937	1500 77 1.200000 0.700000 0.903000 1700 65 1.100000 3.745000 4.306000 600 83 1.000000 0.057000 0.057000 1.200000 0.129000 0.156000
1517160517927338979	1500 78 1.200000 0.699000 0.901000 1700 65 1.100000 3.847000 4.551000 600 82 1.000000 0.057000 0.057000 1.200000 0.148000 0.179000
1517160518484697729	1500 78 1.200000 0.665000 0.857000 1700 65 1.100000 3.895000 4.607000 600 83 1.000000 0.057000 0.057000 1.200000 0.154000 0.186000
1517160519032692729	1500 78 1.200000 0.673000 0.868000 1700 65 1.100000 3.957000 4.689000 600 83 1.000000 0.057000 0.057000 1.200000 0.150000 0.181000
1517160519596759479	1500 78 1.200000 0.693000 0.894000 1700 65 1.100000 4.070000 4.822000 600 83 1.000000 0.057000 0.057000 1.200000 0.130000 0.157000
1517160520152894188	1500 77 1.200000 0.690000 0.890000 1700 65 1.100000 3.873000 4.581000 600 83 1.000000 0.057000 0.057000 1.200000 0.153000 0.185000
1517160520704793813	1500 78 1.200000 0.701000 0.904000 1700 65 1.100000 3.956000 4.679000 600 83 1.000000 0.057000 0.057000 1.200000 0.144000 0.174000
1517160521252622063	1500 78 1.200000 0.708000 0.913000 1800 65 1.100000 3.940000 4.661000 600 83 1.000000 0.057000 0.057000 1.200000 0.135000 0.163000
1517160521808640521	1500 78 1.200000 0.717000 0.924000 1700 65 1.200000 4.168000 5.022000 600 84 1.000000 0.057000 0.057000 1.200000 0.134000 0.162000
1517160522372708438	1500 78 1.200000 0.727000 0.937000 1700 65 1.100000 4.065000 4.865000 600 84 1.000000 0.057000 0.057000 1.200000 0.127000 0.153000
1517160522924794021	1500 79 1.200000 0.734000 0.946000 1700 66 1.100000 3.963000 4.747000 600 82 1.000000 0.057000 0.057000 1.200000 0.144000 0.174000
1517160523484670230	1500 79 1.200000 0.731000 0.942000 1800 66 1.100000 3.815000 4.558000 600 84 1.000000 0.057000 0.057000 1.200000 0.177000 0.215000
1517160524040681688	1500 80 1.200000 0.720000 0.928000 1800 66 1.200000 4.255000 5.203000 600 85 1.000000 0.057000 0.057000 1.200000 0.149000 0.180000
1517160524596755813	1500 78 1.200000 0.756000 0.973000 1700 66 1.100000 3.931000 4.670000 600 84 1.000000 0.057000 0.057000 1.200000 0.133000 0.161000
1517160525156761063	1500 78 1.200000 0.737000 0.950000 1700 66 1.200000 4.056000 4.952000 600 83 1.000000 0.057000 0.057000 1.200000 0.173000 0.210000
1517160525712734980	1500 79 1.200000 0.729000 0.940000 1800 66 1.200000 4.137000 5.055000 600 83 1.000000 0.057000 0.057000 1.200000 0.156000 0.189000
1517160526260649480	1500 79 1.200000 0.753000 0.971000 1800 66 1.200000 4.234000 5.169000 600 84 1.000000 0.058000 0.058000 1.200000 0.141000 0.170000
1517160526812664230	1500 79 1.200000 0.760000 0.980000 1700 66 1.200000 4.334000 5.278000 600 83 1.000000 0.057000 0.057000 1.200000 0.127000 0.153000
1517160527372716314	1500 79 1.200000 0.765000 0.986000 1700 66 1.100000 3.954000 4.685000 600 84 1.000000 0.058000 0.058000 1.200000 0.126000 0.152000
1517160527932651272	1500 79 1.200000 0.759000 0.979000 1700 66 1.100000 4.019000 4.754000 600 83 1.000000 0.057000 0.057000 1.200000 0.111000 0.134000
1517160528476495897	1500 79 1.200000 0.766000 0.988000 1700 66 1.100000 4.032000 4.777000 600 83 1.000000 0.057000 0.057000 1.200000 0.112000 0.135000
1517160529032780397	1500 79 1.200000 0.759000 0.979000 1700 66 1.100000 4.026000 4.770000 600 84 1.000000 0.058000 0.058000 1.200000 0.114000 0.138000
1517160529584858397	1500 79 1.200000 0.711000 0.917000 1700 66 1.100000 4.062000 4.813000 600 84 1.000000 0.057000 0.057000 1.200000 0.123000 0.148000
1517160530144705022	1500 78 1.200000 0.717000 0.924000 1700 66 1.100000 3.966000 4.691000 600 83 1.000000 0.057000 0.057000 1.200000 0.135000 0.163000
1517160530692702897	1500 79 1.200000 0.747000 0.963000 1700 66 1.100000 3.869000 4.577000 600 83 1.000000 0.058000 0.058000 1.200000 0.127000 0.153000
1517160531248762981	1500 79 1.200000 0.744000 0.958000 1700 66 1.100000 4.042000 4.789000 600 83 1.000000 0.057000 0.057000 1.200000 0.127000 0.153000
1517160531804752064	1500 79 1.200000 0.725000 0.935000 1700 66 1.100000 4.027000 4.771000 600 83 1.000000 0.058000 0.058000 1.200000 0.124000 0.150000
1517160532376677481	1500 79 1.200000 0.739000 0.953000 1700 66 1.100000 4.000000 4.740000 600 84 1.000000 0.057000 0.057000 1.200000 0.121000 0.146000
1517160532932859814	1500 79 1.200000 0.739000 0.953000 1700 66 1.100000 4.040000 4.787000 600 84 1.000000 0.057000 0.057000 1.200000 0.117000 0.141000
1517160533480636064	1500 79 1.200000 0.744000 0.958000 1700 66 1.100000 4.096000 4.853000 600 84 1.000000 0.057000 0.057000 1.200000 0.112000 0.135000
1517160534040641023	1500 80 1.200000 0.762000 0.981000 1700 66 1.100000 4.120000 4.882000 600 84 1.000000 0.057000 0.057000 1.200000 0.102000 0.123000
1517160534596801481	1500 79 1.200000 0.764000 0.984000 1700 66 1.100000 4.124000 4.886000 600 85 1.000000 0.058000 0.058000 1.200000 0.083000 0.100000
1517160535152594023	1500 79 1.200000 0.754000 0.972000 1700 66 1.100000 3.788000 4.375000 600 84 1.000000 0.058000 0.058000 1.200000 0.097000 0.117000
1517160535716664815	1500 80 1.200000 0.791000 1.018000 1700 66 1.100000 4.188000 4.962000 600 85 1.000000 0.058000 0.058000 1.200000 0.078000 0.094000
1517160536268552856	1500 79 1.200000 0.709000 0.914000 1700 66 1.100000 3.903000 4.535000 600 84 1.000000 0.058000 0.058000 1.200000 0.105000 0.127000
1517160536828559023	1500 79 1.200000 0.740000 0.954000 1700 66 1.100000 3.735000 4.302000 600 84 1.000000 0.057000 0.057000 1.200000 0.098000 0.118000
1517160537384737273	1500 79 1.200000 0.743000 0.958000 1700 66 1.100000 4.185000 4.959000 600 85 1.000000 0.057000 0.057000 1.200000 0.086000 0.104000
1517160537936761856	1500 77 1.200000 0.734000 0.946000 1700 66 1.100000 3.838000 4.452000 600 84 1.000000 0.058000 0.058000 1.200000 0.087000 0.105000
1517160538508795523	1500 79 1.200000 0.736000 0.949000 1700 66 1.100000 3.825000 4.524000 600 84 1.000000 0.057000 0.057000 1.200000 0.140000 0.169000
1517160539064736440	1500 78 1.200000 0.768000 0.990000 1700 66 1.100000 3.969000 4.695000 600 84 1.000000 0.057000 0.057000 1.200000 0.119000 0.144000
1517160539624691023	1500 77 1.200000 0.786000 1.012000 1600 66 1.100000 3.876000 4.503000 600 83 1.000000 0.058000 0.058000 1.200000 0.092000 0.111000
1517160540176563732	1500 78 1.200000 0.748000 0.964000 1700 66 1.100000 4.079000 4.833000 600 84 1.000000 0.057000 0.057000 1.200000 0.107000 0.129000
1517160540736786315	1500 78 1.200000 0.733000 0.945000 1700 66 1.100000 4.075000 4.828000 600 84 1.000000 0.057000 0.057000 1.200000 0.105000 0.127000
1517160541296685565	1500 79 1.200000 0.744000 0.959000 1700 66 1.100000 3.805000 4.394000 600 84 1.000000 0.058000 0.058000 1.200000 0.100000 0.121000
1517160541844720607	1500 79 1.200000 0.755000 0.973000 1700 66 1.100000 4.153000 4.921000 600 85 1.000000 0.058000 0.058000 1.200000 0.104000 0.125000
1517160542400689399	1500 79 1.200000 0.764000 0.984000 1700 66 1.100000 3.760000 4.324000 600 82 1.000000 0.057000 0.057000 1.200000 0.091000 0.110000
1517160542960837399	1500 79 1.200000 0.761000 0.981000 1700 66 1.100000 4.036000 4.782000 600 83 1.000000 0.058000 0.058000 1.200000 0.122000 0.147000
1517160543512767649	1500 77 1.200000 0.708000 0.913000 1700 66 1.100000 3.906000 4.620000 600 83 1.000000 0.057000 0.057000 1.200000 0.128000 0.155000
1517160544068654982	1500 77 1.200000 0.725000 0.935000 1700 66 1.100000 3.744000 4.429000 600 82 1.000000 0.058000 0.058000 1.200000 0.157000 0.190000
1517160544616799107	1500 78 1.200000 0.737000 0.950000 1700 66 1.100000 3.888000 4.599000 600 83 1.000000 0.057000 0.057000 1.200000 0.150000 0.181000
1517160545180862066	1500 80 1.200000 0.747000 0.963000 1800 66 1.200000 4.239000 5.184000 600 85 1.000000 0.058000 0.058000 1.200000 0.159000 0.192000
1517160545736579399	1500 79 1.200000 0.744000 0.959000 1600 67 1.200000 4.075000 4.890000 600 84 1.000000 0.058000 0.058000 1.200000 0.148000 0.179000
1517160546280714066	1500 78 1.200000 0.746000 0.962000 1700 66 1.100000 3.610000 4.234000 600 83 1.000000 0.058000 0.058000 1.200000 0.164000 0.198000
1517160546845507399	1500 78 1.200000 0.769000 0.990000 1700 66 1.100000 3.672000 4.343000 600 82 1.000000 0.058000 0.058000 1.200000 0.163000 0.198000
1517160547408872066	1500 79 1.200000 0.774000 0.996000 1700 66 1.100000 3.945000 4.666000 600 84 1.000000 0.058000 0.058000 1.200000 0.126000 0.152000
1517160547968670191	1500 79 1.200000 0.773000 0.997000 1700 66 1.100000 4.024000 4.768000 600 84 1.000000 0.057000 0.057000 1.200000 0.114000 0.138000
1517160548524683941	1500 78 1.200000 0.767000 0.989000 1700 66 1.100000 3.939000 4.667000 600 85 1.000000 0.057000 0.057000 1.200000 0.129000 0.156000
1517160549080735524	1500 79 1.200000 0.767000 0.989000 1800 66 1.100000 3.920000 4.645000 600 85 1.000000 0.058000 0.058000 1.200000 0.106000 0.128000
1517160549636708358	1500 78 1.200000 0.770000 0.993000 1700 66 1.200000 4.185000 5.055000 600 83 1.000000 0.058000 0.058000 1.200000 0.103000 0.124000
1517160550196719025	1500 78 1.200000 0.784000 1.009000 1600 66 1.100000 4.096000 4.857000 600 83 1.000000 0.058000 0.058000 1.200000 0.118000 0.143000
1517160550756667983	1500 79 1.200000 0.763000 0.982000 1700 66 1.100000 3.780000 4.369000 600 84 1.000000 0.057000 0.057000 1.200000 0.096000 0.116000
1517160551316697691	1500 78 1.200000 0.710000 0.916000 1700 66 1.100000 3.898000 4.564000 600 83 1.000000 0.058000 0.058000 1.200000 0.126000 0.152000
1517160551868689233	1500 78 1.200000 0.742000 0.957000 1700 66 1.100000 3.958000 4.690000 600 83 1.000000 0.057000 0.057000 1.200000 0.132000 0.160000
1517160552424778650	1500 79 1.200000 0.718000 0.926000 1700 66 1.100000 3.829000 4.529000 600 83 1.000000 0.057000 0.057000 1.200000 0.155000 0.188000
1517160552973104817	1500 79 1.200000 0.732000 0.944000 1700 66 1.100000 3.822000 4.521000 600 84 1.000000 0.057000 0.057000 1.200000 0.155000 0.188000
1517160553528687692	1500 79 1.200000 0.718000 0.926000 1700 66 1.100000 3.903000 4.617000 600 84 1.000000 0.058000 0.058000 1.200000 0.143000 0.173000
1517160554092742025	1500 79 1.200000 0.743000 0.958000 1700 66 1.100000 3.968000 4.702000 600 84 1.000000 0.058000 0.058000 1.200000 0.127000 0.153000
1517160554648830108	1500 79 1.200000 0.765000 0.986000 1700 66 1.100000 3.969000 4.703000 600 85 1.000000 0.058000 0.058000 1.200000 0.131000 0.158000
1517160555204719984	1500 78 1.200000 0.730000 0.941000 1600 66 1.100000 3.964000 4.697000 600 83 1.000000 0.057000 0.057000 1.200000 0.139000 0.168000
1517160555760664734	1500 79 1.200000 0.773000 0.997000 1700 66 1.100000 4.010000 4.731000 600 84 1.000000 0.058000 0.058000 1.200000 0.109000 0.131000
1517160556316739567	1500 79 1.200000 0.750000 0.967000 1600 67 1.100000 3.988000 4.725000 600 84 1.000000 0.057000 0.057000 1.200000 0.123000 0.149000
1517160556868671609	1500 80 1.200000 0.731000 0.942000 1700 66 1.100000 3.683000 4.217000 600 84 1.000000 0.058000 0.058000 1.200000 0.122000 0.147000
1517160557424682025	1500 78 1.200000 0.706000 0.910000 1600 66 1.100000 4.049000 4.798000 600 83 1.000000 0.058000 0.058000 1.200000 0.134000 0.162000
1517160557984702192	1500 79 1.200000 0.732000 0.944000 1700 66 1.100000 3.686000 4.242000 600 84 1.000000 0.057000 0.057000 1.200000 0.120000 0.145000
1517160558544826692	1500 80 1.200000 0.690000 0.890000 1700 66 1.100000 3.972000 4.706000 600 85 1.000000 0.058000 0.058000 1.200000 0.126000 0.152000
1517160559085981442	1500 79 1.200000 0.725000 0.935000 1700 66 1.100000 4.113000 4.873000 600 84 1.000000 0.057000 0.057000 1.200000 0.110000 0.133000
1517160559656739734	1500 79 1.200000 0.708000 0.913000 1700 66 1.100000 3.928000 4.595000 600 84 1.000000 0.058000 0.058000 1.200000 0.116000 0.140000
1517160560216607151	1500 79 1.200000 0.757000 0.976000 1700 66 1.100000 3.934000 4.583000 600 83 1.000000 0.058000 0.058000 1.200000 0.104000 0.125000
1517160560776675484	1500 79 1.200000 0.705000 0.909000 1700 66 1.100000 4.119000 4.881000 600 84 1.000000 0.058000 0.058000 1.200000 0.112000 0.135000
1517160561324794859	1500 79 1.200000 0.725000 0.935000 1700 66 1.100000 3.865000 4.483000 600 84 1.000000 0.058000 0.058000 1.200000 0.114000 0.138000
1517160561888663318	1500 79 1.200000 0.734000 0.946000 1600 66 1.100000 4.123000 4.885000 600 83 1.000000 0.058000 0.058000 1.200000 0.111000 0.134000
1517160562440701234	1500 80 1.200000 0.774000 0.998000 1700 67 1.100000 4.081000 4.799000 600 85 1.000000 0.058000 0.058000 1.200000 0.086000 0.104000
1517160563000514859	1500 79 1.200000 0.732000 0.944000 1700 66 1.100000 3.844000 4.424000 600 85 1.000000 0.057000 0.057000 1.200000 0.099000 0.119000
1517160563552570818	1500 79 1.200000 0.712000 0.918000 1700 66 1.100000 4.128000 4.891000 600 84 1.000000 0.058000 0.058000 1.200000 0.108000 0.130000
1517160564116686276	1500 79 1.200000 0.760000 0.980000 1600 66 1.100000 4.094000 4.851000 600 84 1.000000 0.058000 0.058000 1.200000 0.096000 0.116000
1517160564680653693	1500 79 1.200000 0.745000 0.961000 1600 67 1.100000 3.797000 4.366000 600 84 1.000000 0.058000 0.058000 1.200000 0.088000 0.106000
1517160565240649276	1500 80 1.200000 0.738000 0.952000 1700 67 1.100000 4.113000 4.845000 600 85 1.000000 0.057000 0.057000 1.200000 0.091000 0.110000
1517160565804699318	1500 77 1.200000 0.745000 0.961000 1700 66 1.100000 4.081000 4.787000 600 83 1.000000 0.058000 0.058000 1.200000 0.105000 0.127000
1517160566364589818	1500 78 1.200000 0.768000 0.990000 1600 66 1.100000 4.049000 4.798000 600 83 1.000000 0.058000 0.058000 1.200000 0.102000 0.123000
1517160566924644943	1500 79 1.200000 0.756000 0.975000 1700 66 1.100000 3.819000 4.517000 600 84 1.000000 0.058000 0.058000 1.200000 0.137000 0.166000
1517160567484738027	1500 78 1.200000 0.747000 0.963000 1700 66 1.100000 3.915000 4.560000 600 84 1.000000 0.057000 0.057000 1.200000 0.099000 0.119000
1517160568044625318	1500 78 1.200000 0.747000 0.963000 1600 66 1.100000 4.084000 4.839000 600 83 1.000000 0.057000 0.057000 1.200000 0.108000 0.130000
1517160568596690027	1500 78 1.200000 0.780000 1.006000 1600 66 1.100000 3.979000 4.663000 600 83 1.000000 0.058000 0.058000 1.200000 0.085000 0.102000
1517160569146821693	1500 79 1.200000 0.768000 0.990000 1700 66 1.100000 3.731000 4.316000 600 84 1.000000 0.057000 0.057000 1.200000 0.120000 0.145000
1517160569708651985	1500 79 1.200000 0.773000 0.997000 1700 66 1.100000 3.660000 4.212000 600 84 1.000000 0.058000 0.058000 1.200000 0.098000 0.118000
1517160570260613069	1500 79 1.200000 0.753000 0.971000 1700 66 1.100000 3.800000 4.370000 600 84 1.000000 0.058000 0.058000 1.200000 0.098000 0.118000
1517160570820764944	1500 79 1.200000 0.786000 1.012000 1700 66 1.100000 3.740000 4.289000 600 84 1.000000 0.058000 0.058000 1.200000 0.081000 0.098000
1517160571380738610	1500 79 1.200000 0.787000 1.013000 1700 66 1.100000 3.948000 4.583000 600 84 1.000000 0.058000 0.058000 1.200000 0.077000 0.093000
1517160571924591485	1500 78 1.200000 0.735000 0.948000 1600 66 1.100000 4.049000 4.777000 600 83 1.000000 0.058000 0.058000 1.200000 0.115000 0.139000
1517160572484729944	1500 80 1.200000 0.763000 0.982000 1700 67 1.100000 4.025000 4.769000 600 83 1.000000 0.058000 0.058000 1.200000 0.107000 0.129000
1517160573040742736	1500 79 1.200000 0.792000 1.020000 1700 66 1.100000 3.949000 4.640000 600 83 1.000000 0.058000 0.058000 1.200000 0.103000 0.124000
1517160573600744569	1500 79 1.200000 0.757000 0.976000 1600 67 1.100000 4.101000 4.859000 600 83 1.000000 0.058000 0.058000 1.200000 0.102000 0.123000
1517160574164706777	1500 79 1.200000 0.770000 0.991000 1700 67 1.100000 3.871000 4.490000 600 83 1.000000 0.058000 0.058000 1.200000 0.101000 0.122000
1517160574712761402	1500 78 1.200000 0.798000 1.027000 1600 67 1.100000 3.840000 4.473000 600 82 1.000000 0.058000 0.058000 1.200000 0.105000 0.127000
1517160575268616111	1500 79 1.200000 0.775000 0.998000 1700 67 1.100000 3.975000 4.710000 600 84 1.000000 0.058000 0.058000 1.200000 0.099000 0.119000
1517160575824707069	1500 79 1.200000 0.775000 0.998000 1700 67 1.100000 3.811000 4.424000 600 82 1.000000 0.058000 0.058000 1.200000 0.107000 0.129000
1517160576376617611	1500 79 1.200000 0.779000 1.003000 1700 67 1.100000 3.910000 4.527000 600 83 1.000000 0.058000 0.058000 1.200000 0.078000 0.094000
1517160576940745736	1500 79 1.200000 0.813000 1.047000 1600 67 1.100000 4.159000 4.928000 600 83 1.000000 0.058000 0.058000 1.200000 0.073000 0.088000
1517160577500591319	1500 80 1.200000 0.767000 0.987000 1700 67 1.100000 3.979000 4.683000 600 84 1.000000 0.057000 0.057000 1.200000 0.098000 0.118000
1517160578056544278	1500 80 1.200000 0.772000 0.995000 1700 67 1.100000 3.709000 4.265000 600 84 1.000000 0.058000 0.058000 1.200000 0.092000 0.111000
1517160578616687445	1500 80 1.200000 0.804000 1.035000 1700 67 1.100000 3.766000 4.319000 600 84 1.000000 0.058000 0.058000 1.200000 0.076000 0.091000
1517160579176648070	1500 80 1.200000 0.808000 1.040000 1700 67 1.100000 3.754000 4.302000 600 84 1.000000 0.058000 0.058000 1.200000 0.072000 0.086000
1517160579700731528	1500 78 1.200000 0.779000 1.004000 1700 67 1.100000 3.804000 4.374000 600 83 1.000000 0.058000 0.058000 1.200000 0.069000 0.083000
1517160580252593820	1500 79 1.200000 0.774000 0.998000 1700 66 1.100000 3.785000 4.360000 600 83 1.000000 0.058000 0.058000 1.200000 0.087000 0.105000
1517160580804653195	1500 79 1.200000 0.782000 1.007000 1600 67 1.100000 4.023000 4.727000 600 83 1.000000 0.058000 0.058000 1.200000 0.088000 0.106000
1517160581340657695	1500 79 1.200000 0.793000 1.021000 1600 67 1.100000 4.082000 4.788000 600 83 1.000000 0.057000 0.057000 1.200000 0.062000 0.074000
1517160581900629945	1500 79 1.200000 0.762000 0.981000 1700 66 1.100000 3.992000 4.730000 600 85 1.000000 0.058000 0.058000 1.200000 0.118000 0.142000
1517160582460786695	1500 79 1.200000 0.798000 1.027000 1700 67 1.100000 3.921000 4.575000 600 84 1.000000 0.058000 0.058000 1.200000 0.096000 0.116000
1517160583008663862	1500 78 1.200000 0.790000 1.017000 1600 66 1.100000 3.883000 4.527000 600 84 1.000000 0.058000 0.058000 1.200000 0.093000 0.112000
1517160583564752404	1500 79 1.200000 0.797000 1.026000 1700 67 1.100000 3.786000 4.403000 600 84 1.000000 0.058000 0.058000 1.200000 0.098000 0.118000
1517160584120769987	1500 79 1.200000 0.802000 1.032000 1600 67 1.100000 3.939000 4.667000 600 83 1.000000 0.058000 0.058000 1.200000 0.081000 0.098000
1517160584680715195	1500 79 1.200000 0.770000 0.991000 1600 67 1.100000 3.817000 4.416000 600 83 1.000000 0.057000 0.057000 1.200000 0.090000 0.108000
1517160585236707112	1500 79 1.200000 0.781000 1.007000 1600 67 1.100000 3.855000 4.456000 600 81 1.000000 0.058000 0.058000 1.200000 0.085000 0.102000
1517160585796739320	1500 80 1.200000 0.811000 1.044000 1700 67 1.100000 3.994000 4.700000 600 84 1.000000 0.058000 0.058000 1.200000 0.079000 0.095000
1517160586340638571	1500 79 1.200000 0.807000 1.039000 1700 67 1.100000 3.710000 4.266000 600 84 1.000000 0.058000 0.058000 1.200000 0.082000 0.099000
1517160586900691696	1500 79 1.200000 0.800000 1.030000 1700 67 1.100000 4.115000 4.876000 600 83 1.000000 0.058000 0.058000 1.200000 0.081000 0.098000
1517160587452591737	1500 79 1.200000 0.803000 1.034000 1700 67 1.100000 4.172000 4.943000 600 83 1.000000 0.058000 0.058000 1.200000 0.081000 0.097000
1517160588008668029	1500 79 1.200000 0.789000 1.016000 1700 67 1.100000 4.113000 4.861000 600 83 1.000000 0.058000 0.058000 1.200000 0.085000 0.102000
1517160588564750196	1500 79 1.200000 0.808000 1.040000 1600 67 1.100000 4.092000 4.849000 600 83 1.000000 0.058000 0.058000 1.200000 0.081000 0.098000
1517160589116698988	1500 79 1.200000 0.807000 1.039000 1600 67 1.100000 3.805000 4.383000 600 83 1.000000 0.058000 0.058000 1.200000 0.066000 0.079000
1517160589662970654	1500 80 1.200000 0.797000 1.026000 1700 67 1.100000 3.769000 4.353000 600 84 1.000000 0.058000 0.058000 1.200000 0.075000 0.090000
1517160590224731988	1500 80 1.200000 0.798000 1.027000 1700 67 1.100000 3.978000 4.662000 600 84 1.000000 0.057000 0.057000 1.200000 0.071000 0.085000
1517160590780661946	1500 80 1.200000 0.799000 1.029000 1600 67 1.100000 4.029000 4.717000 600 84 1.000000 0.058000 0.058000 1.200000 0.077000 0.093000
1517160591340643029	1500 79 1.200000 0.797000 1.026000 1600 67 1.100000 3.969000 4.611000 600 83 1.000000 0.058000 0.058000 1.200000 0.061000 0.073000
1517160591900794738	1500 79 1.200000 0.804000 1.035000 1600 67 1.100000 3.957000 4.613000 600 83 1.000000 0.058000 0.058000 1.200000 0.075000 0.090000
1517160592456587280	1500 80 1.200000 0.797000 1.026000 1700 67 1.100000 3.840000 4.481000 600 84 1.000000 0.058000 0.058000 1.200000 0.067000 0.080000
1517160593008628696	1500 79 1.200000 0.806000 1.038000 1600 67 1.100000 4.142000 4.908000 600 84 1.000000 0.058000 0.058000 1.200000 0.067000 0.080000
1517160593572764363	1500 78 1.200000 0.805000 1.036000 1600 67 1.100000 3.884000 4.548000 600 83 1.000000 0.058000 0.058000 1.200000 0.080000 0.096000
1517160594140707155	1500 78 1.200000 0.818000 1.053000 1600 67 1.100000 3.862000 4.530000 600 83 1.000000 0.057000 0.057000 1.200000 0.100000 0.121000
1517160594700706697	1500 79 1.200000 0.793000 1.021000 1700 67 1.100000 3.751000 4.362000 600 84 1.000000 0.058000 0.058000 1.200000 0.101000 0.122000
1517160595248640738	1500 79 1.200000 0.748000 0.964000 1700 66 1.100000 4.015000 4.757000 600 84 1.000000 0.057000 0.057000 1.200000 0.119000 0.144000
1517160595800679030	1500 80 1.200000 0.775000 0.999000 1700 67 1.100000 3.929000 4.644000 600 84 1.000000 0.058000 0.058000 1.200000 0.117000 0.141000
1517160596353020405	1500 79 1.200000 0.788000 1.014000 1700 67 1.100000 3.610000 4.173000 600 84 1.000000 0.058000 0.058000 1.200000 0.117000 0.141000
1517160596904759572	1500 79 1.200000 0.795000 1.023000 1600 67 1.100000 4.093000 4.850000 600 84 1.000000 0.057000 0.057000 1.200000 0.094000 0.113000
1517160597452823280	1500 79 1.200000 0.790000 1.017000 1700 67 1.100000 3.977000 4.684000 600 84 1.000000 0.058000 0.058000 1.200000 0.094000 0.113000
1517160598012580489	1500 78 1.200000 0.743000 0.958000 1600 67 1.100000 4.023000 4.767000 600 83 1.000000 0.058000 0.058000 1.200000 0.114000 0.138000
1517160598568680239	1500 79 1.200000 0.735000 0.948000 1700 67 1.100000 3.976000 4.711000 600 84 1.000000 0.058000 0.058000 1.200000 0.111000 0.134000
1517160599128615739	1500 79 1.200000 0.737000 0.950000 1700 67 1.100000 4.090000 4.830000 600 84 1.000000 0.058000 0.058000 1.200000 0.106000 0.128000
1517160599688616322	1500 79 1.200000 0.752000 0.970000 1700 67 1.100000 4.078000 4.812000 600 84 1.000000 0.058000 0.058000 1.200000 0.099000 0.119000
1517160600219099822	1500 79 1.200000 0.767000 0.987000 1600 67 1.100000 4.100000 4.858000 600 83 1.000000 0.057000 0.057000 1.200000 0.103000 0.124000
1517160600776708531	1500 79 1.200000 0.756000 0.975000 1700 67 1.100000 3.823000 4.457000 600 85 1.000000 0.058000 0.058000 1.200000 0.104000 0.125000
1517160601336724739	1500 79 1.200000 0.708000 0.913000 1600 67 1.100000 3.893000 4.515000 600 85 1.000000 0.058000 0.058000 1.200000 0.114000 0.138000
1517160601892788739	1500 79 1.200000 0.749000 0.966000 1700 67 1.100000 3.982000 4.670000 600 85 1.000000 0.057000 0.057000 1.200000 0.111000 0.134000
1517160602444670322	1500 79 1.200000 0.741000 0.955000 1700 67 1.100000 3.861000 4.501000 600 85 1.000000 0.058000 0.058000 1.200000 0.101000 0.122000
1517160603008761864	1500 79 1.200000 0.736000 0.949000 1700 67 1.100000 3.660000 4.216000 600 84 1.000000 0.058000 0.058000 1.200000 0.122000 0.147000
1517160603572761239	1500 78 1.200000 0.737000 0.950000 1600 67 1.100000 4.048000 4.796000 600 83 1.000000 0.058000 0.058000 1.200000 0.122000 0.147000
1517160604132694489	1500 78 1.200000 0.739000 0.953000 1600 67 1.100000 4.033000 4.771000 600 83 1.000000 0.058000 0.058000 1.200000 0.109000 0.131000
1517160604676717239	1500 80 1.200000 0.749000 0.966000 1600 67 1.100000 4.086000 4.841000 600 84 1.000000 0.058000 0.058000 1.200000 0.101000 0.122000
1517160605228693614	1500 79 1.200000 0.783000 1.010000 1600 67 1.100000 3.701000 4.259000 600 84 1.000000 0.058000 0.058000 1.200000 0.093000 0.112000
1517160605780751156	1500 80 1.200000 0.786000 1.012000 1600 67 1.100000 3.803000 4.381000 600 84 1.000000 0.058000 0.058000 1.200000 0.078000 0.094000
1517160606328683073	1500 80 1.200000 0.759000 0.979000 1700 67 1.100000 3.681000 4.214000 600 84 1.000000 0.057000 0.057000 1.200000 0.112000 0.135000
1517160606888782865	1500 78 1.200000 0.751000 0.968000 1600 66 1.100000 3.830000 4.530000 600 83 1.000000 0.058000 0.058000 1.200000 0.117000 0.141000
1517160607436714948	1500 80 1.200000 0.766000 0.988000 1700 67 1.100000 4.006000 4.747000 600 85 1.000000 0.058000 0.058000 1.200000 0.118000 0.143000
1517160607996789448	1500 79 1.200000 0.752000 0.968000 1700 67 1.100000 3.874000 4.513000 600 84 1.000000 0.058000 0.058000 1.200000 0.102000 0.123000
1517160608545245948	1500 80 1.200000 0.794000 1.022000 1700 67 1.100000 3.933000 4.593000 600 84 1.000000 0.057000 0.057000 1.200000 0.089000 0.107000
1517160609104657698	1500 79 1.200000 0.743000 0.958000 1700 67 1.100000 3.749000 4.337000 600 83 1.000000 0.058000 0.058000 1.200000 0.124000 0.150000
1517160609664640657	1500 79 1.200000 0.778000 1.002000 1700 67 1.100000 3.771000 4.359000 600 84 1.000000 0.058000 0.058000 1.200000 0.099000 0.119000
1517160610220869407	1500 78 1.200000 0.761000 0.980000 1600 67 1.100000 4.116000 4.877000 600 84 1.000000 0.058000 0.058000 1.200000 0.089000 0.107000
1517160610776821740	1500 78 1.200000 0.757000 0.975000 1600 67 1.100000 4.039000 4.766000 600 83 1.000000 0.058000 0.058000 1.200000 0.120000 0.145000
1517160611322303115	1500 79 1.200000 0.773000 0.995000 1600 67 1.100000 4.085000 4.828000 600 83 1.000000 0.058000 0.058000 1.200000 0.105000 0.127000
1517160611884505782	1500 79 1.200000 0.771000 0.993000 1700 67 1.100000 4.140000 4.893000 600 84 1.000000 0.058000 0.058000 1.200000 0.081000 0.098000
1517160612436479865	1500 79 1.200000 0.754000 0.972000 1700 67 1.100000 3.752000 4.318000 600 84 1.000000 0.057000 0.057000 1.200000 0.087000 0.105000
1517160613000695657	1500 79 1.200000 0.786000 1.012000 1700 66 1.100000 3.775000 4.333000 600 84 1.000000 0.058000 0.058000 1.200000 0.094000 0.113000
1517160613556693407	1500 79 1.200000 0.786000 1.012000 1700 67 1.100000 3.777000 4.369000 600 84 1.000000 0.058000 0.058000 1.200000 0.095000 0.114000
1517160614112520074	1500 80 1.200000 0.803000 1.034000 1700 67 1.100000 3.790000 4.347000 600 84 1.000000 0.058000 0.058000 1.200000 0.066000 0.079000
1517160614660095491	1500 79 1.200000 0.787000 1.013000 1700 67 1.100000 3.785000 4.356000 600 85 1.000000 0.058000 0.058000 1.200000 0.083000 0.100000
1517160615216617782	1500 79 1.200000 0.776000 0.999000 1600 67 1.100000 3.870000 4.508000 600 84 1.000000 0.058000 0.058000 1.200000 0.094000 0.113000
1517160615772706282	1500 80 1.200000 0.783000 1.008000 1700 67 1.100000 3.882000 4.522000 600 85 1.000000 0.058000 0.058000 1.200000 0.083000 0.100000
1517160616328710491	1500 79 1.200000 0.807000 1.039000 1600 67 1.100000 4.052000 4.748000 600 84 1.000000 0.058000 0.058000 1.200000 0.076000 0.091000
1517160616884659033	1500 79 1.200000 0.774000 0.996000 1600 67 1.100000 3.892000 4.514000 600 84 1.000000 0.058000 0.058000 1.200000 0.072000 0.087000
1517160617444782074	1500 79 1.200000 0.802000 1.032000 1600 67 1.100000 3.976000 4.639000 600 84 1.000000 0.057000 0.057000 1.200000 0.061000 0.073000
1517160617992537074	1500 80 1.200000 0.779000 1.003000 1700 67 1.100000 3.836000 4.472000 600 85 1.000000 0.058000 0.058000 1.200000 0.076000 0.091000
1517160618552650116	1500 80 1.200000 0.801000 1.031000 1700 67 1.100000 3.764000 4.328000 600 85 1.000000 0.058000 0.058000 1.200000 0.063000 0.076000
1517160619104605866	1500 79 1.200000 0.757000 0.976000 1600 67 1.100000 3.807000 4.378000 600 84 1.000000 0.058000 0.058000 1.200000 0.081000 0.097000
1517160619660732033	1500 79 1.200000 0.808000 1.040000 1600 67 1.100000 3.799000 4.357000 600 84 1.000000 0.058000 0.058000 1.200000 0.059000 0.071000
1517160620216876366	1500 79 1.200000 0.792000 1.020000 1600 67 1.100000 3.551000 4.069000 600 84 1.000000 0.058000 0.058000 1.200000 0.100000 0.121000
1517160620763302158	1500 79 1.200000 0.811000 1.044000 1600 67 1.100000 3.735000 4.295000 600 83 1.000000 0.058000 0.058000 1.200000 0.071000 0.085000
1517160621332653366	1500 80 1.200000 0.792000 1.020000 1700 67 1.100000 3.674000 4.228000 600 85 1.000000 0.058000 0.058000 1.200000 0.081000 0.097000
1517160621892726741	1500 80 1.200000 0.792000 1.020000 1700 67 1.100000 4.093000 4.813000 600 85 1.000000 0.058000 0.058000 1.200000 0.076000 0.091000
1517160622448696492	1500 79 1.200000 0.780000 1.004000 1600 67 1.100000 4.023000 4.714000 600 84 1.000000 0.058000 0.058000 1.200000 0.077000 0.093000
1517160622992639450	1500 79 1.200000 0.798000 1.027000 1600 67 1.100000 3.930000 4.566000 600 84 1.000000 0.058000 0.058000 1.200000 0.067000 0.080000
1517160623552751700	1500 79 1.200000 0.810000 1.043000 1600 67 1.100000 3.879000 4.519000 600 83 1.000000 0.058000 0.058000 1.200000 0.069000 0.083000
1517160624116674700	1500 78 1.200000 0.784000 1.009000 1600 67 1.100000 3.938000 4.595000 600 83 1.000000 0.058000 0.058000 1.200000 0.068000 0.082000
1517160624664759492	1500 79 1.200000 0.788000 1.014000 1600 67 1.100000 3.981000 4.657000 600 83 1.000000 0.058000 0.058000 1.200000 0.080000 0.096000
1517160625220713075	1500 78 1.200000 0.766000 0.988000 1600 67 1.100000 4.001000 4.689000 600 83 1.000000 0.058000 0.058000 1.200000 0.092000 0.111000
1517160625764600867	1500 79 1.200000 0.773000 0.995000 1700 67 1.100000 4.031000 4.736000 600 84 1.000000 0.058000 0.058000 1.200000 0.080000 0.096000
1517160626320740367	1500 79 1.200000 0.777000 1.000000 1700 67 1.100000 4.108000 4.839000 600 84 1.000000 0.058000 0.058000 1.200000 0.083000 0.100000
1517160626888667575	1500 79 1.200000 0.764000 0.984000 1700 67 1.100000 4.004000 4.724000 600 84 1.000000 0.058000 0.058000 1.200000 0.098000 0.118000
1517160627452570950	1500 80 1.200000 0.781000 1.005000 1700 67 1.100000 4.059000 4.797000 600 85 1.000000 0.058000 0.058000 1.200000 0.080000 0.096000
1517160628004569284	1500 80 1.200000 0.791000 1.018000 1700 67 1.100000 3.760000 4.312000 600 85 1.000000 0.058000 0.058000 1.200000 0.075000 0.090000
1517160628564753617	1500 80 1.200000 0.797000 1.026000 1700 67 1.100000 3.784000 4.344000 600 85 1.000000 0.058000 0.058000 1.200000 0.066000 0.079000
1517160629112609576	1500 79 1.200000 0.760000 0.980000 1600 67 1.100000 3.825000 4.410000 600 84 1.000000 0.058000 0.058000 1.200000 0.091000 0.110000
1517160629668858576	1500 79 1.200000 0.750000 0.967000 1600 67 1.100000 3.760000 4.342000 600 84 1.000000 0.058000 0.058000 1.200000 0.101000 0.122000
1517160630220722701	1500 79 1.200000 0.756000 0.975000 1600 67 1.100000 3.674000 4.250000 600 84 1.000000 0.058000 0.058000 1.200000 0.131000 0.158000
1517160630788727534	1500 79 1.200000 0.765000 0.985000 1600 67 1.100000 3.735000 4.302000 600 84 1.000000 0.058000 0.058000 1.200000 0.099000 0.119000
1517160631344641784	1500 79 1.200000 0.780000 1.004000 1600 67 1.100000 3.810000 4.400000 600 83 1.000000 0.058000 0.058000 1.200000 0.087000 0.105000
1517160631920592618	1500 78 1.200000 0.800000 1.030000 1600 67 1.100000 3.845000 4.448000 600 83 1.000000 0.058000 0.058000 1.200000 0.073000 0.088000
1517160632472704368	1500 79 1.200000 0.784000 1.009000 1600 67 1.100000 3.890000 4.539000 600 83 1.000000 0.058000 0.058000 1.200000 0.094000 0.113000
1517160633020596826	1500 78 1.200000 0.785000 1.011000 1700 67 1.100000 3.978000 4.642000 600 83 1.000000 0.058000 0.058000 1.200000 0.090000 0.108000
1517160633584616285	1500 80 1.200000 0.770000 0.991000 1700 67 1.100000 3.904000 4.516000 600 84 1.000000 0.058000 0.058000 1.200000 0.085000 0.102000
1517160634140616451	1500 80 1.200000 0.802000 1.032000 1700 67 1.100000 3.865000 4.456000 600 84 1.000000 0.057000 0.057000 1.200000 0.071000 0.085000
1517160634701163535	1500 79 1.200000 0.784000 1.009000 1700 67 1.100000 3.863000 4.450000 600 85 1.000000 0.058000 0.058000 1.200000 0.064000 0.077000
1517160635256569535	1500 79 1.200000 0.793000 1.021000 1700 67 1.100000 3.744000 4.305000 600 85 1.000000 0.058000 0.058000 1.200000 0.089000 0.107000
1517160635761570910	1500 65 1.200000 0.786000 1.012000 1800 62 1.100000 2.704000 3.104000 600 71 1.000000 0.058000 0.058000 1.200000 0.077000 0.093000
1517160636265976160	1500 61 1.300000 0.111000 0.145000 2000 59 1.200000 0.406000 0.495000 600 66 1.000000 0.057000 0.057000 1.200000 0.024000 0.028000
