TimestampMillisecs	[VirtualCores]	Workers	HT	Frequency	ClockModulation	CurrentThroughput	SmoothedThroughput	CoeffVarThroughput	SmoothedLatency	SmoothedUtilization	CurrentWatts	SmoothedWatts	
1439.19	[0,1,2,3,|4,5,6,7,|]	4|4|	1|1|	200000|400000|	100|100|	1.0026e+06	1.0026e+06	0	0	0	3.24108	3.24108	
2731.76	[0,1,2,|4,5,6,|]	3|3|	1|1|	400000|400000|	100|100|	1.50342e+06	1.50342e+06	0	0	0	3.25832	3.25832	
4049.7	[0,1,|4,5,6,|]	2|3|	1|1|	200000|400000|	100|100|	495907	495907	0	13537.8	67.3426	3.15295	3.15295	
5385.7	[0,1,2,|4,5,6,|]	3|3|	1|1|	200000|600000|	100|100|	749682	749682	0	0	0	3.3089	3.3089	
6702.75	[0,1,2,|4,5,|]	3|2|	1|1|	200000|200000|	100|100|	736282	736282	0	0	0	3.15674	3.15674	
8062.67	[0,1,2,|4,5,6,|]	3|3|	1|1|	200000|400000|	100|100|	745705	745705	0	0	0	3.16713	3.16713	
9433.31	[0,1,2,|4,5,|]	3|2|	1|1|	200000|300000|	100|100|	742392	742392	0	0	0	3.23284	3.23284	
10759.1	[0,1,2,|4,5,6,7,|]	3|4|	1|1|	300000|600000|	100|100|	1.13523e+06	1.13523e+06	0	0	0	3.223	3.223	
12059	[0,1,2,3,|4,5,6,7,|]	4|4|	1|1|	300000|600000|	100|100|	1.53387e+06	1.53387e+06	0	0	0	3.25428	3.25428	
13393	[0,1,2,|4,5,6,7,|]	3|4|	1|1|	400000|400000|	100|100|	1.52415e+06	1.52415e+06	0	0	0	3.24625	3.24625	
14727.7	[0,1,2,|4,5,6,|]	3|3|	1|1|	300000|400000|	100|100|	1.14615e+06	1.14615e+06	0	0	0	3.18792	3.18792	
16052.5	[0,1,2,3,|4,5,6,|]	4|3|	1|1|	400000|300000|	100|100|	1.92608e+06	1.92608e+06	0	0	0	3.25525	3.25525	
17370.1	[0,1,2,3,|4,5,6,7,|]	4|4|	1|1|	500000|400000|	100|100|	3.57683e+06	3.57683e+06	0	0	0	3.3755	3.3755	
18672.1	[0,1,2,3,|4,5,6,|]	4|3|	1|1|	400000|400000|	100|100|	2.03953e+06	2.03953e+06	0	0	0	3.31552	3.31552	
19996.4	[0,1,2,3,|4,5,6,7,|]	4|4|	1|1|	400000|400000|	100|100|	2.04342e+06	2.04342e+06	0	0	0	3.28736	3.28736	
21307.8	[0,1,2,3,|4,5,6,7,|]	4|4|	1|1|	400000|500000|	100|100|	3.78482e+06	3.78482e+06	0	0	0	3.29102	3.29102	
22615.3	[0,1,2,|4,5,6,7,|]	3|4|	1|1|	400000|500000|	100|100|	1.53237e+06	1.53237e+06	0	0	0	3.25828	3.25828	
23927.8	[0,1,2,3,|4,5,6,|]	4|3|	1|1|	400000|400000|	100|100|	2.04335e+06	2.04335e+06	0	0	0	3.27184	3.27184	
25240.5	[0,1,2,3,|4,5,6,7,|]	4|4|	1|1|	400000|400000|	100|100|	2.18377e+06	2.18377e+06	0	0	0	3.27711	3.27711	
26539.4	[0,1,2,3,|4,5,6,7,|]	4|4|	1|1|	400000|500000|	100|100|	2.05072e+06	2.05072e+06	0	0	0	4.09628	4.09628	
27579.6	[0,1,2,3,|4,5,6,7,|]	4|4|	1|1|	400000|500000|	100|100|	2.03136e+06	2.04104e+06	0.474341	0	0	3.27479	3.68553	
28858.9	[0,1,2,3,|4,5,6,7,|]	4|4|	1|1|	400000|400000|	100|100|	2.04865e+06	2.04865e+06	0	0	0	3.26363	3.26363	
30164.1	[0,1,2,3,|4,5,6,7,|]	4|4|	1|1|	400000|500000|	100|100|	3.24058e+06	3.24058e+06	0	0	0	3.27892	3.27892	
31463.3	[0,1,2,3,|4,5,6,|]	4|3|	1|1|	400000|400000|	100|100|	2.03988e+06	2.03988e+06	0	0	0	3.96815	3.96815	
32747.6	[0,1,2,3,|4,5,6,7,|]	4|4|	1|1|	400000|400000|	100|100|	2.04059e+06	2.04059e+06	0	0	0	3.28064	3.28064	
33781.8	[0,1,2,3,|4,5,6,7,|]	4|4|	1|1|	400000|400000|	100|100|	2.03408e+06	2.03733e+06	0.159708	0	0	3.26293	3.27178	
35055.3	[0,1,2,3,|4,5,6,7,|]	4|4|	1|1|	400000|500000|	100|100|	5.63845e+06	5.63845e+06	0	0	0	4.04095	4.04095	
36083.4	[0,1,2,3,|4,5,6,7,|]	4|4|	1|1|	400000|500000|	100|100|	5.61881e+06	5.62863e+06	0.174465	0	0	4.03783	4.03939	
37422.9	[0,1,2,3,|4,5,6,7,|]	4|4|	1|1|	400000|400000|	100|100|	2.03835e+06	2.03835e+06	0	0	0	3.29687	3.29687	
38705.8	[0,1,2,3,|4,5,6,7,|]	4|4|	1|1|	400000|500000|	100|100|	2.05133e+06	2.05133e+06	0	0	0	3.30053	3.30053	
40015.5	[0,1,2,3,|4,5,6,7,|]	4|4|	1|1|	300000|500000|	100|100|	2.2615e+06	2.2615e+06	0	0	0	3.24158	3.24158	
41066.8	[0,1,2,3,|4,5,6,7,|]	4|4|	1|1|	300000|500000|	100|100|	5.61173e+06	3.93662e+06	42.5521	0	0	4.03076	3.63617	
42383.3	[0,1,2,3,|4,5,6,7,|]	4|4|	1|1|	400000|400000|	100|100|	2.03463e+06	2.03463e+06	0	0	0	3.41994	3.41994	
43688.3	[0,1,2,3,|4,5,6,7,|]	4|4|	1|1|	400000|500000|	100|100|	2.05164e+06	2.05164e+06	0	0	0	3.28108	3.28108	
44734.6	[0,1,2,3,|4,5,6,7,|]	4|4|	1|1|	400000|500000|	100|100|	2.04061e+06	2.04612e+06	0.269467	0	0	3.27078	3.27593	
45759.1	[0,1,2,3,|4,5,6,7,|]	4|4|	1|1|	400000|500000|	100|100|	2.04509e+06	2.0456e+06	0.19227	0	0	3.28114	3.27853	
46787.5	[0,1,2,3,|4,5,6,7,|]	4|4|	1|1|	400000|500000|	100|100|	2.04729e+06	2.04645e+06	0.142025	0	0	3.28496	3.28175	
47807.9	[0,1,2,3,|4,5,6,7,|]	4|4|	1|1|	400000|500000|	100|100|	3.69584e+06	2.87114e+06	28.7237	0	0	3.63965	3.4607	
48835.9	[0,1,2,3,|4,5,6,7,|]	4|4|	1|1|	400000|500000|	100|100|	5.65021e+06	4.26068e+06	35.3685	0	0	4.03119	3.74594	
49870	[0,1,2,3,|4,5,6,7,|]	4|4|	1|1|	400000|500000|	100|100|	5.9851e+06	5.12289e+06	26.7566	0	0	4.06858	3.90726	
51192.1	[0,1,2,3,|4,5,6,7,|]	4|4|	1|1|	400000|400000|	100|100|	2.03726e+06	2.03726e+06	0	0	0	3.27289	3.27289	
52473.7	[0,1,2,3,|4,5,6,7,|]	4|4|	1|1|	400000|500000|	100|100|	2.48794e+06	2.48794e+06	0	0	0	3.34493	3.34493	
53523.5	[0,1,2,3,|4,5,6,7,|]	4|4|	1|1|	400000|500000|	100|100|	6.13025e+06	4.3091e+06	42.263	0	0	3.47124	3.40808	
54571.8	[0,1,2,3,|4,5,6,7,|]	4|4|	1|1|	400000|500000|	100|100|	6.12029e+06	5.21469e+06	30.1896	0	0	4.06392	3.736	
55613.9	[0,1,2,3,|4,5,6,7,|]	4|4|	1|1|	400000|500000|	100|100|	6.11083e+06	5.66276e+06	21.1908	0	0	4.06533	3.90067	
56638.6	[0,1,2,3,|4,5,6,7,|]	4|4|	1|1|	400000|500000|	100|100|	6.05586e+06	5.85931e+06	14.865	0	0	4.06942	3.98504	
57690.1	[0,1,2,3,|4,5,6,7,|]	4|4|	1|1|	400000|500000|	100|100|	6.08315e+06	5.97123e+06	10.483	0	0	4.07123	4.02813	
58715	[0,1,2,3,|4,5,6,7,|]	4|4|	1|1|	400000|500000|	100|100|	6.10085e+06	6.03604e+06	7.41123	0	0	4.08426	4.0562	
59762.9	[0,1,2,3,|4,5,6,7,|]	4|4|	1|1|	400000|500000|	100|100|	6.09704e+06	6.06654e+06	5.23836	0	0	4.07638	4.06629	
60788.3	[0,1,2,3,|4,5,6,7,|]	4|4|	1|1|	400000|500000|	100|100|	6.1042e+06	6.08537e+06	3.70556	0	0	4.08667	4.07648	
61841	[0,1,2,3,|4,5,6,7,|]	4|4|	1|1|	400000|500000|	100|100|	6.08613e+06	6.08575e+06	2.62007	0	0	4.07715	4.07682	
62882.9	[0,1,2,3,|4,5,6,7,|]	4|4|	1|1|	400000|500000|	100|100|	6.09628e+06	6.09102e+06	1.85309	0	0	4.08458	4.0807	
63935.6	[0,1,2,3,|4,5,6,7,|]	4|4|	1|1|	400000|500000|	100|100|	6.0863e+06	6.08866e+06	1.31141	0	0	4.08102	4.08086	
65015.9	[0,1,2,3,|4,5,6,7,|]	4|4|	1|1|	400000|500000|	100|100|	6.08713e+06	6.08789e+06	0.927508	0	0	4.07201	4.07644	
66098.2	[0,1,2,3,|4,5,6,7,|]	4|4|	1|1|	400000|500000|	100|100|	6.08292e+06	6.08541e+06	0.657386	0	0	4.07898	4.07771	
67150.6	[0,1,2,3,|4,5,6,7,|]	4|4|	1|1|	400000|500000|	100|100|	6.09071e+06	6.08806e+06	0.466679	0	0	4.08603	4.08187	
68232.6	[0,1,2,3,|4,5,6,7,|]	4|4|	1|1|	400000|500000|	100|100|	6.09713e+06	6.0926e+06	0.33805	0	0	4.08858	4.08523	
69301	[0,1,2,3,|4,5,6,7,|]	4|4|	1|1|	400000|500000|	100|100|	6.08907e+06	6.09083e+06	0.240853	0	0	4.08199	4.08361	
70355.2	[0,1,2,3,|4,5,6,7,|]	4|4|	1|1|	400000|500000|	100|100|	6.09199e+06	6.09141e+06	0.170557	0	0	4.08349	4.08355	
71409.1	[0,1,2,3,|4,5,6,7,|]	4|4|	1|1|	400000|500000|	100|100|	6.08756e+06	6.08949e+06	0.124708	0	0	4.08036	4.08195	
72435.8	[0,1,2,3,|4,5,6,7,|]	4|4|	1|1|	400000|500000|	100|100|	6.09706e+06	6.09327e+06	0.107822	0	0	4.09293	4.08744	
73490.9	[0,1,2,3,|4,5,6,7,|]	4|4|	1|1|	400000|500000|	100|100|	6.08697e+06	6.09012e+06	0.0921772	0	0	4.07271	4.08008	
74534.1	[0,1,2,3,|4,5,6,7,|]	4|4|	1|1|	400000|500000|	100|100|	6.0939e+06	6.09201e+06	0.0721693	0	0	4.07513	4.07761	
75590.2	[0,1,2,3,|4,5,6,7,|]	4|4|	1|1|	400000|500000|	100|100|	6.084e+06	6.08801e+06	0.0832834	0	0	4.07961	4.07861	
76634	[0,1,2,3,|4,5,6,7,|]	4|4|	1|1|	400000|500000|	100|100|	6.11435e+06	6.10118e+06	0.22375	0	0	4.0731	4.07585	
77691.4	[0,1,2,3,|4,5,6,7,|]	4|4|	1|1|	400000|500000|	100|100|	6.08601e+06	6.09359e+06	0.201461	0	0	4.09012	4.08299	
78748	[0,1,2,3,|4,5,6,7,|]	4|4|	1|1|	400000|500000|	100|100|	6.09029e+06	6.09194e+06	0.14505	0	0	4.07793	4.08046	
79792.1	[0,1,2,3,|4,5,6,7,|]	4|4|	1|1|	400000|500000|	100|100|	6.08992e+06	6.09093e+06	0.103919	0	0	4.08349	4.08197	
80842.6	[0,1,2,3,|4,5,6,7,|]	4|4|	1|1|	400000|500000|	100|100|	6.08798e+06	6.08946e+06	0.0773906	0	0	4.08185	4.08191	
81862.5	[0,1,2,3,|4,5,6,7,|]	4|4|	1|1|	400000|500000|	100|100|	6.09242e+06	6.09094e+06	0.0598886	0	0	4.08434	4.08313	
82882.5	[0,1,2,3,|4,5,6,7,|]	4|4|	1|1|	400000|500000|	100|100|	6.10987e+06	6.1004e+06	0.160787	0	0	4.0838	4.08346	
83906.6	[0,1,2,3,|4,5,6,7,|]	4|4|	1|1|	400000|500000|	100|100|	6.10689e+06	6.10365e+06	0.125449	0	0	4.0731	4.07828	
84951	[0,1,2,3,|4,5,6,7,|]	4|4|	1|1|	400000|500000|	100|100|	6.09551e+06	6.09958e+06	0.111012	0	0	4.07429	4.07628	
86008.3	[0,1,2,3,|4,5,6,7,|]	4|4|	1|1|	400000|500000|	100|100|	6.08239e+06	6.09099e+06	0.161501	0	0	4.08696	4.08162	
87049.9	[0,1,2,3,|4,5,6,7,|]	4|4|	1|1|	400000|500000|	100|100|	6.09508e+06	6.09303e+06	0.118992	0	0	4.07769	4.07966	
88110	[0,1,2,3,|4,5,6,7,|]	4|4|	1|1|	400000|500000|	100|100|	6.08868e+06	6.09086e+06	0.0914381	0	0	4.07281	4.07623	
89155.1	[0,1,2,3,|4,5,6,7,|]	4|4|	1|1|	400000|500000|	100|100|	6.09582e+06	6.09334e+06	0.0763844	0	0	4.07207	4.07415	
90231.8	[0,1,2,3,|4,5,6,7,|]	4|4|	1|1|	400000|500000|	100|100|	6.08964e+06	6.09149e+06	0.0619596	0	0	4.07756	4.07586	
91277.8	[0,1,2,3,|4,5,6,7,|]	4|4|	1|1|	400000|500000|	100|100|	6.10222e+06	6.09685e+06	0.0982794	0	0	4.08393	4.0799	
92355.1	[0,1,2,3,|4,5,6,7,|]	4|4|	1|1|	400000|500000|	100|100|	6.0884e+06	6.09263e+06	0.0982504	0	0	4.06752	4.07371	
93401.3	[0,1,2,3,|4,5,6,7,|]	4|4|	1|1|	400000|500000|	100|100|	6.08593e+06	6.08928e+06	0.0886102	0	0	4.08807	4.08089	
94454.5	[0,1,2,3,|4,5,6,7,|]	4|4|	1|1|	400000|500000|	100|100|	6.08845e+06	6.08886e+06	0.0630324	0	0	4.09453	4.08771	
95475.2	[0,1,2,3,|4,5,6,7,|]	4|4|	1|1|	400000|500000|	100|100|	6.08893e+06	6.0889e+06	0.0445736	0	0	4.07304	4.08038	
96496.2	[0,1,2,3,|4,5,6,7,|]	4|4|	1|1|	400000|500000|	100|100|	6.098e+06	6.09345e+06	0.0810562	0	0	4.09579	4.08809	
97521.9	[0,1,2,3,|4,5,6,7,|]	4|4|	1|1|	400000|500000|	100|100|	6.1095e+06	6.10147e+06	0.143462	0	0	4.07835	4.08322	
98567.3	[0,1,2,3,|4,5,6,7,|]	4|4|	1|1|	400000|500000|	100|100|	6.09159e+06	6.09653e+06	0.129898	0	0	4.09343	4.08832	
99629.7	[0,1,2,3,|4,5,6,7,|]	4|4|	1|1|	400000|500000|	100|100|	6.08313e+06	6.08983e+06	0.143425	0	0	4.0952	4.09176	
100678	[0,1,2,3,|4,5,6,7,|]	4|4|	1|1|	400000|500000|	100|100|	6.09373e+06	6.09178e+06	0.106323	0	0	4.06969	4.08072	
101757	[0,1,2,3,|4,5,6,7,|]	4|4|	1|1|	400000|500000|	100|100|	6.0814e+06	6.08659e+06	0.113715	0	0	4.08401	4.08237	
102807	[0,1,2,3,|4,5,6,7,|]	4|4|	1|1|	400000|500000|	100|100|	6.09176e+06	6.08918e+06	0.0909027	0	0	4.0749	4.07863	
103862	[0,1,2,3,|4,5,6,7,|]	4|4|	1|1|	400000|500000|	100|100|	6.08797e+06	6.08858e+06	0.0650398	0	0	4.07149	4.07506	
104883	[0,1,2,3,|4,5,6,7,|]	4|4|	1|1|	400000|500000|	100|100|	6.1159e+06	6.10224e+06	0.228528	0	0	4.09876	4.08691	
105905	[0,1,2,3,|4,5,6,7,|]	4|4|	1|1|	400000|500000|	100|100|	6.09067e+06	6.09645e+06	0.187508	0	0	4.0857	4.08631	
106947	[0,1,2,3,|4,5,6,7,|]	4|4|	1|1|	400000|500000|	100|100|	6.09383e+06	6.09514e+06	0.134347	0	0	4.09424	4.09027	
107995	[0,1,2,3,|4,5,6,7,|]	4|4|	1|1|	400000|500000|	100|100|	6.09282e+06	6.09398e+06	0.0969189	0	0	4.08555	4.08791	
109043	[0,1,2,3,|4,5,6,7,|]	4|4|	1|1|	400000|500000|	100|100|	6.09057e+06	6.09227e+06	0.0740452	0	0	4.0759	4.0819	
110124	[0,1,2,3,|4,5,6,7,|]	4|4|	1|1|	400000|500000|	100|100|	6.08154e+06	6.08691e+06	0.102582	0	0	4.07885	4.08038	
111173	[0,1,2,3,|4,5,6,7,|]	4|4|	1|1|	400000|500000|	100|100|	6.09121e+06	6.08906e+06	0.0806677	0	0	4.08932	4.08485	
112246	[0,1,2,3,|4,5,6,7,|]	4|4|	1|1|	400000|500000|	100|100|	6.10046e+06	6.09476e+06	0.109538	0	0	4.08822	4.08654	
113269	[0,1,2,3,|4,5,6,7,|]	4|4|	1|1|	400000|500000|	100|100|	6.10037e+06	6.09756e+06	0.090033	0	0	4.07436	4.08045	
114291	[0,1,2,3,|4,5,6,7,|]	4|4|	1|1|	400000|500000|	100|100|	6.08862e+06	6.09309e+06	0.0972001	0	0	4.08243	4.08144	
115316	[0,1,2,3,|4,5,6,7,|]	4|4|	1|1|	400000|500000|	100|100|	6.09504e+06	6.09407e+06	0.0705642	0	0	4.0846	4.08302	
116365	[0,1,2,3,|4,5,6,7,|]	4|4|	1|1|	400000|500000|	100|100|	6.08905e+06	6.09156e+06	0.0647138	0	0	4.08066	4.08184	
117414	[0,1,2,3,|4,5,6,7,|]	4|4|	1|1|	400000|500000|	100|100|	6.09506e+06	6.09331e+06	0.0540178	0	0	4.09153	4.08668	
118503	[0,1,2,3,|4,5,6,7,|]	4|4|	1|1|	400000|500000|	100|100|	6.08035e+06	6.08683e+06	0.113134	0	0	4.09763	4.09216	
119537	[0,1,2,3,|4,5,6,7,|]	4|4|	1|1|	400000|500000|	100|100|	6.10562e+06	6.09623e+06	0.173625	0	0	4.09018	4.09117	
120618	[0,1,2,3,|4,5,6,7,|]	4|4|	1|1|	400000|500000|	100|100|	6.07944e+06	6.08783e+06	0.184732	0	0	4.09535	4.09326	
121668	[0,1,2,3,|4,5,6,7,|]	4|4|	1|1|	400000|500000|	100|100|	6.08957e+06	6.0887e+06	0.131388	0	0	4.09594	4.0946	
122743	[0,1,2,3,|4,5,6,7,|]	4|4|	1|1|	400000|500000|	100|100|	6.09213e+06	6.09042e+06	0.097053	0	0	4.08066	4.08763	
123765	[0,1,2,3,|4,5,6,7,|]	4|4|	1|1|	400000|500000|	100|100|	6.0911e+06	6.09076e+06	0.068852	0	0	4.07379	4.08071	
124789	[0,1,2,3,|4,5,6,7,|]	4|4|	1|1|	400000|500000|	100|100|	6.0946e+06	6.09268e+06	0.0579936	0	0	4.06719	4.07395	
125833	[0,1,2,3,|4,5,6,7,|]	4|4|	1|1|	400000|500000|	100|100|	6.10274e+06	6.09771e+06	0.092076	0	0	4.08343	4.07869	
126883	[0,1,2,3,|4,5,6,7,|]	4|4|	1|1|	400000|500000|	100|100|	6.09357e+06	6.09564e+06	0.0734288	0	0	4.08341	4.08105	
127967	[0,1,2,3,|4,5,6,7,|]	4|4|	1|1|	400000|500000|	100|100|	6.0836e+06	6.08962e+06	0.11169	0	0	4.0742	4.07763	
129018	[0,1,2,3,|4,5,6,7,|]	4|4|	1|1|	400000|500000|	100|100|	6.08837e+06	6.08899e+06	0.0796551	0	0	4.08143	4.07953	
130090	[0,1,2,3,|4,5,6,7,|]	4|4|	1|1|	400000|500000|	100|100|	6.08103e+06	6.08501e+06	0.0863474	0	0	4.09981	4.08967	
131114	[0,1,2,3,|4,5,6,7,|]	4|4|	1|1|	400000|500000|	100|100|	6.09458e+06	6.0898e+06	0.0994882	0	0	4.08973	4.0897	
132154	[0,1,2,3,|4,5,6,7,|]	4|4|	1|1|	400000|500000|	100|100|	6.09703e+06	6.09341e+06	0.0920014	0	0	4.07715	4.08343	
133198	[0,1,2,3,|4,5,6,7,|]	4|4|	1|1|	400000|500000|	100|100|	6.10515e+06	6.09928e+06	0.116077	0	0	4.09258	4.088	
134249	[0,1,2,3,|4,5,6,7,|]	4|4|	1|1|	400000|500000|	100|100|	6.09593e+06	6.0976e+06	0.0865787	0	0	4.06707	4.07754	
135335	[0,1,2,3,|4,5,6,7,|]	4|4|	1|1|	400000|500000|	100|100|	6.08657e+06	6.09209e+06	0.109331	0	0	4.07685	4.07719	
136386	[0,1,2,3,|4,5,6,7,|]	4|4|	1|1|	400000|500000|	100|100|	6.08869e+06	6.09039e+06	0.0822123	0	0	4.07414	4.07567	
137474	[0,1,2,3,|4,5,6,7,|]	4|4|	1|1|	400000|500000|	100|100|	6.08617e+06	6.08828e+06	0.0676765	0	0	4.07392	4.07479	
138526	[0,1,2,3,|4,5,6,7,|]	4|4|	1|1|	400000|500000|	100|100|	6.08401e+06	6.08615e+06	0.0593337	0	0	4.07755	4.07617	
139603	[0,1,2,3,|4,5,6,7,|]	4|4|	1|1|	400000|500000|	100|100|	6.08598e+06	6.08606e+06	0.0419781	0	0	4.09528	4.08573	
140627	[0,1,2,3,|4,5,6,7,|]	4|4|	1|1|	400000|500000|	100|100|	6.09361e+06	6.08984e+06	0.0686832	0	0	4.07961	4.08267	
141651	[0,1,2,3,|4,5,6,7,|]	4|4|	1|1|	400000|500000|	100|100|	6.10488e+06	6.09736e+06	0.132553	0	0	4.10188	4.09227	
142698	[0,1,2,3,|4,5,6,7,|]	4|4|	1|1|	400000|500000|	100|100|	6.09013e+06	6.09374e+06	0.110972	0	0	4.0906	4.09144	
143751	[0,1,2,3,|4,5,6,7,|]	4|4|	1|1|	400000|500000|	100|100|	6.08978e+06	6.09176e+06	0.0849541	0	0	4.07954	4.08549	
144838	[0,1,2,3,|4,5,6,7,|]	4|4|	1|1|	400000|500000|	100|100|	6.08633e+06	6.08905e+06	0.0748405	0	0	4.08057	4.08303	
145890	[0,1,2,3,|4,5,6,7,|]	4|4|	1|1|	400000|500000|	100|100|	6.08e+06	6.08452e+06	0.0912901	0	0	4.09681	4.08992	
146970	[0,1,2,3,|4,5,6,7,|]	4|4|	1|1|	400000|500000|	100|100|	6.0869e+06	6.08571e+06	0.0674307	0	0	4.10121	4.09557	
148011	[0,1,2,3,|4,5,6,7,|]	4|4|	1|1|	400000|500000|	100|100|	6.09471e+06	6.09021e+06	0.0878641	0	0	4.07337	4.08447	
149035	[0,1,2,3,|4,5,6,7,|]	4|4|	1|1|	400000|500000|	100|100|	6.09243e+06	6.09132e+06	0.0647352	0	0	4.07745	4.08096	
150082	[0,1,2,3,|4,5,6,7,|]	4|4|	1|1|	400000|500000|	100|100|	6.10572e+06	6.09852e+06	0.126612	0	0	4.07633	4.07865	
151135	[0,1,2,3,|4,5,6,7,|]	4|4|	1|1|	400000|500000|	100|100|	6.09121e+06	6.09487e+06	0.107793	0	0	4.07307	4.07586	
152224	[0,1,2,3,|4,5,6,7,|]	4|4|	1|1|	400000|500000|	100|100|	6.08193e+06	6.0884e+06	0.130794	0	0	4.09879	4.08732	
153266	[0,1,2,3,|4,5,6,7,|]	4|4|	1|1|	400000|500000|	100|100|	6.08797e+06	6.08818e+06	0.0925562	0	0	4.09387	4.0906	
154347	[0,1,2,3,|4,5,6,7,|]	4|4|	1|1|	400000|500000|	100|100|	6.08268e+06	6.08543e+06	0.079586	0	0	4.08315	4.08688	
155372	[0,1,2,3,|4,5,6,7,|]	4|4|	1|1|	400000|500000|	100|100|	6.09681e+06	6.09112e+06	0.109043	0	0	4.07185	4.07936	
156398	[0,1,2,3,|4,5,6,7,|]	4|4|	1|1|	400000|500000|	100|100|	6.09353e+06	6.09232e+06	0.0795858	0	0	4.0742	4.07678	
157429	[0,1,2,3,|4,5,6,7,|]	4|4|	1|1|	400000|500000|	100|100|	6.10733e+06	6.09983e+06	0.135245	0	0	4.08236	4.07957	
158483	[0,1,2,3,|4,5,6,7,|]	4|4|	1|1|	400000|500000|	100|100|	6.08723e+06	6.09353e+06	0.140904	0	0	4.08633	4.08295	
159575	[0,1,2,3,|4,5,6,7,|]	4|4|	1|1|	400000|500000|	100|100|	6.08119e+06	6.08736e+06	0.142185	0	0	4.07644	4.07969	
160629	[0,1,2,3,|4,5,6,7,|]	4|4|	1|1|	400000|500000|	100|100|	6.08891e+06	6.08813e+06	0.101327	0	0	4.07507	4.07738	
161685	[0,1,2,3,|4,5,6,7,|]	4|4|	1|1|	400000|500000|	100|100|	6.09089e+06	6.08951e+06	0.0751133	0	0	4.07493	4.07616	
162698	[0,1,2,3,|4,5,6,7,|]	4|4|	1|1|	400000|500000|	100|100|	6.09395e+06	6.09173e+06	0.0643835	0	0	4.0842	4.08018	
163712	[0,1,2,3,|4,5,6,7,|]	4|4|	1|1|	400000|500000|	100|100|	6.10446e+06	6.09809e+06	0.113868	0	0	4.09501	4.08759	
164725	[0,1,2,3,|4,5,6,7,|]	4|4|	1|1|	400000|500000|	100|100|	6.11571e+06	6.1069e+06	0.165132	0	0	4.08993	4.08876	
165739	[0,1,2,3,|4,5,6,7,|]	4|4|	1|1|	400000|500000|	100|100|	6.09897e+06	6.10293e+06	0.133711	0	0	4.09433	4.09155	
166752	[0,1,2,3,|4,5,6,7,|]	4|4|	1|1|	400000|500000|	100|100|	6.09481e+06	6.09887e+06	0.115687	0	0	4.0825	4.08702	
167766	[0,1,2,3,|4,5,6,7,|]	4|4|	1|1|	400000|500000|	100|100|	6.09977e+06	6.09932e+06	0.0821288	0	0	4.07795	4.08249	
168779	[0,1,2,3,|4,5,6,7,|]	4|4|	1|1|	400000|500000|	100|100|	6.10784e+06	6.10358e+06	0.0907241	0	0	4.08251	4.0825	
169792	[0,1,2,3,|4,5,6,7,|]	4|4|	1|1|	400000|500000|	100|100|	6.11706e+06	6.11032e+06	0.1276	0	0	4.07873	4.08062	
170806	[0,1,2,3,|4,5,6,7,|]	4|4|	1|1|	400000|500000|	100|100|	6.09331e+06	6.10182e+06	0.1661	0	0	4.09389	4.08725	
171819	[0,1,2,3,|4,5,6,7,|]	4|4|	1|1|	400000|500000|	100|100|	6.09894e+06	6.10038e+06	0.119824	0	0	4.09047	4.08886	
172832	[0,1,2,3,|4,5,6,7,|]	4|4|	1|1|	400000|500000|	100|100|	6.09073e+06	6.09556e+06	0.115972	0	0	4.07864	4.08375	
173846	[0,1,2,3,|4,5,6,7,|]	4|4|	1|1|	400000|500000|	100|100|	6.10554e+06	6.10055e+06	0.115817	0	0	4.08557	4.08466	
174859	[0,1,2,3,|4,5,6,7,|]	4|4|	1|1|	400000|500000|	100|100|	6.10625e+06	6.1034e+06	0.0942477	0	0	4.09488	4.08977	
175873	[0,1,2,3,|4,5,6,7,|]	4|4|	1|1|	400000|500000|	100|100|	6.10006e+06	6.10173e+06	0.0720556	0	0	4.0906	4.09018	
176886	[0,1,2,3,|4,5,6,7,|]	4|4|	1|1|	400000|500000|	100|100|	6.10192e+06	6.10182e+06	0.0509732	0	0	4.0859	4.08804	
177899	[0,1,2,3,|4,5,6,7,|]	4|4|	1|1|	400000|500000|	100|100|	6.09772e+06	6.09977e+06	0.0493424	0	0	4.08702	4.08753	
178913	[0,1,2,3,|4,5,6,7,|]	4|4|	1|1|	400000|500000|	100|100|	6.10701e+06	6.10339e+06	0.0687961	0	0	4.07439	4.08096	
179926	[0,1,2,3,|4,5,6,7,|]	4|4|	1|1|	400000|500000|	100|100|	6.11169e+06	6.10754e+06	0.0835163	0	0	4.08245	4.08171	
180940	[0,1,2,3,|4,5,6,7,|]	4|4|	1|1|	400000|500000|	100|100|	6.10011e+06	6.10382e+06	0.0848016	0	0	4.07187	4.07679	
181953	[0,1,2,3,|4,5,6,7,|]	4|4|	1|1|	400000|500000|	100|100|	6.10103e+06	6.10243e+06	0.0642079	0	0	4.07432	4.07556	
182967	[0,1,2,3,|4,5,6,7,|]	4|4|	1|1|	400000|500000|	100|100|	6.0914e+06	6.09691e+06	0.101204	0	0	4.08102	4.07829	
183983	[0,1,2,3,|4,5,6,7,|]	4|4|	1|1|	400000|500000|	100|100|	6.1076e+06	6.10226e+06	0.113049	0	0	4.08692	4.0826	
184996	[0,1,2,3,|4,5,6,7,|]	4|4|	1|1|	400000|500000|	100|100|	6.10452e+06	6.10339e+06	0.0820516	0	0	4.09104	4.08682	
186010	[0,1,2,3,|4,5,6,7,|]	4|4|	1|1|	400000|500000|	100|100|	6.0909e+06	6.09715e+06	0.117718	0	0	4.07791	4.08237	
187023	[0,1,2,3,|4,5,6,7,|]	4|4|	1|1|	400000|500000|	100|100|	6.10013e+06	6.09864e+06	0.0867289	0	0	4.07899	4.08068	
188036	[0,1,2,3,|4,5,6,7,|]	4|4|	1|1|	400000|500000|	100|100|	6.0966e+06	6.09762e+06	0.063566	0	0	4.095	4.08784	
189050	[0,1,2,3,|4,5,6,7,|]	4|4|	1|1|	400000|500000|	100|100|	6.11804e+06	6.10783e+06	0.173078	0	0	4.07752	4.08268	
190063	[0,1,2,3,|4,5,6,7,|]	4|4|	1|1|	400000|500000|	100|100|	6.09898e+06	6.1034e+06	0.142338	0	0	4.07493	4.0788	
191076	[0,1,2,3,|4,5,6,7,|]	4|4|	1|1|	400000|500000|	100|100|	6.09804e+06	6.10072e+06	0.109851	0	0	4.07154	4.07517	
192090	[0,1,2,3,|4,5,6,7,|]	4|4|	1|1|	400000|500000|	100|100|	6.09732e+06	6.09902e+06	0.082552	0	0	4.07782	4.0765	
193103	[0,1,2,3,|4,5,6,7,|]	4|4|	1|1|	400000|500000|	100|100|	6.09971e+06	6.09937e+06	0.0586455	0	0	4.09494	4.08572	
194117	[0,1,2,3,|4,5,6,7,|]	4|4|	1|1|	400000|500000|	100|100|	6.11424e+06	6.10681e+06	0.128647	0	0	4.07392	4.07982	
195130	[0,1,2,3,|4,5,6,7,|]	4|4|	1|1|	400000|500000|	100|100|	6.10753e+06	6.10717e+06	0.0911565	0	0	4.08136	4.08059	
196144	[0,1,2,3,|4,5,6,7,|]	4|4|	1|1|	400000|500000|	100|100|	6.10039e+06	6.10378e+06	0.085098	0	0	4.07476	4.07767	
