#Timestamp	CPU(0) Frequency(MHz)	CPU(0) Temperature(C)	A7 Voltage(V)	A7 Current(A)	A7 Power(W)	CPU(4) Frequency(MHz)	CPU(4) Temperature(C)	A15 Voltage(V)	A15 Current(A)	A15 Power(W)	GPU Frequency(MHz)	GPU Temperature(C)	GPU Voltage(V)	GPU Current(A)	GPU Power(W)	RAM Voltage(V)	RAM Current(A)	RAM Power(W)
1560196518352590104	300 66 0.900000 0.048000 0.046000 2000 59 0.900000 0.242000 0.233000 600 65 1.000000 0.056000 0.056000 1.200000 0.060000 0.072000
1560196518861844604	200 66 0.900000 0.020000 0.018000 2000 59 1.300000 1.527000 2.023000 600 65 1.000000 0.056000 0.056000 1.200000 0.039000 0.047000
1560196519370876354	200 66 0.900000 0.020000 0.018000 2000 58 1.300000 1.536000 2.032000 600 64 1.000000 0.055000 0.055000 1.200000 0.038000 0.045000
1560196519931939812	1500 80 1.000000 0.206000 0.211000 2000 62 1.300000 1.523000 2.014000 600 84 1.000000 0.055000 0.055000 1.200000 0.045000 0.054000
1560196520487877354	1500 87 1.200000 0.764000 0.985000 2000 67 1.300000 5.952000 8.017000 600 93 1.000000 0.056000 0.056000 1.200000 0.032000 0.038000
1560196521039998729	1500 80 1.200000 0.764000 0.985000 1600 68 1.300000 6.143000 8.280000 600 86 1.000000 0.057000 0.057000 1.200000 0.034000 0.041000
1560196521604024812	1500 80 1.200000 0.770000 0.993000 1600 68 1.100000 3.541000 3.969000 600 85 1.000000 0.058000 0.058000 1.200000 0.028000 0.033000
1560196522168045813	1500 80 1.200000 0.771000 0.994000 1600 68 1.100000 3.810000 4.366000 600 85 1.000000 0.058000 0.058000 1.200000 0.029000 0.034000
1560196522728027854	1500 80 1.200000 0.772000 0.995000 1600 68 1.100000 3.810000 4.370000 600 85 1.000000 0.058000 0.058000 1.200000 0.027000 0.032000
1560196523287974979	1500 80 1.200000 0.770000 0.993000 1600 69 1.100000 3.808000 4.363000 600 84 1.000000 0.058000 0.058000 1.200000 0.033000 0.039000
1560196523840008438	1500 81 1.200000 0.768000 0.990000 1600 69 1.100000 3.795000 4.349000 600 85 1.000000 0.058000 0.058000 1.200000 0.031000 0.037000
1560196524388019313	1500 81 1.200000 0.771000 0.994000 1600 69 1.100000 3.806000 4.365000 600 85 1.000000 0.058000 0.058000 1.200000 0.030000 0.036000
1560196524944026105	1500 81 1.200000 0.773000 0.997000 1600 69 1.100000 3.808000 4.367000 600 85 1.000000 0.058000 0.058000 1.200000 0.028000 0.033000
1560196525504086438	1500 81 1.200000 0.773000 0.997000 1600 69 1.100000 3.811000 4.371000 600 85 1.000000 0.058000 0.058000 1.200000 0.028000 0.033000
1560196526063934313	1500 81 1.200000 0.774000 0.998000 1600 69 1.100000 3.817000 4.374000 600 85 1.000000 0.058000 0.058000 1.200000 0.028000 0.033000
1560196526616040688	1500 81 1.200000 0.770000 0.993000 1600 69 1.100000 3.779000 4.330000 600 85 1.000000 0.058000 0.058000 1.200000 0.035000 0.042000
1560196527168039063	1500 81 1.200000 0.773000 0.997000 1600 69 1.100000 3.820000 4.377000 600 86 1.000000 0.058000 0.058000 1.200000 0.030000 0.036000
1560196527720037938	1500 82 1.200000 0.773000 0.997000 1600 69 1.100000 3.826000 4.384000 600 86 1.000000 0.058000 0.058000 1.200000 0.028000 0.033000
1560196528275978230	1500 82 1.200000 0.773000 0.997000 1600 70 1.100000 3.823000 4.381000 600 86 1.000000 0.058000 0.058000 1.200000 0.028000 0.033000
1560196528828096230	1500 81 1.200000 0.773000 0.997000 1600 70 1.100000 3.821000 4.378000 600 86 1.000000 0.058000 0.058000 1.200000 0.031000 0.037000
1560196529384102730	1500 82 1.200000 0.772000 0.995000 1600 70 1.100000 3.808000 4.363000 600 86 1.000000 0.058000 0.058000 1.200000 0.030000 0.036000
1560196529944002855	1500 82 1.200000 0.773000 0.997000 1600 70 1.100000 3.789000 4.342000 600 86 1.000000 0.058000 0.058000 1.200000 0.032000 0.038000
1560196530508027730	1500 82 1.200000 0.775000 0.999000 1600 70 1.100000 3.810000 4.366000 600 86 1.000000 0.058000 0.058000 1.200000 0.028000 0.033000
1560196531076023355	1500 82 1.200000 0.774000 0.998000 1600 70 1.100000 3.823000 4.384000 600 86 1.000000 0.059000 0.059000 1.200000 0.028000 0.033000
1560196531616329064	1500 82 1.200000 0.775000 0.999000 1600 70 1.100000 3.832000 4.391000 600 86 1.000000 0.058000 0.058000 1.200000 0.028000 0.033000
1560196532159945105	1500 82 1.200000 0.771000 0.994000 1600 70 1.100000 3.819000 4.376000 600 86 1.000000 0.058000 0.058000 1.200000 0.031000 0.037000
1560196532712028314	1500 82 1.200000 0.773000 0.997000 1600 70 1.100000 3.797000 4.351000 600 86 1.000000 0.058000 0.058000 1.200000 0.033000 0.039000
1560196533268027731	1500 82 1.200000 0.774000 0.998000 1600 70 1.100000 3.834000 4.393000 600 86 1.000000 0.058000 0.058000 1.200000 0.028000 0.033000
1560196533824052772	1500 82 1.200000 0.775000 0.999000 1600 70 1.100000 3.827000 4.389000 600 86 1.000000 0.058000 0.058000 1.200000 0.028000 0.033000
1560196534380245356	1500 82 1.200000 0.775000 0.999000 1600 70 1.100000 3.822000 4.383000 600 86 1.000000 0.059000 0.059000 1.200000 0.028000 0.033000
1560196534940108731	1500 82 1.200000 0.770000 0.993000 1600 70 1.100000 3.791000 4.344000 600 86 1.000000 0.059000 0.059000 1.200000 0.033000 0.039000
1560196535504038314	1500 82 1.200000 0.771000 0.994000 1600 70 1.100000 3.792000 4.345000 600 86 1.000000 0.059000 0.059000 1.200000 0.033000 0.039000
1560196536060024606	1500 82 1.200000 0.774000 0.998000 1600 70 1.100000 3.828000 4.386000 600 86 1.000000 0.059000 0.059000 1.200000 0.027000 0.032000
1560196536612045939	1500 82 1.200000 0.775000 0.999000 1600 70 1.100000 3.832000 4.391000 600 86 1.000000 0.058000 0.058000 1.200000 0.028000 0.033000
1560196537168024564	1500 82 1.200000 0.775000 0.999000 1600 70 1.100000 3.834000 4.397000 600 86 1.000000 0.058000 0.058000 1.200000 0.027000 0.032000
1560196537715962856	1500 82 1.200000 0.770000 0.993000 1600 70 1.100000 3.800000 4.354000 600 86 1.000000 0.058000 0.058000 1.200000 0.032000 0.038000
1560196538276030481	1500 82 1.200000 0.772000 0.995000 1600 70 1.100000 3.803000 4.358000 600 86 1.000000 0.058000 0.058000 1.200000 0.033000 0.039000
1560196538827970190	1500 82 1.200000 0.774000 0.998000 1600 70 1.100000 3.813000 4.369000 600 86 1.000000 0.058000 0.058000 1.200000 0.031000 0.037000
1560196539380045356	1500 82 1.200000 0.775000 0.999000 1600 70 1.100000 3.842000 4.402000 600 86 1.000000 0.058000 0.058000 1.200000 0.028000 0.033000
1560196539940015690	1500 82 1.200000 0.774000 0.998000 1600 70 1.100000 3.833000 4.396000 600 87 1.000000 0.058000 0.058000 1.200000 0.027000 0.032000
1560196540492015481	1500 82 1.200000 0.775000 0.999000 1600 70 1.100000 3.822000 4.380000 600 86 1.000000 0.059000 0.059000 1.200000 0.029000 0.034000
1560196541043999106	1500 82 1.200000 0.771000 0.994000 1600 70 1.100000 3.792000 4.345000 600 87 1.000000 0.059000 0.059000 1.200000 0.035000 0.042000
1560196541600014440	1500 82 1.200000 0.773000 0.997000 1600 70 1.100000 3.822000 4.380000 600 86 1.000000 0.059000 0.059000 1.200000 0.028000 0.033000
1560196542164000565	1500 82 1.200000 0.774000 0.998000 1600 70 1.100000 3.819000 4.376000 600 87 1.000000 0.059000 0.059000 1.200000 0.028000 0.033000
1560196542712032982	1500 82 1.200000 0.775000 0.999000 1600 70 1.100000 3.823000 4.381000 600 86 1.000000 0.059000 0.059000 1.200000 0.027000 0.032000
1560196543259946857	1500 82 1.200000 0.773000 0.997000 1600 70 1.100000 3.811000 4.367000 600 86 1.000000 0.059000 0.059000 1.200000 0.029000 0.034000
1560196543815995232	1500 82 1.200000 0.772000 0.995000 1600 70 1.100000 3.819000 4.376000 600 87 1.000000 0.059000 0.059000 1.200000 0.031000 0.037000
1560196544368017232	1500 82 1.200000 0.775000 0.999000 1600 71 1.100000 3.838000 4.398000 600 87 1.000000 0.059000 0.059000 1.200000 0.028000 0.033000
1560196544924013732	1500 82 1.200000 0.774000 0.998000 1600 70 1.100000 3.831000 4.390000 600 87 1.000000 0.059000 0.059000 1.200000 0.028000 0.033000
1560196545472021690	1500 82 1.200000 0.775000 0.999000 1600 70 1.100000 3.834000 4.397000 600 87 1.000000 0.059000 0.059000 1.200000 0.027000 0.032000
1560196546032003149	1500 82 1.200000 0.776000 1.001000 1600 70 1.100000 3.825000 4.383000 600 87 1.000000 0.059000 0.059000 1.200000 0.027000 0.032000
1560196546595994024	1500 82 1.200000 0.772000 0.995000 1600 70 1.100000 3.799000 4.353000 600 87 1.000000 0.059000 0.059000 1.200000 0.031000 0.037000
1560196547168036441	1500 82 1.200000 0.771000 0.994000 1600 70 1.100000 3.796000 4.354000 600 87 1.000000 0.059000 0.059000 1.200000 0.031000 0.037000
1560196547728027024	1500 82 1.200000 0.776000 1.001000 1600 70 1.100000 3.831000 4.394000 600 87 1.000000 0.058000 0.058000 1.200000 0.027000 0.032000
1560196548288031774	1500 82 1.200000 0.776000 1.001000 1600 70 1.100000 3.845000 4.410000 600 87 1.000000 0.059000 0.059000 1.200000 0.027000 0.032000
1560196548847939024	1500 82 1.200000 0.772000 0.995000 1600 70 1.100000 3.831000 4.394000 600 87 1.000000 0.059000 0.059000 1.200000 0.028000 0.033000
1560196549403938774	1500 82 1.200000 0.771000 0.994000 1600 70 1.100000 3.808000 4.367000 600 87 1.000000 0.058000 0.058000 1.200000 0.032000 0.038000
1560196549964017733	1500 83 1.200000 0.773000 0.997000 1600 70 1.100000 3.793000 4.350000 600 87 1.000000 0.059000 0.059000 1.200000 0.030000 0.036000
1560196550512004274	1500 83 1.200000 0.776000 1.001000 1600 70 1.100000 3.833000 4.396000 600 87 1.000000 0.059000 0.059000 1.200000 0.028000 0.033000
1560196551063979191	1500 83 1.200000 0.776000 1.001000 1600 71 1.100000 3.825000 4.387000 600 87 1.000000 0.059000 0.059000 1.200000 0.028000 0.033000
1560196551612026441	1500 83 1.200000 0.776000 1.001000 1600 71 1.100000 3.802000 4.357000 600 87 1.000000 0.058000 0.058000 1.200000 0.028000 0.033000
1560196552179951733	1500 83 1.200000 0.775000 0.999000 1600 71 1.100000 3.825000 4.383000 600 87 1.000000 0.059000 0.059000 1.200000 0.032000 0.038000
1560196552739960233	1500 83 1.200000 0.773000 0.997000 1600 70 1.100000 3.814000 4.370000 600 87 1.000000 0.059000 0.059000 1.200000 0.029000 0.034000
1560196553295977816	1500 83 1.200000 0.775000 0.999000 1600 71 1.100000 3.824000 4.386000 600 87 1.000000 0.059000 0.059000 1.200000 0.031000 0.037000
1560196553859987941	1500 83 1.200000 0.775000 0.999000 1600 71 1.100000 3.828000 4.386000 600 87 1.000000 0.059000 0.059000 1.200000 0.028000 0.033000
1560196554408075691	1500 83 1.200000 0.776000 1.001000 1600 71 1.100000 3.836000 4.396000 600 87 1.000000 0.058000 0.058000 1.200000 0.027000 0.032000
1560196554967997775	1500 82 1.200000 0.775000 0.999000 1600 71 1.100000 3.839000 4.399000 600 87 1.000000 0.058000 0.058000 1.200000 0.031000 0.037000
1560196555520019442	1500 83 1.200000 0.771000 0.994000 1600 71 1.100000 3.789000 4.342000 600 87 1.000000 0.059000 0.059000 1.200000 0.036000 0.043000
1560196556084031525	1500 83 1.200000 0.776000 1.001000 1600 70 1.100000 3.835000 4.394000 600 87 1.000000 0.058000 0.058000 1.200000 0.027000 0.032000
1560196556628007233	1500 83 1.200000 0.777000 1.002000 1600 71 1.100000 3.839000 4.399000 600 87 1.000000 0.059000 0.059000 1.200000 0.027000 0.032000
1560196557200027858	1500 83 1.200000 0.775000 0.999000 1600 71 1.100000 3.839000 4.399000 600 87 1.000000 0.059000 0.059000 1.200000 0.029000 0.034000
1560196557759953983	1500 83 1.200000 0.775000 0.999000 1600 71 1.100000 3.829000 4.388000 600 87 1.000000 0.059000 0.059000 1.200000 0.032000 0.038000
1560196558312032442	1500 82 1.200000 0.772000 0.995000 1600 71 1.100000 3.810000 4.366000 600 87 1.000000 0.058000 0.058000 1.200000 0.031000 0.037000
1560196558876043525	1500 83 1.200000 0.776000 1.001000 1600 71 1.100000 3.843000 4.407000 600 87 1.000000 0.059000 0.059000 1.200000 0.027000 0.032000
1560196559436030567	1500 83 1.200000 0.775000 0.999000 1600 71 1.100000 3.833000 4.392000 600 87 1.000000 0.059000 0.059000 1.200000 0.031000 0.037000
1560196559988017609	1500 83 1.200000 0.774000 0.998000 1600 71 1.100000 3.828000 4.390000 600 87 1.000000 0.059000 0.059000 1.200000 0.027000 0.032000
1560196560523978859	1500 83 1.200000 0.775000 0.999000 1600 71 1.100000 3.830000 4.389000 600 87 1.000000 0.059000 0.059000 1.200000 0.029000 0.034000
1560196561091954942	1500 83 1.200000 0.771000 0.994000 1600 71 1.100000 3.820000 4.377000 600 87 1.000000 0.059000 0.059000 1.200000 0.032000 0.038000
1560196561640036151	1500 83 1.200000 0.774000 0.998000 1600 71 1.100000 3.823000 4.381000 600 87 1.000000 0.058000 0.058000 1.200000 0.034000 0.041000
1560196562200048942	1500 83 1.200000 0.775000 0.999000 1600 71 1.100000 3.851000 4.417000 600 87 1.000000 0.059000 0.059000 1.200000 0.028000 0.033000
1560196562760034817	1500 83 1.200000 0.775000 0.999000 1600 71 1.100000 3.830000 4.389000 600 87 1.000000 0.059000 0.059000 1.200000 0.028000 0.033000
1560196563324141859	1500 83 1.200000 0.776000 1.001000 1600 71 1.100000 3.837000 4.397000 600 87 1.000000 0.059000 0.059000 1.200000 0.027000 0.032000
1560196563876114526	1500 83 1.200000 0.772000 0.995000 1600 71 1.100000 3.797000 4.351000 600 87 1.000000 0.059000 0.059000 1.200000 0.035000 0.042000
1560196564420049901	1500 83 1.200000 0.774000 0.998000 1600 71 1.100000 3.819000 4.376000 600 87 1.000000 0.059000 0.059000 1.200000 0.032000 0.038000
1560196564972022026	1500 83 1.200000 0.776000 1.001000 1600 71 1.100000 3.845000 4.410000 600 87 1.000000 0.059000 0.059000 1.200000 0.028000 0.033000
1560196565524018359	1500 83 1.200000 0.775000 0.999000 1600 71 1.100000 3.829000 4.388000 600 87 1.000000 0.059000 0.059000 1.200000 0.028000 0.033000
1560196566076057109	1500 83 1.200000 0.774000 0.998000 1600 71 1.100000 3.839000 4.399000 600 87 1.000000 0.059000 0.059000 1.200000 0.031000 0.037000
1560196566623957443	1500 83 1.200000 0.775000 0.999000 1600 71 1.100000 3.820000 4.377000 600 87 1.000000 0.058000 0.058000 1.200000 0.031000 0.037000
1560196567168015401	1500 83 1.200000 0.772000 0.995000 1600 71 1.100000 3.808000 4.363000 600 87 1.000000 0.059000 0.059000 1.200000 0.033000 0.039000
1560196567732051985	1500 83 1.200000 0.775000 0.999000 1600 71 1.100000 3.843000 4.407000 600 87 1.000000 0.059000 0.059000 1.200000 0.028000 0.033000
1560196568276011818	1500 83 1.200000 0.775000 0.999000 1600 71 1.100000 3.819000 4.376000 600 87 1.000000 0.059000 0.059000 1.200000 0.028000 0.033000
1560196568832027360	1500 83 1.200000 0.777000 1.002000 1600 71 1.100000 3.854000 4.420000 600 87 1.000000 0.059000 0.059000 1.200000 0.028000 0.033000
1560196569379960902	1500 83 1.200000 0.772000 0.995000 1600 71 1.100000 3.815000 4.375000 600 87 1.000000 0.059000 0.059000 1.200000 0.032000 0.038000
1560196569939994652	1500 83 1.200000 0.774000 0.998000 1600 71 1.100000 3.791000 4.348000 600 87 1.000000 0.059000 0.059000 1.200000 0.034000 0.041000
1560196570487982985	1500 83 1.200000 0.775000 0.999000 1600 71 1.100000 3.846000 4.411000 600 87 1.000000 0.059000 0.059000 1.200000 0.028000 0.033000
1560196571044062568	1500 83 1.200000 0.776000 1.001000 1600 71 1.100000 3.852000 4.418000 600 87 1.000000 0.059000 0.059000 1.200000 0.028000 0.033000
1560196571596171027	1500 83 1.200000 0.776000 1.001000 1600 71 1.100000 3.846000 4.411000 600 87 1.000000 0.059000 0.059000 1.200000 0.029000 0.034000
1560196572147957277	1500 82 1.200000 0.774000 0.998000 1600 71 1.100000 3.834000 4.393000 600 87 1.000000 0.059000 0.059000 1.200000 0.033000 0.039000
1560196572704011985	1500 83 1.200000 0.771000 0.994000 1600 71 1.100000 3.818000 4.375000 600 87 1.000000 0.059000 0.059000 1.200000 0.035000 0.042000
1560196573272038902	1500 83 1.200000 0.775000 0.999000 1600 71 1.100000 3.843000 4.407000 600 87 1.000000 0.059000 0.059000 1.200000 0.029000 0.034000
1560196573828044985	1500 83 1.200000 0.774000 0.996000 1600 71 1.100000 3.834000 4.397000 600 87 1.000000 0.059000 0.059000 1.200000 0.028000 0.033000
1560196574388016569	1500 83 1.200000 0.776000 1.001000 1600 71 1.100000 3.845000 4.406000 600 87 1.000000 0.059000 0.059000 1.200000 0.027000 0.032000
1560196574943975902	1500 83 1.200000 0.774000 0.998000 1600 71 1.100000 3.840000 4.400000 600 87 1.000000 0.059000 0.059000 1.200000 0.029000 0.034000
1560196575500004902	1500 83 1.200000 0.773000 0.997000 1600 71 1.100000 3.815000 4.371000 600 87 1.000000 0.059000 0.059000 1.200000 0.032000 0.038000
1560196576043979694	1500 83 1.200000 0.774000 0.998000 1600 71 1.100000 3.817000 4.374000 600 87 1.000000 0.059000 0.059000 1.200000 0.031000 0.037000
1560196576592040819	1500 83 1.200000 0.776000 1.001000 1600 71 1.100000 3.853000 4.419000 600 87 1.000000 0.059000 0.059000 1.200000 0.027000 0.032000
1560196577148055111	1500 83 1.200000 0.777000 1.002000 1600 71 1.100000 3.844000 4.405000 600 87 1.000000 0.059000 0.059000 1.200000 0.028000 0.033000
1560196577716005028	1500 83 1.200000 0.776000 1.001000 1600 71 1.100000 3.845000 4.410000 600 87 1.000000 0.059000 0.059000 1.200000 0.028000 0.033000
1560196578268007861	1500 83 1.200000 0.771000 0.994000 1600 71 1.100000 3.792000 4.345000 600 87 1.000000 0.059000 0.059000 1.200000 0.034000 0.041000
1560196578820049611	1500 83 1.200000 0.772000 0.995000 1600 71 1.100000 3.825000 4.387000 600 87 1.000000 0.059000 0.059000 1.200000 0.033000 0.039000
1560196579380016903	1500 83 1.200000 0.776000 1.001000 1600 71 1.100000 3.837000 4.397000 600 87 1.000000 0.059000 0.059000 1.200000 0.029000 0.034000
1560196579935972444	1500 83 1.200000 0.776000 1.001000 1600 71 1.100000 3.852000 4.418000 600 87 1.000000 0.058000 0.058000 1.200000 0.027000 0.032000
1560196580492092736	1500 83 1.200000 0.777000 1.002000 1600 71 1.100000 3.855000 4.421000 600 87 1.000000 0.059000 0.059000 1.200000 0.028000 0.033000
1560196581047978278	1500 83 1.200000 0.772000 0.995000 1600 71 1.100000 3.826000 4.384000 600 87 1.000000 0.059000 0.059000 1.200000 0.031000 0.037000
1560196581596021695	1500 83 1.200000 0.775000 0.999000 1600 71 1.100000 3.846000 4.411000 600 87 1.000000 0.059000 0.059000 1.200000 0.030000 0.036000
1560196582144028903	1500 83 1.200000 0.776000 1.001000 1600 71 1.100000 3.826000 4.388000 600 87 1.000000 0.059000 0.059000 1.200000 0.028000 0.033000
1560196582704032611	1500 83 1.200000 0.775000 0.999000 1600 71 1.100000 3.843000 4.407000 600 87 1.000000 0.059000 0.059000 1.200000 0.028000 0.033000
1560196583260047820	1500 83 1.200000 0.776000 1.001000 1600 71 1.100000 3.834000 4.397000 600 87 1.000000 0.059000 0.059000 1.200000 0.028000 0.033000
1560196583819938237	1500 83 1.200000 0.774000 0.998000 1600 71 1.100000 3.829000 4.391000 600 87 1.000000 0.059000 0.059000 1.200000 0.031000 0.037000
1560196584384024195	1500 83 1.200000 0.772000 0.995000 1600 71 1.100000 3.800000 4.358000 600 87 1.000000 0.059000 0.059000 1.200000 0.035000 0.042000
1560196584948018028	1500 83 1.200000 0.776000 1.001000 1600 71 1.100000 3.849000 4.414000 600 87 1.000000 0.059000 0.059000 1.200000 0.028000 0.033000
1560196585496023862	1500 83 1.200000 0.776000 1.001000 1600 71 1.100000 3.857000 4.423000 600 87 1.000000 0.059000 0.059000 1.200000 0.027000 0.032000
1560196586060136695	1500 83 1.200000 0.775000 0.999000 1600 71 1.100000 3.845000 4.410000 600 87 1.000000 0.059000 0.059000 1.200000 0.027000 0.032000
1560196586615943904	1500 83 1.200000 0.774000 0.998000 1600 71 1.100000 3.811000 4.367000 600 87 1.000000 0.059000 0.059000 1.200000 0.031000 0.037000
1560196587163983445	1500 83 1.200000 0.772000 0.995000 1600 71 1.100000 3.804000 4.359000 600 87 1.000000 0.059000 0.059000 1.200000 0.030000 0.036000
1560196587724009862	1500 83 1.200000 0.777000 1.002000 1600 71 1.100000 3.846000 4.411000 600 87 1.000000 0.059000 0.059000 1.200000 0.027000 0.032000
1560196588272028445	1500 83 1.200000 0.777000 1.002000 1600 71 1.100000 3.840000 4.404000 600 87 1.000000 0.059000 0.059000 1.200000 0.028000 0.033000
1560196588840010987	1500 83 1.200000 0.776000 1.001000 1600 71 1.100000 3.823000 4.381000 600 87 1.000000 0.059000 0.059000 1.200000 0.029000 0.034000
1560196589387996696	1500 83 1.200000 0.776000 1.001000 1600 71 1.100000 3.843000 4.404000 600 87 1.000000 0.059000 0.059000 1.200000 0.030000 0.036000
1560196589943993154	1500 83 1.200000 0.773000 0.997000 1600 71 1.100000 3.816000 4.373000 600 87 1.000000 0.059000 0.059000 1.200000 0.032000 0.038000
1560196590496044487	1500 83 1.200000 0.776000 1.001000 1600 71 1.100000 3.827000 4.385000 600 87 1.000000 0.059000 0.059000 1.200000 0.030000 0.036000
1560196591040009404	1500 83 1.200000 0.776000 0.999000 1600 71 1.100000 3.843000 4.404000 600 87 1.000000 0.059000 0.059000 1.200000 0.027000 0.032000
1560196591603990613	1500 83 1.200000 0.776000 1.001000 1600 71 1.100000 3.835000 4.394000 600 87 1.000000 0.059000 0.059000 1.200000 0.028000 0.033000
1560196592176120821	1500 83 1.200000 0.777000 1.002000 1600 71 1.100000 3.826000 4.384000 600 87 1.000000 0.059000 0.059000 1.200000 0.030000 0.036000
1560196592731969863	1500 83 1.200000 0.772000 0.995000 1600 71 1.100000 3.796000 4.350000 600 87 1.000000 0.059000 0.059000 1.200000 0.034000 0.041000
1560196593280023279	1500 83 1.200000 0.776000 1.001000 1600 71 1.100000 3.822000 4.380000 600 87 1.000000 0.059000 0.059000 1.200000 0.027000 0.032000
1560196593844022904	1500 83 1.200000 0.776000 1.001000 1600 71 1.100000 3.840000 4.404000 600 87 1.000000 0.059000 0.059000 1.200000 0.028000 0.033000
1560196594388029113	1500 83 1.200000 0.776000 0.999000 1600 71 1.100000 3.851000 4.417000 600 87 1.000000 0.059000 0.059000 1.200000 0.028000 0.033000
1560196594932117280	1500 83 1.200000 0.776000 1.001000 1600 71 1.100000 3.833000 4.396000 600 87 1.000000 0.059000 0.059000 1.200000 0.028000 0.033000
1560196595483994446	1500 83 1.200000 0.773000 0.997000 1600 71 1.100000 3.807000 4.362000 600 87 1.000000 0.059000 0.059000 1.200000 0.033000 0.039000
1560196596036014363	1500 83 1.200000 0.775000 0.999000 1600 71 1.100000 3.839000 4.399000 600 87 1.000000 0.059000 0.059000 1.200000 0.031000 0.037000
1560196596596007655	1500 83 1.200000 0.773000 0.997000 1600 71 1.100000 3.854000 4.420000 600 87 1.000000 0.059000 0.059000 1.200000 0.028000 0.033000
1560196597156013780	1500 83 1.200000 0.776000 1.001000 1600 71 1.100000 3.840000 4.404000 600 87 1.000000 0.059000 0.059000 1.200000 0.029000 0.034000
1560196597716047822	1500 83 1.200000 0.776000 1.001000 1600 71 1.100000 3.848000 4.413000 600 87 1.000000 0.058000 0.058000 1.200000 0.029000 0.034000
1560196598276005863	1500 83 1.200000 0.772000 0.995000 1600 71 1.100000 3.810000 4.366000 600 87 1.000000 0.059000 0.059000 1.200000 0.032000 0.038000
1560196598812163197	1500 83 1.200000 0.771000 0.994000 1600 71 1.100000 3.809000 4.365000 600 87 1.000000 0.059000 0.059000 1.200000 0.032000 0.038000
1560196599364012280	1500 83 1.200000 0.777000 1.002000 1600 71 1.100000 3.834000 4.393000 600 87 1.000000 0.059000 0.059000 1.200000 0.028000 0.033000
1560196599928012488	1500 83 1.200000 0.776000 1.001000 1600 71 1.100000 3.842000 4.402000 600 87 1.000000 0.059000 0.059000 1.200000 0.028000 0.033000
1560196600484126114	1500 83 1.200000 0.776000 1.001000 1600 71 1.100000 3.839000 4.399000 600 87 1.000000 0.059000 0.059000 1.200000 0.028000 0.033000
1560196601052109614	1500 83 1.200000 0.772000 0.995000 1600 71 1.100000 3.828000 4.386000 600 87 1.000000 0.059000 0.059000 1.200000 0.033000 0.039000
1560196601612001780	1500 83 1.200000 0.772000 0.994000 1600 71 1.100000 3.824000 4.382000 600 87 1.000000 0.059000 0.059000 1.200000 0.033000 0.039000
1560196602172040447	1500 83 1.200000 0.777000 1.002000 1600 71 1.100000 3.846000 4.407000 600 87 1.000000 0.059000 0.059000 1.200000 0.028000 0.033000
1560196602732047530	1500 83 1.200000 0.776000 1.001000 1600 71 1.100000 3.851000 4.413000 600 87 1.000000 0.059000 0.059000 1.200000 0.028000 0.033000
1560196603284039072	1500 83 1.200000 0.776000 1.001000 1600 71 1.100000 3.842000 4.402000 600 87 1.000000 0.059000 0.059000 1.200000 0.028000 0.033000
1560196603844151781	1500 83 1.200000 0.774000 0.998000 1600 71 1.100000 3.817000 4.374000 600 87 1.000000 0.059000 0.059000 1.200000 0.030000 0.036000
1560196604404007572	1500 83 1.200000 0.773000 0.997000 1600 71 1.100000 3.804000 4.359000 600 87 1.000000 0.059000 0.059000 1.200000 0.032000 0.038000
1560196604968038697	1500 83 1.200000 0.775000 0.999000 1600 71 1.100000 3.836000 4.396000 600 87 1.000000 0.059000 0.059000 1.200000 0.028000 0.033000
1560196605516028364	1500 83 1.200000 0.776000 0.999000 1600 71 1.100000 3.859000 4.426000 600 87 1.000000 0.059000 0.059000 1.200000 0.028000 0.033000
1560196606079995156	1500 83 1.200000 0.777000 1.002000 1600 71 1.100000 3.838000 4.402000 600 87 1.000000 0.059000 0.059000 1.200000 0.027000 0.032000
1560196606635977198	1500 83 1.200000 0.772000 0.995000 1600 71 1.100000 3.823000 4.381000 600 87 1.000000 0.059000 0.059000 1.200000 0.032000 0.038000
1560196607196015614	1500 83 1.200000 0.773000 0.997000 1600 71 1.100000 3.788000 4.344000 600 87 1.000000 0.059000 0.059000 1.200000 0.036000 0.043000
1560196607744031156	1500 83 1.200000 0.775000 0.999000 1600 71 1.100000 3.854000 4.420000 600 87 1.000000 0.059000 0.059000 1.200000 0.027000 0.032000
1560196608312002448	1500 83 1.200000 0.776000 1.001000 1600 71 1.100000 3.843000 4.404000 600 87 1.000000 0.059000 0.059000 1.200000 0.029000 0.034000
1560196608872052490	1500 83 1.200000 0.776000 1.001000 1600 71 1.100000 3.845000 4.406000 600 87 1.000000 0.059000 0.059000 1.200000 0.029000 0.034000
1560196609419938656	1500 83 1.200000 0.775000 0.999000 1600 71 1.100000 3.818000 4.375000 600 87 1.000000 0.059000 0.059000 1.200000 0.032000 0.038000
1560196609980019406	1500 83 1.200000 0.771000 0.994000 1600 71 1.100000 3.811000 4.367000 600 87 1.000000 0.059000 0.059000 1.200000 0.032000 0.038000
1560196610540071948	1500 83 1.200000 0.776000 1.001000 1600 71 1.100000 3.860000 4.427000 600 87 1.000000 0.059000 0.059000 1.200000 0.027000 0.032000
1560196611091988948	1500 83 1.200000 0.777000 1.002000 1600 71 1.100000 3.837000 4.401000 600 87 1.000000 0.059000 0.059000 1.200000 0.028000 0.033000
1560196611648038115	1500 83 1.200000 0.776000 1.001000 1600 71 1.100000 3.855000 4.421000 600 88 1.000000 0.059000 0.059000 1.200000 0.028000 0.033000
1560196612208162865	1500 83 1.200000 0.774000 0.998000 1600 71 1.100000 3.842000 4.402000 600 87 1.000000 0.059000 0.059000 1.200000 0.030000 0.036000
1560196612775981282	1500 83 1.200000 0.773000 0.997000 1600 71 1.100000 3.831000 4.394000 600 87 1.000000 0.059000 0.059000 1.200000 0.033000 0.039000
1560196613324020490	1500 83 1.200000 0.774000 0.998000 1600 71 1.100000 3.855000 4.421000 600 87 1.000000 0.059000 0.059000 1.200000 0.031000 0.037000
1560196613884038198	1500 83 1.200000 0.775000 0.999000 1600 71 1.100000 3.868000 4.436000 600 87 1.000000 0.059000 0.059000 1.200000 0.029000 0.034000
1560196614448026657	1500 83 1.200000 0.776000 1.001000 1600 71 1.100000 3.849000 4.414000 600 88 1.000000 0.059000 0.059000 1.200000 0.029000 0.034000
1560196614996252074	1500 83 1.200000 0.776000 1.001000 1600 71 1.100000 3.851000 4.417000 600 87 1.000000 0.059000 0.059000 1.200000 0.029000 0.034000
1560196615551982532	1500 83 1.200000 0.772000 0.995000 1600 71 1.100000 3.790000 4.343000 600 87 1.000000 0.059000 0.059000 1.200000 0.031000 0.037000
1560196616104012282	1500 83 1.200000 0.777000 1.002000 1600 71 1.100000 3.841000 4.405000 600 87 1.000000 0.059000 0.059000 1.200000 0.028000 0.033000
1560196616656023240	1500 83 1.200000 0.775000 0.999000 1600 71 1.100000 3.847000 4.412000 600 88 1.000000 0.059000 0.059000 1.200000 0.027000 0.032000
1560196617216015907	1500 83 1.200000 0.776000 1.001000 1600 71 1.100000 3.850000 4.415000 600 87 1.000000 0.059000 0.059000 1.200000 0.027000 0.032000
1560196617788194824	1500 83 1.200000 0.776000 1.001000 1600 71 1.100000 3.834000 4.397000 600 88 1.000000 0.059000 0.059000 1.200000 0.029000 0.034000
1560196618352137532	1500 83 1.200000 0.772000 0.995000 1600 71 1.100000 3.807000 4.366000 600 87 1.000000 0.059000 0.059000 1.200000 0.032000 0.038000
1560196618904017866	1500 83 1.200000 0.776000 1.001000 1600 71 1.100000 3.798000 4.356000 600 88 1.000000 0.059000 0.059000 1.200000 0.031000 0.037000
1560196619456017616	1500 83 1.200000 0.775000 0.999000 1600 71 1.100000 3.837000 4.401000 600 87 1.000000 0.059000 0.059000 1.200000 0.028000 0.033000
1560196620004031033	1500 83 1.200000 0.775000 0.998000 1600 71 1.100000 3.852000 4.418000 600 87 1.000000 0.059000 0.059000 1.200000 0.027000 0.032000
1560196620568001491	1500 83 1.200000 0.775000 0.999000 1600 71 1.100000 3.845000 4.410000 600 87 1.000000 0.059000 0.059000 1.200000 0.027000 0.032000
1560196621120135699	1500 83 1.200000 0.771000 0.993000 1600 71 1.100000 3.841000 4.401000 600 87 1.000000 0.059000 0.059000 1.200000 0.032000 0.038000
1560196621688014824	1500 83 1.200000 0.772000 0.995000 1600 71 1.100000 3.803000 4.358000 600 87 1.000000 0.059000 0.059000 1.200000 0.031000 0.037000
1560196622247979324	1500 83 1.200000 0.776000 0.999000 1600 71 1.100000 3.832000 4.395000 600 87 1.000000 0.059000 0.059000 1.200000 0.028000 0.033000
1560196622800016283	1500 83 1.200000 0.776000 1.001000 1600 71 1.100000 3.821000 4.378000 600 87 1.000000 0.059000 0.059000 1.200000 0.028000 0.033000
1560196623306456616	700 68 1.100000 0.323000 0.364000 1200 66 1.000000 2.445000 2.660000 600 73 1.000000 0.059000 0.059000 1.200000 0.030000 0.036000
1560196623827074491	200 63 0.900000 0.043000 0.040000 200 63 0.900000 0.481000 0.476000 600 68 1.000000 0.058000 0.058000 1.200000 0.032000 0.038000
