#Timestamp	CPU(0) Frequency(MHz)	CPU(0) Temperature(C)	A7 Voltage(V)	A7 Current(A)	A7 Power(W)	CPU(4) Frequency(MHz)	CPU(4) Temperature(C)	A15 Voltage(V)	A15 Current(A)	A15 Power(W)	GPU Frequency(MHz)	GPU Temperature(C)	GPU Voltage(V)	GPU Current(A)	GPU Power(W)	RAM Voltage(V)	RAM Current(A)	RAM Power(W)
1560181971463492411	900 37 1.000000 0.093000 0.098000 1100 34 1.000000 0.162000 0.162000 600 39 1.000000 0.051000 0.051000 1.200000 0.052000 0.062000
1560181971973417495	900 37 1.000000 0.058000 0.061000 1100 35 0.900000 0.514000 0.509000 600 39 1.000000 0.051000 0.051000 1.200000 0.039000 0.047000
1560181972483569745	900 37 1.000000 0.062000 0.065000 1100 35 0.900000 0.516000 0.511000 600 39 1.000000 0.051000 0.051000 1.200000 0.037000 0.044000
1560181972993669995	900 37 1.000000 0.071000 0.075000 1100 35 0.900000 0.522000 0.517000 600 39 1.000000 0.051000 0.051000 1.200000 0.052000 0.062000
1560181973503922995	900 40 1.000000 0.042000 0.044000 1100 36 0.900000 0.521000 0.516000 600 43 1.000000 0.051000 0.051000 1.200000 0.037000 0.044000
1560181974014213953	900 43 1.000000 0.269000 0.281000 1100 37 0.900000 1.459000 1.453000 600 47 1.000000 0.051000 0.051000 1.200000 0.035000 0.042000
1560181974537774037	900 44 1.000000 0.272000 0.285000 1100 38 0.900000 2.136000 2.131000 600 48 1.000000 0.051000 0.051000 1.200000 0.026000 0.031000
1560181975048661412	900 45 1.000000 0.289000 0.302000 1100 39 0.900000 2.132000 2.127000 600 49 1.000000 0.051000 0.051000 1.200000 0.048000 0.057000
1560181975559105912	900 45 1.000000 0.272000 0.285000 1100 40 0.900000 2.140000 2.135000 600 50 1.000000 0.051000 0.051000 1.200000 0.026000 0.031000
1560181976069248829	900 46 1.000000 0.271000 0.284000 1100 40 0.900000 2.148000 2.143000 600 51 1.000000 0.052000 0.052000 1.200000 0.026000 0.031000
1560181976579610370	900 46 1.000000 0.269000 0.281000 1100 40 0.900000 2.139000 2.134000 600 51 1.000000 0.052000 0.052000 1.200000 0.027000 0.032000
1560181977089916204	900 47 1.000000 0.288000 0.301000 1100 41 0.900000 2.138000 2.133000 600 52 1.000000 0.052000 0.052000 1.200000 0.039000 0.047000
1560181977600252579	900 47 1.000000 0.271000 0.284000 1100 41 0.900000 2.152000 2.147000 600 52 1.000000 0.052000 0.052000 1.200000 0.026000 0.031000
1560181978111716537	900 47 1.000000 0.271000 0.284000 1100 42 0.900000 2.143000 2.138000 600 52 1.000000 0.052000 0.052000 1.200000 0.026000 0.031000
1560181978622031204	900 48 1.000000 0.271000 0.284000 1100 42 0.900000 2.145000 2.140000 600 52 1.000000 0.052000 0.052000 1.200000 0.026000 0.031000
1560181979132288162	900 48 1.000000 0.286000 0.299000 1100 42 0.900000 2.146000 2.141000 600 53 1.000000 0.052000 0.052000 1.200000 0.030000 0.036000
1560181979642702329	900 48 1.000000 0.270000 0.282000 1100 42 0.900000 2.154000 2.149000 600 53 1.000000 0.052000 0.052000 1.200000 0.025000 0.030000
1560181980152925371	900 48 1.000000 0.282000 0.295000 1100 42 0.900000 2.151000 2.146000 600 53 1.000000 0.052000 0.052000 1.200000 0.025000 0.030000
1560181980663351454	900 48 1.000000 0.270000 0.282000 1100 42 0.900000 2.148000 2.143000 600 53 1.000000 0.052000 0.052000 1.200000 0.025000 0.030000
1560181981187036996	900 48 1.000000 0.273000 0.286000 1100 43 0.900000 2.150000 2.145000 600 53 1.000000 0.052000 0.052000 1.200000 0.027000 0.032000
1560181981697254454	900 49 1.000000 0.287000 0.300000 1100 43 0.900000 2.144000 2.139000 600 54 1.000000 0.052000 0.052000 1.200000 0.049000 0.059000
1560181982207564746	900 49 1.000000 0.273000 0.286000 1100 43 0.900000 2.150000 2.145000 600 54 1.000000 0.052000 0.052000 1.200000 0.028000 0.033000
1560181982717678079	900 49 1.000000 0.292000 0.306000 1100 43 0.900000 2.151000 2.146000 600 54 1.000000 0.052000 0.052000 1.200000 0.033000 0.039000
1560181983227970163	900 49 1.000000 0.273000 0.286000 1100 43 0.900000 2.148000 2.143000 600 54 1.000000 0.052000 0.052000 1.200000 0.026000 0.031000
1560181983738276996	900 49 1.000000 0.284000 0.297000 1100 43 0.900000 2.145000 2.140000 600 54 1.000000 0.053000 0.053000 1.200000 0.041000 0.049000
1560181984260837121	900 49 1.000000 0.274000 0.287000 1100 43 0.900000 2.145000 2.140000 600 54 1.000000 0.052000 0.052000 1.200000 0.026000 0.031000
1560181984771285705	900 49 1.000000 0.286000 0.299000 1100 43 0.900000 2.154000 2.149000 600 54 1.000000 0.053000 0.053000 1.200000 0.028000 0.033000
1560181985281518580	900 49 1.000000 0.274000 0.287000 1100 44 0.900000 2.155000 2.150000 600 54 1.000000 0.052000 0.052000 1.200000 0.026000 0.031000
1560181985791847663	900 50 1.000000 0.284000 0.297000 1100 44 0.900000 2.152000 2.147000 600 54 1.000000 0.052000 0.052000 1.200000 0.032000 0.038000
1560181986334093121	900 50 1.000000 0.271000 0.284000 1100 44 0.900000 2.156000 2.151000 600 54 1.000000 0.052000 0.052000 1.200000 0.025000 0.030000
1560181986844414913	900 50 1.000000 0.271000 0.284000 1100 44 0.900000 2.152000 2.147000 600 54 1.000000 0.053000 0.053000 1.200000 0.025000 0.030000
1560181987354459247	900 50 1.000000 0.272000 0.285000 1100 44 0.900000 2.156000 2.151000 600 55 1.000000 0.052000 0.052000 1.200000 0.025000 0.030000
1560181987878357663	900 50 1.000000 0.274000 0.287000 1100 44 0.900000 2.149000 2.144000 600 55 1.000000 0.052000 0.052000 1.200000 0.026000 0.031000
1560181988402012705	900 50 1.000000 0.296000 0.309000 1100 44 0.900000 2.161000 2.156000 600 55 1.000000 0.053000 0.053000 1.200000 0.025000 0.030000
1560181988916624288	900 50 1.000000 0.291000 0.304000 1100 44 0.900000 2.162000 2.157000 600 55 1.000000 0.053000 0.053000 1.200000 0.025000 0.030000
1560181989427320455	900 50 1.000000 0.274000 0.287000 1100 44 0.900000 2.155000 2.150000 600 55 1.000000 0.053000 0.053000 1.200000 0.024000 0.028000
1560181989948128664	900 50 1.000000 0.272000 0.285000 1100 44 0.900000 2.156000 2.151000 600 55 1.000000 0.052000 0.052000 1.200000 0.025000 0.030000
1560181990484450122	900 50 1.000000 0.299000 0.313000 1100 44 0.900000 2.150000 2.145000 600 55 1.000000 0.053000 0.053000 1.200000 0.032000 0.038000
1560181990994966539	900 50 1.000000 0.272000 0.285000 1100 44 0.900000 2.147000 2.142000 600 55 1.000000 0.052000 0.052000 1.200000 0.024000 0.028000
1560181991505288830	900 50 1.000000 0.271000 0.284000 1100 44 0.900000 2.155000 2.150000 600 55 1.000000 0.053000 0.053000 1.200000 0.025000 0.030000
1560181992015813539	900 50 1.000000 0.271000 0.284000 1100 44 0.900000 2.153000 2.148000 600 55 1.000000 0.052000 0.052000 1.200000 0.025000 0.030000
1560181992525937997	900 50 1.000000 0.299000 0.313000 1100 45 0.900000 2.144000 2.139000 600 55 1.000000 0.053000 0.053000 1.200000 0.040000 0.048000
1560181993036387872	900 50 1.000000 0.290000 0.303000 1100 45 0.900000 2.150000 2.145000 600 55 1.000000 0.053000 0.053000 1.200000 0.032000 0.038000
1560181993547006122	900 50 1.000000 0.273000 0.286000 1100 44 0.900000 2.144000 2.139000 600 55 1.000000 0.053000 0.053000 1.200000 0.026000 0.031000
1560181994057309497	900 51 1.000000 0.271000 0.284000 1100 45 0.900000 2.144000 2.139000 600 55 1.000000 0.053000 0.053000 1.200000 0.027000 0.032000
1560181994567594581	900 51 1.000000 0.272000 0.285000 1100 45 0.900000 2.145000 2.140000 600 55 1.000000 0.053000 0.053000 1.200000 0.026000 0.031000
1560181995077900414	900 51 1.000000 0.310000 0.324000 1100 45 0.900000 2.151000 2.146000 600 55 1.000000 0.053000 0.053000 1.200000 0.032000 0.038000
1560181995588319873	900 51 1.000000 0.274000 0.287000 1100 45 0.900000 2.159000 2.154000 600 56 1.000000 0.053000 0.053000 1.200000 0.025000 0.030000
1560181996098788206	900 51 1.000000 0.272000 0.285000 1100 45 0.900000 2.153000 2.148000 600 56 1.000000 0.052000 0.052000 1.200000 0.025000 0.030000
1560181996621802206	900 51 1.000000 0.274000 0.287000 1100 45 0.900000 2.159000 2.154000 600 56 1.000000 0.053000 0.053000 1.200000 0.024000 0.028000
1560181997132430748	900 51 1.000000 0.320000 0.335000 1100 45 0.900000 2.152000 2.147000 600 56 1.000000 0.053000 0.053000 1.200000 0.036000 0.043000
1560181997642928748	900 51 1.000000 0.271000 0.284000 1100 45 0.900000 2.164000 2.159000 600 56 1.000000 0.053000 0.053000 1.200000 0.025000 0.030000
1560181998153150664	900 51 1.000000 0.272000 0.285000 1100 45 0.900000 2.158000 2.153000 600 56 1.000000 0.053000 0.053000 1.200000 0.025000 0.030000
1560181998663662831	900 51 1.000000 0.271000 0.284000 1100 45 0.900000 2.152000 2.147000 600 56 1.000000 0.053000 0.053000 1.200000 0.024000 0.028000
1560181999173776040	900 51 1.000000 0.316000 0.330000 1100 45 0.900000 2.155000 2.150000 600 56 1.000000 0.053000 0.053000 1.200000 0.052000 0.062000
1560181999684282998	900 51 1.000000 0.271000 0.284000 1100 45 0.900000 2.159000 2.154000 600 56 1.000000 0.053000 0.053000 1.200000 0.024000 0.028000
1560182000194765081	900 51 1.000000 0.271000 0.284000 1100 45 0.900000 2.157000 2.152000 600 56 1.000000 0.053000 0.053000 1.200000 0.025000 0.030000
1560182000705105456	900 51 1.000000 0.274000 0.287000 1100 45 0.900000 2.151000 2.146000 600 56 1.000000 0.053000 0.053000 1.200000 0.026000 0.031000
1560182001226058040	900 51 1.000000 0.274000 0.287000 1100 45 0.900000 2.154000 2.149000 600 56 1.000000 0.053000 0.053000 1.200000 0.025000 0.030000
1560182001740290373	900 51 1.000000 0.310000 0.324000 1100 45 0.900000 2.151000 2.146000 600 56 1.000000 0.053000 0.053000 1.200000 0.042000 0.050000
1560182002250828623	900 51 1.000000 0.274000 0.287000 1100 45 0.900000 2.157000 2.152000 600 56 1.000000 0.053000 0.053000 1.200000 0.025000 0.030000
1560182002761062207	900 51 1.000000 0.273000 0.286000 1100 45 0.900000 2.159000 2.154000 600 56 1.000000 0.053000 0.053000 1.200000 0.026000 0.031000
1560182003271476707	900 51 1.000000 0.274000 0.287000 1100 45 0.900000 2.153000 2.148000 600 56 1.000000 0.053000 0.053000 1.200000 0.026000 0.031000
1560182003781781332	900 51 1.000000 0.299000 0.313000 1100 45 0.900000 2.156000 2.151000 600 56 1.000000 0.053000 0.053000 1.200000 0.032000 0.038000
1560182004292255957	900 51 1.000000 0.273000 0.286000 1100 45 0.900000 2.168000 2.163000 600 56 1.000000 0.053000 0.053000 1.200000 0.026000 0.031000
1560182004802812915	900 51 1.000000 0.272000 0.285000 1100 45 0.900000 2.159000 2.154000 600 56 1.000000 0.053000 0.053000 1.200000 0.026000 0.031000
1560182005312930874	900 51 1.000000 0.272000 0.285000 1100 46 0.900000 2.154000 2.149000 600 56 1.000000 0.053000 0.053000 1.200000 0.027000 0.032000
1560182005823067790	900 51 1.000000 0.296000 0.310000 1100 46 0.900000 2.155000 2.150000 600 56 1.000000 0.053000 0.053000 1.200000 0.026000 0.031000
1560182006333368249	900 51 1.000000 0.272000 0.285000 1100 46 0.900000 2.158000 2.153000 600 56 1.000000 0.053000 0.053000 1.200000 0.026000 0.031000
1560182006843686666	900 51 1.000000 0.275000 0.288000 1100 45 0.900000 2.160000 2.155000 600 56 1.000000 0.053000 0.053000 1.200000 0.026000 0.031000
1560182007353858791	900 51 1.000000 0.272000 0.285000 1100 46 0.900000 2.160000 2.155000 600 56 1.000000 0.053000 0.053000 1.200000 0.027000 0.032000
1560182007877205291	900 51 1.000000 0.274000 0.287000 1100 46 0.900000 2.156000 2.151000 600 56 1.000000 0.053000 0.053000 1.200000 0.025000 0.030000
1560182008387619666	900 52 1.000000 0.286000 0.299000 1100 46 0.900000 2.156000 2.151000 600 56 1.000000 0.053000 0.053000 1.200000 0.035000 0.042000
1560182008897898999	900 51 1.000000 0.271000 0.284000 1100 46 0.900000 2.153000 2.148000 600 56 1.000000 0.053000 0.053000 1.200000 0.025000 0.030000
1560182009408054333	900 51 1.000000 0.274000 0.287000 1100 46 0.900000 2.155000 2.150000 600 56 1.000000 0.053000 0.053000 1.200000 0.025000 0.030000
1560182009918447374	900 51 1.000000 0.291000 0.304000 1100 46 0.900000 2.159000 2.154000 600 56 1.000000 0.053000 0.053000 1.200000 0.032000 0.038000
1560182010428756708	900 52 1.000000 0.296000 0.310000 1100 46 0.900000 2.157000 2.152000 600 57 1.000000 0.053000 0.053000 1.200000 0.030000 0.036000
1560182010939243874	900 51 1.000000 0.274000 0.287000 1100 46 0.900000 2.159000 2.154000 600 57 1.000000 0.053000 0.053000 1.200000 0.027000 0.032000
1560182011455886583	900 52 1.000000 0.273000 0.286000 1100 46 0.900000 2.161000 2.156000 600 57 1.000000 0.053000 0.053000 1.200000 0.026000 0.031000
1560182011966415208	900 52 1.000000 0.272000 0.285000 1100 46 0.900000 2.156000 2.151000 600 57 1.000000 0.053000 0.053000 1.200000 0.034000 0.041000
1560182012477055291	900 52 1.000000 0.294000 0.308000 1100 46 0.900000 2.158000 2.153000 600 57 1.000000 0.053000 0.053000 1.200000 0.026000 0.031000
1560182012987460041	900 52 1.000000 0.289000 0.302000 1100 46 0.900000 2.156000 2.151000 600 57 1.000000 0.053000 0.053000 1.200000 0.026000 0.031000
1560182013521958583	900 52 1.000000 0.272000 0.285000 1100 46 0.900000 2.160000 2.155000 600 57 1.000000 0.053000 0.053000 1.200000 0.027000 0.032000
1560182014036641416	900 52 1.000000 0.292000 0.306000 1100 46 0.900000 2.157000 2.152000 600 57 1.000000 0.053000 0.053000 1.200000 0.032000 0.038000
1560182014560231250	900 52 1.000000 0.273000 0.286000 1100 46 0.900000 2.155000 2.150000 600 57 1.000000 0.053000 0.053000 1.200000 0.026000 0.031000
1560182015075855333	900 52 1.000000 0.288000 0.301000 1100 46 0.900000 2.156000 2.151000 600 57 1.000000 0.053000 0.053000 1.200000 0.033000 0.039000
1560182015598079792	900 52 1.000000 0.274000 0.287000 1100 46 0.900000 2.159000 2.154000 600 57 1.000000 0.053000 0.053000 1.200000 0.026000 0.031000
1560182016116697208	900 52 1.000000 0.283000 0.296000 1100 46 0.900000 2.157000 2.152000 600 57 1.000000 0.053000 0.053000 1.200000 0.030000 0.036000
1560182016635293000	900 52 1.000000 0.272000 0.285000 1100 46 0.900000 2.154000 2.149000 600 57 1.000000 0.053000 0.053000 1.200000 0.025000 0.030000
1560182017148731333	900 52 1.000000 0.290000 0.303000 1100 46 0.900000 2.149000 2.144000 600 57 1.000000 0.053000 0.053000 1.200000 0.043000 0.051000
1560182017678739208	900 52 1.000000 0.272000 0.285000 1100 46 0.900000 2.163000 2.158000 600 57 1.000000 0.053000 0.053000 1.200000 0.026000 0.031000
1560182018189064667	900 52 1.000000 0.271000 0.284000 1100 46 0.900000 2.166000 2.161000 600 57 1.000000 0.053000 0.053000 1.200000 0.027000 0.032000
1560182018699413042	900 52 1.000000 0.272000 0.285000 1100 46 0.900000 2.162000 2.157000 600 57 1.000000 0.053000 0.053000 1.200000 0.024000 0.028000
1560182019209668167	900 52 1.000000 0.292000 0.306000 1100 46 0.900000 2.153000 2.148000 600 57 1.000000 0.053000 0.053000 1.200000 0.047000 0.056000
1560182019720056042	900 52 1.000000 0.275000 0.288000 1100 46 0.900000 2.152000 2.147000 600 57 1.000000 0.053000 0.053000 1.200000 0.025000 0.030000
1560182020230391084	900 52 1.000000 0.290000 0.303000 1100 46 0.900000 2.151000 2.146000 600 57 1.000000 0.053000 0.053000 1.200000 0.025000 0.030000
1560182020740699751	900 52 1.000000 0.272000 0.285000 1100 46 0.900000 2.160000 2.155000 600 57 1.000000 0.053000 0.053000 1.200000 0.026000 0.031000
1560182021250782084	900 52 1.000000 0.275000 0.288000 1100 46 0.900000 2.160000 2.155000 600 57 1.000000 0.053000 0.053000 1.200000 0.026000 0.031000
1560182021761145459	900 52 1.000000 0.292000 0.306000 1100 46 0.900000 2.152000 2.147000 600 57 1.000000 0.053000 0.053000 1.200000 0.033000 0.039000
1560182022271539459	900 52 1.000000 0.291000 0.304000 1100 46 0.900000 2.157000 2.152000 600 57 1.000000 0.053000 0.053000 1.200000 0.033000 0.039000
1560182022781868126	900 52 1.000000 0.275000 0.287000 1100 46 0.900000 2.164000 2.159000 600 57 1.000000 0.053000 0.053000 1.200000 0.026000 0.031000
1560182023307679792	900 52 1.000000 0.272000 0.285000 1100 46 0.900000 2.161000 2.156000 600 57 1.000000 0.053000 0.053000 1.200000 0.026000 0.031000
1560182023817827334	900 52 1.000000 0.293000 0.306000 1100 46 0.900000 2.155000 2.150000 600 57 1.000000 0.053000 0.053000 1.200000 0.040000 0.048000
1560182024328175084	900 52 1.000000 0.289000 0.302000 1100 46 0.900000 2.159000 2.154000 600 57 1.000000 0.053000 0.053000 1.200000 0.033000 0.039000
1560182024838793543	900 52 1.000000 0.273000 0.286000 1100 46 0.900000 2.170000 2.165000 600 57 1.000000 0.053000 0.053000 1.200000 0.025000 0.030000
1560182025348990168	900 52 1.000000 0.272000 0.285000 1100 46 0.900000 2.153000 2.148000 600 57 1.000000 0.053000 0.053000 1.200000 0.025000 0.030000
1560182025859300501	900 52 1.000000 0.289000 0.302000 1100 46 0.900000 2.153000 2.148000 600 57 1.000000 0.053000 0.053000 1.200000 0.047000 0.056000
1560182026369618210	900 52 1.000000 0.292000 0.305000 1100 46 0.900000 2.154000 2.149000 600 57 1.000000 0.053000 0.053000 1.200000 0.031000 0.037000
1560182026880097168	900 52 1.000000 0.275000 0.288000 1100 46 0.900000 2.160000 2.155000 600 57 1.000000 0.053000 0.053000 1.200000 0.025000 0.030000
1560182027390454001	900 52 1.000000 0.273000 0.286000 1100 46 0.900000 2.158000 2.153000 600 57 1.000000 0.053000 0.053000 1.200000 0.025000 0.030000
1560182027900896501	900 52 1.000000 0.287000 0.300000 1100 47 0.900000 2.157000 2.152000 600 57 1.000000 0.053000 0.053000 1.200000 0.043000 0.052000
1560182028411443543	900 52 1.000000 0.291000 0.304000 1100 46 0.900000 2.160000 2.155000 600 57 1.000000 0.053000 0.053000 1.200000 0.032000 0.038000
1560182028921791376	900 52 1.000000 0.273000 0.286000 1100 47 0.900000 2.162000 2.157000 600 57 1.000000 0.053000 0.053000 1.200000 0.027000 0.032000
1560182029432273752	900 52 1.000000 0.274000 0.287000 1100 46 0.900000 2.157000 2.152000 600 57 1.000000 0.053000 0.053000 1.200000 0.026000 0.031000
1560182029949509043	900 52 1.000000 0.275000 0.288000 1100 47 0.900000 2.162000 2.157000 600 57 1.000000 0.053000 0.053000 1.200000 0.025000 0.030000
1560182030464682085	900 52 1.000000 0.305000 0.319000 1100 47 0.900000 2.156000 2.151000 600 57 1.000000 0.053000 0.053000 1.200000 0.043000 0.051000
1560182030975266668	900 52 1.000000 0.275000 0.288000 1100 47 0.900000 2.166000 2.161000 600 57 1.000000 0.053000 0.053000 1.200000 0.026000 0.031000
1560182031485599460	900 52 1.000000 0.272000 0.285000 1100 46 0.900000 2.160000 2.155000 600 57 1.000000 0.053000 0.053000 1.200000 0.025000 0.030000
1560182031996100044	900 52 1.000000 0.274000 0.287000 1100 47 0.900000 2.165000 2.160000 600 57 1.000000 0.053000 0.053000 1.200000 0.025000 0.030000
1560182032506286460	900 53 1.000000 0.289000 0.302000 1100 47 0.900000 2.157000 2.152000 600 57 1.000000 0.053000 0.053000 1.200000 0.053000 0.064000
1560182033016646002	900 52 1.000000 0.273000 0.286000 1100 47 0.900000 2.161000 2.156000 600 57 1.000000 0.053000 0.053000 1.200000 0.024000 0.028000
1560182033527195169	900 52 1.000000 0.274000 0.287000 1100 47 0.900000 2.157000 2.152000 600 57 1.000000 0.053000 0.053000 1.200000 0.025000 0.030000
1560182034039045752	900 52 1.000000 0.274000 0.287000 1100 47 0.900000 2.158000 2.153000 600 57 1.000000 0.053000 0.053000 1.200000 0.025000 0.030000
1560182034558437169	900 52 1.000000 0.282000 0.295000 1100 47 0.900000 2.163000 2.158000 600 57 1.000000 0.053000 0.053000 1.200000 0.043000 0.051000
1560182035068835127	900 53 1.000000 0.272000 0.285000 1100 47 0.900000 2.162000 2.157000 600 57 1.000000 0.053000 0.053000 1.200000 0.024000 0.028000
1560182035579250086	900 52 1.000000 0.272000 0.285000 1100 47 0.900000 2.153000 2.148000 600 57 1.000000 0.053000 0.053000 1.200000 0.025000 0.030000
1560182036089671711	900 52 1.000000 0.272000 0.285000 1100 47 0.900000 2.161000 2.156000 600 58 1.000000 0.053000 0.053000 1.200000 0.024000 0.028000
1560182036615847419	900 52 1.000000 0.286000 0.299000 1100 47 0.900000 2.158000 2.153000 600 57 1.000000 0.053000 0.053000 1.200000 0.032000 0.038000
1560182037126142627	900 52 1.000000 0.272000 0.285000 1100 47 0.900000 2.161000 2.156000 600 58 1.000000 0.053000 0.053000 1.200000 0.025000 0.030000
1560182037636661669	900 52 1.000000 0.275000 0.287000 1100 47 0.900000 2.165000 2.160000 600 57 1.000000 0.053000 0.053000 1.200000 0.027000 0.032000
1560182038147143628	900 53 1.000000 0.274000 0.287000 1100 47 0.900000 2.159000 2.154000 600 58 1.000000 0.053000 0.053000 1.200000 0.026000 0.031000
1560182038657189544	900 53 1.000000 0.274000 0.287000 1100 47 0.900000 2.157000 2.152000 600 58 1.000000 0.053000 0.053000 1.200000 0.025000 0.030000
1560182039167643211	900 53 1.000000 0.293000 0.307000 1100 47 0.900000 2.156000 2.151000 600 58 1.000000 0.053000 0.053000 1.200000 0.043000 0.051000
1560182039678140294	900 53 1.000000 0.274000 0.287000 1100 47 0.900000 2.154000 2.149000 600 58 1.000000 0.053000 0.053000 1.200000 0.025000 0.030000
1560182040188727211	900 53 1.000000 0.274000 0.287000 1100 47 0.900000 2.160000 2.155000 600 58 1.000000 0.053000 0.053000 1.200000 0.026000 0.031000
1560182040700674795	900 53 1.000000 0.275000 0.288000 1100 47 0.900000 2.161000 2.156000 600 58 1.000000 0.053000 0.053000 1.200000 0.026000 0.031000
1560182041210868253	900 53 1.000000 0.284000 0.297000 1100 47 0.900000 2.156000 2.151000 600 58 1.000000 0.053000 0.053000 1.200000 0.032000 0.038000
1560182041721011753	900 53 1.000000 0.274000 0.287000 1100 47 0.900000 2.163000 2.158000 600 58 1.000000 0.053000 0.053000 1.200000 0.040000 0.048000
1560182042231313503	900 53 1.000000 0.272000 0.285000 1100 47 0.900000 2.162000 2.157000 600 58 1.000000 0.053000 0.053000 1.200000 0.026000 0.031000
1560182042770059378	900 53 1.000000 0.272000 0.285000 1100 47 0.900000 2.162000 2.157000 600 58 1.000000 0.053000 0.053000 1.200000 0.025000 0.030000
1560182043292519920	900 53 1.000000 0.272000 0.285000 1100 47 0.900000 2.163000 2.158000 600 58 1.000000 0.053000 0.053000 1.200000 0.034000 0.041000
1560182043808092503	900 53 1.000000 0.272000 0.285000 1100 47 0.900000 2.160000 2.155000 600 58 1.000000 0.053000 0.053000 1.200000 0.047000 0.056000
1560182044318348587	900 53 1.000000 0.275000 0.288000 1100 47 0.900000 2.164000 2.159000 600 58 1.000000 0.053000 0.053000 1.200000 0.026000 0.031000
1560182044850035753	900 53 1.000000 0.274000 0.287000 1100 47 0.900000 2.159000 2.154000 600 58 1.000000 0.053000 0.053000 1.200000 0.027000 0.032000
1560182045368586545	900 53 1.000000 0.292000 0.305000 1100 47 0.900000 2.163000 2.158000 600 58 1.000000 0.053000 0.053000 1.200000 0.033000 0.039000
1560182045879074920	900 53 1.000000 0.310000 0.324000 1100 47 0.900000 2.156000 2.151000 600 58 1.000000 0.053000 0.053000 1.200000 0.046000 0.055000
1560182046389498004	900 53 1.000000 0.273000 0.286000 1100 47 0.900000 2.165000 2.160000 600 58 1.000000 0.053000 0.053000 1.200000 0.026000 0.031000
1560182046920226379	900 53 1.000000 0.272000 0.285000 1100 47 0.900000 2.162000 2.157000 600 58 1.000000 0.053000 0.053000 1.200000 0.027000 0.032000
1560182047430882587	900 53 1.000000 0.273000 0.286000 1100 47 0.900000 2.163000 2.158000 600 58 1.000000 0.053000 0.053000 1.200000 0.030000 0.036000
1560182047941071212	900 53 1.000000 0.308000 0.322000 1100 47 0.900000 2.164000 2.159000 600 58 1.000000 0.053000 0.053000 1.200000 0.038000 0.045000
1560182048451538462	900 53 1.000000 0.274000 0.287000 1100 47 0.900000 2.156000 2.151000 600 58 1.000000 0.053000 0.053000 1.200000 0.036000 0.043000
1560182048961781087	900 53 1.000000 0.275000 0.288000 1100 47 0.900000 2.159000 2.154000 600 58 1.000000 0.053000 0.053000 1.200000 0.026000 0.031000
1560182049472092671	900 53 1.000000 0.291000 0.304000 1100 47 0.900000 2.162000 2.157000 600 58 1.000000 0.053000 0.053000 1.200000 0.032000 0.038000
1560182049993905337	900 53 1.000000 0.274000 0.287000 1100 47 0.900000 2.156000 2.151000 600 58 1.000000 0.053000 0.053000 1.200000 0.026000 0.031000
1560182050508617254	900 53 1.000000 0.272000 0.285000 1100 47 0.900000 2.156000 2.151000 600 58 1.000000 0.053000 0.053000 1.200000 0.045000 0.054000
1560182051019213837	900 53 1.000000 0.273000 0.286000 1100 47 0.900000 2.161000 2.156000 600 58 1.000000 0.053000 0.053000 1.200000 0.026000 0.031000
1560182051529601338	900 53 1.000000 0.287000 0.300000 1100 47 0.900000 2.167000 2.162000 600 58 1.000000 0.053000 0.053000 1.200000 0.033000 0.039000
1560182052049871963	900 53 1.000000 0.274000 0.287000 1100 47 0.900000 2.161000 2.156000 600 58 1.000000 0.053000 0.053000 1.200000 0.026000 0.031000
1560182052562314796	900 53 1.000000 0.308000 0.322000 1100 47 0.900000 2.154000 2.149000 600 58 1.000000 0.053000 0.053000 1.200000 0.049000 0.059000
1560182053072713004	900 53 1.000000 0.275000 0.288000 1100 47 0.900000 2.170000 2.165000 600 58 1.000000 0.053000 0.053000 1.200000 0.026000 0.031000
1560182053583217838	900 53 1.000000 0.291000 0.304000 1100 47 0.900000 2.164000 2.159000 600 58 1.000000 0.053000 0.053000 1.200000 0.032000 0.038000
1560182054093507004	900 53 1.000000 0.272000 0.285000 1100 47 0.900000 2.164000 2.159000 600 58 1.000000 0.053000 0.053000 1.200000 0.026000 0.031000
1560182054603943630	900 53 1.000000 0.306000 0.320000 1100 47 0.900000 2.159000 2.154000 600 58 1.000000 0.053000 0.053000 1.200000 0.040000 0.048000
1560182055114470505	900 53 1.000000 0.272000 0.285000 1100 47 0.900000 2.159000 2.154000 600 58 1.000000 0.053000 0.053000 1.200000 0.025000 0.030000
1560182055624872796	900 53 1.000000 0.284000 0.297000 1100 47 0.900000 2.167000 2.162000 600 58 1.000000 0.053000 0.053000 1.200000 0.033000 0.039000
1560182056135104088	900 53 1.000000 0.272000 0.285000 1100 47 0.900000 2.161000 2.156000 600 58 1.000000 0.053000 0.053000 1.200000 0.024000 0.028000
1560182056645055630	900 53 1.000000 0.305000 0.319000 1100 47 0.900000 2.163000 2.158000 600 58 1.000000 0.053000 0.053000 1.200000 0.029000 0.035000
1560182057155427297	900 53 1.000000 0.305000 0.319000 1100 47 0.900000 2.156000 2.151000 600 58 1.000000 0.053000 0.053000 1.200000 0.044000 0.053000
1560182057665600338	900 53 1.000000 0.274000 0.287000 1100 47 0.900000 2.164000 2.159000 600 58 1.000000 0.053000 0.053000 1.200000 0.026000 0.031000
1560182058176125755	900 53 1.000000 0.273000 0.286000 1100 47 0.900000 2.168000 2.163000 600 58 1.000000 0.053000 0.053000 1.200000 0.026000 0.031000
1560182058693973505	900 53 1.000000 0.275000 0.288000 1100 47 0.900000 2.166000 2.161000 600 58 1.000000 0.053000 0.053000 1.200000 0.026000 0.031000
1560182059208624130	900 53 1.000000 0.306000 0.320000 1100 47 0.900000 2.157000 2.152000 600 58 1.000000 0.053000 0.053000 1.200000 0.049000 0.059000
1560182059719251005	900 53 1.000000 0.275000 0.288000 1100 47 0.900000 2.163000 2.158000 600 58 1.000000 0.053000 0.053000 1.200000 0.028000 0.033000
1560182060229584047	900 53 1.000000 0.273000 0.286000 1100 47 0.900000 2.161000 2.156000 600 58 1.000000 0.053000 0.053000 1.200000 0.027000 0.032000
1560182060740076755	900 53 1.000000 0.274000 0.287000 1100 47 0.900000 2.157000 2.152000 600 58 1.000000 0.053000 0.053000 1.200000 0.026000 0.031000
1560182061250741339	900 53 1.000000 0.303000 0.317000 1100 47 0.900000 2.153000 2.148000 600 58 1.000000 0.053000 0.053000 1.200000 0.041000 0.049000
1560182061761072714	900 53 1.000000 0.290000 0.303000 1100 47 0.900000 2.167000 2.162000 600 58 1.000000 0.053000 0.053000 1.200000 0.030000 0.036000
1560182062271496714	900 53 1.000000 0.272000 0.285000 1100 47 0.900000 2.165000 2.160000 600 58 1.000000 0.053000 0.053000 1.200000 0.024000 0.028000
1560182062781882922	900 53 1.000000 0.273000 0.286000 1100 47 0.900000 2.162000 2.157000 600 58 1.000000 0.053000 0.053000 1.200000 0.025000 0.030000
1560182063292115339	900 53 1.000000 0.274000 0.287000 1100 47 0.900000 2.162000 2.157000 600 58 1.000000 0.053000 0.053000 1.200000 0.032000 0.038000
1560182063802495672	900 53 1.000000 0.280000 0.293000 1100 47 0.900000 2.163000 2.158000 600 58 1.000000 0.053000 0.053000 1.200000 0.032000 0.038000
1560182064312856047	900 53 1.000000 0.275000 0.288000 1100 47 0.900000 2.164000 2.159000 600 58 1.000000 0.053000 0.053000 1.200000 0.025000 0.030000
1560182064823293047	900 53 1.000000 0.272000 0.285000 1100 47 1.000000 2.168000 2.168000 600 58 1.000000 0.053000 0.053000 1.200000 0.025000 0.030000
1560182065341931631	900 53 1.000000 0.276000 0.289000 1100 47 0.900000 2.160000 2.155000 600 58 1.000000 0.053000 0.053000 1.200000 0.025000 0.030000
1560182065857472381	900 53 1.000000 0.303000 0.317000 1100 47 0.900000 2.158000 2.153000 600 58 1.000000 0.053000 0.053000 1.200000 0.049000 0.059000
1560182066367866964	900 53 1.000000 0.275000 0.288000 1100 47 0.900000 2.158000 2.153000 600 58 1.000000 0.053000 0.053000 1.200000 0.026000 0.031000
1560182066878329964	900 53 1.000000 0.275000 0.288000 1100 47 0.900000 2.166000 2.161000 600 58 1.000000 0.053000 0.053000 1.200000 0.025000 0.030000
1560182067388737381	900 53 1.000000 0.273000 0.286000 1100 47 0.900000 2.167000 2.162000 600 58 1.000000 0.053000 0.053000 1.200000 0.026000 0.031000
1560182067899193673	900 53 1.000000 0.304000 0.318000 1100 47 0.900000 2.161000 2.156000 600 58 1.000000 0.053000 0.053000 1.200000 0.044000 0.053000
1560182068409437965	900 53 1.000000 0.272000 0.285000 1100 47 0.900000 2.166000 2.161000 600 58 1.000000 0.053000 0.053000 1.200000 0.026000 0.031000
1560182068919957256	900 53 1.000000 0.273000 0.286000 1100 47 0.900000 2.168000 2.163000 600 58 1.000000 0.053000 0.053000 1.200000 0.025000 0.030000
1560182069430496465	900 53 1.000000 0.272000 0.285000 1100 47 0.900000 2.162000 2.157000 600 58 1.000000 0.053000 0.053000 1.200000 0.025000 0.030000
1560182069953817006	900 53 1.000000 0.275000 0.288000 1100 48 0.900000 2.159000 2.154000 600 58 1.000000 0.053000 0.053000 1.200000 0.034000 0.041000
1560182070466852965	900 53 1.000000 0.299000 0.313000 1100 48 0.900000 2.167000 2.162000 600 58 1.000000 0.053000 0.053000 1.200000 0.025000 0.030000
1560182070977157840	900 53 1.000000 0.276000 0.289000 1100 47 0.900000 2.164000 2.159000 600 58 1.000000 0.053000 0.053000 1.200000 0.025000 0.030000
1560182071487609423	900 53 1.000000 0.273000 0.286000 1100 47 0.900000 2.161000 2.156000 600 58 1.000000 0.053000 0.053000 1.200000 0.025000 0.030000
1560182072009415340	900 53 1.000000 0.272000 0.285000 1100 47 0.900000 2.159000 2.154000 600 58 1.000000 0.053000 0.053000 1.200000 0.025000 0.030000
1560182072519767048	900 53 1.000000 0.301000 0.315000 1100 47 0.900000 2.164000 2.159000 600 58 1.000000 0.053000 0.053000 1.200000 0.032000 0.038000
1560182073030230090	900 53 1.000000 0.272000 0.285000 1100 47 0.900000 2.159000 2.154000 600 58 1.000000 0.053000 0.053000 1.200000 0.025000 0.030000
1560182073540677507	900 53 1.000000 0.273000 0.286000 1100 47 0.900000 2.160000 2.155000 600 58 1.000000 0.053000 0.053000 1.200000 0.025000 0.030000
1560182074074042382	900 53 1.000000 0.272000 0.285000 1100 47 0.900000 2.168000 2.163000 600 58 1.000000 0.053000 0.053000 1.200000 0.024000 0.028000
1560182074584660715	900 53 1.000000 0.301000 0.315000 1100 47 0.900000 2.158000 2.153000 600 58 1.000000 0.053000 0.053000 1.200000 0.040000 0.048000
1560182075095259340	900 53 1.000000 0.274000 0.287000 1100 47 0.900000 2.168000 2.163000 600 58 1.000000 0.053000 0.053000 1.200000 0.026000 0.031000
1560182075605494424	900 53 1.000000 0.275000 0.288000 1100 47 1.000000 2.169000 2.169000 600 58 1.000000 0.053000 0.053000 1.200000 0.026000 0.031000
1560182076138906632	900 53 1.000000 0.274000 0.287000 1100 47 0.900000 2.171000 2.166000 600 58 1.000000 0.053000 0.053000 1.200000 0.026000 0.031000
1560182076649049674	900 53 1.000000 0.287000 0.300000 1100 48 0.900000 2.170000 2.165000 600 58 1.000000 0.053000 0.053000 1.200000 0.031000 0.037000
1560182077159553507	900 53 1.000000 0.304000 0.318000 1100 48 0.900000 2.156000 2.151000 600 58 1.000000 0.053000 0.053000 1.200000 0.025000 0.030000
1560182077669865841	900 53 1.000000 0.275000 0.287000 1100 47 0.900000 2.164000 2.159000 600 58 1.000000 0.053000 0.053000 1.200000 0.025000 0.030000
1560182078180292216	900 53 1.000000 0.274000 0.287000 1100 48 0.900000 2.162000 2.157000 600 58 1.000000 0.053000 0.053000 1.200000 0.025000 0.030000
1560182078701702757	900 53 1.000000 0.293000 0.307000 1100 47 0.900000 2.164000 2.159000 600 58 1.000000 0.053000 0.053000 1.200000 0.027000 0.032000
1560182079212606424	900 53 1.000000 0.303000 0.317000 1100 48 0.900000 2.160000 2.155000 600 58 1.000000 0.053000 0.053000 1.200000 0.045000 0.054000
1560182079723069758	900 53 1.000000 0.275000 0.288000 1100 48 0.900000 2.159000 2.154000 600 58 1.000000 0.053000 0.053000 1.200000 0.026000 0.031000
1560182080233426091	900 53 1.000000 0.272000 0.285000 1100 48 0.900000 2.161000 2.156000 600 58 1.000000 0.053000 0.053000 1.200000 0.027000 0.032000
1560182080743742174	900 53 1.000000 0.283000 0.296000 1100 48 0.900000 2.164000 2.159000 600 58 1.000000 0.053000 0.053000 1.200000 0.033000 0.039000
1560182081254217008	900 53 1.000000 0.302000 0.316000 1100 48 0.900000 2.167000 2.162000 600 58 1.000000 0.053000 0.053000 1.200000 0.035000 0.042000
1560182081764686466	900 53 1.000000 0.273000 0.286000 1100 48 1.000000 2.162000 2.162000 600 58 1.000000 0.053000 0.053000 1.200000 0.026000 0.031000
1560182082275357716	900 53 1.000000 0.274000 0.287000 1100 48 1.000000 2.169000 2.169000 600 58 1.000000 0.053000 0.053000 1.200000 0.026000 0.031000
1560182082785709383	900 53 1.000000 0.293000 0.307000 1100 48 0.900000 2.165000 2.160000 600 58 1.000000 0.053000 0.053000 1.200000 0.032000 0.038000
1560182083295911508	900 53 1.000000 0.280000 0.293000 1100 48 0.900000 2.165000 2.160000 600 58 1.000000 0.053000 0.053000 1.200000 0.027000 0.032000
1560182083806457341	900 53 1.000000 0.305000 0.319000 1100 48 0.900000 2.162000 2.157000 600 59 1.000000 0.053000 0.053000 1.200000 0.048000 0.057000
1560182084316796425	900 53 1.000000 0.275000 0.288000 1100 47 0.900000 2.163000 2.158000 600 58 1.000000 0.053000 0.053000 1.200000 0.026000 0.031000
1560182084827477133	900 53 1.000000 0.274000 0.287000 1100 48 0.900000 2.166000 2.161000 600 58 1.000000 0.053000 0.053000 1.200000 0.025000 0.030000
1560182085351034425	900 53 1.000000 0.274000 0.287000 1100 48 0.900000 2.170000 2.165000 600 58 1.000000 0.053000 0.053000 1.200000 0.026000 0.031000
1560182085864675800	900 53 1.000000 0.307000 0.321000 1100 48 0.900000 2.158000 2.153000 600 58 1.000000 0.053000 0.053000 1.200000 0.047000 0.056000
1560182086375290925	900 53 1.000000 0.272000 0.285000 1100 48 1.000000 2.164000 2.164000 600 58 1.000000 0.053000 0.053000 1.200000 0.026000 0.031000
1560182086885477050	900 53 1.000000 0.292000 0.306000 1100 48 1.000000 2.164000 2.164000 600 58 1.000000 0.053000 0.053000 1.200000 0.025000 0.030000
1560182087395797508	900 54 1.000000 0.273000 0.286000 1100 48 0.900000 2.168000 2.163000 600 58 1.000000 0.053000 0.053000 1.200000 0.026000 0.031000
1560182087906289675	900 54 1.000000 0.307000 0.321000 1100 48 0.900000 2.167000 2.162000 600 58 1.000000 0.053000 0.053000 1.200000 0.038000 0.045000
1560182088416621717	900 53 1.000000 0.275000 0.288000 1100 48 0.900000 2.170000 2.165000 600 58 1.000000 0.053000 0.053000 1.200000 0.027000 0.032000
1560182088927125550	900 53 1.000000 0.275000 0.288000 1100 48 0.900000 2.164000 2.159000 600 58 1.000000 0.053000 0.053000 1.200000 0.027000 0.032000
1560182089437487800	900 53 1.000000 0.273000 0.286000 1100 48 0.900000 2.163000 2.158000 600 58 1.000000 0.053000 0.053000 1.200000 0.026000 0.031000
1560182089947881717	900 53 1.000000 0.279000 0.292000 1100 48 0.900000 2.162000 2.157000 600 59 1.000000 0.053000 0.053000 1.200000 0.030000 0.036000
1560182090458291300	900 53 1.000000 0.274000 0.287000 1100 48 0.900000 2.159000 2.154000 600 58 1.000000 0.053000 0.053000 1.200000 0.026000 0.031000
1560182090968538259	900 54 1.000000 0.291000 0.304000 1100 48 0.900000 2.167000 2.162000 600 58 1.000000 0.053000 0.053000 1.200000 0.030000 0.036000
1560182091479065801	900 53 1.000000 0.272000 0.285000 1100 48 0.900000 2.170000 2.165000 600 58 1.000000 0.053000 0.053000 1.200000 0.025000 0.030000
1560182092001863134	900 53 1.000000 0.274000 0.287000 1100 48 0.900000 2.165000 2.160000 600 58 1.000000 0.053000 0.053000 1.200000 0.025000 0.030000
1560182092513276592	900 54 1.000000 0.307000 0.321000 1100 48 0.900000 2.164000 2.159000 600 59 1.000000 0.053000 0.053000 1.200000 0.049000 0.059000
1560182093023638134	900 54 1.000000 0.275000 0.288000 1100 48 0.900000 2.166000 2.161000 600 59 1.000000 0.053000 0.053000 1.200000 0.026000 0.031000
1560182093533686843	900 53 1.000000 0.274000 0.287000 1100 48 0.900000 2.167000 2.162000 600 58 1.000000 0.053000 0.053000 1.200000 0.027000 0.032000
1560182094044035301	900 53 1.000000 0.276000 0.289000 1100 48 0.900000 2.168000 2.163000 600 58 1.000000 0.053000 0.053000 1.200000 0.026000 0.031000
1560182094554677551	900 54 1.000000 0.308000 0.322000 1100 48 1.000000 2.155000 2.155000 600 59 1.000000 0.053000 0.053000 1.200000 0.040000 0.048000
1560182095064924718	900 54 1.000000 0.274000 0.287000 1100 48 1.000000 2.166000 2.166000 600 59 1.000000 0.053000 0.053000 1.200000 0.026000 0.031000
1560182095575547593	900 54 1.000000 0.279000 0.292000 1100 48 0.900000 2.164000 2.159000 600 59 1.000000 0.053000 0.053000 1.200000 0.026000 0.031000
1560182096085875343	900 53 1.000000 0.274000 0.286000 1100 48 1.000000 2.168000 2.168000 600 59 1.000000 0.053000 0.053000 1.200000 0.026000 0.031000
1560182096596394801	900 54 1.000000 0.274000 0.287000 1100 48 0.900000 2.166000 2.161000 600 59 1.000000 0.053000 0.053000 1.200000 0.031000 0.037000
1560182097106893926	900 54 1.000000 0.276000 0.289000 1100 48 0.900000 2.165000 2.160000 600 59 1.000000 0.053000 0.053000 1.200000 0.026000 0.031000
1560182097617216260	900 54 1.000000 0.274000 0.287000 1100 48 0.900000 2.172000 2.167000 600 58 1.000000 0.053000 0.053000 1.200000 0.025000 0.030000
1560182098127496260	900 53 1.000000 0.273000 0.286000 1100 48 0.900000 2.169000 2.164000 600 59 1.000000 0.053000 0.053000 1.200000 0.025000 0.030000
1560182098644398551	900 53 1.000000 0.272000 0.285000 1100 48 0.900000 2.165000 2.160000 600 58 1.000000 0.053000 0.053000 1.200000 0.025000 0.030000
1560182099156678718	900 54 1.000000 0.280000 0.293000 1100 48 0.900000 2.172000 2.167000 600 59 1.000000 0.053000 0.053000 1.200000 0.025000 0.030000
1560182099667266135	900 54 1.000000 0.273000 0.286000 1100 48 0.900000 2.171000 2.166000 600 59 1.000000 0.053000 0.053000 1.200000 0.024000 0.028000
1560182100177564927	900 54 1.000000 0.273000 0.286000 1100 48 0.900000 2.162000 2.157000 600 59 1.000000 0.053000 0.053000 1.200000 0.025000 0.030000
1560182100693870635	900 53 1.000000 0.275000 0.288000 1100 48 0.900000 2.165000 2.160000 600 59 1.000000 0.053000 0.053000 1.200000 0.027000 0.032000
1560182101206056177	900 54 1.000000 0.273000 0.286000 1100 48 0.900000 2.157000 2.152000 600 59 1.000000 0.053000 0.053000 1.200000 0.042000 0.050000
1560182101716544385	900 54 1.000000 0.292000 0.305000 1100 48 0.900000 2.165000 2.160000 600 59 1.000000 0.053000 0.053000 1.200000 0.031000 0.037000
1560182102227016344	900 54 1.000000 0.274000 0.287000 1100 48 0.900000 2.165000 2.160000 600 59 1.000000 0.053000 0.053000 1.200000 0.025000 0.030000
1560182102737227469	900 54 1.000000 0.275000 0.288000 1100 48 0.900000 2.166000 2.161000 600 59 1.000000 0.053000 0.053000 1.200000 0.026000 0.031000
1560182103247514760	900 54 1.000000 0.275000 0.288000 1100 48 0.900000 2.160000 2.155000 600 59 1.000000 0.053000 0.053000 1.200000 0.034000 0.041000
1560182103757816094	900 54 1.000000 0.289000 0.302000 1100 48 0.900000 2.165000 2.160000 600 59 1.000000 0.053000 0.053000 1.200000 0.027000 0.032000
1560182104268317635	900 54 1.000000 0.275000 0.288000 1100 48 0.900000 2.162000 2.157000 600 59 1.000000 0.053000 0.053000 1.200000 0.025000 0.030000
1560182104778814511	900 54 1.000000 0.275000 0.288000 1100 48 0.900000 2.166000 2.161000 600 59 1.000000 0.053000 0.053000 1.200000 0.025000 0.030000
1560182105321204552	900 54 1.000000 0.273000 0.286000 1100 48 0.900000 2.165000 2.160000 600 59 1.000000 0.053000 0.053000 1.200000 0.025000 0.030000
1560182105831725927	900 54 1.000000 0.279000 0.292000 1100 48 0.900000 2.164000 2.159000 600 59 1.000000 0.053000 0.053000 1.200000 0.030000 0.036000
1560182106342153927	900 54 1.000000 0.272000 0.285000 1100 48 0.900000 2.168000 2.163000 600 59 1.000000 0.053000 0.053000 1.200000 0.025000 0.030000
1560182106852503677	900 54 1.000000 0.272000 0.285000 1100 48 0.900000 2.170000 2.165000 600 59 1.000000 0.053000 0.053000 1.200000 0.024000 0.028000
1560182107363143386	900 54 1.000000 0.275000 0.288000 1100 48 0.900000 2.167000 2.162000 600 59 1.000000 0.053000 0.053000 1.200000 0.025000 0.030000
1560182107873412928	900 54 1.000000 0.310000 0.324000 1100 48 0.900000 2.162000 2.157000 600 59 1.000000 0.053000 0.053000 1.200000 0.046000 0.055000
1560182108383733053	900 54 1.000000 0.275000 0.288000 1100 48 1.000000 2.174000 2.174000 600 59 1.000000 0.053000 0.053000 1.200000 0.025000 0.030000
1560182108894276969	900 54 1.000000 0.273000 0.286000 1100 48 1.000000 2.168000 2.168000 600 59 1.000000 0.053000 0.053000 1.200000 0.025000 0.030000
1560182109404779719	900 54 1.000000 0.273000 0.286000 1100 48 0.900000 2.165000 2.160000 600 59 1.000000 0.053000 0.053000 1.200000 0.024000 0.028000
1560182109914857594	900 54 1.000000 0.275000 0.288000 1100 48 0.900000 2.162000 2.157000 600 59 1.000000 0.053000 0.053000 1.200000 0.033000 0.039000
1560182110425177761	900 54 1.000000 0.292000 0.306000 1100 48 0.900000 2.161000 2.156000 600 59 1.000000 0.053000 0.053000 1.200000 0.026000 0.031000
1560182110935837845	900 54 1.000000 0.274000 0.287000 1100 48 0.900000 2.170000 2.165000 600 59 1.000000 0.053000 0.053000 1.200000 0.027000 0.032000
1560182111446386261	900 54 1.000000 0.275000 0.288000 1100 48 0.900000 2.161000 2.156000 600 59 1.000000 0.053000 0.053000 1.200000 0.026000 0.031000
1560182111970722345	900 54 1.000000 0.293000 0.307000 1100 48 1.000000 2.169000 2.169000 600 59 1.000000 0.053000 0.053000 1.200000 0.032000 0.038000
1560182112481091178	900 54 1.000000 0.291000 0.304000 1100 48 1.000000 2.168000 2.168000 600 59 1.000000 0.053000 0.053000 1.200000 0.035000 0.042000
1560182112991429803	900 54 1.000000 0.273000 0.286000 1100 48 0.900000 2.170000 2.165000 600 59 1.000000 0.053000 0.053000 1.200000 0.025000 0.030000
1560182113501703428	900 54 1.000000 0.274000 0.287000 1100 48 0.900000 2.167000 2.162000 600 59 1.000000 0.053000 0.053000 1.200000 0.025000 0.030000
1560182114012026053	900 54 1.000000 0.275000 0.288000 1100 48 0.900000 2.167000 2.162000 600 59 1.000000 0.053000 0.053000 1.200000 0.031000 0.037000
1560182114522399303	900 54 1.000000 0.293000 0.307000 1100 48 0.900000 2.164000 2.159000 600 59 1.000000 0.053000 0.053000 1.200000 0.044000 0.053000
1560182115032778470	900 54 1.000000 0.273000 0.286000 1100 48 1.000000 2.169000 2.169000 600 59 1.000000 0.053000 0.053000 1.200000 0.025000 0.030000
1560182115543350762	900 54 1.000000 0.275000 0.288000 1100 48 0.900000 2.172000 2.167000 600 59 1.000000 0.053000 0.053000 1.200000 0.025000 0.030000
1560182116053658762	900 54 1.000000 0.288000 0.301000 1100 48 0.900000 2.175000 2.170000 600 59 1.000000 0.053000 0.053000 1.200000 0.031000 0.037000
1560182116563854970	900 54 1.000000 0.291000 0.304000 1100 48 0.900000 2.166000 2.161000 600 59 1.000000 0.053000 0.053000 1.200000 0.048000 0.057000
1560182117075372304	900 54 1.000000 0.272000 0.285000 1100 48 1.000000 2.162000 2.162000 600 59 1.000000 0.053000 0.053000 1.200000 0.024000 0.028000
1560182117585614429	900 54 1.000000 0.272000 0.285000 1100 48 0.900000 2.165000 2.160000 600 59 1.000000 0.053000 0.053000 1.200000 0.024000 0.028000
1560182118096080220	900 54 1.000000 0.274000 0.287000 1100 48 0.900000 2.158000 2.153000 600 59 1.000000 0.053000 0.053000 1.200000 0.024000 0.028000
1560182118613887637	900 54 1.000000 0.275000 0.288000 1100 48 0.900000 2.170000 2.165000 600 59 1.000000 0.053000 0.053000 1.200000 0.032000 0.038000
1560182119128593429	900 54 1.000000 0.294000 0.308000 1100 48 0.900000 2.162000 2.157000 600 59 1.000000 0.053000 0.053000 1.200000 0.042000 0.050000
1560182119639250637	900 54 1.000000 0.273000 0.286000 1100 48 0.900000 2.167000 2.162000 600 59 1.000000 0.053000 0.053000 1.200000 0.025000 0.030000
1560182120149480721	900 54 1.000000 0.275000 0.288000 1100 48 0.900000 2.161000 2.156000 600 59 1.000000 0.053000 0.053000 1.200000 0.027000 0.032000
1560182120659933679	900 54 1.000000 0.278000 0.291000 1100 48 0.900000 2.171000 2.166000 600 59 1.000000 0.053000 0.053000 1.200000 0.028000 0.033000
1560182121170250262	900 54 1.000000 0.291000 0.304000 1100 48 0.900000 2.162000 2.157000 600 59 1.000000 0.053000 0.053000 1.200000 0.032000 0.038000
1560182121680748596	900 54 1.000000 0.274000 0.287000 1100 48 0.900000 2.168000 2.163000 600 59 1.000000 0.053000 0.053000 1.200000 0.026000 0.031000
1560182122191108138	900 54 1.000000 0.274000 0.287000 1100 48 0.900000 2.161000 2.156000 600 59 1.000000 0.053000 0.053000 1.200000 0.027000 0.032000
1560182122701532263	900 54 1.000000 0.276000 0.289000 1100 48 0.900000 2.164000 2.159000 600 59 1.000000 0.053000 0.053000 1.200000 0.027000 0.032000
1560182123211867804	900 54 1.000000 0.288000 0.301000 1100 48 0.900000 2.162000 2.157000 600 59 1.000000 0.053000 0.053000 1.200000 0.025000 0.030000
1560182123722358346	900 54 1.000000 0.273000 0.286000 1100 48 0.900000 2.160000 2.155000 600 59 1.000000 0.053000 0.053000 1.200000 0.027000 0.032000
1560182124232669555	900 54 1.000000 0.280000 0.293000 1100 48 0.900000 2.159000 2.154000 600 59 1.000000 0.053000 0.053000 1.200000 0.027000 0.032000
1560182124743354096	900 54 1.000000 0.273000 0.286000 1100 48 1.000000 2.159000 2.159000 600 59 1.000000 0.053000 0.053000 1.200000 0.026000 0.031000
1560182125265928638	900 54 1.000000 0.288000 0.301000 1100 48 0.900000 2.157000 2.152000 600 59 1.000000 0.053000 0.053000 1.200000 0.025000 0.030000
1560182125777925888	900 54 1.000000 0.273000 0.286000 1100 48 0.900000 2.165000 2.160000 600 59 1.000000 0.053000 0.053000 1.200000 0.031000 0.037000
1560182126288130138	900 54 1.000000 0.273000 0.286000 1100 48 0.900000 2.160000 2.155000 600 59 1.000000 0.053000 0.053000 1.200000 0.025000 0.030000
1560182126798776305	900 54 1.000000 0.294000 0.308000 1100 48 0.900000 2.161000 2.156000 600 59 1.000000 0.053000 0.053000 1.200000 0.033000 0.039000
1560182127309053805	900 54 1.000000 0.274000 0.287000 1100 48 0.900000 2.158000 2.153000 600 59 1.000000 0.053000 0.053000 1.200000 0.026000 0.031000
1560182127819416263	900 54 1.000000 0.286000 0.299000 1100 48 0.900000 2.162000 2.157000 600 59 1.000000 0.053000 0.053000 1.200000 0.034000 0.041000
1560182128329458722	900 54 1.000000 0.276000 0.289000 1100 48 0.900000 2.160000 2.155000 600 59 1.000000 0.053000 0.053000 1.200000 0.027000 0.032000
1560182128839955888	900 54 1.000000 0.292000 0.306000 1100 48 1.000000 2.159000 2.159000 600 59 1.000000 0.053000 0.053000 1.200000 0.033000 0.039000
1560182129350375597	900 54 1.000000 0.274000 0.287000 1100 48 1.000000 2.164000 2.164000 600 59 1.000000 0.053000 0.053000 1.200000 0.026000 0.031000
1560182129860746264	900 54 1.000000 0.288000 0.301000 1100 48 1.000000 2.159000 2.159000 600 59 1.000000 0.053000 0.053000 1.200000 0.027000 0.032000
1560182130390765055	900 54 1.000000 0.273000 0.286000 1100 48 0.900000 2.162000 2.157000 600 59 1.000000 0.053000 0.053000 1.200000 0.026000 0.031000
1560182130901171347	900 54 1.000000 0.273000 0.286000 1100 48 1.000000 2.165000 2.165000 600 59 1.000000 0.053000 0.053000 1.200000 0.032000 0.038000
1560182131411583805	900 54 1.000000 0.273000 0.286000 1100 48 1.000000 2.163000 2.163000 600 59 1.000000 0.053000 0.053000 1.200000 0.025000 0.030000
1560182131930200514	900 54 1.000000 0.285000 0.298000 1100 48 1.000000 2.163000 2.163000 600 59 1.000000 0.053000 0.053000 1.200000 0.026000 0.031000
1560182132470081931	900 54 1.000000 0.297000 0.310000 1100 48 1.000000 2.164000 2.164000 600 59 1.000000 0.053000 0.053000 1.200000 0.028000 0.033000
1560182132980536181	900 54 1.000000 0.293000 0.307000 1100 48 1.000000 2.166000 2.166000 600 59 1.000000 0.053000 0.053000 1.200000 0.028000 0.033000
1560182133491075181	900 54 1.000000 0.275000 0.288000 1100 48 1.000000 2.169000 2.169000 600 59 1.000000 0.053000 0.053000 1.200000 0.026000 0.031000
1560182134011956764	900 54 1.000000 0.274000 0.287000 1100 48 1.000000 2.162000 2.162000 600 59 1.000000 0.053000 0.053000 1.200000 0.025000 0.030000
1560182134534020514	900 54 1.000000 0.300000 0.314000 1100 48 1.000000 2.164000 2.164000 600 59 1.000000 0.053000 0.053000 1.200000 0.039000 0.047000
1560182135048873597	900 54 1.000000 0.276000 0.289000 1100 48 1.000000 2.166000 2.166000 600 59 1.000000 0.053000 0.053000 1.200000 0.025000 0.030000
1560182135559325431	900 54 1.000000 0.272000 0.285000 1100 48 1.000000 2.164000 2.164000 600 59 1.000000 0.053000 0.053000 1.200000 0.024000 0.028000
1560182136069465598	900 54 1.000000 0.273000 0.286000 1100 48 1.000000 2.167000 2.167000 600 59 1.000000 0.053000 0.053000 1.200000 0.025000 0.030000
1560182136585950264	900 54 1.000000 0.301000 0.315000 1100 48 1.000000 2.154000 2.154000 600 59 1.000000 0.053000 0.053000 1.200000 0.047000 0.056000
1560182137100885348	900 54 1.000000 0.292000 0.306000 1100 48 1.000000 2.162000 2.162000 600 59 1.000000 0.053000 0.053000 1.200000 0.033000 0.039000
1560182137611433306	900 54 1.000000 0.274000 0.287000 1100 48 1.000000 2.162000 2.162000 600 59 1.000000 0.053000 0.053000 1.200000 0.026000 0.031000
1560182138121885723	900 54 1.000000 0.275000 0.288000 1100 48 1.000000 2.163000 2.163000 600 59 1.000000 0.053000 0.053000 1.200000 0.026000 0.031000
1560182138632083431	900 54 1.000000 0.282000 0.295000 1100 48 1.000000 2.158000 2.158000 600 59 1.000000 0.053000 0.053000 1.200000 0.026000 0.031000
1560182139142802140	900 54 1.000000 0.308000 0.322000 1100 48 1.000000 2.167000 2.167000 600 59 1.000000 0.053000 0.053000 1.200000 0.035000 0.042000
1560182139653021806	900 54 1.000000 0.275000 0.288000 1100 48 1.000000 2.164000 2.164000 600 59 1.000000 0.053000 0.053000 1.200000 0.026000 0.031000
1560182140163402181	900 54 1.000000 0.274000 0.287000 1100 48 1.000000 2.168000 2.168000 600 59 1.000000 0.053000 0.053000 1.200000 0.025000 0.030000
1560182140684810890	900 49 1.000000 0.275000 0.288000 1100 47 1.000000 2.159000 2.159000 600 54 1.000000 0.053000 0.053000 1.200000 0.026000 0.031000
1560182141196083807	900 46 1.000000 0.091000 0.096000 1100 45 1.000000 0.160000 0.160000 600 51 1.000000 0.053000 0.053000 1.200000 0.040000 0.048000
