#Timestamp	CPU(0) Frequency(MHz)	CPU(0) Temperature(C)	A7 Voltage(V)	A7 Current(A)	A7 Power(W)	CPU(4) Frequency(MHz)	CPU(4) Temperature(C)	A15 Voltage(V)	A15 Current(A)	A15 Power(W)	GPU Frequency(MHz)	GPU Temperature(C)	GPU Voltage(V)	GPU Current(A)	GPU Power(W)	RAM Voltage(V)	RAM Current(A)	RAM Power(W)
1553863081102083661	1200 38 1.100000 0.083000 0.097000 1700 34 1.100000 1.062000 1.242000 600 40 1.000000 0.051000 0.051000 1.200000 0.084000 0.101000
1553863081609429536	1200 39 1.100000 0.076000 0.089000 1700 35 1.100000 1.004000 1.174000 600 41 1.000000 0.052000 0.052000 1.200000 0.080000 0.097000
1553863082115510744	1200 40 1.100000 0.072000 0.084000 1700 35 1.100000 0.997000 1.166000 600 41 1.000000 0.052000 0.052000 1.200000 0.080000 0.097000
1553863082620895286	1200 40 1.100000 0.074000 0.086000 1700 36 1.100000 0.932000 1.088000 600 41 1.000000 0.052000 0.052000 1.200000 0.082000 0.099000
1553863083125871827	1200 39 1.100000 0.090000 0.105000 1700 36 1.100000 1.629000 1.910000 600 43 1.000000 0.052000 0.052000 1.200000 0.101000 0.122000
1553863083630757161	1200 40 1.100000 0.061000 0.071000 1700 36 1.100000 1.496000 1.753000 600 44 1.000000 0.052000 0.052000 1.200000 0.051000 0.061000
1553863084135718078	1200 40 1.100000 0.061000 0.071000 1700 37 1.100000 1.488000 1.743000 600 44 1.000000 0.052000 0.052000 1.200000 0.051000 0.061000
1553863084640759161	1200 40 1.100000 0.061000 0.071000 1700 37 1.100000 1.485000 1.740000 600 44 1.000000 0.052000 0.052000 1.200000 0.050000 0.060000
1553863085145679661	1200 41 1.100000 0.074000 0.086000 1700 38 1.100000 1.650000 1.935000 600 45 1.000000 0.052000 0.052000 1.200000 0.058000 0.070000
1553863085650599828	1200 41 1.100000 0.065000 0.076000 1700 38 1.100000 1.499000 1.756000 600 45 1.000000 0.052000 0.052000 1.200000 0.051000 0.061000
1553863086155858495	1200 49 1.100000 0.066000 0.077000 1700 39 1.100000 2.219000 2.609000 600 47 1.000000 0.052000 0.052000 1.200000 0.080000 0.096000
1553863086660959411	1200 49 1.100000 0.183000 0.214000 1700 40 1.100000 1.537000 1.801000 600 46 1.000000 0.053000 0.053000 1.200000 0.042000 0.050000
1553863087165710953	1200 45 1.100000 0.190000 0.222000 1700 40 1.100000 1.910000 2.240000 600 47 1.000000 0.053000 0.053000 1.200000 0.063000 0.076000
1553863087670505786	1200 43 1.100000 0.190000 0.222000 1700 39 1.100000 0.870000 1.016000 600 44 1.000000 0.053000 0.053000 1.200000 0.038000 0.045000
1553863088175368578	1200 41 1.100000 0.183000 0.214000 1700 39 1.100000 0.724000 0.845000 600 43 1.000000 0.053000 0.053000 1.200000 0.037000 0.044000
1553863088680961370	1200 41 1.100000 0.183000 0.214000 1700 38 1.100000 0.611000 0.713000 600 43 1.000000 0.052000 0.052000 1.200000 0.033000 0.039000
1553863089186563162	1200 41 1.100000 0.182000 0.213000 1700 38 1.100000 0.642000 0.749000 600 43 1.000000 0.053000 0.053000 1.200000 0.038000 0.045000
1553863089693661120	1200 49 1.100000 0.175000 0.204000 1700 40 1.100000 2.403000 2.825000 600 46 1.000000 0.053000 0.053000 1.200000 0.077000 0.093000
1553863090199756953	1200 46 1.100000 0.158000 0.185000 1700 40 1.100000 2.006000 2.357000 600 47 1.000000 0.053000 0.053000 1.200000 0.058000 0.070000
1553863090705195328	1200 46 1.100000 0.180000 0.210000 1700 40 1.100000 1.753000 2.056000 600 47 1.000000 0.053000 0.053000 1.200000 0.053000 0.064000
1553863091212403037	1200 51 1.100000 0.181000 0.211000 1700 42 1.100000 2.242000 2.634000 600 51 1.000000 0.053000 0.053000 1.200000 0.077000 0.093000
1553863091717956829	1200 46 1.100000 0.180000 0.210000 1700 41 1.100000 1.959000 2.297000 600 48 1.000000 0.053000 0.053000 1.200000 0.059000 0.071000
1553863092223254745	1200 47 1.100000 0.181000 0.211000 1700 41 1.100000 1.711000 2.007000 600 48 1.000000 0.053000 0.053000 1.200000 0.056000 0.067000
1553863092728657870	1200 50 1.100000 0.180000 0.210000 1700 42 1.100000 1.897000 2.228000 600 49 1.000000 0.053000 0.053000 1.200000 0.054000 0.065000
1553863093235400954	1200 52 1.100000 0.167000 0.195000 1700 43 1.100000 2.456000 2.888000 600 51 1.000000 0.053000 0.053000 1.200000 0.075000 0.090000
1553863093740592745	1200 49 1.100000 0.149000 0.174000 1700 43 1.100000 2.670000 3.142000 600 50 1.000000 0.053000 0.053000 1.200000 0.072000 0.087000
1553863094245711454	1200 48 1.100000 0.180000 0.210000 1700 43 1.100000 1.985000 2.332000 600 50 1.000000 0.053000 0.053000 1.200000 0.075000 0.090000
1553863094750973371	1200 52 1.100000 0.181000 0.211000 1700 43 1.100000 1.893000 2.220000 600 50 1.000000 0.053000 0.053000 1.200000 0.055000 0.066000
1553863095256895496	1200 53 1.100000 0.183000 0.214000 1700 44 1.100000 2.300000 2.702000 600 50 1.000000 0.053000 0.053000 1.200000 0.074000 0.089000
1553863095762148621	1200 54 1.100000 0.109000 0.127000 1700 44 1.100000 2.212000 2.601000 600 51 1.000000 0.053000 0.053000 1.200000 0.070000 0.084000
1553863096267460871	1200 54 1.100000 0.183000 0.214000 1700 44 1.100000 2.411000 2.835000 600 50 1.000000 0.053000 0.053000 1.200000 0.064000 0.077000
1553863096772763912	1200 54 1.100000 0.182000 0.213000 1700 45 1.100000 2.197000 2.581000 600 51 1.000000 0.053000 0.053000 1.200000 0.065000 0.078000
1553863097277763204	1200 52 1.100000 0.168000 0.196000 1700 44 1.100000 2.275000 2.673000 600 51 1.000000 0.053000 0.053000 1.200000 0.063000 0.076000
1553863097782750621	1200 51 1.100000 0.185000 0.216000 1700 44 1.100000 2.092000 2.458000 600 51 1.000000 0.053000 0.053000 1.200000 0.059000 0.071000
1553863098288179079	1200 54 1.100000 0.182000 0.213000 1700 44 1.100000 1.917000 2.252000 600 51 1.000000 0.053000 0.053000 1.200000 0.057000 0.068000
1553863098793440621	1200 54 1.100000 0.180000 0.210000 1700 44 1.100000 2.386000 2.805000 600 52 1.000000 0.053000 0.053000 1.200000 0.068000 0.082000
1553863099298500704	1200 53 1.100000 0.141000 0.165000 1700 45 1.100000 2.432000 2.860000 600 52 1.000000 0.053000 0.053000 1.200000 0.068000 0.082000
1553863099803740163	1200 54 1.100000 0.183000 0.214000 1700 45 1.100000 2.236000 2.627000 600 52 1.000000 0.053000 0.053000 1.200000 0.060000 0.072000
1553863100308753996	1200 55 1.100000 0.183000 0.214000 1700 45 1.100000 2.330000 2.740000 600 51 1.000000 0.053000 0.053000 1.200000 0.073000 0.088000
1553863100813857996	1200 54 1.100000 0.182000 0.213000 1700 45 1.100000 2.212000 2.599000 600 51 1.000000 0.053000 0.053000 1.200000 0.062000 0.075000
1553863101318897163	1200 52 1.100000 0.180000 0.210000 1700 45 1.100000 2.379000 2.797000 600 52 1.000000 0.053000 0.053000 1.200000 0.069000 0.083000
1553863101824200121	1200 55 1.100000 0.185000 0.216000 1700 45 1.100000 2.068000 2.429000 600 52 1.000000 0.054000 0.054000 1.200000 0.059000 0.071000
1553863102330053080	1200 56 1.100000 0.124000 0.145000 1700 46 1.100000 2.458000 2.890000 600 52 1.000000 0.053000 0.053000 1.200000 0.073000 0.088000
1553863102835875121	1200 50 1.100000 0.183000 0.214000 1700 45 1.100000 2.262000 2.657000 600 52 1.000000 0.053000 0.053000 1.200000 0.062000 0.074000
1553863103341182955	1200 55 1.100000 0.183000 0.214000 1700 45 1.100000 1.889000 2.215000 600 52 1.000000 0.053000 0.053000 1.200000 0.055000 0.066000
1553863103846633830	1200 52 1.100000 0.185000 0.216000 1700 45 1.100000 2.461000 2.896000 600 53 1.000000 0.053000 0.053000 1.200000 0.076000 0.091000
1553863104352143538	1200 51 1.100000 0.182000 0.213000 1700 44 1.100000 1.820000 2.134000 600 51 1.000000 0.053000 0.053000 1.200000 0.055000 0.066000
1553863104857986705	1200 54 1.100000 0.168000 0.196000 1700 45 1.100000 2.321000 2.729000 600 52 1.000000 0.053000 0.053000 1.200000 0.077000 0.093000
1553863105363742247	1200 53 1.100000 0.183000 0.214000 1700 45 1.100000 2.448000 2.878000 600 52 1.000000 0.053000 0.053000 1.200000 0.081000 0.098000
1553863105869792622	1200 51 1.100000 0.184000 0.215000 1700 45 1.100000 1.985000 2.332000 600 53 1.000000 0.053000 0.053000 1.200000 0.061000 0.073000
1553863106375637747	1200 55 1.100000 0.188000 0.219000 1700 45 1.100000 1.920000 2.256000 600 52 1.000000 0.053000 0.053000 1.200000 0.058000 0.070000
1553863106881378205	1200 56 1.100000 0.162000 0.189000 1700 46 1.100000 2.435000 2.863000 600 53 1.000000 0.053000 0.053000 1.200000 0.061000 0.073000
1553863107387455164	1200 56 1.100000 0.183000 0.214000 1700 46 1.100000 2.481000 2.920000 600 53 1.000000 0.053000 0.053000 1.200000 0.071000 0.085000
1553863107893007580	1200 54 1.100000 0.175000 0.204000 1700 46 1.100000 2.524000 2.970000 600 53 1.000000 0.054000 0.054000 1.200000 0.070000 0.084000
1553863108398795289	1200 52 1.100000 0.193000 0.225000 1700 45 1.100000 2.159000 2.536000 600 52 1.000000 0.053000 0.053000 1.200000 0.064000 0.077000
1553863108904515456	1200 53 1.100000 0.183000 0.214000 1700 45 1.100000 2.216000 2.606000 600 52 1.000000 0.054000 0.054000 1.200000 0.082000 0.099000
1553863109409996164	1200 51 1.100000 0.183000 0.214000 1700 45 1.100000 1.952000 2.289000 600 52 1.000000 0.053000 0.053000 1.200000 0.059000 0.071000
1553863109915835331	1200 55 1.100000 0.165000 0.193000 1700 45 1.100000 1.820000 2.134000 600 52 1.000000 0.054000 0.054000 1.200000 0.059000 0.071000
1553863110421792622	1200 56 1.100000 0.190000 0.222000 1700 46 1.100000 2.604000 3.064000 600 53 1.000000 0.054000 0.054000 1.200000 0.088000 0.106000
1553863110927694539	1200 56 1.100000 0.155000 0.181000 1700 46 1.100000 2.425000 2.851000 600 53 1.000000 0.054000 0.054000 1.200000 0.067000 0.081000
1553863111433331164	1200 52 1.100000 0.096000 0.112000 1700 46 1.100000 2.419000 2.844000 600 53 1.000000 0.054000 0.054000 1.200000 0.065000 0.078000
1553863111938877206	1200 52 1.100000 0.151000 0.176000 1700 46 1.100000 2.029000 2.380000 600 52 1.000000 0.053000 0.053000 1.200000 0.055000 0.066000
1553863112444434331	1200 55 1.100000 0.182000 0.213000 1700 46 1.100000 1.880000 2.205000 600 53 1.000000 0.053000 0.053000 1.200000 0.064000 0.077000
1553863112950329248	1200 56 1.100000 0.128000 0.150000 1700 46 1.100000 2.353000 2.767000 600 53 1.000000 0.054000 0.054000 1.200000 0.065000 0.078000
1553863113456087456	1200 51 1.100000 0.184000 0.215000 1700 46 1.100000 2.235000 2.628000 600 53 1.000000 0.054000 0.054000 1.200000 0.060000 0.072000
1553863113961946164	1200 56 1.100000 0.176000 0.206000 1700 46 1.100000 1.944000 2.280000 600 53 1.000000 0.053000 0.053000 1.200000 0.059000 0.071000
1553863114467522290	1200 56 1.100000 0.184000 0.215000 1700 46 1.100000 2.178000 2.561000 600 53 1.000000 0.054000 0.054000 1.200000 0.066000 0.079000
1553863114973120040	1200 55 1.100000 0.183000 0.214000 1700 46 1.100000 1.804000 2.116000 600 51 1.000000 0.053000 0.053000 1.200000 0.054000 0.065000
1553863115480611581	1200 55 1.100000 0.181000 0.211000 1700 46 1.100000 2.324000 2.733000 600 53 1.000000 0.053000 0.053000 1.200000 0.074000 0.089000
1553863115986408040	1200 57 1.100000 0.185000 0.216000 1700 47 1.100000 2.539000 2.988000 600 53 1.000000 0.054000 0.054000 1.200000 0.083000 0.100000
1553863116491865165	1200 55 1.100000 0.187000 0.218000 1700 46 1.100000 1.865000 2.187000 600 54 1.000000 0.053000 0.053000 1.200000 0.054000 0.065000
1553863116997578540	1200 56 1.100000 0.172000 0.201000 1700 46 1.100000 2.130000 2.502000 600 52 1.000000 0.054000 0.054000 1.200000 0.069000 0.083000
1553863117503375207	1200 57 1.100000 0.184000 0.215000 1700 47 1.100000 2.477000 2.912000 600 53 1.000000 0.054000 0.054000 1.200000 0.077000 0.093000
1553863118009183040	1200 57 1.100000 0.183000 0.214000 1700 46 1.100000 2.467000 2.901000 600 53 1.000000 0.053000 0.053000 1.200000 0.074000 0.089000
1553863118515349582	1200 56 1.100000 0.111000 0.130000 1700 47 1.100000 2.189000 2.572000 600 53 1.000000 0.054000 0.054000 1.200000 0.056000 0.067000
1553863119021225040	1200 56 1.100000 0.189000 0.221000 1700 47 1.100000 2.153000 2.529000 600 52 1.000000 0.054000 0.054000 1.200000 0.062000 0.075000
1553863119527278832	1200 55 1.100000 0.183000 0.214000 1700 46 1.100000 2.213000 2.600000 600 53 1.000000 0.054000 0.054000 1.200000 0.072000 0.087000
1553863120032581332	1200 56 1.100000 0.101000 0.118000 1700 47 1.100000 2.536000 2.984000 600 53 1.000000 0.054000 0.054000 1.200000 0.078000 0.094000
1553863120537538374	1200 56 1.100000 0.184000 0.215000 1700 46 1.100000 1.789000 2.098000 600 52 1.000000 0.053000 0.053000 1.200000 0.054000 0.065000
1553863121043598457	1200 55 1.100000 0.188000 0.220000 1700 46 1.100000 2.157000 2.534000 600 53 1.000000 0.053000 0.053000 1.200000 0.061000 0.073000
1553863121549137457	1200 52 1.100000 0.183000 0.214000 1700 46 1.100000 2.209000 2.595000 600 53 1.000000 0.054000 0.054000 1.200000 0.063000 0.076000
1553863122053990915	1200 50 1.100000 0.183000 0.214000 1700 45 1.100000 1.833000 2.150000 600 52 1.000000 0.054000 0.054000 1.200000 0.055000 0.066000
1553863122559866624	1200 55 1.100000 0.171000 0.200000 1700 46 1.100000 1.934000 2.272000 600 53 1.000000 0.053000 0.053000 1.200000 0.072000 0.087000
1553863123065532249	1200 56 1.100000 0.192000 0.224000 1700 47 1.100000 2.616000 3.079000 600 53 1.000000 0.053000 0.053000 1.200000 0.086000 0.104000
1553863123571287832	1200 51 1.100000 0.185000 0.216000 1700 46 1.100000 2.086000 2.451000 600 53 1.000000 0.054000 0.054000 1.200000 0.057000 0.068000
1553863124077201791	1200 55 1.100000 0.183000 0.214000 1700 46 1.100000 1.811000 2.124000 600 53 1.000000 0.054000 0.054000 1.200000 0.053000 0.064000
1553863124582543082	1200 57 1.100000 0.164000 0.192000 1700 47 1.100000 2.412000 2.836000 600 53 1.000000 0.053000 0.053000 1.200000 0.066000 0.079000
1553863125089199832	1200 57 1.100000 0.183000 0.214000 1700 47 1.100000 2.437000 2.865000 600 54 1.000000 0.053000 0.053000 1.200000 0.074000 0.089000
1553863125596499541	1200 57 1.100000 0.147000 0.172000 1700 47 1.100000 2.104000 2.472000 600 53 1.000000 0.053000 0.053000 1.200000 0.068000 0.082000
1553863126102188083	1200 56 1.100000 0.182000 0.213000 1700 47 1.100000 2.025000 2.379000 600 52 1.000000 0.054000 0.054000 1.200000 0.056000 0.067000
1553863126607823916	1200 57 1.100000 0.183000 0.214000 1700 47 1.100000 2.148000 2.523000 600 53 1.000000 0.053000 0.053000 1.200000 0.068000 0.082000
1553863127113693083	1200 57 1.100000 0.151000 0.176000 1700 47 1.100000 2.264000 2.662000 600 54 1.000000 0.053000 0.053000 1.200000 0.071000 0.085000
1553863127619431458	1200 57 1.100000 0.184000 0.215000 1700 47 1.100000 2.056000 2.415000 600 53 1.000000 0.054000 0.054000 1.200000 0.056000 0.067000
1553863128125463541	1200 56 1.100000 0.188000 0.220000 1700 47 1.100000 2.208000 2.596000 600 53 1.000000 0.054000 0.054000 1.200000 0.062000 0.074000
1553863128632910958	1200 52 1.100000 0.184000 0.215000 1700 47 1.100000 2.240000 2.636000 600 54 1.000000 0.054000 0.054000 1.200000 0.075000 0.090000
1553863129142461791	1200 54 1.100000 0.185000 0.216000 1700 46 1.100000 2.030000 2.385000 600 55 1.000000 0.053000 0.053000 1.200000 0.057000 0.068000
1553863129648178791	1200 54 1.100000 0.183000 0.214000 1700 46 1.100000 1.901000 2.233000 600 53 1.000000 0.053000 0.053000 1.200000 0.054000 0.065000
1553863130154224875	1200 54 1.100000 0.183000 0.214000 1700 46 1.100000 1.939000 2.278000 600 54 1.000000 0.053000 0.053000 1.200000 0.064000 0.077000
1553863130660163625	1200 56 1.100000 0.183000 0.214000 1700 47 1.100000 2.165000 2.546000 600 54 1.000000 0.054000 0.054000 1.200000 0.066000 0.079000
1553863131166117042	1200 57 1.100000 0.088000 0.103000 1700 47 1.100000 2.352000 2.765000 600 53 1.000000 0.054000 0.054000 1.200000 0.060000 0.072000
1553863131673496958	1200 56 1.100000 0.192000 0.224000 1700 47 1.100000 1.837000 2.154000 600 53 1.000000 0.053000 0.053000 1.200000 0.061000 0.073000
1553863132179397500	1200 57 1.100000 0.184000 0.215000 1700 47 1.100000 2.387000 2.804000 600 53 1.000000 0.054000 0.054000 1.200000 0.078000 0.094000
1553863132684924917	1200 56 1.100000 0.185000 0.216000 1700 47 1.100000 2.088000 2.449000 600 52 1.000000 0.054000 0.054000 1.200000 0.062000 0.075000
1553863133191692333	1200 56 1.100000 0.181000 0.211000 1700 47 1.100000 1.788000 2.097000 600 53 1.000000 0.054000 0.054000 1.200000 0.055000 0.066000
1553863133697667167	1200 57 1.100000 0.195000 0.227000 1700 47 1.100000 2.464000 2.900000 600 54 1.000000 0.053000 0.053000 1.200000 0.072000 0.087000
1553863134204694959	1200 57 1.100000 0.076000 0.089000 1700 47 1.100000 2.467000 2.901000 600 54 1.000000 0.054000 0.054000 1.200000 0.071000 0.085000
1553863134710406625	1200 53 1.100000 0.179000 0.209000 1700 46 1.100000 2.375000 2.793000 600 53 1.000000 0.054000 0.054000 1.200000 0.072000 0.087000
1553863135216001792	1200 52 1.100000 0.175000 0.204000 1700 46 1.100000 1.919000 2.250000 600 53 1.000000 0.054000 0.054000 1.200000 0.054000 0.065000
1553863135722485542	1200 56 1.100000 0.189000 0.221000 1700 47 1.100000 2.259000 2.656000 600 54 1.000000 0.054000 0.054000 1.200000 0.075000 0.090000
1553863136228352084	1200 54 1.100000 0.189000 0.221000 1700 47 1.100000 2.331000 2.741000 600 54 1.000000 0.054000 0.054000 1.200000 0.071000 0.085000
1553863136733885501	1200 53 1.100000 0.138000 0.161000 1700 46 1.100000 2.317000 2.724000 600 53 1.000000 0.054000 0.054000 1.200000 0.060000 0.072000
1553863137240775251	1200 56 1.100000 0.173000 0.202000 1700 46 1.100000 1.828000 2.144000 600 53 1.000000 0.054000 0.054000 1.200000 0.053000 0.064000
1553863137747427584	1200 56 1.100000 0.183000 0.214000 1700 47 1.100000 2.218000 2.608000 600 54 1.000000 0.054000 0.054000 1.200000 0.075000 0.090000
1553863138253021834	1200 57 1.100000 0.138000 0.161000 1700 47 1.100000 2.535000 2.983000 600 54 1.000000 0.054000 0.054000 1.200000 0.083000 0.100000
1553863138758646126	1200 56 1.100000 0.179000 0.209000 1700 47 1.100000 2.091000 2.456000 600 52 1.000000 0.054000 0.054000 1.200000 0.058000 0.070000
1553863139263968543	1200 57 1.100000 0.185000 0.216000 1700 47 1.100000 2.042000 2.399000 600 53 1.000000 0.053000 0.053000 1.200000 0.059000 0.071000
1553863139769023584	1200 57 1.100000 0.179000 0.209000 1700 47 1.100000 2.426000 2.852000 600 54 1.000000 0.054000 0.054000 1.200000 0.072000 0.087000
1553863140274173126	1200 56 1.100000 0.184000 0.215000 1700 47 1.100000 2.082000 2.442000 600 53 1.000000 0.053000 0.053000 1.200000 0.059000 0.071000
1553863140779452001	1200 56 1.100000 0.183000 0.214000 1700 47 1.100000 1.960000 2.299000 600 52 1.000000 0.054000 0.054000 1.200000 0.056000 0.067000
1553863141284708001	1200 56 1.100000 0.175000 0.204000 1700 47 1.100000 2.479000 2.915000 600 53 1.000000 0.054000 0.054000 1.200000 0.071000 0.085000
1553863141789504084	1200 53 1.100000 0.185000 0.216000 1700 47 1.100000 2.450000 2.881000 600 54 1.000000 0.054000 0.054000 1.200000 0.074000 0.089000
1553863142294852210	1200 55 1.100000 0.204000 0.238000 1700 47 1.100000 2.230000 2.620000 600 55 1.000000 0.054000 0.054000 1.200000 0.065000 0.078000
1553863142800192210	1200 57 1.100000 0.188000 0.219000 1700 47 1.100000 2.279000 2.677000 600 54 1.000000 0.053000 0.053000 1.200000 0.069000 0.083000
1553863143305206960	1200 54 1.100000 0.185000 0.216000 1700 47 1.100000 2.330000 2.740000 600 54 1.000000 0.053000 0.053000 1.200000 0.076000 0.091000
1553863143810231585	1200 52 1.100000 0.183000 0.214000 1700 47 1.100000 2.010000 2.357000 600 53 1.000000 0.053000 0.053000 1.200000 0.055000 0.066000
1553863144315605335	1200 54 1.100000 0.191000 0.223000 1700 46 1.100000 2.095000 2.457000 600 54 1.000000 0.053000 0.053000 1.200000 0.065000 0.078000
1553863144820748252	1200 57 1.100000 0.185000 0.216000 1700 47 1.100000 2.380000 2.798000 600 54 1.000000 0.054000 0.054000 1.200000 0.077000 0.093000
1553863145325901210	1200 58 1.100000 0.097000 0.113000 1700 47 1.100000 2.390000 2.810000 600 54 1.000000 0.054000 0.054000 1.200000 0.068000 0.082000
1553863145831066252	1200 54 1.100000 0.184000 0.215000 1700 47 1.100000 2.295000 2.696000 600 54 1.000000 0.054000 0.054000 1.200000 0.062000 0.074000
1553863146336185335	1200 58 1.100000 0.195000 0.227000 1700 47 1.100000 2.411000 2.835000 600 55 1.000000 0.054000 0.054000 1.200000 0.076000 0.091000
1553863146841397918	1200 55 1.100000 0.170000 0.199000 1700 48 1.100000 2.252000 2.646000 600 54 1.000000 0.054000 0.054000 1.200000 0.065000 0.078000
1553863147347979460	1200 53 1.100000 0.183000 0.214000 1700 47 1.100000 1.879000 2.204000 600 54 1.000000 0.054000 0.054000 1.200000 0.053000 0.064000
1553863147853285127	1200 55 1.100000 0.182000 0.213000 1700 46 1.100000 1.810000 2.126000 600 53 1.000000 0.054000 0.054000 1.200000 0.053000 0.064000
1553863148358771919	1200 57 1.100000 0.183000 0.214000 1700 47 1.100000 2.070000 2.432000 600 56 1.000000 0.054000 0.054000 1.200000 0.064000 0.077000
1553863148864200627	1200 55 1.100000 0.153000 0.179000 1700 47 1.100000 2.550000 3.001000 600 54 1.000000 0.054000 0.054000 1.200000 0.087000 0.105000
1553863149369229085	1200 53 1.100000 0.184000 0.215000 1700 47 1.100000 1.993000 2.337000 600 54 1.000000 0.054000 0.054000 1.200000 0.055000 0.066000
1553863149874539835	1200 58 1.100000 0.184000 0.215000 1700 47 1.100000 1.900000 2.228000 600 54 1.000000 0.054000 0.054000 1.200000 0.057000 0.068000
1553863150380107377	1200 57 1.100000 0.186000 0.217000 1700 47 1.100000 2.220000 2.608000 600 55 1.000000 0.054000 0.054000 1.200000 0.063000 0.076000
1553863150885252794	1200 56 1.100000 0.185000 0.216000 1700 47 1.100000 1.919000 2.250000 600 53 1.000000 0.054000 0.054000 1.200000 0.056000 0.067000
1553863151390620461	1200 57 1.100000 0.172000 0.201000 1700 48 1.100000 2.429000 2.856000 600 54 1.000000 0.054000 0.054000 1.200000 0.063000 0.076000
1553863151896902752	1200 58 1.100000 0.183000 0.214000 1700 48 1.100000 2.469000 2.903000 600 55 1.000000 0.054000 0.054000 1.200000 0.071000 0.085000
1553863152407297294	1200 57 1.100000 0.163000 0.190000 1700 48 1.100000 2.121000 2.492000 600 55 1.000000 0.054000 0.054000 1.200000 0.063000 0.076000
1553863152913676419	1200 57 1.100000 0.183000 0.214000 1700 48 1.100000 1.906000 2.235000 600 53 1.000000 0.054000 0.054000 1.200000 0.053000 0.064000
1553863153419404336	1200 57 1.100000 0.185000 0.216000 1700 47 1.100000 1.878000 2.202000 600 53 1.000000 0.054000 0.054000 1.200000 0.060000 0.072000
1553863153926334294	1200 57 1.100000 0.129000 0.151000 1700 47 1.100000 2.230000 2.620000 600 54 1.000000 0.054000 0.054000 1.200000 0.067000 0.081000
1553863154432636336	1200 57 1.100000 0.164000 0.192000 1700 48 1.100000 2.438000 2.867000 600 54 1.000000 0.054000 0.054000 1.200000 0.073000 0.088000
1553863154938536919	1200 57 1.100000 0.203000 0.237000 1700 48 1.100000 2.199000 2.583000 600 54 1.000000 0.054000 0.054000 1.200000 0.070000 0.084000
1553863155444374169	1200 58 1.100000 0.184000 0.215000 1700 48 1.100000 2.395000 2.816000 600 54 1.000000 0.054000 0.054000 1.200000 0.071000 0.085000
1553863155950277336	1200 56 1.100000 0.181000 0.211000 1700 47 1.100000 1.492000 1.747000 600 52 1.000000 0.054000 0.054000 1.200000 0.052000 0.062000
1553863156455771253	1200 57 1.100000 0.184000 0.215000 1700 47 1.100000 1.966000 2.306000 600 53 1.000000 0.054000 0.054000 1.200000 0.054000 0.065000
1553863156961986920	1200 57 1.100000 0.191000 0.223000 1700 47 1.100000 2.066000 2.427000 600 53 1.000000 0.054000 0.054000 1.200000 0.075000 0.090000
1553863157467699295	1200 53 1.100000 0.184000 0.215000 1700 47 1.100000 2.118000 2.488000 600 54 1.000000 0.054000 0.054000 1.200000 0.063000 0.076000
1553863157973565586	1200 57 1.100000 0.165000 0.193000 1700 47 1.100000 2.170000 2.551000 600 54 1.000000 0.054000 0.054000 1.200000 0.061000 0.073000
1553863158479383045	1200 57 1.100000 0.185000 0.216000 1700 48 1.100000 2.415000 2.842000 600 54 1.000000 0.054000 0.054000 1.200000 0.063000 0.076000
1553863158985253253	1200 58 1.100000 0.198000 0.231000 1700 48 1.100000 2.664000 3.135000 600 55 1.000000 0.054000 0.054000 1.200000 0.091000 0.110000
1553863159490758087	1200 57 1.100000 0.185000 0.216000 1700 48 1.100000 1.838000 2.155000 600 53 1.000000 0.054000 0.054000 1.200000 0.055000 0.066000
1553863159995901087	1200 57 1.100000 0.183000 0.214000 1700 48 1.100000 1.935000 2.273000 600 53 1.000000 0.054000 0.054000 1.200000 0.057000 0.068000
1553863160502549337	1200 57 1.100000 0.183000 0.214000 1700 47 1.100000 1.590000 1.863000 600 53 1.000000 0.054000 0.054000 1.200000 0.053000 0.064000
1553863161007824545	1200 56 1.100000 0.183000 0.214000 1700 47 1.100000 2.045000 2.402000 600 53 1.000000 0.054000 0.054000 1.200000 0.065000 0.078000
1553863161512759045	1200 49 1.100000 0.193000 0.225000 1700 46 1.100000 1.577000 1.848000 600 52 1.000000 0.054000 0.054000 1.200000 0.053000 0.064000
1553863162017737879	1200 54 1.100000 0.181000 0.211000 1700 46 1.100000 1.125000 1.317000 600 52 1.000000 0.054000 0.054000 1.200000 0.049000 0.059000
1553863162523139879	1200 55 1.100000 0.184000 0.215000 1700 46 1.100000 1.451000 1.699000 600 53 1.000000 0.053000 0.053000 1.200000 0.056000 0.067000
1553863163029428254	1200 57 1.100000 0.181000 0.211000 1700 47 1.100000 2.526000 2.973000 600 54 1.000000 0.053000 0.053000 1.200000 0.077000 0.093000
1553863163534767462	1200 52 1.100000 0.189000 0.221000 1700 47 1.100000 2.441000 2.870000 600 54 1.000000 0.054000 0.054000 1.200000 0.064000 0.077000
1553863164039915462	1200 54 1.100000 0.183000 0.214000 1700 46 1.100000 1.769000 2.073000 600 54 1.000000 0.054000 0.054000 1.200000 0.052000 0.062000
1553863164545149254	1200 57 1.100000 0.184000 0.215000 1700 47 1.100000 2.467000 2.901000 600 54 1.000000 0.054000 0.054000 1.200000 0.078000 0.094000
1553863165054073379	1200 57 1.100000 0.100000 0.117000 1700 47 1.100000 2.460000 2.892000 600 56 1.000000 0.054000 0.054000 1.200000 0.064000 0.077000
1553863165559651921	1200 57 1.100000 0.182000 0.213000 1700 47 1.100000 1.582000 1.854000 600 53 1.000000 0.054000 0.054000 1.200000 0.051000 0.061000
1553863166065101379	1200 56 1.100000 0.182000 0.213000 1700 47 1.100000 1.646000 1.929000 600 52 1.000000 0.054000 0.054000 1.200000 0.052000 0.062000
1553863166570312712	1200 56 1.100000 0.182000 0.213000 1700 47 1.100000 2.038000 2.394000 600 52 1.000000 0.054000 0.054000 1.200000 0.065000 0.078000
1553863167075585671	1200 50 1.100000 0.183000 0.214000 1700 46 1.100000 1.617000 1.895000 600 52 1.000000 0.053000 0.053000 1.200000 0.056000 0.067000
1553863167581069088	1200 54 1.100000 0.193000 0.226000 1700 46 1.100000 1.970000 2.310000 600 53 1.000000 0.054000 0.054000 1.200000 0.062000 0.074000
1553863168087934796	1200 57 1.100000 0.153000 0.179000 1700 47 1.100000 2.349000 2.762000 600 53 1.000000 0.054000 0.054000 1.200000 0.079000 0.095000
1553863168593928671	1200 57 1.100000 0.186000 0.217000 1700 47 1.100000 2.425000 2.851000 600 54 1.000000 0.053000 0.053000 1.200000 0.068000 0.082000
1553863169099168421	1200 55 1.100000 0.184000 0.215000 1700 47 1.100000 2.511000 2.952000 600 54 1.000000 0.054000 0.054000 1.200000 0.064000 0.077000
1553863169604211296	1200 57 1.100000 0.191000 0.223000 1700 47 1.100000 2.090000 2.451000 600 54 1.000000 0.053000 0.053000 1.200000 0.072000 0.087000
1553863170109372671	1200 58 1.100000 0.186000 0.217000 1700 48 1.100000 2.434000 2.862000 600 54 1.000000 0.054000 0.054000 1.200000 0.079000 0.095000
1553863170615995338	1200 58 1.100000 0.122000 0.142000 1700 48 1.100000 2.481000 2.920000 600 55 1.000000 0.054000 0.054000 1.200000 0.066000 0.079000
1553863171121024588	1200 58 1.100000 0.186000 0.217000 1700 48 1.100000 2.504000 2.947000 600 54 1.000000 0.054000 0.054000 1.200000 0.063000 0.076000
1553863171626233213	1200 58 1.100000 0.196000 0.228000 1700 48 1.100000 1.974000 2.319000 600 55 1.000000 0.054000 0.054000 1.200000 0.055000 0.066000
1553863172131305588	1200 51 1.100000 0.185000 0.216000 1700 47 1.100000 2.489000 2.929000 600 54 1.000000 0.054000 0.054000 1.200000 0.072000 0.087000
1553863172636854421	1200 52 1.100000 0.180000 0.210000 1700 47 1.100000 1.786000 2.094000 600 54 1.000000 0.054000 0.054000 1.200000 0.064000 0.077000
1553863173142408255	1200 54 1.100000 0.181000 0.211000 1700 47 1.100000 1.868000 2.191000 600 54 1.000000 0.054000 0.054000 1.200000 0.068000 0.082000
1553863173647659338	1200 58 1.100000 0.183000 0.214000 1700 47 1.100000 1.984000 2.331000 600 54 1.000000 0.054000 0.054000 1.200000 0.056000 0.067000
1553863174152691797	1200 54 1.100000 0.193000 0.225000 1700 47 1.100000 2.488000 2.928000 600 54 1.000000 0.054000 0.054000 1.200000 0.076000 0.091000
1553863174658453380	1200 57 1.100000 0.181000 0.211000 1700 47 1.100000 2.009000 2.360000 600 54 1.000000 0.054000 0.054000 1.200000 0.055000 0.066000
1553863175164296838	1200 58 1.100000 0.112000 0.131000 1700 48 1.100000 2.425000 2.851000 600 55 1.000000 0.054000 0.054000 1.200000 0.066000 0.079000
1553863175669448880	1200 56 1.100000 0.185000 0.216000 1700 48 1.100000 2.454000 2.888000 600 55 1.000000 0.054000 0.054000 1.200000 0.081000 0.098000
1553863176175264547	1200 57 1.100000 0.187000 0.218000 1700 48 1.100000 2.158000 2.535000 600 55 1.000000 0.054000 0.054000 1.200000 0.067000 0.081000
1553863176681200714	1200 54 1.100000 0.184000 0.215000 1700 48 1.100000 2.430000 2.860000 600 55 1.000000 0.054000 0.054000 1.200000 0.061000 0.073000
1553863177188206964	1200 58 1.100000 0.184000 0.215000 1700 48 1.100000 1.922000 2.258000 600 55 1.000000 0.054000 0.054000 1.200000 0.059000 0.071000
1553863177694003214	1200 58 1.100000 0.114000 0.133000 1700 48 1.100000 2.312000 2.718000 600 56 1.000000 0.054000 0.054000 1.200000 0.069000 0.083000
1553863178199965130	1200 58 1.100000 0.185000 0.216000 1700 48 1.100000 2.252000 2.648000 600 54 1.000000 0.054000 0.054000 1.200000 0.068000 0.082000
1553863178706378006	1200 57 1.100000 0.183000 0.214000 1700 48 1.100000 1.982000 2.328000 600 54 1.000000 0.054000 0.054000 1.200000 0.055000 0.066000
1553863179211655756	1200 58 1.100000 0.185000 0.216000 1700 48 1.100000 2.280000 2.681000 600 54 1.000000 0.054000 0.054000 1.200000 0.076000 0.091000
1553863179717097047	1200 57 1.100000 0.184000 0.215000 1700 48 1.100000 2.026000 2.380000 600 53 1.000000 0.054000 0.054000 1.200000 0.058000 0.070000
1553863180222945214	1200 57 1.100000 0.183000 0.214000 1700 48 1.100000 1.877000 2.205000 600 54 1.000000 0.054000 0.054000 1.200000 0.060000 0.072000
1553863180729990089	1200 58 1.100000 0.183000 0.214000 1700 48 1.100000 2.438000 2.869000 600 55 1.000000 0.053000 0.053000 1.200000 0.074000 0.089000
1553863181235736298	1200 58 1.100000 0.150000 0.175000 1700 48 1.100000 2.448000 2.881000 600 55 1.000000 0.054000 0.054000 1.200000 0.069000 0.083000
1553863181741450631	1200 58 1.100000 0.183000 0.214000 1700 48 1.100000 1.968000 2.312000 600 54 1.000000 0.054000 0.054000 1.200000 0.056000 0.067000
1553863182246910923	1200 57 1.100000 0.191000 0.223000 1700 48 1.100000 2.044000 2.401000 600 54 1.000000 0.054000 0.054000 1.200000 0.062000 0.075000
1553863182753574673	1200 58 1.100000 0.184000 0.215000 1700 48 1.100000 2.502000 2.944000 600 55 1.000000 0.054000 0.054000 1.200000 0.068000 0.082000
1553863183259501589	1200 56 1.100000 0.150000 0.175000 1700 48 1.100000 2.483000 2.922000 600 55 1.000000 0.054000 0.054000 1.200000 0.073000 0.088000
1553863183765292839	1200 55 1.100000 0.180000 0.210000 1700 47 1.100000 1.845000 2.167000 600 54 1.000000 0.054000 0.054000 1.200000 0.055000 0.066000
1553863184271063048	1200 55 1.100000 0.199000 0.232000 1700 48 1.100000 2.496000 2.937000 600 55 1.000000 0.054000 0.054000 1.200000 0.091000 0.110000
1553863184776878006	1200 52 1.100000 0.185000 0.216000 1700 47 1.100000 1.924000 2.260000 600 54 1.000000 0.054000 0.054000 1.200000 0.056000 0.067000
1553863185282582756	1200 57 1.100000 0.183000 0.214000 1700 48 1.100000 1.751000 2.053000 600 54 1.000000 0.054000 0.054000 1.200000 0.054000 0.065000
1553863185789453340	1200 58 1.100000 0.185000 0.216000 1700 48 1.100000 2.459000 2.894000 600 55 1.000000 0.054000 0.054000 1.200000 0.069000 0.083000
1553863186295374131	1200 58 1.100000 0.143000 0.167000 1700 48 1.100000 2.483000 2.922000 600 56 1.000000 0.054000 0.054000 1.200000 0.071000 0.085000
1553863186801086757	1200 58 1.100000 0.155000 0.181000 1700 48 1.100000 2.455000 2.889000 600 54 1.000000 0.054000 0.054000 1.200000 0.078000 0.094000
1553863187306766882	1200 58 1.100000 0.184000 0.215000 1700 48 1.100000 1.905000 2.238000 600 54 1.000000 0.054000 0.054000 1.200000 0.056000 0.067000
1553863187813489257	1200 58 1.100000 0.184000 0.215000 1700 48 1.100000 2.318000 2.725000 600 54 1.000000 0.054000 0.054000 1.200000 0.081000 0.098000
1553863188320083382	1200 57 1.100000 0.186000 0.217000 1700 48 1.100000 1.924000 2.260000 600 55 1.000000 0.054000 0.054000 1.200000 0.058000 0.070000
1553863188826655048	1200 58 1.100000 0.189000 0.221000 1700 48 1.100000 1.873000 2.200000 600 54 1.000000 0.054000 0.054000 1.200000 0.062000 0.075000
1553863189333645632	1200 58 1.100000 0.167000 0.195000 1700 48 1.100000 2.247000 2.642000 600 54 1.000000 0.054000 0.054000 1.200000 0.060000 0.072000
1553863189839638507	1200 58 1.100000 0.163000 0.190000 1700 48 1.100000 2.383000 2.804000 600 55 1.000000 0.054000 0.054000 1.200000 0.074000 0.089000
1553863190345429424	1200 54 1.100000 0.185000 0.216000 1700 48 1.100000 2.146000 2.521000 600 54 1.000000 0.054000 0.054000 1.200000 0.059000 0.071000
1553863190851239632	1200 55 1.100000 0.185000 0.216000 1700 47 1.100000 1.689000 1.981000 600 54 1.000000 0.054000 0.054000 1.200000 0.055000 0.066000
1553863191356961424	1200 58 1.100000 0.185000 0.216000 1700 48 1.100000 2.096000 2.462000 600 55 1.000000 0.054000 0.054000 1.200000 0.059000 0.071000
1553863191862321507	1200 58 1.100000 0.186000 0.217000 1700 48 1.100000 2.066000 2.427000 600 54 1.000000 0.054000 0.054000 1.200000 0.063000 0.076000
1553863192368214091	1200 57 1.100000 0.182000 0.213000 1700 48 1.100000 1.730000 2.029000 600 54 1.000000 0.054000 0.054000 1.200000 0.054000 0.065000
1553863192874205924	1200 57 1.100000 0.138000 0.161000 1700 48 1.100000 2.598000 3.057000 600 54 1.000000 0.054000 0.054000 1.200000 0.071000 0.085000
1553863193380056591	1200 58 1.100000 0.185000 0.216000 1700 48 1.100000 2.487000 2.927000 600 55 1.000000 0.054000 0.054000 1.200000 0.070000 0.084000
1553863193885478216	1200 59 1.100000 0.116000 0.135000 1700 49 1.100000 2.491000 2.931000 600 55 1.000000 0.054000 0.054000 1.200000 0.074000 0.089000
1553863194391445591	1200 58 1.100000 0.185000 0.216000 1700 48 1.100000 1.907000 2.240000 600 54 1.000000 0.054000 0.054000 1.200000 0.054000 0.065000
1553863194897288799	1200 58 1.100000 0.188000 0.219000 1700 49 1.100000 2.606000 3.067000 600 55 1.000000 0.054000 0.054000 1.200000 0.086000 0.104000
1553863195403042258	1200 59 1.100000 0.154000 0.180000 1700 48 1.100000 2.197000 2.583000 600 55 1.000000 0.054000 0.054000 1.200000 0.073000 0.088000
1553863195908532258	1200 58 1.100000 0.184000 0.215000 1700 48 1.100000 1.921000 2.257000 600 54 1.000000 0.054000 0.054000 1.200000 0.053000 0.064000
1553863196413781633	1200 57 1.100000 0.185000 0.216000 1700 48 1.100000 1.902000 2.234000 600 54 1.000000 0.054000 0.054000 1.200000 0.064000 0.077000
1553863196919566966	1200 58 1.100000 0.160000 0.187000 1700 48 1.100000 2.357000 2.771000 600 55 1.000000 0.054000 0.054000 1.200000 0.077000 0.093000
1553863197425465424	1200 58 1.100000 0.069000 0.080000 1700 48 1.100000 2.459000 2.894000 600 56 1.000000 0.054000 0.054000 1.200000 0.064000 0.077000
1553863197931412550	1200 59 1.100000 0.185000 0.216000 1700 49 1.100000 2.469000 2.906000 600 55 1.000000 0.054000 0.054000 1.200000 0.070000 0.084000
1553863198437211300	1200 59 1.100000 0.184000 0.215000 1700 49 1.100000 2.490000 2.930000 600 56 1.000000 0.054000 0.054000 1.200000 0.069000 0.083000
1553863198943678050	1200 59 1.100000 0.185000 0.216000 1700 49 1.100000 2.436000 2.867000 600 57 1.000000 0.054000 0.054000 1.200000 0.082000 0.099000
1553863199448973966	1200 57 1.100000 0.194000 0.226000 1700 49 1.100000 1.396000 1.636000 600 54 1.000000 0.054000 0.054000 1.200000 0.050000 0.060000
1553863199954441383	1200 53 1.100000 0.184000 0.215000 1700 48 1.100000 1.391000 1.628000 600 52 1.000000 0.054000 0.054000 1.200000 0.046000 0.055000
1553863200460131050	1200 48 1.100000 0.181000 0.211000 1700 46 1.100000 0.292000 0.340000 600 52 1.000000 0.054000 0.054000 1.200000 0.044000 0.053000
1553863200966100592	1200 50 1.100000 0.181000 0.211000 1700 45 1.100000 0.671000 0.783000 600 51 1.000000 0.053000 0.053000 1.200000 0.044000 0.053000
1553863201471468967	1200 47 1.100000 0.196000 0.229000 1700 45 1.100000 0.860000 1.004000 600 50 1.000000 0.053000 0.053000 1.200000 0.040000 0.048000
1553863201977476175	1200 46 1.100000 0.183000 0.214000 1700 44 1.100000 0.567000 0.662000 600 49 1.000000 0.053000 0.053000 1.200000 0.035000 0.042000
1553863202483040800	1200 45 1.100000 0.184000 0.215000 1700 43 1.100000 0.507000 0.591000 600 48 1.000000 0.053000 0.053000 1.200000 0.034000 0.041000
1553863202988405258	1200 48 1.100000 0.183000 0.214000 1700 43 1.100000 0.804000 0.939000 600 48 1.000000 0.053000 0.053000 1.200000 0.036000 0.043000
1553863203494266258	1200 53 1.100000 0.188000 0.219000 1700 44 1.100000 1.385000 1.623000 600 51 1.000000 0.053000 0.053000 1.200000 0.056000 0.067000
1553863204000141384	1200 54 1.100000 0.183000 0.214000 1700 45 1.100000 2.101000 2.468000 600 51 1.000000 0.053000 0.053000 1.200000 0.062000 0.075000
1553863204505837259	1200 55 1.100000 0.184000 0.215000 1700 46 1.100000 2.396000 2.820000 600 51 1.000000 0.053000 0.053000 1.200000 0.060000 0.072000
1553863205012082050	1200 56 1.100000 0.185000 0.216000 1700 46 1.100000 1.982000 2.328000 600 52 1.000000 0.053000 0.053000 1.200000 0.064000 0.077000
1553863205517928467	1200 57 1.100000 0.183000 0.214000 1700 47 1.100000 2.570000 3.024000 600 54 1.000000 0.053000 0.053000 1.200000 0.092000 0.111000
1553863206023551509	1200 56 1.100000 0.185000 0.216000 1700 47 1.100000 1.999000 2.350000 600 53 1.000000 0.053000 0.053000 1.200000 0.057000 0.068000
1553863206529322759	1200 56 1.100000 0.170000 0.199000 1700 47 1.100000 1.864000 2.186000 600 53 1.000000 0.054000 0.054000 1.200000 0.056000 0.067000
1553863207034949551	1200 57 1.100000 0.183000 0.214000 1700 47 1.100000 2.399000 2.821000 600 53 1.000000 0.054000 0.054000 1.200000 0.066000 0.079000
1553863207540341092	1200 56 1.100000 0.185000 0.216000 1700 47 1.100000 1.902000 2.231000 600 54 1.000000 0.054000 0.054000 1.200000 0.064000 0.077000
1553863208046112926	1200 56 1.100000 0.165000 0.193000 1700 47 1.100000 1.899000 2.227000 600 53 1.000000 0.054000 0.054000 1.200000 0.073000 0.088000
1553863208552195134	1200 58 1.100000 0.183000 0.214000 1700 48 1.100000 2.477000 2.915000 600 54 1.000000 0.054000 0.054000 1.200000 0.072000 0.087000
1553863209058040801	1200 58 1.100000 0.129000 0.151000 1700 48 1.100000 2.427000 2.856000 600 54 1.000000 0.054000 0.054000 1.200000 0.072000 0.087000
1553863209564440426	1200 54 1.100000 0.185000 0.216000 1700 47 1.100000 2.441000 2.870000 600 56 1.000000 0.054000 0.054000 1.200000 0.058000 0.070000
1553863210072319218	1200 57 1.100000 0.187000 0.218000 1700 47 1.100000 2.171000 2.553000 600 54 1.000000 0.054000 0.054000 1.200000 0.056000 0.067000
1553863210578196634	1200 57 1.100000 0.185000 0.216000 1700 48 1.100000 2.363000 2.778000 600 54 1.000000 0.054000 0.054000 1.200000 0.066000 0.079000
1553863211083706259	1200 57 1.100000 0.183000 0.214000 1700 48 1.100000 1.940000 2.275000 600 53 1.000000 0.054000 0.054000 1.200000 0.058000 0.070000
1553863211589377551	1200 57 1.100000 0.160000 0.187000 1700 48 1.100000 1.898000 2.230000 600 55 1.000000 0.054000 0.054000 1.200000 0.059000 0.071000
1553863212094725676	1200 57 1.100000 0.207000 0.241000 1700 48 1.100000 2.642000 3.109000 600 55 1.000000 0.054000 0.054000 1.200000 0.093000 0.112000
1553863212599953301	1200 58 1.100000 0.106000 0.124000 1700 48 1.100000 2.363000 2.778000 600 55 1.000000 0.054000 0.054000 1.200000 0.064000 0.077000
1553863213105000510	1200 52 1.100000 0.185000 0.216000 1700 47 1.100000 2.291000 2.694000 600 54 1.000000 0.054000 0.054000 1.200000 0.060000 0.072000
1553863213610603468	1200 58 1.100000 0.183000 0.214000 1700 48 1.100000 1.943000 2.283000 600 55 1.000000 0.054000 0.054000 1.200000 0.056000 0.067000
1553863214115627843	1200 53 1.100000 0.197000 0.230000 1700 47 1.100000 2.293000 2.698000 600 54 1.000000 0.054000 0.054000 1.200000 0.078000 0.094000
1553863214620705968	1200 51 1.100000 0.183000 0.214000 1700 47 1.100000 1.799000 2.110000 600 54 1.000000 0.054000 0.054000 1.200000 0.054000 0.065000
1553863215125997843	1200 58 1.100000 0.181000 0.211000 1700 48 1.100000 2.242000 2.636000 600 54 1.000000 0.054000 0.054000 1.200000 0.071000 0.085000
1553863215633170968	1200 58 1.100000 0.184000 0.215000 1700 48 1.100000 2.462000 2.897000 600 55 1.000000 0.054000 0.054000 1.200000 0.078000 0.094000
1553863216138550635	1200 55 1.100000 0.147000 0.172000 1700 48 1.100000 2.515000 2.960000 600 55 1.000000 0.054000 0.054000 1.200000 0.075000 0.090000
1553863216643649052	1200 53 1.100000 0.185000 0.216000 1700 47 1.100000 1.928000 2.265000 600 54 1.000000 0.054000 0.054000 1.200000 0.055000 0.066000
1553863217148998385	1200 57 1.100000 0.185000 0.216000 1700 48 1.100000 1.886000 2.216000 600 54 1.000000 0.054000 0.054000 1.200000 0.055000 0.066000
1553863217654135594	1200 57 1.100000 0.176000 0.206000 1700 48 1.100000 2.453000 2.887000 600 54 1.000000 0.054000 0.054000 1.200000 0.069000 0.083000
1553863218159370260	1200 58 1.100000 0.104000 0.121000 1700 48 1.100000 2.487000 2.927000 600 55 1.000000 0.054000 0.054000 1.200000 0.074000 0.089000
1553863218665232469	1200 57 1.100000 0.184000 0.215000 1700 48 1.100000 2.068000 2.429000 600 55 1.000000 0.054000 0.054000 1.200000 0.060000 0.072000
1553863219170354927	1200 56 1.100000 0.184000 0.215000 1700 48 1.100000 2.455000 2.889000 600 55 1.000000 0.054000 0.054000 1.200000 0.077000 0.093000
1553863219675416510	1200 58 1.100000 0.152000 0.178000 1700 48 1.100000 2.384000 2.803000 600 54 1.000000 0.054000 0.054000 1.200000 0.074000 0.089000
1553863220180485677	1200 57 1.100000 0.175000 0.204000 1700 48 1.100000 1.932000 2.266000 600 54 1.000000 0.054000 0.054000 1.200000 0.059000 0.071000
1553863220685636302	1200 58 1.100000 0.186000 0.217000 1700 48 1.100000 1.962000 2.305000 600 54 1.000000 0.054000 0.054000 1.200000 0.065000 0.078000
1553863221191387552	1200 58 1.100000 0.103000 0.120000 1700 48 1.100000 2.348000 2.761000 600 55 1.000000 0.054000 0.054000 1.200000 0.066000 0.079000
1553863221696997844	1200 58 1.100000 0.098000 0.114000 1700 48 1.100000 2.452000 2.883000 600 54 1.000000 0.054000 0.054000 1.200000 0.073000 0.088000
1553863222202368844	1200 57 1.100000 0.186000 0.217000 1700 48 1.100000 1.806000 2.118000 600 55 1.000000 0.054000 0.054000 1.200000 0.054000 0.065000
1553863222707653511	1200 58 1.100000 0.185000 0.216000 1700 48 1.100000 2.504000 2.947000 600 54 1.000000 0.054000 0.054000 1.200000 0.087000 0.105000
1553863223212712261	1200 57 1.100000 0.183000 0.214000 1700 48 1.100000 1.886000 2.212000 600 53 1.000000 0.054000 0.054000 1.200000 0.055000 0.066000
1553863223718901469	1200 57 1.100000 0.180000 0.210000 1700 48 1.100000 1.806000 2.118000 600 54 1.000000 0.054000 0.054000 1.200000 0.054000 0.065000
1553863224224504219	1200 58 1.100000 0.186000 0.217000 1700 49 1.100000 2.553000 3.004000 600 56 1.000000 0.054000 0.054000 1.200000 0.077000 0.093000
1553863224729735886	1200 58 1.100000 0.130000 0.152000 1700 49 1.100000 2.536000 2.984000 600 56 1.000000 0.054000 0.054000 1.200000 0.076000 0.091000
1553863225234744053	1200 58 1.100000 0.104000 0.121000 1700 49 1.100000 2.394000 2.817000 600 55 1.000000 0.054000 0.054000 1.200000 0.069000 0.083000
1553863225742026761	1200 58 1.100000 0.178000 0.208000 1700 48 1.100000 1.917000 2.248000 600 54 1.000000 0.054000 0.054000 1.200000 0.053000 0.064000
1553863226247422678	1200 58 1.100000 0.185000 0.216000 1700 48 1.100000 2.272000 2.671000 600 55 1.000000 0.054000 0.054000 1.200000 0.070000 0.084000
1553863226762971886	1200 58 1.100000 0.194000 0.226000 1700 49 1.100000 2.473000 2.908000 600 55 1.000000 0.054000 0.054000 1.200000 0.084000 0.101000
1553863227268652886	1200 58 1.100000 0.184000 0.215000 1700 48 1.100000 1.951000 2.292000 600 54 1.000000 0.054000 0.054000 1.200000 0.054000 0.065000
1553863227774566720	1200 59 1.100000 0.184000 0.215000 1700 49 1.100000 2.273000 2.673000 600 55 1.000000 0.054000 0.054000 1.200000 0.062000 0.075000
1553863228280414053	1200 59 1.100000 0.172000 0.201000 1700 49 1.100000 2.242000 2.638000 600 55 1.000000 0.054000 0.054000 1.200000 0.067000 0.081000
1553863228786235595	1200 58 1.100000 0.191000 0.223000 1700 48 1.100000 1.947000 2.287000 600 54 1.000000 0.054000 0.054000 1.200000 0.057000 0.068000
1553863229293003970	1200 58 1.100000 0.184000 0.215000 1700 48 1.100000 1.927000 2.264000 600 54 1.000000 0.054000 0.054000 1.200000 0.054000 0.065000
1553863229799727678	1200 58 1.100000 0.183000 0.214000 1700 48 1.100000 2.258000 2.655000 600 55 1.000000 0.054000 0.054000 1.200000 0.069000 0.083000
1553863230305565595	1200 59 1.100000 0.178000 0.208000 1700 49 1.100000 2.560000 3.013000 600 55 1.000000 0.054000 0.054000 1.200000 0.075000 0.090000
1553863230811399470	1200 58 1.100000 0.184000 0.215000 1700 48 1.100000 2.012000 2.364000 600 55 1.000000 0.054000 0.054000 1.200000 0.057000 0.068000
1553863231317146303	1200 58 1.100000 0.185000 0.216000 1700 49 1.100000 2.501000 2.943000 600 55 1.000000 0.054000 0.054000 1.200000 0.076000 0.091000
1553863231822732012	1200 52 1.100000 0.172000 0.201000 1700 48 1.100000 2.023000 2.377000 600 55 1.000000 0.054000 0.054000 1.200000 0.068000 0.082000
1553863232328344887	1200 50 1.100000 0.183000 0.214000 1700 47 1.100000 1.582000 1.855000 600 54 1.000000 0.054000 0.054000 1.200000 0.054000 0.065000
1553863232833839679	1200 58 1.100000 0.182000 0.213000 1700 48 1.100000 2.284000 2.685000 600 55 1.000000 0.054000 0.054000 1.200000 0.069000 0.083000
1553863233339594845	1200 49 1.100000 0.183000 0.214000 1700 47 1.100000 1.416000 1.658000 600 53 1.000000 0.054000 0.054000 1.200000 0.052000 0.062000
1553863233846724387	1200 53 1.100000 0.183000 0.214000 1700 46 1.100000 1.037000 1.213000 600 53 1.000000 0.054000 0.054000 1.200000 0.049000 0.059000
1553863234353780554	1200 56 1.100000 0.181000 0.211000 1700 47 1.100000 1.970000 2.314000 600 54 1.000000 0.053000 0.053000 1.200000 0.055000 0.066000
1553863234859768221	1200 57 1.100000 0.172000 0.201000 1700 48 1.100000 2.489000 2.929000 600 56 1.000000 0.054000 0.054000 1.200000 0.082000 0.099000
1553863235365569512	1200 58 1.100000 0.190000 0.222000 1700 48 1.100000 2.496000 2.937000 600 55 1.000000 0.053000 0.053000 1.200000 0.075000 0.090000
1553863235871161054	1200 53 1.100000 0.186000 0.217000 1700 48 1.100000 2.433000 2.863000 600 55 1.000000 0.054000 0.054000 1.200000 0.061000 0.073000
1553863236377359471	1200 58 1.100000 0.182000 0.213000 1700 48 1.100000 2.061000 2.423000 600 55 1.000000 0.054000 0.054000 1.200000 0.067000 0.081000
1553863236882890804	1200 53 1.100000 0.183000 0.214000 1700 48 1.100000 2.198000 2.584000 600 55 1.000000 0.054000 0.054000 1.200000 0.064000 0.077000
1553863237388417638	1200 53 1.100000 0.193000 0.225000 1700 47 1.100000 1.802000 2.113000 600 54 1.000000 0.054000 0.054000 1.200000 0.059000 0.071000
1553863237893813221	1200 56 1.100000 0.183000 0.214000 1700 47 1.100000 1.947000 2.283000 600 53 1.000000 0.053000 0.053000 1.200000 0.055000 0.066000
1553863238398871929	1200 47 1.100000 0.183000 0.214000 1700 45 1.100000 0.419000 0.488000 600 50 1.000000 0.054000 0.054000 1.200000 0.048000 0.057000
1553863238903783388	1200 45 1.100000 0.180000 0.210000 1700 44 1.100000 0.284000 0.331000 600 49 1.000000 0.054000 0.054000 1.200000 0.045000 0.054000
1553863239409612346	1200 53 1.100000 0.175000 0.204000 1700 45 1.100000 1.984000 2.331000 600 51 1.000000 0.053000 0.053000 1.200000 0.076000 0.092000
1553863239915669971	1200 56 1.100000 0.184000 0.215000 1700 46 1.100000 2.421000 2.847000 600 52 1.000000 0.053000 0.053000 1.200000 0.070000 0.084000
1553863240421275138	1200 56 1.100000 0.184000 0.215000 1700 47 1.100000 2.080000 2.444000 600 52 1.000000 0.053000 0.053000 1.200000 0.060000 0.072000
1553863240926506555	1200 56 1.100000 0.183000 0.214000 1700 47 1.100000 1.753000 2.054000 600 53 1.000000 0.054000 0.054000 1.200000 0.052000 0.062000
1553863241431811555	1200 57 1.100000 0.091000 0.106000 1700 47 1.100000 2.602000 3.062000 600 54 1.000000 0.053000 0.053000 1.200000 0.078000 0.094000
1553863241937735971	1200 57 1.100000 0.184000 0.215000 1700 48 1.100000 2.434000 2.864000 600 54 1.000000 0.053000 0.053000 1.200000 0.064000 0.077000
1553863242442717055	1200 55 1.100000 0.193000 0.225000 1700 47 1.100000 2.474000 2.909000 600 54 1.000000 0.054000 0.054000 1.200000 0.063000 0.076000
1553863242948228638	1200 57 1.100000 0.183000 0.214000 1700 48 1.100000 1.899000 2.231000 600 54 1.000000 0.054000 0.054000 1.200000 0.066000 0.079000
1553863243454184513	1200 57 1.100000 0.186000 0.217000 1700 48 1.100000 2.324000 2.733000 600 54 1.000000 0.053000 0.053000 1.200000 0.065000 0.078000
1553863243959548055	1200 58 1.100000 0.102000 0.119000 1700 48 1.100000 2.419000 2.844000 600 55 1.000000 0.054000 0.054000 1.200000 0.066000 0.079000
1553863244466657430	1200 57 1.100000 0.183000 0.214000 1700 48 1.100000 2.197000 2.581000 600 55 1.000000 0.054000 0.054000 1.200000 0.062000 0.074000
1553863244974966597	1200 58 1.100000 0.166000 0.194000 1700 48 1.100000 2.418000 2.843000 600 55 1.000000 0.054000 0.054000 1.200000 0.073000 0.088000
1553863245481883680	1200 53 1.100000 0.184000 0.215000 1700 48 1.100000 2.285000 2.687000 600 56 1.000000 0.054000 0.054000 1.200000 0.061000 0.073000
1553863245987328014	1200 58 1.100000 0.167000 0.195000 1700 48 1.100000 2.445000 2.877000 600 55 1.000000 0.054000 0.054000 1.200000 0.060000 0.072000
1553863246492350722	1200 56 1.100000 0.186000 0.217000 1700 49 1.100000 2.421000 2.849000 600 56 1.000000 0.054000 0.054000 1.200000 0.075000 0.090000
1553863246997521097	1200 59 1.100000 0.120000 0.140000 1700 49 1.100000 2.502000 2.944000 600 56 1.000000 0.054000 0.054000 1.200000 0.082000 0.099000
1553863247502511805	1200 54 1.100000 0.184000 0.215000 1700 48 1.100000 2.322000 2.730000 600 56 1.000000 0.054000 0.054000 1.200000 0.054000 0.065000
1553863248009540972	1200 58 1.100000 0.187000 0.218000 1700 48 1.100000 1.960000 2.299000 600 55 1.000000 0.054000 0.054000 1.200000 0.057000 0.068000
1553863248514897556	1200 53 1.100000 0.185000 0.216000 1700 48 1.100000 2.435000 2.865000 600 55 1.000000 0.054000 0.054000 1.200000 0.065000 0.078000
1553863249019989972	1200 53 1.100000 0.183000 0.214000 1700 47 1.100000 1.800000 2.111000 600 54 1.000000 0.054000 0.054000 1.200000 0.054000 0.065000
1553863249526418472	1200 57 1.100000 0.182000 0.213000 1700 48 1.100000 1.746000 2.048000 600 55 1.000000 0.054000 0.054000 1.200000 0.073000 0.088000
1553863250032340097	1200 58 1.100000 0.196000 0.228000 1700 48 1.100000 2.619000 3.085000 600 56 1.000000 0.054000 0.054000 1.200000 0.071000 0.085000
1553863250537994389	1200 59 1.100000 0.092000 0.107000 1700 49 1.100000 2.450000 2.883000 600 56 1.000000 0.054000 0.054000 1.200000 0.071000 0.085000
1553863251043550139	1200 53 1.100000 0.185000 0.216000 1700 48 1.100000 2.106000 2.474000 600 55 1.000000 0.054000 0.054000 1.200000 0.059000 0.071000
1553863251549590139	1200 58 1.100000 0.183000 0.214000 1700 48 1.100000 2.015000 2.363000 600 55 1.000000 0.054000 0.054000 1.200000 0.054000 0.065000
1553863252055480014	1200 53 1.100000 0.184000 0.215000 1700 48 1.100000 2.440000 2.871000 600 55 1.000000 0.054000 0.054000 1.200000 0.081000 0.098000
1553863252561145139	1200 53 1.100000 0.184000 0.215000 1700 47 1.100000 2.044000 2.397000 600 55 1.000000 0.054000 0.054000 1.200000 0.059000 0.071000
1553863253067134681	1200 58 1.100000 0.151000 0.176000 1700 48 1.100000 1.994000 2.342000 600 55 1.000000 0.054000 0.054000 1.200000 0.057000 0.068000
1553863253572884139	1200 59 1.100000 0.185000 0.216000 1700 49 1.100000 2.491000 2.931000 600 55 1.000000 0.054000 0.054000 1.200000 0.074000 0.089000
1553863254078687515	1200 59 1.100000 0.148000 0.173000 1700 49 1.100000 2.486000 2.926000 600 55 1.000000 0.054000 0.054000 1.200000 0.076000 0.092000
1553863254584414931	1200 58 1.100000 0.177000 0.207000 1700 49 1.100000 1.971000 2.315000 600 54 1.000000 0.054000 0.054000 1.200000 0.056000 0.067000
1553863255090214056	1200 58 1.100000 0.183000 0.214000 1700 48 1.100000 1.835000 2.156000 600 55 1.000000 0.054000 0.054000 1.200000 0.057000 0.068000
1553863255595760181	1200 58 1.100000 0.184000 0.215000 1700 49 1.100000 2.226000 2.617000 600 54 1.000000 0.054000 0.054000 1.200000 0.074000 0.089000
1553863256101843431	1200 58 1.100000 0.183000 0.214000 1700 48 1.100000 1.772000 2.078000 600 54 1.000000 0.054000 0.054000 1.200000 0.055000 0.066000
1553863256607776765	1200 58 1.100000 0.163000 0.190000 1700 49 1.100000 2.410000 2.836000 600 55 1.000000 0.054000 0.054000 1.200000 0.068000 0.082000
1553863257113617682	1200 58 1.100000 0.185000 0.216000 1700 49 1.100000 2.455000 2.889000 600 55 1.000000 0.054000 0.054000 1.200000 0.071000 0.085000
1553863257619231515	1200 56 1.100000 0.161000 0.188000 1700 48 1.100000 2.386000 2.808000 600 55 1.000000 0.054000 0.054000 1.200000 0.077000 0.093000
1553863258124849473	1200 53 1.100000 0.184000 0.215000 1700 48 1.100000 1.936000 2.270000 600 56 1.000000 0.054000 0.054000 1.200000 0.055000 0.066000
1553863258631281223	1200 58 1.100000 0.190000 0.222000 1700 48 1.100000 2.047000 2.405000 600 56 1.000000 0.054000 0.054000 1.200000 0.062000 0.075000
1553863259136863640	1200 58 1.100000 0.187000 0.218000 1700 49 1.100000 2.412000 2.838000 600 54 1.000000 0.054000 0.054000 1.200000 0.080000 0.096000
1553863259643686765	1200 57 1.100000 0.183000 0.214000 1700 48 1.100000 1.678000 1.971000 600 54 1.000000 0.054000 0.054000 1.200000 0.055000 0.066000
1553863260149246224	1200 58 1.100000 0.185000 0.216000 1700 48 1.100000 2.438000 2.869000 600 56 1.000000 0.054000 0.054000 1.200000 0.070000 0.084000
1553863260654978182	1200 59 1.100000 0.183000 0.214000 1700 49 1.100000 2.619000 3.082000 600 57 1.000000 0.054000 0.054000 1.200000 0.083000 0.100000
1553863261160682724	1200 55 1.100000 0.164000 0.192000 1700 48 1.100000 2.383000 2.802000 600 55 1.000000 0.054000 0.054000 1.200000 0.080000 0.096000
1553863261666363432	1200 53 1.100000 0.183000 0.214000 1700 48 1.100000 1.869000 2.192000 600 55 1.000000 0.054000 0.054000 1.200000 0.054000 0.065000
1553863262171880182	1200 58 1.100000 0.177000 0.207000 1700 48 1.100000 1.922000 2.258000 600 55 1.000000 0.054000 0.054000 1.200000 0.063000 0.076000
1553863262677699141	1200 58 1.100000 0.185000 0.216000 1700 48 1.100000 2.421000 2.847000 600 58 1.000000 0.054000 0.054000 1.200000 0.077000 0.093000
1553863263183359349	1200 58 1.100000 0.185000 0.216000 1700 49 1.100000 2.198000 2.582000 600 55 1.000000 0.054000 0.054000 1.200000 0.061000 0.073000
1553863263689318932	1200 58 1.100000 0.184000 0.215000 1700 49 1.100000 1.863000 2.185000 600 54 1.000000 0.054000 0.054000 1.200000 0.053000 0.064000
1553863264194877182	1200 56 1.100000 0.185000 0.216000 1700 48 1.100000 2.375000 2.790000 600 55 1.000000 0.054000 0.054000 1.200000 0.074000 0.089000
1553863264700892724	1200 53 1.100000 0.186000 0.217000 1700 48 1.100000 1.912000 2.246000 600 56 1.000000 0.054000 0.054000 1.200000 0.060000 0.072000
1553863265206714933	1200 58 1.100000 0.184000 0.215000 1700 48 1.100000 1.921000 2.257000 600 55 1.000000 0.054000 0.054000 1.200000 0.054000 0.065000
1553863265713615099	1200 59 1.100000 0.186000 0.217000 1700 49 1.100000 2.427000 2.856000 600 55 1.000000 0.054000 0.054000 1.200000 0.069000 0.083000
1553863266219494683	1200 58 1.100000 0.111000 0.130000 1700 49 1.100000 2.480000 2.918000 600 56 1.000000 0.054000 0.054000 1.200000 0.071000 0.085000
1553863266725700016	1200 53 1.100000 0.188000 0.219000 1700 48 1.100000 2.024000 2.378000 600 55 1.000000 0.054000 0.054000 1.200000 0.058000 0.070000
1553863267232459641	1200 57 1.100000 0.183000 0.214000 1700 48 1.100000 1.743000 2.048000 600 55 1.000000 0.054000 0.054000 1.200000 0.055000 0.066000
1553863267738308933	1200 56 1.100000 0.185000 0.216000 1700 48 1.100000 2.369000 2.788000 600 55 1.000000 0.054000 0.054000 1.200000 0.076000 0.092000
1553863268243837516	1200 52 1.100000 0.185000 0.216000 1700 47 1.100000 1.788000 2.097000 600 55 1.000000 0.054000 0.054000 1.200000 0.054000 0.065000
1553863268749665808	1200 58 1.100000 0.171000 0.200000 1700 48 1.100000 2.148000 2.526000 600 55 1.000000 0.054000 0.054000 1.200000 0.065000 0.078000
1553863269255488058	1200 59 1.100000 0.186000 0.217000 1700 49 1.100000 2.493000 2.934000 600 56 1.000000 0.054000 0.054000 1.200000 0.082000 0.099000
1553863269761099100	1200 54 1.100000 0.185000 0.216000 1700 48 1.100000 1.951000 2.292000 600 55 1.000000 0.054000 0.054000 1.200000 0.059000 0.071000
1553863270266807100	1200 57 1.100000 0.179000 0.209000 1700 48 1.100000 1.988000 2.335000 600 55 1.000000 0.054000 0.054000 1.200000 0.065000 0.078000
1553863270773423433	1200 58 1.100000 0.166000 0.194000 1700 49 1.100000 2.432000 2.862000 600 57 1.000000 0.054000 0.054000 1.200000 0.067000 0.081000
1553863271280151642	1200 59 1.100000 0.204000 0.238000 1700 49 1.100000 2.634000 3.102000 600 56 1.000000 0.054000 0.054000 1.200000 0.089000 0.107000
1553863271785871225	1200 58 1.100000 0.159000 0.186000 1700 49 1.100000 2.102000 2.469000 600 55 1.000000 0.054000 0.054000 1.200000 0.074000 0.089000
1553863272291735683	1200 58 1.100000 0.183000 0.214000 1700 49 1.100000 1.813000 2.130000 600 54 1.000000 0.054000 0.054000 1.200000 0.054000 0.065000
1553863272798142767	1200 59 1.100000 0.185000 0.216000 1700 49 1.100000 2.079000 2.442000 600 55 1.000000 0.054000 0.054000 1.200000 0.066000 0.079000
1553863273303993100	1200 59 1.100000 0.149000 0.174000 1700 49 1.100000 2.369000 2.785000 600 55 1.000000 0.054000 0.054000 1.200000 0.081000 0.098000
1553863273809764725	1200 53 1.100000 0.184000 0.215000 1700 48 1.100000 2.179000 2.562000 600 55 1.000000 0.054000 0.054000 1.200000 0.057000 0.068000
1553863274315923725	1200 57 1.100000 0.183000 0.214000 1700 48 1.100000 1.908000 2.238000 600 55 1.000000 0.054000 0.054000 1.200000 0.054000 0.065000
1553863274821544684	1200 56 1.100000 0.183000 0.214000 1700 48 1.100000 2.390000 2.808000 600 55 1.000000 0.054000 0.054000 1.200000 0.075000 0.090000
1553863275327180642	1200 53 1.100000 0.197000 0.230000 1700 48 1.100000 1.905000 2.238000 600 55 1.000000 0.054000 0.054000 1.200000 0.066000 0.079000
1553863275832898850	1200 58 1.100000 0.157000 0.183000 1700 48 1.100000 2.393000 2.816000 600 55 1.000000 0.054000 0.054000 1.200000 0.071000 0.085000
1553863276340290142	1200 59 1.100000 0.183000 0.214000 1700 49 1.100000 2.467000 2.903000 600 55 1.000000 0.054000 0.054000 1.200000 0.074000 0.089000
1553863276846398934	1200 52 1.100000 0.162000 0.189000 1700 48 1.100000 2.085000 2.449000 600 53 1.000000 0.054000 0.054000 1.200000 0.076000 0.091000
1553863277352184767	1200 50 1.100000 0.183000 0.214000 1700 46 1.100000 1.108000 1.297000 600 52 1.000000 0.054000 0.054000 1.200000 0.048000 0.057000
1553863277857682934	1200 49 1.100000 0.183000 0.214000 1700 45 1.100000 0.563000 0.657000 600 50 1.000000 0.054000 0.054000 1.200000 0.041000 0.049000
1553863278362978226	1200 48 1.100000 0.184000 0.215000 1700 44 1.100000 0.605000 0.706000 600 49 1.000000 0.053000 0.053000 1.200000 0.039000 0.047000
1553863278868332892	1200 46 1.100000 0.183000 0.214000 1700 44 1.100000 0.567000 0.662000 600 48 1.000000 0.053000 0.053000 1.200000 0.037000 0.044000
1553863279373584226	1200 46 1.100000 0.184000 0.215000 1700 43 1.100000 0.641000 0.748000 600 49 1.000000 0.053000 0.053000 1.200000 0.041000 0.049000
1553863279878879184	1200 46 1.100000 0.180000 0.210000 1700 43 1.100000 0.852000 0.995000 600 48 1.000000 0.053000 0.053000 1.200000 0.041000 0.049000
1553863280384535018	1200 48 1.100000 0.132000 0.154000 1700 44 1.100000 1.405000 1.646000 600 51 1.000000 0.053000 0.053000 1.200000 0.070000 0.084000
1553863280890055434	1200 47 1.100000 0.180000 0.210000 1700 44 1.100000 1.508000 1.767000 600 51 1.000000 0.053000 0.053000 1.200000 0.050000 0.060000
1553863281396259393	1200 51 1.100000 0.181000 0.211000 1700 45 1.100000 1.559000 1.827000 600 53 1.000000 0.053000 0.053000 1.200000 0.062000 0.075000
1553863281902855101	1200 56 1.100000 0.187000 0.218000 1700 46 1.100000 2.108000 2.479000 600 52 1.000000 0.053000 0.053000 1.200000 0.068000 0.082000
1553863282408547768	1200 52 1.100000 0.182000 0.213000 1700 45 1.100000 1.485000 1.738000 600 52 1.000000 0.053000 0.053000 1.200000 0.052000 0.062000
1553863282914254601	1200 55 1.100000 0.183000 0.214000 1700 46 1.100000 1.754000 2.057000 600 52 1.000000 0.054000 0.054000 1.200000 0.051000 0.061000
1553863283420058143	1200 56 1.100000 0.170000 0.199000 1700 46 1.100000 1.953000 2.290000 600 54 1.000000 0.054000 0.054000 1.200000 0.066000 0.079000
1553863283925305393	1200 51 1.100000 0.190000 0.221000 1700 47 1.100000 2.437000 2.868000 600 53 1.000000 0.054000 0.054000 1.200000 0.074000 0.089000
1553863284430003310	1200 46 1.100000 0.179000 0.209000 1700 45 1.100000 1.501000 1.757000 600 50 1.000000 0.053000 0.053000 1.200000 0.042000 0.050000
1553863284935061060	1200 45 1.100000 0.180000 0.210000 1700 43 1.100000 0.321000 0.374000 600 48 1.000000 0.053000 0.053000 1.200000 0.042000 0.050000
1553863285440018602	1200 45 1.100000 0.180000 0.210000 1700 43 1.100000 0.326000 0.380000 600 47 1.000000 0.053000 0.053000 1.200000 0.044000 0.053000
1553863285945128727	1200 44 1.100000 0.190000 0.222000 1700 42 1.100000 0.709000 0.828000 600 47 1.000000 0.053000 0.053000 1.200000 0.051000 0.061000
1553863286450049852	1200 45 1.100000 0.180000 0.210000 1700 42 1.100000 0.421000 0.491000 600 46 1.000000 0.053000 0.053000 1.200000 0.046000 0.055000
1553863286954947935	1200 43 1.100000 0.179000 0.209000 1700 41 1.100000 0.398000 0.464000 600 46 1.000000 0.053000 0.053000 1.200000 0.042000 0.050000
1553863287459850894	1200 48 1.100000 0.180000 0.210000 1700 42 1.100000 0.493000 0.575000 600 48 1.000000 0.053000 0.053000 1.200000 0.069000 0.083000
1553863287964997060	1200 45 1.100000 0.192000 0.224000 1700 42 1.100000 0.785000 0.916000 600 46 1.000000 0.053000 0.053000 1.200000 0.043000 0.051000
1553863288470051894	1200 43 1.100000 0.183000 0.214000 1700 41 1.100000 0.571000 0.666000 600 46 1.000000 0.053000 0.053000 1.200000 0.039000 0.047000
1553863288975107727	1200 42 1.100000 0.181000 0.211000 1700 41 1.100000 0.592000 0.690000 600 45 1.000000 0.053000 0.053000 1.200000 0.039000 0.047000
1553863289479944310	1200 46 1.100000 0.181000 0.211000 1700 41 1.100000 0.458000 0.534000 600 46 1.000000 0.053000 0.053000 1.200000 0.041000 0.049000
1553863289985069519	1200 49 1.100000 0.179000 0.209000 1700 42 1.100000 0.721000 0.841000 600 47 1.000000 0.053000 0.053000 1.200000 0.041000 0.049000
1553863290490341561	1200 53 1.100000 0.141000 0.165000 1700 43 1.100000 2.134000 2.507000 600 49 1.000000 0.053000 0.053000 1.200000 0.063000 0.076000
1553863290995629019	1200 53 1.100000 0.181000 0.211000 1700 44 1.100000 2.135000 2.508000 600 50 1.000000 0.053000 0.053000 1.200000 0.062000 0.075000
1553863291501031727	1200 55 1.100000 0.164000 0.192000 1700 45 1.100000 2.403000 2.825000 600 52 1.000000 0.053000 0.053000 1.200000 0.068000 0.082000
1553863292006226186	1200 55 1.100000 0.185000 0.216000 1700 45 1.100000 2.464000 2.897000 600 53 1.000000 0.053000 0.053000 1.200000 0.075000 0.090000
1553863292511437936	1200 55 1.100000 0.172000 0.201000 1700 46 1.100000 2.476000 2.911000 600 53 1.000000 0.053000 0.053000 1.200000 0.079000 0.095000
1553863293016696936	1200 56 1.100000 0.183000 0.214000 1700 46 1.100000 1.971000 2.311000 600 52 1.000000 0.054000 0.054000 1.200000 0.059000 0.071000
1553863293521847728	1200 57 1.100000 0.184000 0.215000 1700 47 1.100000 2.417000 2.842000 600 53 1.000000 0.053000 0.053000 1.200000 0.060000 0.072000
1553863294026686769	1200 57 1.100000 0.163000 0.190000 1700 47 1.100000 2.337000 2.748000 600 54 1.000000 0.054000 0.054000 1.200000 0.073000 0.088000
1553863294532071853	1200 57 1.100000 0.193000 0.225000 1700 47 1.100000 2.240000 2.634000 600 53 1.000000 0.054000 0.054000 1.200000 0.068000 0.082000
1553863295037372769	1200 58 1.100000 0.168000 0.196000 1700 47 1.100000 2.423000 2.851000 600 54 1.000000 0.054000 0.054000 1.200000 0.060000 0.072000
1553863295542631894	1200 57 1.100000 0.183000 0.214000 1700 47 1.100000 2.341000 2.753000 600 54 1.000000 0.054000 0.054000 1.200000 0.075000 0.090000
1553863296048270520	1200 57 1.100000 0.169000 0.197000 1700 47 1.100000 2.339000 2.750000 600 54 1.000000 0.054000 0.054000 1.200000 0.077000 0.093000
1553863296553485811	1200 57 1.100000 0.191000 0.223000 1700 47 1.100000 2.013000 2.361000 600 53 1.000000 0.054000 0.054000 1.200000 0.066000 0.079000
1553863297058519353	1200 57 1.100000 0.182000 0.213000 1700 48 1.100000 2.118000 2.490000 600 54 1.000000 0.054000 0.054000 1.200000 0.068000 0.082000
1553863297563651811	1200 57 1.100000 0.184000 0.215000 1700 48 1.100000 1.972000 2.317000 600 53 1.000000 0.054000 0.054000 1.200000 0.062000 0.074000
1553863298068765103	1200 57 1.100000 0.165000 0.193000 1700 47 1.100000 1.896000 2.224000 600 54 1.000000 0.054000 0.054000 1.200000 0.053000 0.064000
1553863298574046353	1200 57 1.100000 0.184000 0.215000 1700 48 1.100000 2.392000 2.812000 600 54 1.000000 0.053000 0.053000 1.200000 0.073000 0.088000
1553863299079936478	1200 58 1.100000 0.124000 0.145000 1700 48 1.100000 2.439000 2.870000 600 55 1.000000 0.054000 0.054000 1.200000 0.071000 0.085000
1553863299585615395	1200 58 1.100000 0.170000 0.199000 1700 48 1.100000 2.198000 2.584000 600 54 1.000000 0.054000 0.054000 1.200000 0.061000 0.073000
1553863300091600562	1200 57 1.100000 0.181000 0.211000 1700 48 1.100000 1.813000 2.126000 600 53 1.000000 0.054000 0.054000 1.200000 0.054000 0.065000
1553863300598391312	1200 58 1.100000 0.180000 0.210000 1700 48 1.100000 1.971000 2.315000 600 54 1.000000 0.054000 0.054000 1.200000 0.057000 0.068000
1553863301104551145	1200 57 1.100000 0.186000 0.217000 1700 48 1.100000 2.149000 2.525000 600 53 1.000000 0.054000 0.054000 1.200000 0.066000 0.079000
1553863301610309395	1200 58 1.100000 0.182000 0.213000 1700 48 1.100000 1.829000 2.145000 600 54 1.000000 0.054000 0.054000 1.200000 0.055000 0.066000
1553863302117393437	1200 58 1.100000 0.168000 0.196000 1700 48 1.100000 2.417000 2.844000 600 54 1.000000 0.054000 0.054000 1.200000 0.062000 0.074000
1553863302622829687	1200 58 1.100000 0.178000 0.208000 1700 48 1.100000 2.356000 2.770000 600 55 1.000000 0.054000 0.054000 1.200000 0.070000 0.084000
1553863303127956562	1200 58 1.100000 0.112000 0.131000 1700 48 1.100000 2.418000 2.843000 600 54 1.000000 0.054000 0.054000 1.200000 0.068000 0.082000
1553863303633012479	1200 57 1.100000 0.183000 0.214000 1700 48 1.100000 1.656000 1.942000 600 54 1.000000 0.054000 0.054000 1.200000 0.053000 0.064000
1553863304138054437	1200 55 1.100000 0.183000 0.214000 1700 48 1.100000 2.312000 2.718000 600 54 1.000000 0.054000 0.054000 1.200000 0.076000 0.092000
1553863304643181479	1200 52 1.100000 0.191000 0.223000 1700 47 1.100000 2.003000 2.353000 600 54 1.000000 0.054000 0.054000 1.200000 0.059000 0.071000
1553863305148400104	1200 57 1.100000 0.170000 0.199000 1700 47 1.100000 1.839000 2.157000 600 54 1.000000 0.054000 0.054000 1.200000 0.052000 0.062000
1553863305653736437	1200 57 1.100000 0.186000 0.217000 1700 48 1.100000 2.429000 2.856000 600 55 1.000000 0.054000 0.054000 1.200000 0.062000 0.075000
1553863306158911646	1200 58 1.100000 0.184000 0.215000 1700 48 1.100000 2.173000 2.553000 600 55 1.000000 0.054000 0.054000 1.200000 0.068000 0.082000
1553863306664078646	1200 55 1.100000 0.124000 0.145000 1700 48 1.100000 2.454000 2.885000 600 56 1.000000 0.054000 0.054000 1.200000 0.081000 0.098000
1553863307169240646	1200 53 1.100000 0.195000 0.228000 1700 47 1.100000 2.020000 2.373000 600 54 1.000000 0.054000 0.054000 1.200000 0.065000 0.078000
1553863307674317021	1200 58 1.100000 0.184000 0.215000 1700 48 1.100000 2.048000 2.402000 600 55 1.000000 0.053000 0.053000 1.200000 0.056000 0.067000
1553863308179270979	1200 53 1.100000 0.186000 0.217000 1700 47 1.100000 2.156000 2.533000 600 54 1.000000 0.054000 0.054000 1.200000 0.065000 0.078000
1553863308684648854	1200 56 1.100000 0.183000 0.214000 1700 47 1.100000 1.792000 2.102000 600 55 1.000000 0.054000 0.054000 1.200000 0.053000 0.064000
1553863309189907729	1200 58 1.100000 0.186000 0.217000 1700 48 1.100000 2.463000 2.898000 600 55 1.000000 0.053000 0.053000 1.200000 0.074000 0.089000
1553863309695093896	1200 58 1.100000 0.181000 0.211000 1700 48 1.100000 2.444000 2.876000 600 56 1.000000 0.054000 0.054000 1.200000 0.070000 0.084000
1553863310200220063	1200 59 1.100000 0.173000 0.202000 1700 49 1.100000 2.440000 2.869000 600 55 1.000000 0.054000 0.054000 1.200000 0.064000 0.077000
1553863310705377521	1200 58 1.100000 0.184000 0.215000 1700 49 1.100000 1.926000 2.259000 600 54 1.000000 0.054000 0.054000 1.200000 0.055000 0.066000
1553863311210404063	1200 59 1.100000 0.185000 0.216000 1700 49 1.100000 2.448000 2.881000 600 55 1.000000 0.054000 0.054000 1.200000 0.091000 0.110000
1553863311715518146	1200 59 1.100000 0.145000 0.169000 1700 49 1.100000 2.412000 2.836000 600 56 1.000000 0.054000 0.054000 1.200000 0.073000 0.088000
1553863312220479563	1200 53 1.100000 0.178000 0.208000 1700 48 1.100000 1.739000 2.039000 600 55 1.000000 0.054000 0.054000 1.200000 0.051000 0.061000
1553863312726310022	1200 56 1.100000 0.182000 0.213000 1700 47 1.100000 1.802000 2.111000 600 54 1.000000 0.054000 0.054000 1.200000 0.054000 0.065000
1553863313231785938	1200 58 1.100000 0.184000 0.215000 1700 48 1.100000 2.651000 3.120000 600 55 1.000000 0.054000 0.054000 1.200000 0.080000 0.096000
1553863313736910397	1200 58 1.100000 0.185000 0.216000 1700 48 1.100000 1.793000 2.103000 600 54 1.000000 0.054000 0.054000 1.200000 0.057000 0.068000
1553863314242153772	1200 58 1.100000 0.182000 0.213000 1700 48 1.100000 1.782000 2.090000 600 54 1.000000 0.054000 0.054000 1.200000 0.053000 0.064000
1553863314747512397	1200 59 1.100000 0.185000 0.216000 1700 48 1.100000 2.435000 2.863000 600 55 1.000000 0.054000 0.054000 1.200000 0.075000 0.090000
1553863315252814563	1200 59 1.100000 0.185000 0.216000 1700 49 1.100000 2.557000 3.009000 600 55 1.000000 0.054000 0.054000 1.200000 0.069000 0.083000
1553863315760732855	1200 57 1.100000 0.185000 0.216000 1700 48 1.100000 1.742000 2.043000 600 55 1.000000 0.054000 0.054000 1.200000 0.052000 0.062000
1553863316268238314	1200 58 1.100000 0.170000 0.199000 1700 49 1.100000 2.211000 2.597000 600 55 1.000000 0.054000 0.054000 1.200000 0.062000 0.075000
1553863316774208855	1200 59 1.100000 0.180000 0.210000 1700 49 1.100000 2.501000 2.943000 600 56 1.000000 0.054000 0.054000 1.200000 0.071000 0.085000
1553863317280091605	1200 59 1.100000 0.192000 0.224000 1700 49 1.100000 2.485000 2.924000 600 56 1.000000 0.054000 0.054000 1.200000 0.074000 0.089000
1553863317785923605	1200 60 1.100000 0.185000 0.216000 1700 49 1.100000 2.497000 2.936000 600 57 1.000000 0.054000 0.054000 1.200000 0.068000 0.082000
1553863318291801314	1200 60 1.100000 0.175000 0.204000 1700 49 1.100000 2.535000 2.983000 600 56 1.000000 0.054000 0.054000 1.200000 0.067000 0.080000
1553863318798703856	1200 57 1.100000 0.172000 0.201000 1700 49 1.100000 2.480000 2.918000 600 55 1.000000 0.054000 0.054000 1.200000 0.065000 0.078000
1553863319305491856	1200 57 1.100000 0.187000 0.218000 1700 49 1.100000 1.783000 2.091000 600 56 1.000000 0.054000 0.054000 1.200000 0.075000 0.090000
1553863319812692522	1200 58 1.100000 0.127000 0.148000 1700 49 1.100000 2.081000 2.445000 600 57 1.000000 0.054000 0.054000 1.200000 0.075000 0.090000
1553863320318259147	1200 59 1.100000 0.183000 0.214000 1700 49 1.100000 2.469000 2.903000 600 55 1.000000 0.054000 0.054000 1.200000 0.054000 0.065000
1553863320823871856	1200 59 1.100000 0.175000 0.204000 1700 49 1.100000 2.440000 2.869000 600 56 1.000000 0.054000 0.054000 1.200000 0.061000 0.073000
1553863321330871939	1200 59 1.100000 0.186000 0.217000 1700 49 1.100000 2.304000 2.707000 600 56 1.000000 0.054000 0.054000 1.200000 0.065000 0.078000
1553863321837570314	1200 59 1.100000 0.111000 0.130000 1700 49 1.100000 2.623000 3.087000 600 57 1.000000 0.054000 0.054000 1.200000 0.080000 0.096000
1553863322343198023	1200 58 1.100000 0.176000 0.206000 1700 49 1.100000 2.176000 2.558000 600 55 1.000000 0.054000 0.054000 1.200000 0.053000 0.064000
1553863322849205273	1200 59 1.100000 0.185000 0.216000 1700 49 1.100000 1.899000 2.231000 600 55 1.000000 0.054000 0.054000 1.200000 0.061000 0.073000
1553863323355041189	1200 59 1.100000 0.127000 0.148000 1700 49 1.100000 2.493000 2.934000 600 56 1.000000 0.054000 0.054000 1.200000 0.083000 0.100000
1553863323861179606	1200 56 1.100000 0.189000 0.221000 1700 49 1.100000 2.330000 2.740000 600 56 1.000000 0.054000 0.054000 1.200000 0.060000 0.072000
1553863324368368648	1200 55 1.100000 0.184000 0.215000 1700 48 1.100000 1.828000 2.144000 600 55 1.000000 0.054000 0.054000 1.200000 0.055000 0.066000
1553863324874259356	1200 58 1.100000 0.184000 0.215000 1700 49 1.100000 2.448000 2.881000 600 55 1.000000 0.054000 0.054000 1.200000 0.080000 0.096000
1553863325379962565	1200 54 1.100000 0.186000 0.217000 1700 48 1.100000 2.209000 2.595000 600 55 1.000000 0.054000 0.054000 1.200000 0.058000 0.070000
1553863325885577773	1200 58 1.100000 0.183000 0.214000 1700 48 1.100000 1.727000 2.025000 600 55 1.000000 0.054000 0.054000 1.200000 0.069000 0.083000
1553863326392069273	1200 59 1.100000 0.186000 0.217000 1700 49 1.100000 2.523000 2.969000 600 56 1.000000 0.054000 0.054000 1.200000 0.077000 0.093000
1553863326898005898	1200 58 1.100000 0.165000 0.193000 1700 49 1.100000 2.489000 2.929000 600 56 1.000000 0.054000 0.054000 1.200000 0.073000 0.088000
1553863327403754315	1200 53 1.100000 0.175000 0.204000 1700 48 1.100000 2.167000 2.546000 600 55 1.000000 0.054000 0.054000 1.200000 0.054000 0.065000
1553863327909435273	1200 54 1.100000 0.184000 0.215000 1700 48 1.100000 1.854000 2.174000 600 55 1.000000 0.054000 0.054000 1.200000 0.060000 0.072000
1553863328415386732	1200 58 1.100000 0.193000 0.225000 1700 49 1.100000 2.085000 2.449000 600 56 1.000000 0.054000 0.054000 1.200000 0.070000 0.084000
1553863328921121898	1200 57 1.100000 0.155000 0.181000 1700 49 1.100000 2.471000 2.905000 600 56 1.000000 0.054000 0.054000 1.200000 0.079000 0.095000
1553863329426788149	1200 56 1.100000 0.184000 0.215000 1700 48 1.100000 1.980000 2.326000 600 55 1.000000 0.054000 0.054000 1.200000 0.058000 0.070000
1553863329938199357	1200 58 1.100000 0.188000 0.220000 1700 48 1.100000 2.055000 2.410000 600 57 1.000000 0.054000 0.054000 1.200000 0.055000 0.066000
1553863330444276899	1200 54 1.100000 0.186000 0.217000 1700 48 1.100000 2.334000 2.744000 600 55 1.000000 0.054000 0.054000 1.200000 0.074000 0.089000
1553863330949500899	1200 56 1.100000 0.183000 0.214000 1700 48 1.100000 1.886000 2.212000 600 56 1.000000 0.054000 0.054000 1.200000 0.054000 0.065000
1553863331454761357	1200 59 1.100000 0.168000 0.196000 1700 49 1.100000 2.238000 2.629000 600 55 1.000000 0.054000 0.054000 1.200000 0.070000 0.084000
1553863331960006024	1200 59 1.100000 0.185000 0.216000 1700 49 1.100000 2.468000 2.902000 600 56 1.000000 0.054000 0.054000 1.200000 0.071000 0.085000
1553863332465159941	1200 59 1.100000 0.116000 0.135000 1700 49 1.100000 2.629000 3.096000 600 55 1.000000 0.054000 0.054000 1.200000 0.076000 0.091000
1553863332970305149	1200 58 1.100000 0.185000 0.216000 1700 49 1.100000 1.765000 2.070000 600 54 1.000000 0.054000 0.054000 1.200000 0.053000 0.064000
1553863333475548149	1200 55 1.100000 0.185000 0.216000 1700 49 1.100000 1.974000 2.319000 600 55 1.000000 0.054000 0.054000 1.200000 0.056000 0.067000
1553863333981061191	1200 53 1.100000 0.184000 0.215000 1700 48 1.100000 2.153000 2.531000 600 55 1.000000 0.054000 0.054000 1.200000 0.066000 0.079000
1553863334486412024	1200 52 1.100000 0.214000 0.249000 1700 48 1.100000 1.981000 2.327000 600 55 1.000000 0.054000 0.054000 1.200000 0.068000 0.082000
1553863334991395149	1200 50 1.100000 0.185000 0.216000 1700 47 1.100000 1.873000 2.200000 600 53 1.000000 0.054000 0.054000 1.200000 0.055000 0.066000
1553863335497139358	1200 55 1.100000 0.162000 0.189000 1700 46 1.100000 0.359000 0.418000 600 53 1.000000 0.054000 0.054000 1.200000 0.046000 0.055000
1553863336003129524	1200 58 1.100000 0.184000 0.215000 1700 48 1.100000 2.431000 2.861000 600 54 1.000000 0.054000 0.054000 1.200000 0.070000 0.084000
1553863336508918691	1200 58 1.100000 0.196000 0.229000 1700 48 1.100000 2.625000 3.089000 600 55 1.000000 0.054000 0.054000 1.200000 0.076000 0.091000
1553863337014160983	1200 56 1.100000 0.175000 0.204000 1700 48 1.100000 1.990000 2.338000 600 55 1.000000 0.054000 0.054000 1.200000 0.056000 0.067000
1553863337520161233	1200 58 1.100000 0.175000 0.204000 1700 48 1.100000 2.347000 2.760000 600 55 1.000000 0.054000 0.054000 1.200000 0.066000 0.079000
1553863338025575358	1200 53 1.100000 0.125000 0.146000 1700 48 1.100000 2.130000 2.502000 600 55 1.000000 0.054000 0.054000 1.200000 0.074000 0.089000
1553863338531100400	1200 58 1.100000 0.185000 0.216000 1700 48 1.100000 1.880000 2.209000 600 56 1.000000 0.054000 0.054000 1.200000 0.054000 0.065000
1553863339037683691	1200 58 1.100000 0.187000 0.218000 1700 49 1.100000 1.953000 2.290000 600 55 1.000000 0.054000 0.054000 1.200000 0.060000 0.072000
1553863339543429441	1200 53 1.100000 0.186000 0.217000 1700 48 1.100000 2.495000 2.936000 600 55 1.000000 0.054000 0.054000 1.200000 0.074000 0.089000
1553863340049198275	1200 50 1.100000 0.183000 0.214000 1700 47 1.100000 1.476000 1.729000 600 54 1.000000 0.054000 0.054000 1.200000 0.053000 0.064000
1553863340554677650	1200 57 1.100000 0.183000 0.214000 1700 48 1.100000 1.672000 1.959000 600 55 1.000000 0.054000 0.054000 1.200000 0.053000 0.064000
1553863341061536442	1200 53 1.100000 0.183000 0.214000 1700 47 1.100000 1.952000 2.289000 600 54 1.000000 0.054000 0.054000 1.200000 0.062000 0.074000
1553863341567451942	1200 54 1.100000 0.184000 0.215000 1700 47 1.100000 1.936000 2.274000 600 54 1.000000 0.054000 0.054000 1.200000 0.057000 0.068000
1553863342073042025	1200 53 1.100000 0.181000 0.211000 1700 48 1.100000 2.044000 2.401000 600 54 1.000000 0.054000 0.054000 1.200000 0.056000 0.067000
1553863342578782192	1200 55 1.100000 0.182000 0.213000 1700 47 1.100000 1.413000 1.654000 600 54 1.000000 0.054000 0.054000 1.200000 0.056000 0.067000
1553863343084475150	1200 54 1.100000 0.181000 0.211000 1700 47 1.100000 1.308000 1.531000 600 52 1.000000 0.053000 0.053000 1.200000 0.053000 0.064000
1553863343589832984	1200 54 1.100000 0.183000 0.214000 1700 47 1.100000 1.542000 1.807000 600 53 1.000000 0.054000 0.054000 1.200000 0.052000 0.062000
1553863344095488484	1200 57 1.100000 0.182000 0.213000 1700 47 1.100000 1.814000 2.127000 600 53 1.000000 0.053000 0.053000 1.200000 0.052000 0.062000
1553863344600969984	1200 53 1.100000 0.181000 0.211000 1700 46 1.100000 1.691000 1.983000 600 52 1.000000 0.054000 0.054000 1.200000 0.057000 0.068000
1553863345106343525	1200 53 1.100000 0.188000 0.219000 1700 46 1.100000 1.586000 1.860000 600 52 1.000000 0.054000 0.054000 1.200000 0.061000 0.073000
1553863345611835109	1200 53 1.100000 0.182000 0.213000 1700 46 1.100000 1.449000 1.698000 600 52 1.000000 0.054000 0.054000 1.200000 0.053000 0.064000
1553863346117383525	1200 56 1.100000 0.183000 0.214000 1700 47 1.100000 1.892000 2.219000 600 52 1.000000 0.054000 0.054000 1.200000 0.051000 0.061000
1553863346622707734	1200 52 1.100000 0.182000 0.213000 1700 46 1.100000 1.631000 1.911000 600 52 1.000000 0.054000 0.054000 1.200000 0.059000 0.071000
1553863347128147401	1200 53 1.100000 0.193000 0.225000 1700 46 1.100000 1.798000 2.107000 600 52 1.000000 0.053000 0.053000 1.200000 0.064000 0.077000
1553863347633864234	1200 55 1.100000 0.182000 0.213000 1700 46 1.100000 1.666000 1.952000 600 52 1.000000 0.054000 0.054000 1.200000 0.054000 0.065000
1553863348139434026	1200 52 1.100000 0.183000 0.214000 1700 46 1.100000 1.817000 2.131000 600 52 1.000000 0.054000 0.054000 1.200000 0.051000 0.061000
1553863348645184734	1200 50 1.100000 0.184000 0.215000 1700 46 1.100000 1.397000 1.637000 600 52 1.000000 0.054000 0.054000 1.200000 0.058000 0.070000
1553863349150594943	1200 52 1.100000 0.193000 0.225000 1700 46 1.100000 1.606000 1.883000 600 52 1.000000 0.053000 0.053000 1.200000 0.061000 0.073000
1553863349656245901	1200 55 1.100000 0.182000 0.213000 1700 46 1.100000 1.175000 1.377000 600 51 1.000000 0.053000 0.053000 1.200000 0.053000 0.064000
1553863350161713151	1200 52 1.100000 0.183000 0.214000 1700 46 1.100000 1.840000 2.158000 600 52 1.000000 0.054000 0.054000 1.200000 0.054000 0.065000
1553863350667540276	1200 49 1.100000 0.182000 0.213000 1700 46 1.100000 2.113000 2.482000 600 52 1.000000 0.054000 0.054000 1.200000 0.054000 0.065000
1553863351173261109	1200 51 1.100000 0.182000 0.213000 1700 46 1.100000 1.306000 1.528000 600 52 1.000000 0.053000 0.053000 1.200000 0.054000 0.065000
1553863351680140693	1200 52 1.100000 0.188000 0.220000 1700 46 1.100000 1.254000 1.468000 600 51 1.000000 0.053000 0.053000 1.200000 0.053000 0.064000
1553863352185680443	1200 55 1.100000 0.182000 0.213000 1700 46 1.100000 1.746000 2.044000 600 51 1.000000 0.054000 0.054000 1.200000 0.053000 0.064000
1553863352691248318	1200 56 1.100000 0.182000 0.213000 1700 46 1.100000 1.781000 2.089000 600 52 1.000000 0.053000 0.053000 1.200000 0.054000 0.065000
1553863353197000193	1200 54 1.100000 0.182000 0.213000 1700 46 1.100000 1.573000 1.843000 600 53 1.000000 0.054000 0.054000 1.200000 0.052000 0.062000
1553863353702564360	1200 53 1.100000 0.181000 0.211000 1700 46 1.100000 1.678000 1.968000 600 51 1.000000 0.053000 0.053000 1.200000 0.054000 0.065000
1553863354208177526	1200 54 1.100000 0.183000 0.214000 1700 46 1.100000 1.384000 1.623000 600 51 1.000000 0.054000 0.054000 1.200000 0.051000 0.061000
1553863354713896235	1200 56 1.100000 0.181000 0.211000 1700 46 1.100000 1.943000 2.283000 600 52 1.000000 0.053000 0.053000 1.200000 0.057000 0.068000
1553863355219470068	1200 53 1.100000 0.182000 0.213000 1700 45 1.100000 1.152000 1.348000 600 51 1.000000 0.054000 0.054000 1.200000 0.050000 0.060000
1553863355724888443	1200 51 1.100000 0.191000 0.223000 1700 45 1.100000 1.352000 1.583000 600 51 1.000000 0.054000 0.054000 1.200000 0.064000 0.077000
1553863356230374235	1200 51 1.100000 0.182000 0.213000 1700 45 1.100000 1.302000 1.523000 600 51 1.000000 0.053000 0.053000 1.200000 0.052000 0.062000
1553863356736120902	1200 55 1.100000 0.183000 0.214000 1700 46 1.100000 1.679000 1.967000 600 51 1.000000 0.053000 0.053000 1.200000 0.052000 0.062000
1553863357241514485	1200 50 1.100000 0.182000 0.213000 1700 45 1.100000 2.203000 2.590000 600 51 1.000000 0.053000 0.053000 1.200000 0.055000 0.066000
1553863357747246694	1200 52 1.100000 0.185000 0.216000 1700 45 1.100000 1.562000 1.829000 600 51 1.000000 0.053000 0.053000 1.200000 0.062000 0.075000
1553863358252646860	1200 50 1.100000 0.181000 0.211000 1700 45 1.100000 1.216000 1.423000 600 51 1.000000 0.053000 0.053000 1.200000 0.051000 0.061000
1553863358758249444	1200 55 1.100000 0.184000 0.215000 1700 46 1.100000 1.715000 2.011000 600 51 1.000000 0.053000 0.053000 1.200000 0.051000 0.061000
1553863359263712569	1200 52 1.100000 0.181000 0.211000 1700 46 1.100000 2.074000 2.436000 600 51 1.000000 0.053000 0.053000 1.200000 0.057000 0.068000
1553863359769290860	1200 52 1.100000 0.192000 0.224000 1700 46 1.100000 1.468000 1.719000 600 51 1.000000 0.053000 0.053000 1.200000 0.065000 0.078000
1553863360276416194	1200 53 1.100000 0.181000 0.211000 1700 45 1.100000 1.227000 1.435000 600 50 1.000000 0.053000 0.053000 1.200000 0.049000 0.059000
1553863360782167402	1200 52 1.100000 0.185000 0.216000 1700 45 1.100000 1.759000 2.063000 600 51 1.000000 0.053000 0.053000 1.200000 0.055000 0.066000
1553863361287603194	1200 49 1.100000 0.181000 0.211000 1700 45 1.100000 2.057000 2.416000 600 52 1.000000 0.054000 0.054000 1.200000 0.056000 0.067000
1553863361793068444	1200 53 1.100000 0.181000 0.211000 1700 45 1.100000 1.545000 1.810000 600 51 1.000000 0.053000 0.053000 1.200000 0.052000 0.062000
1553863362298598819	1200 52 1.100000 0.181000 0.211000 1700 45 1.100000 1.604000 1.879000 600 50 1.000000 0.054000 0.054000 1.200000 0.054000 0.065000
1553863362804074444	1200 52 1.100000 0.182000 0.213000 1700 45 1.100000 1.596000 1.868000 600 51 1.000000 0.053000 0.053000 1.200000 0.052000 0.062000
1553863363309674903	1200 51 1.100000 0.183000 0.214000 1700 46 1.100000 1.928000 2.261000 600 52 1.000000 0.053000 0.053000 1.200000 0.054000 0.065000
1553863363815373319	1200 52 1.100000 0.182000 0.213000 1700 45 1.100000 1.474000 1.727000 600 52 1.000000 0.054000 0.054000 1.200000 0.051000 0.061000
1553863364320735611	1200 49 1.100000 0.190000 0.222000 1700 45 1.100000 1.477000 1.731000 600 50 1.000000 0.053000 0.053000 1.200000 0.053000 0.064000
1553863364826206111	1200 51 1.100000 0.182000 0.213000 1700 45 1.100000 1.317000 1.542000 600 50 1.000000 0.053000 0.053000 1.200000 0.050000 0.060000
1553863365331941069	1200 55 1.100000 0.181000 0.211000 1700 46 1.100000 1.768000 2.073000 600 51 1.000000 0.053000 0.053000 1.200000 0.055000 0.066000
1553863365837967778	1200 51 1.100000 0.183000 0.214000 1700 45 1.100000 1.375000 1.610000 600 51 1.000000 0.053000 0.053000 1.200000 0.048000 0.057000
1553863366343431236	1200 48 1.100000 0.181000 0.211000 1700 44 1.100000 1.265000 1.481000 600 50 1.000000 0.053000 0.053000 1.200000 0.052000 0.062000
1553863366849210570	1200 50 1.100000 0.181000 0.211000 1700 44 1.100000 0.983000 1.150000 600 50 1.000000 0.053000 0.053000 1.200000 0.055000 0.066000
1553863367354650945	1200 51 1.100000 0.181000 0.211000 1700 44 1.100000 1.283000 1.503000 600 50 1.000000 0.053000 0.053000 1.200000 0.054000 0.065000
1553863367861193028	1200 48 1.100000 0.180000 0.210000 1700 44 1.100000 1.749000 2.051000 600 49 1.000000 0.053000 0.053000 1.200000 0.060000 0.072000
1553863368367150486	1200 47 1.100000 0.189000 0.221000 1700 43 1.100000 0.779000 0.909000 600 48 1.000000 0.053000 0.053000 1.200000 0.048000 0.057000
1553863368873464987	1200 45 1.100000 0.178000 0.208000 1700 43 1.100000 0.588000 0.686000 600 48 1.000000 0.053000 0.053000 1.200000 0.049000 0.059000
1553863369379307028	1200 46 1.100000 0.181000 0.211000 1700 42 1.100000 0.798000 0.931000 600 47 1.000000 0.053000 0.053000 1.200000 0.050000 0.060000
1553863369884462153	1200 43 1.100000 0.149000 0.174000 1700 42 1.100000 0.968000 1.132000 600 46 1.000000 0.053000 0.053000 1.200000 0.049000 0.059000
1553863370389359653	1200 42 1.100000 0.063000 0.073000 1700 41 1.100000 0.425000 0.495000 600 46 1.000000 0.053000 0.053000 1.200000 0.023000 0.027000
