#Timestamp	CPU(0) Frequency(MHz)	CPU(0) Temperature(C)	A7 Voltage(V)	A7 Current(A)	A7 Power(W)	CPU(4) Frequency(MHz)	CPU(4) Temperature(C)	A15 Voltage(V)	A15 Current(A)	A15 Power(W)	GPU Frequency(MHz)	GPU Temperature(C)	GPU Voltage(V)	GPU Current(A)	GPU Power(W)	RAM Voltage(V)	RAM Current(A)	RAM Power(W)
1517184054071711951	1100 33 1.100000 0.052000 0.059000 500 32 0.900000 0.271000 0.246000 600 37 1.000000 0.051000 0.051000 1.200000 0.038000 0.045000
1517184054585276577	1100 33 1.100000 0.053000 0.060000 500 32 0.900000 0.265000 0.241000 600 36 1.000000 0.051000 0.051000 1.200000 0.035000 0.042000
1517184055109878202	1100 33 1.100000 0.051000 0.057000 500 32 0.900000 0.272000 0.247000 600 36 1.000000 0.051000 0.051000 1.200000 0.028000 0.033000
1517184055629676660	1100 33 1.100000 0.053000 0.060000 500 32 0.900000 0.366000 0.333000 600 36 1.000000 0.051000 0.051000 1.200000 0.035000 0.042000
1517184056143342702	1100 33 1.100000 0.051000 0.057000 500 31 0.900000 0.273000 0.248000 600 36 1.000000 0.051000 0.051000 1.200000 0.028000 0.033000
1517184056656847827	1100 33 1.100000 0.051000 0.057000 500 31 0.900000 0.273000 0.248000 600 35 1.000000 0.050000 0.050000 1.200000 0.025000 0.030000
1517184057171207660	1100 33 1.100000 0.052000 0.059000 500 31 0.900000 0.271000 0.246000 600 35 1.000000 0.050000 0.050000 1.200000 0.028000 0.033000
1517184057684271702	1100 33 1.100000 0.055000 0.062000 500 31 0.900000 0.426000 0.387000 600 35 1.000000 0.050000 0.050000 1.200000 0.035000 0.042000
1517184058197653910	1100 32 1.100000 0.055000 0.062000 500 31 0.900000 0.300000 0.273000 600 35 1.000000 0.050000 0.050000 1.200000 0.035000 0.042000
1517184058711188119	1100 32 1.100000 0.051000 0.057000 500 31 0.900000 0.282000 0.256000 600 35 1.000000 0.051000 0.051000 1.200000 0.028000 0.033000
1517184059224492327	1100 32 1.100000 0.051000 0.057000 500 31 0.900000 0.283000 0.257000 600 35 1.000000 0.050000 0.050000 1.200000 0.029000 0.035000
1517184059763576369	1100 32 1.100000 0.051000 0.057000 500 31 0.900000 0.281000 0.255000 600 35 1.000000 0.051000 0.051000 1.200000 0.029000 0.035000
1517184060281780869	1100 32 1.100000 0.056000 0.063000 500 31 0.900000 0.414000 0.377000 600 35 1.000000 0.051000 0.051000 1.200000 0.038000 0.045000
1517184060800100536	1100 33 1.100000 0.051000 0.057000 500 31 0.900000 0.327000 0.297000 600 36 1.000000 0.050000 0.050000 1.200000 0.028000 0.033000
1517184061313953869	1100 34 1.100000 0.442000 0.495000 500 32 0.900000 0.598000 0.544000 600 37 1.000000 0.050000 0.050000 1.200000 0.036000 0.043000
1517184061846926577	1100 35 1.100000 0.487000 0.545000 500 33 0.900000 0.597000 0.543000 600 37 1.000000 0.050000 0.050000 1.200000 0.038000 0.045000
1517184062364699994	1100 35 1.100000 0.483000 0.541000 500 33 0.900000 0.682000 0.620000 600 37 1.000000 0.050000 0.050000 1.200000 0.045000 0.054000
1517184062878881203	1100 35 1.100000 0.481000 0.539000 500 33 0.900000 0.598000 0.544000 600 38 1.000000 0.051000 0.051000 1.200000 0.037000 0.044000
1517184063393059078	1100 35 1.100000 0.489000 0.548000 500 33 0.900000 0.598000 0.544000 600 38 1.000000 0.051000 0.051000 1.200000 0.044000 0.053000
1517184063931206036	1100 35 1.100000 0.437000 0.490000 500 33 0.900000 0.595000 0.541000 600 38 1.000000 0.051000 0.051000 1.200000 0.039000 0.047000
1517184064460965078	1100 36 1.100000 0.476000 0.533000 500 34 0.900000 0.611000 0.556000 600 38 1.000000 0.051000 0.051000 1.200000 0.053000 0.064000
1517184064976640078	1100 36 1.100000 0.471000 0.527000 500 34 0.900000 0.717000 0.652000 600 38 1.000000 0.051000 0.051000 1.200000 0.043000 0.052000
1517184065490873536	1100 36 1.100000 0.489000 0.548000 500 34 0.900000 0.607000 0.552000 600 38 1.000000 0.051000 0.051000 1.200000 0.039000 0.047000
1517184066004777786	1100 36 1.100000 0.484000 0.542000 500 34 0.900000 0.604000 0.549000 600 38 1.000000 0.051000 0.051000 1.200000 0.039000 0.047000
1517184066522736578	1100 36 1.100000 0.485000 0.543000 500 34 0.900000 0.651000 0.592000 600 38 1.000000 0.051000 0.051000 1.200000 0.042000 0.050000
1517184067037909328	1100 36 1.100000 0.476000 0.534000 500 34 0.900000 0.646000 0.587000 600 38 1.000000 0.051000 0.051000 1.200000 0.046000 0.055000
1517184067551731411	1100 36 1.100000 0.491000 0.550000 500 34 0.900000 0.607000 0.552000 600 38 1.000000 0.051000 0.051000 1.200000 0.039000 0.047000
1517184068066818995	1100 36 1.100000 0.452000 0.507000 500 34 0.900000 0.605000 0.550000 600 38 1.000000 0.051000 0.051000 1.200000 0.038000 0.045000
1517184068585681703	1100 36 1.100000 0.479000 0.536000 500 34 0.900000 0.663000 0.603000 600 38 1.000000 0.051000 0.051000 1.200000 0.044000 0.053000
1517184069112589995	1100 36 1.100000 0.447000 0.501000 500 34 0.900000 0.609000 0.554000 600 38 1.000000 0.051000 0.051000 1.200000 0.039000 0.047000
1517184069635360912	1100 36 1.100000 0.483000 0.541000 500 34 0.900000 0.653000 0.594000 600 38 1.000000 0.051000 0.051000 1.200000 0.043000 0.052000
1517184070150836787	1100 36 1.100000 0.480000 0.538000 500 34 0.900000 0.607000 0.552000 600 38 1.000000 0.051000 0.051000 1.200000 0.038000 0.045000
1517184070664883245	1100 36 1.100000 0.485000 0.543000 500 34 0.900000 0.668000 0.607000 600 38 1.000000 0.051000 0.051000 1.200000 0.046000 0.055000
1517184071193645245	1100 36 1.100000 0.470000 0.527000 500 34 0.900000 0.609000 0.554000 600 38 1.000000 0.051000 0.051000 1.200000 0.039000 0.047000
1517184071707607162	1100 36 1.100000 0.478000 0.535000 500 34 0.900000 0.725000 0.659000 600 39 1.000000 0.051000 0.051000 1.200000 0.042000 0.050000
1517184072221750912	1100 36 1.100000 0.455000 0.510000 500 34 0.900000 0.606000 0.551000 600 38 1.000000 0.051000 0.051000 1.200000 0.039000 0.047000
1517184072735848745	1100 36 1.100000 0.483000 0.541000 500 34 0.900000 0.657000 0.597000 600 38 1.000000 0.051000 0.051000 1.200000 0.043000 0.052000
1517184073250737245	1100 36 1.100000 0.477000 0.534000 500 34 0.900000 0.600000 0.546000 600 38 1.000000 0.051000 0.051000 1.200000 0.041000 0.049000
1517184073764802954	1100 36 1.100000 0.450000 0.504000 500 34 0.900000 0.608000 0.553000 600 38 1.000000 0.051000 0.051000 1.200000 0.043000 0.052000
1517184074279706412	1100 36 1.100000 0.470000 0.526000 500 34 0.900000 0.685000 0.623000 600 38 1.000000 0.051000 0.051000 1.200000 0.040000 0.048000
1517184074794519996	1100 36 1.100000 0.447000 0.501000 500 34 0.900000 0.608000 0.553000 600 38 1.000000 0.051000 0.051000 1.200000 0.038000 0.045000
1517184075308392496	1100 36 1.100000 0.482000 0.540000 500 34 0.900000 0.606000 0.551000 600 38 1.000000 0.051000 0.051000 1.200000 0.040000 0.048000
1517184075835761121	1100 36 1.100000 0.486000 0.544000 500 34 0.900000 0.602000 0.547000 600 38 1.000000 0.051000 0.051000 1.200000 0.039000 0.047000
1517184076351587871	1100 36 1.100000 0.475000 0.532000 500 34 0.900000 0.703000 0.639000 600 38 1.000000 0.050000 0.050000 1.200000 0.044000 0.053000
1517184076867434288	1100 36 1.100000 0.487000 0.545000 500 34 0.900000 0.604000 0.549000 600 38 1.000000 0.051000 0.051000 1.200000 0.039000 0.047000
1517184077381876204	1100 36 1.100000 0.482000 0.540000 500 34 0.900000 0.607000 0.552000 600 38 1.000000 0.051000 0.051000 1.200000 0.044000 0.053000
1517184077896338579	1100 36 1.100000 0.472000 0.529000 500 34 0.900000 0.606000 0.551000 600 38 1.000000 0.051000 0.051000 1.200000 0.036000 0.043000
1517184078411180371	1100 36 1.100000 0.477000 0.534000 500 34 0.900000 0.632000 0.575000 600 39 1.000000 0.051000 0.051000 1.200000 0.045000 0.054000
1517184078925441954	1100 36 1.100000 0.443000 0.497000 500 34 0.900000 0.607000 0.551000 600 39 1.000000 0.050000 0.050000 1.200000 0.038000 0.045000
1517184079439347538	1100 36 1.100000 0.490000 0.549000 500 34 0.900000 0.604000 0.549000 600 38 1.000000 0.051000 0.051000 1.200000 0.036000 0.043000
1517184079953460496	1100 36 1.100000 0.483000 0.541000 500 34 0.900000 0.604000 0.549000 600 39 1.000000 0.051000 0.051000 1.200000 0.042000 0.050000
1517184080477585621	1100 36 1.100000 0.465000 0.521000 500 34 0.900000 0.604000 0.549000 600 39 1.000000 0.051000 0.051000 1.200000 0.037000 0.044000
1517184080995670871	1100 36 1.100000 0.482000 0.540000 500 34 0.900000 0.658000 0.598000 600 39 1.000000 0.051000 0.051000 1.200000 0.039000 0.047000
1517184081509832746	1100 36 1.100000 0.460000 0.516000 500 34 0.900000 0.607000 0.552000 600 38 1.000000 0.051000 0.051000 1.200000 0.046000 0.055000
1517184082025470288	1100 36 1.100000 0.482000 0.540000 500 34 0.900000 0.601000 0.546000 600 39 1.000000 0.051000 0.051000 1.200000 0.037000 0.044000
1517184082540412455	1100 36 1.100000 0.499000 0.559000 500 34 0.900000 0.614000 0.558000 600 38 1.000000 0.051000 0.051000 1.200000 0.039000 0.047000
1517184083065751080	1100 36 1.100000 0.486000 0.544000 500 34 0.900000 0.738000 0.671000 600 39 1.000000 0.051000 0.051000 1.200000 0.046000 0.055000
1517184083581653705	1100 36 1.100000 0.496000 0.556000 500 34 0.900000 0.611000 0.556000 600 39 1.000000 0.051000 0.051000 1.200000 0.038000 0.045000
1517184084096857872	1100 36 1.100000 0.490000 0.549000 500 34 0.900000 0.615000 0.559000 600 39 1.000000 0.051000 0.051000 1.200000 0.044000 0.053000
1517184084610823122	1100 36 1.100000 0.506000 0.567000 500 34 0.900000 0.614000 0.558000 600 39 1.000000 0.051000 0.051000 1.200000 0.038000 0.045000
1517184085163058455	1100 37 1.100000 0.493000 0.552000 500 34 0.900000 0.664000 0.604000 600 39 1.000000 0.051000 0.051000 1.200000 0.045000 0.054000
1517184085687848747	1100 37 1.100000 0.490000 0.549000 500 34 0.900000 0.635000 0.577000 600 39 1.000000 0.051000 0.051000 1.200000 0.039000 0.047000
1517184086201937872	1100 37 1.100000 0.493000 0.552000 500 34 0.900000 0.608000 0.553000 600 39 1.000000 0.050000 0.050000 1.200000 0.038000 0.045000
1517184086716133830	1100 36 1.100000 0.499000 0.559000 500 34 0.900000 0.612000 0.556000 600 39 1.000000 0.051000 0.051000 1.200000 0.038000 0.045000
1517184087230315289	1100 37 1.100000 0.456000 0.511000 500 34 0.900000 0.623000 0.566000 600 39 1.000000 0.051000 0.051000 1.200000 0.045000 0.054000
1517184087743901247	1100 37 1.100000 0.493000 0.552000 500 34 0.900000 0.658000 0.598000 600 39 1.000000 0.051000 0.051000 1.200000 0.038000 0.045000
1517184088257947122	1100 36 1.100000 0.456000 0.511000 500 34 0.900000 0.644000 0.586000 600 39 1.000000 0.051000 0.051000 1.200000 0.044000 0.053000
1517184088772011956	1100 37 1.100000 0.490000 0.549000 500 34 0.900000 0.621000 0.565000 600 39 1.000000 0.051000 0.051000 1.200000 0.039000 0.047000
1517184089286294289	1100 36 1.100000 0.492000 0.551000 500 34 0.900000 0.619000 0.563000 600 39 1.000000 0.051000 0.051000 1.200000 0.037000 0.044000
1517184089815371872	1100 36 1.100000 0.494000 0.553000 500 34 0.900000 0.634000 0.576000 600 39 1.000000 0.051000 0.051000 1.200000 0.044000 0.053000
1517184090335531331	1100 37 1.100000 0.485000 0.543000 500 34 0.900000 0.715000 0.650000 600 39 1.000000 0.051000 0.051000 1.200000 0.044000 0.053000
1517184090850931789	1100 37 1.100000 0.493000 0.552000 500 34 0.900000 0.621000 0.565000 600 39 1.000000 0.051000 0.051000 1.200000 0.041000 0.049000
1517184091365138873	1100 36 1.100000 0.490000 0.549000 500 34 0.900000 0.619000 0.563000 600 39 1.000000 0.051000 0.051000 1.200000 0.038000 0.045000
1517184091879069664	1100 36 1.100000 0.494000 0.553000 500 34 0.900000 0.638000 0.580000 600 39 1.000000 0.051000 0.051000 1.200000 0.039000 0.047000
1517184092394744623	1100 37 1.100000 0.484000 0.542000 500 34 0.900000 0.695000 0.632000 600 39 1.000000 0.051000 0.051000 1.200000 0.042000 0.050000
1517184092909175623	1100 36 1.100000 0.479000 0.536000 500 34 0.900000 0.610000 0.555000 600 39 1.000000 0.051000 0.051000 1.200000 0.038000 0.045000
1517184093423180914	1100 36 1.100000 0.494000 0.553000 500 34 0.900000 0.614000 0.558000 600 39 1.000000 0.051000 0.051000 1.200000 0.045000 0.054000
1517184093938775790	1100 37 1.100000 0.489000 0.548000 500 34 0.900000 0.628000 0.571000 600 39 1.000000 0.051000 0.051000 1.200000 0.038000 0.045000
1517184094466903081	1100 37 1.100000 0.482000 0.540000 500 34 0.900000 0.617000 0.561000 600 39 1.000000 0.051000 0.051000 1.200000 0.038000 0.045000
1517184094984794998	1100 37 1.100000 0.451000 0.506000 500 34 0.900000 0.621000 0.565000 600 39 1.000000 0.051000 0.051000 1.200000 0.044000 0.053000
1517184095505640915	1100 36 1.100000 0.498000 0.558000 500 34 0.900000 0.606000 0.551000 600 38 1.000000 0.051000 0.051000 1.200000 0.039000 0.047000
1517184096019737540	1100 37 1.100000 0.450000 0.504000 500 34 0.900000 0.632000 0.575000 600 39 1.000000 0.051000 0.051000 1.200000 0.044000 0.053000
1517184096533870040	1100 36 1.100000 0.496000 0.556000 500 34 0.900000 0.605000 0.550000 600 39 1.000000 0.051000 0.051000 1.200000 0.040000 0.048000
1517184097053176165	1100 36 1.100000 0.450000 0.504000 500 34 0.900000 0.692000 0.629000 600 39 1.000000 0.051000 0.051000 1.200000 0.043000 0.052000
1517184097567201207	1100 37 1.100000 0.501000 0.561000 500 34 0.900000 0.611000 0.556000 600 39 1.000000 0.051000 0.051000 1.200000 0.038000 0.045000
1517184098080718707	1100 37 1.100000 0.452000 0.507000 500 34 0.900000 0.645000 0.586000 600 39 1.000000 0.051000 0.051000 1.200000 0.038000 0.045000
1517184098596066873	1100 36 1.100000 0.498000 0.558000 500 34 0.900000 0.606000 0.551000 600 38 1.000000 0.051000 0.051000 1.200000 0.045000 0.054000
1517184099124428373	1100 37 1.100000 0.451000 0.506000 500 34 0.900000 0.703000 0.639000 600 39 1.000000 0.051000 0.051000 1.200000 0.040000 0.048000
1517184099643827915	1100 37 1.100000 0.494000 0.553000 500 34 0.900000 0.609000 0.554000 600 39 1.000000 0.051000 0.051000 1.200000 0.037000 0.044000
1517184100165042957	1100 36 1.100000 0.501000 0.561000 500 34 0.900000 0.615000 0.559000 600 39 1.000000 0.051000 0.051000 1.200000 0.045000 0.054000
1517184100679113082	1100 36 1.100000 0.464000 0.520000 500 34 0.900000 0.627000 0.570000 600 39 1.000000 0.051000 0.051000 1.200000 0.043000 0.051000
1517184101210839249	1100 36 1.100000 0.499000 0.559000 500 34 0.900000 0.614000 0.558000 600 39 1.000000 0.051000 0.051000 1.200000 0.041000 0.049000
1517184101728785499	1100 36 1.100000 0.453000 0.508000 500 34 0.900000 0.726000 0.660000 600 39 1.000000 0.051000 0.051000 1.200000 0.041000 0.049000
1517184102270645791	1100 36 1.100000 0.486000 0.544000 500 34 0.900000 0.616000 0.560000 600 39 1.000000 0.051000 0.051000 1.200000 0.037000 0.044000
1517184102787033207	1100 36 1.100000 0.474000 0.531000 500 34 0.900000 0.624000 0.567000 600 38 1.000000 0.051000 0.051000 1.200000 0.049000 0.059000
1517184103300846124	1100 36 1.100000 0.491000 0.550000 500 34 0.900000 0.612000 0.556000 600 39 1.000000 0.051000 0.051000 1.200000 0.037000 0.044000
1517184103814596791	1100 37 1.100000 0.463000 0.519000 500 34 0.900000 0.675000 0.614000 600 39 1.000000 0.051000 0.051000 1.200000 0.045000 0.054000
1517184104355282999	1100 36 1.100000 0.472000 0.529000 500 34 0.900000 0.676000 0.615000 600 39 1.000000 0.051000 0.051000 1.200000 0.040000 0.048000
1517184104869120291	1100 36 1.100000 0.480000 0.538000 500 34 0.900000 0.649000 0.590000 600 39 1.000000 0.051000 0.051000 1.200000 0.042000 0.050000
1517184105383872541	1100 37 1.100000 0.482000 0.540000 500 34 0.900000 0.609000 0.554000 600 39 1.000000 0.051000 0.051000 1.200000 0.040000 0.048000
1517184105914600041	1100 36 1.100000 0.476000 0.534000 500 34 0.900000 0.610000 0.555000 600 39 1.000000 0.051000 0.051000 1.200000 0.039000 0.047000
1517184106455101583	1100 36 1.100000 0.486000 0.544000 500 34 0.900000 0.723000 0.657000 600 39 1.000000 0.051000 0.051000 1.200000 0.048000 0.058000
1517184106974049458	1100 36 1.100000 0.471000 0.527000 500 34 0.900000 0.639000 0.581000 600 38 1.000000 0.051000 0.051000 1.200000 0.043000 0.052000
1517184107487997708	1100 36 1.100000 0.453000 0.508000 500 34 0.900000 0.605000 0.550000 600 38 1.000000 0.051000 0.051000 1.200000 0.039000 0.047000
1517184108001980458	1100 36 1.100000 0.483000 0.541000 500 34 0.900000 0.615000 0.559000 600 39 1.000000 0.051000 0.051000 1.200000 0.040000 0.048000
1517184108519381958	1100 36 1.100000 0.460000 0.516000 500 34 0.900000 0.642000 0.584000 600 39 1.000000 0.051000 0.051000 1.200000 0.042000 0.050000
1517184109033375583	1100 36 1.100000 0.482000 0.540000 500 34 0.900000 0.654000 0.595000 600 39 1.000000 0.051000 0.051000 1.200000 0.049000 0.059000
1517184109547352083	1100 36 1.100000 0.463000 0.519000 500 34 0.900000 0.618000 0.562000 600 39 1.000000 0.051000 0.051000 1.200000 0.039000 0.047000
1517184110061439333	1100 36 1.100000 0.474000 0.531000 500 34 0.900000 0.611000 0.556000 600 38 1.000000 0.050000 0.050000 1.200000 0.037000 0.044000
1517184110590842167	1100 36 1.100000 0.459000 0.514000 500 34 0.900000 0.615000 0.559000 600 39 1.000000 0.051000 0.051000 1.200000 0.040000 0.048000
1517184111105841292	1100 36 1.100000 0.488000 0.547000 500 34 0.900000 0.701000 0.637000 600 39 1.000000 0.051000 0.051000 1.200000 0.042000 0.050000
1517184111619737792	1100 36 1.100000 0.450000 0.504000 500 34 0.900000 0.605000 0.550000 600 38 1.000000 0.051000 0.051000 1.200000 0.044000 0.053000
1517184112133669125	1100 36 1.100000 0.481000 0.539000 500 34 0.900000 0.611000 0.556000 600 39 1.000000 0.051000 0.051000 1.200000 0.038000 0.045000
1517184112657592583	1100 37 1.100000 0.463000 0.519000 500 34 0.900000 0.614000 0.558000 600 39 1.000000 0.051000 0.051000 1.200000 0.039000 0.047000
1517184113179532042	1100 36 1.100000 0.473000 0.530000 500 34 0.900000 0.732000 0.666000 600 39 1.000000 0.051000 0.051000 1.200000 0.048000 0.058000
1517184113693584959	1100 36 1.100000 0.455000 0.510000 500 34 0.900000 0.604000 0.549000 600 39 1.000000 0.051000 0.051000 1.200000 0.037000 0.044000
1517184114209041542	1100 36 1.100000 0.482000 0.540000 500 34 0.900000 0.611000 0.556000 600 38 1.000000 0.051000 0.051000 1.200000 0.043000 0.051000
1517184114722992500	1100 36 1.100000 0.470000 0.526000 500 34 0.900000 0.608000 0.553000 600 38 1.000000 0.051000 0.051000 1.200000 0.037000 0.044000
1517184115253843959	1100 36 1.100000 0.477000 0.534000 500 34 0.900000 0.619000 0.563000 600 39 1.000000 0.051000 0.051000 1.200000 0.049000 0.059000
1517184115770330834	1100 36 1.100000 0.459000 0.514000 500 34 0.900000 0.654000 0.595000 600 39 1.000000 0.051000 0.051000 1.200000 0.039000 0.047000
1517184116285920084	1100 36 1.100000 0.488000 0.547000 500 34 0.900000 0.603000 0.548000 600 39 1.000000 0.051000 0.051000 1.200000 0.036000 0.043000
1517184116801150001	1100 36 1.100000 0.457000 0.512000 500 34 0.900000 0.596000 0.542000 600 39 1.000000 0.051000 0.051000 1.200000 0.040000 0.048000
1517184117322068417	1100 36 1.100000 0.472000 0.529000 500 34 0.900000 0.593000 0.539000 600 39 1.000000 0.051000 0.051000 1.200000 0.042000 0.050000
1517184117836456001	1100 36 1.100000 0.464000 0.520000 500 34 0.900000 0.664000 0.604000 600 39 1.000000 0.051000 0.051000 1.200000 0.043000 0.051000
1517184118350114626	1100 36 1.100000 0.433000 0.485000 500 34 0.900000 0.608000 0.553000 600 39 1.000000 0.051000 0.051000 1.200000 0.041000 0.049000
1517184118869953793	1100 36 1.100000 0.477000 0.535000 500 34 0.900000 0.598000 0.544000 600 38 1.000000 0.051000 0.051000 1.200000 0.038000 0.045000
1517184119383767501	1100 36 1.100000 0.449000 0.503000 500 34 0.900000 0.608000 0.553000 600 39 1.000000 0.050000 0.050000 1.200000 0.045000 0.054000
1517184119910920709	1100 36 1.100000 0.467000 0.523000 500 34 0.900000 0.665000 0.605000 600 39 1.000000 0.051000 0.051000 1.200000 0.040000 0.048000
1517184120427764543	1100 36 1.100000 0.448000 0.502000 500 34 0.900000 0.685000 0.623000 600 38 1.000000 0.051000 0.051000 1.200000 0.040000 0.048000
1517184120942910876	1100 36 1.100000 0.476000 0.533000 500 34 0.900000 0.602000 0.547000 600 39 1.000000 0.051000 0.051000 1.200000 0.038000 0.045000
1517184121477899709	1100 36 1.100000 0.458000 0.513000 500 34 0.900000 0.599000 0.545000 600 39 1.000000 0.050000 0.050000 1.200000 0.039000 0.047000
1517184122012282335	1100 36 1.100000 0.479000 0.537000 500 34 0.900000 0.655000 0.596000 600 39 1.000000 0.051000 0.051000 1.200000 0.045000 0.054000
1517184122526058251	1100 36 1.100000 0.457000 0.512000 500 34 0.900000 0.706000 0.642000 600 39 1.000000 0.051000 0.051000 1.200000 0.044000 0.053000
1517184123042452918	1100 36 1.100000 0.468000 0.524000 500 34 0.900000 0.605000 0.550000 600 38 1.000000 0.051000 0.051000 1.200000 0.038000 0.045000
1517184123583109168	1100 36 1.100000 0.477000 0.534000 500 34 0.900000 0.610000 0.555000 600 38 1.000000 0.051000 0.051000 1.200000 0.039000 0.047000
1517184124099860251	1100 36 1.100000 0.473000 0.530000 500 34 0.900000 0.657000 0.597000 600 38 1.000000 0.051000 0.051000 1.200000 0.038000 0.045000
1517184124614688752	1100 36 1.100000 0.455000 0.510000 500 34 0.900000 0.624000 0.567000 600 38 1.000000 0.051000 0.051000 1.200000 0.047000 0.056000
1517184125128596085	1100 36 1.100000 0.466000 0.522000 500 34 0.900000 0.602000 0.547000 600 38 1.000000 0.051000 0.051000 1.200000 0.038000 0.045000
1517184125668000793	1100 36 1.100000 0.472000 0.529000 500 34 0.900000 0.602000 0.547000 600 38 1.000000 0.051000 0.051000 1.200000 0.040000 0.048000
1517184126185987668	1100 36 1.100000 0.470000 0.526000 500 34 0.900000 0.661000 0.601000 600 38 1.000000 0.051000 0.051000 1.200000 0.039000 0.047000
1517184126717117252	1100 36 1.100000 0.480000 0.538000 500 34 0.900000 0.601000 0.546000 600 38 1.000000 0.051000 0.051000 1.200000 0.036000 0.043000
1517184127235395460	1100 36 1.100000 0.429000 0.481000 500 34 0.900000 0.664000 0.604000 600 39 1.000000 0.051000 0.051000 1.200000 0.043000 0.052000
1517184127754902127	1100 36 1.100000 0.475000 0.532000 500 34 0.900000 0.604000 0.549000 600 38 1.000000 0.051000 0.051000 1.200000 0.038000 0.045000
1517184128275733627	1100 36 1.100000 0.432000 0.484000 500 34 0.900000 0.656000 0.596000 600 38 1.000000 0.051000 0.051000 1.200000 0.044000 0.053000
1517184128791529502	1100 36 1.100000 0.480000 0.538000 500 34 0.900000 0.600000 0.546000 600 38 1.000000 0.051000 0.051000 1.200000 0.042000 0.050000
1517184129306354335	1100 36 1.100000 0.428000 0.480000 500 34 0.900000 0.704000 0.637000 600 38 1.000000 0.051000 0.051000 1.200000 0.040000 0.048000
1517184129820144877	1100 36 1.100000 0.477000 0.534000 500 34 0.900000 0.593000 0.534000 600 38 1.000000 0.051000 0.051000 1.200000 0.044000 0.053000
1517184130336596336	1100 36 1.100000 0.438000 0.491000 500 34 0.900000 0.641000 0.578000 600 38 1.000000 0.051000 0.051000 1.200000 0.042000 0.050000
1517184130850524461	1100 36 1.100000 0.477000 0.534000 500 34 0.900000 0.590000 0.532000 600 38 1.000000 0.051000 0.051000 1.200000 0.038000 0.045000
1517184131380487461	1100 36 1.100000 0.431000 0.483000 500 34 0.900000 0.629000 0.567000 600 38 1.000000 0.051000 0.051000 1.200000 0.039000 0.047000
1517184131894490002	1100 36 1.100000 0.468000 0.524000 500 34 0.900000 0.589000 0.531000 600 38 1.000000 0.051000 0.051000 1.200000 0.040000 0.048000
1517184132408413919	1100 36 1.100000 0.442000 0.495000 500 34 0.900000 0.641000 0.578000 600 38 1.000000 0.051000 0.051000 1.200000 0.052000 0.062000
1517184132922448253	1100 36 1.100000 0.465000 0.521000 500 34 0.900000 0.589000 0.531000 600 38 1.000000 0.051000 0.051000 1.200000 0.039000 0.047000
1517184133449711628	1100 36 1.100000 0.474000 0.531000 500 34 0.900000 0.591000 0.533000 600 38 1.000000 0.051000 0.051000 1.200000 0.041000 0.049000
1517184133963625294	1100 36 1.100000 0.461000 0.517000 500 34 0.900000 0.644000 0.580000 600 38 1.000000 0.050000 0.050000 1.200000 0.045000 0.054000
1517184134477985003	1100 36 1.100000 0.468000 0.524000 500 34 0.900000 0.634000 0.571000 600 39 1.000000 0.051000 0.051000 1.200000 0.043000 0.052000
1517184134992855628	1100 36 1.100000 0.473000 0.530000 500 34 0.900000 0.590000 0.532000 600 38 1.000000 0.051000 0.051000 1.200000 0.043000 0.052000
1517184135506905003	1100 36 1.100000 0.466000 0.522000 500 34 0.900000 0.598000 0.539000 600 38 1.000000 0.051000 0.051000 1.200000 0.039000 0.047000
1517184136020365711	1100 36 1.100000 0.442000 0.496000 500 34 0.900000 0.604000 0.544000 600 38 1.000000 0.051000 0.051000 1.200000 0.039000 0.047000
1517184136534399378	1100 36 1.100000 0.472000 0.529000 500 34 0.900000 0.618000 0.557000 600 38 1.000000 0.051000 0.051000 1.200000 0.047000 0.056000
1517184137048203836	1100 36 1.100000 0.430000 0.482000 500 34 0.900000 0.595000 0.536000 600 38 1.000000 0.051000 0.051000 1.200000 0.040000 0.048000
1517184137563131045	1100 36 1.100000 0.471000 0.528000 500 34 0.900000 0.594000 0.535000 600 38 1.000000 0.051000 0.051000 1.200000 0.041000 0.049000
1517184138092319711	1100 36 1.100000 0.441000 0.494000 500 34 0.900000 0.589000 0.531000 600 38 1.000000 0.051000 0.051000 1.200000 0.038000 0.045000
1517184138606397503	1100 36 1.100000 0.470000 0.526000 500 34 0.900000 0.702000 0.633000 600 38 1.000000 0.051000 0.051000 1.200000 0.043000 0.052000
1517184139121854295	1100 36 1.100000 0.474000 0.531000 500 34 0.900000 0.591000 0.533000 600 38 1.000000 0.051000 0.051000 1.200000 0.043000 0.052000
1517184139635937837	1100 36 1.100000 0.480000 0.538000 500 34 0.900000 0.591000 0.533000 600 38 1.000000 0.051000 0.051000 1.200000 0.038000 0.045000
1517184140150025378	1100 36 1.100000 0.466000 0.522000 500 34 0.900000 0.590000 0.532000 600 38 1.000000 0.051000 0.051000 1.200000 0.044000 0.053000
1517184140690367045	1100 36 1.100000 0.485000 0.543000 500 34 0.900000 0.681000 0.614000 600 39 1.000000 0.051000 0.051000 1.200000 0.039000 0.047000
1517184141206026754	1100 36 1.100000 0.476000 0.533000 500 34 0.900000 0.590000 0.532000 600 38 1.000000 0.051000 0.051000 1.200000 0.041000 0.049000
1517184141719887295	1100 36 1.100000 0.472000 0.529000 500 34 0.900000 0.594000 0.535000 600 38 1.000000 0.051000 0.051000 1.200000 0.042000 0.050000
1517184142237415754	1100 36 1.100000 0.471000 0.527000 500 34 0.900000 0.589000 0.531000 600 38 1.000000 0.051000 0.051000 1.200000 0.038000 0.045000
1517184142783776129	1100 36 1.100000 0.478000 0.536000 500 34 0.900000 0.590000 0.532000 600 38 1.000000 0.051000 0.051000 1.200000 0.046000 0.055000
1517184143298901795	1100 36 1.100000 0.464000 0.520000 500 34 0.900000 0.661000 0.596000 600 38 1.000000 0.051000 0.051000 1.200000 0.047000 0.056000
1517184143813990795	1100 36 1.100000 0.471000 0.527000 500 34 0.900000 0.599000 0.540000 600 38 1.000000 0.051000 0.051000 1.200000 0.039000 0.047000
1517184144327721421	1100 36 1.100000 0.478000 0.536000 500 34 0.900000 0.598000 0.539000 600 38 1.000000 0.051000 0.051000 1.200000 0.038000 0.045000
1517184144860446212	1100 36 1.100000 0.480000 0.538000 500 34 0.900000 0.598000 0.539000 600 38 1.000000 0.051000 0.051000 1.200000 0.039000 0.047000
1517184145376585629	1100 36 1.100000 0.476000 0.533000 500 34 0.900000 0.658000 0.593000 600 39 1.000000 0.051000 0.051000 1.200000 0.049000 0.059000
1517184145890502004	1100 36 1.100000 0.430000 0.482000 500 34 0.900000 0.619000 0.558000 600 39 1.000000 0.051000 0.051000 1.200000 0.038000 0.045000
1517184146408589921	1100 36 1.100000 0.479000 0.536000 500 34 0.900000 0.597000 0.538000 600 38 1.000000 0.051000 0.051000 1.200000 0.040000 0.048000
1517184146934916004	1100 36 1.100000 0.424000 0.475000 500 34 0.900000 0.601000 0.542000 600 38 1.000000 0.051000 0.051000 1.200000 0.037000 0.044000
1517184147464872338	1100 36 1.100000 0.477000 0.534000 500 34 0.900000 0.652000 0.588000 600 38 1.000000 0.051000 0.051000 1.200000 0.042000 0.050000
1517184147978680129	1100 36 1.100000 0.428000 0.480000 500 34 0.900000 0.697000 0.628000 600 38 1.000000 0.051000 0.051000 1.200000 0.046000 0.055000
1517184148492551421	1100 36 1.100000 0.474000 0.531000 500 34 0.900000 0.598000 0.539000 600 38 1.000000 0.051000 0.051000 1.200000 0.038000 0.045000
1517184149005870088	1100 33 1.100000 0.069000 0.078000 500 32 0.900000 0.327000 0.296000 600 36 1.000000 0.051000 0.051000 1.200000 0.027000 0.032000
1517184149519024046	1100 32 1.100000 0.051000 0.057000 500 32 0.900000 0.111000 0.101000 600 36 1.000000 0.051000 0.051000 1.200000 0.023000 0.027000
