#Timestamp	CPU(0) Frequency(MHz)	CPU(0) Temperature(C)	A7 Voltage(V)	A7 Current(A)	A7 Power(W)	CPU(4) Frequency(MHz)	CPU(4) Temperature(C)	A15 Voltage(V)	A15 Current(A)	A15 Power(W)	GPU Frequency(MHz)	GPU Temperature(C)	GPU Voltage(V)	GPU Current(A)	GPU Power(W)	RAM Voltage(V)	RAM Current(A)	RAM Power(W)
1560116233479004075	800 33 1.000000 0.075000 0.076000 900 31 0.900000 0.108000 0.101000 600 35 1.000000 0.050000 0.050000 1.200000 0.058000 0.070000
1560116233989665575	800 33 1.000000 0.038000 0.038000 900 31 0.900000 0.399000 0.375000 600 36 1.000000 0.050000 0.050000 1.200000 0.036000 0.043000
1560116234500564367	800 33 1.000000 0.053000 0.054000 900 31 0.900000 0.399000 0.375000 600 36 1.000000 0.051000 0.051000 1.200000 0.037000 0.044000
1560116235013110992	800 33 1.000000 0.035000 0.035000 900 31 0.900000 0.400000 0.376000 600 36 1.000000 0.050000 0.050000 1.200000 0.035000 0.042000
1560116235525459700	800 33 1.000000 0.078000 0.079000 900 31 0.900000 0.407000 0.382000 600 36 1.000000 0.050000 0.050000 1.200000 0.050000 0.060000
1560116236037186825	800 36 1.000000 0.038000 0.038000 900 32 0.900000 0.418000 0.393000 600 39 1.000000 0.051000 0.051000 1.200000 0.042000 0.050000
1560116236548534617	800 37 1.000000 0.165000 0.168000 900 33 0.900000 1.638000 1.549000 600 41 1.000000 0.051000 0.051000 1.200000 0.025000 0.030000
1560116237059812825	800 38 1.000000 0.166000 0.169000 900 33 0.900000 1.641000 1.552000 600 42 1.000000 0.051000 0.051000 1.200000 0.024000 0.028000
1560116237571016617	800 38 1.000000 0.203000 0.207000 900 34 0.900000 1.635000 1.546000 600 43 1.000000 0.051000 0.051000 1.200000 0.047000 0.056000
1560116238084118617	800 39 1.000000 0.167000 0.170000 900 34 0.900000 1.640000 1.551000 600 43 1.000000 0.051000 0.051000 1.200000 0.027000 0.032000
1560116238595638492	800 39 1.000000 0.185000 0.188000 900 35 0.900000 1.641000 1.552000 600 43 1.000000 0.051000 0.051000 1.200000 0.033000 0.039000
1560116239106656534	800 39 1.000000 0.168000 0.171000 900 35 0.900000 1.642000 1.553000 600 44 1.000000 0.051000 0.051000 1.200000 0.025000 0.030000
1560116239617463450	800 40 1.000000 0.168000 0.171000 900 35 0.900000 1.646000 1.557000 600 44 1.000000 0.051000 0.051000 1.200000 0.026000 0.031000
1560116240128724534	800 40 1.000000 0.166000 0.169000 900 35 0.900000 1.640000 1.553000 600 44 1.000000 0.051000 0.051000 1.200000 0.038000 0.045000
1560116240640304951	800 40 1.000000 0.181000 0.184000 900 35 0.900000 1.643000 1.554000 600 44 1.000000 0.051000 0.051000 1.200000 0.032000 0.038000
1560116241151449326	800 40 1.000000 0.169000 0.172000 900 36 0.900000 1.648000 1.559000 600 45 1.000000 0.051000 0.051000 1.200000 0.025000 0.030000
1560116241665847701	800 40 1.000000 0.168000 0.171000 900 36 0.900000 1.647000 1.559000 600 45 1.000000 0.051000 0.051000 1.200000 0.025000 0.030000
1560116242177213951	800 40 1.000000 0.206000 0.209000 900 36 0.900000 1.639000 1.552000 600 45 1.000000 0.051000 0.051000 1.200000 0.048000 0.058000
1560116242688395826	800 40 1.000000 0.185000 0.188000 900 36 0.900000 1.646000 1.558000 600 45 1.000000 0.051000 0.051000 1.200000 0.033000 0.039000
1560116243199631909	800 40 1.000000 0.169000 0.172000 900 36 0.900000 1.645000 1.556000 600 45 1.000000 0.051000 0.051000 1.200000 0.026000 0.031000
1560116243710630409	800 41 1.000000 0.166000 0.169000 900 36 0.900000 1.645000 1.556000 600 45 1.000000 0.051000 0.051000 1.200000 0.024000 0.028000
1560116244221703118	800 41 1.000000 0.206000 0.209000 900 36 0.900000 1.640000 1.551000 600 45 1.000000 0.051000 0.051000 1.200000 0.046000 0.055000
1560116244732811743	800 41 1.000000 0.180000 0.183000 900 36 0.900000 1.645000 1.557000 600 45 1.000000 0.051000 0.051000 1.200000 0.031000 0.037000
1560116245243970826	800 41 1.000000 0.166000 0.169000 900 36 0.900000 1.644000 1.556000 600 45 1.000000 0.051000 0.051000 1.200000 0.024000 0.028000
1560116245755061576	800 41 1.000000 0.167000 0.170000 900 36 0.900000 1.644000 1.556000 600 45 1.000000 0.051000 0.051000 1.200000 0.024000 0.028000
1560116246266211785	800 41 1.000000 0.168000 0.171000 900 37 0.900000 1.641000 1.552000 600 45 1.000000 0.051000 0.051000 1.200000 0.025000 0.030000
1560116246777380535	800 41 1.000000 0.206000 0.210000 900 37 0.900000 1.641000 1.552000 600 46 1.000000 0.051000 0.051000 1.200000 0.039000 0.047000
1560116247288552826	800 41 1.000000 0.170000 0.173000 900 37 0.900000 1.649000 1.559000 600 46 1.000000 0.051000 0.051000 1.200000 0.025000 0.030000
1560116247799940493	800 41 1.000000 0.168000 0.171000 900 37 0.900000 1.648000 1.559000 600 46 1.000000 0.051000 0.051000 1.200000 0.026000 0.031000
1560116248311776785	800 41 1.000000 0.169000 0.172000 900 37 0.900000 1.649000 1.559000 600 46 1.000000 0.051000 0.051000 1.200000 0.025000 0.030000
1560116248823263285	800 41 1.000000 0.205000 0.209000 900 37 0.900000 1.642000 1.553000 600 46 1.000000 0.051000 0.051000 1.200000 0.054000 0.065000
1560116249334371035	800 41 1.000000 0.168000 0.171000 900 37 0.900000 1.648000 1.559000 600 46 1.000000 0.051000 0.051000 1.200000 0.025000 0.030000
1560116249845750368	800 41 1.000000 0.168000 0.171000 900 37 0.900000 1.653000 1.565000 600 46 1.000000 0.051000 0.051000 1.200000 0.025000 0.030000
1560116250356954827	800 41 1.000000 0.170000 0.173000 900 37 0.900000 1.650000 1.562000 600 46 1.000000 0.051000 0.051000 1.200000 0.024000 0.028000
1560116250868083077	800 41 1.000000 0.213000 0.216000 900 37 0.900000 1.648000 1.560000 600 46 1.000000 0.051000 0.051000 1.200000 0.046000 0.055000
1560116251379387327	800 41 1.000000 0.167000 0.170000 900 37 0.900000 1.651000 1.563000 600 46 1.000000 0.051000 0.051000 1.200000 0.024000 0.028000
1560116251890655535	800 41 1.000000 0.167000 0.170000 900 37 0.900000 1.648000 1.560000 600 46 1.000000 0.051000 0.051000 1.200000 0.024000 0.028000
1560116252401691702	800 41 1.000000 0.166000 0.169000 900 37 0.900000 1.650000 1.560000 600 46 1.000000 0.051000 0.051000 1.200000 0.024000 0.028000
1560116252913828994	800 42 1.000000 0.168000 0.171000 900 37 0.900000 1.648000 1.559000 600 46 1.000000 0.051000 0.051000 1.200000 0.036000 0.043000
1560116253425148827	800 41 1.000000 0.177000 0.180000 900 37 0.900000 1.648000 1.560000 600 46 1.000000 0.051000 0.051000 1.200000 0.024000 0.028000
1560116253936230077	800 41 1.000000 0.169000 0.172000 900 37 0.900000 1.652000 1.562000 600 46 1.000000 0.051000 0.051000 1.200000 0.024000 0.028000
1560116254447363369	800 42 1.000000 0.168000 0.171000 900 37 0.900000 1.646000 1.557000 600 46 1.000000 0.051000 0.051000 1.200000 0.025000 0.030000
1560116254958782286	800 42 1.000000 0.167000 0.170000 900 37 0.900000 1.643000 1.554000 600 46 1.000000 0.051000 0.051000 1.200000 0.025000 0.030000
1560116255470094702	800 41 1.000000 0.212000 0.215000 900 37 0.900000 1.641000 1.552000 600 46 1.000000 0.051000 0.051000 1.200000 0.051000 0.061000
1560116255981164161	800 42 1.000000 0.170000 0.173000 900 37 0.900000 1.651000 1.561000 600 46 1.000000 0.051000 0.051000 1.200000 0.026000 0.031000
1560116256492117036	800 42 1.000000 0.168000 0.171000 900 37 0.900000 1.652000 1.562000 600 46 1.000000 0.051000 0.051000 1.200000 0.026000 0.031000
1560116257002911494	800 42 1.000000 0.168000 0.171000 900 37 0.900000 1.654000 1.566000 600 46 1.000000 0.051000 0.051000 1.200000 0.025000 0.030000
1560116257513817078	800 42 1.000000 0.193000 0.196000 900 37 0.900000 1.648000 1.559000 600 46 1.000000 0.051000 0.051000 1.200000 0.041000 0.049000
1560116258024817828	800 42 1.000000 0.167000 0.170000 900 37 0.900000 1.652000 1.562000 600 46 1.000000 0.051000 0.051000 1.200000 0.024000 0.028000
1560116258535915911	800 42 1.000000 0.167000 0.170000 900 37 0.900000 1.646000 1.558000 600 46 1.000000 0.052000 0.052000 1.200000 0.024000 0.028000
1560116259047166494	800 42 1.000000 0.167000 0.170000 900 37 0.900000 1.653000 1.563000 600 46 1.000000 0.051000 0.051000 1.200000 0.024000 0.028000
1560116259560813495	800 42 1.000000 0.186000 0.189000 900 37 0.900000 1.646000 1.557000 600 46 1.000000 0.051000 0.051000 1.200000 0.030000 0.036000
1560116260073610078	800 42 1.000000 0.187000 0.190000 900 37 0.900000 1.647000 1.558000 600 46 1.000000 0.052000 0.052000 1.200000 0.024000 0.028000
1560116260584633745	800 42 1.000000 0.168000 0.171000 900 37 0.900000 1.645000 1.556000 600 46 1.000000 0.051000 0.051000 1.200000 0.024000 0.028000
1560116261095910953	800 42 1.000000 0.169000 0.172000 900 37 0.900000 1.648000 1.559000 600 46 1.000000 0.051000 0.051000 1.200000 0.024000 0.028000
1560116261607562786	800 42 1.000000 0.176000 0.179000 900 37 0.900000 1.648000 1.559000 600 46 1.000000 0.051000 0.051000 1.200000 0.024000 0.028000
1560116262118724495	800 42 1.000000 0.188000 0.191000 900 37 0.900000 1.645000 1.556000 600 46 1.000000 0.051000 0.051000 1.200000 0.024000 0.028000
1560116262629943328	800 42 1.000000 0.168000 0.171000 900 37 0.900000 1.646000 1.557000 600 46 1.000000 0.051000 0.051000 1.200000 0.024000 0.028000
1560116263140952287	800 42 1.000000 0.170000 0.173000 900 37 0.900000 1.644000 1.555000 600 46 1.000000 0.051000 0.051000 1.200000 0.025000 0.030000
1560116263652003495	800 42 1.000000 0.185000 0.188000 900 37 0.900000 1.647000 1.558000 600 46 1.000000 0.052000 0.052000 1.200000 0.033000 0.039000
1560116264163007953	800 42 1.000000 0.184000 0.187000 900 37 0.900000 1.642000 1.553000 600 46 1.000000 0.051000 0.051000 1.200000 0.039000 0.047000
1560116264673911162	800 42 1.000000 0.170000 0.173000 900 37 0.900000 1.645000 1.557000 600 47 1.000000 0.051000 0.051000 1.200000 0.023000 0.027000
1560116265185024704	800 42 1.000000 0.167000 0.170000 900 38 0.900000 1.644000 1.555000 600 46 1.000000 0.051000 0.051000 1.200000 0.024000 0.028000
1560116265696147495	800 42 1.000000 0.168000 0.171000 900 37 0.900000 1.645000 1.556000 600 47 1.000000 0.051000 0.051000 1.200000 0.032000 0.038000
1560116266209747454	800 42 1.000000 0.168000 0.171000 900 37 0.900000 1.643000 1.554000 600 46 1.000000 0.051000 0.051000 1.200000 0.029000 0.035000
1560116266722920287	800 42 1.000000 0.194000 0.197000 900 38 0.900000 1.647000 1.558000 600 47 1.000000 0.051000 0.051000 1.200000 0.044000 0.053000
1560116267233836037	800 42 1.000000 0.170000 0.173000 900 37 0.900000 1.650000 1.560000 600 47 1.000000 0.052000 0.052000 1.200000 0.026000 0.031000
1560116267745030495	800 42 1.000000 0.185000 0.188000 900 37 0.900000 1.645000 1.556000 600 47 1.000000 0.051000 0.051000 1.200000 0.028000 0.033000
1560116268257355412	800 42 1.000000 0.169000 0.172000 900 38 0.900000 1.644000 1.555000 600 47 1.000000 0.051000 0.051000 1.200000 0.025000 0.030000
1560116268768707662	800 42 1.000000 0.195000 0.198000 900 38 0.900000 1.640000 1.551000 600 47 1.000000 0.051000 0.051000 1.200000 0.049000 0.059000
1560116269279850371	800 42 1.000000 0.167000 0.170000 900 38 0.900000 1.648000 1.559000 600 47 1.000000 0.051000 0.051000 1.200000 0.025000 0.030000
1560116269790880037	800 42 1.000000 0.185000 0.188000 900 38 0.900000 1.647000 1.558000 600 47 1.000000 0.051000 0.051000 1.200000 0.031000 0.037000
1560116270302034912	800 42 1.000000 0.167000 0.170000 900 37 0.900000 1.642000 1.553000 600 47 1.000000 0.051000 0.051000 1.200000 0.026000 0.031000
1560116270812981496	800 42 1.000000 0.198000 0.201000 900 38 0.900000 1.642000 1.553000 600 47 1.000000 0.051000 0.051000 1.200000 0.040000 0.048000
1560116271324143538	800 42 1.000000 0.168000 0.171000 900 38 0.900000 1.641000 1.552000 600 47 1.000000 0.051000 0.051000 1.200000 0.035000 0.042000
1560116271834998579	800 42 1.000000 0.183000 0.186000 900 38 0.900000 1.645000 1.556000 600 47 1.000000 0.051000 0.051000 1.200000 0.025000 0.030000
1560116272346141829	800 42 1.000000 0.173000 0.176000 900 38 0.900000 1.642000 1.553000 600 47 1.000000 0.051000 0.051000 1.200000 0.025000 0.030000
1560116272858864621	800 42 1.000000 0.168000 0.171000 900 38 0.900000 1.644000 1.555000 600 47 1.000000 0.052000 0.052000 1.200000 0.026000 0.031000
1560116273370284454	800 42 1.000000 0.202000 0.205000 900 38 0.900000 1.645000 1.556000 600 47 1.000000 0.051000 0.051000 1.200000 0.046000 0.055000
1560116273881347580	800 42 1.000000 0.170000 0.173000 900 38 0.900000 1.646000 1.557000 600 47 1.000000 0.051000 0.051000 1.200000 0.025000 0.030000
1560116274392567163	800 42 1.000000 0.170000 0.173000 900 38 0.900000 1.647000 1.558000 600 47 1.000000 0.051000 0.051000 1.200000 0.024000 0.028000
1560116274907355080	800 42 1.000000 0.168000 0.171000 900 38 0.900000 1.644000 1.555000 600 47 1.000000 0.051000 0.051000 1.200000 0.026000 0.031000
1560116275418427580	800 42 1.000000 0.205000 0.208000 900 38 0.900000 1.642000 1.553000 600 47 1.000000 0.051000 0.051000 1.200000 0.048000 0.058000
1560116275929686038	800 42 1.000000 0.173000 0.176000 900 38 0.900000 1.650000 1.560000 600 47 1.000000 0.051000 0.051000 1.200000 0.026000 0.031000
1560116276440862413	800 42 1.000000 0.166000 0.169000 900 38 0.900000 1.647000 1.558000 600 47 1.000000 0.051000 0.051000 1.200000 0.026000 0.031000
1560116276952059163	800 42 1.000000 0.167000 0.170000 900 38 0.900000 1.648000 1.559000 600 47 1.000000 0.051000 0.051000 1.200000 0.025000 0.030000
1560116277463091372	800 42 1.000000 0.204000 0.207000 900 38 0.900000 1.647000 1.558000 600 47 1.000000 0.051000 0.051000 1.200000 0.038000 0.045000
1560116277974137205	800 42 1.000000 0.185000 0.188000 900 38 0.900000 1.647000 1.558000 600 47 1.000000 0.051000 0.051000 1.200000 0.025000 0.030000
1560116278485210538	800 42 1.000000 0.169000 0.172000 900 38 0.900000 1.649000 1.559000 600 47 1.000000 0.051000 0.051000 1.200000 0.024000 0.028000
1560116278996197497	800 42 1.000000 0.168000 0.171000 900 38 0.900000 1.644000 1.555000 600 47 1.000000 0.051000 0.051000 1.200000 0.024000 0.028000
1560116279508149622	800 42 1.000000 0.170000 0.173000 900 38 0.900000 1.649000 1.559000 600 47 1.000000 0.051000 0.051000 1.200000 0.025000 0.030000
1560116280019098330	800 42 1.000000 0.207000 0.210000 900 38 0.900000 1.639000 1.550000 600 47 1.000000 0.051000 0.051000 1.200000 0.047000 0.056000
1560116280530072205	800 42 1.000000 0.185000 0.188000 900 38 0.900000 1.646000 1.557000 600 47 1.000000 0.051000 0.051000 1.200000 0.033000 0.039000
1560116281041103247	800 42 1.000000 0.169000 0.172000 900 38 0.900000 1.645000 1.557000 600 47 1.000000 0.051000 0.051000 1.200000 0.026000 0.031000
1560116281554918622	800 42 1.000000 0.170000 0.173000 900 38 0.900000 1.648000 1.559000 600 47 1.000000 0.052000 0.052000 1.200000 0.025000 0.030000
1560116282065934956	800 42 1.000000 0.208000 0.211000 900 38 0.900000 1.644000 1.555000 600 47 1.000000 0.051000 0.051000 1.200000 0.047000 0.056000
1560116282577085622	800 42 1.000000 0.168000 0.171000 900 38 0.900000 1.648000 1.560000 600 47 1.000000 0.052000 0.052000 1.200000 0.029000 0.035000
1560116283088269706	800 42 1.000000 0.167000 0.170000 900 38 0.900000 1.651000 1.561000 600 47 1.000000 0.052000 0.052000 1.200000 0.025000 0.030000
1560116283599663581	800 42 1.000000 0.167000 0.170000 900 38 0.900000 1.642000 1.553000 600 47 1.000000 0.051000 0.051000 1.200000 0.026000 0.031000
1560116284111046914	800 42 1.000000 0.207000 0.211000 900 38 0.900000 1.644000 1.555000 600 47 1.000000 0.051000 0.051000 1.200000 0.037000 0.044000
1560116284622355289	800 42 1.000000 0.187000 0.190000 900 38 0.900000 1.648000 1.559000 600 47 1.000000 0.051000 0.051000 1.200000 0.027000 0.032000
1560116285133612164	800 42 1.000000 0.170000 0.173000 900 38 0.900000 1.645000 1.556000 600 47 1.000000 0.051000 0.051000 1.200000 0.024000 0.028000
1560116285644706289	800 42 1.000000 0.170000 0.173000 900 38 0.900000 1.648000 1.560000 600 47 1.000000 0.051000 0.051000 1.200000 0.024000 0.028000
1560116286156374914	800 42 1.000000 0.168000 0.171000 900 38 0.900000 1.650000 1.560000 600 47 1.000000 0.052000 0.052000 1.200000 0.025000 0.030000
1560116286667756414	800 42 1.000000 0.178000 0.181000 900 38 0.900000 1.648000 1.560000 600 47 1.000000 0.051000 0.051000 1.200000 0.024000 0.028000
1560116287178696498	800 42 1.000000 0.167000 0.170000 900 38 0.900000 1.649000 1.559000 600 47 1.000000 0.051000 0.051000 1.200000 0.024000 0.028000
1560116287689793540	800 42 1.000000 0.167000 0.170000 900 38 0.900000 1.647000 1.558000 600 47 1.000000 0.051000 0.051000 1.200000 0.025000 0.030000
1560116288203798581	800 42 1.000000 0.168000 0.171000 900 38 0.900000 1.650000 1.560000 600 47 1.000000 0.052000 0.052000 1.200000 0.025000 0.030000
1560116288714884956	800 42 1.000000 0.219000 0.222000 900 38 0.900000 1.647000 1.558000 600 47 1.000000 0.051000 0.051000 1.200000 0.048000 0.057000
1560116289226108790	800 42 1.000000 0.170000 0.173000 900 38 0.900000 1.647000 1.558000 600 47 1.000000 0.051000 0.051000 1.200000 0.026000 0.031000
1560116289737253873	800 42 1.000000 0.168000 0.171000 900 38 0.900000 1.645000 1.556000 600 47 1.000000 0.052000 0.052000 1.200000 0.025000 0.030000
1560116290248464915	800 42 1.000000 0.167000 0.170000 900 38 0.900000 1.645000 1.557000 600 47 1.000000 0.051000 0.051000 1.200000 0.026000 0.031000
1560116290759597957	800 42 1.000000 0.216000 0.220000 900 38 0.900000 1.647000 1.559000 600 47 1.000000 0.051000 0.051000 1.200000 0.039000 0.047000
1560116291270746373	800 42 1.000000 0.178000 0.181000 900 38 0.900000 1.647000 1.558000 600 47 1.000000 0.051000 0.051000 1.200000 0.025000 0.030000
1560116291782028998	800 42 1.000000 0.168000 0.171000 900 38 0.900000 1.648000 1.559000 600 47 1.000000 0.052000 0.052000 1.200000 0.024000 0.028000
1560116292293140498	800 42 1.000000 0.170000 0.173000 900 38 0.900000 1.647000 1.558000 600 47 1.000000 0.051000 0.051000 1.200000 0.024000 0.028000
1560116292807851665	800 43 1.000000 0.183000 0.186000 900 38 0.900000 1.645000 1.556000 600 47 1.000000 0.052000 0.052000 1.200000 0.031000 0.037000
1560116293319051499	800 42 1.000000 0.180000 0.183000 900 38 0.900000 1.645000 1.556000 600 47 1.000000 0.051000 0.051000 1.200000 0.024000 0.028000
1560116293830390207	800 42 1.000000 0.167000 0.170000 900 38 0.900000 1.653000 1.565000 600 47 1.000000 0.051000 0.051000 1.200000 0.024000 0.028000
1560116294341637457	800 42 1.000000 0.167000 0.170000 900 38 0.900000 1.646000 1.557000 600 47 1.000000 0.052000 0.052000 1.200000 0.024000 0.028000
1560116294855597874	800 42 1.000000 0.184000 0.187000 900 38 0.900000 1.650000 1.562000 600 47 1.000000 0.051000 0.051000 1.200000 0.031000 0.037000
1560116295366990999	800 42 1.000000 0.182000 0.185000 900 38 0.900000 1.648000 1.560000 600 47 1.000000 0.052000 0.052000 1.200000 0.033000 0.039000
1560116295878041041	800 42 1.000000 0.167000 0.170000 900 38 0.900000 1.650000 1.562000 600 47 1.000000 0.052000 0.052000 1.200000 0.024000 0.028000
1560116296389288249	800 43 1.000000 0.169000 0.172000 900 38 0.900000 1.647000 1.559000 600 47 1.000000 0.051000 0.051000 1.200000 0.025000 0.030000
1560116296900288916	800 42 1.000000 0.175000 0.178000 900 38 0.900000 1.651000 1.561000 600 47 1.000000 0.051000 0.051000 1.200000 0.025000 0.030000
1560116297411332291	800 43 1.000000 0.180000 0.183000 900 38 0.900000 1.649000 1.561000 600 47 1.000000 0.052000 0.052000 1.200000 0.031000 0.037000
1560116297922310457	800 42 1.000000 0.185000 0.188000 900 38 0.900000 1.647000 1.558000 600 47 1.000000 0.051000 0.051000 1.200000 0.026000 0.031000
1560116298433471499	800 42 1.000000 0.170000 0.173000 900 38 0.900000 1.644000 1.555000 600 47 1.000000 0.051000 0.051000 1.200000 0.026000 0.031000
1560116298944434124	800 43 1.000000 0.168000 0.171000 900 38 0.900000 1.653000 1.563000 600 47 1.000000 0.051000 0.051000 1.200000 0.026000 0.031000
1560116299459321291	800 43 1.000000 0.168000 0.171000 900 38 0.900000 1.649000 1.561000 600 47 1.000000 0.051000 0.051000 1.200000 0.024000 0.028000
1560116299970339249	800 42 1.000000 0.188000 0.191000 900 38 0.900000 1.651000 1.561000 600 47 1.000000 0.051000 0.051000 1.200000 0.024000 0.028000
1560116300481446916	800 42 1.000000 0.170000 0.173000 900 38 0.900000 1.647000 1.559000 600 47 1.000000 0.051000 0.051000 1.200000 0.024000 0.028000
1560116300992630958	800 43 1.000000 0.167000 0.170000 900 38 0.900000 1.647000 1.559000 600 47 1.000000 0.052000 0.052000 1.200000 0.029000 0.035000
1560116301505459125	800 43 1.000000 0.167000 0.170000 900 38 0.900000 1.646000 1.557000 600 47 1.000000 0.051000 0.051000 1.200000 0.024000 0.028000
1560116302017169750	800 42 1.000000 0.189000 0.192000 900 38 0.900000 1.645000 1.557000 600 47 1.000000 0.051000 0.051000 1.200000 0.034000 0.041000
1560116302528273750	800 42 1.000000 0.166000 0.169000 900 38 0.900000 1.648000 1.560000 600 47 1.000000 0.051000 0.051000 1.200000 0.024000 0.028000
1560116303039329625	800 43 1.000000 0.185000 0.188000 900 38 0.900000 1.650000 1.562000 600 47 1.000000 0.052000 0.052000 1.200000 0.031000 0.037000
1560116303550208708	800 42 1.000000 0.168000 0.171000 900 38 0.900000 1.652000 1.564000 600 47 1.000000 0.052000 0.052000 1.200000 0.024000 0.028000
1560116304061154083	800 43 1.000000 0.185000 0.188000 900 38 0.900000 1.641000 1.554000 600 47 1.000000 0.051000 0.051000 1.200000 0.045000 0.054000
1560116304572250292	800 43 1.000000 0.194000 0.197000 900 38 0.900000 1.650000 1.560000 600 47 1.000000 0.051000 0.051000 1.200000 0.025000 0.030000
1560116305083471333	800 43 1.000000 0.168000 0.171000 900 38 0.900000 1.651000 1.561000 600 47 1.000000 0.051000 0.051000 1.200000 0.025000 0.030000
1560116305594688208	800 42 1.000000 0.189000 0.192000 900 38 0.900000 1.649000 1.559000 600 47 1.000000 0.051000 0.051000 1.200000 0.024000 0.028000
1560116306108932625	800 43 1.000000 0.169000 0.172000 900 38 0.900000 1.648000 1.560000 600 47 1.000000 0.052000 0.052000 1.200000 0.024000 0.028000
1560116306620213792	800 43 1.000000 0.197000 0.200000 900 38 0.900000 1.643000 1.555000 600 47 1.000000 0.051000 0.051000 1.200000 0.025000 0.030000
1560116307131891834	800 43 1.000000 0.167000 0.170000 900 38 0.900000 1.647000 1.558000 600 47 1.000000 0.051000 0.051000 1.200000 0.024000 0.028000
1560116307643057667	800 43 1.000000 0.176000 0.179000 900 38 0.900000 1.649000 1.559000 600 47 1.000000 0.052000 0.052000 1.200000 0.033000 0.039000
1560116308155899917	800 43 1.000000 0.167000 0.170000 900 38 0.900000 1.647000 1.558000 600 47 1.000000 0.051000 0.051000 1.200000 0.025000 0.030000
1560116308667032292	800 43 1.000000 0.197000 0.200000 900 38 0.900000 1.644000 1.555000 600 47 1.000000 0.051000 0.051000 1.200000 0.038000 0.045000
1560116309178426834	800 43 1.000000 0.167000 0.170000 900 38 0.900000 1.645000 1.556000 600 47 1.000000 0.051000 0.051000 1.200000 0.025000 0.030000
1560116309689784917	800 43 1.000000 0.167000 0.170000 900 38 0.900000 1.654000 1.564000 600 47 1.000000 0.052000 0.052000 1.200000 0.033000 0.039000
1560116310200956001	800 43 1.000000 0.170000 0.173000 900 38 0.900000 1.648000 1.559000 600 47 1.000000 0.052000 0.052000 1.200000 0.026000 0.031000
1560116310712159959	800 43 1.000000 0.174000 0.177000 900 38 0.900000 1.647000 1.558000 600 47 1.000000 0.051000 0.051000 1.200000 0.028000 0.033000
1560116311223247584	800 43 1.000000 0.170000 0.173000 900 38 0.900000 1.648000 1.559000 600 47 1.000000 0.052000 0.052000 1.200000 0.025000 0.030000
1560116311734675251	800 43 1.000000 0.185000 0.188000 900 38 0.900000 1.647000 1.559000 600 47 1.000000 0.051000 0.051000 1.200000 0.032000 0.038000
1560116312245701251	800 43 1.000000 0.202000 0.205000 900 38 0.900000 1.645000 1.556000 600 47 1.000000 0.051000 0.051000 1.200000 0.038000 0.045000
1560116312758881209	800 43 1.000000 0.169000 0.172000 900 38 0.900000 1.648000 1.559000 600 47 1.000000 0.051000 0.051000 1.200000 0.032000 0.038000
1560116313271487876	800 43 1.000000 0.203000 0.207000 900 38 0.900000 1.645000 1.556000 600 47 1.000000 0.051000 0.051000 1.200000 0.047000 0.056000
1560116313782658084	800 43 1.000000 0.188000 0.191000 900 38 0.900000 1.649000 1.561000 600 47 1.000000 0.052000 0.052000 1.200000 0.026000 0.031000
1560116314293717126	800 43 1.000000 0.168000 0.171000 900 38 0.900000 1.648000 1.560000 600 47 1.000000 0.052000 0.052000 1.200000 0.025000 0.030000
1560116314806719376	800 43 1.000000 0.168000 0.171000 900 38 0.900000 1.650000 1.560000 600 47 1.000000 0.051000 0.051000 1.200000 0.025000 0.030000
1560116315317945584	800 43 1.000000 0.204000 0.208000 900 38 0.900000 1.652000 1.562000 600 47 1.000000 0.051000 0.051000 1.200000 0.037000 0.044000
1560116315829011293	800 43 1.000000 0.185000 0.188000 900 38 0.900000 1.650000 1.560000 600 47 1.000000 0.051000 0.051000 1.200000 0.029000 0.035000
1560116316340066251	800 43 1.000000 0.168000 0.171000 900 38 0.900000 1.645000 1.556000 600 47 1.000000 0.052000 0.052000 1.200000 0.026000 0.031000
1560116316851316168	800 43 1.000000 0.169000 0.172000 900 38 0.900000 1.647000 1.558000 600 47 1.000000 0.051000 0.051000 1.200000 0.025000 0.030000
1560116317362361418	800 43 1.000000 0.171000 0.174000 900 38 0.900000 1.646000 1.557000 600 47 1.000000 0.051000 0.051000 1.200000 0.027000 0.032000
1560116317873492835	800 43 1.000000 0.185000 0.188000 900 38 0.900000 1.647000 1.558000 600 47 1.000000 0.052000 0.052000 1.200000 0.032000 0.038000
1560116318384656418	800 43 1.000000 0.169000 0.172000 900 38 0.900000 1.644000 1.555000 600 47 1.000000 0.052000 0.052000 1.200000 0.026000 0.031000
1560116318895896127	800 43 1.000000 0.167000 0.170000 900 38 0.900000 1.648000 1.559000 600 47 1.000000 0.051000 0.051000 1.200000 0.026000 0.031000
1560116319408244210	800 43 1.000000 0.167000 0.170000 900 38 0.900000 1.646000 1.557000 600 47 1.000000 0.052000 0.052000 1.200000 0.025000 0.030000
1560116319919482877	800 43 1.000000 0.185000 0.188000 900 38 0.900000 1.648000 1.559000 600 47 1.000000 0.052000 0.052000 1.200000 0.035000 0.042000
1560116320430344085	800 43 1.000000 0.167000 0.170000 900 38 0.900000 1.650000 1.560000 600 47 1.000000 0.051000 0.051000 1.200000 0.024000 0.028000
1560116320941518002	800 43 1.000000 0.167000 0.170000 900 38 0.900000 1.651000 1.561000 600 47 1.000000 0.051000 0.051000 1.200000 0.024000 0.028000
1560116321452793710	800 43 1.000000 0.168000 0.171000 900 38 0.900000 1.651000 1.561000 600 47 1.000000 0.051000 0.051000 1.200000 0.026000 0.031000
1560116321963981127	800 43 1.000000 0.214000 0.217000 900 39 0.900000 1.649000 1.559000 600 48 1.000000 0.051000 0.051000 1.200000 0.036000 0.043000
1560116322475035627	800 43 1.000000 0.181000 0.184000 900 38 0.900000 1.651000 1.561000 600 47 1.000000 0.051000 0.051000 1.200000 0.025000 0.030000
1560116322986343127	800 43 1.000000 0.173000 0.176000 900 38 0.900000 1.648000 1.559000 600 48 1.000000 0.052000 0.052000 1.200000 0.028000 0.033000
1560116323497625085	800 43 1.000000 0.168000 0.171000 900 38 0.900000 1.649000 1.559000 600 47 1.000000 0.052000 0.052000 1.200000 0.026000 0.031000
1560116324008664836	800 43 1.000000 0.169000 0.172000 900 39 0.900000 1.646000 1.557000 600 47 1.000000 0.052000 0.052000 1.200000 0.026000 0.031000
1560116324519821752	800 43 1.000000 0.170000 0.173000 900 38 0.900000 1.653000 1.563000 600 47 1.000000 0.052000 0.052000 1.200000 0.026000 0.031000
1560116325030974294	800 43 1.000000 0.168000 0.171000 900 38 0.900000 1.650000 1.560000 600 47 1.000000 0.052000 0.052000 1.200000 0.025000 0.030000
1560116325542135294	800 43 1.000000 0.169000 0.172000 900 38 0.900000 1.646000 1.557000 600 47 1.000000 0.051000 0.051000 1.200000 0.025000 0.030000
1560116326056267836	800 43 1.000000 0.167000 0.170000 900 39 0.900000 1.649000 1.559000 600 47 1.000000 0.051000 0.051000 1.200000 0.026000 0.031000
1560116326567747211	800 43 1.000000 0.170000 0.173000 900 38 0.900000 1.649000 1.559000 600 48 1.000000 0.052000 0.052000 1.200000 0.031000 0.037000
1560116327078879503	800 43 1.000000 0.167000 0.170000 900 38 0.900000 1.647000 1.559000 600 48 1.000000 0.052000 0.052000 1.200000 0.024000 0.028000
1560116327589907044	800 43 1.000000 0.167000 0.170000 900 38 0.900000 1.645000 1.556000 600 47 1.000000 0.051000 0.051000 1.200000 0.023000 0.027000
1560116328100849044	800 43 1.000000 0.174000 0.177000 900 39 0.900000 1.649000 1.561000 600 47 1.000000 0.051000 0.051000 1.200000 0.024000 0.028000
1560116328612042128	800 43 1.000000 0.212000 0.216000 900 39 0.900000 1.644000 1.555000 600 47 1.000000 0.052000 0.052000 1.200000 0.041000 0.049000
1560116329123203878	800 43 1.000000 0.168000 0.171000 900 38 0.900000 1.650000 1.560000 600 47 1.000000 0.052000 0.052000 1.200000 0.024000 0.028000
1560116329634468253	800 43 1.000000 0.169000 0.172000 900 38 0.900000 1.646000 1.557000 600 47 1.000000 0.052000 0.052000 1.200000 0.026000 0.031000
1560116330146070253	800 43 1.000000 0.170000 0.173000 900 38 0.900000 1.649000 1.559000 600 48 1.000000 0.052000 0.052000 1.200000 0.025000 0.030000
1560116330657181503	800 43 1.000000 0.186000 0.189000 900 39 0.900000 1.651000 1.563000 600 48 1.000000 0.052000 0.052000 1.200000 0.032000 0.038000
1560116331168438586	800 43 1.000000 0.179000 0.182000 900 39 0.900000 1.652000 1.562000 600 47 1.000000 0.051000 0.051000 1.200000 0.025000 0.030000
1560116331679566086	800 43 1.000000 0.170000 0.173000 900 38 0.900000 1.646000 1.557000 600 48 1.000000 0.051000 0.051000 1.200000 0.026000 0.031000
1560116332190818962	800 43 1.000000 0.168000 0.171000 900 38 0.900000 1.644000 1.555000 600 48 1.000000 0.051000 0.051000 1.200000 0.026000 0.031000
1560116332702635920	800 43 1.000000 0.186000 0.189000 900 38 0.900000 1.650000 1.560000 600 48 1.000000 0.052000 0.052000 1.200000 0.032000 0.038000
1560116333214396837	800 43 1.000000 0.180000 0.183000 900 38 0.900000 1.647000 1.558000 600 47 1.000000 0.051000 0.051000 1.200000 0.033000 0.039000
1560116333725795837	800 43 1.000000 0.167000 0.170000 900 38 0.900000 1.651000 1.561000 600 48 1.000000 0.051000 0.051000 1.200000 0.024000 0.028000
1560116334237054503	800 43 1.000000 0.166000 0.169000 900 38 0.900000 1.647000 1.558000 600 47 1.000000 0.051000 0.051000 1.200000 0.024000 0.028000
1560116334748071712	800 43 1.000000 0.167000 0.170000 900 39 0.900000 1.649000 1.559000 600 48 1.000000 0.051000 0.051000 1.200000 0.028000 0.033000
1560116335259219004	800 43 1.000000 0.195000 0.198000 900 39 0.900000 1.647000 1.558000 600 48 1.000000 0.051000 0.051000 1.200000 0.043000 0.052000
1560116335770387795	800 43 1.000000 0.168000 0.171000 900 38 0.900000 1.650000 1.560000 600 48 1.000000 0.052000 0.052000 1.200000 0.024000 0.028000
1560116336281723462	800 43 1.000000 0.168000 0.171000 900 39 0.900000 1.652000 1.562000 600 48 1.000000 0.051000 0.051000 1.200000 0.025000 0.030000
1560116336792865212	800 43 1.000000 0.185000 0.188000 900 39 0.900000 1.653000 1.563000 600 48 1.000000 0.051000 0.051000 1.200000 0.026000 0.031000
1560116337304037879	800 43 1.000000 0.189000 0.192000 900 39 0.900000 1.645000 1.556000 600 48 1.000000 0.052000 0.052000 1.200000 0.049000 0.059000
1560116337815292671	800 43 1.000000 0.186000 0.189000 900 39 0.900000 1.651000 1.561000 600 48 1.000000 0.051000 0.051000 1.200000 0.026000 0.031000
1560116338326423587	800 43 1.000000 0.169000 0.172000 900 39 0.900000 1.650000 1.560000 600 48 1.000000 0.051000 0.051000 1.200000 0.024000 0.028000
1560116338837762254	800 43 1.000000 0.181000 0.184000 900 39 0.900000 1.649000 1.559000 600 48 1.000000 0.051000 0.051000 1.200000 0.033000 0.039000
1560116339350327671	800 43 1.000000 0.168000 0.171000 900 39 0.900000 1.650000 1.560000 600 48 1.000000 0.051000 0.051000 1.200000 0.026000 0.031000
1560116339862060921	800 43 1.000000 0.189000 0.192000 900 39 0.900000 1.645000 1.557000 600 48 1.000000 0.051000 0.051000 1.200000 0.035000 0.042000
1560116340373247587	800 43 1.000000 0.167000 0.170000 900 39 0.900000 1.654000 1.564000 600 48 1.000000 0.051000 0.051000 1.200000 0.024000 0.028000
1560116340884317671	800 43 1.000000 0.185000 0.188000 900 39 0.900000 1.650000 1.560000 600 48 1.000000 0.051000 0.051000 1.200000 0.031000 0.037000
1560116341395524379	800 43 1.000000 0.168000 0.171000 900 38 0.900000 1.651000 1.563000 600 48 1.000000 0.052000 0.052000 1.200000 0.023000 0.027000
1560116341907179338	800 43 1.000000 0.184000 0.187000 900 39 0.900000 1.643000 1.554000 600 48 1.000000 0.052000 0.052000 1.200000 0.056000 0.067000
1560116342418281046	800 43 1.000000 0.203000 0.206000 900 39 0.900000 1.650000 1.560000 600 48 1.000000 0.052000 0.052000 1.200000 0.025000 0.030000
1560116342929613296	800 43 1.000000 0.172000 0.175000 900 39 0.900000 1.651000 1.561000 600 48 1.000000 0.052000 0.052000 1.200000 0.031000 0.037000
1560116343440622005	800 43 1.000000 0.168000 0.171000 900 39 0.900000 1.649000 1.559000 600 48 1.000000 0.052000 0.052000 1.200000 0.024000 0.028000
1560116343951720463	800 43 1.000000 0.176000 0.179000 900 39 0.900000 1.650000 1.560000 600 48 1.000000 0.051000 0.051000 1.200000 0.045000 0.054000
1560116344462840380	800 43 1.000000 0.167000 0.170000 900 39 0.900000 1.648000 1.559000 600 48 1.000000 0.052000 0.052000 1.200000 0.024000 0.028000
1560116344973939838	800 43 1.000000 0.185000 0.188000 900 39 0.900000 1.649000 1.559000 600 48 1.000000 0.052000 0.052000 1.200000 0.031000 0.037000
1560116345485189505	800 43 1.000000 0.167000 0.170000 900 39 0.900000 1.648000 1.559000 600 48 1.000000 0.052000 0.052000 1.200000 0.024000 0.028000
1560116346001672630	800 43 1.000000 0.170000 0.173000 900 39 0.900000 1.644000 1.556000 600 48 1.000000 0.051000 0.051000 1.200000 0.025000 0.030000
1560116346513203588	800 43 1.000000 0.203000 0.207000 900 39 0.900000 1.648000 1.559000 600 48 1.000000 0.051000 0.051000 1.200000 0.041000 0.049000
1560116347024320838	800 43 1.000000 0.168000 0.171000 900 39 0.900000 1.652000 1.562000 600 48 1.000000 0.052000 0.052000 1.200000 0.025000 0.030000
1560116347535596463	800 43 1.000000 0.166000 0.169000 900 39 0.900000 1.648000 1.559000 600 48 1.000000 0.051000 0.051000 1.200000 0.025000 0.030000
1560116348046900338	800 43 1.000000 0.170000 0.173000 900 39 0.900000 1.646000 1.558000 600 48 1.000000 0.051000 0.051000 1.200000 0.026000 0.031000
1560116348557878630	800 43 1.000000 0.172000 0.175000 900 39 0.900000 1.650000 1.562000 600 48 1.000000 0.052000 0.052000 1.200000 0.025000 0.030000
1560116349068825130	800 43 1.000000 0.169000 0.172000 900 39 0.900000 1.649000 1.559000 600 48 1.000000 0.051000 0.051000 1.200000 0.026000 0.031000
1560116349579916672	800 43 1.000000 0.170000 0.173000 900 39 0.900000 1.649000 1.559000 600 48 1.000000 0.051000 0.051000 1.200000 0.029000 0.035000
1560116350091044297	800 43 1.000000 0.170000 0.173000 900 38 0.900000 1.650000 1.562000 600 48 1.000000 0.051000 0.051000 1.200000 0.024000 0.028000
1560116350601985964	800 43 1.000000 0.168000 0.171000 900 39 0.900000 1.650000 1.560000 600 48 1.000000 0.051000 0.051000 1.200000 0.025000 0.030000
1560116351113081880	800 43 1.000000 0.168000 0.171000 900 39 0.900000 1.648000 1.560000 600 48 1.000000 0.051000 0.051000 1.200000 0.032000 0.038000
1560116351624251380	800 43 1.000000 0.167000 0.170000 900 39 0.900000 1.646000 1.558000 600 48 1.000000 0.051000 0.051000 1.200000 0.026000 0.031000
1560116352135326297	800 43 1.000000 0.166000 0.169000 900 39 0.900000 1.652000 1.562000 600 48 1.000000 0.052000 0.052000 1.200000 0.025000 0.030000
1560116352647184464	800 43 1.000000 0.167000 0.170000 900 39 0.900000 1.651000 1.561000 600 48 1.000000 0.051000 0.051000 1.200000 0.025000 0.030000
1560116353158455839	800 43 1.000000 0.175000 0.178000 900 39 0.900000 1.647000 1.558000 600 48 1.000000 0.052000 0.052000 1.200000 0.042000 0.050000
1560116353669833256	800 43 1.000000 0.167000 0.170000 900 39 0.900000 1.653000 1.563000 600 48 1.000000 0.052000 0.052000 1.200000 0.026000 0.031000
1560116354180975214	800 43 1.000000 0.168000 0.171000 900 39 0.900000 1.648000 1.559000 600 48 1.000000 0.052000 0.052000 1.200000 0.024000 0.028000
1560116354692116923	800 43 1.000000 0.169000 0.172000 900 39 0.900000 1.650000 1.560000 600 48 1.000000 0.052000 0.052000 1.200000 0.025000 0.030000
1560116355203580256	800 43 1.000000 0.170000 0.173000 900 39 0.900000 1.645000 1.556000 600 48 1.000000 0.051000 0.051000 1.200000 0.025000 0.030000
1560116355714801714	800 43 1.000000 0.185000 0.188000 900 39 0.900000 1.648000 1.559000 600 48 1.000000 0.052000 0.052000 1.200000 0.033000 0.039000
1560116356225876714	800 43 1.000000 0.168000 0.171000 900 39 0.900000 1.649000 1.559000 600 48 1.000000 0.051000 0.051000 1.200000 0.026000 0.031000
1560116356736895631	800 43 1.000000 0.170000 0.173000 900 39 0.900000 1.645000 1.556000 600 48 1.000000 0.051000 0.051000 1.200000 0.026000 0.031000
1560116357248320214	800 43 1.000000 0.169000 0.172000 900 39 0.900000 1.649000 1.561000 600 48 1.000000 0.052000 0.052000 1.200000 0.025000 0.030000
1560116357759614965	800 43 1.000000 0.187000 0.190000 900 39 0.900000 1.648000 1.559000 600 48 1.000000 0.051000 0.051000 1.200000 0.041000 0.049000
1560116358270784173	800 43 1.000000 0.167000 0.170000 900 39 0.900000 1.650000 1.560000 600 48 1.000000 0.052000 0.052000 1.200000 0.026000 0.031000
1560116358781842548	800 43 1.000000 0.167000 0.170000 900 39 0.900000 1.647000 1.558000 600 48 1.000000 0.052000 0.052000 1.200000 0.026000 0.031000
1560116359296626798	800 43 1.000000 0.167000 0.170000 900 38 0.900000 1.649000 1.559000 600 48 1.000000 0.052000 0.052000 1.200000 0.026000 0.031000
1560116359807848465	800 43 1.000000 0.173000 0.176000 900 39 0.900000 1.647000 1.559000 600 48 1.000000 0.052000 0.052000 1.200000 0.049000 0.059000
1560116360318919882	800 43 1.000000 0.170000 0.173000 900 39 0.900000 1.647000 1.558000 600 48 1.000000 0.052000 0.052000 1.200000 0.025000 0.030000
1560116360829938007	800 43 1.000000 0.171000 0.174000 900 39 0.900000 1.647000 1.558000 600 48 1.000000 0.052000 0.052000 1.200000 0.024000 0.028000
1560116361341061007	800 43 1.000000 0.168000 0.171000 900 39 0.900000 1.651000 1.561000 600 48 1.000000 0.051000 0.051000 1.200000 0.024000 0.028000
1560116361852123507	800 43 1.000000 0.217000 0.220000 900 39 0.900000 1.642000 1.553000 600 48 1.000000 0.052000 0.052000 1.200000 0.053000 0.064000
1560116362363314507	800 43 1.000000 0.167000 0.170000 900 39 0.900000 1.651000 1.561000 600 48 1.000000 0.051000 0.051000 1.200000 0.024000 0.028000
1560116362874632132	800 43 1.000000 0.169000 0.172000 900 39 0.900000 1.646000 1.557000 600 48 1.000000 0.052000 0.052000 1.200000 0.025000 0.030000
1560116363385760257	800 43 1.000000 0.168000 0.171000 900 39 0.900000 1.649000 1.559000 600 48 1.000000 0.051000 0.051000 1.200000 0.025000 0.030000
1560116363897016632	800 43 1.000000 0.170000 0.173000 900 39 0.900000 1.650000 1.560000 600 48 1.000000 0.051000 0.051000 1.200000 0.026000 0.031000
1560116364408229840	800 43 1.000000 0.179000 0.182000 900 39 0.900000 1.647000 1.559000 600 48 1.000000 0.051000 0.051000 1.200000 0.037000 0.044000
1560116364919681965	800 43 1.000000 0.168000 0.171000 900 39 0.900000 1.649000 1.561000 600 48 1.000000 0.052000 0.052000 1.200000 0.026000 0.031000
1560116365430741007	800 43 1.000000 0.167000 0.170000 900 39 0.900000 1.647000 1.558000 600 48 1.000000 0.051000 0.051000 1.200000 0.025000 0.030000
1560116365944313799	800 43 1.000000 0.185000 0.188000 900 39 0.900000 1.645000 1.557000 600 48 1.000000 0.052000 0.052000 1.200000 0.025000 0.030000
1560116366456193924	800 43 1.000000 0.180000 0.183000 900 39 0.900000 1.643000 1.555000 600 48 1.000000 0.051000 0.051000 1.200000 0.047000 0.056000
1560116366967753007	800 43 1.000000 0.169000 0.172000 900 39 0.900000 1.653000 1.565000 600 48 1.000000 0.052000 0.052000 1.200000 0.025000 0.030000
1560116367478867882	800 43 1.000000 0.169000 0.172000 900 39 0.900000 1.651000 1.563000 600 48 1.000000 0.052000 0.052000 1.200000 0.026000 0.031000
1560116367990052757	800 43 1.000000 0.170000 0.173000 900 39 0.900000 1.650000 1.562000 600 48 1.000000 0.052000 0.052000 1.200000 0.025000 0.030000
1560116368501299757	800 43 1.000000 0.193000 0.196000 900 39 0.900000 1.642000 1.554000 600 48 1.000000 0.052000 0.052000 1.200000 0.046000 0.055000
1560116369012722174	800 43 1.000000 0.167000 0.170000 900 39 0.900000 1.648000 1.560000 600 48 1.000000 0.052000 0.052000 1.200000 0.024000 0.028000
1560116369523798633	800 43 1.000000 0.167000 0.170000 900 39 0.900000 1.644000 1.555000 600 48 1.000000 0.052000 0.052000 1.200000 0.024000 0.028000
1560116370035075591	800 43 1.000000 0.178000 0.181000 900 39 0.900000 1.650000 1.562000 600 48 1.000000 0.051000 0.051000 1.200000 0.029000 0.035000
1560116370545910424	800 43 1.000000 0.189000 0.192000 900 39 0.900000 1.645000 1.556000 600 48 1.000000 0.052000 0.052000 1.200000 0.035000 0.042000
1560116371057198633	800 43 1.000000 0.188000 0.191000 900 39 0.900000 1.648000 1.559000 600 48 1.000000 0.052000 0.052000 1.200000 0.038000 0.045000
1560116371568571175	800 43 1.000000 0.170000 0.173000 900 39 0.900000 1.647000 1.558000 600 48 1.000000 0.051000 0.051000 1.200000 0.024000 0.028000
1560116372079659550	800 43 1.000000 0.168000 0.171000 900 39 0.900000 1.649000 1.561000 600 48 1.000000 0.052000 0.052000 1.200000 0.025000 0.030000
1560116372592627716	800 43 1.000000 0.167000 0.170000 900 39 0.900000 1.650000 1.562000 600 48 1.000000 0.051000 0.051000 1.200000 0.027000 0.032000
1560116373104081591	800 43 1.000000 0.188000 0.191000 900 39 0.900000 1.645000 1.556000 600 48 1.000000 0.052000 0.052000 1.200000 0.049000 0.059000
1560116373615264925	800 43 1.000000 0.170000 0.173000 900 39 0.900000 1.652000 1.564000 600 48 1.000000 0.051000 0.051000 1.200000 0.025000 0.030000
1560116374126470508	800 43 1.000000 0.168000 0.171000 900 39 0.900000 1.650000 1.562000 600 48 1.000000 0.051000 0.051000 1.200000 0.025000 0.030000
1560116374637687508	800 43 1.000000 0.185000 0.188000 900 39 0.900000 1.651000 1.563000 600 48 1.000000 0.052000 0.052000 1.200000 0.024000 0.028000
1560116375148952092	800 43 1.000000 0.185000 0.188000 900 39 0.900000 1.648000 1.560000 600 48 1.000000 0.051000 0.051000 1.200000 0.045000 0.054000
1560116375660253592	800 43 1.000000 0.169000 0.172000 900 39 0.900000 1.648000 1.560000 600 48 1.000000 0.051000 0.051000 1.200000 0.024000 0.028000
1560116376171630175	800 43 1.000000 0.167000 0.170000 900 39 0.900000 1.651000 1.563000 600 48 1.000000 0.052000 0.052000 1.200000 0.023000 0.027000
1560116376682838092	800 43 1.000000 0.167000 0.170000 900 39 0.900000 1.653000 1.565000 600 48 1.000000 0.051000 0.051000 1.200000 0.024000 0.028000
1560116377193738175	800 43 1.000000 0.179000 0.182000 900 39 0.900000 1.647000 1.559000 600 48 1.000000 0.051000 0.051000 1.200000 0.034000 0.041000
1560116377705059925	800 43 1.000000 0.167000 0.170000 900 39 0.900000 1.651000 1.563000 600 48 1.000000 0.052000 0.052000 1.200000 0.024000 0.028000
1560116378216958842	800 43 1.000000 0.166000 0.169000 900 39 0.900000 1.651000 1.563000 600 48 1.000000 0.052000 0.052000 1.200000 0.024000 0.028000
1560116378728172634	800 43 1.000000 0.167000 0.170000 900 39 0.900000 1.648000 1.560000 600 48 1.000000 0.051000 0.051000 1.200000 0.024000 0.028000
1560116379241202884	800 43 1.000000 0.168000 0.171000 900 39 0.900000 1.650000 1.562000 600 48 1.000000 0.052000 0.052000 1.200000 0.025000 0.030000
1560116379752706884	800 43 1.000000 0.178000 0.181000 900 39 0.900000 1.642000 1.553000 600 48 1.000000 0.051000 0.051000 1.200000 0.050000 0.060000
1560116380265612842	800 43 1.000000 0.170000 0.173000 900 39 0.900000 1.645000 1.557000 600 48 1.000000 0.051000 0.051000 1.200000 0.025000 0.030000
1560116380776852717	800 43 1.000000 0.187000 0.190000 900 39 0.900000 1.647000 1.559000 600 48 1.000000 0.052000 0.052000 1.200000 0.033000 0.039000
1560116381287956592	800 43 1.000000 0.168000 0.171000 900 39 0.900000 1.650000 1.562000 600 48 1.000000 0.052000 0.052000 1.200000 0.026000 0.031000
1560116381798971759	800 43 1.000000 0.176000 0.179000 900 39 0.900000 1.648000 1.560000 600 48 1.000000 0.052000 0.052000 1.200000 0.043000 0.052000
1560116382310225926	800 43 1.000000 0.169000 0.172000 900 39 0.900000 1.650000 1.562000 600 48 1.000000 0.051000 0.051000 1.200000 0.024000 0.028000
1560116382821675509	800 43 1.000000 0.188000 0.191000 900 39 0.900000 1.651000 1.563000 600 48 1.000000 0.051000 0.051000 1.200000 0.030000 0.036000
1560116383332678718	800 43 1.000000 0.168000 0.171000 900 39 0.900000 1.651000 1.563000 600 48 1.000000 0.051000 0.051000 1.200000 0.024000 0.028000
1560116383843788051	800 43 1.000000 0.173000 0.176000 900 39 0.900000 1.651000 1.561000 600 48 1.000000 0.051000 0.051000 1.200000 0.032000 0.038000
1560116384354967468	800 43 1.000000 0.167000 0.170000 900 39 0.900000 1.648000 1.559000 600 48 1.000000 0.052000 0.052000 1.200000 0.024000 0.028000
1560116384866119759	800 43 1.000000 0.178000 0.181000 900 39 0.900000 1.650000 1.562000 600 48 1.000000 0.052000 0.052000 1.200000 0.026000 0.031000
1560116385377246843	800 43 1.000000 0.167000 0.170000 900 39 0.900000 1.649000 1.561000 600 48 1.000000 0.052000 0.052000 1.200000 0.024000 0.028000
1560116385891340176	800 43 1.000000 0.170000 0.173000 900 39 0.900000 1.650000 1.562000 600 48 1.000000 0.051000 0.051000 1.200000 0.024000 0.028000
1560116386402416218	800 43 1.000000 0.206000 0.209000 900 39 0.900000 1.644000 1.556000 600 48 1.000000 0.052000 0.052000 1.200000 0.024000 0.028000
1560116386913571843	800 43 1.000000 0.186000 0.189000 900 39 0.900000 1.648000 1.559000 600 48 1.000000 0.052000 0.052000 1.200000 0.024000 0.028000
1560116387424736468	800 43 1.000000 0.167000 0.170000 900 39 0.900000 1.648000 1.560000 600 48 1.000000 0.051000 0.051000 1.200000 0.024000 0.028000
1560116387936032968	800 43 1.000000 0.170000 0.173000 900 39 0.900000 1.651000 1.563000 600 48 1.000000 0.052000 0.052000 1.200000 0.026000 0.031000
1560116388447395593	800 43 1.000000 0.170000 0.173000 900 39 0.900000 1.654000 1.566000 600 48 1.000000 0.051000 0.051000 1.200000 0.041000 0.049000
1560116388958637885	800 43 1.000000 0.168000 0.171000 900 39 0.900000 1.649000 1.561000 600 48 1.000000 0.052000 0.052000 1.200000 0.033000 0.039000
1560116389469760093	800 43 1.000000 0.169000 0.172000 900 39 0.900000 1.650000 1.562000 600 48 1.000000 0.051000 0.051000 1.200000 0.026000 0.031000
1560116389981061093	800 43 1.000000 0.170000 0.173000 900 39 0.900000 1.647000 1.559000 600 48 1.000000 0.051000 0.051000 1.200000 0.025000 0.030000
1560116390492202885	800 43 1.000000 0.167000 0.170000 900 39 0.900000 1.650000 1.562000 600 48 1.000000 0.051000 0.051000 1.200000 0.025000 0.030000
1560116391003358302	800 43 1.000000 0.185000 0.188000 900 39 0.900000 1.647000 1.559000 600 48 1.000000 0.052000 0.052000 1.200000 0.044000 0.053000
1560116391514495135	800 43 1.000000 0.166000 0.169000 900 39 0.900000 1.646000 1.558000 600 48 1.000000 0.051000 0.051000 1.200000 0.026000 0.031000
1560116392025790719	800 43 1.000000 0.168000 0.171000 900 39 0.900000 1.649000 1.561000 600 48 1.000000 0.052000 0.052000 1.200000 0.026000 0.031000
1560116392540054219	800 43 1.000000 0.168000 0.171000 900 39 0.900000 1.647000 1.559000 600 48 1.000000 0.051000 0.051000 1.200000 0.026000 0.031000
1560116393051207844	800 43 1.000000 0.208000 0.211000 900 39 0.900000 1.647000 1.559000 600 48 1.000000 0.051000 0.051000 1.200000 0.050000 0.060000
1560116393562498177	800 43 1.000000 0.170000 0.173000 900 39 0.900000 1.653000 1.565000 600 48 1.000000 0.052000 0.052000 1.200000 0.025000 0.030000
1560116394073756594	800 43 1.000000 0.169000 0.172000 900 39 0.900000 1.651000 1.561000 600 48 1.000000 0.052000 0.052000 1.200000 0.025000 0.030000
1560116394585144469	800 43 1.000000 0.167000 0.170000 900 39 0.900000 1.645000 1.556000 600 48 1.000000 0.052000 0.052000 1.200000 0.026000 0.031000
1560116395096215052	800 43 1.000000 0.216000 0.219000 900 39 0.900000 1.647000 1.558000 600 48 1.000000 0.052000 0.052000 1.200000 0.041000 0.049000
1560116395607542511	800 43 1.000000 0.166000 0.169000 900 39 0.900000 1.648000 1.560000 600 48 1.000000 0.052000 0.052000 1.200000 0.024000 0.028000
1560116396118688261	800 43 1.000000 0.168000 0.171000 900 39 0.900000 1.649000 1.561000 600 48 1.000000 0.052000 0.052000 1.200000 0.024000 0.028000
1560116396629880636	800 43 1.000000 0.170000 0.173000 900 39 0.900000 1.650000 1.560000 600 48 1.000000 0.051000 0.051000 1.200000 0.025000 0.030000
1560116397141901844	800 43 1.000000 0.171000 0.174000 900 39 0.900000 1.648000 1.560000 600 48 1.000000 0.052000 0.052000 1.200000 0.026000 0.031000
1560116397653560553	800 43 1.000000 0.172000 0.175000 900 39 0.900000 1.647000 1.559000 600 48 1.000000 0.052000 0.052000 1.200000 0.051000 0.061000
1560116398164858469	800 43 1.000000 0.167000 0.170000 900 39 0.900000 1.645000 1.557000 600 48 1.000000 0.052000 0.052000 1.200000 0.026000 0.031000
1560116398676185303	800 43 1.000000 0.170000 0.173000 900 39 0.900000 1.647000 1.559000 600 48 1.000000 0.052000 0.052000 1.200000 0.025000 0.030000
1560116399190240303	800 43 1.000000 0.170000 0.173000 900 39 0.900000 1.653000 1.565000 600 48 1.000000 0.052000 0.052000 1.200000 0.025000 0.030000
1560116399702009845	800 43 1.000000 0.218000 0.221000 900 39 0.900000 1.644000 1.555000 600 48 1.000000 0.051000 0.051000 1.200000 0.053000 0.064000
1560116400213143095	800 43 1.000000 0.168000 0.171000 900 39 0.900000 1.651000 1.561000 600 48 1.000000 0.051000 0.051000 1.200000 0.026000 0.031000
1560116400724574470	800 43 1.000000 0.170000 0.173000 900 39 0.900000 1.644000 1.556000 600 48 1.000000 0.052000 0.052000 1.200000 0.025000 0.030000
1560116401236265845	800 43 1.000000 0.170000 0.173000 900 39 0.900000 1.653000 1.565000 600 48 1.000000 0.051000 0.051000 1.200000 0.026000 0.031000
1560116401747639761	800 43 1.000000 0.198000 0.201000 900 39 0.900000 1.645000 1.557000 600 48 1.000000 0.052000 0.052000 1.200000 0.042000 0.050000
1560116402258827803	800 43 1.000000 0.167000 0.170000 900 39 0.900000 1.651000 1.563000 600 48 1.000000 0.052000 0.052000 1.200000 0.025000 0.030000
1560116402770073220	800 43 1.000000 0.167000 0.170000 900 39 0.900000 1.647000 1.559000 600 48 1.000000 0.052000 0.052000 1.200000 0.024000 0.028000
1560116403282984928	800 43 1.000000 0.167000 0.170000 900 39 0.900000 1.650000 1.562000 600 48 1.000000 0.052000 0.052000 1.200000 0.024000 0.028000
1560116403797854720	800 43 1.000000 0.193000 0.196000 900 39 0.900000 1.645000 1.556000 600 48 1.000000 0.052000 0.052000 1.200000 0.026000 0.031000
1560116404309225970	800 43 1.000000 0.181000 0.184000 900 39 0.900000 1.649000 1.561000 600 48 1.000000 0.052000 0.052000 1.200000 0.023000 0.027000
1560116404820458220	800 43 1.000000 0.167000 0.170000 900 39 0.900000 1.650000 1.562000 600 48 1.000000 0.051000 0.051000 1.200000 0.026000 0.031000
1560116405331592262	800 43 1.000000 0.170000 0.173000 900 39 0.900000 1.650000 1.562000 600 48 1.000000 0.051000 0.051000 1.200000 0.025000 0.030000
1560116405844359429	800 43 1.000000 0.175000 0.178000 900 39 0.900000 1.650000 1.562000 600 48 1.000000 0.052000 0.052000 1.200000 0.032000 0.038000
1560116406356992929	800 43 1.000000 0.193000 0.196000 900 39 0.900000 1.646000 1.558000 600 48 1.000000 0.052000 0.052000 1.200000 0.045000 0.054000
1560116406868233179	800 43 1.000000 0.170000 0.173000 900 39 0.900000 1.649000 1.561000 600 48 1.000000 0.052000 0.052000 1.200000 0.025000 0.030000
1560116407379355887	800 43 1.000000 0.170000 0.173000 900 39 0.900000 1.650000 1.562000 600 48 1.000000 0.051000 0.051000 1.200000 0.026000 0.031000
1560116407890456387	800 43 1.000000 0.188000 0.191000 900 39 0.900000 1.648000 1.560000 600 48 1.000000 0.051000 0.051000 1.200000 0.033000 0.039000
1560116408401650512	800 43 1.000000 0.189000 0.192000 900 39 0.900000 1.646000 1.558000 600 48 1.000000 0.052000 0.052000 1.200000 0.035000 0.042000
1560116408912927429	800 43 1.000000 0.167000 0.170000 900 39 0.900000 1.650000 1.562000 600 48 1.000000 0.052000 0.052000 1.200000 0.025000 0.030000
1560116409424083804	800 43 1.000000 0.167000 0.170000 900 39 0.900000 1.649000 1.561000 600 48 1.000000 0.052000 0.052000 1.200000 0.024000 0.028000
1560116409935365929	800 43 1.000000 0.184000 0.187000 900 39 0.900000 1.647000 1.559000 600 48 1.000000 0.052000 0.052000 1.200000 0.032000 0.038000
1560116410448570637	800 43 1.000000 0.185000 0.188000 900 39 0.900000 1.651000 1.563000 600 48 1.000000 0.051000 0.051000 1.200000 0.024000 0.028000
1560116410959928096	800 43 1.000000 0.190000 0.193000 900 39 0.900000 1.653000 1.565000 600 48 1.000000 0.051000 0.051000 1.200000 0.024000 0.028000
1560116411470979721	800 43 1.000000 0.168000 0.171000 900 39 0.900000 1.649000 1.561000 600 48 1.000000 0.051000 0.051000 1.200000 0.024000 0.028000
1560116411981976554	800 43 1.000000 0.185000 0.188000 900 39 0.900000 1.649000 1.561000 600 48 1.000000 0.051000 0.051000 1.200000 0.032000 0.038000
1560116412496272429	800 43 1.000000 0.167000 0.170000 900 39 0.900000 1.647000 1.559000 600 48 1.000000 0.052000 0.052000 1.200000 0.024000 0.028000
1560116413007839346	800 43 1.000000 0.183000 0.186000 900 39 0.900000 1.643000 1.555000 600 48 1.000000 0.052000 0.052000 1.200000 0.043000 0.052000
1560116413519138013	800 43 1.000000 0.170000 0.173000 900 39 0.900000 1.651000 1.561000 600 48 1.000000 0.051000 0.051000 1.200000 0.026000 0.031000
1560116414030209555	800 43 1.000000 0.168000 0.171000 900 39 0.900000 1.650000 1.562000 600 48 1.000000 0.051000 0.051000 1.200000 0.025000 0.030000
1560116414541425763	800 43 1.000000 0.170000 0.173000 900 39 0.900000 1.649000 1.561000 600 48 1.000000 0.052000 0.052000 1.200000 0.025000 0.030000
1560116415052694638	800 43 1.000000 0.182000 0.185000 900 39 0.900000 1.646000 1.558000 600 48 1.000000 0.051000 0.051000 1.200000 0.033000 0.039000
1560116415563838971	800 43 1.000000 0.168000 0.171000 900 39 0.900000 1.647000 1.559000 600 48 1.000000 0.051000 0.051000 1.200000 0.026000 0.031000
1560116416075022638	800 43 1.000000 0.179000 0.182000 900 39 0.900000 1.647000 1.559000 600 48 1.000000 0.052000 0.052000 1.200000 0.027000 0.032000
1560116416586377888	800 43 1.000000 0.167000 0.170000 900 39 0.900000 1.651000 1.563000 600 48 1.000000 0.052000 0.052000 1.200000 0.025000 0.030000
1560116417099239305	800 43 1.000000 0.176000 0.179000 900 39 0.900000 1.644000 1.556000 600 48 1.000000 0.051000 0.051000 1.200000 0.024000 0.028000
1560116417611977722	800 43 1.000000 0.201000 0.205000 900 39 0.900000 1.648000 1.560000 600 48 1.000000 0.052000 0.052000 1.200000 0.023000 0.027000
1560116418123074930	800 43 1.000000 0.169000 0.172000 900 39 0.900000 1.649000 1.559000 600 48 1.000000 0.051000 0.051000 1.200000 0.029000 0.035000
1560116418634427680	800 43 1.000000 0.170000 0.173000 900 39 0.900000 1.650000 1.562000 600 48 1.000000 0.051000 0.051000 1.200000 0.024000 0.028000
1560116419147898305	800 43 1.000000 0.169000 0.172000 900 39 0.900000 1.654000 1.566000 600 48 1.000000 0.051000 0.051000 1.200000 0.025000 0.030000
1560116419659357514	800 43 1.000000 0.202000 0.206000 900 39 0.900000 1.654000 1.566000 600 48 1.000000 0.052000 0.052000 1.200000 0.033000 0.039000
1560116420170447847	800 43 1.000000 0.170000 0.173000 900 39 0.900000 1.648000 1.559000 600 48 1.000000 0.052000 0.052000 1.200000 0.032000 0.038000
1560116420681601180	800 43 1.000000 0.167000 0.170000 900 39 0.900000 1.649000 1.561000 600 48 1.000000 0.052000 0.052000 1.200000 0.024000 0.028000
1560116421192891680	800 43 1.000000 0.168000 0.171000 900 39 0.900000 1.649000 1.561000 600 48 1.000000 0.052000 0.052000 1.200000 0.026000 0.031000
1560116421704094222	800 43 1.000000 0.172000 0.175000 900 39 0.900000 1.652000 1.564000 600 48 1.000000 0.051000 0.051000 1.200000 0.032000 0.038000
1560116422215269972	800 43 1.000000 0.170000 0.173000 900 39 0.900000 1.647000 1.559000 600 48 1.000000 0.052000 0.052000 1.200000 0.026000 0.031000
1560116422726470681	800 43 1.000000 0.169000 0.172000 900 39 0.900000 1.647000 1.559000 600 48 1.000000 0.051000 0.051000 1.200000 0.025000 0.030000
1560116423237702556	800 43 1.000000 0.168000 0.171000 900 39 0.900000 1.649000 1.561000 600 48 1.000000 0.052000 0.052000 1.200000 0.025000 0.030000
1560116423749633014	800 43 1.000000 0.170000 0.173000 900 39 0.900000 1.651000 1.563000 600 48 1.000000 0.052000 0.052000 1.200000 0.024000 0.028000
1560116424260956472	800 43 1.000000 0.209000 0.213000 900 39 0.900000 1.643000 1.555000 600 48 1.000000 0.052000 0.052000 1.200000 0.024000 0.028000
1560116424771963473	800 43 1.000000 0.186000 0.189000 900 39 0.900000 1.646000 1.558000 600 48 1.000000 0.052000 0.052000 1.200000 0.024000 0.028000
1560116425283103806	800 43 1.000000 0.168000 0.171000 900 39 0.900000 1.647000 1.558000 600 48 1.000000 0.052000 0.052000 1.200000 0.024000 0.028000
1560116425797223473	800 43 1.000000 0.170000 0.173000 900 39 0.900000 1.648000 1.560000 600 48 1.000000 0.051000 0.051000 1.200000 0.024000 0.028000
1560116426308774264	800 43 1.000000 0.209000 0.213000 900 39 0.900000 1.643000 1.555000 600 48 1.000000 0.051000 0.051000 1.200000 0.035000 0.042000
1560116426819899973	800 43 1.000000 0.167000 0.170000 900 39 0.900000 1.650000 1.562000 600 48 1.000000 0.051000 0.051000 1.200000 0.024000 0.028000
1560116427331276140	800 43 1.000000 0.167000 0.170000 900 39 0.900000 1.650000 1.560000 600 48 1.000000 0.052000 0.052000 1.200000 0.024000 0.028000
1560116427842363348	800 43 1.000000 0.167000 0.170000 900 39 0.900000 1.647000 1.559000 600 48 1.000000 0.051000 0.051000 1.200000 0.024000 0.028000
1560116428353939848	800 43 1.000000 0.206000 0.210000 900 39 0.900000 1.647000 1.559000 600 48 1.000000 0.051000 0.051000 1.200000 0.045000 0.054000
1560116428865208598	800 43 1.000000 0.167000 0.170000 900 39 0.900000 1.651000 1.563000 600 48 1.000000 0.052000 0.052000 1.200000 0.025000 0.030000
1560116429376350056	800 43 1.000000 0.167000 0.170000 900 39 0.900000 1.652000 1.564000 600 48 1.000000 0.052000 0.052000 1.200000 0.025000 0.030000
1560116429887404140	800 43 1.000000 0.167000 0.170000 900 39 0.900000 1.650000 1.562000 600 48 1.000000 0.052000 0.052000 1.200000 0.024000 0.028000
1560116430399393140	800 43 1.000000 0.168000 0.171000 900 39 0.900000 1.649000 1.559000 600 48 1.000000 0.052000 0.052000 1.200000 0.026000 0.031000
1560116430910886140	800 43 1.000000 0.213000 0.216000 900 39 0.900000 1.644000 1.556000 600 48 1.000000 0.052000 0.052000 1.200000 0.048000 0.058000
1560116431421904057	800 43 1.000000 0.170000 0.173000 900 39 0.900000 1.650000 1.562000 600 48 1.000000 0.052000 0.052000 1.200000 0.026000 0.031000
1560116431933181140	800 43 1.000000 0.170000 0.173000 900 39 0.900000 1.650000 1.560000 600 48 1.000000 0.052000 0.052000 1.200000 0.025000 0.030000
1560116432444505015	800 43 1.000000 0.168000 0.171000 900 39 0.900000 1.648000 1.560000 600 48 1.000000 0.052000 0.052000 1.200000 0.025000 0.030000
1560116432955874765	800 43 1.000000 0.223000 0.226000 900 39 0.900000 1.647000 1.558000 600 48 1.000000 0.052000 0.052000 1.200000 0.039000 0.047000
1560116433467137057	800 43 1.000000 0.170000 0.173000 900 39 0.900000 1.650000 1.562000 600 48 1.000000 0.052000 0.052000 1.200000 0.026000 0.031000
1560116433978385099	800 43 1.000000 0.167000 0.170000 900 39 0.900000 1.651000 1.561000 600 48 1.000000 0.052000 0.052000 1.200000 0.025000 0.030000
1560116434489687432	800 43 1.000000 0.167000 0.170000 900 39 0.900000 1.648000 1.559000 600 48 1.000000 0.051000 0.051000 1.200000 0.025000 0.030000
1560116435000815974	800 43 1.000000 0.218000 0.221000 900 39 0.900000 1.647000 1.559000 600 48 1.000000 0.052000 0.052000 1.200000 0.029000 0.035000
1560116435511809765	800 43 1.000000 0.166000 0.169000 900 39 0.900000 1.650000 1.562000 600 48 1.000000 0.051000 0.051000 1.200000 0.026000 0.031000
1560116436022991516	800 43 1.000000 0.168000 0.171000 900 39 0.900000 1.648000 1.560000 600 48 1.000000 0.051000 0.051000 1.200000 0.026000 0.031000
1560116436534103349	800 43 1.000000 0.170000 0.173000 900 39 0.900000 1.647000 1.559000 600 48 1.000000 0.052000 0.052000 1.200000 0.025000 0.030000
1560116437048723266	800 43 1.000000 0.177000 0.180000 900 39 0.900000 1.651000 1.563000 600 48 1.000000 0.051000 0.051000 1.200000 0.029000 0.035000
1560116437560040557	800 43 1.000000 0.177000 0.180000 900 39 0.900000 1.648000 1.560000 600 48 1.000000 0.052000 0.052000 1.200000 0.030000 0.036000
1560116438071205932	800 43 1.000000 0.168000 0.171000 900 39 0.900000 1.650000 1.560000 600 48 1.000000 0.052000 0.052000 1.200000 0.025000 0.030000
1560116438582384724	800 43 1.000000 0.170000 0.173000 900 39 0.900000 1.648000 1.559000 600 48 1.000000 0.052000 0.052000 1.200000 0.026000 0.031000
1560116439093781141	800 43 1.000000 0.170000 0.173000 900 39 0.900000 1.648000 1.559000 600 48 1.000000 0.052000 0.052000 1.200000 0.026000 0.031000
1560116439604813641	800 43 1.000000 0.195000 0.198000 900 39 0.900000 1.645000 1.556000 600 48 1.000000 0.052000 0.052000 1.200000 0.034000 0.041000
1560116440115933641	800 43 1.000000 0.169000 0.172000 900 39 0.900000 1.651000 1.563000 600 48 1.000000 0.052000 0.052000 1.200000 0.025000 0.030000
1560116440627151974	800 43 1.000000 0.170000 0.173000 900 39 0.900000 1.648000 1.559000 600 48 1.000000 0.052000 0.052000 1.200000 0.026000 0.031000
1560116441138357724	800 43 1.000000 0.167000 0.170000 900 39 0.900000 1.650000 1.560000 600 48 1.000000 0.052000 0.052000 1.200000 0.026000 0.031000
1560116441649539266	800 43 1.000000 0.192000 0.195000 900 39 0.900000 1.649000 1.559000 600 48 1.000000 0.052000 0.052000 1.200000 0.026000 0.031000
1560116442160761725	800 43 1.000000 0.167000 0.170000 900 39 0.900000 1.648000 1.559000 600 48 1.000000 0.051000 0.051000 1.200000 0.024000 0.028000
1560116442672068975	800 43 1.000000 0.170000 0.173000 900 39 0.900000 1.649000 1.561000 600 48 1.000000 0.051000 0.051000 1.200000 0.025000 0.030000
1560116443183109100	800 43 1.000000 0.168000 0.171000 900 39 0.900000 1.649000 1.561000 600 48 1.000000 0.052000 0.052000 1.200000 0.025000 0.030000
1560116443697520683	800 43 1.000000 0.170000 0.173000 900 39 0.900000 1.650000 1.562000 600 48 1.000000 0.052000 0.052000 1.200000 0.026000 0.031000
1560116444208891600	800 43 1.000000 0.188000 0.191000 900 39 0.900000 1.649000 1.561000 600 48 1.000000 0.051000 0.051000 1.200000 0.032000 0.038000
1560116444720086433	800 43 1.000000 0.167000 0.170000 900 39 0.900000 1.651000 1.563000 600 48 1.000000 0.052000 0.052000 1.200000 0.024000 0.028000
1560116445231029350	800 43 1.000000 0.167000 0.170000 900 39 0.900000 1.652000 1.564000 600 48 1.000000 0.052000 0.052000 1.200000 0.024000 0.028000
1560116445742095392	800 43 1.000000 0.167000 0.170000 900 39 0.900000 1.651000 1.563000 600 48 1.000000 0.051000 0.051000 1.200000 0.024000 0.028000
1560116446253351392	800 43 1.000000 0.189000 0.192000 900 39 0.900000 1.646000 1.558000 600 48 1.000000 0.051000 0.051000 1.200000 0.033000 0.039000
1560116446764611850	800 43 1.000000 0.168000 0.171000 900 39 0.900000 1.651000 1.561000 600 48 1.000000 0.052000 0.052000 1.200000 0.026000 0.031000
1560116447275629559	800 43 1.000000 0.169000 0.172000 900 39 0.900000 1.650000 1.560000 600 48 1.000000 0.052000 0.052000 1.200000 0.026000 0.031000
1560116447786857350	800 43 1.000000 0.174000 0.177000 900 39 0.900000 1.651000 1.563000 600 48 1.000000 0.052000 0.052000 1.200000 0.032000 0.038000
1560116448297850142	800 43 1.000000 0.183000 0.186000 900 39 0.900000 1.647000 1.559000 600 48 1.000000 0.051000 0.051000 1.200000 0.025000 0.030000
1560116448809011017	800 43 1.000000 0.191000 0.194000 900 39 0.900000 1.650000 1.562000 600 48 1.000000 0.051000 0.051000 1.200000 0.027000 0.032000
1560116449320250059	800 43 1.000000 0.170000 0.173000 900 39 0.900000 1.650000 1.560000 600 48 1.000000 0.052000 0.052000 1.200000 0.026000 0.031000
1560116449831530017	800 43 1.000000 0.187000 0.190000 900 39 0.900000 1.651000 1.561000 600 48 1.000000 0.052000 0.052000 1.200000 0.030000 0.036000
1560116450345098892	800 43 1.000000 0.168000 0.171000 900 39 0.900000 1.650000 1.560000 600 48 1.000000 0.052000 0.052000 1.200000 0.025000 0.030000
1560116450856334851	800 43 1.000000 0.195000 0.198000 900 39 0.900000 1.648000 1.559000 600 48 1.000000 0.052000 0.052000 1.200000 0.034000 0.041000
1560116451367657101	800 43 1.000000 0.170000 0.173000 900 39 0.900000 1.649000 1.559000 600 48 1.000000 0.052000 0.052000 1.200000 0.025000 0.030000
1560116451878971434	800 43 1.000000 0.182000 0.185000 900 39 0.900000 1.647000 1.559000 600 48 1.000000 0.052000 0.052000 1.200000 0.026000 0.031000
1560116452389973892	800 43 1.000000 0.167000 0.170000 900 39 0.900000 1.649000 1.561000 600 48 1.000000 0.052000 0.052000 1.200000 0.024000 0.028000
1560116452901090434	800 43 1.000000 0.195000 0.198000 900 39 0.900000 1.646000 1.558000 600 48 1.000000 0.052000 0.052000 1.200000 0.043000 0.052000
1560116453412145434	800 43 1.000000 0.166000 0.169000 900 39 0.900000 1.650000 1.562000 600 48 1.000000 0.052000 0.052000 1.200000 0.025000 0.030000
1560116453923251726	800 43 1.000000 0.167000 0.170000 900 39 0.900000 1.648000 1.560000 600 48 1.000000 0.051000 0.051000 1.200000 0.025000 0.030000
1560116454434406351	800 43 1.000000 0.168000 0.171000 900 39 0.900000 1.650000 1.562000 600 48 1.000000 0.052000 0.052000 1.200000 0.026000 0.031000
1560116454945299059	800 39 1.000000 0.147000 0.150000 900 38 0.900000 1.109000 1.050000 600 43 1.000000 0.052000 0.052000 1.200000 0.025000 0.030000
1560116455456058476	800 37 1.000000 0.073000 0.074000 900 37 0.900000 0.103000 0.098000 600 41 1.000000 0.051000 0.051000 1.200000 0.024000 0.028000
