#Timestamp	CPU(0) Frequency(MHz)	CPU(0) Temperature(C)	A7 Voltage(V)	A7 Current(A)	A7 Power(W)	CPU(4) Frequency(MHz)	CPU(4) Temperature(C)	A15 Voltage(V)	A15 Current(A)	A15 Power(W)	GPU Frequency(MHz)	GPU Temperature(C)	GPU Voltage(V)	GPU Current(A)	GPU Power(W)	RAM Voltage(V)	RAM Current(A)	RAM Power(W)
1553297993768105471	600 31 0.900000 0.025000 0.023000 200 30 0.900000 0.141000 0.128000 600 35 1.000000 0.050000 0.050000 1.200000 0.034000 0.041000
1553297994299768096	600 31 0.900000 0.057000 0.054000 200 31 0.900000 0.091000 0.082000 600 35 1.000000 0.050000 0.050000 1.200000 0.036000 0.043000
1553297994830407804	600 31 0.900000 0.072000 0.068000 200 31 0.900000 0.051000 0.046000 600 35 1.000000 0.050000 0.050000 1.200000 0.036000 0.043000
1553297995363403679	600 31 0.900000 0.074000 0.070000 200 30 0.900000 0.164000 0.149000 600 35 1.000000 0.050000 0.050000 1.200000 0.046000 0.055000
1553297995894646679	600 31 0.900000 0.074000 0.070000 200 31 0.900000 0.091000 0.082000 600 35 1.000000 0.050000 0.050000 1.200000 0.038000 0.045000
1553297996425951263	600 31 0.900000 0.073000 0.069000 200 30 0.900000 0.052000 0.047000 600 35 1.000000 0.050000 0.050000 1.200000 0.036000 0.043000
1553297996957196763	600 31 0.900000 0.073000 0.069000 200 31 0.900000 0.052000 0.047000 600 35 1.000000 0.050000 0.050000 1.200000 0.036000 0.043000
1553297997494137346	600 32 0.900000 0.145000 0.137000 200 31 0.900000 0.064000 0.058000 600 35 1.000000 0.050000 0.050000 1.200000 0.029000 0.035000
1553297998027903013	600 32 0.900000 0.147000 0.139000 200 31 0.900000 0.131000 0.119000 600 35 1.000000 0.050000 0.050000 1.200000 0.032000 0.038000
1553297998558838930	600 31 0.900000 0.147000 0.139000 200 31 0.900000 0.075000 0.068000 600 35 1.000000 0.051000 0.051000 1.200000 0.033000 0.039000
1553297999089534846	600 32 0.900000 0.146000 0.138000 200 31 0.900000 0.050000 0.045000 600 35 1.000000 0.050000 0.050000 1.200000 0.028000 0.033000
1553297999621418638	600 32 0.900000 0.146000 0.138000 200 31 0.900000 0.049000 0.044000 600 35 1.000000 0.050000 0.050000 1.200000 0.028000 0.033000
1553298000158798805	600 32 0.900000 0.146000 0.138000 200 31 0.900000 0.067000 0.061000 600 35 1.000000 0.050000 0.050000 1.200000 0.034000 0.041000
1553298000690703972	600 32 0.900000 0.147000 0.139000 200 31 0.900000 0.132000 0.120000 600 35 1.000000 0.051000 0.051000 1.200000 0.030000 0.036000
1553298001222370513	600 32 0.900000 0.146000 0.138000 200 31 0.900000 0.058000 0.052000 600 35 1.000000 0.050000 0.050000 1.200000 0.032000 0.038000
1553298001755208680	600 32 0.900000 0.145000 0.137000 200 31 0.900000 0.049000 0.044000 600 35 1.000000 0.050000 0.050000 1.200000 0.028000 0.033000
1553298002286715264	600 31 0.900000 0.146000 0.138000 200 31 0.900000 0.106000 0.096000 600 35 1.000000 0.050000 0.050000 1.200000 0.033000 0.039000
1553298002819836972	600 32 0.900000 0.146000 0.138000 200 31 0.900000 0.049000 0.044000 600 35 1.000000 0.051000 0.051000 1.200000 0.028000 0.033000
1553298003351500055	600 32 0.900000 0.147000 0.139000 200 31 0.900000 0.134000 0.122000 600 35 1.000000 0.050000 0.050000 1.200000 0.032000 0.038000
1553298003882552014	600 32 0.900000 0.147000 0.139000 200 31 0.900000 0.050000 0.045000 600 35 1.000000 0.050000 0.050000 1.200000 0.031000 0.037000
1553298004414244972	600 32 0.900000 0.147000 0.139000 200 31 0.900000 0.112000 0.102000 600 35 1.000000 0.051000 0.051000 1.200000 0.028000 0.033000
1553298004945411222	600 32 0.900000 0.146000 0.138000 200 31 0.900000 0.049000 0.044000 600 34 1.000000 0.050000 0.050000 1.200000 0.028000 0.033000
1553298005479410514	600 32 0.900000 0.146000 0.138000 200 31 0.900000 0.049000 0.044000 600 35 1.000000 0.050000 0.050000 1.200000 0.027000 0.032000
1553298006010919431	600 32 0.900000 0.147000 0.139000 200 31 0.900000 0.098000 0.089000 600 35 1.000000 0.050000 0.050000 1.200000 0.033000 0.039000
1553298006542568972	600 32 0.900000 0.146000 0.138000 200 31 0.900000 0.096000 0.087000 600 35 1.000000 0.050000 0.050000 1.200000 0.032000 0.038000
1553298007073749222	600 32 0.900000 0.146000 0.138000 200 31 0.900000 0.038000 0.034000 600 35 1.000000 0.050000 0.050000 1.200000 0.028000 0.033000
1553298007605042014	600 32 0.900000 0.146000 0.138000 200 31 0.900000 0.038000 0.034000 600 35 1.000000 0.050000 0.050000 1.200000 0.027000 0.032000
1553298008138474431	600 32 0.900000 0.146000 0.138000 200 31 0.900000 0.106000 0.096000 600 35 1.000000 0.050000 0.050000 1.200000 0.028000 0.033000
1553298008670772681	600 32 0.900000 0.148000 0.140000 200 31 0.900000 0.144000 0.131000 600 35 1.000000 0.050000 0.050000 1.200000 0.033000 0.039000
1553298009201854014	600 31 0.900000 0.146000 0.138000 200 31 0.900000 0.063000 0.057000 600 35 1.000000 0.050000 0.050000 1.200000 0.027000 0.032000
1553298009733333681	600 31 0.900000 0.147000 0.139000 200 31 0.900000 0.049000 0.044000 600 34 1.000000 0.050000 0.050000 1.200000 0.028000 0.033000
1553298010264116806	600 31 0.900000 0.147000 0.139000 200 31 0.900000 0.051000 0.046000 600 34 1.000000 0.050000 0.050000 1.200000 0.027000 0.032000
1553298010794682515	600 32 0.900000 0.146000 0.138000 200 31 0.900000 0.051000 0.046000 600 35 1.000000 0.051000 0.051000 1.200000 0.029000 0.035000
1553298011326018140	600 32 0.900000 0.147000 0.139000 200 31 0.900000 0.172000 0.156000 600 35 1.000000 0.050000 0.050000 1.200000 0.035000 0.042000
1553298011857451640	600 31 0.900000 0.146000 0.138000 200 31 0.900000 0.049000 0.044000 600 35 1.000000 0.050000 0.050000 1.200000 0.027000 0.032000
1553298012389111015	600 32 0.900000 0.146000 0.138000 200 31 0.900000 0.050000 0.045000 600 35 1.000000 0.050000 0.050000 1.200000 0.027000 0.032000
1553298012919757265	600 31 0.900000 0.146000 0.138000 200 31 0.900000 0.050000 0.045000 600 34 1.000000 0.050000 0.050000 1.200000 0.027000 0.032000
1553298013455764223	600 32 0.900000 0.147000 0.139000 200 31 0.900000 0.118000 0.107000 600 35 1.000000 0.050000 0.050000 1.200000 0.036000 0.043000
1553298013987791182	600 32 0.900000 0.147000 0.139000 200 31 0.900000 0.131000 0.119000 600 35 1.000000 0.050000 0.050000 1.200000 0.031000 0.037000
1553298014518256182	600 31 0.900000 0.146000 0.138000 200 31 0.900000 0.049000 0.044000 600 35 1.000000 0.050000 0.050000 1.200000 0.027000 0.032000
1553298015049227432	600 31 0.900000 0.145000 0.137000 200 31 0.900000 0.050000 0.045000 600 35 1.000000 0.051000 0.051000 1.200000 0.027000 0.032000
1553298015580734473	600 31 0.900000 0.146000 0.138000 200 31 0.900000 0.072000 0.065000 600 35 1.000000 0.050000 0.050000 1.200000 0.031000 0.037000
1553298016117499432	600 32 0.900000 0.147000 0.139000 200 31 0.900000 0.072000 0.065000 600 35 1.000000 0.050000 0.050000 1.200000 0.029000 0.035000
1553298016648676599	600 31 0.900000 0.147000 0.139000 200 31 0.900000 0.133000 0.121000 600 35 1.000000 0.050000 0.050000 1.200000 0.031000 0.037000
1553298017179910307	600 31 0.900000 0.146000 0.138000 200 31 0.900000 0.048000 0.043000 600 35 1.000000 0.050000 0.050000 1.200000 0.027000 0.032000
1553298017711325265	600 32 0.900000 0.146000 0.138000 200 31 0.900000 0.049000 0.044000 600 35 1.000000 0.050000 0.050000 1.200000 0.027000 0.032000
1553298018242347932	600 31 0.900000 0.146000 0.138000 200 31 0.900000 0.064000 0.058000 600 35 1.000000 0.050000 0.050000 1.200000 0.026000 0.031000
1553298018775266515	600 32 0.900000 0.147000 0.139000 200 31 0.900000 0.086000 0.078000 600 35 1.000000 0.050000 0.050000 1.200000 0.030000 0.036000
1553298019307508224	600 32 0.900000 0.147000 0.139000 200 31 0.900000 0.121000 0.110000 600 35 1.000000 0.050000 0.050000 1.200000 0.030000 0.036000
1553298019839901557	600 32 0.900000 0.146000 0.138000 200 31 0.900000 0.048000 0.043000 600 35 1.000000 0.050000 0.050000 1.200000 0.026000 0.031000
1553298020371331391	600 31 0.900000 0.146000 0.138000 200 31 0.900000 0.101000 0.092000 600 35 1.000000 0.050000 0.050000 1.200000 0.030000 0.036000
1553298020902824349	600 31 0.900000 0.112000 0.106000 200 30 0.900000 0.054000 0.049000 600 35 1.000000 0.050000 0.050000 1.200000 0.038000 0.045000
1553298021435917849	600 31 0.900000 0.075000 0.071000 200 31 0.900000 0.104000 0.094000 600 35 1.000000 0.050000 0.050000 1.200000 0.045000 0.054000
1553298021970580683	600 31 0.900000 0.074000 0.070000 200 30 0.900000 0.104000 0.094000 600 35 1.000000 0.050000 0.050000 1.200000 0.044000 0.053000
1553298022502442099	600 31 0.900000 0.073000 0.069000 200 30 0.900000 0.116000 0.105000 600 35 1.000000 0.050000 0.050000 1.200000 0.046000 0.055000
1553298023033967516	600 31 0.900000 0.074000 0.070000 200 30 0.900000 0.057000 0.051000 600 35 1.000000 0.050000 0.050000 1.200000 0.044000 0.053000
1553298023568280558	600 31 0.900000 0.074000 0.070000 200 30 0.900000 0.058000 0.052000 600 34 1.000000 0.050000 0.050000 1.200000 0.044000 0.053000
1553298024101315016	600 31 0.900000 0.073000 0.069000 200 31 0.900000 0.135000 0.123000 600 35 1.000000 0.050000 0.050000 1.200000 0.047000 0.056000
1553298024633125391	600 31 0.900000 0.073000 0.069000 200 30 0.900000 0.116000 0.105000 600 35 1.000000 0.050000 0.050000 1.200000 0.045000 0.054000
1553298025164125100	600 31 0.900000 0.073000 0.069000 200 30 0.900000 0.056000 0.051000 600 35 1.000000 0.050000 0.050000 1.200000 0.043000 0.051000
1553298025694932016	600 31 0.900000 0.073000 0.069000 200 30 0.900000 0.055000 0.050000 600 35 1.000000 0.051000 0.051000 1.200000 0.043000 0.052000
1553298026228534683	600 31 0.900000 0.073000 0.069000 200 30 0.900000 0.055000 0.050000 600 35 1.000000 0.050000 0.050000 1.200000 0.043000 0.051000
1553298026762023516	600 31 0.900000 0.074000 0.070000 200 31 0.900000 0.133000 0.121000 600 35 1.000000 0.050000 0.050000 1.200000 0.046000 0.055000
1553298027293396183	600 31 0.900000 0.074000 0.070000 200 30 0.900000 0.087000 0.079000 600 35 1.000000 0.050000 0.050000 1.200000 0.044000 0.053000
1553298027824507100	600 31 0.900000 0.073000 0.069000 200 30 0.900000 0.055000 0.050000 600 35 1.000000 0.050000 0.050000 1.200000 0.043000 0.051000
1553298028355213225	600 31 0.900000 0.074000 0.070000 200 30 0.900000 0.058000 0.052000 600 35 1.000000 0.050000 0.050000 1.200000 0.043000 0.052000
1553298028888926892	600 31 0.900000 0.073000 0.069000 200 30 0.900000 0.056000 0.051000 600 35 1.000000 0.050000 0.050000 1.200000 0.044000 0.053000
1553298029420139058	600 31 0.900000 0.074000 0.070000 200 30 0.900000 0.169000 0.154000 600 35 1.000000 0.050000 0.050000 1.200000 0.047000 0.056000
1553298029950753975	600 31 0.900000 0.073000 0.069000 200 30 0.900000 0.070000 0.063000 600 35 1.000000 0.050000 0.050000 1.200000 0.043000 0.051000
1553298030481800225	600 31 0.900000 0.073000 0.069000 200 30 0.900000 0.056000 0.051000 600 34 1.000000 0.050000 0.050000 1.200000 0.043000 0.051000
1553298031015028309	600 31 0.900000 0.074000 0.070000 200 30 0.900000 0.056000 0.051000 600 35 1.000000 0.050000 0.050000 1.200000 0.044000 0.053000
1553298031551485809	600 31 0.900000 0.073000 0.069000 200 31 0.900000 0.114000 0.103000 600 35 1.000000 0.050000 0.050000 1.200000 0.046000 0.055000
1553298032083098600	600 31 0.900000 0.074000 0.070000 200 30 0.900000 0.132000 0.120000 600 35 1.000000 0.050000 0.050000 1.200000 0.046000 0.055000
1553298032613716184	600 31 0.900000 0.074000 0.070000 200 30 0.900000 0.056000 0.051000 600 35 1.000000 0.050000 0.050000 1.200000 0.043000 0.051000
1553298033145359476	600 31 0.900000 0.074000 0.070000 200 30 0.900000 0.056000 0.051000 600 35 1.000000 0.050000 0.050000 1.200000 0.043000 0.051000
1553298033676533892	600 31 0.900000 0.074000 0.070000 200 30 0.900000 0.080000 0.072000 600 35 1.000000 0.050000 0.050000 1.200000 0.044000 0.053000
1553298034209967142	600 31 0.900000 0.073000 0.069000 200 30 0.900000 0.055000 0.050000 600 35 1.000000 0.050000 0.050000 1.200000 0.042000 0.050000
1553298034741825101	600 31 0.900000 0.074000 0.070000 200 30 0.900000 0.132000 0.120000 600 35 1.000000 0.050000 0.050000 1.200000 0.044000 0.053000
1553298035273351059	600 31 0.900000 0.075000 0.071000 200 30 0.900000 0.055000 0.050000 600 34 1.000000 0.050000 0.050000 1.200000 0.042000 0.050000
1553298035804947268	600 31 0.900000 0.074000 0.070000 200 30 0.900000 0.055000 0.050000 600 35 1.000000 0.050000 0.050000 1.200000 0.042000 0.050000
1553298036336372143	600 31 0.900000 0.073000 0.069000 200 30 0.900000 0.066000 0.060000 600 34 1.000000 0.050000 0.050000 1.200000 0.042000 0.050000
1553298036870113268	600 31 0.900000 0.074000 0.070000 200 30 0.900000 0.054000 0.049000 600 35 1.000000 0.050000 0.050000 1.200000 0.042000 0.050000
1553298037402173559	600 31 0.900000 0.075000 0.071000 200 30 0.900000 0.131000 0.119000 600 35 1.000000 0.050000 0.050000 1.200000 0.045000 0.054000
1553298037934658934	600 31 0.900000 0.074000 0.070000 200 30 0.900000 0.055000 0.050000 600 35 1.000000 0.050000 0.050000 1.200000 0.042000 0.050000
1553298038466230101	600 31 0.900000 0.073000 0.069000 200 30 0.900000 0.046000 0.041000 600 34 1.000000 0.050000 0.050000 1.200000 0.042000 0.050000
1553298038998891185	600 31 0.900000 0.074000 0.070000 200 30 0.900000 0.049000 0.044000 600 35 1.000000 0.050000 0.050000 1.200000 0.043000 0.051000
1553298039532809268	600 31 0.900000 0.026000 0.024000 200 30 0.900000 0.126000 0.114000 600 35 1.000000 0.050000 0.050000 1.200000 0.033000 0.039000
1553298040064621393	600 31 0.900000 0.026000 0.024000 200 30 0.900000 0.072000 0.065000 600 35 1.000000 0.050000 0.050000 1.200000 0.031000 0.037000
