#Timestamp	CPU(0) Frequency(MHz)	CPU(0) Temperature(C)	A7 Voltage(V)	A7 Current(A)	A7 Power(W)	CPU(4) Frequency(MHz)	CPU(4) Temperature(C)	A15 Voltage(V)	A15 Current(A)	A15 Power(W)	GPU Frequency(MHz)	GPU Temperature(C)	GPU Voltage(V)	GPU Current(A)	GPU Power(W)	RAM Voltage(V)	RAM Current(A)	RAM Power(W)
1553307897659642485	700 34 0.900000 0.030000 0.029000 700 31 0.900000 0.414000 0.376000 600 37 1.000000 0.050000 0.050000 1.200000 0.044000 0.053000
1553307898169532943	700 34 0.900000 0.029000 0.028000 700 32 0.900000 0.397000 0.361000 600 36 1.000000 0.050000 0.050000 1.200000 0.033000 0.039000
1553307898679092360	700 34 0.900000 0.029000 0.028000 700 32 0.900000 0.413000 0.375000 600 36 1.000000 0.050000 0.050000 1.200000 0.033000 0.039000
1553307899189027527	700 35 0.900000 0.121000 0.119000 700 32 0.900000 0.379000 0.344000 600 36 1.000000 0.050000 0.050000 1.200000 0.032000 0.038000
1553307899698668818	700 35 0.900000 0.178000 0.175000 700 32 0.900000 0.495000 0.448000 600 37 1.000000 0.050000 0.050000 1.200000 0.032000 0.038000
1553307900207953110	700 35 0.900000 0.180000 0.177000 700 33 0.900000 0.350000 0.318000 600 36 1.000000 0.050000 0.050000 1.200000 0.033000 0.039000
1553307900717137152	700 35 0.900000 0.177000 0.174000 700 33 0.900000 0.351000 0.319000 600 36 1.000000 0.050000 0.050000 1.200000 0.029000 0.035000
1553307901226134694	700 35 0.900000 0.178000 0.175000 700 33 0.900000 0.351000 0.319000 600 36 1.000000 0.050000 0.050000 1.200000 0.029000 0.035000
1553307901735377652	700 35 0.900000 0.178000 0.175000 700 33 0.900000 0.362000 0.329000 600 37 1.000000 0.051000 0.051000 1.200000 0.030000 0.036000
1553307902244821319	700 35 0.900000 0.178000 0.175000 700 33 0.900000 0.427000 0.387000 600 37 1.000000 0.050000 0.050000 1.200000 0.033000 0.039000
1553307902754127902	700 35 0.900000 0.178000 0.175000 700 33 0.900000 0.353000 0.321000 600 36 1.000000 0.051000 0.051000 1.200000 0.029000 0.035000
1553307903263150485	700 35 0.900000 0.178000 0.175000 700 33 0.900000 0.363000 0.330000 600 37 1.000000 0.050000 0.050000 1.200000 0.030000 0.036000
1553307903772181319	700 35 0.900000 0.179000 0.176000 700 33 0.900000 0.363000 0.330000 600 37 1.000000 0.051000 0.051000 1.200000 0.029000 0.035000
1553307904281339027	700 35 0.900000 0.177000 0.174000 700 33 0.900000 0.422000 0.383000 600 37 1.000000 0.050000 0.050000 1.200000 0.034000 0.041000
1553307904790526319	700 35 0.900000 0.177000 0.174000 700 33 0.900000 0.359000 0.326000 600 37 1.000000 0.051000 0.051000 1.200000 0.029000 0.035000
1553307905299665861	700 35 0.900000 0.177000 0.174000 700 33 0.900000 0.364000 0.331000 600 37 1.000000 0.051000 0.051000 1.200000 0.029000 0.035000
1553307905809100361	700 35 0.900000 0.178000 0.175000 700 33 0.900000 0.352000 0.320000 600 37 1.000000 0.051000 0.051000 1.200000 0.029000 0.035000
1553307906318397736	700 35 0.900000 0.180000 0.177000 700 33 0.900000 0.480000 0.434000 600 37 1.000000 0.051000 0.051000 1.200000 0.038000 0.045000
1553307906827529653	700 35 0.900000 0.178000 0.175000 700 33 0.900000 0.364000 0.331000 600 37 1.000000 0.051000 0.051000 1.200000 0.028000 0.033000
1553307907336658111	700 35 0.900000 0.178000 0.175000 700 33 0.900000 0.355000 0.323000 600 37 1.000000 0.051000 0.051000 1.200000 0.029000 0.035000
1553307907845448444	700 33 0.900000 0.178000 0.175000 700 33 0.900000 0.263000 0.239000 600 36 1.000000 0.051000 0.051000 1.200000 0.029000 0.035000
1553307908354565319	700 33 0.900000 0.181000 0.178000 700 32 0.900000 0.197000 0.179000 600 36 1.000000 0.051000 0.051000 1.200000 0.037000 0.044000
1553307908863481361	700 33 0.900000 0.178000 0.175000 700 32 0.900000 0.079000 0.072000 600 36 1.000000 0.051000 0.051000 1.200000 0.027000 0.032000
1553307909372151528	700 33 0.900000 0.177000 0.174000 700 32 0.900000 0.086000 0.078000 600 36 1.000000 0.050000 0.050000 1.200000 0.028000 0.033000
1553307909880891820	700 33 0.900000 0.177000 0.174000 700 32 0.900000 0.087000 0.079000 600 36 1.000000 0.050000 0.050000 1.200000 0.027000 0.032000
1553307910389885403	700 33 0.900000 0.188000 0.185000 700 32 0.900000 0.153000 0.139000 600 36 1.000000 0.050000 0.050000 1.200000 0.036000 0.043000
1553307910898824736	700 33 0.900000 0.177000 0.174000 700 32 0.900000 0.090000 0.082000 600 36 1.000000 0.050000 0.050000 1.200000 0.027000 0.032000
1553307911407496070	700 33 0.900000 0.178000 0.175000 700 32 0.900000 0.086000 0.078000 600 36 1.000000 0.050000 0.050000 1.200000 0.027000 0.032000
1553307911916197195	700 33 0.900000 0.178000 0.175000 700 32 0.900000 0.073000 0.066000 600 36 1.000000 0.050000 0.050000 1.200000 0.026000 0.031000
1553307912425139570	700 33 0.900000 0.178000 0.175000 700 32 0.900000 0.155000 0.141000 600 36 1.000000 0.051000 0.051000 1.200000 0.034000 0.041000
1553307912934159862	700 33 0.900000 0.184000 0.181000 700 32 0.900000 0.077000 0.070000 600 36 1.000000 0.051000 0.051000 1.200000 0.035000 0.042000
1553307913442987987	700 33 0.900000 0.177000 0.174000 700 32 0.900000 0.081000 0.073000 600 36 1.000000 0.051000 0.051000 1.200000 0.027000 0.032000
1553307913953244278	700 34 0.900000 0.177000 0.174000 700 32 0.900000 0.092000 0.083000 600 36 1.000000 0.050000 0.050000 1.200000 0.028000 0.033000
1553307914464022278	700 34 0.900000 0.053000 0.052000 700 32 0.900000 0.324000 0.295000 600 37 1.000000 0.051000 0.051000 1.200000 0.030000 0.036000
1553307914974683820	700 35 0.900000 0.041000 0.040000 700 32 0.900000 0.557000 0.504000 600 36 1.000000 0.050000 0.050000 1.200000 0.043000 0.051000
1553307915485184570	700 34 0.900000 0.029000 0.028000 700 32 0.900000 0.430000 0.391000 600 36 1.000000 0.050000 0.050000 1.200000 0.029000 0.035000
1553307915995540362	700 34 0.900000 0.029000 0.028000 700 32 0.900000 0.437000 0.397000 600 36 1.000000 0.050000 0.050000 1.200000 0.028000 0.033000
1553307916505981862	700 35 0.900000 0.029000 0.028000 700 32 0.900000 0.431000 0.392000 600 37 1.000000 0.051000 0.051000 1.200000 0.028000 0.033000
1553307917016429112	700 35 0.900000 0.040000 0.039000 700 32 0.900000 0.504000 0.457000 600 37 1.000000 0.050000 0.050000 1.200000 0.042000 0.050000
1553307917526936154	700 35 0.900000 0.029000 0.028000 700 32 0.900000 0.430000 0.391000 600 37 1.000000 0.051000 0.051000 1.200000 0.026000 0.031000
1553307918036814946	700 35 0.900000 0.029000 0.028000 700 32 0.900000 0.439000 0.399000 600 36 1.000000 0.050000 0.050000 1.200000 0.026000 0.031000
1553307918546333571	700 35 0.900000 0.029000 0.028000 700 32 0.900000 0.425000 0.386000 600 37 1.000000 0.050000 0.050000 1.200000 0.029000 0.035000
1553307919055744696	700 35 0.900000 0.029000 0.028000 700 32 0.900000 0.454000 0.412000 600 37 1.000000 0.051000 0.051000 1.200000 0.035000 0.042000
1553307919565033446	700 35 0.900000 0.030000 0.029000 700 32 0.900000 0.423000 0.384000 600 37 1.000000 0.051000 0.051000 1.200000 0.026000 0.031000
1553307920074798571	700 35 0.900000 0.029000 0.028000 700 32 0.900000 0.426000 0.387000 600 37 1.000000 0.051000 0.051000 1.200000 0.026000 0.031000
1553307920584273779	700 35 0.900000 0.029000 0.028000 700 32 0.900000 0.428000 0.389000 600 37 1.000000 0.051000 0.051000 1.200000 0.027000 0.032000
1553307921095487196	700 35 0.900000 0.031000 0.030000 700 32 0.900000 0.473000 0.429000 600 37 1.000000 0.051000 0.051000 1.200000 0.028000 0.033000
1553307921605927613	700 35 0.900000 0.034000 0.033000 700 32 0.900000 0.577000 0.522000 600 37 1.000000 0.051000 0.051000 1.200000 0.038000 0.045000
1553307922115723446	700 35 0.900000 0.030000 0.029000 700 32 0.900000 0.436000 0.396000 600 37 1.000000 0.051000 0.051000 1.200000 0.027000 0.032000
1553307922625065154	700 35 0.900000 0.030000 0.029000 700 32 0.900000 0.434000 0.394000 600 37 1.000000 0.051000 0.051000 1.200000 0.027000 0.032000
1553307923134600196	700 35 0.900000 0.029000 0.028000 700 32 0.900000 0.441000 0.401000 600 37 1.000000 0.051000 0.051000 1.200000 0.027000 0.032000
1553307923644130446	700 35 0.900000 0.033000 0.032000 700 32 0.900000 0.566000 0.512000 600 37 1.000000 0.051000 0.051000 1.200000 0.039000 0.047000
1553307924153436905	700 35 0.900000 0.029000 0.028000 700 32 0.900000 0.431000 0.392000 600 37 1.000000 0.051000 0.051000 1.200000 0.026000 0.031000
1553307924663317905	700 33 0.900000 0.030000 0.029000 700 32 0.900000 0.194000 0.176000 600 37 1.000000 0.051000 0.051000 1.200000 0.034000 0.041000
1553307925173120655	700 32 0.900000 0.030000 0.029000 700 32 0.900000 0.074000 0.067000 600 36 1.000000 0.051000 0.051000 1.200000 0.022000 0.026000
