#Timestamp	CPU(0) Frequency(MHz)	CPU(0) Temperature(C)	A7 Voltage(V)	A7 Current(A)	A7 Power(W)	CPU(4) Frequency(MHz)	CPU(4) Temperature(C)	A15 Voltage(V)	A15 Current(A)	A15 Power(W)	GPU Frequency(MHz)	GPU Temperature(C)	GPU Voltage(V)	GPU Current(A)	GPU Power(W)	RAM Voltage(V)	RAM Current(A)	RAM Power(W)
1517165068595832230	200 35 0.900000 0.026000 0.023000 1300 35 1.000000 0.203000 0.213000 600 39 1.000000 0.051000 0.051000 1.200000 0.039000 0.047000
1517165069108961272	200 37 0.900000 0.026000 0.023000 1300 35 1.000000 0.172000 0.180000 600 39 1.000000 0.051000 0.051000 1.200000 0.036000 0.043000
1517165069620947480	200 40 0.900000 0.015000 0.013000 1300 35 1.000000 0.741000 0.772000 600 40 1.000000 0.051000 0.051000 1.200000 0.058000 0.070000
1517165070130125772	200 40 0.900000 0.015000 0.013000 1300 36 1.000000 0.755000 0.786000 600 40 1.000000 0.051000 0.051000 1.200000 0.032000 0.038000
1517165070642050313	200 40 0.900000 0.015000 0.013000 1300 36 1.000000 0.817000 0.851000 600 40 1.000000 0.051000 0.051000 1.200000 0.046000 0.055000
1517165071154062939	200 40 0.900000 0.012000 0.010000 1300 36 1.000000 0.740000 0.771000 600 40 1.000000 0.051000 0.051000 1.200000 0.032000 0.038000
1517165071663713522	200 40 0.900000 0.012000 0.010000 1300 36 1.000000 0.827000 0.861000 600 44 1.000000 0.051000 0.051000 1.200000 0.031000 0.037000
1517165072176133855	200 42 0.900000 0.063000 0.057000 1300 37 1.000000 1.789000 1.873000 600 47 1.000000 0.051000 0.051000 1.200000 0.038000 0.045000
1517165072689769730	200 43 0.900000 0.060000 0.054000 1300 37 1.000000 1.785000 1.868000 600 48 1.000000 0.051000 0.051000 1.200000 0.037000 0.044000
1517165073202397772	200 44 0.900000 0.064000 0.058000 1300 38 1.000000 1.851000 1.937000 600 48 1.000000 0.051000 0.051000 1.200000 0.056000 0.067000
1517165073714586439	200 44 0.900000 0.061000 0.055000 1300 38 1.000000 1.784000 1.867000 600 49 1.000000 0.051000 0.051000 1.200000 0.037000 0.044000
1517165074227710856	200 44 0.900000 0.065000 0.059000 1300 39 1.000000 1.844000 1.930000 600 49 1.000000 0.052000 0.052000 1.200000 0.038000 0.045000
1517165074741088689	200 44 0.900000 0.061000 0.055000 1300 39 1.000000 1.781000 1.864000 600 50 1.000000 0.051000 0.051000 1.200000 0.036000 0.043000
1517165075252032981	200 44 0.900000 0.063000 0.057000 1300 39 1.000000 1.814000 1.899000 600 49 1.000000 0.051000 0.051000 1.200000 0.040000 0.048000
1517165075778490272	200 45 0.900000 0.061000 0.055000 1300 39 1.000000 1.785000 1.868000 600 50 1.000000 0.051000 0.051000 1.200000 0.042000 0.050000
1517165076293139439	200 45 0.900000 0.066000 0.060000 1300 39 1.000000 1.820000 1.905000 600 50 1.000000 0.051000 0.051000 1.200000 0.039000 0.047000
1517165076805355398	200 45 0.900000 0.061000 0.055000 1300 39 1.000000 1.774000 1.857000 600 50 1.000000 0.051000 0.051000 1.200000 0.036000 0.043000
1517165077314790689	200 45 0.900000 0.059000 0.053000 1300 39 1.000000 1.785000 1.868000 600 50 1.000000 0.052000 0.052000 1.200000 0.036000 0.043000
1517165077826874356	200 45 0.900000 0.065000 0.059000 1300 40 1.000000 1.844000 1.932000 600 51 1.000000 0.051000 0.051000 1.200000 0.052000 0.062000
1517165078338671606	200 46 0.900000 0.061000 0.055000 1300 40 1.000000 1.777000 1.860000 600 51 1.000000 0.052000 0.052000 1.200000 0.037000 0.044000
1517165078851210981	200 46 0.900000 0.060000 0.054000 1300 40 1.000000 1.765000 1.847000 600 51 1.000000 0.052000 0.052000 1.200000 0.035000 0.042000
1517165079364163023	200 46 0.900000 0.061000 0.055000 1300 40 1.000000 1.784000 1.867000 600 51 1.000000 0.052000 0.052000 1.200000 0.034000 0.041000
1517165079879167065	200 45 0.900000 0.057000 0.052000 1300 40 1.000000 1.808000 1.892000 600 51 1.000000 0.052000 0.052000 1.200000 0.036000 0.043000
1517165080392375356	200 45 0.900000 0.066000 0.060000 1300 40 1.000000 1.875000 1.965000 600 50 1.000000 0.052000 0.052000 1.200000 0.051000 0.061000
1517165080918099273	200 46 0.900000 0.061000 0.055000 1300 40 1.000000 1.846000 1.932000 600 51 1.000000 0.052000 0.052000 1.200000 0.034000 0.041000
1517165081433245731	200 46 0.900000 0.059000 0.053000 1300 40 1.000000 1.785000 1.868000 600 51 1.000000 0.052000 0.052000 1.200000 0.035000 0.042000
1517165081945982148	200 46 0.900000 0.062000 0.056000 1300 40 1.000000 1.790000 1.874000 600 51 1.000000 0.052000 0.052000 1.200000 0.040000 0.048000
1517165082457381273	200 46 0.900000 0.061000 0.055000 1300 40 1.000000 1.798000 1.882000 600 51 1.000000 0.052000 0.052000 1.200000 0.044000 0.053000
1517165082973393107	200 46 0.900000 0.066000 0.060000 1300 40 1.000000 1.933000 2.025000 600 51 1.000000 0.052000 0.052000 1.200000 0.054000 0.065000
1517165083486495315	200 46 0.900000 0.057000 0.052000 1300 40 1.000000 1.764000 1.846000 600 51 1.000000 0.052000 0.052000 1.200000 0.035000 0.042000
1517165083999018065	200 46 0.900000 0.061000 0.055000 1300 40 1.000000 1.791000 1.875000 600 51 1.000000 0.052000 0.052000 1.200000 0.035000 0.042000
1517165084508405107	200 46 0.900000 0.062000 0.056000 1300 40 1.000000 1.802000 1.888000 600 51 1.000000 0.052000 0.052000 1.200000 0.039000 0.047000
1517165085017640107	200 46 0.900000 0.068000 0.062000 1300 41 1.000000 1.802000 1.886000 600 52 1.000000 0.052000 0.052000 1.200000 0.045000 0.054000
1517165085530077232	200 46 0.900000 0.064000 0.058000 1300 41 1.000000 1.855000 1.944000 600 52 1.000000 0.052000 0.052000 1.200000 0.048000 0.058000
1517165086042883899	200 46 0.900000 0.061000 0.055000 1300 40 1.000000 1.769000 1.852000 600 51 1.000000 0.052000 0.052000 1.200000 0.035000 0.042000
1517165086557238024	200 46 0.900000 0.060000 0.054000 1300 40 1.000000 1.798000 1.882000 600 51 1.000000 0.052000 0.052000 1.200000 0.040000 0.048000
1517165087070571232	200 45 0.900000 0.065000 0.059000 1300 41 1.000000 1.831000 1.917000 600 51 1.000000 0.052000 0.052000 1.200000 0.045000 0.054000
1517165087579723524	200 46 0.900000 0.065000 0.059000 1300 41 1.000000 1.824000 1.911000 600 52 1.000000 0.052000 0.052000 1.200000 0.048000 0.057000
1517165088095006649	200 46 0.900000 0.061000 0.055000 1300 41 1.000000 1.821000 1.908000 600 52 1.000000 0.052000 0.052000 1.200000 0.035000 0.042000
1517165088607249191	200 46 0.900000 0.061000 0.055000 1300 41 1.000000 1.797000 1.881000 600 52 1.000000 0.051000 0.051000 1.200000 0.035000 0.042000
1517165089119752816	200 46 0.900000 0.062000 0.056000 1300 41 1.000000 1.793000 1.877000 600 52 1.000000 0.052000 0.052000 1.200000 0.040000 0.048000
1517165089633093066	200 46 0.900000 0.061000 0.055000 1300 41 1.000000 1.792000 1.876000 600 52 1.000000 0.052000 0.052000 1.200000 0.038000 0.045000
1517165090161827774	200 47 0.900000 0.066000 0.060000 1300 41 1.000000 1.868000 1.957000 600 52 1.000000 0.052000 0.052000 1.200000 0.051000 0.061000
1517165090691547441	200 47 0.900000 0.061000 0.055000 1300 41 1.000000 1.780000 1.863000 600 52 1.000000 0.052000 0.052000 1.200000 0.035000 0.042000
1517165091206823399	200 46 0.900000 0.060000 0.054000 1300 41 1.000000 1.766000 1.849000 600 51 1.000000 0.051000 0.051000 1.200000 0.042000 0.050000
1517165091719266441	200 46 0.900000 0.061000 0.055000 1300 41 1.000000 1.781000 1.864000 600 52 1.000000 0.052000 0.052000 1.200000 0.034000 0.041000
1517165092231929524	200 46 0.900000 0.061000 0.055000 1300 41 1.000000 1.781000 1.866000 600 52 1.000000 0.052000 0.052000 1.200000 0.044000 0.053000
1517165092761050608	200 47 0.900000 0.068000 0.062000 1300 41 1.000000 1.861000 1.950000 600 52 1.000000 0.052000 0.052000 1.200000 0.051000 0.061000
1517165093274451108	200 46 0.900000 0.061000 0.055000 1300 41 1.000000 1.762000 1.844000 600 52 1.000000 0.052000 0.052000 1.200000 0.037000 0.044000
1517165093787190441	200 46 0.900000 0.068000 0.062000 1300 41 1.000000 1.835000 1.921000 600 51 1.000000 0.052000 0.052000 1.200000 0.042000 0.050000
1517165094299596150	200 47 0.900000 0.060000 0.054000 1300 41 1.000000 1.792000 1.876000 600 52 1.000000 0.052000 0.052000 1.200000 0.040000 0.048000
1517165094815914358	200 47 0.900000 0.060000 0.054000 1300 41 1.000000 1.798000 1.884000 600 52 1.000000 0.052000 0.052000 1.200000 0.038000 0.045000
1517165095342644441	200 47 0.900000 0.065000 0.059000 1300 41 1.000000 1.898000 1.989000 600 52 1.000000 0.052000 0.052000 1.200000 0.045000 0.054000
1517165095857342316	200 47 0.900000 0.070000 0.063000 1300 41 1.000000 1.852000 1.940000 600 52 1.000000 0.052000 0.052000 1.200000 0.044000 0.053000
1517165096370312067	200 47 0.900000 0.061000 0.055000 1300 41 1.000000 1.834000 1.922000 600 52 1.000000 0.052000 0.052000 1.200000 0.035000 0.042000
1517165096886965233	200 46 0.900000 0.062000 0.056000 1300 41 1.000000 1.844000 1.932000 600 52 1.000000 0.052000 0.052000 1.200000 0.037000 0.044000
1517165097400375067	200 47 0.900000 0.063000 0.057000 1300 41 1.000000 1.876000 1.966000 600 52 1.000000 0.052000 0.052000 1.200000 0.050000 0.060000
1517165097914042983	200 47 0.900000 0.065000 0.059000 1300 41 1.000000 1.852000 1.940000 600 52 1.000000 0.052000 0.052000 1.200000 0.040000 0.048000
1517165098426622567	200 47 0.900000 0.060000 0.054000 1300 41 1.000000 1.848000 1.936000 600 52 1.000000 0.052000 0.052000 1.200000 0.035000 0.042000
1517165098939184900	200 47 0.900000 0.061000 0.055000 1300 41 1.000000 1.840000 1.928000 600 52 1.000000 0.051000 0.051000 1.200000 0.039000 0.047000
1517165099452354067	200 47 0.900000 0.063000 0.057000 1300 41 1.000000 1.845000 1.933000 600 52 1.000000 0.052000 0.052000 1.200000 0.035000 0.042000
1517165099968324984	200 47 0.900000 0.065000 0.059000 1300 41 1.000000 1.910000 2.001000 600 53 1.000000 0.052000 0.052000 1.200000 0.054000 0.065000
1517165100481236734	200 46 0.900000 0.063000 0.057000 1300 41 1.000000 1.838000 1.926000 600 52 1.000000 0.052000 0.052000 1.200000 0.035000 0.042000
1517165100993620734	200 47 0.900000 0.061000 0.055000 1300 41 1.000000 1.832000 1.919000 600 52 1.000000 0.052000 0.052000 1.200000 0.035000 0.042000
1517165101506087900	200 47 0.900000 0.060000 0.054000 1300 41 1.000000 1.831000 1.918000 600 52 1.000000 0.052000 0.052000 1.200000 0.037000 0.044000
1517165102019993776	200 47 0.900000 0.065000 0.059000 1300 41 1.000000 1.864000 1.953000 600 52 1.000000 0.052000 0.052000 1.200000 0.036000 0.043000
1517165102532362734	200 47 0.900000 0.066000 0.060000 1300 42 1.000000 1.841000 1.929000 600 53 1.000000 0.052000 0.052000 1.200000 0.049000 0.059000
1517165103044495651	200 47 0.900000 0.062000 0.056000 1300 41 1.000000 1.841000 1.929000 600 53 1.000000 0.052000 0.052000 1.200000 0.037000 0.044000
1517165103560688317	200 47 0.900000 0.062000 0.056000 1300 41 1.000000 1.844000 1.932000 600 52 1.000000 0.052000 0.052000 1.200000 0.036000 0.043000
1517165104073934567	200 47 0.900000 0.062000 0.056000 1300 41 1.000000 1.847000 1.935000 600 52 1.000000 0.052000 0.052000 1.200000 0.042000 0.050000
1517165104587272609	200 47 0.900000 0.062000 0.056000 1300 42 1.000000 1.906000 1.997000 600 53 1.000000 0.052000 0.052000 1.200000 0.037000 0.044000
1517165105106822818	200 47 0.900000 0.066000 0.060000 1300 42 1.000000 1.856000 1.945000 600 53 1.000000 0.052000 0.052000 1.200000 0.051000 0.061000
1517165105619448734	200 47 0.900000 0.067000 0.061000 1300 42 1.000000 1.933000 2.025000 600 53 1.000000 0.052000 0.052000 1.200000 0.042000 0.050000
1517165106132198151	200 47 0.900000 0.061000 0.055000 1300 42 1.000000 1.837000 1.925000 600 53 1.000000 0.052000 0.052000 1.200000 0.039000 0.047000
1517165106646603984	200 47 0.900000 0.065000 0.059000 1300 42 1.000000 1.850000 1.938000 600 53 1.000000 0.052000 0.052000 1.200000 0.038000 0.045000
1517165107161568568	200 46 0.900000 0.065000 0.059000 1300 42 1.000000 1.888000 1.978000 600 52 1.000000 0.052000 0.052000 1.200000 0.042000 0.050000
1517165107673942860	200 47 0.900000 0.063000 0.057000 1300 41 1.000000 1.830000 1.917000 600 53 1.000000 0.052000 0.052000 1.200000 0.043000 0.051000
1517165108184553860	200 47 0.900000 0.062000 0.056000 1300 41 1.000000 1.828000 1.915000 600 53 1.000000 0.052000 0.052000 1.200000 0.036000 0.043000
1517165108698579735	200 47 0.900000 0.063000 0.057000 1300 41 1.000000 1.866000 1.955000 600 53 1.000000 0.052000 0.052000 1.200000 0.041000 0.049000
1517165109225586943	200 47 0.900000 0.064000 0.058000 1300 42 1.000000 1.826000 1.913000 600 53 1.000000 0.051000 0.051000 1.200000 0.038000 0.045000
1517165109743140776	200 47 0.900000 0.066000 0.060000 1300 42 1.000000 1.893000 1.983000 600 53 1.000000 0.052000 0.052000 1.200000 0.052000 0.062000
1517165110257786235	200 46 0.900000 0.061000 0.055000 1300 42 1.000000 1.824000 1.911000 600 52 1.000000 0.052000 0.052000 1.200000 0.035000 0.042000
1517165110767399152	200 47 0.900000 0.059000 0.053000 1300 41 1.000000 1.819000 1.906000 600 52 1.000000 0.052000 0.052000 1.200000 0.041000 0.049000
1517165111279924985	200 47 0.900000 0.063000 0.057000 1300 42 1.000000 1.819000 1.904000 600 53 1.000000 0.052000 0.052000 1.200000 0.042000 0.050000
1517165111791686693	200 47 0.900000 0.064000 0.058000 1300 42 1.000000 1.849000 1.937000 600 53 1.000000 0.052000 0.052000 1.200000 0.037000 0.044000
1517165112303925818	200 47 0.900000 0.065000 0.059000 1300 42 1.000000 1.818000 1.905000 600 53 1.000000 0.052000 0.052000 1.200000 0.046000 0.055000
1517165112816253360	200 47 0.900000 0.061000 0.055000 1300 42 1.000000 1.823000 1.908000 600 53 1.000000 0.052000 0.052000 1.200000 0.035000 0.042000
1517165113330893569	200 47 0.900000 0.066000 0.060000 1300 42 1.000000 1.825000 1.910000 600 53 1.000000 0.052000 0.052000 1.200000 0.044000 0.053000
1517165113844230444	200 47 0.900000 0.063000 0.057000 1300 42 1.000000 1.828000 1.913000 600 52 1.000000 0.052000 0.052000 1.200000 0.036000 0.043000
1517165114354545819	200 47 0.900000 0.060000 0.054000 1300 42 1.000000 1.836000 1.924000 600 53 1.000000 0.052000 0.052000 1.200000 0.037000 0.044000
1517165114867035152	200 47 0.900000 0.063000 0.057000 1300 42 1.000000 1.854000 1.942000 600 53 1.000000 0.052000 0.052000 1.200000 0.051000 0.061000
1517165115379561777	200 47 0.900000 0.062000 0.056000 1300 42 1.000000 1.822000 1.907000 600 53 1.000000 0.052000 0.052000 1.200000 0.037000 0.044000
1517165115891877027	200 47 0.900000 0.063000 0.057000 1300 42 1.000000 1.807000 1.891000 600 53 1.000000 0.052000 0.052000 1.200000 0.039000 0.047000
1517165116404654819	200 47 0.900000 0.061000 0.055000 1300 42 1.000000 1.798000 1.884000 600 53 1.000000 0.052000 0.052000 1.200000 0.037000 0.044000
1517165116921038777	200 47 0.900000 0.063000 0.057000 1300 42 1.000000 1.895000 1.985000 600 53 1.000000 0.052000 0.052000 1.200000 0.045000 0.054000
1517165117433751194	200 47 0.900000 0.064000 0.058000 1300 42 1.000000 1.841000 1.929000 600 53 1.000000 0.052000 0.052000 1.200000 0.040000 0.048000
1517165117946321277	200 47 0.900000 0.058000 0.053000 1300 42 1.000000 1.828000 1.913000 600 53 1.000000 0.052000 0.052000 1.200000 0.042000 0.050000
1517165118458727777	200 47 0.900000 0.063000 0.057000 1300 42 1.000000 1.813000 1.898000 600 53 1.000000 0.052000 0.052000 1.200000 0.037000 0.044000
1517165118967980486	200 47 0.900000 0.061000 0.055000 1300 42 1.000000 1.785000 1.870000 600 53 1.000000 0.052000 0.052000 1.200000 0.036000 0.043000
1517165119477228069	200 47 0.900000 0.064000 0.058000 1300 42 1.000000 1.887000 1.977000 600 53 1.000000 0.052000 0.052000 1.200000 0.052000 0.062000
1517165119990590069	200 47 0.900000 0.061000 0.055000 1300 42 1.000000 1.869000 1.958000 600 53 1.000000 0.052000 0.052000 1.200000 0.042000 0.050000
1517165120512379486	200 47 0.900000 0.061000 0.055000 1300 42 1.000000 1.804000 1.888000 600 52 1.000000 0.052000 0.052000 1.200000 0.035000 0.042000
1517165121026711819	200 47 0.900000 0.060000 0.054000 1300 42 1.000000 1.816000 1.901000 600 53 1.000000 0.052000 0.052000 1.200000 0.035000 0.042000
1517165121536210361	200 47 0.900000 0.060000 0.054000 1300 42 1.000000 1.811000 1.897000 600 53 1.000000 0.052000 0.052000 1.200000 0.035000 0.042000
1517165122048639903	200 47 0.900000 0.068000 0.062000 1300 42 1.000000 1.931000 2.023000 600 53 1.000000 0.052000 0.052000 1.200000 0.047000 0.056000
1517165122561049236	200 47 0.900000 0.064000 0.058000 1300 42 1.000000 1.796000 1.880000 600 53 1.000000 0.052000 0.052000 1.200000 0.038000 0.045000
1517165123073750195	200 47 0.900000 0.061000 0.055000 1300 42 1.000000 1.815000 1.902000 600 53 1.000000 0.052000 0.052000 1.200000 0.037000 0.044000
1517165123590989403	200 47 0.900000 0.061000 0.055000 1300 42 1.000000 1.807000 1.891000 600 53 1.000000 0.052000 0.052000 1.200000 0.036000 0.043000
1517165124105677111	200 47 0.900000 0.060000 0.054000 1300 42 1.000000 1.792000 1.876000 600 53 1.000000 0.052000 0.052000 1.200000 0.038000 0.045000
1517165124621162528	200 47 0.900000 0.065000 0.059000 1300 42 1.000000 1.886000 1.976000 600 53 1.000000 0.052000 0.052000 1.200000 0.048000 0.058000
1517165125133773112	200 47 0.900000 0.057000 0.052000 1300 42 1.000000 1.799000 1.885000 600 53 1.000000 0.052000 0.052000 1.200000 0.039000 0.047000
1517165125646037695	200 47 0.900000 0.060000 0.054000 1300 42 1.000000 1.786000 1.869000 600 53 1.000000 0.052000 0.052000 1.200000 0.037000 0.044000
1517165126158256237	200 47 0.900000 0.063000 0.057000 1300 42 1.000000 1.811000 1.896000 600 53 1.000000 0.052000 0.052000 1.200000 0.036000 0.043000
1517165126669485320	200 47 0.900000 0.063000 0.057000 1300 42 1.000000 1.881000 1.971000 600 53 1.000000 0.052000 0.052000 1.200000 0.047000 0.056000
1517165127187188737	200 47 0.900000 0.060000 0.054000 1300 42 1.000000 1.812000 1.898000 600 52 1.000000 0.052000 0.052000 1.200000 0.041000 0.049000
1517165127699470487	200 47 0.900000 0.061000 0.055000 1300 42 1.000000 1.817000 1.902000 600 53 1.000000 0.052000 0.052000 1.200000 0.036000 0.043000
1517165128209126987	200 47 0.900000 0.060000 0.054000 1300 42 1.000000 1.756000 1.838000 600 53 1.000000 0.052000 0.052000 1.200000 0.035000 0.042000
1517165128718832279	200 47 0.900000 0.065000 0.059000 1300 42 1.000000 1.821000 1.908000 600 53 1.000000 0.052000 0.052000 1.200000 0.037000 0.044000
1517165129230935070	200 48 0.900000 0.065000 0.059000 1300 42 1.000000 1.876000 1.966000 600 53 1.000000 0.052000 0.052000 1.200000 0.053000 0.064000
1517165129743339279	200 47 0.900000 0.060000 0.054000 1300 42 1.000000 1.807000 1.893000 600 53 1.000000 0.052000 0.052000 1.200000 0.036000 0.043000
1517165130257198196	200 47 0.900000 0.059000 0.053000 1300 42 1.000000 1.808000 1.894000 600 53 1.000000 0.052000 0.052000 1.200000 0.036000 0.043000
1517165130771032612	200 46 0.900000 0.063000 0.057000 1300 42 1.000000 1.831000 1.918000 600 52 1.000000 0.052000 0.052000 1.200000 0.040000 0.048000
1517165131283560612	200 47 0.900000 0.061000 0.055000 1300 42 1.000000 1.795000 1.881000 600 53 1.000000 0.052000 0.052000 1.200000 0.039000 0.047000
1517165131795882404	200 47 0.900000 0.067000 0.061000 1300 42 1.000000 1.868000 1.957000 600 53 1.000000 0.052000 0.052000 1.200000 0.046000 0.055000
1517165132308378737	200 47 0.900000 0.060000 0.054000 1300 42 1.000000 1.818000 1.905000 600 53 1.000000 0.052000 0.052000 1.200000 0.037000 0.044000
1517165132820695738	200 48 0.900000 0.061000 0.055000 1300 42 1.000000 1.787000 1.870000 600 53 1.000000 0.052000 0.052000 1.200000 0.042000 0.050000
1517165133333180238	200 47 0.900000 0.060000 0.054000 1300 42 1.000000 1.791000 1.876000 600 53 1.000000 0.052000 0.052000 1.200000 0.037000 0.044000
1517165133847752946	200 47 0.900000 0.057000 0.052000 1300 42 1.000000 1.792000 1.878000 600 53 1.000000 0.052000 0.052000 1.200000 0.036000 0.043000
1517165134361266321	200 47 0.900000 0.067000 0.061000 1300 42 1.000000 1.894000 1.984000 600 53 1.000000 0.052000 0.052000 1.200000 0.050000 0.060000
1517165134873309363	200 48 0.900000 0.059000 0.053000 1300 42 1.000000 1.795000 1.881000 600 53 1.000000 0.052000 0.052000 1.200000 0.037000 0.044000
1517165135385576530	200 47 0.900000 0.063000 0.057000 1300 42 1.000000 1.797000 1.883000 600 53 1.000000 0.052000 0.052000 1.200000 0.036000 0.043000
1517165135898018571	200 47 0.900000 0.057000 0.052000 1300 42 1.000000 1.785000 1.870000 600 53 1.000000 0.052000 0.052000 1.200000 0.036000 0.043000
1517165136407438446	200 47 0.900000 0.062000 0.056000 1300 42 1.000000 1.820000 1.907000 600 53 1.000000 0.052000 0.052000 1.200000 0.053000 0.064000
1517165136916729863	200 48 0.900000 0.063000 0.057000 1300 42 1.000000 1.851000 1.939000 600 53 1.000000 0.052000 0.052000 1.200000 0.037000 0.044000
1517165137432484238	200 47 0.900000 0.062000 0.056000 1300 42 1.000000 1.777000 1.862000 600 53 1.000000 0.052000 0.052000 1.200000 0.036000 0.043000
1517165137945921280	200 48 0.900000 0.059000 0.053000 1300 42 1.000000 1.782000 1.865000 600 53 1.000000 0.052000 0.052000 1.200000 0.036000 0.043000
1517165138458354863	200 47 0.900000 0.061000 0.055000 1300 42 1.000000 1.777000 1.860000 600 53 1.000000 0.052000 0.052000 1.200000 0.037000 0.044000
1517165138970008780	200 48 0.900000 0.066000 0.060000 1300 42 1.000000 1.867000 1.956000 600 53 1.000000 0.052000 0.052000 1.200000 0.053000 0.064000
1517165139482326280	200 48 0.900000 0.061000 0.055000 1300 42 1.000000 1.833000 1.920000 600 53 1.000000 0.052000 0.052000 1.200000 0.040000 0.048000
1517165139994638030	200 48 0.900000 0.060000 0.054000 1300 42 1.000000 1.779000 1.864000 600 53 1.000000 0.052000 0.052000 1.200000 0.035000 0.042000
1517165140513735155	200 47 0.900000 0.061000 0.055000 1300 42 1.000000 1.781000 1.864000 600 53 1.000000 0.052000 0.052000 1.200000 0.035000 0.042000
1517165141030994280	200 46 0.900000 0.060000 0.054000 1300 42 1.000000 1.778000 1.861000 600 52 1.000000 0.052000 0.052000 1.200000 0.039000 0.047000
1517165141543576364	200 47 0.900000 0.061000 0.055000 1300 42 1.000000 1.866000 1.955000 600 53 1.000000 0.052000 0.052000 1.200000 0.055000 0.066000
1517165142056032280	200 48 0.900000 0.061000 0.055000 1300 42 1.000000 1.799000 1.883000 600 53 1.000000 0.052000 0.052000 1.200000 0.046000 0.055000
1517165142583536447	200 47 0.900000 0.060000 0.054000 1300 42 1.000000 1.801000 1.885000 600 53 1.000000 0.052000 0.052000 1.200000 0.037000 0.044000
1517165143097843822	200 48 0.900000 0.059000 0.053000 1300 42 1.000000 1.778000 1.861000 600 53 1.000000 0.052000 0.052000 1.200000 0.038000 0.045000
1517165143609499197	200 48 0.900000 0.061000 0.055000 1300 42 1.000000 1.810000 1.896000 600 53 1.000000 0.052000 0.052000 1.200000 0.040000 0.048000
1517165144126725656	200 47 0.900000 0.066000 0.060000 1300 42 1.000000 1.862000 1.951000 600 53 1.000000 0.052000 0.052000 1.200000 0.053000 0.064000
1517165144639598906	200 47 0.900000 0.057000 0.052000 1300 42 1.000000 1.766000 1.850000 600 53 1.000000 0.052000 0.052000 1.200000 0.037000 0.044000
1517165145157866656	200 47 0.900000 0.059000 0.053000 1300 42 1.000000 1.788000 1.872000 600 53 1.000000 0.052000 0.052000 1.200000 0.036000 0.043000
1517165145677269239	200 48 0.900000 0.060000 0.054000 1300 42 1.000000 1.780000 1.865000 600 53 1.000000 0.052000 0.052000 1.200000 0.037000 0.044000
1517165146217000406	200 48 0.900000 0.064000 0.058000 1300 42 1.000000 1.824000 1.911000 600 53 1.000000 0.052000 0.052000 1.200000 0.045000 0.054000
1517165146740883323	200 47 0.900000 0.063000 0.057000 1300 42 1.000000 1.829000 1.916000 600 53 1.000000 0.052000 0.052000 1.200000 0.050000 0.060000
1517165147254324406	200 47 0.900000 0.060000 0.054000 1300 42 1.000000 1.778000 1.861000 600 53 1.000000 0.052000 0.052000 1.200000 0.037000 0.044000
1517165147764180281	200 48 0.900000 0.059000 0.053000 1300 42 1.000000 1.781000 1.866000 600 53 1.000000 0.052000 0.052000 1.200000 0.037000 0.044000
1517165148294708948	200 47 0.900000 0.062000 0.056000 1300 42 1.000000 1.784000 1.869000 600 53 1.000000 0.052000 0.052000 1.200000 0.047000 0.056000
1517165148810498406	200 48 0.900000 0.064000 0.058000 1300 42 1.000000 1.851000 1.939000 600 53 1.000000 0.052000 0.052000 1.200000 0.047000 0.056000
1517165149322896489	200 48 0.900000 0.060000 0.054000 1300 42 1.000000 1.768000 1.852000 600 53 1.000000 0.052000 0.052000 1.200000 0.038000 0.045000
1517165149849892698	200 47 0.900000 0.059000 0.053000 1300 42 1.000000 1.784000 1.869000 600 53 1.000000 0.052000 0.052000 1.200000 0.038000 0.045000
1517165150364584115	200 47 0.900000 0.067000 0.061000 1300 42 1.000000 1.782000 1.867000 600 53 1.000000 0.052000 0.052000 1.200000 0.044000 0.053000
1517165150885052865	200 48 0.900000 0.060000 0.054000 1300 42 1.000000 1.786000 1.869000 600 53 1.000000 0.052000 0.052000 1.200000 0.038000 0.045000
1517165151401471698	200 47 0.900000 0.063000 0.057000 1300 42 1.000000 1.833000 1.919000 600 53 1.000000 0.052000 0.052000 1.200000 0.051000 0.061000
1517165151913882990	200 48 0.900000 0.060000 0.054000 1300 42 1.000000 1.784000 1.867000 600 53 1.000000 0.052000 0.052000 1.200000 0.037000 0.044000
1517165152426394615	200 48 0.900000 0.064000 0.058000 1300 42 1.000000 1.837000 1.925000 600 53 1.000000 0.052000 0.052000 1.200000 0.043000 0.051000
1517165152942766282	200 47 0.900000 0.059000 0.053000 1300 42 1.000000 1.778000 1.861000 600 53 1.000000 0.052000 0.052000 1.200000 0.041000 0.049000
1517165153452988448	200 47 0.900000 0.060000 0.054000 1300 42 1.000000 1.850000 1.938000 600 53 1.000000 0.052000 0.052000 1.200000 0.040000 0.048000
1517165153965181698	200 48 0.900000 0.064000 0.058000 1300 42 1.000000 1.771000 1.856000 600 53 1.000000 0.052000 0.052000 1.200000 0.044000 0.053000
1517165154477226573	200 48 0.900000 0.061000 0.055000 1300 42 1.000000 1.793000 1.877000 600 53 1.000000 0.052000 0.052000 1.200000 0.036000 0.043000
1517165154989930449	200 48 0.900000 0.065000 0.059000 1300 42 1.000000 1.793000 1.879000 600 53 1.000000 0.052000 0.052000 1.200000 0.040000 0.048000
1517165155502816365	200 48 0.900000 0.057000 0.052000 1300 42 1.000000 1.790000 1.874000 600 53 1.000000 0.052000 0.052000 1.200000 0.042000 0.050000
1517165156012258782	200 48 0.900000 0.059000 0.053000 1300 42 1.000000 1.792000 1.876000 600 53 1.000000 0.052000 0.052000 1.200000 0.037000 0.044000
1517165156525459532	200 48 0.900000 0.063000 0.057000 1300 42 1.000000 1.840000 1.928000 600 53 1.000000 0.052000 0.052000 1.200000 0.047000 0.056000
1517165157039368407	200 48 0.900000 0.062000 0.056000 1300 42 1.000000 1.841000 1.929000 600 53 1.000000 0.052000 0.052000 1.200000 0.042000 0.050000
1517165157557745074	200 48 0.900000 0.060000 0.054000 1300 42 1.000000 1.798000 1.884000 600 53 1.000000 0.052000 0.052000 1.200000 0.038000 0.045000
1517165158072546241	200 47 0.900000 0.060000 0.054000 1300 42 1.000000 1.799000 1.885000 600 53 1.000000 0.052000 0.052000 1.200000 0.039000 0.047000
1517165158608330491	200 48 0.900000 0.066000 0.060000 1300 42 1.000000 1.833000 1.919000 600 53 1.000000 0.052000 0.052000 1.200000 0.049000 0.059000
1517165159121502866	200 48 0.900000 0.064000 0.058000 1300 42 1.000000 1.857000 1.946000 600 53 1.000000 0.052000 0.052000 1.200000 0.045000 0.054000
1517165159638312824	200 47 0.900000 0.060000 0.054000 1300 42 1.000000 1.784000 1.867000 600 53 1.000000 0.052000 0.052000 1.200000 0.037000 0.044000
1517165160150925949	200 48 0.900000 0.060000 0.054000 1300 42 1.000000 1.792000 1.876000 600 53 1.000000 0.052000 0.052000 1.200000 0.041000 0.049000
1517165160660277866	200 48 0.900000 0.059000 0.053000 1300 42 1.000000 1.785000 1.868000 600 53 1.000000 0.052000 0.052000 1.200000 0.037000 0.044000
1517165161178295491	200 48 0.900000 0.066000 0.060000 1300 42 1.000000 1.914000 2.005000 600 53 1.000000 0.052000 0.052000 1.200000 0.054000 0.065000
1517165161690482324	200 48 0.900000 0.060000 0.054000 1300 42 1.000000 1.789000 1.873000 600 53 1.000000 0.052000 0.052000 1.200000 0.035000 0.042000
1517165162202777033	200 48 0.900000 0.060000 0.054000 1300 42 1.000000 1.787000 1.870000 600 53 1.000000 0.052000 0.052000 1.200000 0.038000 0.045000
1517165162717810199	200 47 0.900000 0.059000 0.053000 1300 42 1.000000 1.791000 1.876000 600 53 1.000000 0.052000 0.052000 1.200000 0.036000 0.043000
1517165163228340533	200 47 0.900000 0.066000 0.060000 1300 42 1.000000 1.803000 1.889000 600 53 1.000000 0.052000 0.052000 1.200000 0.045000 0.054000
1517165163747823075	200 48 0.900000 0.060000 0.054000 1300 42 1.000000 1.834000 1.920000 600 53 1.000000 0.052000 0.052000 1.200000 0.036000 0.043000
1517165164262540491	200 48 0.900000 0.058000 0.053000 1300 42 1.000000 1.779000 1.862000 600 53 1.000000 0.052000 0.052000 1.200000 0.036000 0.043000
1517165164775097366	200 48 0.900000 0.059000 0.053000 1300 42 1.000000 1.774000 1.857000 600 53 1.000000 0.052000 0.052000 1.200000 0.040000 0.048000
1517165165284462075	200 48 0.900000 0.061000 0.055000 1300 42 1.000000 1.790000 1.874000 600 53 1.000000 0.052000 0.052000 1.200000 0.037000 0.044000
1517165165795910158	200 48 0.900000 0.065000 0.059000 1300 42 1.000000 1.827000 1.914000 600 53 1.000000 0.052000 0.052000 1.200000 0.049000 0.059000
1517165166312387492	200 47 0.900000 0.063000 0.057000 1300 42 1.000000 1.832000 1.919000 600 53 1.000000 0.052000 0.052000 1.200000 0.040000 0.048000
1517165166825414075	200 48 0.900000 0.059000 0.053000 1300 42 1.000000 1.791000 1.875000 600 53 1.000000 0.052000 0.052000 1.200000 0.036000 0.043000
1517165167337217117	200 42 0.900000 0.060000 0.054000 1300 41 1.000000 1.786000 1.869000 600 47 1.000000 0.052000 0.052000 1.200000 0.034000 0.041000
1517165167847584867	200 41 0.900000 0.014000 0.012000 1300 40 1.000000 0.233000 0.244000 600 45 1.000000 0.052000 0.052000 1.200000 0.027000 0.032000
