#Timestamp	CPU(0) Frequency(MHz)	CPU(0) Temperature(C)	A7 Voltage(V)	A7 Current(A)	A7 Power(W)	CPU(4) Frequency(MHz)	CPU(4) Temperature(C)	A15 Voltage(V)	A15 Current(A)	A15 Power(W)	GPU Frequency(MHz)	GPU Temperature(C)	GPU Voltage(V)	GPU Current(A)	GPU Power(W)	RAM Voltage(V)	RAM Current(A)	RAM Power(W)
1559809824755462089	1300 39 1.200000 0.100000 0.122000 800 36 0.900000 0.251000 0.231000 600 41 1.000000 0.051000 0.051000 1.200000 0.050000 0.060000
1559809825263668256	1300 38 1.200000 0.081000 0.099000 800 36 0.900000 0.447000 0.409000 600 41 1.000000 0.051000 0.051000 1.200000 0.041000 0.049000
1559809825771735964	1300 38 1.200000 0.071000 0.086000 800 36 0.900000 0.445000 0.407000 600 40 1.000000 0.051000 0.051000 1.200000 0.041000 0.049000
1559809826279571631	1300 38 1.200000 0.075000 0.091000 800 35 0.900000 0.447000 0.410000 600 40 1.000000 0.051000 0.051000 1.200000 0.054000 0.065000
1559809826787463548	1300 38 1.200000 0.069000 0.084000 800 35 0.900000 0.419000 0.383000 600 39 1.000000 0.051000 0.051000 1.200000 0.026000 0.031000
1559809827295484506	1300 37 1.200000 0.091000 0.111000 800 35 0.900000 0.416000 0.380000 600 39 1.000000 0.051000 0.051000 1.200000 0.027000 0.032000
1559809827805174715	1300 37 1.200000 0.069000 0.084000 800 35 0.900000 0.412000 0.376000 600 39 1.000000 0.051000 0.051000 1.200000 0.027000 0.032000
1559809828313367048	1300 37 1.200000 0.129000 0.157000 800 34 0.900000 0.429000 0.395000 600 39 1.000000 0.051000 0.051000 1.200000 0.046000 0.055000
1559809828821325090	1300 37 1.200000 0.070000 0.085000 800 34 0.900000 0.413000 0.377000 600 38 1.000000 0.051000 0.051000 1.200000 0.027000 0.032000
1559809829329368798	1300 37 1.200000 0.085000 0.103000 800 34 0.900000 0.417000 0.381000 600 38 1.000000 0.051000 0.051000 1.200000 0.030000 0.036000
1559809829837234923	1300 36 1.200000 0.070000 0.085000 800 34 0.900000 0.413000 0.377000 600 38 1.000000 0.051000 0.051000 1.200000 0.027000 0.032000
1559809830345335548	1300 36 1.200000 0.124000 0.151000 800 34 0.900000 0.427000 0.391000 600 38 1.000000 0.051000 0.051000 1.200000 0.047000 0.056000
1559809830853185423	1300 36 1.200000 0.068000 0.083000 800 34 0.900000 0.415000 0.381000 600 38 1.000000 0.051000 0.051000 1.200000 0.026000 0.031000
1559809831361418715	1300 36 1.200000 0.089000 0.108000 800 33 0.900000 0.418000 0.383000 600 37 1.000000 0.050000 0.050000 1.200000 0.033000 0.039000
1559809831869423465	1300 36 1.200000 0.071000 0.086000 800 33 0.900000 0.417000 0.383000 600 37 1.000000 0.051000 0.051000 1.200000 0.027000 0.032000
1559809832377203049	1300 36 1.200000 0.085000 0.103000 800 33 0.900000 0.412000 0.376000 600 37 1.000000 0.051000 0.051000 1.200000 0.026000 0.031000
1559809832885175840	1300 36 1.200000 0.072000 0.088000 800 33 0.900000 0.410000 0.375000 600 37 1.000000 0.051000 0.051000 1.200000 0.029000 0.035000
1559809833393099507	1300 36 1.200000 0.085000 0.103000 800 33 0.900000 0.412000 0.376000 600 37 1.000000 0.051000 0.051000 1.200000 0.027000 0.032000
1559809833901129674	1300 35 1.200000 0.079000 0.096000 800 33 0.900000 0.412000 0.376000 600 37 1.000000 0.051000 0.051000 1.200000 0.028000 0.033000
1559809834409051049	1300 35 1.200000 0.070000 0.085000 800 33 0.900000 0.413000 0.377000 600 37 1.000000 0.051000 0.051000 1.200000 0.027000 0.032000
1559809834917178799	1300 35 1.200000 0.097000 0.118000 800 33 0.900000 0.414000 0.380000 600 37 1.000000 0.050000 0.050000 1.200000 0.026000 0.031000
1559809835425338049	1300 35 1.200000 0.068000 0.083000 800 33 0.900000 0.409000 0.374000 600 37 1.000000 0.051000 0.051000 1.200000 0.028000 0.033000
1559809835933162049	1300 35 1.200000 0.073000 0.089000 800 33 0.900000 0.412000 0.377000 600 36 1.000000 0.051000 0.051000 1.200000 0.027000 0.032000
1559809836442780049	1300 35 1.200000 0.068000 0.083000 800 33 0.900000 0.412000 0.376000 600 37 1.000000 0.050000 0.050000 1.200000 0.027000 0.032000
1559809836950795674	1300 35 1.200000 0.078000 0.095000 800 32 0.900000 0.415000 0.380000 600 36 1.000000 0.050000 0.050000 1.200000 0.030000 0.036000
1559809837458695716	1300 35 1.200000 0.090000 0.110000 800 32 0.900000 0.414000 0.380000 600 36 1.000000 0.051000 0.051000 1.200000 0.029000 0.035000
1559809837966596591	1300 35 1.200000 0.068000 0.083000 800 32 0.900000 0.410000 0.375000 600 36 1.000000 0.050000 0.050000 1.200000 0.026000 0.031000
1559809838474431508	1300 35 1.200000 0.068000 0.083000 800 32 0.900000 0.411000 0.376000 600 36 1.000000 0.051000 0.051000 1.200000 0.027000 0.032000
1559809838982358549	1300 35 1.200000 0.129000 0.157000 800 32 0.900000 0.424000 0.389000 600 36 1.000000 0.051000 0.051000 1.200000 0.039000 0.047000
1559809839490291049	1300 35 1.200000 0.069000 0.084000 800 32 0.900000 0.411000 0.376000 600 36 1.000000 0.051000 0.051000 1.200000 0.028000 0.033000
1559809839998208841	1300 35 1.200000 0.068000 0.083000 800 32 0.900000 0.410000 0.375000 600 36 1.000000 0.051000 0.051000 1.200000 0.027000 0.032000
1559809840506016716	1300 35 1.200000 0.070000 0.085000 800 32 0.900000 0.409000 0.374000 600 36 1.000000 0.050000 0.050000 1.200000 0.027000 0.032000
1559809841014008925	1300 35 1.200000 0.070000 0.085000 800 32 0.900000 0.419000 0.383000 600 36 1.000000 0.051000 0.051000 1.200000 0.036000 0.043000
1559809841522007800	1300 35 1.200000 0.071000 0.086000 800 32 0.900000 0.412000 0.376000 600 36 1.000000 0.050000 0.050000 1.200000 0.027000 0.032000
1559809842029864966	1300 35 1.200000 0.071000 0.086000 800 32 0.900000 0.411000 0.376000 600 36 1.000000 0.051000 0.051000 1.200000 0.027000 0.032000
1559809842537768341	1300 34 1.200000 0.070000 0.085000 800 32 0.900000 0.410000 0.375000 600 36 1.000000 0.051000 0.051000 1.200000 0.026000 0.031000
1559809843045732925	1300 35 1.200000 0.069000 0.084000 800 32 0.900000 0.413000 0.377000 600 36 1.000000 0.050000 0.050000 1.200000 0.031000 0.037000
1559809843553737425	1300 34 1.200000 0.068000 0.083000 800 32 0.900000 0.411000 0.376000 600 36 1.000000 0.051000 0.051000 1.200000 0.026000 0.031000
1559809844061670925	1300 34 1.200000 0.067000 0.081000 800 32 0.900000 0.412000 0.377000 600 36 1.000000 0.051000 0.051000 1.200000 0.026000 0.031000
1559809844569438467	1300 34 1.200000 0.067000 0.081000 800 32 0.900000 0.409000 0.374000 600 36 1.000000 0.051000 0.051000 1.200000 0.026000 0.031000
1559809845078048050	1300 34 1.200000 0.079000 0.096000 800 32 0.900000 0.410000 0.375000 600 36 1.000000 0.050000 0.050000 1.200000 0.026000 0.031000
1559809845586322842	1300 35 1.200000 0.116000 0.141000 800 32 0.900000 0.427000 0.394000 600 36 1.000000 0.050000 0.050000 1.200000 0.047000 0.056000
1559809846094172842	1300 34 1.200000 0.068000 0.083000 800 32 0.900000 0.415000 0.380000 600 36 1.000000 0.051000 0.051000 1.200000 0.031000 0.037000
1559809846602092425	1300 34 1.200000 0.073000 0.089000 800 32 0.900000 0.411000 0.376000 600 36 1.000000 0.050000 0.050000 1.200000 0.026000 0.031000
1559809847109943092	1300 34 1.200000 0.068000 0.083000 800 32 0.900000 0.411000 0.376000 600 35 1.000000 0.050000 0.050000 1.200000 0.028000 0.033000
1559809847617896842	1300 34 1.200000 0.101000 0.123000 800 32 0.900000 0.425000 0.389000 600 36 1.000000 0.051000 0.051000 1.200000 0.047000 0.056000
1559809848125769217	1300 34 1.200000 0.091000 0.111000 800 31 0.900000 0.411000 0.376000 600 35 1.000000 0.050000 0.050000 1.200000 0.026000 0.031000
1559809848633638467	1300 34 1.200000 0.073000 0.089000 800 31 0.900000 0.414000 0.380000 600 35 1.000000 0.050000 0.050000 1.200000 0.026000 0.031000
1559809849141479467	1300 34 1.200000 0.068000 0.083000 800 31 0.900000 0.410000 0.375000 600 35 1.000000 0.050000 0.050000 1.200000 0.026000 0.031000
1559809849649403509	1300 34 1.200000 0.116000 0.141000 800 32 0.900000 0.428000 0.394000 600 35 1.000000 0.051000 0.051000 1.200000 0.048000 0.058000
1559809850157140301	1300 34 1.200000 0.068000 0.083000 800 31 0.900000 0.410000 0.375000 600 35 1.000000 0.050000 0.050000 1.200000 0.026000 0.031000
1559809850664881342	1300 34 1.200000 0.067000 0.081000 800 31 0.900000 0.410000 0.375000 600 35 1.000000 0.050000 0.050000 1.200000 0.026000 0.031000
1559809851172798217	1300 34 1.200000 0.067000 0.081000 800 31 0.900000 0.412000 0.376000 600 35 1.000000 0.050000 0.050000 1.200000 0.025000 0.030000
1559809851680997509	1300 34 1.200000 0.124000 0.151000 800 31 0.900000 0.427000 0.392000 600 35 1.000000 0.050000 0.050000 1.200000 0.047000 0.056000
1559809852189062843	1300 34 1.200000 0.091000 0.111000 800 31 0.900000 0.415000 0.380000 600 35 1.000000 0.051000 0.051000 1.200000 0.033000 0.039000
1559809852696883134	1300 34 1.200000 0.071000 0.086000 800 31 0.900000 0.408000 0.373000 600 35 1.000000 0.050000 0.050000 1.200000 0.027000 0.032000
1559809853204797968	1300 34 1.200000 0.069000 0.084000 800 31 0.900000 0.411000 0.376000 600 35 1.000000 0.050000 0.050000 1.200000 0.027000 0.032000
1559809853716155009	1300 34 1.200000 0.070000 0.085000 800 31 0.900000 0.411000 0.376000 600 35 1.000000 0.050000 0.050000 1.200000 0.028000 0.033000
1559809854224366426	1300 34 1.200000 0.150000 0.183000 800 31 0.900000 0.412000 0.376000 600 35 1.000000 0.050000 0.050000 1.200000 0.033000 0.039000
1559809854732278010	1300 34 1.200000 0.068000 0.083000 800 31 0.900000 0.409000 0.374000 600 35 1.000000 0.050000 0.050000 1.200000 0.027000 0.032000
1559809855240096301	1300 34 1.200000 0.073000 0.089000 800 31 0.900000 0.409000 0.374000 600 35 1.000000 0.050000 0.050000 1.200000 0.026000 0.031000
1559809855747824176	1300 34 1.200000 0.068000 0.083000 800 31 0.900000 0.410000 0.375000 600 35 1.000000 0.050000 0.050000 1.200000 0.026000 0.031000
1559809856255776593	1300 34 1.200000 0.154000 0.187000 800 31 0.900000 0.414000 0.379000 600 35 1.000000 0.050000 0.050000 1.200000 0.034000 0.041000
1559809856763576968	1300 34 1.200000 0.068000 0.083000 800 31 0.900000 0.411000 0.376000 600 35 1.000000 0.051000 0.051000 1.200000 0.027000 0.032000
1559809857271361801	1300 34 1.200000 0.067000 0.081000 800 31 0.900000 0.409000 0.374000 600 35 1.000000 0.050000 0.050000 1.200000 0.026000 0.031000
1559809857779167718	1300 34 1.200000 0.067000 0.081000 800 31 0.900000 0.409000 0.374000 600 35 1.000000 0.051000 0.051000 1.200000 0.027000 0.032000
1559809858287098385	1300 34 1.200000 0.117000 0.142000 800 31 0.900000 0.421000 0.385000 600 35 1.000000 0.050000 0.050000 1.200000 0.038000 0.045000
1559809858794845385	1300 34 1.200000 0.068000 0.083000 800 31 0.900000 0.411000 0.376000 600 35 1.000000 0.050000 0.050000 1.200000 0.027000 0.032000
1559809859302652427	1300 34 1.200000 0.071000 0.086000 800 31 0.900000 0.408000 0.373000 600 35 1.000000 0.051000 0.051000 1.200000 0.028000 0.033000
1559809859810639510	1300 34 1.200000 0.068000 0.083000 800 31 0.900000 0.407000 0.372000 600 35 1.000000 0.050000 0.050000 1.200000 0.026000 0.031000
1559809860318579552	1300 34 1.200000 0.071000 0.086000 800 31 0.900000 0.408000 0.373000 600 35 1.000000 0.050000 0.050000 1.200000 0.028000 0.033000
1559809860826405260	1300 34 1.200000 0.102000 0.124000 800 31 0.900000 0.423000 0.387000 600 35 1.000000 0.050000 0.050000 1.200000 0.044000 0.053000
1559809861334253927	1300 34 1.200000 0.071000 0.086000 800 31 0.900000 0.411000 0.376000 600 35 1.000000 0.050000 0.050000 1.200000 0.026000 0.031000
1559809861842249177	1300 34 1.200000 0.070000 0.085000 800 31 0.900000 0.409000 0.374000 600 35 1.000000 0.050000 0.050000 1.200000 0.027000 0.032000
1559809862351926302	1300 34 1.200000 0.093000 0.113000 800 31 0.900000 0.410000 0.375000 600 35 1.000000 0.050000 0.050000 1.200000 0.028000 0.033000
1559809862859878052	1300 34 1.200000 0.089000 0.108000 800 31 0.900000 0.427000 0.393000 600 35 1.000000 0.050000 0.050000 1.200000 0.046000 0.055000
1559809863367743427	1300 34 1.200000 0.067000 0.081000 800 31 0.900000 0.410000 0.375000 600 35 1.000000 0.050000 0.050000 1.200000 0.027000 0.032000
1559809863875680469	1300 34 1.200000 0.067000 0.081000 800 31 0.900000 0.412000 0.378000 600 35 1.000000 0.051000 0.051000 1.200000 0.027000 0.032000
1559809864383687386	1300 34 1.200000 0.091000 0.111000 800 31 0.900000 0.414000 0.379000 600 35 1.000000 0.050000 0.050000 1.200000 0.033000 0.039000
1559809864891685177	1300 34 1.200000 0.068000 0.083000 800 31 0.900000 0.426000 0.391000 600 35 1.000000 0.050000 0.050000 1.200000 0.046000 0.055000
1559809865399505261	1300 34 1.200000 0.067000 0.081000 800 31 0.900000 0.409000 0.374000 600 35 1.000000 0.050000 0.050000 1.200000 0.028000 0.033000
1559809865907494261	1300 33 1.200000 0.067000 0.081000 800 31 0.900000 0.409000 0.374000 600 35 1.000000 0.051000 0.051000 1.200000 0.027000 0.032000
1559809866415397303	1300 34 1.200000 0.067000 0.081000 800 31 0.900000 0.410000 0.375000 600 35 1.000000 0.050000 0.050000 1.200000 0.027000 0.032000
1559809866923392928	1300 34 1.200000 0.073000 0.089000 800 31 0.900000 0.408000 0.373000 600 35 1.000000 0.050000 0.050000 1.200000 0.029000 0.035000
1559809867431398011	1300 34 1.200000 0.069000 0.084000 800 31 0.900000 0.407000 0.372000 600 35 1.000000 0.050000 0.050000 1.200000 0.027000 0.032000
1559809867939316219	1300 34 1.200000 0.072000 0.088000 800 31 0.900000 0.410000 0.375000 600 35 1.000000 0.050000 0.050000 1.200000 0.027000 0.032000
1559809868447254511	1300 34 1.200000 0.069000 0.084000 800 31 0.900000 0.410000 0.375000 600 35 1.000000 0.050000 0.050000 1.200000 0.028000 0.033000
1559809868955122803	1300 34 1.200000 0.071000 0.086000 800 31 0.900000 0.410000 0.375000 600 35 1.000000 0.050000 0.050000 1.200000 0.026000 0.031000
1559809869462867970	1300 34 1.200000 0.069000 0.084000 800 31 0.900000 0.409000 0.374000 600 35 1.000000 0.050000 0.050000 1.200000 0.031000 0.037000
1559809869970770970	1300 33 1.200000 0.068000 0.083000 800 31 0.900000 0.409000 0.374000 600 35 1.000000 0.050000 0.050000 1.200000 0.028000 0.033000
1559809870478575636	1300 33 1.200000 0.093000 0.113000 800 31 0.900000 0.413000 0.377000 600 35 1.000000 0.050000 0.050000 1.200000 0.027000 0.032000
1559809870987096095	1300 33 1.200000 0.067000 0.081000 800 31 0.900000 0.411000 0.376000 600 35 1.000000 0.050000 0.050000 1.200000 0.029000 0.035000
1559809871495206387	1300 33 1.200000 0.067000 0.081000 800 31 0.900000 0.415000 0.381000 600 35 1.000000 0.050000 0.050000 1.200000 0.035000 0.042000
1559809872003139428	1300 33 1.200000 0.070000 0.085000 800 31 0.900000 0.407000 0.372000 600 35 1.000000 0.050000 0.050000 1.200000 0.026000 0.031000
1559809872511013637	1300 33 1.200000 0.077000 0.094000 800 31 0.900000 0.412000 0.376000 600 35 1.000000 0.050000 0.050000 1.200000 0.031000 0.037000
1559809873018896178	1300 33 1.200000 0.084000 0.102000 800 31 0.900000 0.410000 0.375000 600 35 1.000000 0.050000 0.050000 1.200000 0.027000 0.032000
1559809873526844262	1300 33 1.200000 0.083000 0.101000 800 31 0.900000 0.418000 0.382000 600 35 1.000000 0.050000 0.050000 1.200000 0.038000 0.045000
1559809874034642220	1300 33 1.200000 0.069000 0.084000 800 31 0.900000 0.409000 0.374000 600 35 1.000000 0.050000 0.050000 1.200000 0.026000 0.031000
1559809874542636304	1300 33 1.200000 0.071000 0.086000 800 31 0.900000 0.407000 0.372000 600 34 1.000000 0.050000 0.050000 1.200000 0.027000 0.032000
1559809875050548887	1300 33 1.200000 0.068000 0.083000 800 30 0.900000 0.408000 0.373000 600 34 1.000000 0.050000 0.050000 1.200000 0.029000 0.035000
1559809875558570845	1300 33 1.200000 0.101000 0.123000 800 31 0.900000 0.414000 0.378000 600 35 1.000000 0.050000 0.050000 1.200000 0.030000 0.036000
1559809876066472679	1300 33 1.200000 0.067000 0.081000 800 31 0.900000 0.411000 0.376000 600 34 1.000000 0.050000 0.050000 1.200000 0.028000 0.033000
1559809876574405304	1300 33 1.200000 0.080000 0.097000 800 31 0.900000 0.409000 0.374000 600 35 1.000000 0.050000 0.050000 1.200000 0.026000 0.031000
1559809877082568804	1300 33 1.200000 0.072000 0.088000 800 31 0.900000 0.408000 0.373000 600 34 1.000000 0.050000 0.050000 1.200000 0.030000 0.036000
1559809877590548637	1300 33 1.200000 0.111000 0.135000 800 31 0.900000 0.411000 0.376000 600 35 1.000000 0.050000 0.050000 1.200000 0.027000 0.032000
1559809878098398971	1300 33 1.200000 0.067000 0.081000 800 30 0.900000 0.410000 0.375000 600 35 1.000000 0.050000 0.050000 1.200000 0.026000 0.031000
1559809878606353304	1300 33 1.200000 0.073000 0.089000 800 31 0.900000 0.412000 0.376000 600 34 1.000000 0.050000 0.050000 1.200000 0.027000 0.032000
1559809879114200137	1300 33 1.200000 0.068000 0.083000 800 30 0.900000 0.410000 0.377000 600 34 1.000000 0.050000 0.050000 1.200000 0.024000 0.028000
1559809879623359304	1300 33 1.200000 0.071000 0.086000 800 31 0.900000 0.412000 0.379000 600 34 1.000000 0.050000 0.050000 1.200000 0.027000 0.032000
1559809880131480179	1300 33 1.200000 0.128000 0.156000 800 30 0.900000 0.424000 0.390000 600 34 1.000000 0.050000 0.050000 1.200000 0.048000 0.058000
1559809880639412888	1300 33 1.200000 0.070000 0.085000 800 30 0.900000 0.411000 0.376000 600 34 1.000000 0.050000 0.050000 1.200000 0.026000 0.031000
1559809881147276721	1300 33 1.200000 0.077000 0.094000 800 30 0.900000 0.412000 0.378000 600 34 1.000000 0.051000 0.051000 1.200000 0.027000 0.032000
1559809881655099679	1300 33 1.200000 0.070000 0.085000 800 30 0.900000 0.409000 0.374000 600 34 1.000000 0.050000 0.050000 1.200000 0.026000 0.031000
1559809882162931846	1300 33 1.200000 0.127000 0.155000 800 30 0.900000 0.422000 0.386000 600 34 1.000000 0.050000 0.050000 1.200000 0.046000 0.055000
1559809882670870013	1300 33 1.200000 0.067000 0.081000 800 30 0.900000 0.408000 0.373000 600 34 1.000000 0.050000 0.050000 1.200000 0.028000 0.033000
1559809883178833180	1300 33 1.200000 0.067000 0.081000 800 30 0.900000 0.412000 0.378000 600 34 1.000000 0.050000 0.050000 1.200000 0.027000 0.032000
1559809883686645513	1300 33 1.200000 0.067000 0.081000 800 30 0.900000 0.411000 0.377000 600 34 1.000000 0.050000 0.050000 1.200000 0.025000 0.030000
1559809884194611721	1300 33 1.200000 0.123000 0.150000 800 30 0.900000 0.424000 0.390000 600 34 1.000000 0.050000 0.050000 1.200000 0.045000 0.054000
1559809884702563930	1300 33 1.200000 0.068000 0.083000 800 30 0.900000 0.409000 0.375000 600 34 1.000000 0.050000 0.050000 1.200000 0.026000 0.031000
1559809885210882471	1300 32 1.200000 0.073000 0.089000 800 30 0.900000 0.411000 0.376000 600 35 1.000000 0.050000 0.050000 1.200000 0.057000 0.069000
1559809885720649888	1300 34 1.200000 0.095000 0.116000 800 31 0.900000 1.230000 1.129000 600 38 1.000000 0.050000 0.050000 1.200000 0.080000 0.096000
1559809886230651180	1300 35 1.200000 0.173000 0.211000 800 32 0.900000 1.410000 1.297000 600 39 1.000000 0.050000 0.050000 1.200000 0.093000 0.112000
1559809886740496222	1300 36 1.200000 0.219000 0.266000 800 32 0.900000 1.421000 1.307000 600 40 1.000000 0.051000 0.051000 1.200000 0.091000 0.110000
1559809887250757305	1300 36 1.200000 0.193000 0.234000 800 33 0.900000 1.422000 1.308000 600 40 1.000000 0.050000 0.050000 1.200000 0.089000 0.107000
1559809887760721222	1300 37 1.200000 0.171000 0.208000 800 33 0.900000 1.425000 1.311000 600 41 1.000000 0.051000 0.051000 1.200000 0.085000 0.103000
1559809888272059264	1300 37 1.200000 0.170000 0.207000 800 33 0.900000 1.427000 1.312000 600 41 1.000000 0.051000 0.051000 1.200000 0.085000 0.103000
1559809888783505264	1300 37 1.200000 0.220000 0.267000 800 33 0.900000 1.417000 1.303000 600 41 1.000000 0.051000 0.051000 1.200000 0.096000 0.116000
1559809889293584014	1300 37 1.200000 0.176000 0.214000 800 34 0.900000 1.428000 1.313000 600 41 1.000000 0.051000 0.051000 1.200000 0.086000 0.104000
1559809889803444514	1300 37 1.200000 0.167000 0.203000 800 34 0.900000 1.427000 1.312000 600 42 1.000000 0.051000 0.051000 1.200000 0.084000 0.101000
1559809890313521222	1300 38 1.200000 0.167000 0.203000 800 34 0.900000 1.427000 1.312000 600 42 1.000000 0.051000 0.051000 1.200000 0.084000 0.101000
1559809890823748097	1300 38 1.200000 0.214000 0.261000 800 34 0.900000 1.409000 1.296000 600 42 1.000000 0.051000 0.051000 1.200000 0.099000 0.119000
1559809891333796681	1300 38 1.200000 0.194000 0.236000 800 34 0.900000 1.425000 1.311000 600 42 1.000000 0.051000 0.051000 1.200000 0.084000 0.101000
1559809891843925639	1300 38 1.200000 0.170000 0.207000 800 34 0.900000 1.429000 1.314000 600 42 1.000000 0.051000 0.051000 1.200000 0.084000 0.101000
1559809892354162431	1300 38 1.200000 0.172000 0.210000 800 34 0.900000 1.428000 1.313000 600 42 1.000000 0.051000 0.051000 1.200000 0.084000 0.101000
1559809892864247806	1300 38 1.200000 0.179000 0.218000 800 34 0.900000 1.410000 1.297000 600 42 1.000000 0.051000 0.051000 1.200000 0.096000 0.116000
1559809893374519431	1300 38 1.200000 0.175000 0.213000 800 34 0.900000 1.428000 1.313000 600 42 1.000000 0.051000 0.051000 1.200000 0.084000 0.101000
1559809893884449514	1300 38 1.200000 0.167000 0.203000 800 35 0.900000 1.429000 1.314000 600 43 1.000000 0.051000 0.051000 1.200000 0.084000 0.101000
1559809894394545264	1300 38 1.200000 0.169000 0.206000 800 34 0.900000 1.427000 1.312000 600 43 1.000000 0.051000 0.051000 1.200000 0.085000 0.103000
1559809894904955639	1300 38 1.200000 0.171000 0.208000 800 35 0.900000 1.426000 1.309000 600 43 1.000000 0.051000 0.051000 1.200000 0.085000 0.103000
1559809895414904848	1300 38 1.200000 0.241000 0.292000 800 35 0.900000 1.419000 1.305000 600 43 1.000000 0.051000 0.051000 1.200000 0.096000 0.116000
1559809895924966348	1300 38 1.200000 0.169000 0.206000 800 35 0.900000 1.429000 1.314000 600 43 1.000000 0.051000 0.051000 1.200000 0.085000 0.103000
1559809896434981098	1300 39 1.200000 0.168000 0.205000 800 35 0.900000 1.430000 1.315000 600 43 1.000000 0.051000 0.051000 1.200000 0.084000 0.101000
1559809896945016681	1300 38 1.200000 0.168000 0.205000 800 35 0.900000 1.427000 1.312000 600 43 1.000000 0.051000 0.051000 1.200000 0.084000 0.101000
1559809897455141973	1300 39 1.200000 0.192000 0.233000 800 35 0.900000 1.423000 1.309000 600 43 1.000000 0.051000 0.051000 1.200000 0.101000 0.122000
1559809897965126931	1300 39 1.200000 0.173000 0.211000 800 35 0.900000 1.429000 1.314000 600 43 1.000000 0.051000 0.051000 1.200000 0.084000 0.101000
1559809898475111806	1300 39 1.200000 0.171000 0.208000 800 35 0.900000 1.428000 1.313000 600 43 1.000000 0.051000 0.051000 1.200000 0.084000 0.101000
1559809898984971806	1300 39 1.200000 0.170000 0.207000 800 35 0.900000 1.429000 1.314000 600 43 1.000000 0.051000 0.051000 1.200000 0.084000 0.101000
1559809899495030223	1300 39 1.200000 0.210000 0.255000 800 35 0.900000 1.426000 1.311000 600 43 1.000000 0.051000 0.051000 1.200000 0.100000 0.121000
1559809900005071057	1300 39 1.200000 0.169000 0.206000 800 35 0.900000 1.428000 1.313000 600 43 1.000000 0.051000 0.051000 1.200000 0.084000 0.101000
1559809900515076182	1300 39 1.200000 0.168000 0.205000 800 35 0.900000 1.427000 1.312000 600 43 1.000000 0.051000 0.051000 1.200000 0.084000 0.101000
1559809901025063973	1300 39 1.200000 0.168000 0.205000 800 35 0.900000 1.431000 1.316000 600 43 1.000000 0.051000 0.051000 1.200000 0.084000 0.101000
1559809901535484223	1300 39 1.200000 0.208000 0.252000 800 35 0.900000 1.428000 1.313000 600 43 1.000000 0.051000 0.051000 1.200000 0.094000 0.113000
1559809902045710182	1300 39 1.200000 0.211000 0.256000 800 35 0.900000 1.410000 1.297000 600 43 1.000000 0.051000 0.051000 1.200000 0.088000 0.106000
1559809902555599849	1300 39 1.200000 0.172000 0.210000 800 35 0.900000 1.428000 1.313000 600 43 1.000000 0.051000 0.051000 1.200000 0.085000 0.103000
1559809903065571224	1300 39 1.200000 0.170000 0.207000 800 35 0.900000 1.429000 1.314000 600 43 1.000000 0.051000 0.051000 1.200000 0.086000 0.104000
1559809903576776390	1300 39 1.200000 0.193000 0.235000 800 35 0.900000 1.429000 1.314000 600 43 1.000000 0.051000 0.051000 1.200000 0.085000 0.102000
1559809904087027015	1300 39 1.200000 0.191000 0.232000 800 35 0.900000 1.418000 1.304000 600 43 1.000000 0.051000 0.051000 1.200000 0.089000 0.107000
1559809904596902599	1300 39 1.200000 0.170000 0.207000 800 35 0.900000 1.427000 1.312000 600 43 1.000000 0.051000 0.051000 1.200000 0.085000 0.103000
1559809905107051974	1300 39 1.200000 0.172000 0.210000 800 35 0.900000 1.428000 1.313000 600 43 1.000000 0.051000 0.051000 1.200000 0.085000 0.103000
1559809905616958766	1300 39 1.200000 0.172000 0.210000 800 35 0.900000 1.427000 1.312000 600 43 1.000000 0.051000 0.051000 1.200000 0.085000 0.103000
1559809906127017224	1300 39 1.200000 0.190000 0.231000 800 35 0.900000 1.426000 1.311000 600 43 1.000000 0.051000 0.051000 1.200000 0.085000 0.103000
1559809906637062182	1300 39 1.200000 0.173000 0.211000 800 35 0.900000 1.428000 1.313000 600 43 1.000000 0.051000 0.051000 1.200000 0.085000 0.102000
1559809907147135682	1300 39 1.200000 0.170000 0.207000 800 35 0.900000 1.428000 1.313000 600 43 1.000000 0.051000 0.051000 1.200000 0.086000 0.104000
1559809907657104516	1300 39 1.200000 0.191000 0.232000 800 35 0.900000 1.426000 1.311000 600 44 1.000000 0.051000 0.051000 1.200000 0.085000 0.102000
1559809908166986141	1300 39 1.200000 0.190000 0.231000 800 36 0.900000 1.430000 1.315000 600 43 1.000000 0.051000 0.051000 1.200000 0.085000 0.103000
1559809908676917724	1300 39 1.200000 0.169000 0.206000 800 35 0.900000 1.426000 1.311000 600 43 1.000000 0.051000 0.051000 1.200000 0.086000 0.104000
1559809909186924224	1300 39 1.200000 0.168000 0.205000 800 35 0.900000 1.430000 1.315000 600 44 1.000000 0.051000 0.051000 1.200000 0.084000 0.101000
1559809909697046058	1300 39 1.200000 0.172000 0.210000 800 36 0.900000 1.428000 1.313000 600 44 1.000000 0.051000 0.051000 1.200000 0.085000 0.102000
1559809910208622891	1300 39 1.200000 0.191000 0.232000 800 35 0.900000 1.431000 1.316000 600 44 1.000000 0.051000 0.051000 1.200000 0.086000 0.104000
1559809910718714683	1300 39 1.200000 0.196000 0.238000 800 36 0.900000 1.414000 1.298000 600 44 1.000000 0.051000 0.051000 1.200000 0.094000 0.113000
1559809911228646308	1300 39 1.200000 0.173000 0.211000 800 35 0.900000 1.428000 1.313000 600 44 1.000000 0.051000 0.051000 1.200000 0.086000 0.104000
1559809911738760308	1300 39 1.200000 0.170000 0.207000 800 36 0.900000 1.427000 1.312000 600 44 1.000000 0.051000 0.051000 1.200000 0.085000 0.103000
1559809912248689141	1300 39 1.200000 0.172000 0.210000 800 36 0.900000 1.428000 1.313000 600 44 1.000000 0.051000 0.051000 1.200000 0.085000 0.103000
1559809912758739350	1300 39 1.200000 0.197000 0.239000 800 36 0.900000 1.420000 1.306000 600 44 1.000000 0.051000 0.051000 1.200000 0.089000 0.107000
1559809913268679558	1300 39 1.200000 0.170000 0.207000 800 36 0.900000 1.430000 1.315000 600 44 1.000000 0.051000 0.051000 1.200000 0.085000 0.103000
1559809913778740475	1300 39 1.200000 0.169000 0.206000 800 36 0.900000 1.428000 1.313000 600 44 1.000000 0.051000 0.051000 1.200000 0.085000 0.103000
1559809914288645850	1300 39 1.200000 0.170000 0.207000 800 36 0.900000 1.428000 1.310000 600 44 1.000000 0.051000 0.051000 1.200000 0.085000 0.103000
1559809914798766517	1300 39 1.200000 0.196000 0.238000 800 36 0.900000 1.427000 1.309000 600 44 1.000000 0.051000 0.051000 1.200000 0.085000 0.103000
1559809915308678767	1300 39 1.200000 0.170000 0.207000 800 36 0.900000 1.430000 1.312000 600 44 1.000000 0.051000 0.051000 1.200000 0.085000 0.103000
1559809915818732808	1300 39 1.200000 0.193000 0.235000 800 36 0.900000 1.430000 1.312000 600 44 1.000000 0.051000 0.051000 1.200000 0.085000 0.103000
1559809916328762434	1300 39 1.200000 0.172000 0.209000 800 36 0.900000 1.431000 1.313000 600 44 1.000000 0.051000 0.051000 1.200000 0.085000 0.103000
1559809916839010059	1300 39 1.200000 0.174000 0.212000 800 36 0.900000 1.430000 1.315000 600 44 1.000000 0.051000 0.051000 1.200000 0.084000 0.101000
1559809917349523934	1300 39 1.200000 0.200000 0.243000 800 36 0.900000 1.411000 1.298000 600 44 1.000000 0.051000 0.051000 1.200000 0.097000 0.117000
1559809917859466559	1300 39 1.200000 0.172000 0.210000 800 36 0.900000 1.429000 1.314000 600 44 1.000000 0.051000 0.051000 1.200000 0.085000 0.103000
1559809918369590684	1300 39 1.200000 0.198000 0.241000 800 36 0.900000 1.428000 1.313000 600 44 1.000000 0.051000 0.051000 1.200000 0.088000 0.106000
1559809918879522017	1300 39 1.200000 0.171000 0.208000 800 36 0.900000 1.429000 1.314000 600 44 1.000000 0.051000 0.051000 1.200000 0.085000 0.102000
1559809919389534892	1300 39 1.200000 0.202000 0.245000 800 36 0.900000 1.415000 1.301000 600 44 1.000000 0.051000 0.051000 1.200000 0.091000 0.110000
1559809919899462101	1300 40 1.200000 0.173000 0.211000 800 36 0.900000 1.429000 1.314000 600 44 1.000000 0.051000 0.051000 1.200000 0.085000 0.103000
1559809920409465559	1300 39 1.200000 0.170000 0.207000 800 36 0.900000 1.429000 1.314000 600 44 1.000000 0.051000 0.051000 1.200000 0.086000 0.104000
1559809920919575809	1300 39 1.200000 0.170000 0.207000 800 36 0.900000 1.430000 1.312000 600 44 1.000000 0.051000 0.051000 1.200000 0.085000 0.102000
1559809921429582601	1300 39 1.200000 0.201000 0.244000 800 36 0.900000 1.423000 1.309000 600 44 1.000000 0.051000 0.051000 1.200000 0.087000 0.105000
1559809921939598184	1300 40 1.200000 0.169000 0.206000 800 36 0.900000 1.429000 1.311000 600 44 1.000000 0.051000 0.051000 1.200000 0.085000 0.102000
1559809922449540018	1300 39 1.200000 0.169000 0.206000 800 36 0.900000 1.430000 1.312000 600 44 1.000000 0.051000 0.051000 1.200000 0.084000 0.101000
1559809922959502393	1300 39 1.200000 0.172000 0.210000 800 36 0.900000 1.428000 1.310000 600 44 1.000000 0.051000 0.051000 1.200000 0.084000 0.101000
1559809923470026559	1300 40 1.200000 0.172000 0.210000 800 36 0.900000 1.431000 1.316000 600 44 1.000000 0.051000 0.051000 1.200000 0.084000 0.101000
1559809923981206518	1300 40 1.200000 0.198000 0.241000 800 36 0.900000 1.431000 1.316000 600 44 1.000000 0.051000 0.051000 1.200000 0.084000 0.101000
1559809924491172268	1300 39 1.200000 0.170000 0.207000 800 36 0.900000 1.430000 1.312000 600 44 1.000000 0.051000 0.051000 1.200000 0.084000 0.101000
1559809925001439060	1300 40 1.200000 0.172000 0.210000 800 36 0.900000 1.428000 1.310000 600 44 1.000000 0.051000 0.051000 1.200000 0.085000 0.103000
1559809925511372435	1300 40 1.200000 0.174000 0.212000 800 36 0.900000 1.430000 1.315000 600 44 1.000000 0.051000 0.051000 1.200000 0.085000 0.103000
1559809926021505810	1300 40 1.200000 0.204000 0.248000 800 36 0.900000 1.411000 1.295000 600 44 1.000000 0.051000 0.051000 1.200000 0.095000 0.115000
1559809926531475143	1300 40 1.200000 0.195000 0.237000 800 36 0.900000 1.425000 1.308000 600 44 1.000000 0.051000 0.051000 1.200000 0.089000 0.107000
1559809927041675601	1300 39 1.200000 0.174000 0.212000 800 36 0.900000 1.428000 1.313000 600 44 1.000000 0.051000 0.051000 1.200000 0.085000 0.102000
1559809927551595852	1300 40 1.200000 0.170000 0.207000 800 36 0.900000 1.429000 1.314000 600 44 1.000000 0.051000 0.051000 1.200000 0.085000 0.102000
1559809928060243977	1300 37 1.200000 0.194000 0.236000 800 35 0.900000 1.296000 1.192000 600 41 1.000000 0.051000 0.051000 1.200000 0.090000 0.109000
1559809928568292310	1300 35 1.200000 0.068000 0.083000 800 34 0.900000 0.083000 0.076000 600 39 1.000000 0.051000 0.051000 1.200000 0.023000 0.027000
