#Timestamp	CPU(0) Frequency(MHz)	CPU(0) Temperature(C)	A7 Voltage(V)	A7 Current(A)	A7 Power(W)	CPU(4) Frequency(MHz)	CPU(4) Temperature(C)	A15 Voltage(V)	A15 Current(A)	A15 Power(W)	GPU Frequency(MHz)	GPU Temperature(C)	GPU Voltage(V)	GPU Current(A)	GPU Power(W)	RAM Voltage(V)	RAM Current(A)	RAM Power(W)
1517164336777387851	1200 39 1.100000 0.111000 0.122000 500 39 0.900000 0.180000 0.174000 600 43 1.000000 0.052000 0.052000 1.200000 0.042000 0.050000
1517164337290576518	1200 40 1.100000 0.063000 0.074000 500 38 0.900000 0.240000 0.218000 600 43 1.000000 0.052000 0.052000 1.200000 0.052000 0.062000
1517164337806264226	1200 40 1.100000 0.061000 0.071000 500 38 0.900000 0.289000 0.263000 600 42 1.000000 0.051000 0.051000 1.200000 0.032000 0.038000
1517164338319160601	1200 39 1.100000 0.090000 0.105000 500 38 0.900000 0.354000 0.322000 600 42 1.000000 0.051000 0.051000 1.200000 0.034000 0.041000
1517164338832223018	1200 39 1.100000 0.061000 0.071000 500 38 0.900000 0.290000 0.264000 600 42 1.000000 0.051000 0.051000 1.200000 0.027000 0.032000
1517164339345106976	1200 39 1.100000 0.060000 0.070000 500 38 0.900000 0.289000 0.263000 600 42 1.000000 0.051000 0.051000 1.200000 0.030000 0.036000
1517164339857371393	1200 39 1.100000 0.062000 0.072000 500 37 0.900000 0.289000 0.263000 600 41 1.000000 0.051000 0.051000 1.200000 0.029000 0.035000
1517164340378236101	1200 39 1.100000 0.075000 0.088000 500 37 0.900000 0.301000 0.274000 600 42 1.000000 0.051000 0.051000 1.200000 0.034000 0.041000
1517164340891131101	1200 38 1.100000 0.066000 0.077000 500 37 0.900000 0.290000 0.264000 600 41 1.000000 0.051000 0.051000 1.200000 0.033000 0.039000
1517164341404143352	1200 38 1.100000 0.061000 0.071000 500 37 0.900000 0.281000 0.255000 600 41 1.000000 0.051000 0.051000 1.200000 0.029000 0.035000
1517164341918371602	1200 38 1.100000 0.060000 0.070000 500 37 0.900000 0.280000 0.255000 600 41 1.000000 0.051000 0.051000 1.200000 0.028000 0.033000
1517164342435408893	1200 38 1.100000 0.061000 0.071000 500 37 0.900000 0.294000 0.268000 600 41 1.000000 0.051000 0.051000 1.200000 0.035000 0.042000
1517164342948261977	1200 38 1.100000 0.066000 0.077000 500 37 0.900000 0.302000 0.275000 600 41 1.000000 0.051000 0.051000 1.200000 0.039000 0.047000
1517164343462465310	1200 39 1.100000 0.223000 0.260000 500 37 0.900000 0.396000 0.360000 600 42 1.000000 0.051000 0.051000 1.200000 0.033000 0.039000
1517164343980197393	1200 40 1.100000 0.428000 0.496000 500 38 0.900000 0.601000 0.546000 600 43 1.000000 0.051000 0.051000 1.200000 0.045000 0.054000
1517164344497696602	1200 41 1.100000 0.432000 0.501000 500 38 0.900000 0.605000 0.550000 600 43 1.000000 0.051000 0.051000 1.200000 0.035000 0.042000
1517164345011334352	1200 41 1.100000 0.437000 0.506000 500 39 0.900000 0.629000 0.572000 600 43 1.000000 0.051000 0.051000 1.200000 0.038000 0.045000
1517164345526608269	1200 41 1.100000 0.439000 0.509000 500 39 0.900000 0.615000 0.559000 600 43 1.000000 0.051000 0.051000 1.200000 0.045000 0.054000
1517164346042316477	1200 41 1.100000 0.421000 0.488000 500 39 0.900000 0.614000 0.558000 600 43 1.000000 0.051000 0.051000 1.200000 0.042000 0.050000
1517164346557100102	1200 41 1.100000 0.404000 0.468000 500 39 0.900000 0.646000 0.587000 600 43 1.000000 0.051000 0.051000 1.200000 0.042000 0.050000
1517164347070592519	1200 41 1.100000 0.430000 0.498000 500 39 0.900000 0.615000 0.559000 600 44 1.000000 0.051000 0.051000 1.200000 0.040000 0.048000
1517164347584070477	1200 41 1.100000 0.435000 0.504000 500 39 0.900000 0.621000 0.565000 600 44 1.000000 0.051000 0.051000 1.200000 0.048000 0.057000
1517164348097746144	1200 41 1.100000 0.415000 0.481000 500 39 0.900000 0.617000 0.561000 600 44 1.000000 0.051000 0.051000 1.200000 0.038000 0.045000
1517164348611445561	1200 41 1.100000 0.440000 0.509000 500 39 0.900000 0.640000 0.582000 600 44 1.000000 0.051000 0.051000 1.200000 0.044000 0.053000
1517164349127524561	1200 41 1.100000 0.434000 0.502000 500 39 0.900000 0.616000 0.560000 600 44 1.000000 0.051000 0.051000 1.200000 0.041000 0.049000
1517164349640911811	1200 41 1.100000 0.439000 0.508000 500 39 0.900000 0.641000 0.583000 600 44 1.000000 0.051000 0.051000 1.200000 0.054000 0.065000
1517164350154852019	1200 41 1.100000 0.435000 0.504000 500 39 0.900000 0.608000 0.553000 600 44 1.000000 0.051000 0.051000 1.200000 0.039000 0.047000
1517164350668361311	1200 42 1.100000 0.413000 0.479000 500 39 0.900000 0.640000 0.582000 600 44 1.000000 0.051000 0.051000 1.200000 0.044000 0.053000
1517164351182046311	1200 42 1.100000 0.433000 0.502000 500 39 0.900000 0.605000 0.551000 600 44 1.000000 0.051000 0.051000 1.200000 0.039000 0.047000
1517164351695495811	1200 42 1.100000 0.443000 0.513000 500 39 0.900000 0.695000 0.632000 600 44 1.000000 0.051000 0.051000 1.200000 0.053000 0.064000
1517164352209243061	1200 41 1.100000 0.436000 0.505000 500 39 0.900000 0.608000 0.553000 600 44 1.000000 0.051000 0.051000 1.200000 0.044000 0.053000
1517164352728611603	1200 42 1.100000 0.440000 0.509000 500 39 0.900000 0.634000 0.576000 600 44 1.000000 0.051000 0.051000 1.200000 0.045000 0.054000
1517164353243577645	1200 41 1.100000 0.403000 0.467000 500 39 0.900000 0.609000 0.554000 600 44 1.000000 0.051000 0.051000 1.200000 0.039000 0.047000
1517164353758379020	1200 42 1.100000 0.432000 0.501000 500 39 0.900000 0.641000 0.583000 600 44 1.000000 0.051000 0.051000 1.200000 0.040000 0.048000
1517164354271842770	1200 41 1.100000 0.431000 0.499000 500 39 0.900000 0.609000 0.554000 600 44 1.000000 0.051000 0.051000 1.200000 0.039000 0.047000
1517164354785270561	1200 41 1.100000 0.442000 0.511000 500 39 0.900000 0.639000 0.581000 600 44 1.000000 0.051000 0.051000 1.200000 0.043000 0.051000
1517164355299114020	1200 42 1.100000 0.433000 0.502000 500 39 0.900000 0.612000 0.556000 600 44 1.000000 0.051000 0.051000 1.200000 0.039000 0.047000
1517164355813454687	1200 42 1.100000 0.395000 0.458000 500 39 0.900000 0.613000 0.557000 600 44 1.000000 0.051000 0.051000 1.200000 0.044000 0.053000
1517164356327064020	1200 42 1.100000 0.441000 0.510000 500 39 0.900000 0.693000 0.630000 600 44 1.000000 0.051000 0.051000 1.200000 0.057000 0.068000
1517164356840779312	1200 42 1.100000 0.433000 0.502000 500 39 0.900000 0.631000 0.574000 600 44 1.000000 0.051000 0.051000 1.200000 0.040000 0.048000
1517164357354045937	1200 42 1.100000 0.432000 0.501000 500 39 0.900000 0.612000 0.556000 600 44 1.000000 0.051000 0.051000 1.200000 0.040000 0.048000
1517164357867707020	1200 42 1.100000 0.430000 0.498000 500 39 0.900000 0.609000 0.554000 600 44 1.000000 0.051000 0.051000 1.200000 0.041000 0.049000
1517164358381276604	1200 42 1.100000 0.429000 0.497000 500 39 0.900000 0.653000 0.594000 600 44 1.000000 0.051000 0.051000 1.200000 0.044000 0.053000
1517164358895081562	1200 42 1.100000 0.435000 0.503000 500 39 0.900000 0.640000 0.582000 600 44 1.000000 0.051000 0.051000 1.200000 0.040000 0.048000
1517164359408878312	1200 42 1.100000 0.411000 0.476000 500 39 0.900000 0.609000 0.554000 600 44 1.000000 0.051000 0.051000 1.200000 0.040000 0.048000
1517164359922776395	1200 42 1.100000 0.432000 0.501000 500 39 0.900000 0.605000 0.550000 600 44 1.000000 0.051000 0.051000 1.200000 0.040000 0.048000
1517164360437894395	1200 41 1.100000 0.436000 0.505000 500 39 0.900000 0.611000 0.556000 600 44 1.000000 0.051000 0.051000 1.200000 0.039000 0.047000
1517164360952097187	1200 42 1.100000 0.440000 0.509000 500 39 0.900000 0.636000 0.578000 600 44 1.000000 0.051000 0.051000 1.200000 0.044000 0.053000
1517164361465653104	1200 41 1.100000 0.434000 0.503000 500 39 0.900000 0.608000 0.553000 600 44 1.000000 0.051000 0.051000 1.200000 0.038000 0.045000
1517164361979479437	1200 42 1.100000 0.416000 0.482000 500 39 0.900000 0.608000 0.553000 600 44 1.000000 0.051000 0.051000 1.200000 0.039000 0.047000
1517164362499139521	1200 41 1.100000 0.433000 0.502000 500 39 0.900000 0.607000 0.552000 600 44 1.000000 0.051000 0.051000 1.200000 0.039000 0.047000
1517164363013639396	1200 41 1.100000 0.443000 0.512000 500 39 0.900000 0.664000 0.604000 600 44 1.000000 0.051000 0.051000 1.200000 0.056000 0.067000
1517164363527309854	1200 41 1.100000 0.428000 0.496000 500 39 0.900000 0.615000 0.559000 600 44 1.000000 0.051000 0.051000 1.200000 0.038000 0.045000
1517164364040848771	1200 41 1.100000 0.426000 0.494000 500 39 0.900000 0.617000 0.561000 600 44 1.000000 0.051000 0.051000 1.200000 0.038000 0.045000
1517164364554701146	1200 41 1.100000 0.428000 0.496000 500 39 0.900000 0.615000 0.559000 600 44 1.000000 0.051000 0.051000 1.200000 0.042000 0.050000
1517164365067865438	1200 42 1.100000 0.414000 0.480000 500 39 0.900000 0.607000 0.552000 600 44 1.000000 0.051000 0.051000 1.200000 0.042000 0.050000
1517164365581330396	1200 41 1.100000 0.450000 0.521000 500 39 0.900000 0.698000 0.635000 600 44 1.000000 0.051000 0.051000 1.200000 0.046000 0.055000
1517164366094997188	1200 41 1.100000 0.432000 0.501000 500 39 0.900000 0.614000 0.558000 600 44 1.000000 0.051000 0.051000 1.200000 0.039000 0.047000
1517164366608566480	1200 41 1.100000 0.430000 0.497000 500 39 0.900000 0.615000 0.559000 600 44 1.000000 0.051000 0.051000 1.200000 0.040000 0.048000
1517164367125124813	1200 42 1.100000 0.414000 0.480000 500 39 0.900000 0.613000 0.557000 600 44 1.000000 0.051000 0.051000 1.200000 0.040000 0.048000
1517164367638718605	1200 42 1.100000 0.454000 0.525000 500 39 0.900000 0.675000 0.614000 600 44 1.000000 0.051000 0.051000 1.200000 0.053000 0.064000
1517164368152500688	1200 42 1.100000 0.442000 0.511000 500 39 0.900000 0.626000 0.569000 600 44 1.000000 0.051000 0.051000 1.200000 0.040000 0.048000
1517164368666365188	1200 42 1.100000 0.445000 0.515000 500 39 0.900000 0.625000 0.568000 600 44 1.000000 0.051000 0.051000 1.200000 0.039000 0.047000
1517164369194019396	1200 42 1.100000 0.438000 0.507000 500 39 0.900000 0.629000 0.572000 600 44 1.000000 0.051000 0.051000 1.200000 0.038000 0.045000
1517164369707731730	1200 42 1.100000 0.437000 0.506000 500 39 0.900000 0.674000 0.613000 600 44 1.000000 0.051000 0.051000 1.200000 0.056000 0.067000
1517164370223076355	1200 42 1.100000 0.443000 0.513000 500 39 0.900000 0.627000 0.570000 600 44 1.000000 0.051000 0.051000 1.200000 0.039000 0.047000
1517164370743407563	1200 41 1.100000 0.438000 0.507000 500 39 0.900000 0.629000 0.572000 600 44 1.000000 0.052000 0.052000 1.200000 0.039000 0.047000
1517164371258157855	1200 41 1.100000 0.444000 0.514000 500 39 0.900000 0.631000 0.574000 600 43 1.000000 0.052000 0.052000 1.200000 0.038000 0.045000
1517164371771017605	1200 41 1.100000 0.453000 0.524000 500 39 0.900000 0.650000 0.591000 600 44 1.000000 0.051000 0.051000 1.200000 0.044000 0.053000
1517164372284446314	1200 41 1.100000 0.434000 0.503000 500 39 0.900000 0.638000 0.580000 600 44 1.000000 0.051000 0.051000 1.200000 0.039000 0.047000
1517164372798406605	1200 41 1.100000 0.439000 0.508000 500 39 0.900000 0.629000 0.572000 600 44 1.000000 0.051000 0.051000 1.200000 0.038000 0.045000
1517164373311897022	1200 41 1.100000 0.443000 0.512000 500 39 0.900000 0.626000 0.569000 600 44 1.000000 0.051000 0.051000 1.200000 0.042000 0.050000
1517164373825977564	1200 42 1.100000 0.450000 0.522000 500 39 0.900000 0.656000 0.596000 600 44 1.000000 0.052000 0.052000 1.200000 0.037000 0.044000
1517164374339548314	1200 42 1.100000 0.452000 0.523000 500 39 0.900000 0.673000 0.612000 600 44 1.000000 0.051000 0.051000 1.200000 0.042000 0.050000
1517164374853143481	1200 42 1.100000 0.426000 0.494000 500 39 0.900000 0.621000 0.565000 600 44 1.000000 0.052000 0.052000 1.200000 0.038000 0.045000
1517164375366827522	1200 41 1.100000 0.442000 0.512000 500 39 0.900000 0.621000 0.565000 600 44 1.000000 0.051000 0.051000 1.200000 0.038000 0.045000
1517164375880470897	1200 42 1.100000 0.459000 0.531000 500 39 0.900000 0.639000 0.581000 600 43 1.000000 0.051000 0.051000 1.200000 0.045000 0.054000
1517164376393731689	1200 42 1.100000 0.443000 0.512000 500 39 0.900000 0.628000 0.571000 600 44 1.000000 0.051000 0.051000 1.200000 0.049000 0.059000
1517164376909227814	1200 42 1.100000 0.443000 0.513000 500 39 0.900000 0.644000 0.586000 600 44 1.000000 0.051000 0.051000 1.200000 0.040000 0.048000
1517164377429958314	1200 41 1.100000 0.411000 0.476000 500 39 0.900000 0.625000 0.568000 600 43 1.000000 0.051000 0.051000 1.200000 0.041000 0.049000
1517164377944185314	1200 41 1.100000 0.443000 0.513000 500 39 0.900000 0.640000 0.582000 600 43 1.000000 0.051000 0.051000 1.200000 0.039000 0.047000
1517164378457700106	1200 41 1.100000 0.444000 0.515000 500 39 0.900000 0.626000 0.569000 600 44 1.000000 0.051000 0.051000 1.200000 0.038000 0.045000
1517164378971495314	1200 41 1.100000 0.456000 0.528000 500 39 0.900000 0.674000 0.613000 600 43 1.000000 0.051000 0.051000 1.200000 0.058000 0.070000
1517164379485079314	1200 41 1.100000 0.442000 0.512000 500 39 0.900000 0.628000 0.571000 600 44 1.000000 0.051000 0.051000 1.200000 0.039000 0.047000
1517164379998811856	1200 41 1.100000 0.432000 0.500000 500 39 0.900000 0.652000 0.593000 600 44 1.000000 0.051000 0.051000 1.200000 0.040000 0.048000
1517164380512702273	1200 41 1.100000 0.437000 0.506000 500 39 0.900000 0.627000 0.570000 600 44 1.000000 0.051000 0.051000 1.200000 0.040000 0.048000
1517164381026389940	1200 41 1.100000 0.451000 0.522000 500 39 0.900000 0.694000 0.631000 600 44 1.000000 0.051000 0.051000 1.200000 0.048000 0.058000
1517164381539971023	1200 41 1.100000 0.437000 0.506000 500 39 0.900000 0.630000 0.573000 600 44 1.000000 0.051000 0.051000 1.200000 0.040000 0.048000
1517164382053651023	1200 42 1.100000 0.429000 0.498000 500 39 0.900000 0.650000 0.591000 600 43 1.000000 0.051000 0.051000 1.200000 0.041000 0.049000
1517164382567443523	1200 41 1.100000 0.443000 0.513000 500 39 0.900000 0.617000 0.561000 600 44 1.000000 0.051000 0.051000 1.200000 0.041000 0.049000
1517164383080743606	1200 42 1.100000 0.452000 0.524000 500 39 0.900000 0.654000 0.595000 600 44 1.000000 0.051000 0.051000 1.200000 0.040000 0.048000
1517164383596059773	1200 41 1.100000 0.438000 0.508000 500 39 0.900000 0.619000 0.563000 600 43 1.000000 0.051000 0.051000 1.200000 0.039000 0.047000
1517164384115881565	1200 41 1.100000 0.441000 0.511000 500 39 0.900000 0.642000 0.584000 600 43 1.000000 0.051000 0.051000 1.200000 0.043000 0.052000
1517164384630591815	1200 41 1.100000 0.419000 0.486000 500 39 0.900000 0.617000 0.561000 600 43 1.000000 0.051000 0.051000 1.200000 0.042000 0.050000
1517164385144554023	1200 41 1.100000 0.439000 0.509000 500 39 0.900000 0.618000 0.562000 600 43 1.000000 0.051000 0.051000 1.200000 0.040000 0.048000
1517164385658038482	1200 41 1.100000 0.441000 0.511000 500 39 0.900000 0.615000 0.559000 600 43 1.000000 0.051000 0.051000 1.200000 0.046000 0.055000
1517164386172021982	1200 41 1.100000 0.433000 0.501000 500 39 0.900000 0.624000 0.567000 600 43 1.000000 0.051000 0.051000 1.200000 0.039000 0.047000
1517164386685551232	1200 41 1.100000 0.442000 0.512000 500 39 0.900000 0.626000 0.569000 600 43 1.000000 0.052000 0.052000 1.200000 0.042000 0.050000
1517164387199457940	1200 41 1.100000 0.414000 0.480000 500 39 0.900000 0.618000 0.562000 600 43 1.000000 0.051000 0.051000 1.200000 0.039000 0.047000
1517164387713121690	1200 41 1.100000 0.439000 0.508000 500 39 0.900000 0.658000 0.598000 600 44 1.000000 0.051000 0.051000 1.200000 0.041000 0.049000
1517164388226939649	1200 41 1.100000 0.442000 0.512000 500 39 0.900000 0.621000 0.565000 600 43 1.000000 0.051000 0.051000 1.200000 0.043000 0.052000
1517164388740528774	1200 41 1.100000 0.434000 0.503000 500 39 0.900000 0.618000 0.562000 600 43 1.000000 0.051000 0.051000 1.200000 0.041000 0.049000
1517164389254373274	1200 41 1.100000 0.424000 0.491000 500 39 0.900000 0.623000 0.566000 600 43 1.000000 0.052000 0.052000 1.200000 0.040000 0.048000
1517164389767614857	1200 41 1.100000 0.433000 0.502000 500 39 0.900000 0.619000 0.563000 600 43 1.000000 0.051000 0.051000 1.200000 0.040000 0.048000
1517164390283193899	1200 41 1.100000 0.440000 0.510000 500 39 0.900000 0.616000 0.560000 600 43 1.000000 0.051000 0.051000 1.200000 0.047000 0.056000
1517164390802122691	1200 41 1.100000 0.441000 0.511000 500 39 0.900000 0.614000 0.558000 600 43 1.000000 0.051000 0.051000 1.200000 0.040000 0.048000
1517164391317294607	1200 41 1.100000 0.433000 0.501000 500 39 0.900000 0.618000 0.562000 600 43 1.000000 0.051000 0.051000 1.200000 0.038000 0.045000
1517164391831491316	1200 41 1.100000 0.428000 0.496000 500 39 0.900000 0.615000 0.559000 600 43 1.000000 0.051000 0.051000 1.200000 0.044000 0.053000
1517164392345069733	1200 41 1.100000 0.444000 0.515000 500 39 0.900000 0.653000 0.594000 600 43 1.000000 0.051000 0.051000 1.200000 0.054000 0.065000
1517164392859121316	1200 41 1.100000 0.433000 0.501000 500 39 0.900000 0.613000 0.557000 600 43 1.000000 0.051000 0.051000 1.200000 0.039000 0.047000
1517164393372738774	1200 41 1.100000 0.437000 0.506000 500 39 0.900000 0.614000 0.558000 600 43 1.000000 0.051000 0.051000 1.200000 0.039000 0.047000
1517164393886393441	1200 41 1.100000 0.435000 0.504000 500 39 0.900000 0.610000 0.555000 600 43 1.000000 0.052000 0.052000 1.200000 0.037000 0.044000
1517164394399886025	1200 41 1.100000 0.439000 0.509000 500 39 0.900000 0.689000 0.626000 600 43 1.000000 0.051000 0.051000 1.200000 0.052000 0.062000
1517164394913373816	1200 41 1.100000 0.438000 0.508000 500 39 0.900000 0.613000 0.557000 600 43 1.000000 0.051000 0.051000 1.200000 0.039000 0.047000
1517164395427020233	1200 41 1.100000 0.434000 0.503000 500 39 0.900000 0.613000 0.557000 600 43 1.000000 0.051000 0.051000 1.200000 0.042000 0.050000
1517164395940947941	1200 41 1.100000 0.442000 0.512000 500 39 0.900000 0.622000 0.566000 600 43 1.000000 0.051000 0.051000 1.200000 0.042000 0.050000
1517164396458888525	1200 41 1.100000 0.436000 0.505000 500 39 0.900000 0.621000 0.565000 600 43 1.000000 0.051000 0.051000 1.200000 0.040000 0.048000
1517164396974251941	1200 41 1.100000 0.448000 0.519000 500 39 0.900000 0.643000 0.585000 600 43 1.000000 0.051000 0.051000 1.200000 0.059000 0.071000
1517164397494714025	1200 41 1.100000 0.417000 0.483000 500 39 0.900000 0.623000 0.566000 600 43 1.000000 0.051000 0.051000 1.200000 0.039000 0.047000
1517164398009650233	1200 41 1.100000 0.428000 0.496000 500 39 0.900000 0.616000 0.560000 600 43 1.000000 0.051000 0.051000 1.200000 0.038000 0.045000
1517164398522900483	1200 41 1.100000 0.438000 0.508000 500 39 0.900000 0.614000 0.558000 600 43 1.000000 0.051000 0.051000 1.200000 0.039000 0.047000
1517164399041877358	1200 41 1.100000 0.446000 0.516000 500 39 0.900000 0.690000 0.627000 600 43 1.000000 0.051000 0.051000 1.200000 0.057000 0.068000
1517164399555576025	1200 41 1.100000 0.414000 0.480000 500 39 0.900000 0.609000 0.554000 600 43 1.000000 0.051000 0.051000 1.200000 0.042000 0.050000
1517164400069154650	1200 41 1.100000 0.434000 0.503000 500 39 0.900000 0.614000 0.558000 600 43 1.000000 0.051000 0.051000 1.200000 0.040000 0.048000
1517164400586134984	1200 41 1.100000 0.432000 0.501000 500 39 0.900000 0.612000 0.556000 600 43 1.000000 0.051000 0.051000 1.200000 0.038000 0.045000
1517164401099323192	1200 41 1.100000 0.435000 0.504000 500 39 0.900000 0.642000 0.584000 600 43 1.000000 0.051000 0.051000 1.200000 0.045000 0.054000
1517164401612843984	1200 41 1.100000 0.420000 0.487000 500 39 0.900000 0.652000 0.593000 600 43 1.000000 0.051000 0.051000 1.200000 0.038000 0.045000
1517164402126716484	1200 41 1.100000 0.430000 0.497000 500 39 0.900000 0.610000 0.555000 600 43 1.000000 0.051000 0.051000 1.200000 0.038000 0.045000
1517164402655884775	1200 41 1.100000 0.420000 0.487000 500 39 0.900000 0.613000 0.557000 600 43 1.000000 0.051000 0.051000 1.200000 0.042000 0.050000
1517164403172461651	1200 41 1.100000 0.437000 0.506000 500 39 0.900000 0.646000 0.587000 600 43 1.000000 0.051000 0.051000 1.200000 0.042000 0.050000
1517164403692861401	1200 41 1.100000 0.443000 0.512000 500 39 0.900000 0.672000 0.608000 600 43 1.000000 0.051000 0.051000 1.200000 0.046000 0.055000
1517164404206856192	1200 41 1.100000 0.414000 0.480000 500 39 0.900000 0.605000 0.545000 600 43 1.000000 0.051000 0.051000 1.200000 0.037000 0.044000
1517164404720716526	1200 41 1.100000 0.427000 0.495000 500 39 0.900000 0.608000 0.548000 600 43 1.000000 0.051000 0.051000 1.200000 0.038000 0.045000
1517164405234551359	1200 41 1.100000 0.433000 0.502000 500 39 0.900000 0.628000 0.566000 600 43 1.000000 0.051000 0.051000 1.200000 0.040000 0.048000
1517164405748073693	1200 41 1.100000 0.430000 0.498000 500 39 0.900000 0.664000 0.599000 600 43 1.000000 0.051000 0.051000 1.200000 0.052000 0.062000
1517164406261839276	1200 41 1.100000 0.432000 0.501000 500 39 0.900000 0.606000 0.546000 600 43 1.000000 0.051000 0.051000 1.200000 0.042000 0.050000
1517164406775601943	1200 41 1.100000 0.391000 0.453000 500 39 0.900000 0.607000 0.547000 600 43 1.000000 0.051000 0.051000 1.200000 0.039000 0.047000
1517164407289349651	1200 41 1.100000 0.421000 0.488000 500 39 0.900000 0.634000 0.571000 600 43 1.000000 0.051000 0.051000 1.200000 0.038000 0.045000
1517164407802775109	1200 41 1.100000 0.418000 0.484000 500 39 0.900000 0.604000 0.544000 600 43 1.000000 0.051000 0.051000 1.200000 0.040000 0.048000
1517164408316532901	1200 41 1.100000 0.432000 0.501000 500 39 0.900000 0.672000 0.606000 600 43 1.000000 0.051000 0.051000 1.200000 0.041000 0.049000
1517164408830346360	1200 41 1.100000 0.418000 0.484000 500 39 0.900000 0.605000 0.545000 600 43 1.000000 0.051000 0.051000 1.200000 0.039000 0.047000
1517164409345658610	1200 41 1.100000 0.414000 0.480000 500 39 0.900000 0.603000 0.543000 600 43 1.000000 0.051000 0.051000 1.200000 0.046000 0.055000
1517164409862892110	1200 41 1.100000 0.424000 0.491000 500 39 0.900000 0.606000 0.546000 600 43 1.000000 0.051000 0.051000 1.200000 0.039000 0.047000
1517164410382481943	1200 41 1.100000 0.431000 0.499000 500 39 0.900000 0.657000 0.592000 600 43 1.000000 0.051000 0.051000 1.200000 0.053000 0.064000
1517164410896128901	1200 41 1.100000 0.428000 0.496000 500 39 0.900000 0.610000 0.550000 600 43 1.000000 0.051000 0.051000 1.200000 0.038000 0.045000
1517164411409842485	1200 41 1.100000 0.439000 0.508000 500 39 0.900000 0.612000 0.552000 600 43 1.000000 0.051000 0.051000 1.200000 0.044000 0.053000
1517164411923599402	1200 41 1.100000 0.401000 0.465000 500 39 0.900000 0.604000 0.544000 600 43 1.000000 0.051000 0.051000 1.200000 0.039000 0.047000
1517164412437409610	1200 41 1.100000 0.434000 0.503000 500 39 0.900000 0.624000 0.562000 600 43 1.000000 0.051000 0.051000 1.200000 0.053000 0.064000
1517164412951185652	1200 41 1.100000 0.423000 0.490000 500 39 0.900000 0.603000 0.543000 600 43 1.000000 0.051000 0.051000 1.200000 0.038000 0.045000
1517164413464791777	1200 41 1.100000 0.442000 0.512000 500 39 0.900000 0.631000 0.569000 600 43 1.000000 0.051000 0.051000 1.200000 0.043000 0.052000
1517164413978743694	1200 41 1.100000 0.412000 0.477000 500 39 0.900000 0.607000 0.547000 600 43 1.000000 0.051000 0.051000 1.200000 0.041000 0.049000
1517164414493281402	1200 41 1.100000 0.423000 0.490000 500 39 0.900000 0.602000 0.543000 600 43 1.000000 0.051000 0.051000 1.200000 0.044000 0.053000
1517164415007657110	1200 41 1.100000 0.421000 0.488000 500 39 0.900000 0.614000 0.553000 600 43 1.000000 0.051000 0.051000 1.200000 0.039000 0.047000
1517164415521347777	1200 41 1.100000 0.430000 0.498000 500 39 0.900000 0.633000 0.570000 600 43 1.000000 0.051000 0.051000 1.200000 0.044000 0.053000
1517164416036985777	1200 41 1.100000 0.430000 0.498000 500 39 0.900000 0.602000 0.543000 600 43 1.000000 0.051000 0.051000 1.200000 0.037000 0.044000
1517164416557567652	1200 41 1.100000 0.400000 0.464000 500 39 0.900000 0.599000 0.540000 600 43 1.000000 0.051000 0.051000 1.200000 0.038000 0.045000
1517164417074010902	1200 41 1.100000 0.431000 0.499000 500 39 0.900000 0.648000 0.585000 600 43 1.000000 0.051000 0.051000 1.200000 0.040000 0.048000
1517164417587755736	1200 41 1.100000 0.429000 0.497000 500 39 0.900000 0.625000 0.563000 600 43 1.000000 0.051000 0.051000 1.200000 0.044000 0.053000
1517164418099269319	1200 41 1.100000 0.424000 0.491000 500 39 0.900000 0.603000 0.543000 600 43 1.000000 0.051000 0.051000 1.200000 0.040000 0.048000
1517164418610468944	1200 41 1.100000 0.419000 0.486000 500 39 0.900000 0.598000 0.539000 600 43 1.000000 0.051000 0.051000 1.200000 0.038000 0.045000
1517164419123782027	1200 41 1.100000 0.404000 0.468000 500 39 0.900000 0.601000 0.542000 600 43 1.000000 0.052000 0.052000 1.200000 0.038000 0.045000
1517164419637573611	1200 41 1.100000 0.421000 0.488000 500 39 0.900000 0.612000 0.552000 600 43 1.000000 0.051000 0.051000 1.200000 0.051000 0.061000
1517164420151463028	1200 41 1.100000 0.419000 0.486000 500 39 0.900000 0.605000 0.545000 600 43 1.000000 0.052000 0.052000 1.200000 0.041000 0.049000
1517164420665209153	1200 41 1.100000 0.432000 0.501000 500 39 0.900000 0.610000 0.550000 600 43 1.000000 0.051000 0.051000 1.200000 0.039000 0.047000
1517164421179397361	1200 41 1.100000 0.412000 0.477000 500 39 0.900000 0.606000 0.546000 600 43 1.000000 0.051000 0.051000 1.200000 0.043000 0.051000
1517164421692560819	1200 41 1.100000 0.424000 0.491000 500 39 0.900000 0.634000 0.571000 600 43 1.000000 0.051000 0.051000 1.200000 0.058000 0.070000
1517164422206386778	1200 41 1.100000 0.422000 0.489000 500 39 0.900000 0.606000 0.546000 600 43 1.000000 0.051000 0.051000 1.200000 0.041000 0.049000
1517164422722330111	1200 41 1.100000 0.423000 0.490000 500 39 0.900000 0.606000 0.546000 600 43 1.000000 0.051000 0.051000 1.200000 0.039000 0.047000
1517164423241996611	1200 41 1.100000 0.424000 0.491000 500 39 0.900000 0.597000 0.538000 600 43 1.000000 0.051000 0.051000 1.200000 0.039000 0.047000
1517164423759949778	1200 41 1.100000 0.428000 0.496000 500 39 0.900000 0.667000 0.601000 600 43 1.000000 0.051000 0.051000 1.200000 0.051000 0.061000
1517164424273559653	1200 41 1.100000 0.407000 0.472000 500 38 0.900000 0.597000 0.538000 600 43 1.000000 0.051000 0.051000 1.200000 0.038000 0.045000
1517164424787509153	1200 41 1.100000 0.421000 0.488000 500 38 0.900000 0.598000 0.539000 600 43 1.000000 0.051000 0.051000 1.200000 0.043000 0.051000
1517164425301239695	1200 41 1.100000 0.421000 0.488000 500 38 0.900000 0.598000 0.539000 600 43 1.000000 0.051000 0.051000 1.200000 0.041000 0.049000
1517164425814770487	1200 41 1.100000 0.430000 0.498000 500 39 0.900000 0.644000 0.580000 600 43 1.000000 0.051000 0.051000 1.200000 0.042000 0.050000
1517164426328478153	1200 41 1.100000 0.399000 0.462000 500 39 0.900000 0.599000 0.540000 600 43 1.000000 0.051000 0.051000 1.200000 0.038000 0.045000
1517164426842369528	1200 41 1.100000 0.423000 0.490000 500 39 0.900000 0.596000 0.537000 600 43 1.000000 0.051000 0.051000 1.200000 0.039000 0.047000
1517164427356164862	1200 41 1.100000 0.423000 0.490000 500 39 0.900000 0.597000 0.538000 600 43 1.000000 0.051000 0.051000 1.200000 0.039000 0.047000
1517164427870146112	1200 41 1.100000 0.427000 0.495000 500 39 0.900000 0.600000 0.541000 600 43 1.000000 0.051000 0.051000 1.200000 0.037000 0.044000
1517164428384451320	1200 41 1.100000 0.438000 0.507000 500 39 0.900000 0.675000 0.608000 600 43 1.000000 0.051000 0.051000 1.200000 0.053000 0.064000
1517164428898459737	1200 41 1.100000 0.424000 0.491000 500 39 0.900000 0.606000 0.546000 600 43 1.000000 0.051000 0.051000 1.200000 0.043000 0.052000
1517164429413608154	1200 41 1.100000 0.406000 0.470000 500 39 0.900000 0.614000 0.553000 600 43 1.000000 0.051000 0.051000 1.200000 0.040000 0.048000
1517164429932430570	1200 41 1.100000 0.422000 0.489000 500 38 0.900000 0.606000 0.546000 600 43 1.000000 0.052000 0.052000 1.200000 0.040000 0.048000
1517164430448784320	1200 40 1.100000 0.435000 0.504000 500 39 0.900000 0.661000 0.596000 600 43 1.000000 0.051000 0.051000 1.200000 0.045000 0.054000
1517164430962597404	1200 41 1.100000 0.420000 0.487000 500 38 0.900000 0.603000 0.543000 600 43 1.000000 0.051000 0.051000 1.200000 0.039000 0.047000
1517164431476093904	1200 41 1.100000 0.404000 0.469000 500 39 0.900000 0.600000 0.541000 600 43 1.000000 0.051000 0.051000 1.200000 0.040000 0.048000
1517164431990049654	1200 41 1.100000 0.424000 0.491000 500 38 0.900000 0.598000 0.539000 600 43 1.000000 0.052000 0.052000 1.200000 0.040000 0.048000
1517164432503726404	1200 41 1.100000 0.428000 0.496000 500 39 0.900000 0.598000 0.539000 600 43 1.000000 0.051000 0.051000 1.200000 0.047000 0.056000
1517164433017186946	1200 41 1.100000 0.426000 0.494000 500 38 0.900000 0.599000 0.540000 600 43 1.000000 0.051000 0.051000 1.200000 0.047000 0.056000
1517164433530923654	1200 41 1.100000 0.410000 0.475000 500 39 0.900000 0.598000 0.539000 600 43 1.000000 0.051000 0.051000 1.200000 0.040000 0.048000
1517164434044469821	1200 41 1.100000 0.404000 0.469000 500 39 0.900000 0.600000 0.541000 600 43 1.000000 0.051000 0.051000 1.200000 0.039000 0.047000
1517164434559829071	1200 41 1.100000 0.429000 0.497000 500 39 0.900000 0.597000 0.538000 600 43 1.000000 0.051000 0.051000 1.200000 0.043000 0.052000
1517164435073355029	1200 41 1.100000 0.434000 0.503000 500 39 0.900000 0.636000 0.573000 600 43 1.000000 0.051000 0.051000 1.200000 0.055000 0.066000
1517164435587173946	1200 41 1.100000 0.423000 0.490000 500 39 0.900000 0.598000 0.539000 600 43 1.000000 0.051000 0.051000 1.200000 0.038000 0.045000
1517164436102112113	1200 41 1.100000 0.419000 0.486000 500 39 0.900000 0.601000 0.542000 600 43 1.000000 0.051000 0.051000 1.200000 0.041000 0.049000
1517164436622617488	1200 41 1.100000 0.429000 0.497000 500 39 0.900000 0.598000 0.539000 600 43 1.000000 0.051000 0.051000 1.200000 0.044000 0.053000
1517164437137435030	1200 40 1.100000 0.432000 0.501000 500 38 0.900000 0.666000 0.601000 600 43 1.000000 0.051000 0.051000 1.200000 0.050000 0.060000
1517164437650976113	1200 41 1.100000 0.422000 0.489000 500 38 0.900000 0.600000 0.541000 600 43 1.000000 0.051000 0.051000 1.200000 0.039000 0.047000
1517164438164864613	1200 41 1.100000 0.424000 0.491000 500 38 0.900000 0.597000 0.538000 600 43 1.000000 0.051000 0.051000 1.200000 0.037000 0.044000
1517164438678773113	1200 41 1.100000 0.421000 0.488000 500 38 0.900000 0.640000 0.577000 600 43 1.000000 0.051000 0.051000 1.200000 0.042000 0.050000
1517164439193300988	1200 41 1.100000 0.424000 0.491000 500 38 0.900000 0.598000 0.539000 600 43 1.000000 0.051000 0.051000 1.200000 0.039000 0.047000
1517164439706830905	1200 41 1.100000 0.423000 0.490000 500 39 0.900000 0.656000 0.591000 600 43 1.000000 0.051000 0.051000 1.200000 0.057000 0.068000
1517164440220478988	1200 41 1.100000 0.427000 0.495000 500 39 0.900000 0.604000 0.544000 600 43 1.000000 0.051000 0.051000 1.200000 0.042000 0.050000
1517164440734336530	1200 41 1.100000 0.421000 0.488000 500 39 0.900000 0.604000 0.544000 600 43 1.000000 0.051000 0.051000 1.200000 0.042000 0.050000
1517164441248071655	1200 41 1.100000 0.416000 0.482000 500 38 0.900000 0.604000 0.544000 600 43 1.000000 0.051000 0.051000 1.200000 0.039000 0.047000
1517164441761775197	1200 41 1.100000 0.432000 0.501000 500 39 0.900000 0.611000 0.551000 600 43 1.000000 0.051000 0.051000 1.200000 0.052000 0.062000
1517164442275560822	1200 41 1.100000 0.423000 0.490000 500 39 0.900000 0.603000 0.544000 600 43 1.000000 0.051000 0.051000 1.200000 0.039000 0.047000
1517164442788640030	1200 37 1.100000 0.210000 0.245000 500 37 0.900000 0.408000 0.370000 600 41 1.000000 0.051000 0.051000 1.200000 0.031000 0.037000
1517164443301257739	1200 37 1.100000 0.061000 0.071000 500 36 0.900000 0.074000 0.067000 600 40 1.000000 0.051000 0.051000 1.200000 0.023000 0.027000
