#Timestamp	CPU(0) Frequency(MHz)	CPU(0) Temperature(C)	A7 Voltage(V)	A7 Current(A)	A7 Power(W)	CPU(4) Frequency(MHz)	CPU(4) Temperature(C)	A15 Voltage(V)	A15 Current(A)	A15 Power(W)	GPU Frequency(MHz)	GPU Temperature(C)	GPU Voltage(V)	GPU Current(A)	GPU Power(W)	RAM Voltage(V)	RAM Current(A)	RAM Power(W)
1560114309944783595	1300 44 1.200000 0.151000 0.181000 1400 41 1.100000 0.337000 0.383000 600 45 1.000000 0.052000 0.052000 1.200000 0.043000 0.052000
1560114310451912970	1300 44 1.200000 0.071000 0.086000 1400 41 1.000000 0.732000 0.781000 600 45 1.000000 0.052000 0.052000 1.200000 0.037000 0.044000
1560114310958762387	1300 44 1.200000 0.071000 0.086000 1400 40 1.000000 0.720000 0.768000 600 45 1.000000 0.052000 0.052000 1.200000 0.037000 0.044000
1560114311466464179	1300 44 1.200000 0.071000 0.086000 1400 40 1.000000 0.737000 0.787000 600 45 1.000000 0.052000 0.052000 1.200000 0.036000 0.043000
1560114311972694054	1300 49 1.200000 0.148000 0.180000 1400 42 1.000000 0.931000 0.996000 600 46 1.000000 0.052000 0.052000 1.200000 0.051000 0.061000
1560114312478753262	1300 50 1.200000 0.462000 0.557000 1400 43 1.000000 1.608000 1.723000 600 46 1.000000 0.052000 0.052000 1.200000 0.024000 0.028000
1560114312984661304	1300 51 1.200000 0.462000 0.557000 1400 44 1.000000 1.605000 1.720000 600 47 1.000000 0.052000 0.052000 1.200000 0.026000 0.031000
1560114313491068513	1300 51 1.200000 0.463000 0.558000 1400 44 1.000000 1.617000 1.733000 600 47 1.000000 0.052000 0.052000 1.200000 0.025000 0.030000
1560114313997008013	1300 52 1.200000 0.462000 0.557000 1400 44 1.000000 1.758000 1.886000 600 48 1.000000 0.052000 0.052000 1.200000 0.033000 0.039000
1560114314502991846	1300 52 1.200000 0.463000 0.558000 1400 45 1.000000 1.620000 1.736000 600 48 1.000000 0.052000 0.052000 1.200000 0.025000 0.030000
1560114315008908013	1300 52 1.200000 0.464000 0.560000 1400 45 1.000000 1.595000 1.709000 600 48 1.000000 0.052000 0.052000 1.200000 0.025000 0.030000
1560114315515083846	1300 52 1.200000 0.463000 0.558000 1400 45 1.000000 1.625000 1.742000 600 48 1.000000 0.052000 0.052000 1.200000 0.025000 0.030000
1560114316021012971	1300 52 1.200000 0.473000 0.570000 1400 45 1.000000 1.764000 1.892000 600 49 1.000000 0.052000 0.052000 1.200000 0.031000 0.037000
1560114316527024388	1300 52 1.200000 0.464000 0.560000 1400 45 1.000000 1.724000 1.848000 600 48 1.000000 0.053000 0.053000 1.200000 0.026000 0.031000
1560114317032883513	1300 52 1.200000 0.463000 0.558000 1400 45 1.000000 1.599000 1.714000 600 48 1.000000 0.052000 0.052000 1.200000 0.026000 0.031000
1560114317538942430	1300 52 1.200000 0.464000 0.560000 1400 45 1.000000 1.622000 1.738000 600 49 1.000000 0.053000 0.053000 1.200000 0.025000 0.030000
1560114318044801555	1300 53 1.200000 0.464000 0.560000 1400 45 1.000000 1.705000 1.829000 600 49 1.000000 0.053000 0.053000 1.200000 0.030000 0.036000
1560114318551767971	1300 53 1.200000 0.467000 0.563000 1400 45 1.000000 1.689000 1.810000 600 49 1.000000 0.052000 0.052000 1.200000 0.026000 0.031000
1560114319057665972	1300 53 1.200000 0.465000 0.561000 1400 45 1.000000 1.619000 1.735000 600 49 1.000000 0.052000 0.052000 1.200000 0.026000 0.031000
1560114319563534680	1300 53 1.200000 0.464000 0.560000 1400 45 1.000000 1.620000 1.736000 600 49 1.000000 0.053000 0.053000 1.200000 0.025000 0.030000
1560114320069613388	1300 53 1.200000 0.464000 0.560000 1400 46 1.000000 1.716000 1.839000 600 50 1.000000 0.052000 0.052000 1.200000 0.027000 0.032000
1560114320575709347	1300 53 1.200000 0.465000 0.561000 1400 46 1.000000 1.663000 1.782000 600 49 1.000000 0.053000 0.053000 1.200000 0.025000 0.030000
1560114321081649805	1300 53 1.200000 0.465000 0.561000 1400 45 1.000000 1.590000 1.704000 600 49 1.000000 0.053000 0.053000 1.200000 0.025000 0.030000
1560114321587524222	1300 53 1.200000 0.464000 0.560000 1400 46 1.000000 1.599000 1.714000 600 49 1.000000 0.052000 0.052000 1.200000 0.025000 0.030000
1560114322093828222	1300 53 1.200000 0.465000 0.561000 1400 46 1.000000 1.701000 1.823000 600 49 1.000000 0.053000 0.053000 1.200000 0.025000 0.030000
1560114322599896847	1300 53 1.200000 0.466000 0.562000 1400 46 1.000000 1.792000 1.922000 600 49 1.000000 0.053000 0.053000 1.200000 0.032000 0.038000
1560114323105920305	1300 53 1.200000 0.465000 0.561000 1400 46 1.000000 1.621000 1.737000 600 49 1.000000 0.053000 0.053000 1.200000 0.025000 0.030000
1560114323611898805	1300 53 1.200000 0.463000 0.558000 1400 46 1.000000 1.595000 1.709000 600 49 1.000000 0.052000 0.052000 1.200000 0.026000 0.031000
1560114324118000847	1300 53 1.200000 0.464000 0.560000 1400 46 1.000000 1.716000 1.839000 600 49 1.000000 0.053000 0.053000 1.200000 0.028000 0.033000
1560114324624090514	1300 53 1.200000 0.466000 0.562000 1400 46 1.000000 1.798000 1.929000 600 49 1.000000 0.053000 0.053000 1.200000 0.034000 0.041000
1560114325129974222	1300 53 1.200000 0.464000 0.560000 1400 46 1.000000 1.631000 1.748000 600 49 1.000000 0.053000 0.053000 1.200000 0.024000 0.028000
1560114325635853847	1300 53 1.200000 0.464000 0.560000 1400 46 1.000000 1.605000 1.720000 600 49 1.000000 0.053000 0.053000 1.200000 0.025000 0.030000
1560114326141950722	1300 53 1.200000 0.463000 0.558000 1400 46 1.000000 1.720000 1.845000 600 49 1.000000 0.052000 0.052000 1.200000 0.028000 0.033000
1560114326647998431	1300 53 1.200000 0.471000 0.568000 1400 46 1.000000 1.791000 1.921000 600 49 1.000000 0.053000 0.053000 1.200000 0.035000 0.042000
1560114327153927431	1300 53 1.200000 0.465000 0.561000 1400 46 1.000000 1.614000 1.730000 600 49 1.000000 0.052000 0.052000 1.200000 0.025000 0.030000
1560114327659882181	1300 53 1.200000 0.465000 0.561000 1400 46 1.000000 1.610000 1.725000 600 49 1.000000 0.053000 0.053000 1.200000 0.024000 0.028000
1560114328165916973	1300 53 1.200000 0.465000 0.561000 1400 46 1.000000 1.707000 1.831000 600 49 1.000000 0.053000 0.053000 1.200000 0.025000 0.030000
1560114328671935514	1300 53 1.200000 0.463000 0.558000 1400 46 1.000000 1.622000 1.738000 600 49 1.000000 0.053000 0.053000 1.200000 0.026000 0.031000
1560114329177897931	1300 53 1.200000 0.464000 0.560000 1400 46 1.000000 1.617000 1.733000 600 49 1.000000 0.053000 0.053000 1.200000 0.025000 0.030000
1560114329683866764	1300 53 1.200000 0.465000 0.561000 1400 46 1.000000 1.616000 1.732000 600 49 1.000000 0.053000 0.053000 1.200000 0.026000 0.031000
1560114330189832390	1300 53 1.200000 0.464000 0.560000 1400 46 1.000000 1.699000 1.821000 600 49 1.000000 0.052000 0.052000 1.200000 0.028000 0.033000
1560114330695757390	1300 53 1.200000 0.463000 0.558000 1400 46 1.000000 1.621000 1.737000 600 50 1.000000 0.053000 0.053000 1.200000 0.025000 0.030000
1560114331201675265	1300 53 1.200000 0.469000 0.566000 1400 46 1.000000 1.604000 1.719000 600 49 1.000000 0.052000 0.052000 1.200000 0.025000 0.030000
1560114331707657973	1300 53 1.200000 0.464000 0.560000 1400 46 1.000000 1.600000 1.715000 600 49 1.000000 0.052000 0.052000 1.200000 0.024000 0.028000
1560114332213616556	1300 53 1.200000 0.463000 0.558000 1400 46 1.000000 1.690000 1.813000 600 49 1.000000 0.053000 0.053000 1.200000 0.029000 0.035000
1560114332719778265	1300 53 1.200000 0.465000 0.561000 1400 46 1.000000 1.593000 1.707000 600 50 1.000000 0.053000 0.053000 1.200000 0.024000 0.028000
1560114333225816015	1300 53 1.200000 0.465000 0.561000 1400 46 1.000000 1.596000 1.710000 600 49 1.000000 0.052000 0.052000 1.200000 0.024000 0.028000
1560114333731812098	1300 53 1.200000 0.464000 0.560000 1400 46 1.000000 1.602000 1.717000 600 49 1.000000 0.053000 0.053000 1.200000 0.025000 0.030000
1560114334237800890	1300 53 1.200000 0.464000 0.560000 1400 46 1.000000 1.700000 1.822000 600 49 1.000000 0.052000 0.052000 1.200000 0.025000 0.030000
1560114334743837182	1300 53 1.200000 0.464000 0.560000 1400 46 1.000000 1.619000 1.735000 600 49 1.000000 0.053000 0.053000 1.200000 0.025000 0.030000
1560114335249871640	1300 53 1.200000 0.470000 0.567000 1400 46 1.000000 1.810000 1.942000 600 49 1.000000 0.053000 0.053000 1.200000 0.026000 0.031000
1560114335755992265	1300 53 1.200000 0.465000 0.561000 1400 46 1.000000 1.620000 1.736000 600 49 1.000000 0.053000 0.053000 1.200000 0.025000 0.030000
1560114336262055599	1300 53 1.200000 0.465000 0.561000 1400 46 1.000000 1.713000 1.836000 600 49 1.000000 0.053000 0.053000 1.200000 0.026000 0.031000
1560114336768052515	1300 53 1.200000 0.465000 0.561000 1400 46 1.000000 1.607000 1.722000 600 49 1.000000 0.052000 0.052000 1.200000 0.026000 0.031000
1560114337274000390	1300 53 1.200000 0.466000 0.562000 1400 46 1.000000 1.785000 1.915000 600 49 1.000000 0.053000 0.053000 1.200000 0.026000 0.031000
1560114337779942849	1300 53 1.200000 0.463000 0.558000 1400 46 1.000000 1.597000 1.711000 600 49 1.000000 0.053000 0.053000 1.200000 0.025000 0.030000
1560114338285962724	1300 53 1.200000 0.464000 0.560000 1400 46 1.000000 1.693000 1.816000 600 49 1.000000 0.053000 0.053000 1.200000 0.026000 0.031000
1560114338792008724	1300 53 1.200000 0.464000 0.560000 1400 46 1.000000 1.603000 1.718000 600 49 1.000000 0.053000 0.053000 1.200000 0.025000 0.030000
1560114339297983016	1300 53 1.200000 0.470000 0.567000 1400 46 1.000000 1.796000 1.927000 600 49 1.000000 0.052000 0.052000 1.200000 0.026000 0.031000
1560114339804076891	1300 53 1.200000 0.465000 0.561000 1400 46 1.000000 1.590000 1.704000 600 49 1.000000 0.053000 0.053000 1.200000 0.025000 0.030000
1560114340310078891	1300 53 1.200000 0.463000 0.558000 1400 46 1.000000 1.699000 1.821000 600 49 1.000000 0.052000 0.052000 1.200000 0.030000 0.036000
1560114340816234391	1300 53 1.200000 0.464000 0.560000 1400 46 1.000000 1.600000 1.715000 600 49 1.000000 0.052000 0.052000 1.200000 0.027000 0.032000
1560114341322102183	1300 53 1.200000 0.465000 0.561000 1400 46 1.000000 1.617000 1.733000 600 49 1.000000 0.052000 0.052000 1.200000 0.026000 0.031000
1560114341828085224	1300 53 1.200000 0.464000 0.560000 1400 46 1.000000 1.598000 1.713000 600 49 1.000000 0.053000 0.053000 1.200000 0.034000 0.041000
1560114342334050974	1300 53 1.200000 0.464000 0.560000 1400 46 1.000000 1.665000 1.786000 600 49 1.000000 0.053000 0.053000 1.200000 0.025000 0.030000
1560114342840034808	1300 53 1.200000 0.464000 0.560000 1400 46 1.000000 1.596000 1.710000 600 49 1.000000 0.052000 0.052000 1.200000 0.025000 0.030000
1560114343345820849	1300 53 1.200000 0.464000 0.560000 1400 46 1.000000 1.599000 1.714000 600 50 1.000000 0.053000 0.053000 1.200000 0.026000 0.031000
1560114343851928141	1300 53 1.200000 0.470000 0.567000 1400 46 1.000000 1.602000 1.717000 600 49 1.000000 0.052000 0.052000 1.200000 0.033000 0.039000
1560114344357898641	1300 53 1.200000 0.464000 0.560000 1400 46 1.000000 1.699000 1.823000 600 49 1.000000 0.053000 0.053000 1.200000 0.026000 0.031000
1560114344863917225	1300 53 1.200000 0.464000 0.560000 1400 46 1.000000 1.596000 1.710000 600 49 1.000000 0.053000 0.053000 1.200000 0.026000 0.031000
1560114345370857725	1300 53 1.200000 0.464000 0.560000 1400 46 1.000000 1.602000 1.717000 600 49 1.000000 0.052000 0.052000 1.200000 0.026000 0.031000
1560114345876974683	1300 53 1.200000 0.464000 0.560000 1400 46 1.000000 1.602000 1.718000 600 49 1.000000 0.053000 0.053000 1.200000 0.029000 0.035000
1560114346383035475	1300 53 1.200000 0.464000 0.560000 1400 46 1.000000 1.608000 1.723000 600 49 1.000000 0.053000 0.053000 1.200000 0.026000 0.031000
1560114346889024225	1300 53 1.200000 0.464000 0.560000 1400 46 1.000000 1.612000 1.728000 600 49 1.000000 0.053000 0.053000 1.200000 0.025000 0.030000
1560114347395039142	1300 53 1.200000 0.463000 0.558000 1400 46 1.000000 1.600000 1.715000 600 49 1.000000 0.052000 0.052000 1.200000 0.026000 0.031000
1560114347900967933	1300 53 1.200000 0.463000 0.558000 1400 46 1.000000 1.625000 1.742000 600 49 1.000000 0.053000 0.053000 1.200000 0.028000 0.033000
1560114348407039100	1300 53 1.200000 0.465000 0.561000 1400 46 1.000000 1.597000 1.711000 600 49 1.000000 0.052000 0.052000 1.200000 0.026000 0.031000
1560114348912955558	1300 53 1.200000 0.464000 0.560000 1400 46 1.000000 1.687000 1.808000 600 49 1.000000 0.053000 0.053000 1.200000 0.025000 0.030000
1560114349418850683	1300 53 1.200000 0.465000 0.561000 1400 46 1.000000 1.595000 1.709000 600 49 1.000000 0.053000 0.053000 1.200000 0.026000 0.031000
1560114349924799309	1300 53 1.200000 0.464000 0.560000 1400 46 1.000000 1.619000 1.735000 600 49 1.000000 0.053000 0.053000 1.200000 0.029000 0.035000
1560114350431897725	1300 53 1.200000 0.465000 0.561000 1400 46 1.000000 1.596000 1.710000 600 49 1.000000 0.052000 0.052000 1.200000 0.025000 0.030000
1560114350937894100	1300 53 1.200000 0.464000 0.560000 1400 46 1.000000 1.608000 1.723000 600 49 1.000000 0.053000 0.053000 1.200000 0.026000 0.031000
1560114351443972600	1300 53 1.200000 0.464000 0.560000 1400 46 1.000000 1.594000 1.708000 600 49 1.000000 0.052000 0.052000 1.200000 0.024000 0.028000
1560114351949980642	1300 53 1.200000 0.464000 0.560000 1400 46 1.000000 1.614000 1.730000 600 49 1.000000 0.053000 0.053000 1.200000 0.029000 0.035000
1560114352456051725	1300 53 1.200000 0.463000 0.558000 1400 46 1.000000 1.604000 1.719000 600 49 1.000000 0.053000 0.053000 1.200000 0.024000 0.028000
1560114352962034142	1300 53 1.200000 0.463000 0.558000 1400 46 1.000000 1.603000 1.718000 600 49 1.000000 0.053000 0.053000 1.200000 0.026000 0.031000
1560114353468084517	1300 53 1.200000 0.464000 0.560000 1400 46 1.000000 1.600000 1.715000 600 49 1.000000 0.053000 0.053000 1.200000 0.025000 0.030000
1560114353973941767	1300 53 1.200000 0.463000 0.558000 1400 46 1.000000 1.615000 1.731000 600 50 1.000000 0.053000 0.053000 1.200000 0.026000 0.031000
1560114354480034726	1300 53 1.200000 0.464000 0.560000 1400 46 1.000000 1.804000 1.935000 600 49 1.000000 0.053000 0.053000 1.200000 0.026000 0.031000
1560114354985957726	1300 53 1.200000 0.463000 0.558000 1400 46 1.000000 1.713000 1.836000 600 49 1.000000 0.053000 0.053000 1.200000 0.026000 0.031000
1560114355491955226	1300 53 1.200000 0.464000 0.560000 1400 46 1.000000 1.615000 1.731000 600 49 1.000000 0.053000 0.053000 1.200000 0.025000 0.030000
1560114355997857809	1300 53 1.200000 0.464000 0.560000 1400 46 1.000000 1.611000 1.726000 600 51 1.000000 0.053000 0.053000 1.200000 0.025000 0.030000
1560114356503922684	1300 53 1.200000 0.464000 0.560000 1400 46 1.000000 1.769000 1.898000 600 49 1.000000 0.053000 0.053000 1.200000 0.025000 0.030000
1560114357009854143	1300 53 1.200000 0.463000 0.558000 1400 46 1.000000 1.602000 1.717000 600 49 1.000000 0.052000 0.052000 1.200000 0.024000 0.028000
1560114357515853268	1300 53 1.200000 0.464000 0.560000 1400 46 1.000000 1.620000 1.736000 600 49 1.000000 0.053000 0.053000 1.200000 0.025000 0.030000
1560114358022602351	1300 53 1.200000 0.464000 0.560000 1400 46 1.000000 1.596000 1.710000 600 50 1.000000 0.053000 0.053000 1.200000 0.025000 0.030000
1560114358528513060	1300 53 1.200000 0.465000 0.561000 1400 46 1.000000 1.719000 1.844000 600 49 1.000000 0.053000 0.053000 1.200000 0.025000 0.030000
1560114359034422560	1300 53 1.200000 0.465000 0.561000 1400 46 1.000000 1.593000 1.707000 600 49 1.000000 0.053000 0.053000 1.200000 0.024000 0.028000
1560114359540459185	1300 53 1.200000 0.464000 0.560000 1400 46 1.000000 1.621000 1.737000 600 49 1.000000 0.053000 0.053000 1.200000 0.025000 0.030000
1560114360046408185	1300 53 1.200000 0.464000 0.560000 1400 46 1.000000 1.600000 1.715000 600 49 1.000000 0.053000 0.053000 1.200000 0.025000 0.030000
1560114360552384268	1300 53 1.200000 0.470000 0.567000 1400 46 1.000000 1.732000 1.858000 600 50 1.000000 0.053000 0.053000 1.200000 0.035000 0.042000
1560114361058274268	1300 53 1.200000 0.464000 0.560000 1400 46 1.000000 1.705000 1.829000 600 49 1.000000 0.053000 0.053000 1.200000 0.026000 0.031000
1560114361565071602	1300 53 1.200000 0.464000 0.560000 1400 46 1.000000 1.616000 1.732000 600 49 1.000000 0.053000 0.053000 1.200000 0.025000 0.030000
1560114362071249393	1300 53 1.200000 0.465000 0.561000 1400 46 1.000000 1.609000 1.724000 600 49 1.000000 0.053000 0.053000 1.200000 0.025000 0.030000
1560114362577086768	1300 53 1.200000 0.465000 0.561000 1400 46 1.000000 1.737000 1.863000 600 50 1.000000 0.052000 0.052000 1.200000 0.035000 0.042000
1560114363083103268	1300 53 1.200000 0.463000 0.558000 1400 46 1.000000 1.603000 1.718000 600 49 1.000000 0.053000 0.053000 1.200000 0.025000 0.030000
1560114363589033852	1300 53 1.200000 0.464000 0.560000 1400 46 1.000000 1.593000 1.707000 600 49 1.000000 0.053000 0.053000 1.200000 0.025000 0.030000
1560114364094992060	1300 53 1.200000 0.464000 0.560000 1400 46 1.000000 1.602000 1.717000 600 49 1.000000 0.053000 0.053000 1.200000 0.025000 0.030000
1560114364600847227	1300 53 1.200000 0.472000 0.569000 1400 46 1.000000 1.724000 1.849000 600 50 1.000000 0.052000 0.052000 1.200000 0.035000 0.042000
1560114365106909935	1300 53 1.200000 0.464000 0.560000 1400 46 1.000000 1.594000 1.708000 600 49 1.000000 0.053000 0.053000 1.200000 0.024000 0.028000
1560114365612952060	1300 53 1.200000 0.465000 0.561000 1400 46 1.000000 1.592000 1.706000 600 49 1.000000 0.053000 0.053000 1.200000 0.024000 0.028000
1560114366118911977	1300 53 1.200000 0.464000 0.560000 1400 46 1.000000 1.614000 1.730000 600 49 1.000000 0.053000 0.053000 1.200000 0.025000 0.030000
1560114366625823352	1300 53 1.200000 0.464000 0.560000 1400 46 1.000000 1.599000 1.714000 600 50 1.000000 0.052000 0.052000 1.200000 0.025000 0.030000
1560114367132027977	1300 53 1.200000 0.463000 0.558000 1400 46 1.000000 1.750000 1.876000 600 49 1.000000 0.053000 0.053000 1.200000 0.027000 0.032000
1560114367637983769	1300 53 1.200000 0.464000 0.560000 1400 46 1.000000 1.593000 1.707000 600 49 1.000000 0.053000 0.053000 1.200000 0.025000 0.030000
1560114368143910936	1300 53 1.200000 0.463000 0.558000 1400 45 1.000000 1.619000 1.735000 600 49 1.000000 0.052000 0.052000 1.200000 0.025000 0.030000
1560114368650069519	1300 53 1.200000 0.464000 0.559000 1400 46 1.000000 1.596000 1.710000 600 49 1.000000 0.053000 0.053000 1.200000 0.025000 0.030000
1560114369156973144	1300 53 1.200000 0.489000 0.589000 1400 46 1.000000 1.652000 1.770000 600 49 1.000000 0.053000 0.053000 1.200000 0.025000 0.030000
1560114369663133269	1300 53 1.200000 0.465000 0.561000 1400 46 1.000000 1.591000 1.705000 600 49 1.000000 0.053000 0.053000 1.200000 0.024000 0.028000
1560114370169096478	1300 53 1.200000 0.464000 0.560000 1400 46 1.000000 1.593000 1.707000 600 49 1.000000 0.053000 0.053000 1.200000 0.024000 0.028000
1560114370675059311	1300 53 1.200000 0.464000 0.560000 1400 46 1.000000 1.592000 1.706000 600 49 1.000000 0.053000 0.053000 1.200000 0.025000 0.030000
1560114371181106061	1300 53 1.200000 0.466000 0.562000 1400 46 1.000000 1.628000 1.745000 600 49 1.000000 0.053000 0.053000 1.200000 0.025000 0.030000
1560114371687202311	1300 53 1.200000 0.464000 0.560000 1400 46 1.000000 1.599000 1.714000 600 49 1.000000 0.052000 0.052000 1.200000 0.026000 0.031000
1560114372193152520	1300 53 1.200000 0.464000 0.560000 1400 46 1.000000 1.600000 1.715000 600 49 1.000000 0.052000 0.052000 1.200000 0.025000 0.030000
1560114372699117395	1300 53 1.200000 0.463000 0.558000 1400 46 1.000000 1.601000 1.716000 600 49 1.000000 0.053000 0.053000 1.200000 0.025000 0.030000
1560114373205235145	1300 53 1.200000 0.474000 0.572000 1400 45 1.000000 1.864000 2.000000 600 49 1.000000 0.053000 0.053000 1.200000 0.038000 0.045000
1560114373711301686	1300 53 1.200000 0.464000 0.560000 1400 46 1.000000 1.619000 1.735000 600 49 1.000000 0.053000 0.053000 1.200000 0.025000 0.030000
1560114374217291728	1300 53 1.200000 0.464000 0.560000 1400 46 1.000000 1.597000 1.711000 600 49 1.000000 0.053000 0.053000 1.200000 0.024000 0.028000
1560114374723240145	1300 53 1.200000 0.464000 0.560000 1400 45 1.000000 1.601000 1.716000 600 49 1.000000 0.052000 0.052000 1.200000 0.026000 0.031000
1560114375229154020	1300 53 1.200000 0.463000 0.558000 1400 46 1.000000 1.876000 2.012000 600 49 1.000000 0.053000 0.053000 1.200000 0.027000 0.032000
1560114375735258062	1300 53 1.200000 0.464000 0.560000 1400 46 1.000000 1.600000 1.715000 600 49 1.000000 0.052000 0.052000 1.200000 0.026000 0.031000
1560114376241163603	1300 53 1.200000 0.464000 0.560000 1400 46 1.000000 1.587000 1.701000 600 49 1.000000 0.052000 0.052000 1.200000 0.025000 0.030000
1560114376747202728	1300 53 1.200000 0.464000 0.560000 1400 45 1.000000 1.599000 1.714000 600 49 1.000000 0.052000 0.052000 1.200000 0.026000 0.031000
1560114377253040895	1300 53 1.200000 0.468000 0.564000 1400 46 1.000000 1.796000 1.927000 600 49 1.000000 0.052000 0.052000 1.200000 0.028000 0.033000
1560114377759052604	1300 53 1.200000 0.464000 0.560000 1400 46 1.000000 1.601000 1.716000 600 49 1.000000 0.053000 0.053000 1.200000 0.026000 0.031000
1560114378264958354	1300 53 1.200000 0.464000 0.560000 1400 45 1.000000 1.605000 1.720000 600 49 1.000000 0.053000 0.053000 1.200000 0.026000 0.031000
1560114378771003020	1300 53 1.200000 0.464000 0.560000 1400 46 1.000000 1.628000 1.745000 600 49 1.000000 0.053000 0.053000 1.200000 0.026000 0.031000
1560114379277315270	1300 53 1.200000 0.464000 0.560000 1400 46 1.000000 1.690000 1.813000 600 50 1.000000 0.053000 0.053000 1.200000 0.024000 0.028000
1560114379783400479	1300 53 1.200000 0.472000 0.569000 1400 46 1.000000 1.602000 1.717000 600 49 1.000000 0.052000 0.052000 1.200000 0.036000 0.043000
1560114380289313770	1300 53 1.200000 0.464000 0.560000 1400 45 1.000000 1.599000 1.714000 600 49 1.000000 0.053000 0.053000 1.200000 0.025000 0.030000
1560114380795281437	1300 53 1.200000 0.464000 0.560000 1400 45 1.000000 1.596000 1.710000 600 49 1.000000 0.053000 0.053000 1.200000 0.026000 0.031000
1560114381301965604	1300 53 1.200000 0.463000 0.558000 1400 45 1.000000 1.682000 1.803000 600 49 1.000000 0.052000 0.052000 1.200000 0.025000 0.030000
1560114381808024104	1300 53 1.200000 0.464000 0.560000 1400 46 1.000000 1.608000 1.723000 600 49 1.000000 0.053000 0.053000 1.200000 0.032000 0.038000
1560114382313863146	1300 53 1.200000 0.464000 0.560000 1400 46 1.000000 1.614000 1.730000 600 49 1.000000 0.052000 0.052000 1.200000 0.025000 0.030000
1560114382819844104	1300 53 1.200000 0.464000 0.560000 1400 45 1.000000 1.611000 1.726000 600 49 1.000000 0.053000 0.053000 1.200000 0.026000 0.031000
1560114383325901688	1300 53 1.200000 0.463000 0.558000 1400 46 1.000000 1.659000 1.778000 600 49 1.000000 0.053000 0.053000 1.200000 0.029000 0.035000
1560114383831990396	1300 53 1.200000 0.465000 0.561000 1400 46 1.000000 1.835000 1.968000 600 49 1.000000 0.053000 0.053000 1.200000 0.030000 0.036000
1560114384337970479	1300 53 1.200000 0.464000 0.560000 1400 46 1.000000 1.606000 1.721000 600 49 1.000000 0.053000 0.053000 1.200000 0.026000 0.031000
1560114384844023063	1300 53 1.200000 0.464000 0.560000 1400 46 1.000000 1.598000 1.713000 600 49 1.000000 0.052000 0.052000 1.200000 0.025000 0.030000
1560114385350115021	1300 53 1.200000 0.464000 0.560000 1400 46 1.000000 1.628000 1.745000 600 49 1.000000 0.052000 0.052000 1.200000 0.025000 0.030000
1560114385856065146	1300 53 1.200000 0.464000 0.560000 1400 46 1.000000 1.603000 1.718000 600 49 1.000000 0.053000 0.053000 1.200000 0.026000 0.031000
1560114386362087771	1300 53 1.200000 0.464000 0.560000 1400 46 1.000000 1.627000 1.744000 600 49 1.000000 0.053000 0.053000 1.200000 0.025000 0.030000
1560114386868095188	1300 53 1.200000 0.464000 0.560000 1400 46 1.000000 1.603000 1.718000 600 49 1.000000 0.052000 0.052000 1.200000 0.026000 0.031000
1560114387374093355	1300 53 1.200000 0.465000 0.561000 1400 46 1.000000 1.628000 1.745000 600 49 1.000000 0.053000 0.053000 1.200000 0.025000 0.030000
1560114387879907105	1300 53 1.200000 0.464000 0.560000 1400 46 1.000000 1.613000 1.729000 600 49 1.000000 0.053000 0.053000 1.200000 0.026000 0.031000
1560114388385856188	1300 53 1.200000 0.464000 0.560000 1400 46 1.000000 1.625000 1.742000 600 49 1.000000 0.053000 0.053000 1.200000 0.026000 0.031000
1560114388891828730	1300 53 1.200000 0.464000 0.560000 1400 46 1.000000 1.617000 1.733000 600 49 1.000000 0.053000 0.053000 1.200000 0.025000 0.030000
1560114389397895188	1300 53 1.200000 0.464000 0.560000 1400 45 1.000000 1.619000 1.735000 600 49 1.000000 0.053000 0.053000 1.200000 0.030000 0.036000
1560114389903690480	1300 53 1.200000 0.464000 0.560000 1400 46 1.000000 1.606000 1.721000 600 50 1.000000 0.053000 0.053000 1.200000 0.024000 0.028000
1560114390409621397	1300 53 1.200000 0.464000 0.560000 1400 46 1.000000 1.841000 1.975000 600 49 1.000000 0.053000 0.053000 1.200000 0.031000 0.037000
1560114390915573563	1300 53 1.200000 0.464000 0.560000 1400 46 1.000000 1.627000 1.744000 600 49 1.000000 0.053000 0.053000 1.200000 0.025000 0.030000
1560114391421618730	1300 53 1.200000 0.465000 0.561000 1400 46 1.000000 1.608000 1.723000 600 49 1.000000 0.053000 0.053000 1.200000 0.026000 0.031000
1560114391928129439	1300 53 1.200000 0.465000 0.561000 1400 46 1.000000 1.635000 1.752000 600 50 1.000000 0.053000 0.053000 1.200000 0.025000 0.030000
1560114392434164064	1300 53 1.200000 0.467000 0.563000 1400 46 1.000000 1.822000 1.955000 600 49 1.000000 0.053000 0.053000 1.200000 0.032000 0.038000
1560114392940155022	1300 53 1.200000 0.464000 0.560000 1400 46 1.000000 1.628000 1.745000 600 49 1.000000 0.052000 0.052000 1.200000 0.026000 0.031000
1560114393446185730	1300 53 1.200000 0.464000 0.560000 1400 46 1.000000 1.592000 1.706000 600 49 1.000000 0.053000 0.053000 1.200000 0.026000 0.031000
1560114393953296814	1300 53 1.200000 0.464000 0.560000 1400 46 1.000000 1.619000 1.735000 600 49 1.000000 0.053000 0.053000 1.200000 0.025000 0.030000
1560114394459575647	1300 53 1.200000 0.463000 0.558000 1400 46 1.000000 1.821000 1.953000 600 49 1.000000 0.053000 0.053000 1.200000 0.029000 0.035000
1560114394965541731	1300 53 1.200000 0.464000 0.560000 1400 46 1.000000 1.632000 1.749000 600 49 1.000000 0.053000 0.053000 1.200000 0.025000 0.030000
1560114395471588897	1300 53 1.200000 0.465000 0.561000 1400 45 1.000000 1.600000 1.715000 600 49 1.000000 0.052000 0.052000 1.200000 0.029000 0.035000
1560114395977628189	1300 53 1.200000 0.464000 0.560000 1400 46 1.000000 1.607000 1.722000 600 49 1.000000 0.053000 0.053000 1.200000 0.024000 0.028000
1560114396483728606	1300 53 1.200000 0.464000 0.560000 1400 46 1.000000 1.611000 1.726000 600 49 1.000000 0.053000 0.053000 1.200000 0.028000 0.033000
1560114396989747189	1300 53 1.200000 0.463000 0.558000 1400 46 1.000000 1.625000 1.742000 600 49 1.000000 0.053000 0.053000 1.200000 0.025000 0.030000
1560114397495803856	1300 53 1.200000 0.464000 0.560000 1400 46 1.000000 1.602000 1.717000 600 49 1.000000 0.053000 0.053000 1.200000 0.026000 0.031000
1560114398001783648	1300 53 1.200000 0.463000 0.558000 1400 46 1.000000 1.626000 1.743000 600 49 1.000000 0.052000 0.052000 1.200000 0.025000 0.030000
1560114398507907939	1300 53 1.200000 0.464000 0.560000 1400 46 1.000000 1.608000 1.723000 600 49 1.000000 0.053000 0.053000 1.200000 0.029000 0.035000
1560114399013844106	1300 53 1.200000 0.464000 0.560000 1400 45 1.000000 1.617000 1.733000 600 49 1.000000 0.053000 0.053000 1.200000 0.025000 0.030000
1560114399519875981	1300 53 1.200000 0.464000 0.560000 1400 46 1.000000 1.625000 1.742000 600 49 1.000000 0.053000 0.053000 1.200000 0.025000 0.030000
1560114400025756731	1300 53 1.200000 0.465000 0.561000 1400 45 1.000000 1.622000 1.738000 600 49 1.000000 0.052000 0.052000 1.200000 0.024000 0.028000
1560114400531740523	1300 53 1.200000 0.463000 0.558000 1400 46 1.000000 1.643000 1.761000 600 49 1.000000 0.053000 0.053000 1.200000 0.029000 0.035000
1560114401037614856	1300 53 1.200000 0.463000 0.558000 1400 46 1.000000 1.616000 1.732000 600 49 1.000000 0.052000 0.052000 1.200000 0.025000 0.030000
1560114401543608648	1300 53 1.200000 0.465000 0.561000 1400 46 1.000000 1.603000 1.718000 600 49 1.000000 0.053000 0.053000 1.200000 0.026000 0.031000
1560114402049527731	1300 53 1.200000 0.464000 0.560000 1400 46 1.000000 1.596000 1.710000 600 49 1.000000 0.053000 0.053000 1.200000 0.024000 0.028000
1560114402555497106	1300 53 1.200000 0.464000 0.560000 1400 45 1.000000 1.623000 1.739000 600 50 1.000000 0.052000 0.052000 1.200000 0.025000 0.030000
1560114403061374190	1300 53 1.200000 0.464000 0.560000 1400 45 1.000000 1.752000 1.879000 600 49 1.000000 0.052000 0.052000 1.200000 0.025000 0.030000
1560114403567458398	1300 53 1.200000 0.464000 0.560000 1400 46 1.000000 1.626000 1.743000 600 49 1.000000 0.052000 0.052000 1.200000 0.026000 0.031000
1560114404073421440	1300 53 1.200000 0.464000 0.560000 1400 45 1.000000 1.608000 1.723000 600 49 1.000000 0.053000 0.053000 1.200000 0.026000 0.031000
1560114404580217107	1300 53 1.200000 0.465000 0.561000 1400 45 1.000000 1.621000 1.737000 600 50 1.000000 0.052000 0.052000 1.200000 0.025000 0.030000
1560114405086360523	1300 53 1.200000 0.468000 0.564000 1400 46 1.000000 1.725000 1.849000 600 49 1.000000 0.053000 0.053000 1.200000 0.026000 0.031000
1560114405592326690	1300 53 1.200000 0.464000 0.560000 1400 46 1.000000 1.634000 1.751000 600 49 1.000000 0.053000 0.053000 1.200000 0.024000 0.028000
1560114406098349982	1300 53 1.200000 0.464000 0.560000 1400 46 1.000000 1.608000 1.723000 600 49 1.000000 0.052000 0.052000 1.200000 0.025000 0.030000
1560114406604410982	1300 53 1.200000 0.465000 0.561000 1400 45 1.000000 1.604000 1.719000 600 49 1.000000 0.053000 0.053000 1.200000 0.025000 0.030000
1560114407110397940	1300 53 1.200000 0.464000 0.560000 1400 46 1.000000 1.704000 1.826000 600 49 1.000000 0.053000 0.053000 1.200000 0.025000 0.030000
1560114407616332315	1300 53 1.200000 0.464000 0.560000 1400 45 1.000000 1.605000 1.720000 600 49 1.000000 0.053000 0.053000 1.200000 0.024000 0.028000
1560114408122213940	1300 53 1.200000 0.463000 0.558000 1400 45 1.000000 1.609000 1.724000 600 49 1.000000 0.053000 0.053000 1.200000 0.025000 0.030000
1560114408628889149	1300 53 1.200000 0.464000 0.560000 1400 46 1.000000 1.618000 1.734000 600 49 1.000000 0.053000 0.053000 1.200000 0.025000 0.030000
1560114409135043149	1300 53 1.200000 0.465000 0.561000 1400 45 1.000000 1.784000 1.914000 600 49 1.000000 0.053000 0.053000 1.200000 0.032000 0.038000
1560114409640859857	1300 53 1.200000 0.463000 0.558000 1400 46 1.000000 1.606000 1.721000 600 49 1.000000 0.052000 0.052000 1.200000 0.025000 0.030000
1560114410147894941	1300 53 1.200000 0.464000 0.560000 1400 46 1.000000 1.661000 1.780000 600 49 1.000000 0.053000 0.053000 1.200000 0.025000 0.030000
1560114410653851607	1300 53 1.200000 0.464000 0.560000 1400 46 1.000000 1.613000 1.729000 600 49 1.000000 0.053000 0.053000 1.200000 0.025000 0.030000
1560114411159837982	1300 53 1.200000 0.464000 0.560000 1400 46 1.000000 1.804000 1.935000 600 49 1.000000 0.052000 0.052000 1.200000 0.031000 0.037000
1560114411665632441	1300 53 1.200000 0.465000 0.561000 1400 46 1.000000 1.593000 1.707000 600 50 1.000000 0.053000 0.053000 1.200000 0.025000 0.030000
1560114412171707024	1300 53 1.200000 0.464000 0.560000 1400 46 1.000000 1.605000 1.720000 600 49 1.000000 0.052000 0.052000 1.200000 0.024000 0.028000
1560114412677662858	1300 53 1.200000 0.464000 0.560000 1400 46 1.000000 1.605000 1.720000 600 49 1.000000 0.053000 0.053000 1.200000 0.025000 0.030000
1560114413183556274	1300 53 1.200000 0.463000 0.558000 1400 46 1.000000 1.838000 1.972000 600 49 1.000000 0.052000 0.052000 1.200000 0.032000 0.038000
1560114413690000024	1300 53 1.200000 0.464000 0.560000 1400 46 1.000000 1.605000 1.720000 600 50 1.000000 0.053000 0.053000 1.200000 0.024000 0.028000
1560114414196193858	1300 53 1.200000 0.465000 0.561000 1400 46 1.000000 1.601000 1.716000 600 49 1.000000 0.053000 0.053000 1.200000 0.030000 0.036000
1560114414702208858	1300 53 1.200000 0.465000 0.561000 1400 46 1.000000 1.604000 1.719000 600 49 1.000000 0.052000 0.052000 1.200000 0.024000 0.028000
1560114415208068150	1300 53 1.200000 0.465000 0.561000 1400 45 1.000000 1.631000 1.748000 600 50 1.000000 0.052000 0.052000 1.200000 0.024000 0.028000
1560114415715423775	1300 53 1.200000 0.464000 0.560000 1400 46 1.000000 1.619000 1.735000 600 49 1.000000 0.053000 0.053000 1.200000 0.031000 0.037000
1560114416221542316	1300 53 1.200000 0.474000 0.572000 1400 46 1.000000 1.642000 1.760000 600 49 1.000000 0.053000 0.053000 1.200000 0.030000 0.036000
1560114416727509525	1300 53 1.200000 0.465000 0.561000 1400 46 1.000000 1.614000 1.730000 600 49 1.000000 0.052000 0.052000 1.200000 0.025000 0.030000
1560114417233689233	1300 53 1.200000 0.464000 0.560000 1400 46 1.000000 1.608000 1.723000 600 51 1.000000 0.052000 0.052000 1.200000 0.026000 0.031000
1560114417739879400	1300 53 1.200000 0.465000 0.561000 1400 45 1.000000 1.608000 1.723000 600 49 1.000000 0.053000 0.053000 1.200000 0.031000 0.037000
1560114418245903692	1300 53 1.200000 0.464000 0.560000 1400 46 1.000000 1.603000 1.718000 600 49 1.000000 0.053000 0.053000 1.200000 0.030000 0.036000
1560114418751955358	1300 53 1.200000 0.464000 0.560000 1400 46 1.000000 1.596000 1.710000 600 49 1.000000 0.053000 0.053000 1.200000 0.024000 0.028000
1560114419257826317	1300 53 1.200000 0.464000 0.560000 1400 45 1.000000 1.599000 1.714000 600 49 1.000000 0.052000 0.052000 1.200000 0.026000 0.031000
1560114419763750484	1300 53 1.200000 0.463000 0.558000 1400 46 1.000000 1.602000 1.718000 600 49 1.000000 0.053000 0.053000 1.200000 0.031000 0.037000
1560114420269837567	1300 53 1.200000 0.464000 0.560000 1400 46 1.000000 1.602000 1.718000 600 49 1.000000 0.052000 0.052000 1.200000 0.031000 0.037000
1560114420775795359	1300 53 1.200000 0.464000 0.560000 1400 46 1.000000 1.621000 1.737000 600 49 1.000000 0.053000 0.053000 1.200000 0.025000 0.030000
1560114421282069859	1300 53 1.200000 0.464000 0.560000 1400 46 1.000000 1.598000 1.713000 600 49 1.000000 0.052000 0.052000 1.200000 0.026000 0.031000
1560114421788112192	1300 53 1.200000 0.464000 0.560000 1400 46 1.000000 1.625000 1.742000 600 49 1.000000 0.053000 0.053000 1.200000 0.025000 0.030000
1560114422294202150	1300 53 1.200000 0.465000 0.561000 1400 46 1.000000 1.601000 1.717000 600 49 1.000000 0.052000 0.052000 1.200000 0.029000 0.035000
1560114422800236817	1300 53 1.200000 0.464000 0.560000 1400 46 1.000000 1.624000 1.740000 600 49 1.000000 0.052000 0.052000 1.200000 0.025000 0.030000
1560114423306214984	1300 53 1.200000 0.464000 0.560000 1400 46 1.000000 1.596000 1.712000 600 49 1.000000 0.053000 0.053000 1.200000 0.026000 0.031000
1560114423812160026	1300 53 1.200000 0.464000 0.560000 1400 45 1.000000 1.617000 1.733000 600 49 1.000000 0.053000 0.053000 1.200000 0.025000 0.030000
1560114424318135651	1300 53 1.200000 0.464000 0.560000 1400 46 1.000000 1.691000 1.814000 600 49 1.000000 0.052000 0.052000 1.200000 0.030000 0.036000
1560114424824185276	1300 53 1.200000 0.464000 0.560000 1400 46 1.000000 1.627000 1.744000 600 49 1.000000 0.053000 0.053000 1.200000 0.025000 0.030000
1560114425330127234	1300 53 1.200000 0.463000 0.558000 1400 45 1.000000 1.613000 1.729000 600 49 1.000000 0.052000 0.052000 1.200000 0.026000 0.031000
1560114425836060109	1300 53 1.200000 0.464000 0.560000 1400 46 1.000000 1.618000 1.734000 600 49 1.000000 0.053000 0.053000 1.200000 0.026000 0.031000
1560114426342093734	1300 53 1.200000 0.465000 0.561000 1400 46 1.000000 1.696000 1.819000 600 49 1.000000 0.053000 0.053000 1.200000 0.030000 0.036000
1560114426848119526	1300 53 1.200000 0.464000 0.560000 1400 46 1.000000 1.619000 1.735000 600 49 1.000000 0.052000 0.052000 1.200000 0.024000 0.028000
1560114427354111984	1300 53 1.200000 0.464000 0.560000 1400 46 1.000000 1.616000 1.732000 600 49 1.000000 0.053000 0.053000 1.200000 0.025000 0.030000
1560114427860051109	1300 53 1.200000 0.464000 0.560000 1400 46 1.000000 1.607000 1.722000 600 50 1.000000 0.052000 0.052000 1.200000 0.025000 0.030000
1560114428366167193	1300 53 1.200000 0.463000 0.558000 1400 46 1.000000 1.846000 1.980000 600 49 1.000000 0.053000 0.053000 1.200000 0.032000 0.038000
1560114428872207901	1300 53 1.200000 0.465000 0.561000 1400 46 1.000000 1.607000 1.722000 600 49 1.000000 0.053000 0.053000 1.200000 0.026000 0.031000
1560114429378126526	1300 53 1.200000 0.464000 0.560000 1400 46 1.000000 1.625000 1.742000 600 49 1.000000 0.052000 0.052000 1.200000 0.025000 0.030000
1560114429884171693	1300 53 1.200000 0.465000 0.561000 1400 46 1.000000 1.596000 1.710000 600 50 1.000000 0.053000 0.053000 1.200000 0.025000 0.030000
1560114430391773860	1300 53 1.200000 0.465000 0.561000 1400 46 1.000000 1.916000 2.055000 600 49 1.000000 0.052000 0.052000 1.200000 0.035000 0.042000
1560114430897803235	1300 53 1.200000 0.464000 0.560000 1400 45 1.000000 1.597000 1.711000 600 49 1.000000 0.053000 0.053000 1.200000 0.026000 0.031000
1560114431403770360	1300 53 1.200000 0.463000 0.558000 1400 45 1.000000 1.613000 1.729000 600 49 1.000000 0.052000 0.052000 1.200000 0.025000 0.030000
1560114431909741068	1300 53 1.200000 0.464000 0.560000 1400 46 1.000000 1.602000 1.717000 600 49 1.000000 0.053000 0.053000 1.200000 0.025000 0.030000
1560114432415735068	1300 53 1.200000 0.463000 0.558000 1400 46 1.000000 1.902000 2.040000 600 49 1.000000 0.052000 0.052000 1.200000 0.032000 0.038000
1560114432921805277	1300 53 1.200000 0.465000 0.561000 1400 46 1.000000 1.594000 1.708000 600 49 1.000000 0.052000 0.052000 1.200000 0.025000 0.030000
1560114433427830610	1300 53 1.200000 0.464000 0.560000 1400 45 1.000000 1.595000 1.709000 600 49 1.000000 0.053000 0.053000 1.200000 0.025000 0.030000
1560114433933720194	1300 53 1.200000 0.464000 0.560000 1400 46 1.000000 1.596000 1.710000 600 49 1.000000 0.053000 0.053000 1.200000 0.026000 0.031000
1560114434439791152	1300 53 1.200000 0.470000 0.567000 1400 46 1.000000 1.639000 1.757000 600 49 1.000000 0.052000 0.052000 1.200000 0.028000 0.033000
1560114434945736985	1300 53 1.200000 0.464000 0.560000 1400 45 1.000000 1.605000 1.720000 600 49 1.000000 0.052000 0.052000 1.200000 0.026000 0.031000
1560114435451812027	1300 53 1.200000 0.464000 0.560000 1400 46 1.000000 1.619000 1.735000 600 49 1.000000 0.053000 0.053000 1.200000 0.025000 0.030000
1560114435957662110	1300 53 1.200000 0.464000 0.560000 1400 45 1.000000 1.609000 1.726000 600 49 1.000000 0.053000 0.053000 1.200000 0.026000 0.031000
1560114436463631652	1300 53 1.200000 0.465000 0.561000 1400 46 1.000000 1.685000 1.808000 600 49 1.000000 0.053000 0.053000 1.200000 0.033000 0.039000
1560114436969533527	1300 53 1.200000 0.465000 0.561000 1400 46 1.000000 1.610000 1.725000 600 49 1.000000 0.053000 0.053000 1.200000 0.025000 0.030000
1560114437475601361	1300 53 1.200000 0.464000 0.560000 1400 46 1.000000 1.614000 1.730000 600 49 1.000000 0.052000 0.052000 1.200000 0.025000 0.030000
1560114437981424361	1300 53 1.200000 0.464000 0.560000 1400 45 1.000000 1.594000 1.708000 600 49 1.000000 0.053000 0.053000 1.200000 0.025000 0.030000
1560114438487361819	1300 53 1.200000 0.463000 0.558000 1400 46 1.000000 1.724000 1.849000 600 49 1.000000 0.052000 0.052000 1.200000 0.034000 0.041000
1560114438993364944	1300 53 1.200000 0.464000 0.560000 1400 45 1.000000 1.587000 1.701000 600 49 1.000000 0.052000 0.052000 1.200000 0.024000 0.028000
1560114439499427028	1300 53 1.200000 0.464000 0.560000 1400 45 1.000000 1.596000 1.710000 600 49 1.000000 0.053000 0.053000 1.200000 0.025000 0.030000
1560114440005310069	1300 53 1.200000 0.464000 0.560000 1400 45 1.000000 1.616000 1.732000 600 49 1.000000 0.053000 0.053000 1.200000 0.025000 0.030000
1560114440511157278	1300 53 1.200000 0.463000 0.558000 1400 46 1.000000 1.595000 1.709000 600 50 1.000000 0.053000 0.053000 1.200000 0.025000 0.030000
1560114441017092903	1300 53 1.200000 0.469000 0.566000 1400 46 1.000000 1.753000 1.880000 600 49 1.000000 0.053000 0.053000 1.200000 0.030000 0.036000
1560114441523033444	1300 53 1.200000 0.463000 0.558000 1400 46 1.000000 1.597000 1.711000 600 49 1.000000 0.053000 0.053000 1.200000 0.026000 0.031000
1560114442028833570	1300 53 1.200000 0.464000 0.560000 1400 45 1.000000 1.613000 1.729000 600 49 1.000000 0.053000 0.053000 1.200000 0.025000 0.030000
1560114442535418570	1300 53 1.200000 0.464000 0.560000 1400 46 1.000000 1.629000 1.746000 600 49 1.000000 0.053000 0.053000 1.200000 0.029000 0.035000
1560114443041453736	1300 53 1.200000 0.472000 0.569000 1400 46 1.000000 1.740000 1.867000 600 49 1.000000 0.053000 0.053000 1.200000 0.029000 0.035000
1560114443547448111	1300 53 1.200000 0.464000 0.560000 1400 46 1.000000 1.602000 1.717000 600 49 1.000000 0.053000 0.053000 1.200000 0.024000 0.028000
1560114444053237820	1300 53 1.200000 0.463000 0.558000 1400 45 1.000000 1.592000 1.706000 600 49 1.000000 0.052000 0.052000 1.200000 0.025000 0.030000
1560114444559336528	1300 53 1.200000 0.464000 0.560000 1400 45 1.000000 1.694000 1.815000 600 49 1.000000 0.053000 0.053000 1.200000 0.029000 0.035000
1560114445065293737	1300 53 1.200000 0.472000 0.569000 1400 45 1.000000 1.711000 1.834000 600 49 1.000000 0.052000 0.052000 1.200000 0.028000 0.033000
1560114445571361195	1300 53 1.200000 0.465000 0.561000 1400 45 1.000000 1.600000 1.715000 600 49 1.000000 0.052000 0.052000 1.200000 0.025000 0.030000
1560114446077251862	1300 53 1.200000 0.464000 0.560000 1400 45 1.000000 1.605000 1.720000 600 49 1.000000 0.053000 0.053000 1.200000 0.025000 0.030000
1560114446583281695	1300 53 1.200000 0.464000 0.560000 1400 46 1.000000 1.620000 1.736000 600 49 1.000000 0.053000 0.053000 1.200000 0.026000 0.031000
1560114447089300362	1300 53 1.200000 0.467000 0.563000 1400 46 1.000000 1.705000 1.829000 600 49 1.000000 0.053000 0.053000 1.200000 0.033000 0.039000
1560114447595246320	1300 53 1.200000 0.463000 0.558000 1400 46 1.000000 1.617000 1.733000 600 49 1.000000 0.052000 0.052000 1.200000 0.025000 0.030000
1560114448101163612	1300 53 1.200000 0.465000 0.561000 1400 45 1.000000 1.593000 1.707000 600 49 1.000000 0.053000 0.053000 1.200000 0.025000 0.030000
1560114448607293529	1300 53 1.200000 0.463000 0.558000 1400 45 1.000000 1.599000 1.714000 600 49 1.000000 0.053000 0.053000 1.200000 0.027000 0.032000
1560114449113169362	1300 53 1.200000 0.464000 0.560000 1400 46 1.000000 1.704000 1.828000 600 49 1.000000 0.053000 0.053000 1.200000 0.033000 0.039000
1560114449619161695	1300 53 1.200000 0.464000 0.560000 1400 46 1.000000 1.596000 1.710000 600 49 1.000000 0.052000 0.052000 1.200000 0.026000 0.031000
1560114450125187404	1300 53 1.200000 0.463000 0.558000 1400 45 1.000000 1.593000 1.707000 600 49 1.000000 0.053000 0.053000 1.200000 0.025000 0.030000
1560114450631262071	1300 53 1.200000 0.464000 0.560000 1400 45 1.000000 1.694000 1.817000 600 49 1.000000 0.052000 0.052000 1.200000 0.028000 0.033000
1560114451137159946	1300 53 1.200000 0.464000 0.560000 1400 45 1.000000 1.731000 1.857000 600 49 1.000000 0.052000 0.052000 1.200000 0.035000 0.042000
1560114451643066487	1300 53 1.200000 0.464000 0.560000 1400 46 1.000000 1.594000 1.708000 600 49 1.000000 0.052000 0.052000 1.200000 0.024000 0.028000
1560114452149055904	1300 53 1.200000 0.465000 0.561000 1400 46 1.000000 1.616000 1.732000 600 49 1.000000 0.053000 0.053000 1.200000 0.025000 0.030000
1560114452655170112	1300 53 1.200000 0.464000 0.560000 1400 45 1.000000 1.605000 1.720000 600 49 1.000000 0.053000 0.053000 1.200000 0.027000 0.032000
1560114453162377654	1300 53 1.200000 0.463000 0.558000 1400 45 1.000000 1.606000 1.721000 600 50 1.000000 0.053000 0.053000 1.200000 0.025000 0.030000
1560114453670612113	1300 53 1.200000 0.468000 0.564000 1400 45 1.000000 1.639000 1.757000 600 49 1.000000 0.053000 0.053000 1.200000 0.025000 0.030000
1560114454176545571	1300 53 1.200000 0.464000 0.560000 1400 45 1.000000 1.597000 1.711000 600 49 1.000000 0.053000 0.053000 1.200000 0.025000 0.030000
1560114454682502863	1300 53 1.200000 0.464000 0.560000 1400 45 1.000000 1.602000 1.717000 600 49 1.000000 0.053000 0.053000 1.200000 0.026000 0.031000
1560114455188463738	1300 53 1.200000 0.463000 0.558000 1400 45 1.000000 1.592000 1.706000 600 49 1.000000 0.053000 0.053000 1.200000 0.028000 0.033000
1560114455694307029	1300 53 1.200000 0.465000 0.561000 1400 45 1.000000 1.614000 1.730000 600 49 1.000000 0.052000 0.052000 1.200000 0.032000 0.038000
1560114456200376863	1300 53 1.200000 0.465000 0.561000 1400 45 1.000000 1.589000 1.703000 600 49 1.000000 0.053000 0.053000 1.200000 0.024000 0.028000
1560114456706226863	1300 53 1.200000 0.464000 0.560000 1400 45 1.000000 1.688000 1.809000 600 49 1.000000 0.053000 0.053000 1.200000 0.026000 0.031000
1560114457212206863	1300 53 1.200000 0.464000 0.560000 1400 45 1.000000 1.599000 1.714000 600 49 1.000000 0.053000 0.053000 1.200000 0.025000 0.030000
1560114457718133071	1300 53 1.200000 0.464000 0.560000 1400 45 1.000000 1.829000 1.962000 600 49 1.000000 0.052000 0.052000 1.200000 0.032000 0.038000
1560114458224150571	1300 53 1.200000 0.464000 0.560000 1400 45 1.000000 1.599000 1.714000 600 49 1.000000 0.052000 0.052000 1.200000 0.025000 0.030000
1560114458730074238	1300 53 1.200000 0.465000 0.561000 1400 45 1.000000 1.593000 1.707000 600 49 1.000000 0.053000 0.053000 1.200000 0.025000 0.030000
1560114459236049655	1300 53 1.200000 0.464000 0.560000 1400 45 1.000000 1.713000 1.838000 600 49 1.000000 0.053000 0.053000 1.200000 0.028000 0.033000
1560114459741927780	1300 53 1.200000 0.464000 0.560000 1400 46 1.000000 1.601000 1.716000 600 49 1.000000 0.053000 0.053000 1.200000 0.026000 0.031000
1560114460247970030	1300 53 1.200000 0.464000 0.560000 1400 45 1.000000 1.620000 1.736000 600 49 1.000000 0.052000 0.052000 1.200000 0.025000 0.030000
1560114460753862530	1300 53 1.200000 0.464000 0.560000 1400 45 1.000000 1.605000 1.720000 600 49 1.000000 0.052000 0.052000 1.200000 0.026000 0.031000
1560114461259914238	1300 53 1.200000 0.464000 0.560000 1400 45 1.000000 1.712000 1.836000 600 49 1.000000 0.052000 0.052000 1.200000 0.029000 0.035000
1560114461765828864	1300 53 1.200000 0.464000 0.560000 1400 45 1.000000 1.607000 1.722000 600 49 1.000000 0.053000 0.053000 1.200000 0.026000 0.031000
1560114462271865405	1300 53 1.200000 0.464000 0.560000 1400 45 1.000000 1.616000 1.732000 600 49 1.000000 0.052000 0.052000 1.200000 0.026000 0.031000
1560114462777780072	1300 53 1.200000 0.465000 0.561000 1400 45 1.000000 1.610000 1.725000 600 49 1.000000 0.053000 0.053000 1.200000 0.025000 0.030000
1560114463283740280	1300 53 1.200000 0.464000 0.560000 1400 45 1.000000 1.609000 1.724000 600 49 1.000000 0.053000 0.053000 1.200000 0.026000 0.031000
1560114463789536739	1300 53 1.200000 0.463000 0.558000 1400 45 1.000000 1.619000 1.735000 600 49 1.000000 0.053000 0.053000 1.200000 0.024000 0.028000
1560114464295522697	1300 53 1.200000 0.464000 0.560000 1400 45 1.000000 1.597000 1.711000 600 49 1.000000 0.053000 0.053000 1.200000 0.024000 0.028000
1560114464801361864	1300 53 1.200000 0.464000 0.560000 1400 45 1.000000 1.620000 1.736000 600 50 1.000000 0.052000 0.052000 1.200000 0.026000 0.031000
1560114465307495406	1300 52 1.200000 0.464000 0.560000 1400 45 1.000000 1.691000 1.814000 600 49 1.000000 0.053000 0.053000 1.200000 0.031000 0.037000
1560114465814459447	1300 53 1.200000 0.463000 0.558000 1400 45 1.000000 1.620000 1.736000 600 49 1.000000 0.052000 0.052000 1.200000 0.026000 0.031000
1560114466320652281	1300 53 1.200000 0.467000 0.563000 1400 45 1.000000 1.812000 1.944000 600 49 1.000000 0.052000 0.052000 1.200000 0.034000 0.041000
1560114466827971989	1300 53 1.200000 0.463000 0.558000 1400 45 1.000000 1.622000 1.738000 600 50 1.000000 0.052000 0.052000 1.200000 0.025000 0.030000
1560114467334102198	1300 53 1.200000 0.464000 0.560000 1400 46 1.000000 1.689000 1.810000 600 49 1.000000 0.053000 0.053000 1.200000 0.030000 0.036000
1560114467840109364	1300 53 1.200000 0.464000 0.560000 1400 45 1.000000 1.623000 1.739000 600 49 1.000000 0.053000 0.053000 1.200000 0.026000 0.031000
1560114468346035198	1300 53 1.200000 0.463000 0.558000 1400 45 1.000000 1.827000 1.960000 600 49 1.000000 0.052000 0.052000 1.200000 0.031000 0.037000
1560114468852083739	1300 53 1.200000 0.465000 0.561000 1400 45 1.000000 1.624000 1.740000 600 49 1.000000 0.053000 0.053000 1.200000 0.025000 0.030000
1560114469358097531	1300 53 1.200000 0.473000 0.570000 1400 45 1.000000 1.611000 1.726000 600 49 1.000000 0.053000 0.053000 1.200000 0.026000 0.031000
1560114469864862323	1300 53 1.200000 0.463000 0.558000 1400 45 1.000000 1.599000 1.714000 600 49 1.000000 0.053000 0.053000 1.200000 0.025000 0.030000
1560114470371034656	1300 53 1.200000 0.463000 0.558000 1400 45 1.000000 1.828000 1.961000 600 49 1.000000 0.052000 0.052000 1.200000 0.031000 0.037000
1560114470876975156	1300 53 1.200000 0.463000 0.558000 1400 45 1.000000 1.624000 1.740000 600 49 1.000000 0.052000 0.052000 1.200000 0.026000 0.031000
1560114471383118865	1300 53 1.200000 0.464000 0.560000 1400 45 1.000000 1.703000 1.825000 600 49 1.000000 0.053000 0.053000 1.200000 0.029000 0.035000
1560114471888957281	1300 53 1.200000 0.464000 0.560000 1400 45 1.000000 1.616000 1.732000 600 49 1.000000 0.053000 0.053000 1.200000 0.025000 0.030000
1560114472394780240	1300 53 1.200000 0.463000 0.558000 1400 45 1.000000 1.600000 1.715000 600 49 1.000000 0.053000 0.053000 1.200000 0.026000 0.031000
1560114472900639490	1300 53 1.200000 0.465000 0.561000 1400 45 1.000000 1.611000 1.726000 600 49 1.000000 0.053000 0.053000 1.200000 0.025000 0.030000
1560114473407631240	1300 53 1.200000 0.463000 0.558000 1400 45 1.000000 1.716000 1.841000 600 49 1.000000 0.053000 0.053000 1.200000 0.030000 0.036000
1560114473913782448	1300 53 1.200000 0.464000 0.560000 1400 45 1.000000 1.613000 1.729000 600 49 1.000000 0.053000 0.053000 1.200000 0.026000 0.031000
1560114474419680782	1300 53 1.200000 0.464000 0.560000 1400 45 1.000000 1.610000 1.725000 600 49 1.000000 0.052000 0.052000 1.200000 0.024000 0.028000
1560114474925573032	1300 53 1.200000 0.464000 0.560000 1400 45 1.000000 1.597000 1.711000 600 49 1.000000 0.053000 0.053000 1.200000 0.026000 0.031000
1560114475431697782	1300 53 1.200000 0.464000 0.560000 1400 45 1.000000 1.703000 1.825000 600 49 1.000000 0.053000 0.053000 1.200000 0.028000 0.033000
1560114475937506990	1300 53 1.200000 0.464000 0.560000 1400 45 1.000000 1.597000 1.711000 600 49 1.000000 0.053000 0.053000 1.200000 0.025000 0.030000
1560114476443282157	1300 53 1.200000 0.464000 0.560000 1400 45 1.000000 1.613000 1.729000 600 50 1.000000 0.053000 0.053000 1.200000 0.025000 0.030000
1560114476949229449	1300 53 1.200000 0.463000 0.558000 1400 45 1.000000 1.830000 1.963000 600 49 1.000000 0.052000 0.052000 1.200000 0.030000 0.036000
1560114477455389949	1300 53 1.200000 0.464000 0.560000 1400 45 1.000000 1.727000 1.853000 600 49 1.000000 0.052000 0.052000 1.200000 0.030000 0.036000
1560114477961307449	1300 53 1.200000 0.463000 0.558000 1400 45 1.000000 1.603000 1.718000 600 49 1.000000 0.052000 0.052000 1.200000 0.025000 0.030000
1560114478467801866	1300 53 1.200000 0.464000 0.560000 1400 45 1.000000 1.626000 1.743000 600 50 1.000000 0.053000 0.053000 1.200000 0.026000 0.031000
1560114478973849074	1300 53 1.200000 0.469000 0.566000 1400 45 1.000000 1.810000 1.942000 600 49 1.000000 0.053000 0.053000 1.200000 0.032000 0.038000
1560114479479910991	1300 53 1.200000 0.464000 0.560000 1400 45 1.000000 1.725000 1.849000 600 49 1.000000 0.052000 0.052000 1.200000 0.030000 0.036000
1560114479985848074	1300 53 1.200000 0.465000 0.561000 1400 45 1.000000 1.599000 1.714000 600 49 1.000000 0.052000 0.052000 1.200000 0.024000 0.028000
1560114480491811449	1300 53 1.200000 0.464000 0.560000 1400 45 1.000000 1.610000 1.725000 600 49 1.000000 0.053000 0.053000 1.200000 0.025000 0.030000
1560114480997740366	1300 53 1.200000 0.470000 0.567000 1400 45 1.000000 1.772000 1.901000 600 49 1.000000 0.052000 0.052000 1.200000 0.032000 0.038000
1560114481503869241	1300 53 1.200000 0.473000 0.570000 1400 45 1.000000 1.647000 1.765000 600 49 1.000000 0.053000 0.053000 1.200000 0.030000 0.036000
1560114482009725574	1300 53 1.200000 0.464000 0.560000 1400 45 1.000000 1.598000 1.713000 600 49 1.000000 0.053000 0.053000 1.200000 0.025000 0.030000
1560114482515587449	1300 53 1.200000 0.463000 0.558000 1400 45 1.000000 1.602000 1.717000 600 49 1.000000 0.053000 0.053000 1.200000 0.025000 0.030000
1560114483021716158	1300 53 1.200000 0.463000 0.558000 1400 45 1.000000 1.647000 1.765000 600 49 1.000000 0.053000 0.053000 1.200000 0.029000 0.035000
1560114483527853158	1300 53 1.200000 0.464000 0.560000 1400 45 1.000000 1.694000 1.815000 600 49 1.000000 0.053000 0.053000 1.200000 0.029000 0.035000
1560114484033686908	1300 53 1.200000 0.464000 0.560000 1400 45 1.000000 1.616000 1.732000 600 49 1.000000 0.053000 0.053000 1.200000 0.026000 0.031000
1560114484539517991	1300 53 1.200000 0.463000 0.558000 1400 45 1.000000 1.602000 1.717000 600 49 1.000000 0.052000 0.052000 1.200000 0.025000 0.030000
1560114485045381575	1300 53 1.200000 0.467000 0.563000 1400 46 1.000000 1.676000 1.796000 600 49 1.000000 0.053000 0.053000 1.200000 0.030000 0.036000
1560114485551577325	1300 53 1.200000 0.463000 0.558000 1400 45 1.000000 1.687000 1.808000 600 49 1.000000 0.052000 0.052000 1.200000 0.028000 0.033000
1560114486057568366	1300 53 1.200000 0.464000 0.560000 1400 45 1.000000 1.592000 1.706000 600 49 1.000000 0.052000 0.052000 1.200000 0.025000 0.030000
1560114486563583575	1300 53 1.200000 0.464000 0.560000 1400 45 1.000000 1.596000 1.710000 600 49 1.000000 0.052000 0.052000 1.200000 0.025000 0.030000
1560114487069466575	1300 53 1.200000 0.463000 0.558000 1400 45 1.000000 1.673000 1.793000 600 49 1.000000 0.053000 0.053000 1.200000 0.030000 0.036000
1560114487575652242	1300 53 1.200000 0.463000 0.558000 1400 45 1.000000 1.687000 1.808000 600 49 1.000000 0.052000 0.052000 1.200000 0.028000 0.033000
1560114488081576200	1300 53 1.200000 0.464000 0.560000 1400 45 1.000000 1.596000 1.710000 600 49 1.000000 0.053000 0.053000 1.200000 0.025000 0.030000
1560114488587518908	1300 53 1.200000 0.464000 0.560000 1400 45 1.000000 1.598000 1.713000 600 49 1.000000 0.052000 0.052000 1.200000 0.024000 0.028000
1560114489093648450	1300 53 1.200000 0.464000 0.560000 1400 45 1.000000 1.610000 1.725000 600 50 1.000000 0.053000 0.053000 1.200000 0.025000 0.030000
1560114489599706950	1300 53 1.200000 0.472000 0.569000 1400 45 1.000000 1.791000 1.921000 600 49 1.000000 0.052000 0.052000 1.200000 0.033000 0.039000
1560114490105740825	1300 53 1.200000 0.464000 0.560000 1400 45 1.000000 1.609000 1.724000 600 49 1.000000 0.053000 0.053000 1.200000 0.026000 0.031000
1560114490611749325	1300 53 1.200000 0.464000 0.560000 1400 45 1.000000 1.596000 1.710000 600 49 1.000000 0.053000 0.053000 1.200000 0.025000 0.030000
1560114491119244409	1300 53 1.200000 0.463000 0.558000 1400 45 1.000000 1.595000 1.709000 600 49 1.000000 0.053000 0.053000 1.200000 0.025000 0.030000
1560114491625369325	1300 53 1.200000 0.463000 0.558000 1400 45 1.000000 1.792000 1.922000 600 49 1.000000 0.053000 0.053000 1.200000 0.030000 0.036000
1560114492131473450	1300 53 1.200000 0.465000 0.561000 1400 45 1.000000 1.605000 1.720000 600 49 1.000000 0.052000 0.052000 1.200000 0.025000 0.030000
1560114492637446492	1300 52 1.200000 0.464000 0.560000 1400 45 1.000000 1.593000 1.707000 600 49 1.000000 0.053000 0.053000 1.200000 0.025000 0.030000
1560114493143425326	1300 53 1.200000 0.464000 0.560000 1400 45 1.000000 1.597000 1.711000 600 49 1.000000 0.052000 0.052000 1.200000 0.026000 0.031000
1560114493649440034	1300 53 1.200000 0.470000 0.567000 1400 46 1.000000 1.753000 1.880000 600 49 1.000000 0.053000 0.053000 1.200000 0.033000 0.039000
1560114494155461534	1300 53 1.200000 0.464000 0.560000 1400 45 1.000000 1.597000 1.711000 600 49 1.000000 0.052000 0.052000 1.200000 0.026000 0.031000
1560114494661283242	1300 53 1.200000 0.464000 0.560000 1400 45 1.000000 1.619000 1.735000 600 49 1.000000 0.053000 0.053000 1.200000 0.024000 0.028000
1560114495167247326	1300 53 1.200000 0.464000 0.560000 1400 45 1.000000 1.599000 1.714000 600 49 1.000000 0.053000 0.053000 1.200000 0.026000 0.031000
1560114495673227159	1300 53 1.200000 0.463000 0.558000 1400 45 1.000000 1.596000 1.710000 600 49 1.000000 0.052000 0.052000 1.200000 0.026000 0.031000
1560114496179169451	1300 53 1.200000 0.465000 0.561000 1400 45 1.000000 1.670000 1.790000 600 49 1.000000 0.053000 0.053000 1.200000 0.029000 0.035000
1560114496684950534	1300 53 1.200000 0.464000 0.560000 1400 45 1.000000 1.620000 1.736000 600 49 1.000000 0.053000 0.053000 1.200000 0.025000 0.030000
1560114497191056034	1300 53 1.200000 0.463000 0.558000 1400 45 1.000000 1.599000 1.714000 600 49 1.000000 0.053000 0.053000 1.200000 0.025000 0.030000
1560114497696870784	1300 53 1.200000 0.464000 0.560000 1400 46 1.000000 1.617000 1.733000 600 49 1.000000 0.052000 0.052000 1.200000 0.026000 0.031000
1560114498203789576	1300 53 1.200000 0.464000 0.560000 1400 45 1.000000 1.658000 1.777000 600 49 1.000000 0.053000 0.053000 1.200000 0.027000 0.032000
1560114498709813868	1300 53 1.200000 0.464000 0.560000 1400 45 1.000000 1.610000 1.725000 600 49 1.000000 0.052000 0.052000 1.200000 0.026000 0.031000
1560114499215807910	1300 53 1.200000 0.464000 0.560000 1400 45 1.000000 1.602000 1.717000 600 49 1.000000 0.052000 0.052000 1.200000 0.026000 0.031000
1560114499721480576	1300 53 1.200000 0.463000 0.558000 1400 45 1.000000 1.613000 1.729000 600 50 1.000000 0.053000 0.053000 1.200000 0.025000 0.030000
1560114500227538368	1300 53 1.200000 0.463000 0.558000 1400 45 1.000000 1.626000 1.743000 600 49 1.000000 0.052000 0.052000 1.200000 0.026000 0.031000
1560114500733652077	1300 53 1.200000 0.463000 0.558000 1400 45 1.000000 1.610000 1.725000 600 49 1.000000 0.053000 0.053000 1.200000 0.025000 0.030000
1560114501239618160	1300 53 1.200000 0.464000 0.560000 1400 45 1.000000 1.605000 1.720000 600 49 1.000000 0.053000 0.053000 1.200000 0.025000 0.030000
1560114501746397368	1300 53 1.200000 0.463000 0.558000 1400 45 1.000000 1.613000 1.729000 600 50 1.000000 0.053000 0.053000 1.200000 0.025000 0.030000
1560114502252509827	1300 53 1.200000 0.465000 0.561000 1400 45 1.000000 1.921000 2.061000 600 49 1.000000 0.053000 0.053000 1.200000 0.036000 0.043000
1560114502759272243	1300 53 1.200000 0.463000 0.558000 1400 45 1.000000 1.598000 1.713000 600 49 1.000000 0.053000 0.053000 1.200000 0.025000 0.030000
1560114503265355410	1300 53 1.200000 0.463000 0.558000 1400 45 1.000000 1.620000 1.736000 600 49 1.000000 0.053000 0.053000 1.200000 0.027000 0.032000
1560114503771390202	1300 53 1.200000 0.463000 0.558000 1400 45 1.000000 1.611000 1.726000 600 49 1.000000 0.053000 0.053000 1.200000 0.026000 0.031000
1560114504277444077	1300 53 1.200000 0.463000 0.558000 1400 45 1.000000 1.859000 1.994000 600 49 1.000000 0.052000 0.052000 1.200000 0.031000 0.037000
1560114504783405077	1300 53 1.200000 0.465000 0.561000 1400 45 1.000000 1.596000 1.710000 600 49 1.000000 0.053000 0.053000 1.200000 0.026000 0.031000
1560114505289353910	1300 53 1.200000 0.463000 0.558000 1400 45 1.000000 1.623000 1.739000 600 49 1.000000 0.053000 0.053000 1.200000 0.026000 0.031000
1560114505795483535	1300 53 1.200000 0.463000 0.558000 1400 45 1.000000 1.605000 1.720000 600 49 1.000000 0.053000 0.053000 1.200000 0.026000 0.031000
1560114506301551077	1300 53 1.200000 0.465000 0.561000 1400 45 1.000000 1.859000 1.994000 600 49 1.000000 0.052000 0.052000 1.200000 0.031000 0.037000
1560114506807450327	1300 53 1.200000 0.463000 0.558000 1400 45 1.000000 1.596000 1.710000 600 49 1.000000 0.052000 0.052000 1.200000 0.024000 0.028000
1560114507313372036	1300 53 1.200000 0.464000 0.560000 1400 45 1.000000 1.599000 1.714000 600 49 1.000000 0.053000 0.053000 1.200000 0.026000 0.031000
1560114507819521702	1300 53 1.200000 0.464000 0.560000 1400 45 1.000000 1.608000 1.723000 600 49 1.000000 0.053000 0.053000 1.200000 0.027000 0.032000
1560114508325547911	1300 53 1.200000 0.464000 0.560000 1400 45 1.000000 1.699000 1.821000 600 49 1.000000 0.052000 0.052000 1.200000 0.030000 0.036000
1560114508831496661	1300 53 1.200000 0.464000 0.560000 1400 45 1.000000 1.606000 1.721000 600 49 1.000000 0.053000 0.053000 1.200000 0.025000 0.030000
1560114509337335536	1300 53 1.200000 0.463000 0.558000 1400 45 1.000000 1.610000 1.725000 600 49 1.000000 0.052000 0.052000 1.200000 0.025000 0.030000
1560114509843315161	1300 53 1.200000 0.464000 0.560000 1400 45 1.000000 1.616000 1.732000 600 49 1.000000 0.053000 0.053000 1.200000 0.026000 0.031000
1560114510349226619	1300 53 1.200000 0.464000 0.560000 1400 45 1.000000 1.611000 1.726000 600 49 1.000000 0.053000 0.053000 1.200000 0.026000 0.031000
1560114510855216244	1300 53 1.200000 0.464000 0.560000 1400 45 1.000000 1.611000 1.726000 600 49 1.000000 0.052000 0.052000 1.200000 0.026000 0.031000
1560114511361125953	1300 53 1.200000 0.464000 0.560000 1400 45 1.000000 1.606000 1.721000 600 49 1.000000 0.052000 0.052000 1.200000 0.026000 0.031000
1560114511867075370	1300 53 1.200000 0.464000 0.560000 1400 45 1.000000 1.601000 1.716000 600 49 1.000000 0.053000 0.053000 1.200000 0.025000 0.030000
1560114512372822911	1300 53 1.200000 0.464000 0.560000 1400 45 1.000000 1.598000 1.713000 600 50 1.000000 0.053000 0.053000 1.200000 0.025000 0.030000
1560114512878676620	1300 46 1.200000 0.467000 0.563000 1400 44 1.000000 1.598000 1.713000 600 48 1.000000 0.052000 0.052000 1.200000 0.025000 0.030000
1560114513384150620	1300 43 1.200000 0.073000 0.089000 1400 42 1.000000 0.177000 0.190000 600 46 1.000000 0.052000 0.052000 1.200000 0.022000 0.026000
