#Timestamp	CPU(0) Frequency(MHz)	CPU(0) Temperature(C)	A7 Voltage(V)	A7 Current(A)	A7 Power(W)	CPU(4) Frequency(MHz)	CPU(4) Temperature(C)	A15 Voltage(V)	A15 Current(A)	A15 Power(W)	GPU Frequency(MHz)	GPU Temperature(C)	GPU Voltage(V)	GPU Current(A)	GPU Power(W)	RAM Voltage(V)	RAM Current(A)	RAM Power(W)
1559784479994788193	900 32 1.000000 0.129000 0.136000 300 31 0.900000 0.075000 0.068000 600 35 1.000000 0.050000 0.050000 1.200000 0.075000 0.090000
1559784480506839568	900 32 1.000000 0.040000 0.042000 300 31 0.900000 0.186000 0.169000 600 35 1.000000 0.050000 0.050000 1.200000 0.033000 0.039000
1559784481018766276	900 32 1.000000 0.042000 0.044000 300 31 0.900000 0.184000 0.167000 600 35 1.000000 0.051000 0.051000 1.200000 0.033000 0.039000
1559784481530748276	900 32 1.000000 0.043000 0.045000 300 30 0.900000 0.184000 0.167000 600 35 1.000000 0.050000 0.050000 1.200000 0.032000 0.038000
1559784482042875235	900 32 1.000000 0.071000 0.075000 300 30 0.900000 0.184000 0.167000 600 35 1.000000 0.050000 0.050000 1.200000 0.044000 0.053000
1559784482554776527	900 32 1.000000 0.039000 0.041000 300 30 0.900000 0.185000 0.168000 600 35 1.000000 0.050000 0.050000 1.200000 0.031000 0.037000
1559784483067632443	900 32 1.000000 0.039000 0.041000 300 31 0.900000 0.186000 0.169000 600 35 1.000000 0.051000 0.051000 1.200000 0.031000 0.037000
1559784483579690235	900 32 1.000000 0.039000 0.041000 300 30 0.900000 0.185000 0.168000 600 35 1.000000 0.050000 0.050000 1.200000 0.031000 0.037000
1559784484094184610	900 32 1.000000 0.041000 0.043000 300 30 0.900000 0.184000 0.167000 600 35 1.000000 0.050000 0.050000 1.200000 0.032000 0.038000
1559784484606880944	900 32 1.000000 0.068000 0.072000 300 30 0.900000 0.170000 0.155000 600 34 1.000000 0.050000 0.050000 1.200000 0.024000 0.028000
1559784485119741902	900 32 1.000000 0.040000 0.042000 300 30 0.900000 0.170000 0.155000 600 34 1.000000 0.051000 0.051000 1.200000 0.024000 0.028000
1559784485631983735	900 32 1.000000 0.043000 0.045000 300 30 0.900000 0.171000 0.155000 600 34 1.000000 0.050000 0.050000 1.200000 0.023000 0.027000
1559784486144671027	900 32 1.000000 0.042000 0.044000 300 30 0.900000 0.170000 0.155000 600 34 1.000000 0.050000 0.050000 1.200000 0.025000 0.030000
1559784486656602152	900 32 1.000000 0.056000 0.059000 300 30 0.900000 0.173000 0.157000 600 34 1.000000 0.051000 0.051000 1.200000 0.043000 0.052000
1559784487169715194	900 32 1.000000 0.040000 0.042000 300 30 0.900000 0.169000 0.154000 600 34 1.000000 0.050000 0.050000 1.200000 0.025000 0.030000
1559784487681896152	900 32 1.000000 0.061000 0.064000 300 30 0.900000 0.173000 0.157000 600 34 1.000000 0.050000 0.050000 1.200000 0.033000 0.039000
1559784488193959444	900 32 1.000000 0.042000 0.044000 300 30 0.900000 0.172000 0.156000 600 34 1.000000 0.050000 0.050000 1.200000 0.026000 0.031000
1559784488705815027	900 32 1.000000 0.049000 0.052000 300 30 0.900000 0.170000 0.155000 600 34 1.000000 0.050000 0.050000 1.200000 0.030000 0.036000
1559784489217562069	900 31 1.000000 0.039000 0.041000 300 30 0.900000 0.169000 0.154000 600 34 1.000000 0.050000 0.050000 1.200000 0.026000 0.031000
1559784489729609152	900 31 1.000000 0.053000 0.056000 300 30 0.900000 0.173000 0.157000 600 34 1.000000 0.050000 0.050000 1.200000 0.032000 0.038000
1559784490241569486	900 31 1.000000 0.038000 0.040000 300 30 0.900000 0.170000 0.155000 600 34 1.000000 0.050000 0.050000 1.200000 0.024000 0.028000
1559784490754638694	900 31 1.000000 0.043000 0.045000 300 30 0.900000 0.171000 0.155000 600 34 1.000000 0.050000 0.050000 1.200000 0.024000 0.028000
1559784491266928403	900 31 1.000000 0.093000 0.098000 300 30 0.900000 0.174000 0.158000 600 34 1.000000 0.051000 0.051000 1.200000 0.032000 0.038000
1559784491779011986	900 31 1.000000 0.061000 0.064000 300 30 0.900000 0.172000 0.156000 600 34 1.000000 0.050000 0.050000 1.200000 0.031000 0.037000
1559784492290858528	900 31 1.000000 0.041000 0.043000 300 30 0.900000 0.170000 0.155000 600 34 1.000000 0.050000 0.050000 1.200000 0.024000 0.028000
1559784492802887569	900 32 1.000000 0.039000 0.041000 300 30 0.900000 0.170000 0.155000 600 34 1.000000 0.050000 0.050000 1.200000 0.024000 0.028000
1559784493315024070	900 31 1.000000 0.088000 0.093000 300 30 0.900000 0.179000 0.163000 600 34 1.000000 0.050000 0.050000 1.200000 0.045000 0.054000
1559784493827217611	900 31 1.000000 0.059000 0.062000 300 30 0.900000 0.171000 0.156000 600 34 1.000000 0.050000 0.050000 1.200000 0.027000 0.032000
1559784494338911195	900 31 1.000000 0.038000 0.040000 300 30 0.900000 0.169000 0.154000 600 34 1.000000 0.050000 0.050000 1.200000 0.023000 0.027000
1559784494851512861	900 31 1.000000 0.042000 0.044000 300 30 0.900000 0.170000 0.155000 600 34 1.000000 0.050000 0.050000 1.200000 0.025000 0.030000
1559784495363281695	900 31 1.000000 0.042000 0.044000 300 30 0.900000 0.171000 0.155000 600 34 1.000000 0.050000 0.050000 1.200000 0.025000 0.030000
1559784495875491362	900 31 1.000000 0.068000 0.072000 300 30 0.900000 0.175000 0.159000 600 34 1.000000 0.050000 0.050000 1.200000 0.036000 0.043000
1559784496387327570	900 31 1.000000 0.039000 0.041000 300 30 0.900000 0.170000 0.155000 600 34 1.000000 0.050000 0.050000 1.200000 0.026000 0.031000
1559784496899209903	900 31 1.000000 0.042000 0.044000 300 30 0.900000 0.169000 0.154000 600 34 1.000000 0.050000 0.050000 1.200000 0.024000 0.028000
1559784497411850153	900 31 1.000000 0.042000 0.044000 300 30 0.900000 0.170000 0.155000 600 34 1.000000 0.050000 0.050000 1.200000 0.025000 0.030000
1559784497923986195	900 31 1.000000 0.077000 0.081000 300 30 0.900000 0.180000 0.164000 600 34 1.000000 0.050000 0.050000 1.200000 0.049000 0.059000
1559784498436089445	900 31 1.000000 0.040000 0.042000 300 30 0.900000 0.170000 0.155000 600 34 1.000000 0.050000 0.050000 1.200000 0.024000 0.028000
1559784498948090779	900 31 1.000000 0.041000 0.043000 300 30 0.900000 0.169000 0.154000 600 34 1.000000 0.050000 0.050000 1.200000 0.023000 0.027000
1559784499459941987	900 31 1.000000 0.042000 0.044000 300 30 0.900000 0.169000 0.154000 600 34 1.000000 0.050000 0.050000 1.200000 0.024000 0.028000
1559784499971979820	900 31 1.000000 0.080000 0.084000 300 30 0.900000 0.181000 0.165000 600 34 1.000000 0.050000 0.050000 1.200000 0.060000 0.072000
1559784500484048112	900 31 1.000000 0.039000 0.041000 300 30 0.900000 0.171000 0.155000 600 34 1.000000 0.050000 0.050000 1.200000 0.024000 0.028000
1559784500996015029	900 31 1.000000 0.039000 0.041000 300 30 0.900000 0.169000 0.154000 600 34 1.000000 0.050000 0.050000 1.200000 0.024000 0.028000
1559784501507900362	900 31 1.000000 0.038000 0.040000 300 30 0.900000 0.169000 0.154000 600 34 1.000000 0.050000 0.050000 1.200000 0.024000 0.028000
1559784502020882529	900 31 1.000000 0.080000 0.084000 300 30 0.900000 0.176000 0.160000 600 34 1.000000 0.050000 0.050000 1.200000 0.025000 0.030000
1559784502533324612	900 31 1.000000 0.039000 0.041000 300 30 0.900000 0.170000 0.155000 600 34 1.000000 0.050000 0.050000 1.200000 0.038000 0.045000
1559784503045428112	900 31 1.000000 0.040000 0.042000 300 30 0.900000 0.170000 0.155000 600 34 1.000000 0.050000 0.050000 1.200000 0.026000 0.031000
1559784503557506279	900 31 1.000000 0.039000 0.041000 300 30 0.900000 0.170000 0.155000 600 34 1.000000 0.050000 0.050000 1.200000 0.024000 0.028000
1559784504069707321	900 31 1.000000 0.042000 0.044000 300 30 0.900000 0.169000 0.154000 600 34 1.000000 0.050000 0.050000 1.200000 0.026000 0.031000
1559784504581633238	900 31 1.000000 0.072000 0.076000 300 30 0.900000 0.179000 0.163000 600 34 1.000000 0.050000 0.050000 1.200000 0.037000 0.044000
1559784505093416946	900 31 1.000000 0.040000 0.042000 300 30 0.900000 0.170000 0.155000 600 34 1.000000 0.050000 0.050000 1.200000 0.025000 0.030000
1559784505605474404	900 31 1.000000 0.042000 0.044000 300 30 0.900000 0.171000 0.155000 600 34 1.000000 0.050000 0.050000 1.200000 0.025000 0.030000
1559784506117607279	900 31 1.000000 0.046000 0.048000 300 30 0.900000 0.171000 0.156000 600 34 1.000000 0.050000 0.050000 1.200000 0.025000 0.030000
1559784506629687988	900 31 1.000000 0.045000 0.047000 300 30 0.900000 0.173000 0.157000 600 34 1.000000 0.050000 0.050000 1.200000 0.034000 0.041000
1559784507141722696	900 31 1.000000 0.040000 0.042000 300 30 0.900000 0.173000 0.157000 600 34 1.000000 0.050000 0.050000 1.200000 0.035000 0.042000
1559784507653566655	900 31 1.000000 0.038000 0.040000 300 30 0.900000 0.170000 0.155000 600 34 1.000000 0.050000 0.050000 1.200000 0.025000 0.030000
1559784508165558155	900 31 1.000000 0.039000 0.041000 300 30 0.900000 0.171000 0.155000 600 34 1.000000 0.050000 0.050000 1.200000 0.026000 0.031000
1559784508678728280	900 31 1.000000 0.039000 0.041000 300 30 0.900000 0.173000 0.157000 600 34 1.000000 0.050000 0.050000 1.200000 0.030000 0.036000
1559784509191123321	900 31 1.000000 0.039000 0.041000 300 30 0.900000 0.177000 0.161000 600 34 1.000000 0.050000 0.050000 1.200000 0.048000 0.058000
1559784509702938613	900 31 1.000000 0.041000 0.043000 300 30 0.900000 0.169000 0.154000 600 34 1.000000 0.050000 0.050000 1.200000 0.025000 0.030000
1559784510217461822	900 31 1.000000 0.043000 0.045000 300 30 0.900000 0.171000 0.156000 600 34 1.000000 0.050000 0.050000 1.200000 0.025000 0.030000
1559784510729631655	900 31 1.000000 0.049000 0.052000 300 30 0.900000 0.171000 0.156000 600 34 1.000000 0.050000 0.050000 1.200000 0.027000 0.032000
1559784511241778072	900 31 1.000000 0.086000 0.091000 300 30 0.900000 0.177000 0.161000 600 34 1.000000 0.050000 0.050000 1.200000 0.051000 0.061000
1559784511753730947	900 31 1.000000 0.038000 0.040000 300 30 0.900000 0.169000 0.154000 600 34 1.000000 0.050000 0.050000 1.200000 0.025000 0.030000
1559784512267412447	900 31 1.000000 0.041000 0.043000 300 30 0.900000 0.169000 0.154000 600 34 1.000000 0.050000 0.050000 1.200000 0.026000 0.031000
1559784512779730405	900 31 1.000000 0.062000 0.065000 300 30 0.900000 0.172000 0.157000 600 34 1.000000 0.050000 0.050000 1.200000 0.034000 0.041000
1559784513291650572	900 31 1.000000 0.042000 0.044000 300 30 0.900000 0.171000 0.156000 600 34 1.000000 0.050000 0.050000 1.200000 0.026000 0.031000
1559784513803664280	900 31 1.000000 0.052000 0.055000 300 30 0.900000 0.177000 0.161000 600 34 1.000000 0.050000 0.050000 1.200000 0.044000 0.053000
1559784514316521530	900 31 1.000000 0.040000 0.042000 300 30 0.900000 0.169000 0.154000 600 34 1.000000 0.050000 0.050000 1.200000 0.025000 0.030000
1559784514828978780	900 31 1.000000 0.057000 0.060000 300 30 0.900000 0.172000 0.157000 600 34 1.000000 0.050000 0.050000 1.200000 0.034000 0.041000
1559784515342162697	900 31 1.000000 0.038000 0.040000 300 30 0.900000 0.171000 0.156000 600 34 1.000000 0.050000 0.050000 1.200000 0.025000 0.030000
1559784515854504864	900 31 1.000000 0.073000 0.077000 300 30 0.900000 0.179000 0.163000 600 34 1.000000 0.050000 0.050000 1.200000 0.056000 0.067000
1559784516366412114	900 31 1.000000 0.040000 0.042000 300 30 0.900000 0.169000 0.154000 600 34 1.000000 0.050000 0.050000 1.200000 0.026000 0.031000
1559784516878470572	900 31 1.000000 0.061000 0.064000 300 30 0.900000 0.173000 0.157000 600 34 1.000000 0.050000 0.050000 1.200000 0.034000 0.041000
1559784517390362406	900 31 1.000000 0.043000 0.045000 300 30 0.900000 0.171000 0.155000 600 34 1.000000 0.050000 0.050000 1.200000 0.025000 0.030000
1559784517902496614	900 31 1.000000 0.067000 0.071000 300 30 0.900000 0.175000 0.159000 600 34 1.000000 0.050000 0.050000 1.200000 0.042000 0.050000
1559784518414268406	900 31 1.000000 0.040000 0.042000 300 30 0.900000 0.170000 0.155000 600 34 1.000000 0.050000 0.050000 1.200000 0.024000 0.029000
1559784518926516656	900 31 1.000000 0.059000 0.062000 300 30 0.900000 0.173000 0.157000 600 34 1.000000 0.051000 0.051000 1.200000 0.032000 0.038000
1559784519438680739	900 31 1.000000 0.038000 0.040000 300 30 0.900000 0.169000 0.154000 600 34 1.000000 0.050000 0.050000 1.200000 0.025000 0.030000
1559784519952223031	900 31 1.000000 0.056000 0.059000 300 30 0.900000 0.170000 0.155000 600 34 1.000000 0.050000 0.050000 1.200000 0.027000 0.032000
1559784520464684406	900 31 1.000000 0.039000 0.041000 300 30 0.900000 0.171000 0.155000 600 34 1.000000 0.050000 0.050000 1.200000 0.024000 0.028000
1559784520977578698	900 31 1.000000 0.061000 0.064000 300 30 0.900000 0.170000 0.155000 600 34 1.000000 0.050000 0.050000 1.200000 0.026000 0.031000
1559784521489810615	900 31 1.000000 0.041000 0.043000 300 30 0.900000 0.170000 0.155000 600 34 1.000000 0.050000 0.050000 1.200000 0.026000 0.031000
1559784522002483990	900 31 1.000000 0.042000 0.044000 300 30 0.900000 0.169000 0.154000 600 34 1.000000 0.050000 0.050000 1.200000 0.025000 0.030000
1559784522514795281	900 31 1.000000 0.052000 0.055000 300 30 0.900000 0.175000 0.159000 600 34 1.000000 0.050000 0.050000 1.200000 0.046000 0.055000
1559784523026839031	900 31 1.000000 0.041000 0.043000 300 30 0.900000 0.171000 0.156000 600 34 1.000000 0.050000 0.050000 1.200000 0.027000 0.032000
1559784523538608990	900 31 1.000000 0.040000 0.042000 300 30 0.900000 0.170000 0.155000 600 34 1.000000 0.050000 0.050000 1.200000 0.026000 0.031000
1559784524050298323	900 31 1.000000 0.041000 0.043000 300 30 0.900000 0.170000 0.155000 600 34 1.000000 0.050000 0.050000 1.200000 0.026000 0.031000
1559784524562235157	900 31 1.000000 0.045000 0.047000 300 30 0.900000 0.170000 0.155000 600 34 1.000000 0.050000 0.050000 1.200000 0.033000 0.039000
1559784525074177990	900 31 1.000000 0.049000 0.052000 300 30 0.900000 0.172000 0.157000 600 34 1.000000 0.050000 0.050000 1.200000 0.032000 0.038000
1559784525585966365	900 31 1.000000 0.040000 0.042000 300 30 0.900000 0.171000 0.155000 600 34 1.000000 0.050000 0.050000 1.200000 0.025000 0.030000
1559784526097668282	900 31 1.000000 0.039000 0.041000 300 30 0.900000 0.169000 0.154000 600 34 1.000000 0.050000 0.050000 1.200000 0.024000 0.029000
1559784526610911782	900 31 1.000000 0.039000 0.041000 300 30 0.900000 0.169000 0.154000 600 34 1.000000 0.050000 0.050000 1.200000 0.024000 0.029000
1559784527123262740	900 31 1.000000 0.059000 0.062000 300 30 0.900000 0.174000 0.158000 600 34 1.000000 0.050000 0.050000 1.200000 0.036000 0.043000
1559784527635090532	900 31 1.000000 0.038000 0.040000 300 30 0.900000 0.170000 0.155000 600 34 1.000000 0.050000 0.050000 1.200000 0.024000 0.029000
1559784528146809199	900 31 1.000000 0.039000 0.041000 300 30 0.900000 0.170000 0.155000 600 34 1.000000 0.050000 0.050000 1.200000 0.023000 0.027000
1559784528658725449	900 31 1.000000 0.042000 0.044000 300 30 0.900000 0.169000 0.154000 600 34 1.000000 0.050000 0.050000 1.200000 0.024000 0.029000
1559784529170796657	900 31 1.000000 0.088000 0.093000 300 30 0.900000 0.178000 0.162000 600 34 1.000000 0.050000 0.050000 1.200000 0.051000 0.061000
1559784529683209074	900 31 1.000000 0.064000 0.067000 300 30 0.900000 0.169000 0.154000 600 34 1.000000 0.051000 0.051000 1.200000 0.026000 0.031000
1559784530195001991	900 31 1.000000 0.041000 0.043000 300 30 0.900000 0.170000 0.155000 600 34 1.000000 0.050000 0.050000 1.200000 0.025000 0.030000
1559784530707022991	900 31 1.000000 0.043000 0.045000 300 30 0.900000 0.172000 0.157000 600 34 1.000000 0.050000 0.050000 1.200000 0.026000 0.031000
1559784531218852407	900 31 1.000000 0.041000 0.043000 300 30 0.900000 0.169000 0.154000 600 34 1.000000 0.050000 0.050000 1.200000 0.027000 0.032000
1559784531730692199	900 31 1.000000 0.055000 0.058000 300 30 0.900000 0.170000 0.155000 600 34 1.000000 0.050000 0.050000 1.200000 0.026000 0.031000
1559784532242436491	900 31 1.000000 0.041000 0.043000 300 30 0.900000 0.169000 0.154000 600 34 1.000000 0.050000 0.050000 1.200000 0.025000 0.030000
1559784532754374741	900 31 1.000000 0.042000 0.044000 300 30 0.900000 0.170000 0.155000 600 34 1.000000 0.050000 0.050000 1.200000 0.025000 0.030000
1559784533268502866	900 31 1.000000 0.038000 0.040000 300 30 0.900000 0.169000 0.154000 600 34 1.000000 0.050000 0.050000 1.200000 0.024000 0.028000
1559784533782385116	900 31 1.000000 0.061000 0.064000 300 30 0.900000 0.175000 0.159000 600 34 1.000000 0.050000 0.050000 1.200000 0.039000 0.047000
1559784534294445449	900 31 1.000000 0.039000 0.041000 300 30 0.900000 0.169000 0.154000 600 34 1.000000 0.050000 0.050000 1.200000 0.023000 0.027000
1559784534806290699	900 31 1.000000 0.041000 0.043000 300 30 0.900000 0.169000 0.154000 600 34 1.000000 0.050000 0.050000 1.200000 0.024000 0.029000
1559784535318313408	900 31 1.000000 0.042000 0.044000 300 30 0.900000 0.170000 0.155000 600 34 1.000000 0.050000 0.050000 1.200000 0.024000 0.029000
1559784535830488908	900 31 1.000000 0.072000 0.076000 300 30 0.900000 0.179000 0.163000 600 34 1.000000 0.050000 0.050000 1.200000 0.054000 0.065000
1559784536342302575	900 31 1.000000 0.040000 0.042000 300 30 0.900000 0.169000 0.154000 600 34 1.000000 0.050000 0.050000 1.200000 0.024000 0.029000
1559784536854228908	900 31 1.000000 0.039000 0.041000 300 30 0.900000 0.168000 0.153000 600 34 1.000000 0.050000 0.050000 1.200000 0.024000 0.029000
1559784537366361033	900 31 1.000000 0.038000 0.040000 300 30 0.900000 0.169000 0.154000 600 34 1.000000 0.050000 0.050000 1.200000 0.024000 0.029000
1559784537880877742	900 31 1.000000 0.053000 0.056000 300 30 0.900000 0.177000 0.161000 600 34 1.000000 0.050000 0.050000 1.200000 0.044000 0.053000
1559784538393700783	900 31 1.000000 0.078000 0.082000 300 30 0.900000 0.174000 0.158000 600 34 1.000000 0.050000 0.050000 1.200000 0.036000 0.043000
1559784538905727950	900 31 1.000000 0.040000 0.042000 300 30 0.900000 0.170000 0.155000 600 34 1.000000 0.050000 0.050000 1.200000 0.025000 0.030000
1559784539418764575	900 31 1.000000 0.041000 0.043000 300 30 0.900000 0.169000 0.154000 600 34 1.000000 0.050000 0.050000 1.200000 0.026000 0.031000
1559784539935221033	900 31 1.000000 0.060000 0.063000 300 30 0.900000 0.171000 0.156000 600 34 1.000000 0.050000 0.050000 1.200000 0.030000 0.036000
1559784540447679242	900 31 1.000000 0.085000 0.090000 300 30 0.900000 0.178000 0.162000 600 34 1.000000 0.050000 0.050000 1.200000 0.049000 0.059000
1559784540959719992	900 31 1.000000 0.039000 0.041000 300 30 0.900000 0.169000 0.154000 600 34 1.000000 0.050000 0.050000 1.200000 0.024000 0.029000
1559784541472413659	900 31 1.000000 0.040000 0.042000 300 30 0.900000 0.169000 0.154000 600 34 1.000000 0.050000 0.050000 1.200000 0.024000 0.029000
1559784541984840409	900 31 1.000000 0.060000 0.063000 300 30 0.900000 0.169000 0.154000 600 34 1.000000 0.050000 0.050000 1.200000 0.025000 0.030000
1559784542496912075	900 31 1.000000 0.041000 0.043000 300 30 0.900000 0.177000 0.161000 600 34 1.000000 0.050000 0.050000 1.200000 0.049000 0.059000
1559784543008955242	900 31 1.000000 0.043000 0.045000 300 30 0.900000 0.170000 0.155000 600 34 1.000000 0.050000 0.050000 1.200000 0.024000 0.029000
1559784543520846951	900 31 1.000000 0.041000 0.043000 300 30 0.900000 0.169000 0.154000 600 34 1.000000 0.050000 0.050000 1.200000 0.024000 0.029000
1559784544033032451	900 31 1.000000 0.060000 0.063000 300 30 0.900000 0.169000 0.154000 600 34 1.000000 0.050000 0.050000 1.200000 0.024000 0.029000
1559784544546204159	900 31 1.000000 0.038000 0.040000 300 30 0.900000 0.173000 0.157000 600 34 1.000000 0.050000 0.050000 1.200000 0.035000 0.042000
1559784545058363492	900 31 1.000000 0.040000 0.042000 300 30 0.900000 0.170000 0.155000 600 34 1.000000 0.050000 0.050000 1.200000 0.045000 0.054000
1559784545570373867	900 31 1.000000 0.039000 0.041000 300 30 0.900000 0.170000 0.155000 600 34 1.000000 0.050000 0.050000 1.200000 0.026000 0.031000
1559784546082413284	900 31 1.000000 0.040000 0.042000 300 30 0.900000 0.173000 0.157000 600 34 1.000000 0.050000 0.050000 1.200000 0.035000 0.042000
1559784546594211118	900 31 1.000000 0.038000 0.040000 300 30 0.900000 0.169000 0.154000 600 34 1.000000 0.050000 0.050000 1.200000 0.025000 0.030000
1559784547106130368	900 31 1.000000 0.048000 0.051000 300 30 0.900000 0.179000 0.163000 600 34 1.000000 0.050000 0.050000 1.200000 0.055000 0.066000
1559784547618473743	900 31 1.000000 0.042000 0.044000 300 30 0.900000 0.170000 0.155000 600 34 1.000000 0.050000 0.050000 1.200000 0.026000 0.031000
1559784548130608576	900 31 1.000000 0.041000 0.043000 300 30 0.900000 0.171000 0.156000 600 34 1.000000 0.050000 0.050000 1.200000 0.026000 0.031000
1559784548642575868	900 31 1.000000 0.040000 0.042000 300 30 0.900000 0.169000 0.154000 600 34 1.000000 0.050000 0.050000 1.200000 0.026000 0.031000
1559784549154372493	900 31 1.000000 0.041000 0.043000 300 30 0.900000 0.169000 0.154000 600 34 1.000000 0.050000 0.050000 1.200000 0.026000 0.031000
1559784549666629993	900 31 1.000000 0.060000 0.063000 300 30 0.900000 0.174000 0.158000 600 34 1.000000 0.050000 0.050000 1.200000 0.041000 0.049000
1559784550178727576	900 31 1.000000 0.049000 0.052000 300 30 0.900000 0.171000 0.156000 600 34 1.000000 0.050000 0.050000 1.200000 0.025000 0.030000
1559784550690778368	900 31 1.000000 0.040000 0.042000 300 30 0.900000 0.171000 0.156000 600 34 1.000000 0.050000 0.050000 1.200000 0.025000 0.030000
1559784551203848368	900 31 1.000000 0.041000 0.043000 300 30 0.900000 0.170000 0.155000 600 34 1.000000 0.050000 0.050000 1.200000 0.025000 0.030000
1559784551716104452	900 31 1.000000 0.064000 0.067000 300 30 0.900000 0.178000 0.162000 600 34 1.000000 0.050000 0.050000 1.200000 0.055000 0.066000
1559784552228310785	900 31 1.000000 0.058000 0.061000 300 30 0.900000 0.169000 0.154000 600 34 1.000000 0.050000 0.050000 1.200000 0.026000 0.031000
1559784552740319827	900 31 1.000000 0.038000 0.040000 300 30 0.900000 0.170000 0.155000 600 34 1.000000 0.050000 0.050000 1.200000 0.026000 0.031000
1559784553252125327	900 31 1.000000 0.039000 0.041000 300 29 0.900000 0.170000 0.155000 600 34 1.000000 0.050000 0.050000 1.200000 0.026000 0.031000
1559784553764014952	900 31 1.000000 0.071000 0.075000 300 30 0.900000 0.175000 0.159000 600 34 1.000000 0.050000 0.050000 1.200000 0.044000 0.053000
1559784554276060993	900 31 1.000000 0.042000 0.044000 300 30 0.900000 0.170000 0.155000 600 34 1.000000 0.050000 0.050000 1.200000 0.029000 0.035000
1559784554788130327	900 31 1.000000 0.040000 0.042000 300 30 0.900000 0.170000 0.155000 600 34 1.000000 0.050000 0.050000 1.200000 0.024000 0.028000
1559784555300240827	900 31 1.000000 0.038000 0.040000 300 30 0.900000 0.170000 0.155000 600 34 1.000000 0.050000 0.050000 1.200000 0.024000 0.028000
1559784555812359785	900 31 1.000000 0.048000 0.051000 300 30 0.900000 0.170000 0.155000 600 34 1.000000 0.050000 0.050000 1.200000 0.028000 0.033000
1559784556324731369	900 31 1.000000 0.082000 0.087000 300 30 0.900000 0.178000 0.162000 600 34 1.000000 0.050000 0.050000 1.200000 0.051000 0.061000
1559784556836710785	900 31 1.000000 0.041000 0.043000 300 30 0.900000 0.169000 0.154000 600 34 1.000000 0.050000 0.050000 1.200000 0.026000 0.031000
1559784557348590869	900 31 1.000000 0.040000 0.042000 300 30 0.900000 0.169000 0.154000 600 34 1.000000 0.050000 0.050000 1.200000 0.025000 0.030000
1559784557861975911	900 31 1.000000 0.041000 0.043000 300 29 0.900000 0.170000 0.155000 600 34 1.000000 0.050000 0.050000 1.200000 0.025000 0.030000
1559784558374525786	900 31 1.000000 0.090000 0.095000 300 29 0.900000 0.177000 0.161000 600 34 1.000000 0.050000 0.050000 1.200000 0.048000 0.058000
1559784558886502494	900 31 1.000000 0.042000 0.044000 300 30 0.900000 0.169000 0.154000 600 34 1.000000 0.050000 0.050000 1.200000 0.025000 0.030000
1559784559398499661	900 31 1.000000 0.039000 0.041000 300 30 0.900000 0.168000 0.153000 600 34 1.000000 0.050000 0.050000 1.200000 0.026000 0.031000
1559784559910372827	900 31 1.000000 0.038000 0.040000 300 30 0.900000 0.170000 0.155000 600 34 1.000000 0.050000 0.050000 1.200000 0.026000 0.031000
1559784560422798286	900 31 1.000000 0.042000 0.044000 300 30 0.900000 0.173000 0.157000 600 34 1.000000 0.050000 0.050000 1.200000 0.035000 0.042000
1559784560934743286	900 31 1.000000 0.050000 0.053000 300 29 0.900000 0.170000 0.155000 600 34 1.000000 0.050000 0.050000 1.200000 0.026000 0.031000
1559784561446563244	900 31 1.000000 0.040000 0.042000 300 30 0.900000 0.169000 0.154000 600 34 1.000000 0.050000 0.050000 1.200000 0.025000 0.030000
1559784561958370536	900 31 1.000000 0.040000 0.042000 300 29 0.900000 0.169000 0.154000 600 34 1.000000 0.050000 0.050000 1.200000 0.024000 0.029000
1559784562471863911	900 31 1.000000 0.042000 0.044000 300 30 0.900000 0.169000 0.154000 600 34 1.000000 0.050000 0.050000 1.200000 0.024000 0.028000
1559784562984401411	900 31 1.000000 0.049000 0.052000 300 30 0.900000 0.172000 0.157000 600 34 1.000000 0.050000 0.050000 1.200000 0.028000 0.033000
1559784563496482411	900 31 1.000000 0.038000 0.040000 300 30 0.900000 0.169000 0.154000 600 34 1.000000 0.050000 0.050000 1.200000 0.024000 0.028000
1559784564008432120	900 31 1.000000 0.038000 0.040000 300 30 0.900000 0.169000 0.154000 600 34 1.000000 0.050000 0.050000 1.200000 0.024000 0.029000
1559784564520861828	900 31 1.000000 0.039000 0.041000 300 30 0.900000 0.169000 0.154000 600 34 1.000000 0.050000 0.050000 1.200000 0.024000 0.028000
1559784565033456745	900 31 1.000000 0.094000 0.099000 300 30 0.900000 0.176000 0.160000 600 34 1.000000 0.050000 0.050000 1.200000 0.044000 0.053000
1559784565545771620	900 31 1.000000 0.042000 0.044000 300 29 0.900000 0.171000 0.156000 600 34 1.000000 0.051000 0.051000 1.200000 0.025000 0.030000
1559784566057530745	900 31 1.000000 0.040000 0.042000 300 30 0.900000 0.170000 0.155000 600 34 1.000000 0.050000 0.050000 1.200000 0.025000 0.030000
1559784566570634245	900 31 1.000000 0.038000 0.040000 300 29 0.900000 0.169000 0.154000 600 34 1.000000 0.050000 0.050000 1.200000 0.025000 0.030000
1559784567082756578	900 31 1.000000 0.062000 0.065000 300 30 0.900000 0.172000 0.157000 600 34 1.000000 0.050000 0.050000 1.200000 0.034000 0.041000
1559784567594619578	900 31 1.000000 0.068000 0.072000 300 29 0.900000 0.170000 0.155000 600 34 1.000000 0.050000 0.050000 1.200000 0.026000 0.031000
1559784568106458745	900 31 1.000000 0.040000 0.042000 300 29 0.900000 0.171000 0.155000 600 34 1.000000 0.050000 0.050000 1.200000 0.026000 0.031000
1559784568619345370	900 31 1.000000 0.040000 0.042000 300 29 0.900000 0.170000 0.155000 600 34 1.000000 0.050000 0.050000 1.200000 0.026000 0.031000
1559784569132461412	900 31 1.000000 0.061000 0.064000 300 29 0.900000 0.172000 0.157000 600 34 1.000000 0.050000 0.050000 1.200000 0.033000 0.039000
1559784569644783120	900 31 1.000000 0.074000 0.078000 300 30 0.900000 0.173000 0.157000 600 34 1.000000 0.050000 0.050000 1.200000 0.039000 0.047000
1559784570156870954	900 31 1.000000 0.039000 0.041000 300 29 0.900000 0.170000 0.155000 600 34 1.000000 0.050000 0.050000 1.200000 0.024000 0.029000
1559784570668736579	900 31 1.000000 0.038000 0.040000 300 29 0.900000 0.170000 0.155000 600 34 1.000000 0.050000 0.050000 1.200000 0.024000 0.029000
1559784571180989412	900 31 1.000000 0.043000 0.045000 300 29 0.900000 0.170000 0.155000 600 34 1.000000 0.050000 0.050000 1.200000 0.027000 0.032000
1559784571692990204	900 31 1.000000 0.078000 0.082000 300 29 0.900000 0.178000 0.162000 600 34 1.000000 0.050000 0.050000 1.200000 0.054000 0.065000
1559784572204830412	900 31 1.000000 0.039000 0.041000 300 29 0.900000 0.169000 0.154000 600 34 1.000000 0.050000 0.050000 1.200000 0.024000 0.029000
1559784572716653787	900 31 1.000000 0.038000 0.040000 300 29 0.900000 0.170000 0.155000 600 34 1.000000 0.050000 0.050000 1.200000 0.024000 0.029000
1559784573228785454	900 31 1.000000 0.060000 0.063000 300 29 0.900000 0.169000 0.154000 600 34 1.000000 0.050000 0.050000 1.200000 0.024000 0.029000
1559784573741814829	900 31 1.000000 0.041000 0.043000 300 30 0.900000 0.169000 0.154000 600 34 1.000000 0.050000 0.050000 1.200000 0.025000 0.030000
1559784574254156621	900 31 1.000000 0.090000 0.095000 300 29 0.900000 0.172000 0.157000 600 34 1.000000 0.050000 0.050000 1.200000 0.036000 0.043000
1559784574766282079	900 31 1.000000 0.041000 0.043000 300 29 0.900000 0.169000 0.154000 600 34 1.000000 0.050000 0.050000 1.200000 0.025000 0.030000
1559784575278522288	900 31 1.000000 0.044000 0.046000 300 30 0.900000 0.173000 0.157000 600 34 1.000000 0.051000 0.051000 1.200000 0.035000 0.042000
1559784575791641621	900 31 1.000000 0.041000 0.043000 300 29 0.900000 0.170000 0.155000 600 34 1.000000 0.050000 0.050000 1.200000 0.026000 0.031000
1559784576303726163	900 31 1.000000 0.091000 0.096000 300 29 0.900000 0.177000 0.161000 600 34 1.000000 0.050000 0.050000 1.200000 0.050000 0.060000
1559784576816062829	900 31 1.000000 0.042000 0.044000 300 29 0.900000 0.168000 0.153000 600 34 1.000000 0.050000 0.050000 1.200000 0.024000 0.029000
1559784577328233996	900 31 1.000000 0.061000 0.064000 300 29 0.900000 0.172000 0.157000 600 34 1.000000 0.050000 0.050000 1.200000 0.033000 0.039000
1559784577840283413	900 31 1.000000 0.039000 0.041000 300 29 0.900000 0.170000 0.155000 600 34 1.000000 0.050000 0.050000 1.200000 0.024000 0.029000
1559784578352149455	900 31 1.000000 0.082000 0.087000 300 29 0.900000 0.177000 0.161000 600 34 1.000000 0.050000 0.050000 1.200000 0.049000 0.059000
1559784578864015996	900 31 1.000000 0.038000 0.040000 300 30 0.900000 0.169000 0.154000 600 34 1.000000 0.050000 0.050000 1.200000 0.024000 0.029000
1559784579376056871	900 31 1.000000 0.041000 0.043000 300 29 0.900000 0.171000 0.156000 600 34 1.000000 0.050000 0.050000 1.200000 0.031000 0.037000
1559784579887873413	900 31 1.000000 0.040000 0.042000 300 29 0.900000 0.169000 0.154000 600 34 1.000000 0.050000 0.050000 1.200000 0.024000 0.028000
1559784580401394330	900 31 1.000000 0.042000 0.044000 300 29 0.900000 0.174000 0.158000 600 34 1.000000 0.050000 0.050000 1.200000 0.035000 0.042000
1559784580913607455	900 31 1.000000 0.056000 0.059000 300 29 0.900000 0.169000 0.154000 600 34 1.000000 0.050000 0.050000 1.200000 0.024000 0.029000
1559784581425739872	900 31 1.000000 0.058000 0.061000 300 29 0.900000 0.172000 0.157000 600 34 1.000000 0.050000 0.050000 1.200000 0.032000 0.038000
1559784581937681163	900 31 1.000000 0.038000 0.040000 300 29 0.900000 0.169000 0.154000 600 34 1.000000 0.050000 0.050000 1.200000 0.024000 0.029000
1559784582449939247	900 31 1.000000 0.040000 0.042000 300 29 0.900000 0.169000 0.154000 600 33 1.000000 0.050000 0.050000 1.200000 0.025000 0.030000
1559784582963307289	900 31 1.000000 0.070000 0.074000 300 29 0.900000 0.180000 0.164000 600 34 1.000000 0.050000 0.050000 1.200000 0.055000 0.066000
1559784583475229955	900 31 1.000000 0.042000 0.044000 300 29 0.900000 0.171000 0.156000 600 34 1.000000 0.050000 0.050000 1.200000 0.027000 0.032000
1559784583987091580	900 31 1.000000 0.040000 0.042000 300 29 0.900000 0.169000 0.154000 600 34 1.000000 0.050000 0.050000 1.200000 0.024000 0.028000
1559784584498920580	900 31 1.000000 0.040000 0.042000 300 29 0.900000 0.168000 0.153000 600 34 1.000000 0.050000 0.050000 1.200000 0.024000 0.029000
1559784585010862997	900 31 1.000000 0.060000 0.063000 300 29 0.900000 0.174000 0.158000 600 34 1.000000 0.050000 0.050000 1.200000 0.039000 0.047000
1559784585522902872	900 31 1.000000 0.050000 0.053000 300 29 0.900000 0.172000 0.157000 600 34 1.000000 0.050000 0.050000 1.200000 0.029000 0.035000
1559784586034907497	900 31 1.000000 0.049000 0.052000 300 29 0.900000 0.169000 0.154000 600 34 1.000000 0.050000 0.050000 1.200000 0.024000 0.029000
1559784586546640789	900 31 1.000000 0.040000 0.042000 300 29 0.900000 0.170000 0.155000 600 34 1.000000 0.050000 0.050000 1.200000 0.024000 0.029000
1559784587060647289	900 31 1.000000 0.041000 0.043000 300 29 0.900000 0.169000 0.154000 600 34 1.000000 0.050000 0.050000 1.200000 0.025000 0.030000
1559784587574524706	900 31 1.000000 0.077000 0.081000 300 29 0.900000 0.178000 0.162000 600 34 1.000000 0.050000 0.050000 1.200000 0.054000 0.065000
1559784588086520789	900 31 1.000000 0.042000 0.044000 300 30 0.900000 0.170000 0.155000 600 33 1.000000 0.050000 0.050000 1.200000 0.026000 0.031000
1559784588598242123	900 31 1.000000 0.038000 0.040000 300 29 0.900000 0.170000 0.155000 600 34 1.000000 0.051000 0.051000 1.200000 0.026000 0.031000
1559784589110071831	900 31 1.000000 0.038000 0.040000 300 29 0.900000 0.169000 0.154000 600 34 1.000000 0.050000 0.050000 1.200000 0.026000 0.031000
1559784589622056373	900 31 1.000000 0.084000 0.089000 300 29 0.900000 0.176000 0.160000 600 33 1.000000 0.050000 0.050000 1.200000 0.045000 0.054000
1559784590134136873	900 31 1.000000 0.038000 0.040000 300 29 0.900000 0.170000 0.155000 600 34 1.000000 0.050000 0.050000 1.200000 0.025000 0.030000
1559784590646289664	900 31 1.000000 0.038000 0.040000 300 29 0.900000 0.171000 0.156000 600 34 1.000000 0.050000 0.050000 1.200000 0.025000 0.030000
1559784591158927998	900 31 1.000000 0.040000 0.042000 300 29 0.900000 0.170000 0.155000 600 34 1.000000 0.050000 0.050000 1.200000 0.026000 0.031000
1559784591671048915	900 31 1.000000 0.041000 0.043000 300 30 0.900000 0.169000 0.154000 600 34 1.000000 0.050000 0.050000 1.200000 0.026000 0.031000
1559784592183014790	900 31 1.000000 0.111000 0.117000 300 29 0.900000 0.178000 0.162000 600 34 1.000000 0.050000 0.050000 1.200000 0.057000 0.069000
1559784592694845790	900 31 1.000000 0.041000 0.043000 300 29 0.900000 0.170000 0.155000 600 34 1.000000 0.050000 0.050000 1.200000 0.026000 0.031000
1559784593206799415	900 31 1.000000 0.040000 0.042000 300 29 0.900000 0.171000 0.155000 600 34 1.000000 0.050000 0.050000 1.200000 0.025000 0.030000
1559784593720468873	900 31 1.000000 0.041000 0.043000 300 29 0.900000 0.170000 0.155000 600 34 1.000000 0.050000 0.050000 1.200000 0.025000 0.030000
1559784594234282748	900 31 1.000000 0.109000 0.115000 300 29 0.900000 0.177000 0.161000 600 34 1.000000 0.050000 0.050000 1.200000 0.053000 0.064000
1559784594746135748	900 31 1.000000 0.042000 0.044000 300 29 0.900000 0.169000 0.154000 600 34 1.000000 0.050000 0.050000 1.200000 0.026000 0.031000
1559784595258185498	900 31 1.000000 0.042000 0.044000 300 29 0.900000 0.170000 0.155000 600 34 1.000000 0.050000 0.050000 1.200000 0.025000 0.030000
1559784595771186123	900 31 1.000000 0.040000 0.042000 300 29 0.900000 0.170000 0.155000 600 34 1.000000 0.050000 0.050000 1.200000 0.026000 0.031000
1559784596283226415	900 31 1.000000 0.087000 0.092000 300 30 0.900000 0.175000 0.159000 600 34 1.000000 0.050000 0.050000 1.200000 0.042000 0.050000
1559784596795250874	900 31 1.000000 0.039000 0.041000 300 29 0.900000 0.168000 0.153000 600 34 1.000000 0.050000 0.050000 1.200000 0.026000 0.031000
1559784597307222582	900 31 1.000000 0.038000 0.040000 300 29 0.900000 0.169000 0.154000 600 33 1.000000 0.050000 0.050000 1.200000 0.026000 0.031000
1559784597819165749	900 31 1.000000 0.038000 0.040000 300 29 0.900000 0.171000 0.155000 600 34 1.000000 0.050000 0.050000 1.200000 0.025000 0.030000
1559784598332365665	900 31 1.000000 0.061000 0.064000 300 29 0.900000 0.173000 0.157000 600 34 1.000000 0.050000 0.050000 1.200000 0.033000 0.039000
1559784598844703665	900 31 1.000000 0.060000 0.063000 300 29 0.900000 0.169000 0.154000 600 34 1.000000 0.050000 0.050000 1.200000 0.026000 0.031000
1559784599356620499	900 31 1.000000 0.042000 0.044000 300 29 0.900000 0.168000 0.153000 600 34 1.000000 0.050000 0.050000 1.200000 0.024000 0.029000
1559784599869132541	900 31 1.000000 0.041000 0.043000 300 29 0.900000 0.169000 0.154000 600 34 1.000000 0.050000 0.050000 1.200000 0.026000 0.031000
1559784600382264166	900 31 1.000000 0.042000 0.044000 300 29 0.900000 0.171000 0.156000 600 33 1.000000 0.050000 0.050000 1.200000 0.028000 0.033000
1559784600894725999	900 31 1.000000 0.066000 0.070000 300 29 0.900000 0.175000 0.159000 600 34 1.000000 0.050000 0.050000 1.200000 0.038000 0.045000
1559784601406633332	900 31 1.000000 0.042000 0.044000 300 29 0.900000 0.169000 0.154000 600 34 1.000000 0.050000 0.050000 1.200000 0.026000 0.031000
1559784601918641457	900 31 1.000000 0.042000 0.044000 300 29 0.900000 0.169000 0.154000 600 34 1.000000 0.050000 0.050000 1.200000 0.025000 0.030000
1559784602430630749	900 31 1.000000 0.060000 0.063000 300 29 0.900000 0.172000 0.157000 600 34 1.000000 0.050000 0.050000 1.200000 0.030000 0.036000
1559784602942666333	900 31 1.000000 0.058000 0.061000 300 30 0.900000 0.170000 0.155000 600 34 1.000000 0.050000 0.050000 1.200000 0.025000 0.030000
1559784603454563541	900 31 1.000000 0.038000 0.040000 300 29 0.900000 0.170000 0.155000 600 34 1.000000 0.050000 0.050000 1.200000 0.026000 0.031000
1559784603966441666	900 31 1.000000 0.038000 0.040000 300 29 0.900000 0.169000 0.154000 600 34 1.000000 0.050000 0.050000 1.200000 0.026000 0.031000
1559784604478480041	900 31 1.000000 0.058000 0.061000 300 29 0.900000 0.172000 0.157000 600 33 1.000000 0.050000 0.050000 1.200000 0.034000 0.041000
1559784604992160333	900 31 1.000000 0.040000 0.042000 300 29 0.900000 0.170000 0.155000 600 34 1.000000 0.050000 0.050000 1.200000 0.026000 0.031000
1559784605504544625	900 31 1.000000 0.082000 0.087000 300 29 0.900000 0.174000 0.158000 600 34 1.000000 0.050000 0.050000 1.200000 0.038000 0.045000
1559784606016694291	900 31 1.000000 0.043000 0.045000 300 29 0.900000 0.169000 0.154000 600 33 1.000000 0.050000 0.050000 1.200000 0.025000 0.030000
1559784606528836458	900 31 1.000000 0.062000 0.065000 300 29 0.900000 0.171000 0.156000 600 34 1.000000 0.050000 0.050000 1.200000 0.032000 0.038000
1559784607040841958	900 31 1.000000 0.039000 0.041000 300 29 0.900000 0.168000 0.153000 600 33 1.000000 0.050000 0.050000 1.200000 0.024000 0.028000
1559784607552813166	900 31 1.000000 0.086000 0.091000 300 29 0.900000 0.177000 0.161000 600 33 1.000000 0.050000 0.050000 1.200000 0.052000 0.062000
1559784608064940000	900 31 1.000000 0.038000 0.040000 300 29 0.900000 0.170000 0.155000 600 33 1.000000 0.050000 0.050000 1.200000 0.024000 0.028000
1559784608577645833	900 31 1.000000 0.042000 0.044000 300 29 0.900000 0.170000 0.155000 600 34 1.000000 0.050000 0.050000 1.200000 0.026000 0.031000
1559784609089554625	900 31 1.000000 0.040000 0.042000 300 29 0.900000 0.170000 0.155000 600 34 1.000000 0.050000 0.050000 1.200000 0.026000 0.031000
1559784609601578667	900 31 1.000000 0.040000 0.042000 300 29 0.900000 0.168000 0.153000 600 33 1.000000 0.050000 0.050000 1.200000 0.025000 0.030000
1559784610113204417	900 31 1.000000 0.042000 0.044000 300 29 0.900000 0.171000 0.156000 600 34 1.000000 0.050000 0.050000 1.200000 0.033000 0.039000
1559784610625454917	900 31 1.000000 0.048000 0.051000 300 29 0.900000 0.170000 0.155000 600 34 1.000000 0.050000 0.050000 1.200000 0.025000 0.030000
1559784611137442667	900 31 1.000000 0.051000 0.054000 300 29 0.900000 0.170000 0.155000 600 33 1.000000 0.050000 0.050000 1.200000 0.026000 0.031000
1559784611650871542	900 31 1.000000 0.040000 0.042000 300 29 0.900000 0.169000 0.154000 600 33 1.000000 0.050000 0.050000 1.200000 0.026000 0.031000
1559784612163188292	900 31 1.000000 0.086000 0.091000 300 29 0.900000 0.175000 0.159000 600 34 1.000000 0.050000 0.050000 1.200000 0.047000 0.056000
1559784612675337667	900 31 1.000000 0.042000 0.044000 300 29 0.900000 0.170000 0.155000 600 34 1.000000 0.050000 0.050000 1.200000 0.026000 0.031000
1559784613187203126	900 31 1.000000 0.042000 0.044000 300 29 0.900000 0.170000 0.155000 600 33 1.000000 0.050000 0.050000 1.200000 0.024000 0.029000
1559784613699139251	900 31 1.000000 0.040000 0.042000 300 29 0.900000 0.169000 0.154000 600 33 1.000000 0.050000 0.050000 1.200000 0.024000 0.029000
1559784614211227459	900 31 1.000000 0.076000 0.080000 300 29 0.900000 0.178000 0.162000 600 33 1.000000 0.050000 0.050000 1.200000 0.051000 0.061000
1559784614723321251	900 31 1.000000 0.038000 0.040000 300 29 0.900000 0.169000 0.154000 600 34 1.000000 0.050000 0.050000 1.200000 0.026000 0.031000
1559784615235390959	900 31 1.000000 0.038000 0.040000 300 29 0.900000 0.169000 0.154000 600 33 1.000000 0.050000 0.050000 1.200000 0.024000 0.028000
1559784615747216001	900 31 1.000000 0.038000 0.040000 300 29 0.900000 0.170000 0.155000 600 33 1.000000 0.050000 0.050000 1.200000 0.024000 0.029000
1559784616259793751	900 31 1.000000 0.068000 0.072000 300 30 0.900000 0.174000 0.158000 600 34 1.000000 0.050000 0.050000 1.200000 0.037000 0.044000
1559784616771878043	900 31 1.000000 0.059000 0.062000 300 29 0.900000 0.170000 0.155000 600 33 1.000000 0.050000 0.050000 1.200000 0.030000 0.036000
1559784617284503334	900 31 1.000000 0.043000 0.045000 300 29 0.900000 0.169000 0.154000 600 34 1.000000 0.050000 0.050000 1.200000 0.028000 0.033000
1559784617796583001	900 31 1.000000 0.039000 0.041000 300 29 0.900000 0.169000 0.154000 600 33 1.000000 0.050000 0.050000 1.200000 0.025000 0.030000
1559784618310059709	900 31 1.000000 0.040000 0.042000 300 29 0.900000 0.170000 0.155000 600 33 1.000000 0.050000 0.050000 1.200000 0.025000 0.030000
1559784618822294043	900 31 1.000000 0.063000 0.066000 300 29 0.900000 0.178000 0.162000 600 34 1.000000 0.050000 0.050000 1.200000 0.055000 0.066000
1559784619334160168	900 31 1.000000 0.062000 0.065000 300 29 0.900000 0.169000 0.154000 600 33 1.000000 0.050000 0.050000 1.200000 0.026000 0.031000
1559784619846281751	900 31 1.000000 0.042000 0.044000 300 29 0.900000 0.169000 0.154000 600 34 1.000000 0.050000 0.050000 1.200000 0.026000 0.031000
1559784620357983335	900 31 1.000000 0.040000 0.042000 300 29 0.900000 0.169000 0.154000 600 33 1.000000 0.050000 0.050000 1.200000 0.024000 0.029000
1559784620870062793	900 31 1.000000 0.055000 0.058000 300 29 0.900000 0.176000 0.160000 600 33 1.000000 0.050000 0.050000 1.200000 0.041000 0.049000
1559784621381997501	900 31 1.000000 0.043000 0.045000 300 29 0.900000 0.170000 0.155000 600 33 1.000000 0.050000 0.050000 1.200000 0.024000 0.029000
1559784621893857502	900 31 1.000000 0.038000 0.040000 300 29 0.900000 0.167000 0.152000 600 33 1.000000 0.050000 0.050000 1.200000 0.024000 0.029000
1559784622405635210	900 31 1.000000 0.038000 0.040000 300 29 0.900000 0.169000 0.154000 600 34 1.000000 0.050000 0.050000 1.200000 0.024000 0.029000
1559784622919321293	900 31 1.000000 0.045000 0.047000 300 29 0.900000 0.172000 0.156000 600 34 1.000000 0.050000 0.050000 1.200000 0.026000 0.031000
1559784623431982793	900 31 1.000000 0.039000 0.041000 300 29 0.900000 0.169000 0.154000 600 34 1.000000 0.050000 0.050000 1.200000 0.024000 0.029000
1559784623943728793	900 31 1.000000 0.042000 0.044000 300 29 0.900000 0.169000 0.154000 600 33 1.000000 0.050000 0.050000 1.200000 0.024000 0.028000
1559784624455563044	900 31 1.000000 0.041000 0.043000 300 29 0.900000 0.168000 0.153000 600 33 1.000000 0.050000 0.050000 1.200000 0.024000 0.028000
1559784624967311127	900 31 1.000000 0.040000 0.042000 300 29 0.900000 0.169000 0.154000 600 34 1.000000 0.050000 0.050000 1.200000 0.024000 0.028000
1559784625479189544	900 31 1.000000 0.109000 0.115000 300 29 0.900000 0.172000 0.156000 600 34 1.000000 0.050000 0.050000 1.200000 0.034000 0.041000
1559784625991570585	900 31 1.000000 0.042000 0.044000 300 29 0.900000 0.170000 0.155000 600 33 1.000000 0.050000 0.050000 1.200000 0.025000 0.030000
1559784626503424835	900 31 1.000000 0.041000 0.043000 300 29 0.900000 0.169000 0.154000 600 33 1.000000 0.050000 0.050000 1.200000 0.025000 0.030000
1559784627015397502	900 31 1.000000 0.040000 0.042000 300 29 0.900000 0.169000 0.154000 600 33 1.000000 0.050000 0.050000 1.200000 0.026000 0.031000
1559784627527229627	900 31 1.000000 0.061000 0.064000 300 29 0.900000 0.169000 0.154000 600 33 1.000000 0.050000 0.050000 1.200000 0.039000 0.047000
1559784628039159461	900 31 1.000000 0.045000 0.047000 300 29 0.900000 0.177000 0.161000 600 33 1.000000 0.050000 0.050000 1.200000 0.024000 0.028000
1559784628550892419	900 31 1.000000 0.041000 0.043000 300 29 0.900000 0.170000 0.155000 600 33 1.000000 0.050000 0.050000 1.200000 0.024000 0.029000
1559784629062744377	900 31 1.000000 0.038000 0.040000 300 29 0.900000 0.169000 0.154000 600 33 1.000000 0.050000 0.050000 1.200000 0.024000 0.029000
1559784629576078294	900 31 1.000000 0.058000 0.061000 300 29 0.900000 0.169000 0.154000 600 33 1.000000 0.050000 0.050000 1.200000 0.032000 0.038000
1559784630088509461	900 31 1.000000 0.049000 0.052000 300 30 0.900000 0.178000 0.162000 600 33 1.000000 0.050000 0.050000 1.200000 0.051000 0.061000
1559784630600439544	900 31 1.000000 0.043000 0.045000 300 29 0.900000 0.170000 0.155000 600 34 1.000000 0.050000 0.050000 1.200000 0.026000 0.031000
1559784631112475253	900 31 1.000000 0.040000 0.042000 300 29 0.900000 0.170000 0.155000 600 33 1.000000 0.050000 0.050000 1.200000 0.026000 0.031000
1559784631624465086	900 31 1.000000 0.056000 0.059000 300 29 0.900000 0.170000 0.155000 600 33 1.000000 0.050000 0.050000 1.200000 0.028000 0.033000
1559784632136539836	900 31 1.000000 0.074000 0.078000 300 29 0.900000 0.173000 0.157000 600 34 1.000000 0.050000 0.050000 1.200000 0.036000 0.043000
1559784632648490544	900 31 1.000000 0.039000 0.041000 300 29 0.900000 0.169000 0.154000 600 33 1.000000 0.050000 0.050000 1.200000 0.025000 0.030000
1559784633160436711	900 31 1.000000 0.038000 0.040000 300 29 0.900000 0.170000 0.155000 600 33 1.000000 0.050000 0.050000 1.200000 0.025000 0.030000
1559784633672631628	900 31 1.000000 0.059000 0.062000 300 29 0.900000 0.173000 0.157000 600 33 1.000000 0.050000 0.050000 1.200000 0.031000 0.037000
1559784634186143211	900 31 1.000000 0.064000 0.067000 300 30 0.900000 0.168000 0.153000 600 33 1.000000 0.050000 0.050000 1.200000 0.026000 0.031000
1559784634698901670	900 31 1.000000 0.067000 0.071000 300 29 0.900000 0.178000 0.162000 600 34 1.000000 0.050000 0.050000 1.200000 0.055000 0.066000
1559784635210955878	900 31 1.000000 0.041000 0.043000 300 29 0.900000 0.170000 0.155000 600 33 1.000000 0.050000 0.050000 1.200000 0.026000 0.031000
1559784635722923753	900 31 1.000000 0.046000 0.048000 300 29 0.900000 0.170000 0.155000 600 34 1.000000 0.050000 0.050000 1.200000 0.026000 0.031000
1559784636236401920	900 31 1.000000 0.038000 0.040000 300 29 0.900000 0.170000 0.155000 600 34 1.000000 0.050000 0.050000 1.200000 0.025000 0.030000
1559784636748767545	900 31 1.000000 0.059000 0.062000 300 29 0.900000 0.174000 0.158000 600 34 1.000000 0.050000 0.050000 1.200000 0.041000 0.049000
1559784637260574378	900 31 1.000000 0.043000 0.045000 300 29 0.900000 0.169000 0.154000 600 33 1.000000 0.050000 0.050000 1.200000 0.025000 0.030000
1559784637772782753	900 31 1.000000 0.041000 0.043000 300 29 0.900000 0.170000 0.155000 600 33 1.000000 0.050000 0.050000 1.200000 0.025000 0.030000
1559784638284672045	900 31 1.000000 0.040000 0.042000 300 29 0.900000 0.170000 0.155000 600 34 1.000000 0.050000 0.050000 1.200000 0.025000 0.030000
1559784638796713754	900 31 1.000000 0.052000 0.055000 300 29 0.900000 0.171000 0.155000 600 33 1.000000 0.050000 0.050000 1.200000 0.028000 0.033000
1559784639308920212	900 31 1.000000 0.042000 0.044000 300 29 0.900000 0.169000 0.154000 600 33 1.000000 0.050000 0.050000 1.200000 0.026000 0.031000
1559784639821099087	900 31 1.000000 0.041000 0.043000 300 29 0.900000 0.169000 0.154000 600 33 1.000000 0.050000 0.050000 1.200000 0.026000 0.031000
1559784640332951587	900 31 1.000000 0.038000 0.040000 300 29 0.900000 0.170000 0.155000 600 33 1.000000 0.050000 0.050000 1.200000 0.025000 0.030000
1559784640846070587	900 31 1.000000 0.043000 0.045000 300 29 0.900000 0.172000 0.156000 600 33 1.000000 0.050000 0.050000 1.200000 0.025000 0.030000
1559784641358418504	900 31 1.000000 0.038000 0.040000 300 29 0.900000 0.171000 0.155000 600 34 1.000000 0.050000 0.050000 1.200000 0.034000 0.041000
1559784641870513212	900 31 1.000000 0.059000 0.062000 300 29 0.900000 0.169000 0.154000 600 34 1.000000 0.050000 0.050000 1.200000 0.025000 0.030000
1559784642382134879	900 31 1.000000 0.038000 0.040000 300 29 0.900000 0.169000 0.154000 600 34 1.000000 0.050000 0.050000 1.200000 0.024000 0.028000
1559784642894072671	900 31 1.000000 0.040000 0.042000 300 29 0.900000 0.169000 0.154000 600 33 1.000000 0.050000 0.050000 1.200000 0.024000 0.028000
1559784643406925712	900 31 1.000000 0.039000 0.041000 300 29 0.900000 0.174000 0.158000 600 34 1.000000 0.050000 0.050000 1.200000 0.033000 0.039000
1559784643919762754	900 31 1.000000 0.043000 0.045000 300 29 0.900000 0.171000 0.156000 600 34 1.000000 0.050000 0.050000 1.200000 0.027000 0.032000
1559784644432421088	900 31 1.000000 0.063000 0.066000 300 29 0.900000 0.175000 0.159000 600 34 1.000000 0.050000 0.050000 1.200000 0.059000 0.071000
1559784644944701546	900 31 1.000000 0.041000 0.043000 300 30 0.900000 0.176000 0.160000 600 35 1.000000 0.050000 0.050000 1.200000 0.054000 0.065000
1559784645456907879	900 32 1.000000 0.042000 0.044000 300 30 0.900000 0.584000 0.532000 600 35 1.000000 0.050000 0.050000 1.200000 0.044000 0.053000
1559784645969016546	900 32 1.000000 0.048000 0.051000 300 30 0.900000 0.586000 0.533000 600 36 1.000000 0.050000 0.050000 1.200000 0.049000 0.059000
1559784646481457129	900 32 1.000000 0.052000 0.055000 300 30 0.900000 0.586000 0.533000 600 36 1.000000 0.050000 0.050000 1.200000 0.049000 0.059000
1559784646993639505	900 32 1.000000 0.041000 0.043000 300 30 0.900000 0.586000 0.533000 600 36 1.000000 0.050000 0.050000 1.200000 0.046000 0.055000
1559784647507020796	900 32 1.000000 0.040000 0.042000 300 30 0.900000 0.586000 0.533000 600 36 1.000000 0.050000 0.050000 1.200000 0.046000 0.055000
1559784648020633463	900 32 1.000000 0.055000 0.058000 300 30 0.900000 0.580000 0.528000 600 36 1.000000 0.050000 0.050000 1.200000 0.060000 0.072000
1559784648533149630	900 32 1.000000 0.040000 0.042000 300 30 0.900000 0.586000 0.533000 600 36 1.000000 0.050000 0.050000 1.200000 0.048000 0.058000
1559784649045205463	900 32 1.000000 0.040000 0.042000 300 30 0.900000 0.585000 0.532000 600 36 1.000000 0.051000 0.051000 1.200000 0.045000 0.054000
1559784649557214547	900 33 1.000000 0.042000 0.044000 300 31 0.900000 0.587000 0.534000 600 36 1.000000 0.050000 0.050000 1.200000 0.044000 0.053000
1559784650072149047	900 33 1.000000 0.070000 0.074000 300 31 0.900000 0.575000 0.523000 600 37 1.000000 0.050000 0.050000 1.200000 0.066000 0.079000
1559784650584766130	900 33 1.000000 0.060000 0.063000 300 31 0.900000 0.586000 0.533000 600 36 1.000000 0.050000 0.050000 1.200000 0.045000 0.054000
1559784651096893338	900 33 1.000000 0.040000 0.042000 300 31 0.900000 0.586000 0.533000 600 37 1.000000 0.051000 0.051000 1.200000 0.044000 0.053000
1559784651608850338	900 33 1.000000 0.040000 0.042000 300 31 0.900000 0.586000 0.533000 600 37 1.000000 0.050000 0.050000 1.200000 0.045000 0.054000
1559784652121939963	900 33 1.000000 0.061000 0.064000 300 31 0.900000 0.579000 0.527000 600 37 1.000000 0.051000 0.051000 1.200000 0.055000 0.066000
1559784652634865255	900 33 1.000000 0.091000 0.096000 300 31 0.900000 0.580000 0.528000 600 37 1.000000 0.050000 0.050000 1.200000 0.063000 0.076000
1559784653147067172	900 33 1.000000 0.043000 0.045000 300 31 0.900000 0.586000 0.533000 600 37 1.000000 0.050000 0.050000 1.200000 0.046000 0.055000
1559784653659234255	900 33 1.000000 0.044000 0.046000 300 31 0.900000 0.585000 0.532000 600 37 1.000000 0.050000 0.050000 1.200000 0.045000 0.054000
1559784654172699797	900 33 1.000000 0.043000 0.045000 300 31 0.900000 0.586000 0.533000 600 37 1.000000 0.050000 0.050000 1.200000 0.045000 0.054000
1559784654685201089	900 33 1.000000 0.101000 0.107000 300 31 0.900000 0.576000 0.524000 600 37 1.000000 0.050000 0.050000 1.200000 0.072000 0.087000
1559784655197383047	900 33 1.000000 0.040000 0.042000 300 31 0.900000 0.586000 0.533000 600 37 1.000000 0.051000 0.051000 1.200000 0.045000 0.054000
1559784655709176297	900 33 1.000000 0.043000 0.045000 300 31 0.900000 0.586000 0.533000 600 37 1.000000 0.050000 0.050000 1.200000 0.045000 0.054000
1559784656221163089	900 33 1.000000 0.043000 0.045000 300 31 0.900000 0.587000 0.534000 600 37 1.000000 0.050000 0.050000 1.200000 0.046000 0.055000
1559784656733435297	900 33 1.000000 0.061000 0.064000 300 31 0.900000 0.579000 0.527000 600 37 1.000000 0.050000 0.050000 1.200000 0.061000 0.073000
1559784657245454172	900 33 1.000000 0.042000 0.044000 300 31 0.900000 0.587000 0.534000 600 37 1.000000 0.050000 0.050000 1.200000 0.044000 0.053000
1559784657757466256	900 33 1.000000 0.043000 0.045000 300 31 0.900000 0.586000 0.533000 600 37 1.000000 0.050000 0.050000 1.200000 0.044000 0.053000
1559784658269378006	900 33 1.000000 0.044000 0.046000 300 31 0.900000 0.587000 0.534000 600 37 1.000000 0.050000 0.050000 1.200000 0.044000 0.053000
1559784658782897006	900 33 1.000000 0.060000 0.063000 300 31 0.900000 0.583000 0.531000 600 37 1.000000 0.050000 0.050000 1.200000 0.051000 0.061000
1559784659295325798	900 33 1.000000 0.040000 0.042000 300 31 0.900000 0.587000 0.534000 600 37 1.000000 0.050000 0.050000 1.200000 0.044000 0.053000
1559784659807471464	900 33 1.000000 0.040000 0.042000 300 31 0.900000 0.587000 0.534000 600 37 1.000000 0.050000 0.050000 1.200000 0.044000 0.053000
1559784660319345006	900 33 1.000000 0.040000 0.042000 300 31 0.900000 0.587000 0.534000 600 37 1.000000 0.050000 0.050000 1.200000 0.044000 0.053000
1559784660831622298	900 33 1.000000 0.057000 0.060000 300 31 0.900000 0.585000 0.532000 600 37 1.000000 0.050000 0.050000 1.200000 0.050000 0.060000
1559784661344563965	900 33 1.000000 0.086000 0.091000 300 31 0.900000 0.578000 0.526000 600 37 1.000000 0.050000 0.050000 1.200000 0.061000 0.073000
1559784661856747590	900 33 1.000000 0.042000 0.044000 300 31 0.900000 0.586000 0.533000 600 37 1.000000 0.050000 0.050000 1.200000 0.045000 0.054000
1559784662368810298	900 33 1.000000 0.043000 0.045000 300 31 0.900000 0.586000 0.533000 600 37 1.000000 0.050000 0.050000 1.200000 0.045000 0.054000
1559784662880931715	900 33 1.000000 0.044000 0.046000 300 31 0.900000 0.584000 0.531000 600 37 1.000000 0.050000 0.050000 1.200000 0.047000 0.056000
1559784663393049715	900 33 1.000000 0.043000 0.045000 300 31 0.900000 0.583000 0.531000 600 37 1.000000 0.050000 0.050000 1.200000 0.050000 0.060000
1559784663905224257	900 33 1.000000 0.057000 0.060000 300 31 0.900000 0.586000 0.533000 600 37 1.000000 0.051000 0.051000 1.200000 0.045000 0.054000
1559784664417170965	900 33 1.000000 0.042000 0.044000 300 31 0.900000 0.587000 0.534000 600 37 1.000000 0.050000 0.050000 1.200000 0.044000 0.053000
1559784664929199507	900 33 1.000000 0.043000 0.045000 300 31 0.900000 0.585000 0.532000 600 37 1.000000 0.051000 0.051000 1.200000 0.048000 0.058000
1559784665442402507	900 33 1.000000 0.043000 0.045000 300 31 0.900000 0.587000 0.534000 600 37 1.000000 0.050000 0.050000 1.200000 0.045000 0.054000
1559784665954897048	900 33 1.000000 0.063000 0.066000 300 31 0.900000 0.586000 0.533000 600 37 1.000000 0.051000 0.051000 1.200000 0.049000 0.059000
1559784666467161924	900 33 1.000000 0.040000 0.042000 300 31 0.900000 0.586000 0.533000 600 37 1.000000 0.050000 0.050000 1.200000 0.044000 0.053000
1559784666979454132	900 33 1.000000 0.060000 0.063000 300 31 0.900000 0.586000 0.533000 600 37 1.000000 0.050000 0.050000 1.200000 0.049000 0.059000
1559784667491603049	900 33 1.000000 0.040000 0.042000 300 31 0.900000 0.585000 0.532000 600 37 1.000000 0.050000 0.050000 1.200000 0.044000 0.053000
1559784668003908799	900 33 1.000000 0.073000 0.077000 300 31 0.900000 0.581000 0.529000 600 37 1.000000 0.050000 0.050000 1.200000 0.060000 0.072000
1559784668515884465	900 33 1.000000 0.043000 0.045000 300 31 0.900000 0.587000 0.534000 600 37 1.000000 0.051000 0.051000 1.200000 0.044000 0.053000
1559784669028117757	900 33 1.000000 0.043000 0.045000 300 31 0.900000 0.586000 0.533000 600 37 1.000000 0.050000 0.050000 1.200000 0.050000 0.060000
1559784669540218757	900 33 1.000000 0.040000 0.042000 300 31 0.900000 0.587000 0.534000 600 37 1.000000 0.050000 0.050000 1.200000 0.044000 0.053000
1559784670052671632	900 33 1.000000 0.043000 0.045000 300 31 0.900000 0.586000 0.533000 600 37 1.000000 0.051000 0.051000 1.200000 0.045000 0.054000
1559784670564671132	900 33 1.000000 0.081000 0.086000 300 31 0.900000 0.577000 0.525000 600 37 1.000000 0.051000 0.051000 1.200000 0.047000 0.056000
1559784671076893674	900 33 1.000000 0.042000 0.044000 300 31 0.900000 0.586000 0.533000 600 37 1.000000 0.050000 0.050000 1.200000 0.045000 0.054000
1559784671588963757	900 33 1.000000 0.056000 0.059000 300 31 0.900000 0.586000 0.533000 600 37 1.000000 0.050000 0.050000 1.200000 0.045000 0.054000
1559784672102009508	900 33 1.000000 0.043000 0.045000 300 31 0.900000 0.586000 0.533000 600 37 1.000000 0.050000 0.050000 1.200000 0.044000 0.053000
1559784672614426008	900 33 1.000000 0.089000 0.094000 300 31 0.900000 0.580000 0.527000 600 37 1.000000 0.051000 0.051000 1.200000 0.055000 0.066000
1559784673126638633	900 33 1.000000 0.041000 0.043000 300 31 0.900000 0.587000 0.534000 600 37 1.000000 0.050000 0.050000 1.200000 0.046000 0.055000
1559784673638556258	900 33 1.000000 0.040000 0.042000 300 31 0.900000 0.584000 0.532000 600 37 1.000000 0.051000 0.051000 1.200000 0.051000 0.061000
1559784674150614716	900 33 1.000000 0.040000 0.042000 300 31 0.900000 0.586000 0.533000 600 37 1.000000 0.051000 0.051000 1.200000 0.045000 0.054000
1559784674662848383	900 33 1.000000 0.042000 0.044000 300 31 0.900000 0.584000 0.532000 600 37 1.000000 0.050000 0.050000 1.200000 0.045000 0.054000
1559784675175772341	900 33 1.000000 0.042000 0.044000 300 31 0.900000 0.586000 0.533000 600 37 1.000000 0.050000 0.050000 1.200000 0.045000 0.054000
1559784675688290841	900 33 1.000000 0.063000 0.066000 300 31 0.900000 0.586000 0.533000 600 37 1.000000 0.050000 0.050000 1.200000 0.051000 0.061000
1559784676200539133	900 33 1.000000 0.044000 0.046000 300 31 0.900000 0.587000 0.534000 600 37 1.000000 0.051000 0.051000 1.200000 0.046000 0.055000
1559784676714143050	900 33 1.000000 0.044000 0.046000 300 31 0.900000 0.587000 0.534000 600 37 1.000000 0.050000 0.050000 1.200000 0.046000 0.055000
1559784677227530300	900 33 1.000000 0.048000 0.051000 300 31 0.900000 0.585000 0.532000 600 37 1.000000 0.050000 0.050000 1.200000 0.054000 0.065000
1559784677740239217	900 33 1.000000 0.041000 0.043000 300 31 0.900000 0.586000 0.533000 600 37 1.000000 0.050000 0.050000 1.200000 0.049000 0.059000
1559784678252363633	900 33 1.000000 0.040000 0.042000 300 31 0.900000 0.587000 0.534000 600 37 1.000000 0.050000 0.050000 1.200000 0.046000 0.055000
1559784678764785008	900 33 1.000000 0.044000 0.046000 300 31 0.900000 0.586000 0.533000 600 37 1.000000 0.051000 0.051000 1.200000 0.045000 0.054000
1559784679277568758	900 33 1.000000 0.078000 0.082000 300 31 0.900000 0.584000 0.532000 600 37 1.000000 0.050000 0.050000 1.200000 0.046000 0.055000
1559784679790204467	900 33 1.000000 0.063000 0.066000 300 31 0.900000 0.586000 0.533000 600 37 1.000000 0.050000 0.050000 1.200000 0.049000 0.059000
1559784680302353925	900 33 1.000000 0.042000 0.044000 300 31 0.900000 0.587000 0.534000 600 37 1.000000 0.050000 0.050000 1.200000 0.045000 0.054000
1559784680814323384	900 33 1.000000 0.040000 0.042000 300 31 0.900000 0.587000 0.534000 600 37 1.000000 0.050000 0.050000 1.200000 0.046000 0.055000
1559784681326418842	900 33 1.000000 0.044000 0.046000 300 31 0.900000 0.587000 0.534000 600 37 1.000000 0.050000 0.050000 1.200000 0.046000 0.055000
1559784681838740342	900 33 1.000000 0.082000 0.087000 300 31 0.900000 0.584000 0.532000 600 37 1.000000 0.050000 0.050000 1.200000 0.058000 0.070000
1559784682350764592	900 33 1.000000 0.041000 0.043000 300 31 0.900000 0.587000 0.534000 600 37 1.000000 0.050000 0.050000 1.200000 0.046000 0.055000
1559784682862845259	900 33 1.000000 0.043000 0.045000 300 31 0.900000 0.586000 0.533000 600 37 1.000000 0.051000 0.051000 1.200000 0.045000 0.054000
1559784683378368092	900 33 1.000000 0.044000 0.046000 300 32 0.900000 0.586000 0.533000 600 37 1.000000 0.051000 0.051000 1.200000 0.045000 0.054000
1559784683891033217	900 33 1.000000 0.094000 0.099000 300 31 0.900000 0.579000 0.527000 600 37 1.000000 0.050000 0.050000 1.200000 0.069000 0.083000
1559784684403248051	900 33 1.000000 0.040000 0.042000 300 31 0.900000 0.586000 0.533000 600 37 1.000000 0.051000 0.051000 1.200000 0.045000 0.054000
1559784684915201009	900 33 1.000000 0.040000 0.042000 300 31 0.900000 0.586000 0.533000 600 37 1.000000 0.050000 0.050000 1.200000 0.045000 0.054000
1559784685427050634	900 33 1.000000 0.040000 0.042000 300 31 0.900000 0.587000 0.534000 600 37 1.000000 0.051000 0.051000 1.200000 0.045000 0.054000
1559784685939352468	900 33 1.000000 0.102000 0.108000 300 32 0.900000 0.577000 0.525000 600 37 1.000000 0.050000 0.050000 1.200000 0.068000 0.082000
1559784686451458968	900 33 1.000000 0.040000 0.042000 300 31 0.900000 0.588000 0.535000 600 37 1.000000 0.051000 0.051000 1.200000 0.044000 0.053000
1559784686963382343	900 33 1.000000 0.040000 0.042000 300 31 0.900000 0.587000 0.534000 600 37 1.000000 0.051000 0.051000 1.200000 0.044000 0.053000
1559784687475438176	900 33 1.000000 0.043000 0.045000 300 31 0.900000 0.587000 0.534000 600 37 1.000000 0.050000 0.050000 1.200000 0.044000 0.053000
1559784687989168926	900 34 1.000000 0.043000 0.045000 300 32 0.900000 0.586000 0.533000 600 37 1.000000 0.050000 0.050000 1.200000 0.045000 0.054000
1559784688501829884	900 33 1.000000 0.093000 0.098000 300 31 0.900000 0.581000 0.529000 600 37 1.000000 0.050000 0.050000 1.200000 0.061000 0.073000
1559784689013854301	900 33 1.000000 0.044000 0.046000 300 31 0.900000 0.587000 0.534000 600 37 1.000000 0.051000 0.051000 1.200000 0.045000 0.054000
1559784689525765093	900 33 1.000000 0.041000 0.043000 300 31 0.900000 0.587000 0.534000 600 37 1.000000 0.050000 0.050000 1.200000 0.045000 0.054000
1559784690038777468	900 33 1.000000 0.042000 0.044000 300 31 0.900000 0.586000 0.533000 600 37 1.000000 0.051000 0.051000 1.200000 0.046000 0.055000
1559784690551407968	900 33 1.000000 0.092000 0.097000 300 31 0.900000 0.573000 0.522000 600 37 1.000000 0.050000 0.050000 1.200000 0.065000 0.078000
1559784691063374843	900 33 1.000000 0.044000 0.046000 300 31 0.900000 0.585000 0.532000 600 37 1.000000 0.050000 0.050000 1.200000 0.045000 0.054000
1559784691575463510	900 33 1.000000 0.042000 0.044000 300 31 0.900000 0.587000 0.534000 600 37 1.000000 0.050000 0.050000 1.200000 0.045000 0.054000
1559784692087666093	900 33 1.000000 0.054000 0.057000 300 31 0.900000 0.586000 0.533000 600 37 1.000000 0.051000 0.051000 1.200000 0.045000 0.054000
1559784692599935718	900 33 1.000000 0.079000 0.083000 300 31 0.900000 0.581000 0.529000 600 37 1.000000 0.050000 0.050000 1.200000 0.054000 0.065000
1559784693112112510	900 33 1.000000 0.040000 0.042000 300 31 0.900000 0.587000 0.534000 600 37 1.000000 0.051000 0.051000 1.200000 0.044000 0.053000
1559784693624165385	900 33 1.000000 0.043000 0.045000 300 31 0.900000 0.587000 0.534000 600 37 1.000000 0.051000 0.051000 1.200000 0.044000 0.053000
1559784694136419927	900 33 1.000000 0.041000 0.043000 300 31 0.900000 0.586000 0.533000 600 37 1.000000 0.051000 0.051000 1.200000 0.045000 0.054000
1559784694649777844	900 33 1.000000 0.043000 0.045000 300 32 0.900000 0.585000 0.532000 600 37 1.000000 0.050000 0.050000 1.200000 0.044000 0.053000
1559784695162374135	900 33 1.000000 0.062000 0.065000 300 31 0.900000 0.587000 0.534000 600 37 1.000000 0.050000 0.050000 1.200000 0.044000 0.053000
1559784695674398969	900 33 1.000000 0.040000 0.042000 300 31 0.900000 0.588000 0.535000 600 37 1.000000 0.050000 0.050000 1.200000 0.044000 0.053000
1559784696186682427	900 33 1.000000 0.044000 0.046000 300 31 0.900000 0.586000 0.533000 600 37 1.000000 0.051000 0.051000 1.200000 0.048000 0.058000
1559784696699253260	900 33 1.000000 0.059000 0.062000 300 31 0.900000 0.586000 0.533000 600 37 1.000000 0.051000 0.051000 1.200000 0.047000 0.056000
1559784697211533427	900 33 1.000000 0.067000 0.071000 300 31 0.900000 0.578000 0.526000 600 37 1.000000 0.051000 0.051000 1.200000 0.057000 0.069000
1559784697723399511	900 33 1.000000 0.044000 0.046000 300 31 0.900000 0.585000 0.532000 600 37 1.000000 0.051000 0.051000 1.200000 0.046000 0.055000
1559784698235373844	900 33 1.000000 0.043000 0.045000 300 31 0.900000 0.587000 0.534000 600 37 1.000000 0.050000 0.050000 1.200000 0.046000 0.055000
1559784698747437469	900 33 1.000000 0.042000 0.044000 300 31 0.900000 0.586000 0.533000 600 37 1.000000 0.051000 0.051000 1.200000 0.046000 0.055000
1559784699259349136	900 33 1.000000 0.056000 0.059000 300 32 0.900000 0.584000 0.532000 600 37 1.000000 0.050000 0.050000 1.200000 0.046000 0.055000
1559784699771259094	900 33 1.000000 0.040000 0.042000 300 31 0.900000 0.587000 0.534000 600 38 1.000000 0.050000 0.050000 1.200000 0.045000 0.054000
1559784700283442928	900 33 1.000000 0.044000 0.046000 300 32 0.900000 0.587000 0.534000 600 38 1.000000 0.051000 0.051000 1.200000 0.045000 0.054000
1559784700795627969	900 33 1.000000 0.062000 0.065000 300 31 0.900000 0.587000 0.534000 600 37 1.000000 0.051000 0.051000 1.200000 0.044000 0.053000
1559784701308884094	900 33 1.000000 0.042000 0.044000 300 31 0.900000 0.587000 0.534000 600 37 1.000000 0.050000 0.050000 1.200000 0.044000 0.053000
1559784701821756303	900 33 1.000000 0.087000 0.092000 300 32 0.900000 0.585000 0.532000 600 37 1.000000 0.051000 0.051000 1.200000 0.052000 0.062000
1559784702334519636	900 33 1.000000 0.044000 0.046000 300 32 0.900000 0.586000 0.533000 600 37 1.000000 0.051000 0.051000 1.200000 0.044000 0.053000
1559784702847034845	900 33 1.000000 0.041000 0.043000 300 31 0.900000 0.587000 0.534000 600 37 1.000000 0.050000 0.050000 1.200000 0.044000 0.053000
1559784703359465886	900 33 1.000000 0.041000 0.043000 300 31 0.900000 0.587000 0.534000 600 38 1.000000 0.051000 0.051000 1.200000 0.044000 0.053000
1559784703871687720	900 33 1.000000 0.091000 0.096000 300 32 0.900000 0.581000 0.529000 600 37 1.000000 0.050000 0.050000 1.200000 0.063000 0.076000
1559784704384715261	900 34 1.000000 0.040000 0.042000 300 31 0.900000 0.586000 0.533000 600 38 1.000000 0.051000 0.051000 1.200000 0.044000 0.053000
1559784704897516053	900 33 1.000000 0.040000 0.042000 300 31 0.900000 0.587000 0.534000 600 37 1.000000 0.051000 0.051000 1.200000 0.044000 0.053000
1559784705410331261	900 33 1.000000 0.043000 0.045000 300 31 0.900000 0.586000 0.533000 600 37 1.000000 0.051000 0.051000 1.200000 0.045000 0.054000
1559784705923059470	900 33 1.000000 0.041000 0.043000 300 32 0.900000 0.586000 0.533000 600 37 1.000000 0.051000 0.051000 1.200000 0.045000 0.054000
1559784706435595178	900 33 1.000000 0.090000 0.095000 300 31 0.900000 0.577000 0.525000 600 38 1.000000 0.050000 0.050000 1.200000 0.051000 0.061000
1559784706947912803	900 33 1.000000 0.051000 0.054000 300 31 0.900000 0.586000 0.533000 600 38 1.000000 0.051000 0.051000 1.200000 0.050000 0.060000
1559784707460082428	900 33 1.000000 0.044000 0.046000 300 31 0.900000 0.586000 0.533000 600 37 1.000000 0.051000 0.051000 1.200000 0.046000 0.055000
1559784707973415095	900 33 1.000000 0.043000 0.045000 300 32 0.900000 0.587000 0.534000 600 37 1.000000 0.050000 0.050000 1.200000 0.044000 0.053000
1559784708485932637	900 33 1.000000 0.081000 0.086000 300 31 0.900000 0.581000 0.529000 600 37 1.000000 0.050000 0.050000 1.200000 0.061000 0.073000
1559784708998358179	900 33 1.000000 0.065000 0.069000 300 31 0.900000 0.585000 0.532000 600 38 1.000000 0.051000 0.051000 1.200000 0.050000 0.060000
1559784709510539220	900 33 1.000000 0.044000 0.046000 300 32 0.900000 0.586000 0.533000 600 37 1.000000 0.050000 0.050000 1.200000 0.044000 0.053000
1559784710022809137	900 33 1.000000 0.043000 0.045000 300 31 0.900000 0.587000 0.534000 600 37 1.000000 0.051000 0.051000 1.200000 0.044000 0.053000
1559784710535018387	900 33 1.000000 0.071000 0.075000 300 31 0.900000 0.587000 0.534000 600 37 1.000000 0.050000 0.050000 1.200000 0.064000 0.077000
1559784711047356179	900 33 1.000000 0.061000 0.064000 300 32 0.900000 0.586000 0.533000 600 37 1.000000 0.050000 0.050000 1.200000 0.048000 0.058000
1559784711559621346	900 33 1.000000 0.040000 0.042000 300 31 0.900000 0.587000 0.534000 600 37 1.000000 0.051000 0.051000 1.200000 0.044000 0.053000
1559784712071996637	900 33 1.000000 0.040000 0.042000 300 31 0.900000 0.587000 0.534000 600 37 1.000000 0.051000 0.051000 1.200000 0.044000 0.053000
1559784712584749637	900 33 1.000000 0.043000 0.045000 300 32 0.900000 0.587000 0.534000 600 38 1.000000 0.050000 0.050000 1.200000 0.052000 0.062000
1559784713097201471	900 33 1.000000 0.091000 0.096000 300 31 0.900000 0.580000 0.528000 600 37 1.000000 0.051000 0.051000 1.200000 0.045000 0.054000
1559784713609487721	900 33 1.000000 0.043000 0.045000 300 32 0.900000 0.587000 0.534000 600 38 1.000000 0.050000 0.050000 1.200000 0.044000 0.053000
1559784714121895179	900 33 1.000000 0.044000 0.046000 300 32 0.900000 0.586000 0.533000 600 37 1.000000 0.050000 0.050000 1.200000 0.045000 0.054000
1559784714633872638	900 33 1.000000 0.043000 0.045000 300 31 0.900000 0.584000 0.532000 600 37 1.000000 0.051000 0.051000 1.200000 0.046000 0.055000
1559784715146257763	900 33 1.000000 0.055000 0.058000 300 32 0.900000 0.586000 0.533000 600 37 1.000000 0.050000 0.050000 1.200000 0.046000 0.055000
1559784715658418346	900 33 1.000000 0.042000 0.044000 300 32 0.900000 0.586000 0.533000 600 38 1.000000 0.051000 0.051000 1.200000 0.048000 0.058000
1559784716170376346	900 33 1.000000 0.043000 0.045000 300 32 0.900000 0.586000 0.533000 600 37 1.000000 0.051000 0.051000 1.200000 0.046000 0.055000
1559784716682466721	900 33 1.000000 0.044000 0.046000 300 31 0.900000 0.585000 0.532000 600 38 1.000000 0.051000 0.051000 1.200000 0.045000 0.054000
1559784717194641763	900 34 1.000000 0.054000 0.057000 300 32 0.900000 0.586000 0.533000 600 38 1.000000 0.051000 0.051000 1.200000 0.045000 0.054000
1559784717706873888	900 33 1.000000 0.040000 0.042000 300 32 0.900000 0.582000 0.530000 600 38 1.000000 0.050000 0.050000 1.200000 0.057000 0.068000
1559784718219150763	900 33 1.000000 0.040000 0.042000 300 31 0.900000 0.587000 0.534000 600 38 1.000000 0.050000 0.050000 1.200000 0.045000 0.054000
1559784718731391846	900 33 1.000000 0.040000 0.042000 300 32 0.900000 0.587000 0.534000 600 38 1.000000 0.050000 0.050000 1.200000 0.046000 0.055000
1559784719245918596	900 33 1.000000 0.043000 0.045000 300 32 0.900000 0.587000 0.534000 600 37 1.000000 0.050000 0.050000 1.200000 0.046000 0.055000
1559784719758652972	900 33 1.000000 0.093000 0.098000 300 32 0.900000 0.579000 0.527000 600 37 1.000000 0.051000 0.051000 1.200000 0.066000 0.079000
1559784720270978638	900 33 1.000000 0.042000 0.044000 300 32 0.900000 0.587000 0.534000 600 38 1.000000 0.051000 0.051000 1.200000 0.046000 0.055000
1559784720783231888	900 33 1.000000 0.043000 0.045000 300 32 0.900000 0.587000 0.534000 600 37 1.000000 0.051000 0.051000 1.200000 0.045000 0.054000
1559784721295600055	900 33 1.000000 0.041000 0.043000 300 32 0.900000 0.587000 0.534000 600 38 1.000000 0.051000 0.051000 1.200000 0.045000 0.054000
1559784721807915638	900 34 1.000000 0.083000 0.088000 300 31 0.900000 0.579000 0.527000 600 38 1.000000 0.051000 0.051000 1.200000 0.058000 0.070000
1559784722320059847	900 33 1.000000 0.040000 0.042000 300 31 0.900000 0.587000 0.534000 600 38 1.000000 0.051000 0.051000 1.200000 0.044000 0.053000
1559784722832092764	900 33 1.000000 0.040000 0.042000 300 32 0.900000 0.587000 0.534000 600 38 1.000000 0.051000 0.051000 1.200000 0.044000 0.053000
1559784723344636264	900 33 1.000000 0.043000 0.045000 300 32 0.900000 0.587000 0.534000 600 38 1.000000 0.050000 0.050000 1.200000 0.046000 0.055000
1559784723859341222	900 34 1.000000 0.044000 0.046000 300 32 0.900000 0.586000 0.533000 600 38 1.000000 0.051000 0.051000 1.200000 0.051000 0.061000
1559784724372226639	900 33 1.000000 0.058000 0.061000 300 32 0.900000 0.580000 0.528000 600 38 1.000000 0.051000 0.051000 1.200000 0.066000 0.079000
1559784724884279555	900 33 1.000000 0.041000 0.043000 300 32 0.900000 0.586000 0.533000 600 38 1.000000 0.050000 0.050000 1.200000 0.045000 0.054000
1559784725396540639	900 34 1.000000 0.042000 0.044000 300 32 0.900000 0.587000 0.534000 600 38 1.000000 0.050000 0.050000 1.200000 0.045000 0.054000
1559784725912174556	900 33 1.000000 0.065000 0.069000 300 32 0.900000 0.584000 0.532000 600 38 1.000000 0.051000 0.051000 1.200000 0.050000 0.060000
1559784726424528431	900 33 1.000000 0.068000 0.072000 300 32 0.900000 0.577000 0.525000 600 38 1.000000 0.050000 0.050000 1.200000 0.060000 0.072000
1559784726936736264	900 33 1.000000 0.044000 0.046000 300 31 0.900000 0.586000 0.533000 600 38 1.000000 0.051000 0.051000 1.200000 0.045000 0.054000
1559784727448812889	900 34 1.000000 0.042000 0.044000 300 32 0.900000 0.587000 0.534000 600 38 1.000000 0.050000 0.050000 1.200000 0.045000 0.054000
1559784727960909889	900 33 1.000000 0.051000 0.054000 300 32 0.900000 0.587000 0.534000 600 37 1.000000 0.051000 0.051000 1.200000 0.048000 0.058000
1559784728473015306	900 34 1.000000 0.061000 0.064000 300 32 0.900000 0.583000 0.531000 600 38 1.000000 0.050000 0.050000 1.200000 0.050000 0.060000
1559784728985359848	900 33 1.000000 0.041000 0.043000 300 32 0.900000 0.586000 0.533000 600 38 1.000000 0.051000 0.051000 1.200000 0.045000 0.054000
1559784729498177473	900 34 1.000000 0.040000 0.042000 300 32 0.900000 0.587000 0.534000 600 38 1.000000 0.051000 0.051000 1.200000 0.046000 0.055000
1559784730010500264	900 33 1.000000 0.041000 0.043000 300 32 0.900000 0.587000 0.534000 600 38 1.000000 0.051000 0.051000 1.200000 0.046000 0.055000
1559784730523772806	900 34 1.000000 0.050000 0.053000 300 32 0.900000 0.587000 0.534000 600 38 1.000000 0.050000 0.050000 1.200000 0.044000 0.053000
1559784731036488556	900 33 1.000000 0.040000 0.042000 300 32 0.900000 0.587000 0.534000 600 38 1.000000 0.050000 0.050000 1.200000 0.049000 0.059000
1559784731549415140	900 33 1.000000 0.044000 0.046000 300 32 0.900000 0.586000 0.533000 600 38 1.000000 0.051000 0.051000 1.200000 0.044000 0.053000
1559784732062450140	900 33 1.000000 0.040000 0.042000 300 32 0.900000 0.586000 0.533000 600 38 1.000000 0.050000 0.050000 1.200000 0.051000 0.061000
1559784732574815056	900 33 1.000000 0.042000 0.044000 300 31 0.900000 0.586000 0.533000 600 38 1.000000 0.051000 0.051000 1.200000 0.045000 0.054000
1559784733087081098	900 33 1.000000 0.043000 0.045000 300 32 0.900000 0.581000 0.529000 600 38 1.000000 0.051000 0.051000 1.200000 0.051000 0.061000
1559784733599120890	900 33 1.000000 0.044000 0.046000 300 31 0.900000 0.586000 0.533000 600 38 1.000000 0.051000 0.051000 1.200000 0.046000 0.055000
1559784734111347182	900 33 1.000000 0.065000 0.069000 300 32 0.900000 0.584000 0.532000 600 38 1.000000 0.051000 0.051000 1.200000 0.052000 0.062000
1559784734623411515	900 33 1.000000 0.042000 0.044000 300 32 0.900000 0.587000 0.534000 600 38 1.000000 0.050000 0.050000 1.200000 0.046000 0.055000
1559784735135249682	900 34 1.000000 0.042000 0.044000 300 32 0.900000 0.585000 0.532000 600 38 1.000000 0.050000 0.050000 1.200000 0.045000 0.054000
1559784735647467723	900 33 1.000000 0.045000 0.047000 300 32 0.900000 0.586000 0.533000 600 38 1.000000 0.051000 0.051000 1.200000 0.048000 0.058000
1559784736159755473	900 33 1.000000 0.061000 0.064000 300 32 0.900000 0.583000 0.531000 600 38 1.000000 0.051000 0.051000 1.200000 0.050000 0.060000
1559784736671979974	900 33 1.000000 0.040000 0.042000 300 32 0.900000 0.587000 0.534000 600 38 1.000000 0.050000 0.050000 1.200000 0.046000 0.055000
1559784737184857599	900 33 1.000000 0.041000 0.043000 300 32 0.900000 0.587000 0.534000 600 38 1.000000 0.050000 0.050000 1.200000 0.044000 0.053000
1559784737697386474	900 33 1.000000 0.051000 0.054000 300 32 0.900000 0.584000 0.532000 600 38 1.000000 0.050000 0.050000 1.200000 0.059000 0.071000
1559784738209954557	900 33 1.000000 0.060000 0.063000 300 32 0.900000 0.586000 0.533000 600 38 1.000000 0.051000 0.051000 1.200000 0.049000 0.059000
1559784738722150890	900 33 1.000000 0.044000 0.046000 300 32 0.900000 0.587000 0.534000 600 38 1.000000 0.051000 0.051000 1.200000 0.044000 0.053000
1559784739234300807	900 33 1.000000 0.042000 0.044000 300 32 0.900000 0.587000 0.534000 600 38 1.000000 0.050000 0.050000 1.200000 0.045000 0.054000
1559784739746573224	900 33 1.000000 0.072000 0.076000 300 32 0.900000 0.579000 0.527000 600 38 1.000000 0.051000 0.051000 1.200000 0.066000 0.079000
1559784740258922349	900 33 1.000000 0.062000 0.065000 300 32 0.900000 0.587000 0.534000 600 38 1.000000 0.051000 0.051000 1.200000 0.049000 0.059000
1559784740771184182	900 33 1.000000 0.043000 0.045000 300 31 0.900000 0.587000 0.534000 600 38 1.000000 0.051000 0.051000 1.200000 0.045000 0.054000
1559784741283283391	900 33 1.000000 0.043000 0.045000 300 32 0.900000 0.587000 0.534000 600 38 1.000000 0.051000 0.051000 1.200000 0.046000 0.055000
1559784741796922016	900 34 1.000000 0.042000 0.044000 300 32 0.900000 0.586000 0.533000 600 38 1.000000 0.051000 0.051000 1.200000 0.046000 0.055000
1559784742309500016	900 33 1.000000 0.076000 0.080000 300 32 0.900000 0.583000 0.531000 600 38 1.000000 0.050000 0.050000 1.200000 0.058000 0.070000
1559784742821716891	900 34 1.000000 0.044000 0.046000 300 32 0.900000 0.587000 0.534000 600 38 1.000000 0.050000 0.050000 1.200000 0.046000 0.055000
1559784743333719474	900 33 1.000000 0.043000 0.045000 300 32 0.900000 0.587000 0.534000 600 38 1.000000 0.051000 0.051000 1.200000 0.045000 0.054000
1559784743846668266	900 34 1.000000 0.040000 0.042000 300 32 0.900000 0.587000 0.534000 600 38 1.000000 0.050000 0.050000 1.200000 0.045000 0.054000
1559784744359299266	900 33 1.000000 0.056000 0.059000 300 32 0.900000 0.578000 0.526000 600 38 1.000000 0.051000 0.051000 1.200000 0.071000 0.085000
1559784744871577433	900 33 1.000000 0.043000 0.045000 300 32 0.900000 0.587000 0.534000 600 38 1.000000 0.050000 0.050000 1.200000 0.044000 0.053000
1559784745383351933	900 33 1.000000 0.043000 0.045000 300 32 0.900000 0.587000 0.534000 600 38 1.000000 0.051000 0.051000 1.200000 0.044000 0.053000
1559784745895489891	900 33 1.000000 0.043000 0.045000 300 32 0.900000 0.587000 0.534000 600 38 1.000000 0.050000 0.050000 1.200000 0.044000 0.053000
1559784746407767266	900 34 1.000000 0.048000 0.051000 300 32 0.900000 0.587000 0.534000 600 38 1.000000 0.050000 0.050000 1.200000 0.062000 0.075000
1559784746920039808	900 33 1.000000 0.043000 0.045000 300 32 0.900000 0.584000 0.532000 600 38 1.000000 0.051000 0.051000 1.200000 0.044000 0.053000
1559784747432211142	900 33 1.000000 0.040000 0.042000 300 32 0.900000 0.586000 0.533000 600 38 1.000000 0.051000 0.051000 1.200000 0.044000 0.053000
1559784747944269850	900 33 1.000000 0.040000 0.042000 300 32 0.900000 0.586000 0.533000 600 38 1.000000 0.051000 0.051000 1.200000 0.044000 0.053000
1559784748457844142	900 34 1.000000 0.056000 0.059000 300 32 0.900000 0.587000 0.534000 600 38 1.000000 0.051000 0.051000 1.200000 0.052000 0.062000
1559784748970154850	900 34 1.000000 0.040000 0.042000 300 32 0.900000 0.580000 0.528000 600 38 1.000000 0.050000 0.050000 1.200000 0.044000 0.053000
1559784749482599725	900 34 1.000000 0.040000 0.042000 300 32 0.900000 0.587000 0.534000 600 38 1.000000 0.050000 0.050000 1.200000 0.044000 0.053000
1559784749995400308	900 33 1.000000 0.044000 0.046000 300 32 0.900000 0.587000 0.534000 600 38 1.000000 0.051000 0.051000 1.200000 0.046000 0.055000
1559784750508051225	900 34 1.000000 0.043000 0.045000 300 32 0.900000 0.587000 0.534000 600 38 1.000000 0.051000 0.051000 1.200000 0.046000 0.055000
1559784751020222684	900 34 1.000000 0.063000 0.066000 300 32 0.900000 0.586000 0.533000 600 38 1.000000 0.051000 0.051000 1.200000 0.061000 0.073000
1559784751532428059	900 34 1.000000 0.050000 0.053000 300 32 0.900000 0.586000 0.533000 600 38 1.000000 0.051000 0.051000 1.200000 0.045000 0.054000
1559784752044762517	900 33 1.000000 0.044000 0.046000 300 32 0.900000 0.586000 0.533000 600 38 1.000000 0.051000 0.051000 1.200000 0.044000 0.053000
1559784752556969309	900 34 1.000000 0.043000 0.045000 300 32 0.900000 0.586000 0.533000 600 38 1.000000 0.051000 0.051000 1.200000 0.044000 0.053000
1559784753070451101	900 34 1.000000 0.058000 0.061000 300 32 0.900000 0.585000 0.532000 600 38 1.000000 0.051000 0.051000 1.200000 0.049000 0.059000
1559784753582724267	900 34 1.000000 0.057000 0.060000 300 32 0.900000 0.581000 0.529000 600 38 1.000000 0.051000 0.051000 1.200000 0.044000 0.053000
1559784754094925351	900 33 1.000000 0.043000 0.045000 300 32 0.900000 0.587000 0.534000 600 38 1.000000 0.050000 0.050000 1.200000 0.044000 0.053000
1559784754607327184	900 34 1.000000 0.041000 0.043000 300 32 0.900000 0.586000 0.533000 600 38 1.000000 0.050000 0.050000 1.200000 0.044000 0.053000
1559784755120580392	900 33 1.000000 0.041000 0.043000 300 32 0.900000 0.586000 0.533000 600 38 1.000000 0.051000 0.051000 1.200000 0.044000 0.053000
1559784755633144976	900 33 1.000000 0.063000 0.066000 300 32 0.900000 0.577000 0.525000 600 38 1.000000 0.051000 0.051000 1.200000 0.048000 0.058000
1559784756145383643	900 34 1.000000 0.040000 0.042000 300 32 0.900000 0.586000 0.533000 600 38 1.000000 0.051000 0.051000 1.200000 0.044000 0.053000
1559784756658357726	900 34 1.000000 0.041000 0.043000 300 32 0.900000 0.586000 0.533000 600 38 1.000000 0.050000 0.050000 1.200000 0.044000 0.053000
1559784757170851018	900 34 1.000000 0.066000 0.070000 300 32 0.900000 0.586000 0.533000 600 38 1.000000 0.050000 0.050000 1.200000 0.050000 0.060000
1559784757683229393	900 34 1.000000 0.061000 0.064000 300 32 0.900000 0.581000 0.529000 600 38 1.000000 0.051000 0.051000 1.200000 0.052000 0.062000
1559784758195420809	900 34 1.000000 0.042000 0.044000 300 32 0.900000 0.587000 0.534000 600 38 1.000000 0.051000 0.051000 1.200000 0.045000 0.054000
1559784758709223768	900 33 1.000000 0.042000 0.044000 300 32 0.900000 0.587000 0.534000 600 38 1.000000 0.051000 0.051000 1.200000 0.044000 0.053000
1559784759221788976	900 34 1.000000 0.063000 0.066000 300 32 0.900000 0.586000 0.533000 600 38 1.000000 0.050000 0.050000 1.200000 0.047000 0.056000
1559784759735031768	900 34 1.000000 0.044000 0.046000 300 32 0.900000 0.586000 0.533000 600 38 1.000000 0.050000 0.050000 1.200000 0.046000 0.055000
1559784760247457976	900 34 1.000000 0.083000 0.088000 300 32 0.900000 0.577000 0.525000 600 38 1.000000 0.050000 0.050000 1.200000 0.065000 0.078000
1559784760759651185	900 33 1.000000 0.043000 0.045000 300 32 0.900000 0.586000 0.533000 600 38 1.000000 0.050000 0.050000 1.200000 0.045000 0.054000
1559784761272012310	900 34 1.000000 0.063000 0.066000 300 32 0.900000 0.585000 0.532000 600 38 1.000000 0.050000 0.050000 1.200000 0.049000 0.059000
1559784761784405310	900 34 1.000000 0.043000 0.045000 300 32 0.900000 0.587000 0.534000 600 38 1.000000 0.051000 0.051000 1.200000 0.045000 0.054000
1559784762296752602	900 34 1.000000 0.088000 0.093000 300 32 0.900000 0.580000 0.528000 600 38 1.000000 0.050000 0.050000 1.200000 0.054000 0.065000
1559784762808984102	900 33 1.000000 0.040000 0.042000 300 32 0.900000 0.587000 0.534000 600 38 1.000000 0.051000 0.051000 1.200000 0.046000 0.055000
1559784763321588352	900 34 1.000000 0.052000 0.055000 300 32 0.900000 0.585000 0.532000 600 38 1.000000 0.050000 0.050000 1.200000 0.051000 0.061000
1559784763833697935	900 33 1.000000 0.044000 0.046000 300 32 0.900000 0.587000 0.534000 600 38 1.000000 0.051000 0.051000 1.200000 0.045000 0.054000
1559784764345954685	900 33 1.000000 0.044000 0.046000 300 32 0.900000 0.584000 0.532000 600 38 1.000000 0.051000 0.051000 1.200000 0.045000 0.054000
1559784764858356602	900 34 1.000000 0.044000 0.046000 300 32 0.900000 0.587000 0.534000 600 38 1.000000 0.051000 0.051000 1.200000 0.046000 0.055000
1559784765370481352	900 34 1.000000 0.063000 0.066000 300 32 0.900000 0.585000 0.532000 600 38 1.000000 0.050000 0.050000 1.200000 0.050000 0.060000
1559784765882610185	900 33 1.000000 0.040000 0.042000 300 32 0.900000 0.586000 0.533000 600 37 1.000000 0.051000 0.051000 1.200000 0.045000 0.054000
1559784766396065602	900 32 1.000000 0.043000 0.045000 300 31 0.900000 0.103000 0.094000 600 36 1.000000 0.050000 0.050000 1.200000 0.029000 0.035000
1559784766909060227	900 32 1.000000 0.047000 0.049000 300 31 0.900000 0.050000 0.045000 600 36 1.000000 0.050000 0.050000 1.200000 0.038000 0.045000
