#Timestamp	CPU(0) Frequency(MHz)	CPU(0) Temperature(C)	A7 Voltage(V)	A7 Current(A)	A7 Power(W)	CPU(4) Frequency(MHz)	CPU(4) Temperature(C)	A15 Voltage(V)	A15 Current(A)	A15 Power(W)	GPU Frequency(MHz)	GPU Temperature(C)	GPU Voltage(V)	GPU Current(A)	GPU Power(W)	RAM Voltage(V)	RAM Current(A)	RAM Power(W)
1559792565647713490	1000 41 1.000000 0.044000 0.046000 1600 35 1.100000 0.862000 0.953000 600 40 1.000000 0.050000 0.050000 1.200000 0.045000 0.054000
1559792566153894032	1000 42 1.100000 0.047000 0.051000 1600 36 1.100000 1.103000 1.249000 600 41 1.000000 0.051000 0.051000 1.200000 0.049000 0.059000
1559792566659544907	1000 44 1.100000 0.050000 0.055000 1600 37 1.100000 1.156000 1.309000 600 41 1.000000 0.051000 0.051000 1.200000 0.037000 0.044000
1559792567165199615	1000 44 1.100000 0.047000 0.051000 1600 37 1.100000 1.051000 1.189000 600 41 1.000000 0.051000 0.051000 1.200000 0.029000 0.035000
1559792567670863615	1000 45 1.100000 0.047000 0.051000 1600 37 1.100000 1.054000 1.193000 600 42 1.000000 0.051000 0.051000 1.200000 0.029000 0.035000
1559792568176395282	1000 45 1.100000 0.046000 0.050000 1600 38 1.100000 1.052000 1.190000 600 41 1.000000 0.051000 0.051000 1.200000 0.028000 0.033000
1559792568681871491	1000 45 1.100000 0.047000 0.051000 1600 38 1.100000 1.216000 1.377000 600 42 1.000000 0.051000 0.051000 1.200000 0.031000 0.037000
1559792569187587699	1000 45 1.100000 0.047000 0.051000 1600 38 1.100000 1.047000 1.185000 600 42 1.000000 0.051000 0.051000 1.200000 0.028000 0.033000
1559792569693051782	1000 45 1.100000 0.046000 0.050000 1600 38 1.100000 1.148000 1.300000 600 42 1.000000 0.051000 0.051000 1.200000 0.030000 0.036000
1559792570198803199	1000 45 1.100000 0.047000 0.051000 1600 38 1.100000 1.054000 1.193000 600 42 1.000000 0.051000 0.051000 1.200000 0.028000 0.033000
1559792570704063032	1000 45 1.100000 0.047000 0.051000 1600 38 1.100000 1.283000 1.453000 600 43 1.000000 0.051000 0.051000 1.200000 0.031000 0.037000
1559792571209735199	1000 45 1.100000 0.051000 0.056000 1600 38 1.100000 1.082000 1.224000 600 42 1.000000 0.051000 0.051000 1.200000 0.030000 0.036000
1559792571715342158	1000 45 1.100000 0.047000 0.051000 1600 38 1.100000 1.062000 1.202000 600 42 1.000000 0.051000 0.051000 1.200000 0.029000 0.035000
1559792572220983491	1000 45 1.100000 0.046000 0.050000 1600 38 1.100000 1.049000 1.187000 600 42 1.000000 0.051000 0.051000 1.200000 0.028000 0.033000
1559792572727246741	1000 45 1.100000 0.047000 0.051000 1600 38 1.100000 1.050000 1.188000 600 43 1.000000 0.051000 0.051000 1.200000 0.029000 0.035000
1559792573232960533	1000 45 1.100000 0.046000 0.050000 1600 38 1.100000 1.053000 1.191000 600 42 1.000000 0.051000 0.051000 1.200000 0.030000 0.036000
1559792573738495074	1000 46 1.100000 0.047000 0.051000 1600 38 1.100000 1.047000 1.185000 600 42 1.000000 0.051000 0.051000 1.200000 0.030000 0.036000
1559792574244108491	1000 45 1.100000 0.048000 0.052000 1600 38 1.100000 1.048000 1.186000 600 42 1.000000 0.051000 0.051000 1.200000 0.029000 0.035000
1559792574749868491	1000 45 1.100000 0.047000 0.051000 1600 38 1.100000 1.050000 1.188000 600 42 1.000000 0.052000 0.052000 1.200000 0.029000 0.035000
1559792575255466866	1000 45 1.100000 0.059000 0.064000 1600 38 1.100000 1.052000 1.191000 600 42 1.000000 0.051000 0.051000 1.200000 0.029000 0.035000
1559792575760975408	1000 46 1.100000 0.047000 0.051000 1600 38 1.100000 1.051000 1.190000 600 42 1.000000 0.051000 0.051000 1.200000 0.030000 0.036000
1559792576266689158	1000 45 1.100000 0.047000 0.051000 1600 38 1.100000 1.074000 1.215000 600 42 1.000000 0.051000 0.051000 1.200000 0.028000 0.033000
1559792576772314658	1000 45 1.100000 0.047000 0.051000 1600 38 1.100000 1.056000 1.195000 600 42 1.000000 0.051000 0.051000 1.200000 0.029000 0.035000
1559792577277994575	1000 45 1.100000 0.050000 0.055000 1600 38 1.100000 1.050000 1.188000 600 42 1.000000 0.051000 0.051000 1.200000 0.038000 0.045000
1559792577783402242	1000 45 1.100000 0.046000 0.050000 1600 38 1.100000 1.065000 1.205000 600 43 1.000000 0.051000 0.051000 1.200000 0.028000 0.033000
1559792578288965033	1000 45 1.100000 0.047000 0.051000 1600 38 1.100000 1.162000 1.316000 600 42 1.000000 0.051000 0.051000 1.200000 0.030000 0.036000
1559792578794539283	1000 45 1.100000 0.047000 0.051000 1600 38 1.100000 1.070000 1.211000 600 42 1.000000 0.051000 0.051000 1.200000 0.028000 0.033000
1559792579300079367	1000 45 1.100000 0.060000 0.066000 1600 38 1.100000 1.052000 1.190000 600 42 1.000000 0.051000 0.051000 1.200000 0.038000 0.045000
1559792579805526159	1000 45 1.100000 0.047000 0.051000 1600 38 1.100000 1.080000 1.223000 600 42 1.000000 0.051000 0.051000 1.200000 0.029000 0.035000
1559792580311100909	1000 45 1.100000 0.047000 0.051000 1600 38 1.100000 1.147000 1.299000 600 42 1.000000 0.051000 0.051000 1.200000 0.030000 0.036000
1559792580816700242	1000 45 1.100000 0.047000 0.051000 1600 38 1.100000 1.074000 1.215000 600 42 1.000000 0.051000 0.051000 1.200000 0.030000 0.036000
1559792581322216950	1000 46 1.100000 0.047000 0.051000 1600 38 1.100000 1.054000 1.194000 600 42 1.000000 0.051000 0.051000 1.200000 0.028000 0.033000
1559792581827681409	1000 45 1.100000 0.047000 0.051000 1600 38 1.100000 1.071000 1.212000 600 43 1.000000 0.051000 0.051000 1.200000 0.029000 0.035000
1559792582333320784	1000 45 1.100000 0.047000 0.051000 1600 38 1.100000 1.065000 1.205000 600 42 1.000000 0.051000 0.051000 1.200000 0.032000 0.038000
1559792582838836242	1000 45 1.100000 0.046000 0.050000 1600 38 1.100000 1.048000 1.186000 600 42 1.000000 0.051000 0.051000 1.200000 0.030000 0.036000
1559792583344143659	1000 45 1.100000 0.047000 0.051000 1600 38 1.100000 1.069000 1.210000 600 43 1.000000 0.051000 0.051000 1.200000 0.029000 0.035000
1559792583851840867	1000 45 1.100000 0.055000 0.060000 1600 38 1.100000 1.261000 1.431000 600 43 1.000000 0.051000 0.051000 1.200000 0.040000 0.048000
1559792584357571284	1000 45 1.100000 0.048000 0.052000 1600 38 1.100000 1.181000 1.338000 600 42 1.000000 0.051000 0.051000 1.200000 0.031000 0.037000
1559792584863358409	1000 45 1.100000 0.047000 0.051000 1600 38 1.100000 1.055000 1.194000 600 42 1.000000 0.051000 0.051000 1.200000 0.030000 0.036000
1559792585370545701	1000 45 1.100000 0.047000 0.051000 1600 38 1.100000 1.077000 1.219000 600 42 1.000000 0.051000 0.051000 1.200000 0.029000 0.035000
1559792585877181451	1000 45 1.100000 0.046000 0.050000 1600 38 1.100000 1.276000 1.445000 600 42 1.000000 0.051000 0.051000 1.200000 0.038000 0.045000
1559792586383765784	1000 45 1.100000 0.048000 0.052000 1600 38 1.100000 1.176000 1.332000 600 42 1.000000 0.051000 0.051000 1.200000 0.032000 0.038000
1559792586889686493	1000 45 1.100000 0.049000 0.053000 1600 38 1.100000 1.054000 1.193000 600 41 1.000000 0.051000 0.051000 1.200000 0.030000 0.036000
1559792587395289034	1000 45 1.100000 0.047000 0.051000 1600 38 1.100000 1.072000 1.213000 600 42 1.000000 0.051000 0.051000 1.200000 0.029000 0.035000
1559792587901301576	1000 45 1.100000 0.051000 0.056000 1600 38 1.100000 1.303000 1.476000 600 42 1.000000 0.051000 0.051000 1.200000 0.035000 0.042000
1559792588407008743	1000 45 1.100000 0.047000 0.051000 1600 38 1.100000 1.057000 1.196000 600 42 1.000000 0.051000 0.051000 1.200000 0.033000 0.039000
1559792588912624826	1000 45 1.100000 0.046000 0.050000 1600 38 1.100000 1.049000 1.187000 600 42 1.000000 0.051000 0.051000 1.200000 0.029000 0.035000
1559792589418250285	1000 45 1.100000 0.047000 0.051000 1600 38 1.100000 1.079000 1.221000 600 42 1.000000 0.051000 0.051000 1.200000 0.029000 0.035000
1559792589923884285	1000 45 1.100000 0.053000 0.058000 1600 38 1.100000 1.049000 1.187000 600 42 1.000000 0.051000 0.051000 1.200000 0.030000 0.036000
1559792590429652493	1000 45 1.100000 0.048000 0.052000 1600 38 1.100000 1.165000 1.319000 600 42 1.000000 0.051000 0.051000 1.200000 0.033000 0.039000
1559792590935286535	1000 45 1.100000 0.047000 0.051000 1600 38 1.100000 1.058000 1.197000 600 41 1.000000 0.051000 0.051000 1.200000 0.031000 0.037000
1559792591441011827	1000 45 1.100000 0.046000 0.050000 1600 38 1.100000 1.066000 1.206000 600 41 1.000000 0.051000 0.051000 1.200000 0.029000 0.035000
1559792591946643910	1000 45 1.100000 0.058000 0.063000 1600 38 1.100000 1.099000 1.244000 600 42 1.000000 0.051000 0.051000 1.200000 0.030000 0.036000
1559792592452353827	1000 45 1.100000 0.047000 0.051000 1600 38 1.100000 1.169000 1.324000 600 42 1.000000 0.051000 0.051000 1.200000 0.033000 0.039000
1559792592958067868	1000 45 1.100000 0.046000 0.050000 1600 38 1.100000 1.066000 1.206000 600 41 1.000000 0.051000 0.051000 1.200000 0.030000 0.036000
1559792593463629785	1000 45 1.100000 0.047000 0.051000 1600 38 1.100000 1.051000 1.189000 600 41 1.000000 0.051000 0.051000 1.200000 0.030000 0.036000
1559792593969125785	1000 45 1.100000 0.047000 0.051000 1600 38 1.100000 1.113000 1.259000 600 42 1.000000 0.051000 0.051000 1.200000 0.029000 0.035000
1559792594474807035	1000 45 1.100000 0.048000 0.052000 1600 38 1.100000 1.081000 1.223000 600 41 1.000000 0.051000 0.051000 1.200000 0.031000 0.037000
1559792594980463369	1000 45 1.100000 0.046000 0.050000 1600 38 1.100000 1.049000 1.187000 600 41 1.000000 0.051000 0.051000 1.200000 0.029000 0.035000
1559792595486110535	1000 45 1.100000 0.046000 0.050000 1600 38 1.100000 1.046000 1.184000 600 41 1.000000 0.051000 0.051000 1.200000 0.030000 0.036000
1559792595992660660	1000 45 1.100000 0.048000 0.052000 1600 38 1.100000 1.047000 1.185000 600 44 1.000000 0.051000 0.051000 1.200000 0.041000 0.049000
1559792596499696244	1000 47 1.000000 0.291000 0.316000 1600 39 1.100000 2.169000 2.468000 600 44 1.000000 0.051000 0.051000 1.200000 0.105000 0.127000
1559792597006754619	1000 48 1.000000 0.281000 0.305000 1600 40 1.100000 2.001000 2.275000 600 45 1.000000 0.051000 0.051000 1.200000 0.094000 0.113000
1559792597513697119	1000 49 1.000000 0.283000 0.307000 1600 41 1.100000 1.980000 2.251000 600 46 1.000000 0.052000 0.052000 1.200000 0.094000 0.113000
1559792598021820369	1000 49 1.000000 0.283000 0.307000 1600 41 1.100000 2.001000 2.275000 600 47 1.000000 0.051000 0.051000 1.200000 0.094000 0.113000
1559792598528791411	1000 50 1.000000 0.292000 0.317000 1600 41 1.100000 2.196000 2.496000 600 47 1.000000 0.052000 0.052000 1.200000 0.106000 0.128000
1559792599035706494	1000 50 1.000000 0.284000 0.308000 1600 42 1.100000 1.988000 2.260000 600 47 1.000000 0.052000 0.052000 1.200000 0.094000 0.113000
1559792599542705244	1000 50 1.000000 0.284000 0.308000 1600 42 1.100000 1.993000 2.266000 600 47 1.000000 0.052000 0.052000 1.200000 0.094000 0.113000
1559792600049787994	1000 51 1.000000 0.284000 0.308000 1600 42 1.100000 1.983000 2.254000 600 48 1.000000 0.052000 0.052000 1.200000 0.093000 0.112000
1559792600556857453	1000 51 1.000000 0.296000 0.321000 1600 42 1.100000 2.245000 2.554000 600 48 1.000000 0.052000 0.052000 1.200000 0.104000 0.126000
1559792601063829494	1000 51 1.000000 0.284000 0.308000 1600 43 1.100000 1.988000 2.260000 600 48 1.000000 0.052000 0.052000 1.200000 0.093000 0.112000
1559792601570908286	1000 51 1.000000 0.284000 0.308000 1600 43 1.100000 1.989000 2.261000 600 48 1.000000 0.052000 0.052000 1.200000 0.093000 0.112000
1559792602077784161	1000 51 1.000000 0.284000 0.308000 1600 43 1.100000 2.003000 2.277000 600 48 1.000000 0.052000 0.052000 1.200000 0.094000 0.113000
1559792602584696995	1000 52 1.000000 0.284000 0.308000 1600 43 1.100000 2.034000 2.312000 600 49 1.000000 0.052000 0.052000 1.200000 0.094000 0.113000
1559792603091600953	1000 52 1.000000 0.284000 0.308000 1600 43 1.100000 1.998000 2.271000 600 49 1.000000 0.052000 0.052000 1.200000 0.094000 0.113000
1559792603598533828	1000 52 1.000000 0.284000 0.308000 1600 43 1.100000 2.011000 2.286000 600 49 1.000000 0.052000 0.052000 1.200000 0.094000 0.113000
1559792604105584495	1000 52 1.000000 0.284000 0.308000 1600 43 1.100000 1.992000 2.264000 600 49 1.000000 0.052000 0.052000 1.200000 0.093000 0.112000
1559792604612421911	1000 52 1.000000 0.284000 0.308000 1600 44 1.100000 2.076000 2.360000 600 50 1.000000 0.052000 0.052000 1.200000 0.097000 0.117000
1559792605119324203	1000 52 1.000000 0.288000 0.312000 1600 44 1.100000 1.991000 2.263000 600 49 1.000000 0.052000 0.052000 1.200000 0.093000 0.112000
1559792605626302328	1000 52 1.000000 0.284000 0.308000 1600 44 1.100000 1.990000 2.262000 600 49 1.000000 0.052000 0.052000 1.200000 0.093000 0.112000
1559792606133380953	1000 52 1.000000 0.284000 0.308000 1600 44 1.100000 1.993000 2.266000 600 49 1.000000 0.052000 0.052000 1.200000 0.093000 0.112000
1559792606642206578	1000 52 1.000000 0.284000 0.308000 1600 44 1.100000 2.077000 2.361000 600 50 1.000000 0.052000 0.052000 1.200000 0.095000 0.115000
1559792607149716745	1000 52 1.000000 0.283000 0.307000 1600 44 1.100000 1.991000 2.263000 600 50 1.000000 0.052000 0.052000 1.200000 0.093000 0.112000
1559792607656675912	1000 52 1.000000 0.284000 0.308000 1600 44 1.100000 1.992000 2.264000 600 50 1.000000 0.052000 0.052000 1.200000 0.093000 0.112000
1559792608163701995	1000 52 1.000000 0.284000 0.308000 1600 44 1.100000 1.993000 2.266000 600 49 1.000000 0.052000 0.052000 1.200000 0.093000 0.112000
1559792608670767037	1000 52 1.000000 0.284000 0.308000 1600 44 1.100000 2.003000 2.277000 600 50 1.000000 0.052000 0.052000 1.200000 0.093000 0.112000
1559792609177833870	1000 52 1.000000 0.283000 0.307000 1600 44 1.100000 2.252000 2.562000 600 50 1.000000 0.052000 0.052000 1.200000 0.102000 0.123000
1559792609684808162	1000 52 1.000000 0.285000 0.309000 1600 44 1.100000 1.995000 2.268000 600 50 1.000000 0.053000 0.053000 1.200000 0.093000 0.112000
1559792610191869037	1000 53 1.000000 0.285000 0.309000 1600 44 1.100000 1.996000 2.269000 600 50 1.000000 0.052000 0.052000 1.200000 0.094000 0.113000
1559792610698906746	1000 53 1.000000 0.286000 0.310000 1600 44 1.100000 2.079000 2.363000 600 50 1.000000 0.052000 0.052000 1.200000 0.094000 0.113000
1559792611205915329	1000 53 1.000000 0.290000 0.314000 1600 44 1.100000 2.191000 2.493000 600 50 1.000000 0.052000 0.052000 1.200000 0.102000 0.123000
1559792611712809287	1000 53 1.000000 0.285000 0.309000 1600 44 1.100000 1.993000 2.266000 600 50 1.000000 0.052000 0.052000 1.200000 0.093000 0.112000
1559792612219782996	1000 53 1.000000 0.285000 0.309000 1600 44 1.100000 1.993000 2.266000 600 50 1.000000 0.052000 0.052000 1.200000 0.093000 0.112000
1559792612726786329	1000 53 1.000000 0.285000 0.309000 1600 44 1.100000 2.076000 2.360000 600 50 1.000000 0.052000 0.052000 1.200000 0.095000 0.115000
1559792613233807829	1000 53 1.000000 0.285000 0.309000 1600 44 1.100000 2.191000 2.491000 600 50 1.000000 0.052000 0.052000 1.200000 0.100000 0.121000
1559792613740739204	1000 53 1.000000 0.285000 0.309000 1600 44 1.100000 2.006000 2.280000 600 50 1.000000 0.052000 0.052000 1.200000 0.093000 0.112000
1559792614248105454	1000 53 1.000000 0.286000 0.310000 1600 44 1.100000 2.010000 2.285000 600 50 1.000000 0.052000 0.052000 1.200000 0.093000 0.112000
1559792614755400038	1000 53 1.000000 0.285000 0.309000 1600 44 1.100000 1.993000 2.266000 600 50 1.000000 0.052000 0.052000 1.200000 0.094000 0.113000
1559792615263007538	1000 53 1.000000 0.285000 0.309000 1600 44 1.100000 2.100000 2.387000 600 51 1.000000 0.053000 0.053000 1.200000 0.093000 0.112000
1559792615770105246	1000 53 1.000000 0.292000 0.317000 1600 44 1.100000 2.178000 2.478000 600 50 1.000000 0.053000 0.053000 1.200000 0.098000 0.118000
1559792616277065871	1000 53 1.000000 0.285000 0.309000 1600 45 1.100000 1.999000 2.272000 600 50 1.000000 0.052000 0.052000 1.200000 0.094000 0.113000
1559792616784055538	1000 53 1.000000 0.285000 0.309000 1600 45 1.100000 2.014000 2.289000 600 50 1.000000 0.052000 0.052000 1.200000 0.094000 0.113000
1559792617290959955	1000 53 1.000000 0.285000 0.309000 1600 45 1.100000 2.036000 2.314000 600 50 1.000000 0.052000 0.052000 1.200000 0.093000 0.112000
1559792617798010413	1000 53 1.000000 0.286000 0.310000 1600 45 1.100000 2.178000 2.476000 600 50 1.000000 0.052000 0.052000 1.200000 0.099000 0.119000
1559792618304891371	1000 53 1.000000 0.285000 0.309000 1600 45 1.100000 1.998000 2.271000 600 50 1.000000 0.052000 0.052000 1.200000 0.094000 0.113000
1559792618811791205	1000 53 1.000000 0.285000 0.309000 1600 45 1.100000 2.020000 2.296000 600 50 1.000000 0.052000 0.052000 1.200000 0.096000 0.116000
1559792619318913080	1000 53 1.000000 0.285000 0.309000 1600 45 1.100000 2.001000 2.275000 600 50 1.000000 0.053000 0.053000 1.200000 0.094000 0.113000
1559792619826003163	1000 53 1.000000 0.290000 0.314000 1600 45 1.100000 2.138000 2.430000 600 51 1.000000 0.052000 0.052000 1.200000 0.102000 0.123000
1559792620332874288	1000 53 1.000000 0.286000 0.310000 1600 45 1.100000 2.002000 2.276000 600 50 1.000000 0.053000 0.053000 1.200000 0.094000 0.113000
1559792620839809247	1000 53 1.000000 0.286000 0.310000 1600 45 1.100000 1.996000 2.267000 600 51 1.000000 0.052000 0.052000 1.200000 0.097000 0.117000
1559792621346961372	1000 53 1.000000 0.285000 0.309000 1600 45 1.100000 2.092000 2.378000 600 50 1.000000 0.052000 0.052000 1.200000 0.095000 0.115000
1559792621853993955	1000 53 1.000000 0.285000 0.309000 1600 45 1.100000 2.007000 2.281000 600 51 1.000000 0.052000 0.052000 1.200000 0.095000 0.115000
1559792622361006872	1000 53 1.000000 0.285000 0.309000 1600 45 1.100000 2.119000 2.409000 600 50 1.000000 0.052000 0.052000 1.200000 0.104000 0.126000
1559792622867978247	1000 53 1.000000 0.285000 0.309000 1600 45 1.100000 2.008000 2.283000 600 51 1.000000 0.052000 0.052000 1.200000 0.094000 0.113000
1559792623375070497	1000 53 1.000000 0.285000 0.309000 1600 45 1.100000 2.101000 2.386000 600 50 1.000000 0.052000 0.052000 1.200000 0.097000 0.117000
1559792623882591539	1000 53 1.000000 0.285000 0.309000 1600 45 1.100000 1.999000 2.272000 600 51 1.000000 0.052000 0.052000 1.200000 0.095000 0.115000
1559792624389800414	1000 53 1.000000 0.291000 0.316000 1600 45 1.100000 2.138000 2.430000 600 50 1.000000 0.052000 0.052000 1.200000 0.104000 0.126000
1559792624896689914	1000 53 1.000000 0.285000 0.309000 1600 45 1.100000 1.998000 2.271000 600 51 1.000000 0.053000 0.053000 1.200000 0.095000 0.115000
1559792625403704997	1000 53 1.000000 0.285000 0.309000 1600 45 1.100000 2.020000 2.294000 600 50 1.000000 0.052000 0.052000 1.200000 0.097000 0.117000
1559792625917746372	1000 53 1.000000 0.285000 0.309000 1600 45 1.100000 1.993000 2.266000 600 51 1.000000 0.053000 0.053000 1.200000 0.095000 0.115000
1559792626425595706	1000 53 1.000000 0.289000 0.313000 1600 45 1.100000 2.175000 2.472000 600 51 1.000000 0.053000 0.053000 1.200000 0.105000 0.127000
1559792626932409747	1000 53 1.000000 0.285000 0.309000 1600 45 1.100000 1.997000 2.270000 600 51 1.000000 0.052000 0.052000 1.200000 0.094000 0.113000
1559792627439437789	1000 53 1.000000 0.285000 0.309000 1600 45 1.100000 1.995000 2.268000 600 51 1.000000 0.053000 0.053000 1.200000 0.095000 0.115000
1559792627946696664	1000 53 1.000000 0.285000 0.309000 1600 45 1.100000 2.017000 2.293000 600 50 1.000000 0.053000 0.053000 1.200000 0.094000 0.113000
1559792628453777914	1000 53 1.000000 0.288000 0.312000 1600 45 1.100000 2.000000 2.272000 600 51 1.000000 0.052000 0.052000 1.200000 0.094000 0.113000
1559792628960533331	1000 53 1.000000 0.285000 0.309000 1600 45 1.100000 2.010000 2.283000 600 51 1.000000 0.053000 0.053000 1.200000 0.095000 0.115000
1559792629467537789	1000 54 1.000000 0.285000 0.309000 1600 45 1.100000 2.095000 2.382000 600 51 1.000000 0.053000 0.053000 1.200000 0.097000 0.117000
1559792629974521165	1000 53 1.000000 0.285000 0.309000 1600 45 1.100000 2.010000 2.283000 600 50 1.000000 0.052000 0.052000 1.200000 0.095000 0.115000
1559792630481568873	1000 54 1.000000 0.285000 0.309000 1600 45 1.100000 2.008000 2.281000 600 51 1.000000 0.053000 0.053000 1.200000 0.094000 0.113000
1559792630988382873	1000 53 1.000000 0.286000 0.310000 1600 45 1.100000 2.005000 2.279000 600 51 1.000000 0.052000 0.052000 1.200000 0.095000 0.115000
1559792631495439915	1000 53 1.000000 0.285000 0.309000 1600 45 1.100000 2.018000 2.292000 600 51 1.000000 0.052000 0.052000 1.200000 0.097000 0.117000
1559792632002298206	1000 53 1.000000 0.285000 0.309000 1600 45 1.100000 1.997000 2.270000 600 51 1.000000 0.053000 0.053000 1.200000 0.095000 0.115000
1559792632507908123	1000 51 1.000000 0.285000 0.309000 1600 45 1.100000 1.993000 2.264000 600 51 1.000000 0.052000 0.052000 1.200000 0.094000 0.113000
1559792633013182665	1000 43 1.100000 0.051000 0.056000 1600 42 1.100000 0.224000 0.254000 600 47 1.000000 0.053000 0.053000 1.200000 0.028000 0.033000
1559792633518366665	1000 41 1.100000 0.048000 0.052000 1600 40 1.100000 0.214000 0.243000 600 45 1.000000 0.052000 0.052000 1.200000 0.022000 0.026000
