#Timestamp	CPU(0) Frequency(MHz)	CPU(0) Temperature(C)	A7 Voltage(V)	A7 Current(A)	A7 Power(W)	CPU(4) Frequency(MHz)	CPU(4) Temperature(C)	A15 Voltage(V)	A15 Current(A)	A15 Power(W)	GPU Frequency(MHz)	GPU Temperature(C)	GPU Voltage(V)	GPU Current(A)	GPU Power(W)	RAM Voltage(V)	RAM Current(A)	RAM Power(W)
1517161659480371782	1200 44 1.100000 0.062000 0.072000 1100 41 0.900000 0.538000 0.533000 600 46 1.000000 0.052000 0.052000 1.200000 0.036000 0.043000
1517161659987664532	1200 45 1.100000 0.061000 0.071000 1100 41 0.900000 0.613000 0.607000 600 46 1.000000 0.052000 0.052000 1.200000 0.029000 0.035000
1517161660494926365	1200 45 1.100000 0.062000 0.072000 1100 41 0.900000 0.610000 0.605000 600 46 1.000000 0.052000 0.052000 1.200000 0.030000 0.036000
1517161661001881865	1200 45 1.100000 0.074000 0.086000 1100 41 0.900000 0.869000 0.862000 600 46 1.000000 0.052000 0.052000 1.200000 0.043000 0.052000
1517161661509445240	1200 45 1.100000 0.065000 0.076000 1100 41 0.900000 0.628000 0.622000 600 45 1.000000 0.052000 0.052000 1.200000 0.032000 0.038000
1517161662016753115	1200 45 1.100000 0.061000 0.071000 1100 41 0.900000 0.629000 0.623000 600 45 1.000000 0.052000 0.052000 1.200000 0.032000 0.038000
1517161662524086491	1200 45 1.100000 0.063000 0.074000 1100 41 0.900000 0.851000 0.845000 600 46 1.000000 0.052000 0.052000 1.200000 0.033000 0.039000
1517161663032037782	1200 45 1.100000 0.063000 0.074000 1100 41 0.900000 1.107000 1.099000 600 47 1.000000 0.052000 0.052000 1.200000 0.036000 0.043000
1517161663539609157	1200 45 1.100000 0.077000 0.090000 1100 41 0.900000 1.038000 1.030000 600 47 1.000000 0.052000 0.052000 1.200000 0.029000 0.035000
1517161664046921116	1200 45 1.100000 0.063000 0.074000 1100 41 0.900000 1.035000 1.027000 600 47 1.000000 0.052000 0.052000 1.200000 0.026000 0.031000
1517161664554386449	1200 45 1.100000 0.064000 0.075000 1100 42 0.900000 1.049000 1.041000 600 47 1.000000 0.052000 0.052000 1.200000 0.024000 0.028000
1517161665061601324	1200 45 1.100000 0.062000 0.072000 1100 42 0.900000 1.056000 1.048000 600 47 1.000000 0.052000 0.052000 1.200000 0.030000 0.036000
1517161665568923908	1200 45 1.100000 0.076000 0.089000 1100 42 0.900000 1.181000 1.175000 600 47 1.000000 0.052000 0.052000 1.200000 0.039000 0.047000
1517161666076872116	1200 45 1.100000 0.063000 0.074000 1100 42 0.900000 1.047000 1.039000 600 47 1.000000 0.052000 0.052000 1.200000 0.024000 0.028000
1517161666584594616	1200 45 1.100000 0.063000 0.074000 1100 42 0.900000 1.063000 1.055000 600 47 1.000000 0.052000 0.052000 1.200000 0.033000 0.039000
1517161667092350199	1200 45 1.100000 0.064000 0.075000 1100 42 0.900000 1.043000 1.035000 600 47 1.000000 0.052000 0.052000 1.200000 0.029000 0.035000
1517161667599783824	1200 45 1.100000 0.073000 0.085000 1100 42 0.900000 1.179000 1.173000 600 47 1.000000 0.052000 0.052000 1.200000 0.038000 0.045000
1517161668107982866	1200 46 1.100000 0.063000 0.074000 1100 42 0.900000 1.057000 1.049000 600 47 1.000000 0.052000 0.052000 1.200000 0.031000 0.037000
1517161668615192825	1200 45 1.100000 0.066000 0.077000 1100 42 0.900000 1.056000 1.048000 600 47 1.000000 0.052000 0.052000 1.200000 0.031000 0.037000
1517161669122151616	1200 46 1.100000 0.063000 0.074000 1100 42 0.900000 1.043000 1.035000 600 47 1.000000 0.052000 0.052000 1.200000 0.026000 0.031000
1517161669630400866	1200 45 1.100000 0.065000 0.076000 1100 42 0.900000 1.096000 1.088000 600 47 1.000000 0.052000 0.052000 1.200000 0.028000 0.033000
1517161670137764450	1200 45 1.100000 0.066000 0.077000 1100 42 0.900000 1.073000 1.067000 600 47 1.000000 0.052000 0.052000 1.200000 0.033000 0.039000
1517161670645083200	1200 45 1.100000 0.063000 0.074000 1100 42 0.900000 1.052000 1.044000 600 47 1.000000 0.052000 0.052000 1.200000 0.030000 0.036000
1517161671152624325	1200 46 1.100000 0.063000 0.074000 1100 42 0.900000 1.048000 1.040000 600 47 1.000000 0.052000 0.052000 1.200000 0.028000 0.033000
1517161671659541700	1200 46 1.100000 0.066000 0.077000 1100 42 0.900000 1.045000 1.039000 600 47 1.000000 0.052000 0.052000 1.200000 0.026000 0.031000
1517161672166929950	1200 46 1.100000 0.063000 0.074000 1100 42 0.900000 1.098000 1.090000 600 47 1.000000 0.052000 0.052000 1.200000 0.028000 0.033000
1517161672674286950	1200 46 1.100000 0.064000 0.075000 1100 42 0.900000 1.051000 1.043000 600 47 1.000000 0.052000 0.052000 1.200000 0.031000 0.037000
1517161673181481533	1200 46 1.100000 0.063000 0.074000 1100 42 0.900000 1.052000 1.044000 600 47 1.000000 0.052000 0.052000 1.200000 0.029000 0.035000
1517161673688954450	1200 45 1.100000 0.063000 0.074000 1100 42 0.900000 1.036000 1.028000 600 47 1.000000 0.052000 0.052000 1.200000 0.026000 0.031000
1517161674196418575	1200 45 1.100000 0.063000 0.074000 1100 42 0.900000 1.088000 1.080000 600 47 1.000000 0.052000 0.052000 1.200000 0.028000 0.033000
1517161674703743992	1200 45 1.100000 0.063000 0.074000 1100 42 0.900000 1.049000 1.041000 600 47 1.000000 0.052000 0.052000 1.200000 0.032000 0.038000
1517161675210841409	1200 45 1.100000 0.063000 0.074000 1100 42 0.900000 1.047000 1.039000 600 47 1.000000 0.052000 0.052000 1.200000 0.024000 0.028000
1517161675718312409	1200 45 1.100000 0.065000 0.076000 1100 42 0.900000 1.129000 1.121000 600 47 1.000000 0.052000 0.052000 1.200000 0.034000 0.041000
1517161676225659034	1200 46 1.100000 0.066000 0.077000 1100 42 0.900000 1.136000 1.130000 600 47 1.000000 0.052000 0.052000 1.200000 0.036000 0.043000
1517161676732941492	1200 45 1.100000 0.066000 0.077000 1100 42 0.900000 1.065000 1.057000 600 47 1.000000 0.052000 0.052000 1.200000 0.033000 0.039000
1517161677239813284	1200 45 1.100000 0.063000 0.074000 1100 42 0.900000 1.032000 1.024000 600 47 1.000000 0.052000 0.052000 1.200000 0.027000 0.032000
1517161677747204659	1200 45 1.100000 0.064000 0.075000 1100 42 0.900000 1.087000 1.081000 600 47 1.000000 0.052000 0.052000 1.200000 0.027000 0.032000
1517161678254230159	1200 45 1.100000 0.074000 0.086000 1100 42 0.900000 1.133000 1.127000 600 47 1.000000 0.052000 0.052000 1.200000 0.036000 0.043000
1517161678761830909	1200 45 1.100000 0.063000 0.074000 1100 41 0.900000 1.060000 1.052000 600 47 1.000000 0.052000 0.052000 1.200000 0.030000 0.036000
1517161679269030701	1200 45 1.100000 0.063000 0.074000 1100 42 0.900000 1.042000 1.034000 600 47 1.000000 0.052000 0.052000 1.200000 0.032000 0.038000
1517161679776239951	1200 45 1.100000 0.063000 0.074000 1100 42 0.900000 1.035000 1.027000 600 47 1.000000 0.052000 0.052000 1.200000 0.024000 0.028000
1517161680283177159	1200 45 1.100000 0.076000 0.089000 1100 42 0.900000 1.113000 1.105000 600 47 1.000000 0.052000 0.052000 1.200000 0.029000 0.035000
1517161680790440784	1200 45 1.100000 0.063000 0.074000 1100 42 0.900000 1.041000 1.033000 600 47 1.000000 0.052000 0.052000 1.200000 0.030000 0.036000
1517161681297471784	1200 45 1.100000 0.064000 0.075000 1100 42 0.900000 1.054000 1.046000 600 47 1.000000 0.052000 0.052000 1.200000 0.024000 0.028000
1517161681805163909	1200 45 1.100000 0.065000 0.076000 1100 42 0.900000 1.116000 1.108000 600 47 1.000000 0.052000 0.052000 1.200000 0.032000 0.038000
1517161682312230035	1200 45 1.100000 0.064000 0.075000 1100 42 0.900000 1.056000 1.048000 600 47 1.000000 0.052000 0.052000 1.200000 0.028000 0.033000
1517161682819383910	1200 45 1.100000 0.076000 0.089000 1100 41 0.900000 1.132000 1.124000 600 47 1.000000 0.052000 0.052000 1.200000 0.037000 0.044000
1517161683326605368	1200 45 1.100000 0.063000 0.074000 1100 42 0.900000 1.049000 1.041000 600 47 1.000000 0.052000 0.052000 1.200000 0.025000 0.030000
1517161683833738660	1200 45 1.100000 0.066000 0.077000 1100 41 0.900000 1.104000 1.096000 600 47 1.000000 0.052000 0.052000 1.200000 0.030000 0.036000
1517161684341032701	1200 45 1.100000 0.063000 0.074000 1100 41 0.900000 1.068000 1.060000 600 47 1.000000 0.052000 0.052000 1.200000 0.029000 0.035000
1517161684848769535	1200 45 1.100000 0.075000 0.088000 1100 42 0.900000 1.134000 1.126000 600 47 1.000000 0.052000 0.052000 1.200000 0.038000 0.045000
1517161685356404493	1200 45 1.100000 0.064000 0.075000 1100 41 0.900000 1.045000 1.037000 600 47 1.000000 0.052000 0.052000 1.200000 0.029000 0.035000
1517161685863881910	1200 45 1.100000 0.063000 0.074000 1100 42 0.900000 1.037000 1.029000 600 47 1.000000 0.052000 0.052000 1.200000 0.026000 0.031000
1517161686371162243	1200 45 1.100000 0.062000 0.072000 1100 41 0.900000 1.034000 1.026000 600 47 1.000000 0.052000 0.052000 1.200000 0.024000 0.028000
1517161686878483618	1200 45 1.100000 0.066000 0.077000 1100 41 0.900000 1.150000 1.141000 600 47 1.000000 0.052000 0.052000 1.200000 0.038000 0.045000
1517161687385746827	1200 45 1.100000 0.063000 0.074000 1100 41 0.900000 1.038000 1.030000 600 47 1.000000 0.052000 0.052000 1.200000 0.029000 0.035000
1517161687893226119	1200 45 1.100000 0.063000 0.074000 1100 42 0.900000 1.133000 1.125000 600 47 1.000000 0.052000 0.052000 1.200000 0.030000 0.036000
1517161688400698785	1200 45 1.100000 0.063000 0.074000 1100 41 0.900000 1.039000 1.031000 600 47 1.000000 0.052000 0.052000 1.200000 0.031000 0.037000
1517161688908018577	1200 45 1.100000 0.064000 0.075000 1100 41 0.900000 1.099000 1.091000 600 47 1.000000 0.052000 0.052000 1.200000 0.031000 0.037000
1517161689415286660	1200 45 1.100000 0.063000 0.074000 1100 41 0.900000 1.039000 1.031000 600 47 1.000000 0.052000 0.052000 1.200000 0.026000 0.031000
1517161689922572035	1200 45 1.100000 0.065000 0.076000 1100 41 0.900000 1.119000 1.111000 600 47 1.000000 0.052000 0.052000 1.200000 0.030000 0.036000
1517161690429750994	1200 45 1.100000 0.063000 0.074000 1100 41 0.900000 1.049000 1.041000 600 47 1.000000 0.052000 0.052000 1.200000 0.025000 0.030000
1517161690936686077	1200 45 1.100000 0.064000 0.075000 1100 41 0.900000 1.071000 1.063000 600 47 1.000000 0.052000 0.052000 1.200000 0.030000 0.036000
1517161691443954244	1200 45 1.100000 0.063000 0.074000 1100 41 0.900000 1.049000 1.041000 600 47 1.000000 0.052000 0.052000 1.200000 0.029000 0.035000
1517161691951773327	1200 45 1.100000 0.064000 0.075000 1100 41 0.900000 1.099000 1.091000 600 47 1.000000 0.052000 0.052000 1.200000 0.031000 0.037000
1517161692459185827	1200 45 1.100000 0.063000 0.074000 1100 41 0.900000 1.036000 1.028000 600 47 1.000000 0.052000 0.052000 1.200000 0.023000 0.027000
1517161692966586161	1200 45 1.100000 0.066000 0.077000 1100 41 0.900000 1.048000 1.040000 600 47 1.000000 0.052000 0.052000 1.200000 0.023000 0.027000
1517161693473813828	1200 45 1.100000 0.063000 0.074000 1100 41 0.900000 1.043000 1.035000 600 47 1.000000 0.052000 0.052000 1.200000 0.028000 0.033000
1517161693981330619	1200 45 1.100000 0.064000 0.075000 1100 41 0.900000 1.044000 1.036000 600 47 1.000000 0.052000 0.052000 1.200000 0.029000 0.035000
1517161694488814453	1200 45 1.100000 0.064000 0.075000 1100 41 0.900000 1.062000 1.054000 600 47 1.000000 0.052000 0.052000 1.200000 0.025000 0.030000
1517161694996390161	1200 45 1.100000 0.063000 0.074000 1100 41 0.900000 1.048000 1.040000 600 47 1.000000 0.052000 0.052000 1.200000 0.029000 0.035000
1517161695504028619	1200 45 1.100000 0.074000 0.086000 1100 41 0.900000 1.196000 1.190000 600 47 1.000000 0.052000 0.052000 1.200000 0.041000 0.049000
1517161696011478203	1200 45 1.100000 0.064000 0.075000 1100 41 0.900000 1.099000 1.091000 600 46 1.000000 0.052000 0.052000 1.200000 0.034000 0.041000
1517161696518794578	1200 45 1.100000 0.064000 0.075000 1100 41 0.900000 1.044000 1.036000 600 47 1.000000 0.052000 0.052000 1.200000 0.024000 0.028000
1517161697025903536	1200 45 1.100000 0.063000 0.074000 1100 41 0.900000 1.045000 1.037000 600 46 1.000000 0.052000 0.052000 1.200000 0.028000 0.033000
1517161697533017078	1200 45 1.100000 0.078000 0.091000 1100 41 0.900000 1.167000 1.161000 600 47 1.000000 0.052000 0.052000 1.200000 0.040000 0.048000
1517161698040670578	1200 45 1.100000 0.064000 0.075000 1100 41 0.900000 1.115000 1.107000 600 47 1.000000 0.052000 0.052000 1.200000 0.034000 0.041000
1517161698548004578	1200 45 1.100000 0.063000 0.074000 1100 41 0.900000 1.037000 1.029000 600 47 1.000000 0.052000 0.052000 1.200000 0.025000 0.030000
1517161699055866120	1200 45 1.100000 0.063000 0.074000 1100 41 0.900000 1.041000 1.033000 600 46 1.000000 0.051000 0.051000 1.200000 0.024000 0.028000
1517161699563154370	1200 45 1.100000 0.078000 0.091000 1100 41 0.900000 1.187000 1.181000 600 47 1.000000 0.052000 0.052000 1.200000 0.038000 0.045000
1517161700070561912	1200 45 1.100000 0.063000 0.074000 1100 41 0.900000 1.071000 1.063000 600 47 1.000000 0.052000 0.052000 1.200000 0.033000 0.039000
1517161700577868745	1200 45 1.100000 0.064000 0.075000 1100 41 0.900000 1.039000 1.031000 600 47 1.000000 0.052000 0.052000 1.200000 0.028000 0.033000
1517161701085258953	1200 45 1.100000 0.063000 0.074000 1100 41 0.900000 1.067000 1.059000 600 47 1.000000 0.052000 0.052000 1.200000 0.030000 0.036000
1517161701592264620	1200 45 1.100000 0.064000 0.075000 1100 41 0.900000 1.033000 1.025000 600 47 1.000000 0.052000 0.052000 1.200000 0.030000 0.036000
1517161702100447162	1200 45 1.100000 0.073000 0.085000 1100 41 0.900000 1.194000 1.188000 600 47 1.000000 0.052000 0.052000 1.200000 0.035000 0.042000
1517161702608030495	1200 45 1.100000 0.063000 0.074000 1100 41 0.900000 1.056000 1.048000 600 46 1.000000 0.052000 0.052000 1.200000 0.024000 0.028000
1517161703115248287	1200 45 1.100000 0.064000 0.075000 1100 41 0.900000 1.041000 1.033000 600 46 1.000000 0.052000 0.052000 1.200000 0.028000 0.033000
1517161703622875412	1200 45 1.100000 0.063000 0.074000 1100 41 0.900000 1.052000 1.044000 600 47 1.000000 0.052000 0.052000 1.200000 0.028000 0.033000
1517161704129926704	1200 45 1.100000 0.068000 0.079000 1100 41 0.900000 1.189000 1.183000 600 47 1.000000 0.052000 0.052000 1.200000 0.035000 0.042000
1517161704637598454	1200 45 1.100000 0.063000 0.074000 1100 41 0.900000 1.069000 1.061000 600 46 1.000000 0.052000 0.052000 1.200000 0.030000 0.036000
1517161705145037037	1200 45 1.100000 0.063000 0.074000 1100 41 0.900000 1.066000 1.058000 600 46 1.000000 0.052000 0.052000 1.200000 0.031000 0.037000
1517161705652663996	1200 45 1.100000 0.063000 0.074000 1100 41 0.900000 1.070000 1.062000 600 46 1.000000 0.052000 0.052000 1.200000 0.029000 0.035000
1517161706160079162	1200 45 1.100000 0.064000 0.075000 1100 41 0.900000 1.210000 1.203000 600 47 1.000000 0.052000 0.052000 1.200000 0.036000 0.043000
1517161706667281121	1200 45 1.100000 0.063000 0.074000 1100 41 0.900000 1.082000 1.076000 600 47 1.000000 0.052000 0.052000 1.200000 0.026000 0.031000
1517161707174583579	1200 45 1.100000 0.064000 0.075000 1100 41 0.900000 1.077000 1.069000 600 47 1.000000 0.052000 0.052000 1.200000 0.031000 0.037000
1517161707682500788	1200 45 1.100000 0.063000 0.074000 1100 41 0.900000 1.086000 1.078000 600 47 1.000000 0.052000 0.052000 1.200000 0.024000 0.028000
1517161708189813288	1200 45 1.100000 0.064000 0.075000 1100 41 0.900000 1.082000 1.076000 600 47 1.000000 0.052000 0.052000 1.200000 0.028000 0.033000
1517161708697166121	1200 45 1.100000 0.065000 0.076000 1100 41 0.900000 1.105000 1.097000 600 47 1.000000 0.052000 0.052000 1.200000 0.034000 0.041000
1517161709204417163	1200 45 1.100000 0.063000 0.074000 1100 41 0.900000 1.074000 1.066000 600 47 1.000000 0.052000 0.052000 1.200000 0.030000 0.036000
1517161709711799579	1200 45 1.100000 0.063000 0.074000 1100 41 0.900000 1.068000 1.060000 600 46 1.000000 0.052000 0.052000 1.200000 0.027000 0.032000
1517161710218759705	1200 45 1.100000 0.066000 0.077000 1100 41 0.900000 1.078000 1.070000 600 47 1.000000 0.052000 0.052000 1.200000 0.024000 0.028000
1517161710726010788	1200 45 1.100000 0.063000 0.074000 1100 41 0.900000 1.070000 1.062000 600 47 1.000000 0.052000 0.052000 1.200000 0.030000 0.036000
1517161711233440830	1200 45 1.100000 0.063000 0.074000 1100 41 0.900000 1.069000 1.061000 600 47 1.000000 0.052000 0.052000 1.200000 0.030000 0.036000
1517161711740819288	1200 45 1.100000 0.063000 0.074000 1100 41 0.900000 1.072000 1.064000 600 46 1.000000 0.052000 0.052000 1.200000 0.032000 0.038000
1517161712247744288	1200 45 1.100000 0.088000 0.103000 1100 41 0.900000 1.068000 1.060000 600 47 1.000000 0.051000 0.051000 1.200000 0.025000 0.030000
1517161712755063330	1200 45 1.100000 0.071000 0.083000 1100 41 0.900000 1.089000 1.081000 600 47 1.000000 0.052000 0.052000 1.200000 0.025000 0.030000
1517161713262377913	1200 45 1.100000 0.064000 0.075000 1100 41 0.900000 1.071000 1.063000 600 47 1.000000 0.051000 0.051000 1.200000 0.031000 0.037000
1517161713769547580	1200 45 1.100000 0.063000 0.074000 1100 41 0.900000 1.056000 1.048000 600 47 1.000000 0.052000 0.052000 1.200000 0.029000 0.035000
1517161714277982497	1200 45 1.100000 0.063000 0.074000 1100 41 0.900000 1.066000 1.058000 600 47 1.000000 0.052000 0.052000 1.200000 0.029000 0.035000
1517161714785734788	1200 45 1.100000 0.078000 0.091000 1100 41 0.900000 1.281000 1.274000 600 47 1.000000 0.052000 0.052000 1.200000 0.045000 0.054000
1517161715293113705	1200 45 1.100000 0.063000 0.074000 1100 41 0.900000 1.066000 1.058000 600 47 1.000000 0.052000 0.052000 1.200000 0.032000 0.038000
1517161715800359497	1200 45 1.100000 0.064000 0.075000 1100 41 0.900000 1.072000 1.066000 600 46 1.000000 0.052000 0.052000 1.200000 0.026000 0.031000
1517161716307427205	1200 45 1.100000 0.063000 0.074000 1100 41 0.900000 1.073000 1.065000 600 47 1.000000 0.052000 0.052000 1.200000 0.025000 0.030000
1517161716814572622	1200 45 1.100000 0.078000 0.091000 1100 41 0.900000 1.209000 1.202000 600 47 1.000000 0.052000 0.052000 1.200000 0.042000 0.050000
1517161717322818497	1200 45 1.100000 0.063000 0.074000 1100 41 0.900000 1.083000 1.075000 600 47 1.000000 0.052000 0.052000 1.200000 0.030000 0.036000
1517161717830220789	1200 45 1.100000 0.063000 0.074000 1100 41 0.900000 1.058000 1.050000 600 47 1.000000 0.052000 0.052000 1.200000 0.032000 0.038000
1517161718337095164	1200 45 1.100000 0.063000 0.074000 1100 41 0.900000 1.080000 1.072000 600 47 1.000000 0.052000 0.052000 1.200000 0.025000 0.030000
1517161718844310664	1200 45 1.100000 0.077000 0.090000 1100 41 0.900000 1.208000 1.201000 600 47 1.000000 0.052000 0.052000 1.200000 0.034000 0.041000
1517161719351786747	1200 45 1.100000 0.063000 0.074000 1100 41 0.900000 1.069000 1.061000 600 47 1.000000 0.052000 0.052000 1.200000 0.030000 0.036000
1517161719859228206	1200 45 1.100000 0.064000 0.075000 1100 41 0.900000 1.062000 1.054000 600 47 1.000000 0.052000 0.052000 1.200000 0.030000 0.036000
1517161720366845247	1200 45 1.100000 0.064000 0.075000 1100 41 0.900000 1.052000 1.044000 600 47 1.000000 0.052000 0.052000 1.200000 0.028000 0.033000
1517161720874373914	1200 45 1.100000 0.064000 0.075000 1100 41 0.900000 1.133000 1.127000 600 47 1.000000 0.052000 0.052000 1.200000 0.035000 0.042000
1517161721381707956	1200 45 1.100000 0.069000 0.081000 1100 41 0.900000 1.074000 1.066000 600 46 1.000000 0.052000 0.052000 1.200000 0.033000 0.039000
1517161721889051831	1200 45 1.100000 0.064000 0.075000 1100 41 0.900000 1.071000 1.063000 600 47 1.000000 0.052000 0.052000 1.200000 0.025000 0.030000
1517161722396006289	1200 45 1.100000 0.063000 0.074000 1100 41 0.900000 1.074000 1.066000 600 47 1.000000 0.052000 0.052000 1.200000 0.026000 0.031000
1517161722902880623	1200 45 1.100000 0.064000 0.075000 1100 41 0.900000 1.157000 1.151000 600 47 1.000000 0.052000 0.052000 1.200000 0.034000 0.041000
1517161723410373081	1200 45 1.100000 0.063000 0.074000 1100 41 0.900000 1.057000 1.049000 600 47 1.000000 0.052000 0.052000 1.200000 0.034000 0.041000
1517161723917750664	1200 45 1.100000 0.063000 0.074000 1100 41 0.900000 1.080000 1.072000 600 46 1.000000 0.052000 0.052000 1.200000 0.029000 0.035000
1517161724425073373	1200 45 1.100000 0.063000 0.074000 1100 41 0.900000 1.057000 1.049000 600 47 1.000000 0.052000 0.052000 1.200000 0.026000 0.031000
1517161724932284623	1200 45 1.100000 0.063000 0.074000 1100 41 0.900000 1.068000 1.062000 600 47 1.000000 0.052000 0.052000 1.200000 0.025000 0.030000
1517161725439516623	1200 45 1.100000 0.078000 0.091000 1100 41 0.900000 1.074000 1.066000 600 47 1.000000 0.052000 0.052000 1.200000 0.033000 0.039000
1517161725946840165	1200 45 1.100000 0.063000 0.074000 1100 41 0.900000 1.060000 1.052000 600 46 1.000000 0.052000 0.052000 1.200000 0.030000 0.036000
1517161726454326040	1200 45 1.100000 0.063000 0.074000 1100 41 0.900000 1.054000 1.046000 600 47 1.000000 0.052000 0.052000 1.200000 0.030000 0.036000
1517161726961904457	1200 45 1.100000 0.076000 0.089000 1100 41 0.900000 1.048000 1.040000 600 47 1.000000 0.052000 0.052000 1.200000 0.024000 0.028000
1517161727469489623	1200 45 1.100000 0.063000 0.074000 1100 41 0.900000 1.192000 1.186000 600 47 1.000000 0.052000 0.052000 1.200000 0.036000 0.043000
1517161727976885457	1200 45 1.100000 0.063000 0.074000 1100 41 0.900000 1.064000 1.056000 600 46 1.000000 0.051000 0.051000 1.200000 0.030000 0.036000
1517161728484644040	1200 45 1.100000 0.063000 0.074000 1100 41 0.900000 1.074000 1.066000 600 46 1.000000 0.052000 0.052000 1.200000 0.025000 0.030000
1517161728992025165	1200 45 1.100000 0.066000 0.077000 1100 41 0.900000 1.126000 1.120000 600 47 1.000000 0.052000 0.052000 1.200000 0.032000 0.038000
1517161729499094498	1200 45 1.100000 0.071000 0.083000 1100 41 0.900000 1.178000 1.172000 600 47 1.000000 0.052000 0.052000 1.200000 0.037000 0.044000
1517161730007248749	1200 45 1.100000 0.063000 0.074000 1100 41 0.900000 1.049000 1.041000 600 46 1.000000 0.052000 0.052000 1.200000 0.030000 0.036000
1517161730514697540	1200 45 1.100000 0.063000 0.074000 1100 41 0.900000 1.057000 1.049000 600 46 1.000000 0.052000 0.052000 1.200000 0.025000 0.030000
1517161731021959624	1200 45 1.100000 0.064000 0.075000 1100 41 0.900000 1.098000 1.090000 600 47 1.000000 0.052000 0.052000 1.200000 0.029000 0.035000
1517161731529090415	1200 45 1.100000 0.076000 0.089000 1100 41 0.900000 1.160000 1.151000 600 47 1.000000 0.052000 0.052000 1.200000 0.033000 0.039000
1517161732036439582	1200 45 1.100000 0.064000 0.075000 1100 41 0.900000 1.053000 1.045000 600 47 1.000000 0.052000 0.052000 1.200000 0.030000 0.036000
1517161732543704582	1200 45 1.100000 0.063000 0.074000 1100 41 0.900000 1.049000 1.041000 600 47 1.000000 0.052000 0.052000 1.200000 0.029000 0.035000
1517161733050887582	1200 45 1.100000 0.063000 0.074000 1100 41 0.900000 1.055000 1.047000 600 46 1.000000 0.052000 0.052000 1.200000 0.025000 0.030000
1517161733557832082	1200 45 1.100000 0.064000 0.075000 1100 41 0.900000 1.147000 1.141000 600 47 1.000000 0.052000 0.052000 1.200000 0.028000 0.033000
1517161734065390374	1200 45 1.100000 0.077000 0.090000 1100 41 0.900000 1.124000 1.118000 600 46 1.000000 0.052000 0.052000 1.200000 0.038000 0.045000
1517161734572835666	1200 45 1.100000 0.064000 0.075000 1100 41 0.900000 1.038000 1.030000 600 46 1.000000 0.052000 0.052000 1.200000 0.025000 0.030000
1517161735080347499	1200 45 1.100000 0.064000 0.075000 1100 41 0.900000 1.140000 1.134000 600 47 1.000000 0.052000 0.052000 1.200000 0.030000 0.036000
1517161735588086249	1200 45 1.100000 0.063000 0.074000 1100 41 0.900000 1.060000 1.052000 600 47 1.000000 0.052000 0.052000 1.200000 0.030000 0.036000
1517161736095376166	1200 45 1.100000 0.077000 0.090000 1100 41 0.900000 1.120000 1.114000 600 47 1.000000 0.052000 0.052000 1.200000 0.037000 0.044000
1517161736603094958	1200 45 1.100000 0.063000 0.074000 1100 41 0.900000 1.047000 1.039000 600 46 1.000000 0.052000 0.052000 1.200000 0.029000 0.035000
1517161737110567041	1200 45 1.100000 0.065000 0.076000 1100 41 0.900000 1.126000 1.118000 600 47 1.000000 0.051000 0.051000 1.200000 0.029000 0.035000
1517161737617831958	1200 45 1.100000 0.063000 0.074000 1100 41 0.900000 1.064000 1.056000 600 46 1.000000 0.052000 0.052000 1.200000 0.024000 0.028000
1517161738125162291	1200 45 1.100000 0.070000 0.082000 1100 41 0.900000 1.133000 1.127000 600 46 1.000000 0.052000 0.052000 1.200000 0.038000 0.045000
1517161738632379583	1200 45 1.100000 0.063000 0.074000 1100 41 0.900000 1.070000 1.062000 600 46 1.000000 0.052000 0.052000 1.200000 0.029000 0.035000
1517161739139491041	1200 45 1.100000 0.064000 0.075000 1100 41 0.900000 1.119000 1.111000 600 46 1.000000 0.052000 0.052000 1.200000 0.031000 0.037000
1517161739646986625	1200 45 1.100000 0.063000 0.074000 1100 41 0.900000 1.076000 1.068000 600 46 1.000000 0.052000 0.052000 1.200000 0.024000 0.028000
1517161740154415250	1200 45 1.100000 0.077000 0.090000 1100 41 0.900000 1.117000 1.109000 600 47 1.000000 0.052000 0.052000 1.200000 0.036000 0.043000
1517161740661846250	1200 45 1.100000 0.064000 0.075000 1100 41 0.900000 1.153000 1.144000 600 47 1.000000 0.052000 0.052000 1.200000 0.027000 0.032000
1517161741169248000	1200 45 1.100000 0.063000 0.074000 1100 41 0.900000 1.065000 1.057000 600 46 1.000000 0.052000 0.052000 1.200000 0.031000 0.037000
1517161741676611958	1200 45 1.100000 0.063000 0.074000 1100 41 0.900000 1.063000 1.055000 600 46 1.000000 0.052000 0.052000 1.200000 0.028000 0.033000
1517161742183655000	1200 45 1.100000 0.063000 0.074000 1100 41 0.900000 1.054000 1.046000 600 47 1.000000 0.052000 0.052000 1.200000 0.031000 0.037000
1517161742690918083	1200 45 1.100000 0.063000 0.074000 1100 41 0.900000 1.146000 1.140000 600 46 1.000000 0.052000 0.052000 1.200000 0.029000 0.035000
1517161743198245333	1200 45 1.100000 0.065000 0.076000 1100 41 0.900000 1.066000 1.058000 600 46 1.000000 0.052000 0.052000 1.200000 0.030000 0.036000
1517161743705548709	1200 45 1.100000 0.063000 0.074000 1100 41 0.900000 1.050000 1.042000 600 46 1.000000 0.052000 0.052000 1.200000 0.024000 0.028000
1517161744213300292	1200 45 1.100000 0.063000 0.074000 1100 41 0.900000 1.069000 1.061000 600 47 1.000000 0.052000 0.052000 1.200000 0.031000 0.037000
1517161744720758000	1200 45 1.100000 0.078000 0.091000 1100 41 0.900000 1.152000 1.146000 600 46 1.000000 0.052000 0.052000 1.200000 0.036000 0.043000
1517161745227987875	1200 45 1.100000 0.063000 0.074000 1100 41 0.900000 1.080000 1.072000 600 47 1.000000 0.052000 0.052000 1.200000 0.024000 0.028000
1517161745735268584	1200 45 1.100000 0.063000 0.074000 1100 41 0.900000 1.051000 1.043000 600 46 1.000000 0.051000 0.051000 1.200000 0.030000 0.036000
1517161746243296584	1200 45 1.100000 0.063000 0.074000 1100 41 0.900000 1.061000 1.055000 600 47 1.000000 0.052000 0.052000 1.200000 0.030000 0.036000
1517161746750857251	1200 45 1.100000 0.070000 0.082000 1100 41 0.900000 1.169000 1.163000 600 46 1.000000 0.052000 0.052000 1.200000 0.041000 0.049000
1517161747258098834	1200 45 1.100000 0.065000 0.076000 1100 41 0.900000 1.057000 1.049000 600 46 1.000000 0.052000 0.052000 1.200000 0.028000 0.033000
1517161747765572917	1200 45 1.100000 0.063000 0.074000 1100 41 0.900000 1.067000 1.059000 600 46 1.000000 0.052000 0.052000 1.200000 0.033000 0.039000
1517161748272910667	1200 45 1.100000 0.063000 0.074000 1100 41 0.900000 1.041000 1.033000 600 46 1.000000 0.052000 0.052000 1.200000 0.029000 0.035000
1517161748779968917	1200 45 1.100000 0.076000 0.089000 1100 41 0.900000 1.081000 1.073000 600 47 1.000000 0.052000 0.052000 1.200000 0.024000 0.028000
1517161749287886501	1200 45 1.100000 0.065000 0.076000 1100 41 0.900000 1.055000 1.047000 600 46 1.000000 0.052000 0.052000 1.200000 0.029000 0.035000
1517161749795780126	1200 45 1.100000 0.063000 0.074000 1100 41 0.900000 1.060000 1.052000 600 46 1.000000 0.052000 0.052000 1.200000 0.029000 0.035000
1517161750303060126	1200 45 1.100000 0.063000 0.074000 1100 41 0.900000 1.063000 1.055000 600 46 1.000000 0.052000 0.052000 1.200000 0.032000 0.038000
1517161750810219376	1200 45 1.100000 0.063000 0.074000 1100 41 0.900000 1.061000 1.053000 600 47 1.000000 0.052000 0.052000 1.200000 0.025000 0.030000
1517161751317184334	1200 45 1.100000 0.064000 0.075000 1100 41 0.900000 1.050000 1.042000 600 46 1.000000 0.052000 0.052000 1.200000 0.025000 0.030000
1517161751824355876	1200 45 1.100000 0.063000 0.074000 1100 41 0.900000 1.056000 1.048000 600 46 1.000000 0.052000 0.052000 1.200000 0.029000 0.035000
1517161752331835418	1200 45 1.100000 0.063000 0.074000 1100 41 0.900000 1.049000 1.041000 600 46 1.000000 0.052000 0.052000 1.200000 0.029000 0.035000
1517161752839781626	1200 45 1.100000 0.063000 0.074000 1100 41 0.900000 1.035000 1.027000 600 47 1.000000 0.052000 0.052000 1.200000 0.032000 0.038000
1517161753347093876	1200 45 1.100000 0.065000 0.076000 1100 41 0.900000 1.065000 1.057000 600 47 1.000000 0.052000 0.052000 1.200000 0.025000 0.030000
1517161753854449418	1200 45 1.100000 0.064000 0.075000 1100 41 0.900000 1.094000 1.086000 600 46 1.000000 0.051000 0.051000 1.200000 0.037000 0.044000
1517161754361544668	1200 45 1.100000 0.063000 0.074000 1100 41 0.900000 1.064000 1.056000 600 46 1.000000 0.052000 0.052000 1.200000 0.029000 0.035000
1517161754868941877	1200 45 1.100000 0.063000 0.074000 1100 41 0.900000 1.054000 1.046000 600 47 1.000000 0.052000 0.052000 1.200000 0.026000 0.031000
1517161755376033002	1200 45 1.100000 0.072000 0.084000 1100 41 0.900000 1.204000 1.197000 600 47 1.000000 0.052000 0.052000 1.200000 0.036000 0.043000
1517161755884236043	1200 45 1.100000 0.063000 0.074000 1100 41 0.900000 1.059000 1.051000 600 46 1.000000 0.052000 0.052000 1.200000 0.030000 0.036000
1517161756391530502	1200 45 1.100000 0.063000 0.074000 1100 41 0.900000 1.058000 1.050000 600 46 1.000000 0.052000 0.052000 1.200000 0.030000 0.036000
1517161756898806168	1200 45 1.100000 0.063000 0.074000 1100 41 0.900000 1.060000 1.052000 600 46 1.000000 0.052000 0.052000 1.200000 0.028000 0.033000
1517161757405750502	1200 45 1.100000 0.076000 0.089000 1100 41 0.900000 1.191000 1.182000 600 46 1.000000 0.052000 0.052000 1.200000 0.036000 0.043000
1517161757913059585	1200 45 1.100000 0.063000 0.074000 1100 41 0.900000 1.053000 1.045000 600 46 1.000000 0.052000 0.052000 1.200000 0.026000 0.031000
1517161758420398252	1200 45 1.100000 0.064000 0.075000 1100 41 0.900000 1.050000 1.042000 600 46 1.000000 0.052000 0.052000 1.200000 0.031000 0.037000
1517161758927890669	1200 45 1.100000 0.063000 0.074000 1100 41 0.900000 1.051000 1.043000 600 46 1.000000 0.051000 0.051000 1.200000 0.029000 0.035000
1517161759435946127	1200 45 1.100000 0.076000 0.089000 1100 41 0.900000 1.178000 1.172000 600 47 1.000000 0.052000 0.052000 1.200000 0.037000 0.044000
1517161759943212044	1200 45 1.100000 0.063000 0.074000 1100 41 0.900000 1.035000 1.027000 600 46 1.000000 0.052000 0.052000 1.200000 0.024000 0.028000
1517161760450526252	1200 45 1.100000 0.063000 0.074000 1100 41 0.900000 1.053000 1.045000 600 46 1.000000 0.052000 0.052000 1.200000 0.029000 0.035000
1517161760957829377	1200 45 1.100000 0.064000 0.075000 1100 41 0.900000 1.046000 1.038000 600 46 1.000000 0.052000 0.052000 1.200000 0.027000 0.032000
1517161761464897002	1200 45 1.100000 0.063000 0.074000 1100 41 0.900000 1.072000 1.064000 600 47 1.000000 0.052000 0.052000 1.200000 0.024000 0.028000
1517161761972699377	1200 45 1.100000 0.064000 0.075000 1100 41 0.900000 1.073000 1.065000 600 46 1.000000 0.052000 0.052000 1.200000 0.035000 0.042000
1517161762480904961	1200 45 1.100000 0.064000 0.075000 1100 41 0.900000 1.056000 1.048000 600 46 1.000000 0.052000 0.052000 1.200000 0.030000 0.036000
1517161762988450169	1200 45 1.100000 0.063000 0.074000 1100 41 0.900000 1.041000 1.033000 600 46 1.000000 0.052000 0.052000 1.200000 0.031000 0.037000
1517161763495385336	1200 45 1.100000 0.063000 0.074000 1100 41 0.900000 1.051000 1.043000 600 47 1.000000 0.052000 0.052000 1.200000 0.026000 0.031000
1517161764002682753	1200 45 1.100000 0.082000 0.096000 1100 41 0.900000 1.051000 1.043000 600 46 1.000000 0.052000 0.052000 1.200000 0.025000 0.030000
1517161764509934044	1200 45 1.100000 0.062000 0.072000 1100 41 0.900000 1.047000 1.039000 600 46 1.000000 0.052000 0.052000 1.200000 0.028000 0.033000
1517161765017132544	1200 45 1.100000 0.063000 0.074000 1100 41 0.900000 1.049000 1.041000 600 46 1.000000 0.052000 0.052000 1.200000 0.028000 0.033000
1517161765525763961	1200 45 1.100000 0.063000 0.074000 1100 41 0.900000 1.041000 1.033000 600 48 1.000000 0.052000 0.052000 1.200000 0.030000 0.036000
1517161766034008086	1200 45 1.100000 0.065000 0.076000 1100 41 0.900000 1.041000 1.033000 600 46 1.000000 0.052000 0.052000 1.200000 0.025000 0.030000
1517161766541245586	1200 45 1.100000 0.063000 0.074000 1100 41 0.900000 1.054000 1.046000 600 46 1.000000 0.052000 0.052000 1.200000 0.025000 0.030000
1517161767048400920	1200 45 1.100000 0.063000 0.074000 1100 41 0.900000 1.056000 1.048000 600 46 1.000000 0.052000 0.052000 1.200000 0.029000 0.035000
1517161767556445045	1200 45 1.100000 0.063000 0.074000 1100 41 0.900000 1.046000 1.038000 600 46 1.000000 0.052000 0.052000 1.200000 0.025000 0.030000
1517161768063892128	1200 45 1.100000 0.078000 0.091000 1100 41 0.900000 1.280000 1.273000 600 47 1.000000 0.052000 0.052000 1.200000 0.043000 0.052000
1517161768571259670	1200 45 1.100000 0.063000 0.074000 1100 41 0.900000 1.052000 1.044000 600 46 1.000000 0.052000 0.052000 1.200000 0.030000 0.036000
1517161769078522170	1200 45 1.100000 0.063000 0.074000 1100 41 0.900000 1.043000 1.035000 600 46 1.000000 0.052000 0.052000 1.200000 0.031000 0.037000
1517161769585944753	1200 45 1.100000 0.063000 0.074000 1100 41 0.900000 1.032000 1.024000 600 46 1.000000 0.052000 0.052000 1.200000 0.026000 0.031000
1517161770093438087	1200 45 1.100000 0.065000 0.076000 1100 41 0.900000 1.203000 1.196000 600 46 1.000000 0.052000 0.052000 1.200000 0.039000 0.047000
1517161770601030087	1200 45 1.100000 0.063000 0.074000 1100 41 0.900000 1.057000 1.049000 600 46 1.000000 0.051000 0.051000 1.200000 0.029000 0.035000
1517161771108399587	1200 45 1.100000 0.064000 0.075000 1100 41 0.900000 1.045000 1.037000 600 46 1.000000 0.051000 0.051000 1.200000 0.029000 0.035000
1517161771615698045	1200 45 1.100000 0.063000 0.074000 1100 41 0.900000 1.035000 1.027000 600 46 1.000000 0.052000 0.052000 1.200000 0.029000 0.035000
1517161772124233754	1200 45 1.100000 0.068000 0.079000 1100 41 0.900000 1.181000 1.175000 600 46 1.000000 0.052000 0.052000 1.200000 0.035000 0.042000
1517161772631517879	1200 45 1.100000 0.062000 0.072000 1100 41 0.900000 1.056000 1.048000 600 46 1.000000 0.052000 0.052000 1.200000 0.024000 0.028000
1517161773138767337	1200 45 1.100000 0.063000 0.074000 1100 41 0.900000 1.045000 1.037000 600 46 1.000000 0.052000 0.052000 1.200000 0.030000 0.036000
1517161773645936545	1200 45 1.100000 0.063000 0.074000 1100 41 0.900000 1.046000 1.038000 600 46 1.000000 0.052000 0.052000 1.200000 0.029000 0.035000
1517161774152804045	1200 45 1.100000 0.063000 0.074000 1100 41 0.900000 1.133000 1.127000 600 47 1.000000 0.052000 0.052000 1.200000 0.031000 0.037000
1517161774660111546	1200 45 1.100000 0.065000 0.076000 1100 41 0.900000 1.047000 1.039000 600 46 1.000000 0.052000 0.052000 1.200000 0.031000 0.037000
1517161775167707921	1200 45 1.100000 0.063000 0.074000 1100 41 0.900000 1.047000 1.039000 600 46 1.000000 0.052000 0.052000 1.200000 0.031000 0.037000
1517161775675076171	1200 45 1.100000 0.063000 0.074000 1100 41 0.900000 1.051000 1.043000 600 46 1.000000 0.052000 0.052000 1.200000 0.028000 0.033000
1517161776182809254	1200 45 1.100000 0.064000 0.075000 1100 41 0.900000 1.067000 1.059000 600 47 1.000000 0.052000 0.052000 1.200000 0.029000 0.035000
1517161776690263296	1200 45 1.100000 0.077000 0.090000 1100 41 0.900000 1.191000 1.185000 600 46 1.000000 0.052000 0.052000 1.200000 0.030000 0.036000
1517161777197531171	1200 45 1.100000 0.063000 0.074000 1100 41 0.900000 1.052000 1.044000 600 46 1.000000 0.052000 0.052000 1.200000 0.030000 0.036000
1517161777704832754	1200 45 1.100000 0.063000 0.074000 1100 41 0.900000 1.059000 1.051000 600 46 1.000000 0.052000 0.052000 1.200000 0.030000 0.036000
1517161778211948588	1200 45 1.100000 0.064000 0.075000 1100 41 0.900000 1.137000 1.129000 600 46 1.000000 0.052000 0.052000 1.200000 0.028000 0.033000
1517161778719294254	1200 45 1.100000 0.077000 0.090000 1100 41 0.900000 1.196000 1.190000 600 46 1.000000 0.052000 0.052000 1.200000 0.027000 0.032000
1517161779226603838	1200 45 1.100000 0.063000 0.074000 1100 41 0.900000 1.052000 1.044000 600 46 1.000000 0.052000 0.052000 1.200000 0.029000 0.035000
1517161779733760504	1200 45 1.100000 0.062000 0.072000 1100 41 0.900000 1.051000 1.043000 600 46 1.000000 0.052000 0.052000 1.200000 0.028000 0.033000
1517161780241123755	1200 45 1.100000 0.064000 0.075000 1100 41 0.900000 1.122000 1.114000 600 46 1.000000 0.052000 0.052000 1.200000 0.029000 0.035000
1517161780748597171	1200 45 1.100000 0.068000 0.079000 1100 41 0.900000 1.059000 1.051000 600 46 1.000000 0.051000 0.051000 1.200000 0.036000 0.043000
1517161781256074463	1200 45 1.100000 0.064000 0.075000 1100 41 0.900000 1.034000 1.026000 600 46 1.000000 0.052000 0.052000 1.200000 0.031000 0.037000
1517161781763690630	1200 45 1.100000 0.063000 0.074000 1100 41 0.900000 1.064000 1.056000 600 46 1.000000 0.052000 0.052000 1.200000 0.030000 0.036000
1517161782271140921	1200 45 1.100000 0.063000 0.074000 1100 41 0.900000 1.050000 1.042000 600 46 1.000000 0.052000 0.052000 1.200000 0.029000 0.035000
1517161782778258880	1200 45 1.100000 0.063000 0.074000 1100 41 0.900000 1.061000 1.053000 600 46 1.000000 0.052000 0.052000 1.200000 0.030000 0.036000
1517161783285543255	1200 45 1.100000 0.065000 0.076000 1100 41 0.900000 1.059000 1.051000 600 46 1.000000 0.052000 0.052000 1.200000 0.029000 0.035000
1517161783792919005	1200 45 1.100000 0.063000 0.074000 1100 41 0.900000 1.054000 1.046000 600 46 1.000000 0.052000 0.052000 1.200000 0.024000 0.028000
1517161784299965963	1200 45 1.100000 0.064000 0.075000 1100 41 0.900000 1.099000 1.093000 600 46 1.000000 0.052000 0.052000 1.200000 0.025000 0.030000
1517161784806925755	1200 45 1.100000 0.063000 0.074000 1100 41 0.900000 1.052000 1.044000 600 47 1.000000 0.052000 0.052000 1.200000 0.030000 0.036000
1517161785314277838	1200 45 1.100000 0.062000 0.072000 1100 41 0.900000 1.079000 1.071000 600 46 1.000000 0.052000 0.052000 1.200000 0.036000 0.043000
1517161785821673214	1200 45 1.100000 0.063000 0.074000 1100 41 0.900000 1.041000 1.033000 600 46 1.000000 0.052000 0.052000 1.200000 0.030000 0.036000
1517161786329018005	1200 45 1.100000 0.063000 0.074000 1100 41 0.900000 1.114000 1.106000 600 46 1.000000 0.052000 0.052000 1.200000 0.029000 0.035000
1517161786836517755	1200 45 1.100000 0.064000 0.075000 1100 41 0.900000 1.047000 1.039000 600 47 1.000000 0.052000 0.052000 1.200000 0.030000 0.036000
1517161787343951005	1200 45 1.100000 0.080000 0.094000 1100 41 0.900000 1.153000 1.147000 600 46 1.000000 0.052000 0.052000 1.200000 0.031000 0.037000
1517161787851852922	1200 45 1.100000 0.063000 0.074000 1100 41 0.900000 1.044000 1.036000 600 46 1.000000 0.052000 0.052000 1.200000 0.026000 0.031000
1517161788359946506	1200 45 1.100000 0.065000 0.076000 1100 41 0.900000 1.062000 1.054000 600 46 1.000000 0.052000 0.052000 1.200000 0.028000 0.033000
1517161788867396797	1200 45 1.100000 0.063000 0.074000 1100 41 0.900000 1.054000 1.046000 600 46 1.000000 0.052000 0.052000 1.200000 0.030000 0.036000
1517161789374809964	1200 45 1.100000 0.067000 0.078000 1100 41 0.900000 1.156000 1.147000 600 46 1.000000 0.052000 0.052000 1.200000 0.034000 0.041000
1517161789882065047	1200 45 1.100000 0.063000 0.074000 1100 41 0.900000 1.052000 1.044000 600 46 1.000000 0.052000 0.052000 1.200000 0.026000 0.031000
1517161790389262631	1200 45 1.100000 0.063000 0.074000 1100 41 0.900000 1.045000 1.037000 600 46 1.000000 0.052000 0.052000 1.200000 0.026000 0.031000
1517161790896444589	1200 45 1.100000 0.063000 0.074000 1100 41 0.900000 1.068000 1.060000 600 46 1.000000 0.052000 0.052000 1.200000 0.028000 0.033000
1517161791403577339	1200 45 1.100000 0.074000 0.086000 1100 41 0.900000 1.144000 1.138000 600 46 1.000000 0.052000 0.052000 1.200000 0.034000 0.041000
1517161791910947839	1200 45 1.100000 0.063000 0.074000 1100 41 0.900000 1.040000 1.032000 600 46 1.000000 0.052000 0.052000 1.200000 0.029000 0.035000
1517161792418398589	1200 45 1.100000 0.063000 0.074000 1100 41 0.900000 1.099000 1.091000 600 46 1.000000 0.052000 0.052000 1.200000 0.027000 0.032000
1517161792925654964	1200 45 1.100000 0.063000 0.074000 1100 41 0.900000 1.042000 1.034000 600 46 1.000000 0.052000 0.052000 1.200000 0.024000 0.028000
1517161793432709839	1200 45 1.100000 0.063000 0.074000 1100 41 0.900000 1.140000 1.134000 600 46 1.000000 0.052000 0.052000 1.200000 0.030000 0.036000
1517161793940011840	1200 45 1.100000 0.063000 0.074000 1100 41 0.900000 1.102000 1.094000 600 46 1.000000 0.052000 0.052000 1.200000 0.034000 0.041000
1517161794447912048	1200 45 1.100000 0.063000 0.074000 1100 41 0.900000 1.062000 1.054000 600 46 1.000000 0.052000 0.052000 1.200000 0.025000 0.030000
1517161794956032381	1200 45 1.100000 0.065000 0.076000 1100 41 0.900000 1.050000 1.042000 600 46 1.000000 0.052000 0.052000 1.200000 0.031000 0.037000
1517161795463587173	1200 45 1.100000 0.063000 0.074000 1100 41 0.900000 1.060000 1.052000 600 47 1.000000 0.052000 0.052000 1.200000 0.030000 0.036000
1517161795970942881	1200 45 1.100000 0.078000 0.091000 1100 41 0.900000 1.102000 1.094000 600 46 1.000000 0.052000 0.052000 1.200000 0.040000 0.048000
1517161796478069298	1200 45 1.100000 0.063000 0.074000 1100 41 0.900000 1.057000 1.049000 600 46 1.000000 0.051000 0.051000 1.200000 0.025000 0.030000
1517161796985305340	1200 45 1.100000 0.063000 0.074000 1100 41 0.900000 1.059000 1.051000 600 46 1.000000 0.052000 0.052000 1.200000 0.025000 0.030000
1517161797492953548	1200 45 1.100000 0.063000 0.074000 1100 41 0.900000 1.047000 1.039000 600 46 1.000000 0.052000 0.052000 1.200000 0.030000 0.036000
1517161798000548132	1200 45 1.100000 0.072000 0.084000 1100 41 0.900000 1.134000 1.126000 600 46 1.000000 0.052000 0.052000 1.200000 0.041000 0.049000
1517161798507920923	1200 45 1.100000 0.063000 0.074000 1100 41 0.900000 1.036000 1.028000 600 46 1.000000 0.052000 0.052000 1.200000 0.028000 0.033000
1517161799015266465	1200 45 1.100000 0.063000 0.074000 1100 41 0.900000 1.043000 1.035000 600 46 1.000000 0.052000 0.052000 1.200000 0.024000 0.028000
1517161799522556549	1200 45 1.100000 0.063000 0.074000 1100 41 0.900000 1.050000 1.042000 600 46 1.000000 0.052000 0.052000 1.200000 0.027000 0.032000
1517161800030504882	1200 45 1.100000 0.074000 0.086000 1100 41 0.900000 1.140000 1.132000 600 47 1.000000 0.052000 0.052000 1.200000 0.039000 0.047000
1517161800537588715	1200 45 1.100000 0.064000 0.075000 1100 41 0.900000 1.050000 1.042000 600 46 1.000000 0.052000 0.052000 1.200000 0.026000 0.031000
1517161801044814132	1200 45 1.100000 0.064000 0.075000 1100 41 0.900000 1.067000 1.059000 600 46 1.000000 0.052000 0.052000 1.200000 0.031000 0.037000
1517161801552282507	1200 44 1.100000 0.063000 0.074000 1100 41 0.900000 1.053000 1.045000 600 46 1.000000 0.052000 0.052000 1.200000 0.029000 0.035000
1517161802059616799	1200 45 1.100000 0.063000 0.074000 1100 41 0.900000 1.088000 1.082000 600 46 1.000000 0.052000 0.052000 1.200000 0.030000 0.036000
1517161802566692799	1200 45 1.100000 0.063000 0.074000 1100 41 0.900000 1.051000 1.043000 600 46 1.000000 0.051000 0.051000 1.200000 0.025000 0.030000
1517161803073883841	1200 45 1.100000 0.063000 0.074000 1100 41 0.900000 1.056000 1.048000 600 46 1.000000 0.052000 0.052000 1.200000 0.026000 0.031000
1517161803581138799	1200 45 1.100000 0.063000 0.074000 1100 41 0.900000 1.047000 1.039000 600 46 1.000000 0.052000 0.052000 1.200000 0.029000 0.035000
1517161804088089216	1200 45 1.100000 0.063000 0.074000 1100 41 0.900000 1.083000 1.075000 600 47 1.000000 0.051000 0.051000 1.200000 0.028000 0.033000
1517161804595605882	1200 45 1.100000 0.063000 0.074000 1100 41 0.900000 1.037000 1.029000 600 47 1.000000 0.051000 0.051000 1.200000 0.031000 0.037000
1517161805103010091	1200 45 1.100000 0.062000 0.072000 1100 41 0.900000 1.050000 1.042000 600 46 1.000000 0.052000 0.052000 1.200000 0.024000 0.028000
1517161805610315674	1200 45 1.100000 0.063000 0.074000 1100 41 0.900000 1.047000 1.039000 600 46 1.000000 0.052000 0.052000 1.200000 0.024000 0.028000
1517161806117741174	1200 45 1.100000 0.066000 0.077000 1100 41 0.900000 1.063000 1.055000 600 47 1.000000 0.052000 0.052000 1.200000 0.029000 0.035000
1517161806624791424	1200 45 1.100000 0.073000 0.085000 1100 41 0.900000 1.087000 1.079000 600 47 1.000000 0.052000 0.052000 1.200000 0.030000 0.036000
1517161807132152924	1200 45 1.100000 0.063000 0.074000 1100 41 0.900000 1.091000 1.083000 600 46 1.000000 0.052000 0.052000 1.200000 0.030000 0.036000
1517161807639677549	1200 45 1.100000 0.064000 0.075000 1100 41 0.900000 1.065000 1.057000 600 46 1.000000 0.052000 0.052000 1.200000 0.030000 0.036000
1517161808147123758	1200 45 1.100000 0.063000 0.074000 1100 41 0.900000 1.054000 1.046000 600 46 1.000000 0.052000 0.052000 1.200000 0.030000 0.036000
1517161808653997425	1200 45 1.100000 0.073000 0.085000 1100 41 0.900000 1.158000 1.152000 600 48 1.000000 0.052000 0.052000 1.200000 0.037000 0.044000
1517161809161424883	1200 45 1.100000 0.063000 0.074000 1100 41 0.900000 1.043000 1.035000 600 46 1.000000 0.051000 0.051000 1.200000 0.026000 0.031000
1517161809668774133	1200 45 1.100000 0.063000 0.074000 1100 41 0.900000 1.049000 1.041000 600 46 1.000000 0.052000 0.052000 1.200000 0.028000 0.033000
1517161810176248466	1200 45 1.100000 0.063000 0.074000 1100 41 0.900000 1.045000 1.037000 600 46 1.000000 0.052000 0.052000 1.200000 0.029000 0.035000
1517161810684317883	1200 45 1.100000 0.077000 0.090000 1100 41 0.900000 1.183000 1.177000 600 47 1.000000 0.051000 0.051000 1.200000 0.039000 0.047000
1517161811191848883	1200 45 1.100000 0.063000 0.074000 1100 41 0.900000 1.042000 1.034000 600 46 1.000000 0.052000 0.052000 1.200000 0.025000 0.030000
1517161811699087258	1200 45 1.100000 0.062000 0.072000 1100 41 0.900000 1.054000 1.046000 600 46 1.000000 0.052000 0.052000 1.200000 0.024000 0.028000
1517161812206457133	1200 45 1.100000 0.063000 0.074000 1100 41 0.900000 1.045000 1.037000 600 46 1.000000 0.052000 0.052000 1.200000 0.029000 0.035000
1517161812713826092	1200 45 1.100000 0.076000 0.089000 1100 41 0.900000 1.051000 1.043000 600 46 1.000000 0.052000 0.052000 1.200000 0.039000 0.047000
1517161813221347758	1200 45 1.100000 0.064000 0.075000 1100 41 0.900000 1.125000 1.119000 600 46 1.000000 0.052000 0.052000 1.200000 0.029000 0.035000
1517161813728604009	1200 45 1.100000 0.063000 0.074000 1100 41 0.900000 1.035000 1.027000 600 46 1.000000 0.052000 0.052000 1.200000 0.030000 0.036000
1517161814236405342	1200 45 1.100000 0.063000 0.074000 1100 41 0.900000 1.047000 1.039000 600 46 1.000000 0.052000 0.052000 1.200000 0.029000 0.035000
1517161814743429217	1200 45 1.100000 0.063000 0.074000 1100 41 0.900000 1.067000 1.059000 600 47 1.000000 0.052000 0.052000 1.200000 0.030000 0.036000
1517161815250823592	1200 45 1.100000 0.074000 0.086000 1100 41 0.900000 1.266000 1.259000 600 46 1.000000 0.052000 0.052000 1.200000 0.029000 0.035000
1517161815758113092	1200 45 1.100000 0.064000 0.075000 1100 41 0.900000 1.062000 1.054000 600 46 1.000000 0.052000 0.052000 1.200000 0.024000 0.028000
1517161816265516509	1200 45 1.100000 0.063000 0.074000 1100 41 0.900000 1.042000 1.034000 600 46 1.000000 0.052000 0.052000 1.200000 0.028000 0.033000
1517161816773111342	1200 45 1.100000 0.063000 0.074000 1100 41 0.900000 1.058000 1.050000 600 47 1.000000 0.052000 0.052000 1.200000 0.030000 0.036000
1517161817280466009	1200 45 1.100000 0.084000 0.098000 1100 41 0.900000 1.217000 1.210000 600 46 1.000000 0.052000 0.052000 1.200000 0.029000 0.035000
1517161817787886426	1200 45 1.100000 0.062000 0.072000 1100 41 0.900000 1.060000 1.052000 600 46 1.000000 0.052000 0.052000 1.200000 0.024000 0.028000
1517161818295157426	1200 45 1.100000 0.062000 0.072000 1100 41 0.900000 1.052000 1.044000 600 46 1.000000 0.052000 0.052000 1.200000 0.027000 0.032000
1517161818802452009	1200 45 1.100000 0.063000 0.074000 1100 41 0.900000 1.053000 1.045000 600 46 1.000000 0.052000 0.052000 1.200000 0.029000 0.035000
1517161819309659009	1200 45 1.100000 0.063000 0.074000 1100 41 0.900000 1.231000 1.224000 600 46 1.000000 0.052000 0.052000 1.200000 0.030000 0.036000
1517161819817131301	1200 45 1.100000 0.063000 0.074000 1100 41 0.900000 1.046000 1.038000 600 46 1.000000 0.052000 0.052000 1.200000 0.025000 0.030000
1517161820324435593	1200 45 1.100000 0.063000 0.074000 1100 41 0.900000 1.058000 1.050000 600 46 1.000000 0.052000 0.052000 1.200000 0.031000 0.037000
1517161820832068551	1200 44 1.100000 0.063000 0.074000 1100 41 0.900000 1.057000 1.051000 600 46 1.000000 0.052000 0.052000 1.200000 0.031000 0.037000
1517161821339461884	1200 45 1.100000 0.063000 0.074000 1100 41 0.900000 1.070000 1.062000 600 46 1.000000 0.052000 0.052000 1.200000 0.039000 0.047000
1517161821846762343	1200 45 1.100000 0.063000 0.074000 1100 41 0.900000 1.044000 1.036000 600 46 1.000000 0.052000 0.052000 1.200000 0.024000 0.028000
1517161822353981885	1200 45 1.100000 0.063000 0.074000 1100 41 0.900000 1.057000 1.049000 600 46 1.000000 0.052000 0.052000 1.200000 0.029000 0.035000
1517161822861347468	1200 45 1.100000 0.063000 0.074000 1100 41 0.900000 1.052000 1.044000 600 46 1.000000 0.052000 0.052000 1.200000 0.026000 0.031000
1517161823368276885	1200 45 1.100000 0.065000 0.076000 1100 41 0.900000 1.136000 1.130000 600 47 1.000000 0.052000 0.052000 1.200000 0.024000 0.028000
1517161823875955551	1200 45 1.100000 0.063000 0.074000 1100 41 0.900000 1.057000 1.049000 600 46 1.000000 0.052000 0.052000 1.200000 0.032000 0.038000
1517161824383244885	1200 45 1.100000 0.063000 0.074000 1100 41 0.900000 1.051000 1.043000 600 46 1.000000 0.052000 0.052000 1.200000 0.029000 0.035000
1517161824890473593	1200 45 1.100000 0.063000 0.074000 1100 41 0.900000 1.054000 1.046000 600 46 1.000000 0.052000 0.052000 1.200000 0.030000 0.036000
1517161825397367593	1200 45 1.100000 0.071000 0.083000 1100 41 0.900000 1.119000 1.113000 600 47 1.000000 0.052000 0.052000 1.200000 0.030000 0.036000
1517161825904642010	1200 45 1.100000 0.069000 0.080000 1100 41 0.900000 1.052000 1.044000 600 46 1.000000 0.052000 0.052000 1.200000 0.029000 0.035000
1517161826412057010	1200 45 1.100000 0.063000 0.074000 1100 41 0.900000 1.046000 1.038000 600 46 1.000000 0.052000 0.052000 1.200000 0.025000 0.030000
1517161826919636468	1200 45 1.100000 0.062000 0.072000 1100 41 0.900000 1.060000 1.052000 600 46 1.000000 0.052000 0.052000 1.200000 0.024000 0.028000
1517161827427274885	1200 45 1.100000 0.063000 0.074000 1100 41 0.900000 1.051000 1.043000 600 47 1.000000 0.052000 0.052000 1.200000 0.029000 0.035000
1517161827934685135	1200 45 1.100000 0.079000 0.092000 1100 41 0.900000 1.203000 1.196000 600 46 1.000000 0.052000 0.052000 1.200000 0.038000 0.045000
1517161828442028635	1200 45 1.100000 0.064000 0.075000 1100 41 0.900000 1.044000 1.036000 600 46 1.000000 0.052000 0.052000 1.200000 0.030000 0.036000
1517161828949301802	1200 45 1.100000 0.063000 0.074000 1100 41 0.900000 1.046000 1.038000 600 46 1.000000 0.052000 0.052000 1.200000 0.025000 0.030000
1517161829456399052	1200 45 1.100000 0.064000 0.075000 1100 41 0.900000 1.069000 1.063000 600 46 1.000000 0.052000 0.052000 1.200000 0.026000 0.031000
1517161829963530177	1200 45 1.100000 0.077000 0.090000 1100 41 0.900000 1.199000 1.193000 600 46 1.000000 0.052000 0.052000 1.200000 0.037000 0.044000
1517161830471214802	1200 45 1.100000 0.063000 0.074000 1100 41 0.900000 1.061000 1.053000 600 46 1.000000 0.052000 0.052000 1.200000 0.030000 0.036000
1517161830978622386	1200 45 1.100000 0.063000 0.074000 1100 41 0.900000 1.037000 1.029000 600 46 1.000000 0.052000 0.052000 1.200000 0.030000 0.036000
1517161831486044344	1200 45 1.100000 0.065000 0.076000 1100 41 0.900000 1.107000 1.101000 600 46 1.000000 0.052000 0.052000 1.200000 0.025000 0.030000
1517161831993208802	1200 45 1.100000 0.076000 0.089000 1100 41 0.900000 1.191000 1.185000 600 46 1.000000 0.052000 0.052000 1.200000 0.032000 0.038000
1517161832500516177	1200 45 1.100000 0.063000 0.074000 1100 41 0.900000 1.045000 1.037000 600 46 1.000000 0.052000 0.052000 1.200000 0.029000 0.035000
1517161833007958761	1200 45 1.100000 0.063000 0.074000 1100 41 0.900000 1.047000 1.039000 600 46 1.000000 0.051000 0.051000 1.200000 0.026000 0.031000
1517161833515713511	1200 45 1.100000 0.063000 0.074000 1100 41 0.900000 1.060000 1.052000 600 46 1.000000 0.052000 0.052000 1.200000 0.025000 0.030000
1517161834022968553	1200 45 1.100000 0.066000 0.077000 1100 41 0.900000 1.055000 1.047000 600 47 1.000000 0.052000 0.052000 1.200000 0.030000 0.036000
1517161834530214678	1200 45 1.100000 0.070000 0.082000 1100 41 0.900000 1.055000 1.047000 600 46 1.000000 0.052000 0.052000 1.200000 0.036000 0.043000
1517161835037369844	1200 45 1.100000 0.063000 0.074000 1100 41 0.900000 1.053000 1.047000 600 46 1.000000 0.051000 0.051000 1.200000 0.030000 0.036000
1517161835544378469	1200 45 1.100000 0.063000 0.074000 1100 41 0.900000 1.053000 1.045000 600 46 1.000000 0.052000 0.052000 1.200000 0.026000 0.031000
1517161836051946636	1200 45 1.100000 0.063000 0.074000 1100 41 0.900000 1.070000 1.062000 600 47 1.000000 0.052000 0.052000 1.200000 0.025000 0.030000
1517161836559790261	1200 45 1.100000 0.063000 0.074000 1100 41 0.900000 1.045000 1.037000 600 46 1.000000 0.052000 0.052000 1.200000 0.037000 0.044000
1517161837066598470	1200 43 1.100000 0.063000 0.074000 1100 41 0.900000 1.042000 1.034000 600 46 1.000000 0.052000 0.052000 1.200000 0.030000 0.036000
1517161837573447095	1200 41 1.100000 0.061000 0.071000 1100 40 1.000000 0.180000 0.180000 600 45 1.000000 0.051000 0.051000 1.200000 0.023000 0.027000
