#Timestamp	CPU(0) Frequency(MHz)	CPU(0) Temperature(C)	A7 Voltage(V)	A7 Current(A)	A7 Power(W)	CPU(4) Frequency(MHz)	CPU(4) Temperature(C)	A15 Voltage(V)	A15 Current(A)	A15 Power(W)	GPU Frequency(MHz)	GPU Temperature(C)	GPU Voltage(V)	GPU Current(A)	GPU Power(W)	RAM Voltage(V)	RAM Current(A)	RAM Power(W)
1553306512229674570	1300 35 1.100000 0.145000 0.163000 800 33 0.900000 0.283000 0.261000 600 37 1.000000 0.051000 0.051000 1.200000 0.038000 0.045000
1553306512737369028	1300 36 1.200000 0.070000 0.085000 800 33 0.900000 0.453000 0.414000 600 37 1.000000 0.050000 0.050000 1.200000 0.045000 0.054000
1553306513245090236	1300 36 1.200000 0.073000 0.089000 800 33 0.900000 0.455000 0.415000 600 39 1.000000 0.051000 0.051000 1.200000 0.033000 0.039000
1553306513753329486	1300 37 1.200000 0.186000 0.226000 800 34 0.900000 1.263000 1.158000 600 41 1.000000 0.051000 0.051000 1.200000 0.032000 0.038000
1553306514261328945	1300 37 1.200000 0.213000 0.259000 800 34 0.900000 1.265000 1.160000 600 41 1.000000 0.051000 0.051000 1.200000 0.032000 0.038000
1553306514769700653	1300 38 1.200000 0.186000 0.226000 800 34 0.900000 1.263000 1.158000 600 42 1.000000 0.051000 0.051000 1.200000 0.034000 0.041000
1553306515278663903	1300 38 1.200000 0.245000 0.297000 800 35 0.900000 1.246000 1.142000 600 42 1.000000 0.051000 0.051000 1.200000 0.042000 0.050000
1553306515786665070	1300 38 1.200000 0.187000 0.228000 800 35 0.900000 1.266000 1.160000 600 42 1.000000 0.051000 0.051000 1.200000 0.031000 0.037000
1553306516294852862	1300 38 1.200000 0.212000 0.258000 800 35 0.900000 1.264000 1.159000 600 42 1.000000 0.051000 0.051000 1.200000 0.031000 0.037000
1553306516802767987	1300 38 1.200000 0.188000 0.229000 800 35 0.900000 1.267000 1.161000 600 43 1.000000 0.051000 0.051000 1.200000 0.031000 0.037000
1553306517310769362	1300 39 1.200000 0.241000 0.292000 800 35 0.900000 1.249000 1.145000 600 43 1.000000 0.051000 0.051000 1.200000 0.037000 0.044000
1553306517818707945	1300 39 1.200000 0.187000 0.228000 800 36 0.900000 1.269000 1.163000 600 43 1.000000 0.051000 0.051000 1.200000 0.032000 0.038000
1553306518326736029	1300 39 1.200000 0.214000 0.260000 800 36 0.900000 1.268000 1.162000 600 43 1.000000 0.051000 0.051000 1.200000 0.035000 0.042000
1553306518834829445	1300 39 1.200000 0.190000 0.231000 800 36 0.900000 1.269000 1.163000 600 43 1.000000 0.051000 0.051000 1.200000 0.033000 0.039000
1553306519342711612	1300 37 1.200000 0.202000 0.246000 800 35 0.900000 1.009000 0.926000 600 41 1.000000 0.051000 0.051000 1.200000 0.032000 0.038000
1553306519850841571	1300 38 1.200000 0.189000 0.230000 800 35 0.900000 0.246000 0.226000 600 39 1.000000 0.051000 0.051000 1.200000 0.027000 0.032000
1553306520358742696	1300 37 1.200000 0.094000 0.114000 800 35 0.900000 0.482000 0.441000 600 39 1.000000 0.051000 0.051000 1.200000 0.032000 0.038000
1553306520866698571	1300 37 1.200000 0.068000 0.083000 800 34 0.900000 0.483000 0.442000 600 39 1.000000 0.051000 0.051000 1.200000 0.026000 0.031000
1553306521374733529	1300 37 1.200000 0.071000 0.086000 800 34 0.900000 0.483000 0.440000 600 39 1.000000 0.051000 0.051000 1.200000 0.028000 0.033000
1553306521882895571	1300 37 1.200000 0.101000 0.123000 800 34 0.900000 0.484000 0.442000 600 38 1.000000 0.051000 0.051000 1.200000 0.047000 0.056000
1553306522390911821	1300 37 1.200000 0.091000 0.111000 800 34 0.900000 0.484000 0.443000 600 38 1.000000 0.051000 0.051000 1.200000 0.026000 0.031000
1553306522898723446	1300 37 1.200000 0.073000 0.089000 800 34 0.900000 0.487000 0.448000 600 38 1.000000 0.051000 0.051000 1.200000 0.027000 0.032000
1553306523409131446	1300 37 1.200000 0.069000 0.084000 800 34 0.900000 0.487000 0.446000 600 38 1.000000 0.051000 0.051000 1.200000 0.026000 0.031000
1553306523917153071	1300 36 1.200000 0.081000 0.099000 800 34 0.900000 0.486000 0.443000 600 38 1.000000 0.051000 0.051000 1.200000 0.047000 0.056000
1553306524424976071	1300 36 1.200000 0.093000 0.113000 800 34 0.900000 0.485000 0.444000 600 38 1.000000 0.051000 0.051000 1.200000 0.032000 0.038000
1553306524932610863	1300 36 1.200000 0.073000 0.089000 800 34 0.900000 0.483000 0.440000 600 38 1.000000 0.050000 0.050000 1.200000 0.026000 0.031000
1553306525440569946	1300 36 1.200000 0.069000 0.084000 800 34 0.900000 0.487000 0.444000 600 38 1.000000 0.051000 0.051000 1.200000 0.027000 0.032000
1553306525948315071	1300 36 1.200000 0.129000 0.157000 800 34 0.900000 0.490000 0.448000 600 38 1.000000 0.051000 0.051000 1.200000 0.046000 0.055000
1553306526456073405	1300 36 1.200000 0.094000 0.114000 800 34 0.900000 0.494000 0.452000 600 38 1.000000 0.051000 0.051000 1.200000 0.033000 0.039000
1553306526963827446	1300 36 1.200000 0.068000 0.083000 800 33 0.900000 0.494000 0.452000 600 38 1.000000 0.051000 0.051000 1.200000 0.026000 0.031000
1553306527471452613	1300 36 1.200000 0.068000 0.083000 800 33 0.900000 0.489000 0.447000 600 38 1.000000 0.051000 0.051000 1.200000 0.025000 0.030000
1553306527979175905	1300 36 1.200000 0.072000 0.088000 800 34 0.900000 0.490000 0.448000 600 38 1.000000 0.051000 0.051000 1.200000 0.027000 0.032000
1553306528486986072	1300 36 1.200000 0.069000 0.084000 800 33 0.900000 0.491000 0.448000 600 38 1.000000 0.051000 0.051000 1.200000 0.028000 0.033000
1553306528995178363	1300 34 1.200000 0.083000 0.101000 800 33 0.900000 0.491000 0.449000 600 37 1.000000 0.051000 0.051000 1.200000 0.028000 0.033000
1553306529503238447	1300 33 1.200000 0.072000 0.088000 800 33 0.900000 0.085000 0.078000 600 37 1.000000 0.050000 0.050000 1.200000 0.032000 0.038000
