#Timestamp	CPU(0) Frequency(MHz)	CPU(0) Temperature(C)	A7 Voltage(V)	A7 Current(A)	A7 Power(W)	CPU(4) Frequency(MHz)	CPU(4) Temperature(C)	A15 Voltage(V)	A15 Current(A)	A15 Power(W)	GPU Frequency(MHz)	GPU Temperature(C)	GPU Voltage(V)	GPU Current(A)	GPU Power(W)	RAM Voltage(V)	RAM Current(A)	RAM Power(W)
1559801067709010879	700 42 0.900000 0.032000 0.029000 1200 39 1.100000 0.284000 0.322000 600 43 1.000000 0.052000 0.052000 1.200000 0.046000 0.055000
1559801068216950920	700 42 0.900000 0.063000 0.062000 1200 38 1.000000 0.869000 0.883000 600 43 1.000000 0.052000 0.052000 1.200000 0.048000 0.057000
1559801068724342337	700 42 0.900000 0.031000 0.030000 1200 38 1.000000 0.757000 0.769000 600 42 1.000000 0.051000 0.051000 1.200000 0.045000 0.054000
1559801069231673171	700 42 0.900000 0.031000 0.030000 1200 38 1.000000 0.732000 0.744000 600 42 1.000000 0.051000 0.051000 1.200000 0.027000 0.032000
1559801069742050796	700 41 0.900000 0.030000 0.029000 1200 37 1.000000 0.717000 0.729000 600 42 1.000000 0.051000 0.051000 1.200000 0.027000 0.032000
1559801070249822462	700 41 0.900000 0.068000 0.067000 1200 37 1.000000 0.824000 0.838000 600 41 1.000000 0.051000 0.051000 1.200000 0.031000 0.037000
1559801070757064254	700 41 0.900000 0.030000 0.029000 1200 37 1.000000 0.720000 0.732000 600 41 1.000000 0.051000 0.051000 1.200000 0.027000 0.032000
1559801071264340046	700 41 0.900000 0.030000 0.029000 1200 36 1.000000 0.721000 0.733000 600 41 1.000000 0.051000 0.051000 1.200000 0.027000 0.032000
1559801071771512713	700 40 0.900000 0.030000 0.029000 1200 36 1.000000 0.721000 0.733000 600 40 1.000000 0.051000 0.051000 1.200000 0.027000 0.032000
1559801072278836921	700 40 0.900000 0.056000 0.055000 1200 36 1.000000 0.802000 0.815000 600 40 1.000000 0.051000 0.051000 1.200000 0.040000 0.048000
1559801072786038546	700 40 0.900000 0.030000 0.029000 1200 36 1.000000 0.729000 0.741000 600 40 1.000000 0.051000 0.051000 1.200000 0.027000 0.032000
1559801073293288004	700 40 0.900000 0.030000 0.029000 1200 36 1.000000 0.711000 0.723000 600 40 1.000000 0.051000 0.051000 1.200000 0.029000 0.035000
1559801073800486421	700 40 0.900000 0.030000 0.029000 1200 35 1.000000 0.709000 0.721000 600 40 1.000000 0.051000 0.051000 1.200000 0.027000 0.032000
1559801074307910296	700 40 0.900000 0.031000 0.030000 1200 36 1.000000 0.709000 0.721000 600 40 1.000000 0.051000 0.051000 1.200000 0.028000 0.033000
1559801074815367338	700 39 0.900000 0.043000 0.042000 1200 35 1.000000 0.777000 0.790000 600 39 1.000000 0.051000 0.051000 1.200000 0.041000 0.049000
1559801075322839338	700 39 0.900000 0.030000 0.029000 1200 35 1.000000 0.721000 0.733000 600 39 1.000000 0.051000 0.051000 1.200000 0.029000 0.035000
1559801075830106671	700 39 0.900000 0.030000 0.029000 1200 35 1.000000 0.719000 0.731000 600 39 1.000000 0.051000 0.051000 1.200000 0.029000 0.035000
1559801076339187380	700 39 0.900000 0.030000 0.029000 1200 35 1.000000 0.718000 0.730000 600 39 1.000000 0.051000 0.051000 1.200000 0.027000 0.032000
1559801076847319463	700 39 0.900000 0.045000 0.044000 1200 35 1.000000 0.770000 0.783000 600 39 1.000000 0.051000 0.051000 1.200000 0.045000 0.054000
1559801077354673963	700 39 0.900000 0.030000 0.029000 1200 35 1.000000 0.729000 0.741000 600 39 1.000000 0.051000 0.051000 1.200000 0.027000 0.032000
1559801077862009130	700 39 0.900000 0.030000 0.029000 1200 35 1.000000 0.713000 0.725000 600 39 1.000000 0.051000 0.051000 1.200000 0.029000 0.035000
1559801078369350213	700 39 0.900000 0.045000 0.044000 1200 35 1.000000 0.720000 0.732000 600 39 1.000000 0.051000 0.051000 1.200000 0.029000 0.035000
1559801078876614588	700 39 0.900000 0.043000 0.042000 1200 34 1.000000 0.771000 0.784000 600 39 1.000000 0.051000 0.051000 1.200000 0.044000 0.053000
1559801079383886380	700 39 0.900000 0.030000 0.029000 1200 34 1.000000 0.709000 0.721000 600 39 1.000000 0.051000 0.051000 1.200000 0.029000 0.035000
1559801079891261755	700 38 0.900000 0.030000 0.029000 1200 34 1.000000 0.711000 0.723000 600 39 1.000000 0.051000 0.051000 1.200000 0.027000 0.032000
1559801080398528214	700 39 0.900000 0.030000 0.029000 1200 34 1.000000 0.712000 0.724000 600 38 1.000000 0.051000 0.051000 1.200000 0.028000 0.033000
1559801080906240422	700 38 0.900000 0.047000 0.046000 1200 34 1.000000 0.729000 0.741000 600 38 1.000000 0.051000 0.051000 1.200000 0.034000 0.041000
1559801081413575797	700 38 0.900000 0.043000 0.042000 1200 34 1.000000 0.717000 0.729000 600 38 1.000000 0.051000 0.051000 1.200000 0.039000 0.047000
1559801081920882047	700 38 0.900000 0.030000 0.029000 1200 34 1.000000 0.724000 0.736000 600 38 1.000000 0.051000 0.051000 1.200000 0.028000 0.033000
1559801082428086172	700 38 0.900000 0.030000 0.029000 1200 34 1.000000 0.715000 0.727000 600 38 1.000000 0.051000 0.051000 1.200000 0.028000 0.033000
1559801082935713339	700 38 0.900000 0.040000 0.039000 1200 34 1.000000 0.722000 0.734000 600 38 1.000000 0.051000 0.051000 1.200000 0.035000 0.042000
1559801083443239089	700 38 0.900000 0.041000 0.040000 1200 34 1.000000 0.757000 0.769000 600 38 1.000000 0.051000 0.051000 1.200000 0.045000 0.054000
1559801083950469256	700 38 0.900000 0.030000 0.029000 1200 34 1.000000 0.714000 0.726000 600 38 1.000000 0.050000 0.050000 1.200000 0.031000 0.037000
1559801084457879797	700 38 0.900000 0.030000 0.029000 1200 34 1.000000 0.709000 0.721000 600 38 1.000000 0.051000 0.051000 1.200000 0.027000 0.032000
1559801084965356089	700 38 0.900000 0.029000 0.028000 1200 34 1.000000 0.712000 0.724000 600 38 1.000000 0.051000 0.051000 1.200000 0.033000 0.039000
1559801085472646547	700 38 0.900000 0.045000 0.044000 1200 34 1.000000 0.794000 0.807000 600 38 1.000000 0.051000 0.051000 1.200000 0.044000 0.053000
1559801085979838089	700 38 0.900000 0.030000 0.029000 1200 34 1.000000 0.706000 0.718000 600 38 1.000000 0.051000 0.051000 1.200000 0.028000 0.033000
1559801086487155423	700 38 0.900000 0.030000 0.029000 1200 34 1.000000 0.708000 0.720000 600 38 1.000000 0.051000 0.051000 1.200000 0.028000 0.033000
1559801086994609714	700 38 0.900000 0.048000 0.047000 1200 34 1.000000 0.712000 0.724000 600 38 1.000000 0.051000 0.051000 1.200000 0.032000 0.038000
1559801087502356089	700 38 0.900000 0.030000 0.029000 1200 34 1.000000 0.720000 0.732000 600 38 1.000000 0.051000 0.051000 1.200000 0.029000 0.035000
1559801088009739256	700 38 0.900000 0.035000 0.034000 1200 34 1.000000 0.718000 0.730000 600 38 1.000000 0.051000 0.051000 1.200000 0.030000 0.036000
1559801088516992381	700 38 0.900000 0.030000 0.029000 1200 33 1.000000 0.709000 0.721000 600 38 1.000000 0.051000 0.051000 1.200000 0.029000 0.035000
1559801089024343590	700 38 0.900000 0.046000 0.045000 1200 33 1.000000 0.730000 0.742000 600 38 1.000000 0.051000 0.051000 1.200000 0.032000 0.038000
1559801089531918923	700 38 0.900000 0.030000 0.029000 1200 34 1.000000 0.710000 0.722000 600 38 1.000000 0.051000 0.051000 1.200000 0.029000 0.035000
1559801090041153131	700 38 0.900000 0.033000 0.032000 1200 33 1.000000 0.710000 0.722000 600 38 1.000000 0.051000 0.051000 1.200000 0.036000 0.043000
1559801090548553715	700 38 0.900000 0.029000 0.028000 1200 33 1.000000 0.706000 0.717000 600 38 1.000000 0.051000 0.051000 1.200000 0.028000 0.033000
1559801091055942840	700 38 0.900000 0.045000 0.044000 1200 33 1.000000 0.715000 0.727000 600 37 1.000000 0.050000 0.050000 1.200000 0.034000 0.041000
1559801091563485757	700 37 0.900000 0.029000 0.028000 1200 33 1.000000 0.707000 0.719000 600 37 1.000000 0.051000 0.051000 1.200000 0.028000 0.033000
1559801092070774007	700 38 0.900000 0.058000 0.057000 1200 33 1.000000 0.734000 0.746000 600 38 1.000000 0.051000 0.051000 1.200000 0.043000 0.052000
1559801092578049548	700 38 0.900000 0.030000 0.029000 1200 33 1.000000 0.707000 0.719000 600 37 1.000000 0.051000 0.051000 1.200000 0.028000 0.033000
1559801093085358132	700 38 0.900000 0.036000 0.035000 1200 33 1.000000 0.714000 0.726000 600 37 1.000000 0.051000 0.051000 1.200000 0.034000 0.041000
1559801093592606048	700 38 0.900000 0.029000 0.028000 1200 33 1.000000 0.706000 0.718000 600 37 1.000000 0.051000 0.051000 1.200000 0.027000 0.032000
1559801094100148632	700 38 0.900000 0.030000 0.029000 1200 33 1.000000 0.752000 0.764000 600 37 1.000000 0.051000 0.051000 1.200000 0.028000 0.033000
1559801094607374674	700 37 0.900000 0.029000 0.028000 1200 33 1.000000 0.719000 0.731000 600 37 1.000000 0.051000 0.051000 1.200000 0.028000 0.033000
1559801095114700090	700 38 0.900000 0.030000 0.029000 1200 33 1.000000 0.718000 0.730000 600 37 1.000000 0.051000 0.051000 1.200000 0.027000 0.032000
1559801095621993757	700 37 0.900000 0.029000 0.028000 1200 33 1.000000 0.706000 0.717000 600 37 1.000000 0.051000 0.051000 1.200000 0.028000 0.033000
1559801096128952924	700 37 0.900000 0.030000 0.029000 1200 33 1.000000 0.705000 0.716000 600 37 1.000000 0.051000 0.051000 1.200000 0.027000 0.032000
1559801096636182590	700 37 0.900000 0.030000 0.029000 1200 33 1.000000 0.707000 0.719000 600 37 1.000000 0.050000 0.050000 1.200000 0.028000 0.033000
1559801097143609966	700 38 0.900000 0.029000 0.028000 1200 33 1.000000 0.709000 0.721000 600 37 1.000000 0.051000 0.051000 1.200000 0.029000 0.035000
1559801097650889549	700 37 0.900000 0.029000 0.028000 1200 33 1.000000 0.706000 0.718000 600 37 1.000000 0.051000 0.051000 1.200000 0.029000 0.035000
1559801098159112549	700 37 0.900000 0.030000 0.029000 1200 33 1.000000 0.704000 0.715000 600 37 1.000000 0.051000 0.051000 1.200000 0.026000 0.031000
1559801098666496007	700 37 0.900000 0.053000 0.052000 1200 33 1.000000 0.707000 0.719000 600 37 1.000000 0.051000 0.051000 1.200000 0.032000 0.038000
1559801099173786216	700 37 0.900000 0.030000 0.029000 1200 33 1.000000 0.714000 0.726000 600 37 1.000000 0.051000 0.051000 1.200000 0.028000 0.033000
1559801099681122716	700 37 0.900000 0.032000 0.031000 1200 33 1.000000 0.706000 0.718000 600 37 1.000000 0.051000 0.051000 1.200000 0.028000 0.033000
1559801100188508174	700 37 0.900000 0.030000 0.029000 1200 33 1.000000 0.711000 0.723000 600 37 1.000000 0.050000 0.050000 1.200000 0.027000 0.032000
1559801100696177924	700 37 0.900000 0.029000 0.028000 1200 33 1.000000 0.705000 0.716000 600 37 1.000000 0.051000 0.051000 1.200000 0.035000 0.042000
1559801101203533883	700 37 0.900000 0.030000 0.029000 1200 33 1.000000 0.720000 0.732000 600 37 1.000000 0.050000 0.050000 1.200000 0.026000 0.031000
1559801101710948883	700 37 0.900000 0.045000 0.044000 1200 33 1.000000 0.730000 0.742000 600 37 1.000000 0.051000 0.051000 1.200000 0.035000 0.042000
1559801102221077633	700 37 0.900000 0.030000 0.029000 1200 33 1.000000 0.714000 0.726000 600 37 1.000000 0.051000 0.051000 1.200000 0.029000 0.035000
1559801102728812716	700 37 0.900000 0.030000 0.029000 1200 33 1.000000 0.710000 0.722000 600 37 1.000000 0.051000 0.051000 1.200000 0.030000 0.036000
1559801103236162883	700 37 0.900000 0.029000 0.028000 1200 33 1.000000 0.768000 0.781000 600 37 1.000000 0.051000 0.051000 1.200000 0.029000 0.035000
1559801103743597050	700 37 0.900000 0.042000 0.041000 1200 33 1.000000 0.716000 0.728000 600 37 1.000000 0.051000 0.051000 1.200000 0.034000 0.041000
1559801104251038300	700 37 0.900000 0.030000 0.029000 1200 33 1.000000 0.725000 0.737000 600 37 1.000000 0.051000 0.051000 1.200000 0.028000 0.033000
1559801104758434800	700 37 0.900000 0.029000 0.028000 1200 33 1.000000 0.712000 0.724000 600 37 1.000000 0.051000 0.051000 1.200000 0.028000 0.033000
1559801105265816008	700 37 0.900000 0.050000 0.049000 1200 33 1.000000 0.786000 0.799000 600 37 1.000000 0.051000 0.051000 1.200000 0.027000 0.032000
1559801105773102967	700 37 0.900000 0.047000 0.046000 1200 33 1.000000 0.723000 0.735000 600 37 1.000000 0.051000 0.051000 1.200000 0.032000 0.038000
1559801106280475633	700 37 0.900000 0.030000 0.029000 1200 33 1.000000 0.715000 0.727000 600 37 1.000000 0.051000 0.051000 1.200000 0.027000 0.032000
1559801106787721133	700 37 0.900000 0.029000 0.028000 1200 33 1.000000 0.723000 0.735000 600 37 1.000000 0.051000 0.051000 1.200000 0.026000 0.031000
1559801107295195675	700 37 0.900000 0.036000 0.035000 1200 33 1.000000 0.814000 0.827000 600 37 1.000000 0.050000 0.050000 1.200000 0.027000 0.032000
1559801107802764133	700 37 0.900000 0.029000 0.028000 1200 33 1.000000 0.723000 0.735000 600 37 1.000000 0.051000 0.051000 1.200000 0.033000 0.039000
1559801108310071300	700 37 0.900000 0.030000 0.029000 1200 33 1.000000 0.707000 0.719000 600 37 1.000000 0.050000 0.050000 1.200000 0.029000 0.035000
1559801108817322467	700 37 0.900000 0.029000 0.028000 1200 33 1.000000 0.719000 0.731000 600 37 1.000000 0.050000 0.050000 1.200000 0.028000 0.033000
1559801109324481717	700 37 0.900000 0.040000 0.039000 1200 33 1.000000 0.716000 0.728000 600 37 1.000000 0.051000 0.051000 1.200000 0.038000 0.045000
1559801109831967009	700 37 0.900000 0.043000 0.042000 1200 33 1.000000 0.717000 0.729000 600 37 1.000000 0.051000 0.051000 1.200000 0.034000 0.041000
1559801110339341134	700 37 0.900000 0.029000 0.028000 1200 33 1.000000 0.715000 0.727000 600 37 1.000000 0.051000 0.051000 1.200000 0.027000 0.032000
1559801110846723509	700 37 0.900000 0.029000 0.028000 1200 33 1.000000 0.710000 0.722000 600 37 1.000000 0.050000 0.050000 1.200000 0.027000 0.032000
1559801111356496592	700 36 0.900000 0.030000 0.029000 1200 33 1.000000 0.723000 0.735000 600 37 1.000000 0.051000 0.051000 1.200000 0.068000 0.082000
1559801111865003176	700 39 0.900000 0.043000 0.042000 1200 33 1.000000 1.191000 1.214000 600 43 1.000000 0.050000 0.050000 1.200000 0.067000 0.081000
1559801112373472217	700 40 0.900000 0.032000 0.031000 1200 34 1.000000 1.959000 2.002000 600 45 1.000000 0.051000 0.051000 1.200000 0.063000 0.076000
1559801112881708426	700 40 0.900000 0.032000 0.031000 1200 34 1.000000 1.951000 1.995000 600 45 1.000000 0.051000 0.051000 1.200000 0.064000 0.077000
1559801113393598009	700 41 0.900000 0.031000 0.030000 1200 35 1.000000 1.953000 1.997000 600 46 1.000000 0.051000 0.051000 1.200000 0.064000 0.077000
1559801113902862843	700 41 0.900000 0.046000 0.045000 1200 35 1.000000 2.001000 2.047000 600 46 1.000000 0.051000 0.051000 1.200000 0.078000 0.094000
1559801114413732259	700 41 0.900000 0.036000 0.035000 1200 35 1.000000 2.004000 2.050000 600 47 1.000000 0.051000 0.051000 1.200000 0.066000 0.079000
1559801114922632134	700 42 0.900000 0.034000 0.033000 1200 36 1.000000 1.956000 2.000000 600 47 1.000000 0.051000 0.051000 1.200000 0.064000 0.077000
1559801115430905093	700 42 0.900000 0.032000 0.031000 1200 36 1.000000 1.957000 2.002000 600 47 1.000000 0.051000 0.051000 1.200000 0.065000 0.078000
1559801115939214009	700 42 0.900000 0.043000 0.042000 1200 36 1.000000 1.967000 2.012000 600 48 1.000000 0.051000 0.051000 1.200000 0.064000 0.077000
1559801116447465301	700 42 0.900000 0.032000 0.031000 1200 36 1.000000 1.964000 2.007000 600 48 1.000000 0.051000 0.051000 1.200000 0.069000 0.083000
1559801116955576176	700 42 0.900000 0.032000 0.031000 1200 37 1.000000 1.964000 2.007000 600 48 1.000000 0.051000 0.051000 1.200000 0.065000 0.078000
1559801117463752051	700 43 0.900000 0.033000 0.032000 1200 37 1.000000 1.967000 2.010000 600 48 1.000000 0.051000 0.051000 1.200000 0.064000 0.077000
1559801117972305551	700 43 0.900000 0.033000 0.032000 1200 37 1.000000 1.958000 2.003000 600 48 1.000000 0.051000 0.051000 1.200000 0.064000 0.077000
1559801118481073135	700 43 0.900000 0.058000 0.057000 1200 37 1.000000 1.969000 2.014000 600 48 1.000000 0.051000 0.051000 1.200000 0.074000 0.089000
1559801118989438968	700 43 0.900000 0.032000 0.031000 1200 37 1.000000 1.959000 2.004000 600 48 1.000000 0.051000 0.051000 1.200000 0.064000 0.077000
1559801119497552885	700 43 0.900000 0.033000 0.032000 1200 37 1.000000 1.958000 2.003000 600 48 1.000000 0.052000 0.052000 1.200000 0.065000 0.078000
1559801120009416510	700 43 0.900000 0.032000 0.031000 1200 37 1.000000 1.958000 2.003000 600 49 1.000000 0.051000 0.051000 1.200000 0.064000 0.077000
1559801120518381218	700 43 0.900000 0.044000 0.043000 1200 37 1.000000 1.991000 2.036000 600 49 1.000000 0.051000 0.051000 1.200000 0.079000 0.095000
1559801121026689968	700 43 0.900000 0.032000 0.031000 1200 37 1.000000 1.958000 2.003000 600 49 1.000000 0.051000 0.051000 1.200000 0.064000 0.077000
1559801121535133385	700 43 0.900000 0.032000 0.031000 1200 37 1.000000 1.972000 2.017000 600 49 1.000000 0.051000 0.051000 1.200000 0.064000 0.077000
1559801122043557219	700 43 0.900000 0.033000 0.032000 1200 37 1.000000 1.966000 2.011000 600 49 1.000000 0.051000 0.051000 1.200000 0.064000 0.077000
1559801122551762385	700 44 0.900000 0.051000 0.050000 1200 37 1.000000 2.019000 2.065000 600 49 1.000000 0.051000 0.051000 1.200000 0.067000 0.081000
1559801123060151885	700 43 0.900000 0.032000 0.031000 1200 37 1.000000 1.972000 2.017000 600 49 1.000000 0.051000 0.051000 1.200000 0.064000 0.077000
1559801123568402885	700 44 0.900000 0.032000 0.031000 1200 38 1.000000 1.964000 2.009000 600 49 1.000000 0.051000 0.051000 1.200000 0.064000 0.077000
1559801124076611844	700 43 0.900000 0.033000 0.032000 1200 37 1.000000 1.968000 2.013000 600 49 1.000000 0.051000 0.051000 1.200000 0.064000 0.077000
1559801124584796552	700 44 0.900000 0.043000 0.042000 1200 38 1.000000 1.991000 2.036000 600 49 1.000000 0.051000 0.051000 1.200000 0.067000 0.081000
1559801125093117177	700 44 0.900000 0.043000 0.042000 1200 38 1.000000 1.960000 2.005000 600 49 1.000000 0.051000 0.051000 1.200000 0.069000 0.083000
1559801125601528261	700 44 0.900000 0.033000 0.032000 1200 38 1.000000 1.959000 2.004000 600 49 1.000000 0.051000 0.051000 1.200000 0.065000 0.078000
1559801126109759052	700 44 0.900000 0.033000 0.032000 1200 38 1.000000 1.959000 2.004000 600 49 1.000000 0.051000 0.051000 1.200000 0.064000 0.077000
1559801126621942969	700 44 0.900000 0.041000 0.040000 1200 38 1.000000 1.999000 2.044000 600 49 1.000000 0.051000 0.051000 1.200000 0.067000 0.081000
1559801127130987802	700 44 0.900000 0.042000 0.041000 1200 38 1.000000 1.977000 2.020000 600 49 1.000000 0.051000 0.051000 1.200000 0.074000 0.089000
1559801127639228636	700 44 0.900000 0.032000 0.031000 1200 38 1.000000 1.959000 2.004000 600 49 1.000000 0.051000 0.051000 1.200000 0.063000 0.076000
1559801128147583303	700 44 0.900000 0.032000 0.031000 1200 38 1.000000 1.959000 2.004000 600 49 1.000000 0.051000 0.051000 1.200000 0.063000 0.076000
1559801128656016053	700 44 0.900000 0.042000 0.041000 1200 38 1.000000 1.999000 2.042000 600 49 1.000000 0.051000 0.051000 1.200000 0.065000 0.078000
1559801129164384969	700 44 0.900000 0.047000 0.046000 1200 38 1.000000 1.992000 2.037000 600 49 1.000000 0.051000 0.051000 1.200000 0.064000 0.077000
1559801129672806511	700 44 0.900000 0.032000 0.031000 1200 38 1.000000 1.967000 2.012000 600 49 1.000000 0.051000 0.051000 1.200000 0.064000 0.077000
1559801130181051011	700 44 0.900000 0.033000 0.032000 1200 38 1.000000 1.971000 2.016000 600 49 1.000000 0.051000 0.051000 1.200000 0.064000 0.077000
1559801130689464261	700 44 0.900000 0.032000 0.031000 1200 38 1.000000 2.003000 2.049000 600 49 1.000000 0.051000 0.051000 1.200000 0.064000 0.077000
1559801131197694636	700 44 0.900000 0.033000 0.032000 1200 38 1.000000 1.971000 2.016000 600 50 1.000000 0.051000 0.051000 1.200000 0.065000 0.078000
1559801131706079220	700 44 0.900000 0.040000 0.039000 1200 38 1.000000 1.961000 2.006000 600 50 1.000000 0.051000 0.051000 1.200000 0.065000 0.078000
1559801132214301720	700 44 0.900000 0.033000 0.032000 1200 38 1.000000 1.958000 2.003000 600 49 1.000000 0.051000 0.051000 1.200000 0.064000 0.077000
1559801132722731095	700 44 0.900000 0.039000 0.038000 1200 38 1.000000 1.990000 2.035000 600 50 1.000000 0.051000 0.051000 1.200000 0.068000 0.082000
1559801133233765595	700 44 0.900000 0.032000 0.031000 1200 38 1.000000 1.959000 2.004000 600 49 1.000000 0.052000 0.052000 1.200000 0.064000 0.077000
1559801133742630720	700 44 0.900000 0.040000 0.039000 1200 38 1.000000 1.961000 2.006000 600 49 1.000000 0.051000 0.051000 1.200000 0.070000 0.084000
1559801134251025845	700 44 0.900000 0.032000 0.031000 1200 38 1.000000 1.959000 2.004000 600 50 1.000000 0.051000 0.051000 1.200000 0.063000 0.076000
1559801134759336887	700 44 0.900000 0.040000 0.039000 1200 38 1.000000 2.003000 2.049000 600 50 1.000000 0.051000 0.051000 1.200000 0.067000 0.081000
1559801135267539845	700 44 0.900000 0.032000 0.031000 1200 38 1.000000 1.961000 2.006000 600 50 1.000000 0.051000 0.051000 1.200000 0.063000 0.076000
1559801135775797637	700 44 0.900000 0.049000 0.048000 1200 38 1.000000 2.024000 2.070000 600 50 1.000000 0.051000 0.051000 1.200000 0.067000 0.081000
1559801136284210679	700 44 0.900000 0.038000 0.037000 1200 38 1.000000 1.963000 2.008000 600 50 1.000000 0.051000 0.051000 1.200000 0.064000 0.077000
1559801136792523595	700 44 0.900000 0.033000 0.032000 1200 38 1.000000 1.962000 2.007000 600 50 1.000000 0.052000 0.052000 1.200000 0.064000 0.077000
1559801137300818012	700 44 0.900000 0.040000 0.039000 1200 38 1.000000 1.961000 2.006000 600 50 1.000000 0.051000 0.051000 1.200000 0.065000 0.078000
1559801137809050012	700 44 0.900000 0.033000 0.032000 1200 38 1.000000 1.987000 2.032000 600 50 1.000000 0.051000 0.051000 1.200000 0.064000 0.077000
1559801138317479387	700 44 0.900000 0.039000 0.038000 1200 38 1.000000 1.961000 2.006000 600 50 1.000000 0.051000 0.051000 1.200000 0.064000 0.077000
1559801138825846846	700 44 0.900000 0.033000 0.032000 1200 38 1.000000 1.962000 2.007000 600 50 1.000000 0.051000 0.051000 1.200000 0.064000 0.077000
1559801139334044596	700 44 0.900000 0.033000 0.032000 1200 38 1.000000 2.007000 2.053000 600 50 1.000000 0.051000 0.051000 1.200000 0.064000 0.077000
1559801139846049179	700 44 0.900000 0.033000 0.032000 1200 38 1.000000 1.969000 2.014000 600 50 1.000000 0.052000 0.052000 1.200000 0.064000 0.077000
1559801140355185179	700 44 0.900000 0.037000 0.036000 1200 38 1.000000 2.040000 2.086000 600 50 1.000000 0.051000 0.051000 1.200000 0.066000 0.079000
1559801140863568471	700 44 0.900000 0.033000 0.032000 1200 38 1.000000 1.969000 2.014000 600 50 1.000000 0.051000 0.051000 1.200000 0.063000 0.076000
1559801141371980721	700 44 0.900000 0.033000 0.032000 1200 38 1.000000 1.971000 2.016000 600 50 1.000000 0.052000 0.052000 1.200000 0.063000 0.076000
1559801141880183804	700 44 0.900000 0.032000 0.031000 1200 38 1.000000 1.963000 2.008000 600 50 1.000000 0.052000 0.052000 1.200000 0.063000 0.076000
1559801142388412513	700 44 0.900000 0.050000 0.049000 1200 38 1.000000 2.052000 2.099000 600 50 1.000000 0.051000 0.051000 1.200000 0.071000 0.085000
1559801142896851179	700 45 0.900000 0.037000 0.036000 1200 38 1.000000 1.968000 2.013000 600 50 1.000000 0.051000 0.051000 1.200000 0.065000 0.078000
1559801143405183346	700 44 0.900000 0.040000 0.039000 1200 38 1.000000 2.004000 2.050000 600 50 1.000000 0.051000 0.051000 1.200000 0.066000 0.079000
1559801143913498054	700 44 0.900000 0.033000 0.032000 1200 38 1.000000 1.972000 2.017000 600 50 1.000000 0.051000 0.051000 1.200000 0.064000 0.077000
1559801144421772305	700 45 0.900000 0.032000 0.031000 1200 38 1.000000 1.960000 2.005000 600 50 1.000000 0.051000 0.051000 1.200000 0.066000 0.079000
1559801144930492096	700 44 0.900000 0.037000 0.036000 1200 38 1.000000 1.996000 2.041000 600 50 1.000000 0.052000 0.052000 1.200000 0.064000 0.077000
1559801145438911346	700 45 0.900000 0.043000 0.042000 1200 38 1.000000 2.001000 2.047000 600 50 1.000000 0.051000 0.051000 1.200000 0.063000 0.076000
1559801145947146221	700 44 0.900000 0.033000 0.032000 1200 38 1.000000 1.965000 2.010000 600 50 1.000000 0.051000 0.051000 1.200000 0.064000 0.077000
1559801146459386388	700 44 0.900000 0.032000 0.031000 1200 39 1.000000 1.974000 2.019000 600 50 1.000000 0.052000 0.052000 1.200000 0.064000 0.077000
1559801146968689263	700 45 0.900000 0.035000 0.034000 1200 39 1.000000 2.022000 2.068000 600 50 1.000000 0.051000 0.051000 1.200000 0.063000 0.076000
1559801147477061847	700 45 0.900000 0.032000 0.031000 1200 39 1.000000 1.995000 2.040000 600 50 1.000000 0.051000 0.051000 1.200000 0.063000 0.076000
1559801147985344638	700 45 0.900000 0.032000 0.031000 1200 39 1.000000 1.972000 2.017000 600 50 1.000000 0.051000 0.051000 1.200000 0.063000 0.076000
1559801148493646638	700 45 0.900000 0.033000 0.032000 1200 39 1.000000 1.968000 2.013000 600 50 1.000000 0.052000 0.052000 1.200000 0.064000 0.077000
1559801149001974763	700 45 0.900000 0.054000 0.053000 1200 39 1.000000 2.041000 2.087000 600 50 1.000000 0.051000 0.051000 1.200000 0.068000 0.082000
1559801149510331013	700 45 0.900000 0.035000 0.034000 1200 39 1.000000 1.962000 2.007000 600 50 1.000000 0.051000 0.051000 1.200000 0.063000 0.076000
1559801150018629805	700 45 0.900000 0.033000 0.032000 1200 39 1.000000 1.964000 2.009000 600 50 1.000000 0.051000 0.051000 1.200000 0.064000 0.077000
1559801150526817389	700 45 0.900000 0.033000 0.032000 1200 39 1.000000 1.970000 2.015000 600 50 1.000000 0.051000 0.051000 1.200000 0.064000 0.077000
1559801151035034555	700 45 0.900000 0.033000 0.032000 1200 39 1.000000 1.970000 2.015000 600 50 1.000000 0.051000 0.051000 1.200000 0.069000 0.083000
1559801151542548972	700 39 0.900000 0.053000 0.052000 1200 37 1.000000 1.582000 1.616000 600 43 1.000000 0.051000 0.051000 1.200000 0.039000 0.047000
1559801152049551764	700 37 0.900000 0.031000 0.030000 1200 36 1.000000 0.161000 0.165000 600 41 1.000000 0.051000 0.051000 1.200000 0.022000 0.026000
