#Timestamp	CPU(0) Frequency(MHz)	CPU(0) Temperature(C)	A7 Voltage(V)	A7 Current(A)	A7 Power(W)	CPU(4) Frequency(MHz)	CPU(4) Temperature(C)	A15 Voltage(V)	A15 Current(A)	A15 Power(W)	GPU Frequency(MHz)	GPU Temperature(C)	GPU Voltage(V)	GPU Current(A)	GPU Power(W)	RAM Voltage(V)	RAM Current(A)	RAM Power(W)
1553306279927344459	200 33 0.900000 0.027000 0.024000 1200 32 1.000000 0.226000 0.231000 600 36 1.000000 0.051000 0.051000 1.200000 0.042000 0.050000
1553306280441906084	200 36 0.900000 0.027000 0.024000 1200 32 1.000000 0.166000 0.170000 600 37 1.000000 0.050000 0.050000 1.200000 0.037000 0.044000
1553306280953740209	200 37 0.900000 0.012000 0.010000 1200 33 1.000000 0.760000 0.772000 600 37 1.000000 0.051000 0.051000 1.200000 0.040000 0.048000
1553306281481012209	200 38 0.900000 0.030000 0.027000 1200 33 1.000000 1.175000 1.196000 600 43 1.000000 0.050000 0.050000 1.200000 0.046000 0.055000
1553306281995701042	200 39 0.900000 0.050000 0.045000 1200 34 1.000000 1.687000 1.722000 600 44 1.000000 0.051000 0.051000 1.200000 0.047000 0.056000
1553306282507396542	200 40 0.900000 0.038000 0.034000 1200 34 1.000000 1.694000 1.729000 600 45 1.000000 0.051000 0.051000 1.200000 0.032000 0.038000
1553306283018902917	200 40 0.900000 0.038000 0.034000 1200 35 1.000000 1.682000 1.717000 600 45 1.000000 0.051000 0.051000 1.200000 0.033000 0.039000
1553306283530499376	200 41 0.900000 0.044000 0.040000 1200 35 1.000000 1.733000 1.769000 600 46 1.000000 0.051000 0.051000 1.200000 0.038000 0.045000
1553306284042230959	200 41 0.900000 0.038000 0.034000 1200 36 1.000000 1.726000 1.762000 600 46 1.000000 0.051000 0.051000 1.200000 0.036000 0.043000
1553306284553767126	200 41 0.900000 0.049000 0.044000 1200 36 1.000000 1.705000 1.740000 600 46 1.000000 0.051000 0.051000 1.200000 0.039000 0.047000
1553306285065250043	200 41 0.900000 0.039000 0.035000 1200 36 1.000000 1.690000 1.725000 600 47 1.000000 0.051000 0.051000 1.200000 0.031000 0.037000
1553306285576880918	200 36 0.900000 0.040000 0.036000 1200 35 1.000000 0.190000 0.194000 600 41 1.000000 0.051000 0.051000 1.200000 0.031000 0.037000
1553306286087764043	200 35 0.900000 0.038000 0.034000 1200 34 1.000000 0.137000 0.140000 600 39 1.000000 0.051000 0.051000 1.200000 0.024000 0.028000
1553306286598313334	200 35 0.900000 0.048000 0.043000 1200 34 1.000000 0.270000 0.276000 600 39 1.000000 0.051000 0.051000 1.200000 0.042000 0.050000
1553306287108911668	200 34 0.900000 0.038000 0.034000 1200 33 1.000000 0.133000 0.136000 600 38 1.000000 0.051000 0.051000 1.200000 0.024000 0.028000
1553306287619877501	200 34 0.900000 0.038000 0.034000 1200 33 1.000000 0.153000 0.156000 600 38 1.000000 0.051000 0.051000 1.200000 0.024000 0.028000
1553306288130610376	200 33 0.900000 0.042000 0.038000 1200 33 1.000000 0.204000 0.209000 600 37 1.000000 0.051000 0.051000 1.200000 0.032000 0.038000
1553306288661964418	200 33 0.900000 0.038000 0.034000 1200 32 1.000000 0.140000 0.143000 600 37 1.000000 0.051000 0.051000 1.200000 0.025000 0.030000
1553306289175270376	200 33 0.900000 0.050000 0.045000 1200 32 1.000000 0.275000 0.281000 600 37 1.000000 0.050000 0.050000 1.200000 0.040000 0.048000
1553306289686311460	200 33 0.900000 0.038000 0.034000 1200 32 1.000000 0.141000 0.144000 600 37 1.000000 0.051000 0.051000 1.200000 0.025000 0.030000
1553306290197281418	200 33 0.900000 0.043000 0.039000 1200 32 1.000000 0.143000 0.146000 600 37 1.000000 0.051000 0.051000 1.200000 0.034000 0.041000
1553306290707961585	200 33 0.900000 0.038000 0.034000 1200 32 1.000000 0.130000 0.133000 600 36 1.000000 0.051000 0.051000 1.200000 0.025000 0.030000
1553306291219122418	200 33 0.900000 0.038000 0.034000 1200 32 1.000000 0.134000 0.137000 600 36 1.000000 0.051000 0.051000 1.200000 0.025000 0.030000
1553306291729727335	200 33 0.900000 0.050000 0.045000 1200 32 1.000000 0.218000 0.223000 600 36 1.000000 0.050000 0.050000 1.200000 0.042000 0.050000
1553306292240531793	200 33 0.900000 0.043000 0.039000 1200 32 1.000000 0.197000 0.201000 600 36 1.000000 0.050000 0.050000 1.200000 0.033000 0.039000
1553306292751509043	200 33 0.900000 0.038000 0.034000 1200 32 1.000000 0.129000 0.132000 600 36 1.000000 0.050000 0.050000 1.200000 0.024000 0.028000
1553306293262186335	200 32 0.900000 0.038000 0.034000 1200 31 1.000000 0.129000 0.132000 600 36 1.000000 0.051000 0.051000 1.200000 0.024000 0.028000
1553306293794634669	200 33 0.900000 0.042000 0.038000 1200 32 1.000000 0.241000 0.247000 600 36 1.000000 0.050000 0.050000 1.200000 0.032000 0.038000
1553306294308000002	200 32 0.900000 0.046000 0.042000 1200 32 1.000000 0.186000 0.190000 600 36 1.000000 0.051000 0.051000 1.200000 0.033000 0.039000
1553306294818840752	200 32 0.900000 0.038000 0.034000 1200 31 1.000000 0.139000 0.142000 600 36 1.000000 0.051000 0.051000 1.200000 0.024000 0.028000
1553306295329569627	200 32 0.900000 0.038000 0.034000 1200 31 1.000000 0.146000 0.149000 600 36 1.000000 0.050000 0.050000 1.200000 0.024000 0.028000
1553306295840508252	200 32 0.900000 0.038000 0.034000 1200 31 1.000000 0.149000 0.153000 600 36 1.000000 0.051000 0.051000 1.200000 0.024000 0.028000
1553306296367018169	200 32 0.900000 0.054000 0.049000 1200 31 1.000000 0.221000 0.226000 600 36 1.000000 0.050000 0.050000 1.200000 0.043000 0.051000
1553306296879912419	200 32 0.900000 0.040000 0.036000 1200 31 1.000000 0.200000 0.205000 600 36 1.000000 0.051000 0.051000 1.200000 0.023000 0.027000
1553306297390572627	200 32 0.900000 0.038000 0.034000 1200 31 1.000000 0.133000 0.136000 600 36 1.000000 0.050000 0.050000 1.200000 0.024000 0.028000
1553306297901014586	200 32 0.900000 0.038000 0.034000 1200 31 1.000000 0.143000 0.146000 600 36 1.000000 0.050000 0.050000 1.200000 0.025000 0.030000
1553306298410138044	200 32 0.900000 0.037000 0.033000 1200 31 1.000000 0.151000 0.154000 600 36 1.000000 0.050000 0.050000 1.200000 0.024000 0.028000
1553306298920770711	200 32 0.900000 0.048000 0.043000 1200 31 1.000000 0.219000 0.224000 600 36 1.000000 0.050000 0.050000 1.200000 0.048000 0.057000
1553306299431384044	200 32 0.900000 0.038000 0.034000 1200 31 1.000000 0.180000 0.184000 600 36 1.000000 0.050000 0.050000 1.200000 0.025000 0.030000
1553306299942236586	200 32 0.900000 0.038000 0.034000 1200 31 1.000000 0.143000 0.146000 600 36 1.000000 0.050000 0.050000 1.200000 0.025000 0.030000
1553306300452753128	200 32 0.900000 0.038000 0.034000 1200 31 1.000000 0.150000 0.153000 600 36 1.000000 0.051000 0.051000 1.200000 0.024000 0.028000
1553306300963251544	200 32 0.900000 0.043000 0.039000 1200 31 1.000000 0.145000 0.148000 600 36 1.000000 0.050000 0.050000 1.200000 0.031000 0.037000
1553306301474312253	200 32 0.900000 0.050000 0.045000 1200 31 1.000000 0.260000 0.266000 600 36 1.000000 0.050000 0.050000 1.200000 0.042000 0.050000
1553306301984884128	200 32 0.900000 0.038000 0.034000 1200 31 1.000000 0.144000 0.147000 600 36 1.000000 0.050000 0.050000 1.200000 0.024000 0.028000
1553306302495347378	200 32 0.900000 0.038000 0.034000 1200 31 1.000000 0.148000 0.151000 600 36 1.000000 0.050000 0.050000 1.200000 0.023000 0.027000
1553306303006182045	200 32 0.900000 0.038000 0.034000 1200 31 1.000000 0.142000 0.145000 600 36 1.000000 0.050000 0.050000 1.200000 0.024000 0.028000
1553306303517074836	200 32 0.900000 0.049000 0.044000 1200 31 1.000000 0.156000 0.160000 600 36 1.000000 0.050000 0.050000 1.200000 0.036000 0.043000
1553306304028025295	200 32 0.900000 0.048000 0.043000 1200 31 1.000000 0.244000 0.250000 600 36 1.000000 0.050000 0.050000 1.200000 0.027000 0.032000
1553306304539007795	200 32 0.900000 0.038000 0.034000 1200 31 1.000000 0.128000 0.131000 600 36 1.000000 0.050000 0.050000 1.200000 0.024000 0.028000
1553306305049703337	200 32 0.900000 0.038000 0.034000 1200 31 1.000000 0.127000 0.130000 600 36 1.000000 0.050000 0.050000 1.200000 0.024000 0.028000
1553306305560525212	200 32 0.900000 0.038000 0.034000 1200 31 1.000000 0.139000 0.142000 600 35 1.000000 0.050000 0.050000 1.200000 0.025000 0.030000
1553306306073358962	200 32 0.900000 0.045000 0.041000 1200 31 1.000000 0.161000 0.165000 600 36 1.000000 0.050000 0.050000 1.200000 0.032000 0.038000
1553306306584102378	200 32 0.900000 0.045000 0.041000 1200 31 1.000000 0.254000 0.260000 600 36 1.000000 0.050000 0.050000 1.200000 0.030000 0.036000
1553306307095023879	200 32 0.900000 0.038000 0.034000 1200 31 1.000000 0.149000 0.152000 600 35 1.000000 0.051000 0.051000 1.200000 0.024000 0.028000
1553306307605456879	200 32 0.900000 0.038000 0.034000 1200 31 1.000000 0.140000 0.143000 600 35 1.000000 0.050000 0.050000 1.200000 0.024000 0.028000
1553306308116440087	200 32 0.900000 0.050000 0.045000 1200 31 1.000000 0.158000 0.162000 600 35 1.000000 0.050000 0.050000 1.200000 0.033000 0.039000
1553306308626963087	200 32 0.900000 0.049000 0.044000 1200 31 1.000000 0.217000 0.222000 600 36 1.000000 0.050000 0.050000 1.200000 0.042000 0.050000
1553306309137576879	200 32 0.900000 0.038000 0.034000 1200 31 1.000000 0.150000 0.153000 600 35 1.000000 0.050000 0.050000 1.200000 0.032000 0.038000
1553306309648075712	200 32 0.900000 0.037000 0.033000 1200 31 1.000000 0.141000 0.144000 600 36 1.000000 0.050000 0.050000 1.200000 0.024000 0.028000
1553306310158744712	200 32 0.900000 0.038000 0.034000 1200 31 1.000000 0.148000 0.151000 600 35 1.000000 0.050000 0.050000 1.200000 0.024000 0.028000
1553306310673222546	200 32 0.900000 0.041000 0.037000 1200 31 1.000000 0.149000 0.152000 600 35 1.000000 0.050000 0.050000 1.200000 0.029000 0.035000
1553306311186050921	200 32 0.900000 0.051000 0.046000 1200 31 1.000000 0.208000 0.213000 600 35 1.000000 0.050000 0.050000 1.200000 0.043000 0.051000
1553306311697013504	200 32 0.900000 0.038000 0.034000 1200 31 1.000000 0.147000 0.150000 600 35 1.000000 0.050000 0.050000 1.200000 0.026000 0.031000
1553306312207945046	200 32 0.900000 0.037000 0.033000 1200 31 1.000000 0.128000 0.131000 600 35 1.000000 0.050000 0.050000 1.200000 0.025000 0.030000
1553306312718579129	200 32 0.900000 0.045000 0.041000 1200 31 1.000000 0.152000 0.155000 600 35 1.000000 0.050000 0.050000 1.200000 0.036000 0.043000
1553306313238116296	200 32 0.900000 0.042000 0.038000 1200 31 1.000000 0.153000 0.156000 600 36 1.000000 0.051000 0.051000 1.200000 0.024000 0.028000
1553306313754694421	200 32 0.900000 0.042000 0.038000 1200 31 1.000000 0.156000 0.159000 600 35 1.000000 0.050000 0.050000 1.200000 0.042000 0.050000
1553306314265132463	200 32 0.900000 0.038000 0.034000 1200 31 1.000000 0.146000 0.149000 600 35 1.000000 0.050000 0.050000 1.200000 0.025000 0.030000
1553306314775881338	200 32 0.900000 0.039000 0.035000 1200 31 1.000000 0.138000 0.141000 600 35 1.000000 0.050000 0.050000 1.200000 0.024000 0.028000
1553306315286894254	200 32 0.900000 0.038000 0.034000 1200 31 1.000000 0.151000 0.154000 600 35 1.000000 0.051000 0.051000 1.200000 0.033000 0.039000
1553306315799174880	200 32 0.900000 0.038000 0.034000 1200 31 1.000000 0.146000 0.149000 600 36 1.000000 0.051000 0.051000 1.200000 0.024000 0.028000
1553306316311836630	200 32 0.900000 0.050000 0.045000 1200 31 1.000000 0.262000 0.268000 600 36 1.000000 0.051000 0.051000 1.200000 0.043000 0.051000
1553306316822713338	200 32 0.900000 0.038000 0.034000 1200 31 1.000000 0.149000 0.152000 600 35 1.000000 0.050000 0.050000 1.200000 0.025000 0.030000
1553306317333353546	200 32 0.900000 0.049000 0.044000 1200 31 1.000000 0.159000 0.163000 600 35 1.000000 0.051000 0.051000 1.200000 0.034000 0.041000
1553306317844044963	200 32 0.900000 0.038000 0.034000 1200 31 1.000000 0.138000 0.141000 600 35 1.000000 0.050000 0.050000 1.200000 0.024000 0.028000
1553306318356532672	200 32 0.900000 0.042000 0.038000 1200 31 1.000000 0.207000 0.212000 600 36 1.000000 0.051000 0.051000 1.200000 0.028000 0.033000
1553306318867227338	200 32 0.900000 0.040000 0.036000 1200 31 1.000000 0.132000 0.135000 600 35 1.000000 0.050000 0.050000 1.200000 0.032000 0.038000
1553306319377684547	200 32 0.900000 0.044000 0.040000 1200 31 1.000000 0.143000 0.146000 600 35 1.000000 0.051000 0.051000 1.200000 0.027000 0.032000
1553306319888437255	200 32 0.900000 0.037000 0.033000 1200 31 1.000000 0.130000 0.133000 600 35 1.000000 0.050000 0.050000 1.200000 0.025000 0.030000
1553306320400177880	200 32 0.900000 0.038000 0.034000 1200 31 1.000000 0.132000 0.135000 600 35 1.000000 0.050000 0.050000 1.200000 0.024000 0.028000
1553306320910800963	200 32 0.900000 0.049000 0.044000 1200 31 1.000000 0.237000 0.242000 600 35 1.000000 0.050000 0.050000 1.200000 0.042000 0.050000
1553306321421370297	200 32 0.900000 0.039000 0.035000 1200 31 1.000000 0.129000 0.132000 600 35 1.000000 0.051000 0.051000 1.200000 0.024000 0.028000
1553306321932169547	200 32 0.900000 0.051000 0.046000 1200 31 1.000000 0.137000 0.140000 600 35 1.000000 0.050000 0.050000 1.200000 0.031000 0.037000
1553306322442843130	200 32 0.900000 0.038000 0.034000 1200 31 1.000000 0.135000 0.138000 600 35 1.000000 0.050000 0.050000 1.200000 0.024000 0.028000
1553306322968480422	200 32 0.900000 0.038000 0.034000 1200 31 1.000000 0.145000 0.148000 600 35 1.000000 0.050000 0.050000 1.200000 0.024000 0.028000
1553306323483512214	200 32 0.900000 0.047000 0.042000 1200 31 1.000000 0.256000 0.262000 600 36 1.000000 0.050000 0.050000 1.200000 0.041000 0.049000
1553306323994290506	200 32 0.900000 0.038000 0.034000 1200 31 1.000000 0.155000 0.159000 600 35 1.000000 0.051000 0.051000 1.200000 0.025000 0.030000
1553306324504734256	200 32 0.900000 0.042000 0.038000 1200 31 1.000000 0.139000 0.142000 600 35 1.000000 0.050000 0.050000 1.200000 0.028000 0.033000
1553306325015257297	200 32 0.900000 0.038000 0.034000 1200 31 1.000000 0.138000 0.141000 600 35 1.000000 0.050000 0.050000 1.200000 0.024000 0.028000
1553306325528098589	200 36 0.900000 0.024000 0.021000 1200 31 1.000000 0.259000 0.264000 600 36 1.000000 0.050000 0.050000 1.200000 0.023000 0.027000
1553306326040603714	200 37 0.900000 0.025000 0.022000 1200 32 1.000000 0.884000 0.899000 600 36 1.000000 0.051000 0.051000 1.200000 0.048000 0.057000
1553306326553127298	200 37 0.900000 0.020000 0.018000 1200 32 1.000000 0.817000 0.830000 600 37 1.000000 0.050000 0.050000 1.200000 0.038000 0.045000
1553306327065840173	200 37 0.900000 0.012000 0.010000 1200 33 1.000000 0.845000 0.859000 600 37 1.000000 0.051000 0.051000 1.200000 0.036000 0.043000
1553306327578053881	200 37 0.900000 0.011000 0.010000 1200 33 1.000000 0.812000 0.825000 600 37 1.000000 0.051000 0.051000 1.200000 0.030000 0.036000
1553306328097185339	200 37 0.900000 0.020000 0.018000 1200 33 1.000000 0.863000 0.877000 600 38 1.000000 0.051000 0.051000 1.200000 0.034000 0.041000
1553306328611325464	200 38 0.900000 0.026000 0.023000 1200 33 1.000000 0.835000 0.849000 600 38 1.000000 0.051000 0.051000 1.200000 0.045000 0.054000
1553306329123354756	200 38 0.900000 0.012000 0.010000 1200 33 1.000000 0.815000 0.828000 600 38 1.000000 0.051000 0.051000 1.200000 0.028000 0.033000
1553306329635156673	200 38 0.900000 0.012000 0.010000 1200 33 1.000000 0.821000 0.834000 600 38 1.000000 0.051000 0.051000 1.200000 0.028000 0.033000
1553306330146993256	200 38 0.900000 0.012000 0.010000 1200 33 1.000000 0.833000 0.847000 600 38 1.000000 0.051000 0.051000 1.200000 0.027000 0.032000
1553306330659487548	200 38 0.900000 0.021000 0.019000 1200 34 1.000000 0.874000 0.888000 600 38 1.000000 0.051000 0.051000 1.200000 0.043000 0.051000
1553306331173747006	200 38 0.900000 0.019000 0.017000 1200 34 1.000000 0.829000 0.843000 600 38 1.000000 0.051000 0.051000 1.200000 0.032000 0.038000
1553306331685751840	200 34 0.900000 0.012000 0.010000 1200 33 1.000000 0.160000 0.164000 600 38 1.000000 0.051000 0.051000 1.200000 0.038000 0.045000
1553306332197142673	200 33 0.900000 0.012000 0.010000 1200 32 1.000000 0.152000 0.155000 600 37 1.000000 0.051000 0.051000 1.200000 0.028000 0.033000
