#Timestamp	CPU(0) Frequency(MHz)	CPU(0) Temperature(C)	A7 Voltage(V)	A7 Current(A)	A7 Power(W)	CPU(4) Frequency(MHz)	CPU(4) Temperature(C)	A15 Voltage(V)	A15 Current(A)	A15 Power(W)	GPU Frequency(MHz)	GPU Temperature(C)	GPU Voltage(V)	GPU Current(A)	GPU Power(W)	RAM Voltage(V)	RAM Current(A)	RAM Power(W)
1553297962117565800	900 31 1.000000 0.058000 0.061000 800 31 0.900000 0.387000 0.356000 600 35 1.000000 0.050000 0.050000 1.200000 0.034000 0.041000
1553297962626174467	900 32 1.000000 0.124000 0.131000 800 31 0.900000 0.125000 0.115000 600 35 1.000000 0.050000 0.050000 1.200000 0.040000 0.048000
1553297963134473592	900 32 1.000000 0.125000 0.132000 800 31 0.900000 0.090000 0.083000 600 35 1.000000 0.051000 0.051000 1.200000 0.040000 0.048000
1553297963642838717	900 32 1.000000 0.125000 0.132000 800 31 0.900000 0.091000 0.084000 600 35 1.000000 0.050000 0.050000 1.200000 0.039000 0.047000
1553297964151412801	900 32 1.000000 0.191000 0.201000 800 31 0.900000 0.166000 0.153000 600 35 1.000000 0.050000 0.050000 1.200000 0.031000 0.037000
1553297964660899592	900 33 1.000000 0.242000 0.254000 800 31 0.900000 0.082000 0.075000 600 35 1.000000 0.050000 0.050000 1.200000 0.028000 0.033000
1553297965169536509	900 32 1.000000 0.244000 0.256000 800 31 0.900000 0.081000 0.074000 600 35 1.000000 0.050000 0.050000 1.200000 0.032000 0.038000
1553297965677994217	900 32 1.000000 0.242000 0.253000 800 31 0.900000 0.081000 0.074000 600 35 1.000000 0.050000 0.050000 1.200000 0.029000 0.035000
1553297966186643801	900 32 1.000000 0.242000 0.253000 800 31 0.900000 0.169000 0.156000 600 35 1.000000 0.050000 0.050000 1.200000 0.029000 0.035000
1553297966695015301	900 32 1.000000 0.242000 0.253000 800 32 0.900000 0.086000 0.079000 600 35 1.000000 0.051000 0.051000 1.200000 0.028000 0.033000
1553297967203786176	900 33 1.000000 0.243000 0.254000 800 31 0.900000 0.083000 0.076000 600 35 1.000000 0.050000 0.050000 1.200000 0.034000 0.041000
1553297967712218759	900 33 1.000000 0.243000 0.254000 800 31 0.900000 0.095000 0.087000 600 35 1.000000 0.050000 0.050000 1.200000 0.028000 0.033000
1553297968220966843	900 33 1.000000 0.242000 0.253000 800 32 0.900000 0.095000 0.087000 600 35 1.000000 0.050000 0.050000 1.200000 0.029000 0.035000
1553297968729495843	900 33 1.000000 0.242000 0.253000 800 32 0.900000 0.084000 0.077000 600 35 1.000000 0.051000 0.051000 1.200000 0.031000 0.037000
1553297969238221510	900 33 1.000000 0.244000 0.255000 800 32 0.900000 0.291000 0.269000 600 35 1.000000 0.050000 0.050000 1.200000 0.028000 0.033000
1553297969746865801	900 33 1.000000 0.242000 0.253000 800 32 0.900000 0.094000 0.086000 600 35 1.000000 0.051000 0.051000 1.200000 0.029000 0.035000
1553297970255561426	900 33 1.000000 0.242000 0.253000 800 32 0.900000 0.090000 0.083000 600 35 1.000000 0.050000 0.050000 1.200000 0.029000 0.035000
1553297970764209051	900 33 1.000000 0.242000 0.253000 800 32 0.900000 0.183000 0.169000 600 35 1.000000 0.050000 0.050000 1.200000 0.028000 0.033000
1553297971272787718	900 33 1.000000 0.242000 0.253000 800 32 0.900000 0.092000 0.085000 600 35 1.000000 0.051000 0.051000 1.200000 0.029000 0.035000
1553297971781389510	900 33 1.000000 0.242000 0.253000 800 32 0.900000 0.140000 0.129000 600 35 1.000000 0.050000 0.050000 1.200000 0.028000 0.033000
1553297972290170968	900 33 1.000000 0.242000 0.253000 800 32 0.900000 0.098000 0.090000 600 35 1.000000 0.050000 0.050000 1.200000 0.028000 0.033000
1553297972798790010	900 33 1.000000 0.242000 0.253000 800 32 0.900000 0.087000 0.080000 600 35 1.000000 0.050000 0.050000 1.200000 0.028000 0.033000
1553297973308294760	900 33 1.000000 0.242000 0.253000 800 32 0.900000 0.098000 0.090000 600 36 1.000000 0.050000 0.050000 1.200000 0.028000 0.033000
1553297973817105427	900 33 1.000000 0.242000 0.253000 800 32 0.900000 0.203000 0.187000 600 35 1.000000 0.050000 0.050000 1.200000 0.029000 0.035000
1553297974326026510	900 33 1.000000 0.242000 0.253000 800 32 0.900000 0.086000 0.079000 600 35 1.000000 0.050000 0.050000 1.200000 0.028000 0.033000
1553297974834543635	900 33 1.000000 0.242000 0.253000 800 32 0.900000 0.184000 0.169000 600 35 1.000000 0.051000 0.051000 1.200000 0.033000 0.039000
1553297975343007802	900 33 1.000000 0.242000 0.253000 800 32 0.900000 0.096000 0.088000 600 35 1.000000 0.051000 0.051000 1.200000 0.028000 0.033000
1553297975851627802	900 33 1.000000 0.245000 0.256000 800 32 0.900000 0.143000 0.132000 600 35 1.000000 0.050000 0.050000 1.200000 0.034000 0.041000
1553297976360789594	900 34 1.000000 0.242000 0.253000 800 32 0.900000 0.103000 0.095000 600 35 1.000000 0.050000 0.050000 1.200000 0.029000 0.035000
1553297976869378594	900 33 1.000000 0.242000 0.253000 800 32 0.900000 0.176000 0.162000 600 35 1.000000 0.051000 0.051000 1.200000 0.032000 0.038000
1553297977377810011	900 33 1.000000 0.242000 0.253000 800 32 0.900000 0.089000 0.082000 600 35 1.000000 0.050000 0.050000 1.200000 0.029000 0.035000
1553297977886475261	900 33 1.000000 0.242000 0.253000 800 32 0.900000 0.103000 0.095000 600 35 1.000000 0.050000 0.050000 1.200000 0.032000 0.038000
1553297978395782469	900 33 1.000000 0.242000 0.253000 800 32 0.900000 0.092000 0.085000 600 35 1.000000 0.051000 0.051000 1.200000 0.028000 0.033000
1553297978904553427	900 33 1.000000 0.242000 0.253000 800 32 0.900000 0.176000 0.162000 600 35 1.000000 0.050000 0.050000 1.200000 0.029000 0.035000
1553297979413162052	900 32 1.000000 0.239000 0.250000 800 31 0.900000 0.102000 0.094000 600 35 1.000000 0.050000 0.050000 1.200000 0.026000 0.031000
1553297979921758136	900 32 1.000000 0.126000 0.133000 800 31 0.900000 0.101000 0.093000 600 35 1.000000 0.050000 0.050000 1.200000 0.044000 0.053000
1553297980430681594	900 32 1.000000 0.126000 0.133000 800 31 0.900000 0.098000 0.090000 600 35 1.000000 0.050000 0.050000 1.200000 0.043000 0.051000
1553297980939661178	900 32 1.000000 0.125000 0.132000 800 31 0.900000 0.146000 0.135000 600 35 1.000000 0.050000 0.050000 1.200000 0.044000 0.053000
1553297981448165303	900 32 1.000000 0.126000 0.133000 800 31 0.900000 0.098000 0.090000 600 35 1.000000 0.050000 0.050000 1.200000 0.044000 0.053000
1553297981957438969	900 32 1.000000 0.127000 0.134000 800 31 0.900000 0.110000 0.101000 600 35 1.000000 0.051000 0.051000 1.200000 0.044000 0.053000
1553297982466155969	900 32 1.000000 0.127000 0.134000 800 31 0.900000 0.304000 0.280000 600 35 1.000000 0.051000 0.051000 1.200000 0.047000 0.056000
1553297982974965845	900 32 1.000000 0.125000 0.132000 800 31 0.900000 0.196000 0.180000 600 35 1.000000 0.051000 0.051000 1.200000 0.049000 0.059000
1553297983483662136	900 32 1.000000 0.125000 0.132000 800 31 0.900000 0.116000 0.107000 600 35 1.000000 0.050000 0.050000 1.200000 0.044000 0.053000
1553297983992110386	900 32 1.000000 0.125000 0.132000 800 31 0.900000 0.110000 0.101000 600 35 1.000000 0.050000 0.050000 1.200000 0.044000 0.053000
1553297984500671303	900 32 1.000000 0.126000 0.133000 800 31 0.900000 0.273000 0.251000 600 35 1.000000 0.051000 0.051000 1.200000 0.047000 0.056000
1553297985009322095	900 32 1.000000 0.126000 0.133000 800 31 0.900000 0.197000 0.181000 600 35 1.000000 0.050000 0.050000 1.200000 0.046000 0.055000
1553297985517798970	900 32 1.000000 0.125000 0.132000 800 31 0.900000 0.106000 0.098000 600 35 1.000000 0.050000 0.050000 1.200000 0.044000 0.053000
1553297986025617845	900 32 1.000000 0.125000 0.132000 800 31 0.900000 0.108000 0.099000 600 35 1.000000 0.050000 0.050000 1.200000 0.044000 0.053000
1553297986534060678	900 32 1.000000 0.126000 0.133000 800 31 0.900000 0.216000 0.199000 600 35 1.000000 0.050000 0.050000 1.200000 0.047000 0.056000
1553297987042760012	900 32 1.000000 0.127000 0.134000 800 31 0.900000 0.178000 0.164000 600 35 1.000000 0.050000 0.050000 1.200000 0.045000 0.054000
1553297987550736553	900 32 1.000000 0.127000 0.134000 800 31 0.900000 0.098000 0.090000 600 35 1.000000 0.050000 0.050000 1.200000 0.043000 0.051000
1553297988058488220	900 32 1.000000 0.126000 0.133000 800 31 0.900000 0.096000 0.088000 600 35 1.000000 0.050000 0.050000 1.200000 0.042000 0.050000
1553297988566996637	900 32 1.000000 0.127000 0.134000 800 31 0.900000 0.101000 0.093000 600 35 1.000000 0.050000 0.050000 1.200000 0.042000 0.050000
1553297989075907429	900 32 1.000000 0.127000 0.134000 800 31 0.900000 0.218000 0.201000 600 35 1.000000 0.050000 0.050000 1.200000 0.044000 0.053000
1553297989584339012	900 32 1.000000 0.127000 0.134000 800 31 0.900000 0.103000 0.095000 600 35 1.000000 0.050000 0.050000 1.200000 0.043000 0.051000
1553297990092695804	900 32 1.000000 0.127000 0.134000 800 31 0.900000 0.105000 0.097000 600 35 1.000000 0.051000 0.051000 1.200000 0.043000 0.051000
1553297990601749595	900 32 1.000000 0.127000 0.134000 800 31 0.900000 0.112000 0.103000 600 35 1.000000 0.050000 0.050000 1.200000 0.042000 0.050000
1553297991112162429	900 32 1.000000 0.127000 0.134000 800 31 0.900000 0.311000 0.286000 600 35 1.000000 0.051000 0.051000 1.200000 0.046000 0.055000
1553297991622581637	900 32 1.000000 0.062000 0.065000 800 31 0.900000 0.128000 0.118000 600 35 1.000000 0.051000 0.051000 1.200000 0.031000 0.037000
