#Timestamp	CPU(0) Frequency(MHz)	CPU(0) Temperature(C)	A7 Voltage(V)	A7 Current(A)	A7 Power(W)	CPU(4) Frequency(MHz)	CPU(4) Temperature(C)	A15 Voltage(V)	A15 Current(A)	A15 Power(W)	GPU Frequency(MHz)	GPU Temperature(C)	GPU Voltage(V)	GPU Current(A)	GPU Power(W)	RAM Voltage(V)	RAM Current(A)	RAM Power(W)
1517156544534577047	1100 49 0.900000 0.043000 0.041000 1700 38 1.000000 0.184000 0.192000 600 54 1.000000 0.051000 0.051000 1.200000 0.047000 0.056000
1517156545044201380	1100 55 1.100000 0.471000 0.527000 1700 41 1.100000 4.916000 5.840000 600 61 1.000000 0.051000 0.051000 1.200000 0.025000 0.030000
1517156545553600964	1100 58 1.100000 0.473000 0.529000 1700 44 1.100000 4.994000 5.942000 600 65 1.000000 0.052000 0.052000 1.200000 0.023000 0.027000
1517156546072828131	1100 60 1.100000 0.474000 0.530000 1700 46 1.100000 4.983000 5.919000 600 68 1.000000 0.052000 0.052000 1.200000 0.024000 0.028000
1517156546582389797	1100 62 1.100000 0.485000 0.542000 1700 47 1.100000 5.022000 5.976000 600 70 1.000000 0.053000 0.053000 1.200000 0.024000 0.028000
1517156547091850589	1100 63 1.100000 0.477000 0.533000 1700 49 1.100000 5.030000 5.985000 600 71 1.000000 0.053000 0.053000 1.200000 0.024000 0.028000
1517156547601343297	1100 64 1.100000 0.477000 0.534000 1700 50 1.100000 5.044000 6.002000 600 72 1.000000 0.053000 0.053000 1.200000 0.024000 0.028000
1517156548110790839	1100 65 1.100000 0.477000 0.534000 1700 51 1.100000 5.060000 6.021000 600 74 1.000000 0.053000 0.053000 1.200000 0.023000 0.027000
1517156548620327506	1100 66 1.100000 0.478000 0.535000 1700 52 1.100000 5.073000 6.036000 600 75 1.000000 0.053000 0.053000 1.200000 0.024000 0.028000
1517156549142172006	1100 67 1.100000 0.478000 0.534000 1700 52 1.100000 5.095000 6.063000 600 75 1.000000 0.054000 0.054000 1.200000 0.024000 0.028000
1517156549656653506	1100 68 1.100000 0.479000 0.536000 1700 53 1.100000 5.079000 6.044000 600 76 1.000000 0.054000 0.054000 1.200000 0.025000 0.030000
1517156550166087881	1100 69 1.100000 0.480000 0.536000 1700 54 1.100000 5.101000 6.075000 600 77 1.000000 0.055000 0.055000 1.200000 0.023000 0.027000
1517156550675704631	1100 69 1.100000 0.480000 0.537000 1700 54 1.100000 5.111000 6.082000 600 77 1.000000 0.055000 0.055000 1.200000 0.026000 0.031000
1517156551185404256	1100 69 1.100000 0.482000 0.538000 1700 55 1.100000 5.098000 6.071000 600 78 1.000000 0.054000 0.054000 1.200000 0.025000 0.030000
1517156551694967965	1100 70 1.100000 0.480000 0.536000 1700 55 1.100000 5.119000 6.096000 600 78 1.000000 0.055000 0.055000 1.200000 0.026000 0.031000
1517156552204529215	1100 70 1.100000 0.482000 0.538000 1700 55 1.100000 5.124000 6.097000 600 79 1.000000 0.055000 0.055000 1.200000 0.023000 0.027000
1517156552714016215	1100 71 1.100000 0.486000 0.543000 1700 56 1.100000 5.107000 6.077000 600 79 1.000000 0.055000 0.055000 1.200000 0.025000 0.030000
1517156553223703298	1100 71 1.100000 0.481000 0.537000 1700 56 1.100000 5.138000 6.119000 600 79 1.000000 0.055000 0.055000 1.200000 0.027000 0.032000
1517156553733437465	1100 71 1.100000 0.483000 0.539000 1700 56 1.100000 5.128000 6.102000 600 80 1.000000 0.055000 0.055000 1.200000 0.025000 0.030000
1517156554242891590	1100 72 1.100000 0.482000 0.538000 1700 57 1.100000 5.131000 6.111000 600 80 1.000000 0.055000 0.055000 1.200000 0.025000 0.030000
1517156554752414173	1100 72 1.100000 0.481000 0.537000 1700 57 1.100000 5.127000 6.106000 600 80 1.000000 0.055000 0.055000 1.200000 0.026000 0.031000
1517156555261849632	1100 72 1.100000 0.482000 0.538000 1700 57 1.100000 5.141000 6.122000 600 81 1.000000 0.055000 0.055000 1.200000 0.026000 0.031000
1517156555771280132	1100 72 1.100000 0.499000 0.557000 1700 57 1.100000 5.156000 6.140000 600 81 1.000000 0.055000 0.055000 1.200000 0.024000 0.028000
1517156556280743048	1100 73 1.100000 0.491000 0.548000 1700 58 1.100000 5.148000 6.131000 600 81 1.000000 0.055000 0.055000 1.200000 0.026000 0.031000
1517156556790280090	1100 73 1.100000 0.483000 0.539000 1700 58 1.100000 5.135000 6.115000 600 81 1.000000 0.055000 0.055000 1.200000 0.027000 0.032000
1517156557299854549	1100 73 1.100000 0.484000 0.541000 1700 58 1.100000 5.133000 6.113000 600 81 1.000000 0.055000 0.055000 1.200000 0.025000 0.030000
1517156557809400715	1100 73 1.100000 0.484000 0.541000 1700 58 1.100000 5.169000 6.156000 600 82 1.000000 0.055000 0.055000 1.200000 0.025000 0.030000
1517156558318901382	1100 74 1.100000 0.483000 0.539000 1700 58 1.100000 5.167000 6.153000 600 82 1.000000 0.055000 0.055000 1.200000 0.026000 0.031000
1517156558840972424	1100 74 1.100000 0.483000 0.539000 1700 59 1.100000 5.156000 6.140000 600 82 1.000000 0.055000 0.055000 1.200000 0.024000 0.028000
1517156559352275424	1100 64 1.100000 0.483000 0.539000 1700 57 1.100000 4.864000 5.778000 600 72 1.000000 0.056000 0.056000 1.200000 0.029000 0.034000
1517156559860371841	1100 55 1.100000 0.095000 0.108000 1700 53 1.100000 0.344000 0.401000 600 61 1.000000 0.056000 0.056000 1.200000 0.028000 0.033000
