#Timestamp	CPU(0) Frequency(MHz)	CPU(0) Temperature(C)	A7 Voltage(V)	A7 Current(A)	A7 Power(W)	CPU(4) Frequency(MHz)	CPU(4) Temperature(C)	A15 Voltage(V)	A15 Current(A)	A15 Power(W)	GPU Frequency(MHz)	GPU Temperature(C)	GPU Voltage(V)	GPU Current(A)	GPU Power(W)	RAM Voltage(V)	RAM Current(A)	RAM Power(W)
1517174312384048415	400 32 0.900000 0.025000 0.023000 1000 30 0.900000 0.164000 0.151000 600 34 1.000000 0.050000 0.050000 1.200000 0.038000 0.045000
1517174312892895249	400 33 0.900000 0.018000 0.016000 1000 30 0.900000 0.582000 0.561000 600 34 1.000000 0.050000 0.050000 1.200000 0.054000 0.065000
1517174313401198832	400 33 0.900000 0.017000 0.015000 1000 30 0.900000 0.538000 0.519000 600 34 1.000000 0.050000 0.050000 1.200000 0.033000 0.039000
1517174313909519290	400 34 0.900000 0.020000 0.018000 1000 30 0.900000 0.524000 0.506000 600 35 1.000000 0.050000 0.050000 1.200000 0.033000 0.039000
1517174314417749624	400 34 0.900000 0.017000 0.015000 1000 30 0.900000 0.536000 0.517000 600 35 1.000000 0.050000 0.050000 1.200000 0.033000 0.039000
1517174314926129707	400 34 0.900000 0.017000 0.015000 1000 31 0.900000 0.595000 0.574000 600 35 1.000000 0.050000 0.050000 1.200000 0.033000 0.039000
1517174315435668832	400 33 0.900000 0.017000 0.015000 1000 31 0.900000 0.526000 0.507000 600 35 1.000000 0.050000 0.050000 1.200000 0.031000 0.037000
1517174315943747291	400 35 0.900000 0.111000 0.101000 1000 31 0.900000 0.905000 0.875000 600 36 1.000000 0.050000 0.050000 1.200000 0.029000 0.035000
1517174316451765749	400 35 0.900000 0.143000 0.130000 1000 31 0.900000 0.917000 0.886000 600 37 1.000000 0.051000 0.051000 1.200000 0.037000 0.044000
1517174316960949666	400 35 0.900000 0.144000 0.131000 1000 32 0.900000 0.920000 0.889000 600 36 1.000000 0.050000 0.050000 1.200000 0.037000 0.044000
1517174317469732041	400 35 0.900000 0.144000 0.131000 1000 32 0.900000 0.928000 0.897000 600 37 1.000000 0.050000 0.050000 1.200000 0.035000 0.042000
1517174317980505749	400 36 0.900000 0.145000 0.132000 1000 32 0.900000 0.913000 0.882000 600 38 1.000000 0.050000 0.050000 1.200000 0.037000 0.044000
1517174318488809583	400 36 0.900000 0.138000 0.125000 1000 32 0.900000 1.081000 1.046000 600 37 1.000000 0.050000 0.050000 1.200000 0.045000 0.054000
1517174318997372624	400 36 0.900000 0.142000 0.129000 1000 32 0.900000 1.003000 0.969000 600 37 1.000000 0.050000 0.050000 1.200000 0.042000 0.050000
1517174319505782583	400 36 0.900000 0.144000 0.131000 1000 32 0.900000 0.915000 0.884000 600 37 1.000000 0.050000 0.050000 1.200000 0.038000 0.045000
1517174320014770749	400 36 0.900000 0.147000 0.133000 1000 32 0.900000 0.920000 0.889000 600 37 1.000000 0.050000 0.050000 1.200000 0.034000 0.041000
1517174320524305708	400 36 0.900000 0.139000 0.126000 1000 32 0.900000 1.047000 1.012000 600 39 1.000000 0.050000 0.050000 1.200000 0.043000 0.052000
1517174321032844125	400 36 0.900000 0.145000 0.132000 1000 33 0.900000 0.990000 0.957000 600 37 1.000000 0.050000 0.050000 1.200000 0.040000 0.048000
1517174321541293833	400 36 0.900000 0.144000 0.131000 1000 33 0.900000 0.959000 0.927000 600 37 1.000000 0.051000 0.051000 1.200000 0.033000 0.039000
1517174322049693041	400 36 0.900000 0.149000 0.135000 1000 33 0.900000 0.924000 0.893000 600 37 1.000000 0.051000 0.051000 1.200000 0.037000 0.044000
1517174322559961208	400 36 0.900000 0.150000 0.136000 1000 33 0.900000 0.993000 0.960000 600 39 1.000000 0.050000 0.050000 1.200000 0.043000 0.052000
1517174323068656333	400 36 0.900000 0.142000 0.129000 1000 33 0.900000 0.989000 0.956000 600 38 1.000000 0.051000 0.051000 1.200000 0.037000 0.044000
1517174323577137041	400 37 0.900000 0.144000 0.131000 1000 33 0.900000 0.926000 0.895000 600 38 1.000000 0.051000 0.051000 1.200000 0.033000 0.039000
1517174324086008958	400 36 0.900000 0.148000 0.134000 1000 33 0.900000 0.915000 0.884000 600 38 1.000000 0.051000 0.051000 1.200000 0.037000 0.044000
1517174324595312708	400 37 0.900000 0.153000 0.139000 1000 33 0.900000 0.951000 0.919000 600 38 1.000000 0.051000 0.051000 1.200000 0.041000 0.049000
1517174325103855083	400 37 0.900000 0.145000 0.132000 1000 33 0.900000 0.912000 0.881000 600 38 1.000000 0.050000 0.050000 1.200000 0.030000 0.036000
1517174325612410583	400 37 0.900000 0.144000 0.131000 1000 33 0.900000 0.918000 0.887000 600 38 1.000000 0.051000 0.051000 1.200000 0.039000 0.047000
1517174326120927625	400 37 0.900000 0.144000 0.131000 1000 33 0.900000 0.932000 0.901000 600 38 1.000000 0.050000 0.050000 1.200000 0.038000 0.045000
1517174326630850334	400 37 0.900000 0.144000 0.131000 1000 33 0.900000 0.924000 0.893000 600 39 1.000000 0.050000 0.050000 1.200000 0.039000 0.047000
1517174327140222625	400 37 0.900000 0.138000 0.125000 1000 33 0.900000 1.171000 1.133000 600 38 1.000000 0.050000 0.050000 1.200000 0.044000 0.053000
1517174327648881250	400 37 0.900000 0.146000 0.133000 1000 33 0.900000 0.929000 0.898000 600 38 1.000000 0.051000 0.051000 1.200000 0.038000 0.045000
1517174328157344959	400 37 0.900000 0.144000 0.131000 1000 33 0.900000 0.922000 0.891000 600 38 1.000000 0.050000 0.050000 1.200000 0.037000 0.044000
1517174328665809792	400 37 0.900000 0.145000 0.132000 1000 33 0.900000 0.917000 0.886000 600 38 1.000000 0.051000 0.051000 1.200000 0.036000 0.043000
1517174329174514459	400 37 0.900000 0.140000 0.127000 1000 33 0.900000 1.182000 1.144000 600 38 1.000000 0.050000 0.050000 1.200000 0.043000 0.052000
1517174329685160376	400 37 0.900000 0.153000 0.139000 1000 33 0.900000 0.919000 0.888000 600 38 1.000000 0.051000 0.051000 1.200000 0.037000 0.044000
1517174330194283167	400 37 0.900000 0.145000 0.132000 1000 33 0.900000 0.919000 0.888000 600 38 1.000000 0.051000 0.051000 1.200000 0.037000 0.044000
1517174330702865292	400 37 0.900000 0.144000 0.131000 1000 33 0.900000 0.913000 0.882000 600 38 1.000000 0.051000 0.051000 1.200000 0.031000 0.037000
1517174331211121334	400 37 0.900000 0.140000 0.127000 1000 33 0.900000 1.171000 1.133000 600 38 1.000000 0.050000 0.050000 1.200000 0.046000 0.055000
1517174331719665792	400 37 0.900000 0.146000 0.133000 1000 33 0.900000 0.921000 0.890000 600 38 1.000000 0.051000 0.051000 1.200000 0.037000 0.044000
1517174332228146668	400 37 0.900000 0.145000 0.132000 1000 33 0.900000 0.912000 0.881000 600 38 1.000000 0.051000 0.051000 1.200000 0.034000 0.041000
1517174332736925293	400 37 0.900000 0.144000 0.131000 1000 33 0.900000 0.921000 0.890000 600 38 1.000000 0.051000 0.051000 1.200000 0.032000 0.038000
1517174333244921501	400 37 0.900000 0.144000 0.131000 1000 33 0.900000 0.964000 0.932000 600 39 1.000000 0.051000 0.051000 1.200000 0.042000 0.050000
1517174333753237293	400 37 0.900000 0.152000 0.138000 1000 33 0.900000 0.966000 0.934000 600 38 1.000000 0.051000 0.051000 1.200000 0.035000 0.042000
1517174334261741834	400 37 0.900000 0.145000 0.132000 1000 33 0.900000 0.918000 0.887000 600 38 1.000000 0.051000 0.051000 1.200000 0.038000 0.045000
1517174334770432043	400 37 0.900000 0.144000 0.131000 1000 33 0.900000 0.929000 0.898000 600 38 1.000000 0.051000 0.051000 1.200000 0.037000 0.044000
1517174335280083001	400 37 0.900000 0.145000 0.132000 1000 34 0.900000 1.001000 0.967000 600 39 1.000000 0.051000 0.051000 1.200000 0.041000 0.049000
1517174335788612626	400 37 0.900000 0.138000 0.125000 1000 33 0.900000 1.003000 0.969000 600 38 1.000000 0.051000 0.051000 1.200000 0.030000 0.036000
1517174336297320585	400 37 0.900000 0.149000 0.135000 1000 33 0.900000 0.917000 0.886000 600 38 1.000000 0.051000 0.051000 1.200000 0.037000 0.044000
1517174336805766001	400 37 0.900000 0.144000 0.131000 1000 33 0.900000 0.914000 0.883000 600 38 1.000000 0.051000 0.051000 1.200000 0.037000 0.044000
1517174337314291293	400 37 0.900000 0.144000 0.131000 1000 33 0.900000 0.985000 0.952000 600 38 1.000000 0.051000 0.051000 1.200000 0.042000 0.050000
1517174337825048127	400 37 0.900000 0.138000 0.125000 1000 33 0.900000 1.048000 1.013000 600 38 1.000000 0.051000 0.051000 1.200000 0.039000 0.047000
1517174338334076043	400 37 0.900000 0.149000 0.135000 1000 33 0.900000 0.912000 0.881000 600 38 1.000000 0.051000 0.051000 1.200000 0.037000 0.044000
1517174338842678543	400 37 0.900000 0.147000 0.133000 1000 33 0.900000 0.918000 0.887000 600 38 1.000000 0.051000 0.051000 1.200000 0.038000 0.045000
1517174339351075085	400 37 0.900000 0.144000 0.131000 1000 33 0.900000 0.983000 0.950000 600 38 1.000000 0.051000 0.051000 1.200000 0.033000 0.039000
1517174339859567168	400 37 0.900000 0.144000 0.131000 1000 33 0.900000 0.918000 0.887000 600 39 1.000000 0.051000 0.051000 1.200000 0.037000 0.044000
1517174340370528293	400 37 0.900000 0.145000 0.132000 1000 34 0.900000 0.926000 0.895000 600 38 1.000000 0.051000 0.051000 1.200000 0.042000 0.050000
1517174340879052127	400 37 0.900000 0.151000 0.137000 1000 33 0.900000 0.930000 0.899000 600 38 1.000000 0.051000 0.051000 1.200000 0.038000 0.045000
1517174341387464919	400 37 0.900000 0.144000 0.131000 1000 33 0.900000 0.942000 0.910000 600 38 1.000000 0.051000 0.051000 1.200000 0.038000 0.045000
1517174341895826669	400 37 0.900000 0.145000 0.132000 1000 34 0.900000 0.913000 0.882000 600 39 1.000000 0.051000 0.051000 1.200000 0.039000 0.047000
1517174342404254585	400 37 0.900000 0.138000 0.125000 1000 34 0.900000 0.913000 0.882000 600 38 1.000000 0.051000 0.051000 1.200000 0.042000 0.050000
1517174342912859419	400 37 0.900000 0.144000 0.131000 1000 33 0.900000 0.913000 0.882000 600 38 1.000000 0.051000 0.051000 1.200000 0.038000 0.045000
1517174343421247794	400 37 0.900000 0.144000 0.131000 1000 34 0.900000 0.977000 0.944000 600 38 1.000000 0.051000 0.051000 1.200000 0.035000 0.042000
1517174343931886127	400 37 0.900000 0.148000 0.134000 1000 33 0.900000 0.916000 0.885000 600 39 1.000000 0.050000 0.050000 1.200000 0.038000 0.045000
1517174344440445127	400 37 0.900000 0.142000 0.129000 1000 34 0.900000 0.919000 0.888000 600 38 1.000000 0.051000 0.051000 1.200000 0.043000 0.052000
1517174344949278544	400 37 0.900000 0.146000 0.133000 1000 33 0.900000 0.914000 0.883000 600 38 1.000000 0.051000 0.051000 1.200000 0.033000 0.039000
1517174345457744669	400 37 0.900000 0.150000 0.136000 1000 33 0.900000 0.980000 0.947000 600 38 1.000000 0.051000 0.051000 1.200000 0.038000 0.045000
1517174345966004711	400 37 0.900000 0.147000 0.133000 1000 34 0.900000 0.944000 0.912000 600 38 1.000000 0.051000 0.051000 1.200000 0.038000 0.045000
1517174346474430628	400 37 0.900000 0.148000 0.134000 1000 34 0.900000 0.936000 0.905000 600 39 1.000000 0.051000 0.051000 1.200000 0.038000 0.045000
1517174346982975086	400 37 0.900000 0.149000 0.135000 1000 34 0.900000 0.942000 0.910000 600 38 1.000000 0.051000 0.051000 1.200000 0.035000 0.042000
1517174347493981336	400 37 0.900000 0.148000 0.134000 1000 34 0.900000 0.943000 0.911000 600 39 1.000000 0.050000 0.050000 1.200000 0.038000 0.045000
1517174348002899211	400 37 0.900000 0.148000 0.134000 1000 34 0.900000 0.942000 0.910000 600 38 1.000000 0.051000 0.051000 1.200000 0.041000 0.049000
1517174348511283544	400 37 0.900000 0.153000 0.139000 1000 34 0.900000 1.099000 1.062000 600 39 1.000000 0.051000 0.051000 1.200000 0.036000 0.043000
1517174349020020461	400 37 0.900000 0.149000 0.135000 1000 34 0.900000 0.956000 0.924000 600 38 1.000000 0.051000 0.051000 1.200000 0.037000 0.044000
1517174349528275336	400 37 0.900000 0.148000 0.134000 1000 34 0.900000 0.947000 0.915000 600 39 1.000000 0.050000 0.050000 1.200000 0.038000 0.045000
1517174350036925003	400 37 0.900000 0.148000 0.134000 1000 34 0.900000 1.009000 0.975000 600 38 1.000000 0.051000 0.051000 1.200000 0.037000 0.044000
1517174350544883128	400 37 0.900000 0.153000 0.139000 1000 34 0.900000 0.945000 0.913000 600 39 1.000000 0.051000 0.051000 1.200000 0.033000 0.039000
1517174351053188420	400 37 0.900000 0.149000 0.135000 1000 34 0.900000 0.997000 0.964000 600 38 1.000000 0.051000 0.051000 1.200000 0.039000 0.047000
1517174351561547461	400 37 0.900000 0.150000 0.136000 1000 34 0.900000 0.935000 0.904000 600 39 1.000000 0.051000 0.051000 1.200000 0.037000 0.044000
1517174352070033837	400 37 0.900000 0.148000 0.134000 1000 34 0.900000 0.945000 0.913000 600 39 1.000000 0.051000 0.051000 1.200000 0.034000 0.041000
1517174352579558087	400 37 0.900000 0.147000 0.133000 1000 34 0.900000 0.942000 0.910000 600 40 1.000000 0.051000 0.051000 1.200000 0.038000 0.045000
1517174353088234670	400 37 0.900000 0.152000 0.138000 1000 34 0.900000 1.018000 0.984000 600 39 1.000000 0.050000 0.050000 1.200000 0.038000 0.045000
1517174353596267962	400 37 0.900000 0.149000 0.135000 1000 34 0.900000 0.955000 0.923000 600 39 1.000000 0.051000 0.051000 1.200000 0.037000 0.044000
1517174354104954462	400 37 0.900000 0.149000 0.135000 1000 34 0.900000 1.020000 0.986000 600 39 1.000000 0.051000 0.051000 1.200000 0.038000 0.045000
1517174354615744629	400 37 0.900000 0.149000 0.135000 1000 34 0.900000 0.937000 0.906000 600 39 1.000000 0.051000 0.051000 1.200000 0.037000 0.044000
1517174355124140504	400 37 0.900000 0.144000 0.131000 1000 34 0.900000 1.000000 0.967000 600 39 1.000000 0.051000 0.051000 1.200000 0.041000 0.049000
1517174355632313962	400 37 0.900000 0.155000 0.141000 1000 34 0.900000 0.949000 0.917000 600 39 1.000000 0.051000 0.051000 1.200000 0.038000 0.045000
1517174356141202629	400 37 0.900000 0.148000 0.134000 1000 34 0.900000 1.018000 0.984000 600 39 1.000000 0.051000 0.051000 1.200000 0.035000 0.042000
1517174356649662795	400 37 0.900000 0.148000 0.134000 1000 34 0.900000 0.950000 0.918000 600 39 1.000000 0.051000 0.051000 1.200000 0.038000 0.045000
1517174357158085337	400 38 0.900000 0.142000 0.129000 1000 34 0.900000 0.960000 0.928000 600 39 1.000000 0.051000 0.051000 1.200000 0.040000 0.048000
1517174357666090046	400 37 0.900000 0.149000 0.135000 1000 34 0.900000 0.943000 0.911000 600 39 1.000000 0.051000 0.051000 1.200000 0.032000 0.038000
1517174358174719004	400 37 0.900000 0.152000 0.138000 1000 34 0.900000 1.008000 0.974000 600 39 1.000000 0.051000 0.051000 1.200000 0.038000 0.045000
1517174358683161587	400 37 0.900000 0.148000 0.134000 1000 34 0.900000 0.935000 0.904000 600 38 1.000000 0.051000 0.051000 1.200000 0.037000 0.044000
1517174359191174879	400 37 0.900000 0.140000 0.127000 1000 34 0.900000 0.955000 0.923000 600 39 1.000000 0.051000 0.051000 1.200000 0.038000 0.045000
1517174359700308921	400 37 0.900000 0.150000 0.136000 1000 34 0.900000 0.943000 0.911000 600 40 1.000000 0.051000 0.051000 1.200000 0.034000 0.041000
1517174360208878421	400 37 0.900000 0.148000 0.134000 1000 34 0.900000 0.932000 0.901000 600 39 1.000000 0.051000 0.051000 1.200000 0.037000 0.044000
1517174360717355129	400 38 0.900000 0.152000 0.138000 1000 34 0.900000 0.931000 0.900000 600 39 1.000000 0.051000 0.051000 1.200000 0.037000 0.044000
1517174361226928129	400 37 0.900000 0.147000 0.133000 1000 34 0.900000 0.947000 0.915000 600 40 1.000000 0.051000 0.051000 1.200000 0.037000 0.044000
1517174361739933213	400 37 0.900000 0.139000 0.126000 1000 34 0.900000 1.112000 1.075000 600 40 1.000000 0.051000 0.051000 1.200000 0.037000 0.044000
1517174362249284129	400 37 0.900000 0.147000 0.133000 1000 34 0.900000 1.013000 0.979000 600 39 1.000000 0.051000 0.051000 1.200000 0.041000 0.049000
1517174362757680338	400 37 0.900000 0.147000 0.133000 1000 34 0.900000 0.945000 0.913000 600 39 1.000000 0.051000 0.051000 1.200000 0.038000 0.045000
1517174363269131421	400 37 0.900000 0.152000 0.138000 1000 34 0.900000 0.933000 0.902000 600 39 1.000000 0.050000 0.050000 1.200000 0.036000 0.043000
1517174363778985296	400 37 0.900000 0.139000 0.126000 1000 34 0.900000 1.119000 1.083000 600 39 1.000000 0.051000 0.051000 1.200000 0.042000 0.050000
1517174364287547005	400 37 0.900000 0.148000 0.134000 1000 34 0.900000 1.022000 0.988000 600 39 1.000000 0.051000 0.051000 1.200000 0.040000 0.048000
1517174364796623921	400 37 0.900000 0.147000 0.133000 1000 34 0.900000 0.945000 0.913000 600 39 1.000000 0.051000 0.051000 1.200000 0.036000 0.043000
1517174365305254713	400 38 0.900000 0.152000 0.138000 1000 34 0.900000 0.937000 0.906000 600 39 1.000000 0.051000 0.051000 1.200000 0.032000 0.038000
1517174365813817922	400 37 0.900000 0.139000 0.126000 1000 34 0.900000 1.101000 1.065000 600 39 1.000000 0.051000 0.051000 1.200000 0.043000 0.052000
1517174366322427755	400 37 0.900000 0.147000 0.133000 1000 34 0.900000 1.008000 0.974000 600 39 1.000000 0.051000 0.051000 1.200000 0.038000 0.045000
1517174366830912172	400 37 0.900000 0.147000 0.133000 1000 34 0.900000 0.928000 0.897000 600 39 1.000000 0.051000 0.051000 1.200000 0.034000 0.041000
1517174367339360338	400 38 0.900000 0.147000 0.133000 1000 34 0.900000 0.928000 0.897000 600 39 1.000000 0.051000 0.051000 1.200000 0.036000 0.043000
1517174367847557547	400 38 0.900000 0.152000 0.138000 1000 34 0.900000 1.037000 1.002000 600 39 1.000000 0.051000 0.051000 1.200000 0.043000 0.052000
1517174368356330547	400 37 0.900000 0.144000 0.131000 1000 34 0.900000 1.077000 1.041000 600 39 1.000000 0.051000 0.051000 1.200000 0.040000 0.048000
1517174368866610880	400 37 0.900000 0.149000 0.135000 1000 34 0.900000 0.940000 0.908000 600 39 1.000000 0.051000 0.051000 1.200000 0.035000 0.042000
1517174369375099589	400 37 0.900000 0.147000 0.133000 1000 34 0.900000 0.931000 0.900000 600 39 1.000000 0.051000 0.051000 1.200000 0.038000 0.045000
1517174369885562547	400 38 0.900000 0.147000 0.133000 1000 34 0.900000 0.942000 0.910000 600 40 1.000000 0.051000 0.051000 1.200000 0.037000 0.044000
1517174370394634380	400 37 0.900000 0.147000 0.133000 1000 34 0.900000 1.124000 1.088000 600 39 1.000000 0.051000 0.051000 1.200000 0.042000 0.050000
1517174370903205797	400 37 0.900000 0.147000 0.133000 1000 34 0.900000 0.925000 0.894000 600 39 1.000000 0.051000 0.051000 1.200000 0.032000 0.038000
1517174371411602339	400 38 0.900000 0.147000 0.133000 1000 34 0.900000 0.936000 0.905000 600 39 1.000000 0.051000 0.051000 1.200000 0.037000 0.044000
1517174371923074964	400 37 0.900000 0.147000 0.133000 1000 34 0.900000 0.940000 0.908000 600 39 1.000000 0.051000 0.051000 1.200000 0.036000 0.043000
1517174372431959881	400 38 0.900000 0.142000 0.129000 1000 34 0.900000 1.139000 1.102000 600 39 1.000000 0.051000 0.051000 1.200000 0.041000 0.049000
1517174372940477672	400 38 0.900000 0.152000 0.138000 1000 34 0.900000 0.922000 0.891000 600 39 1.000000 0.051000 0.051000 1.200000 0.037000 0.044000
1517174373448909839	400 38 0.900000 0.145000 0.132000 1000 34 0.900000 0.929000 0.898000 600 39 1.000000 0.051000 0.051000 1.200000 0.037000 0.044000
1517174373957436506	400 38 0.900000 0.147000 0.133000 1000 34 0.900000 0.937000 0.906000 600 39 1.000000 0.051000 0.051000 1.200000 0.037000 0.044000
1517174374465722089	400 38 0.900000 0.140000 0.127000 1000 34 0.900000 1.189000 1.150000 600 39 1.000000 0.051000 0.051000 1.200000 0.037000 0.044000
1517174374974115048	400 37 0.900000 0.148000 0.134000 1000 34 0.900000 0.923000 0.892000 600 39 1.000000 0.051000 0.051000 1.200000 0.036000 0.043000
1517174375483206423	400 37 0.900000 0.151000 0.137000 1000 34 0.900000 0.928000 0.897000 600 39 1.000000 0.050000 0.050000 1.200000 0.039000 0.047000
1517174375991650631	400 37 0.900000 0.145000 0.132000 1000 34 0.900000 0.947000 0.915000 600 39 1.000000 0.051000 0.051000 1.200000 0.037000 0.044000
1517174376499612964	400 38 0.900000 0.148000 0.134000 1000 34 0.900000 0.949000 0.917000 600 39 1.000000 0.051000 0.051000 1.200000 0.035000 0.042000
1517174377008058381	400 38 0.900000 0.145000 0.132000 1000 34 0.900000 0.934000 0.903000 600 39 1.000000 0.051000 0.051000 1.200000 0.036000 0.043000
1517174377518550881	400 37 0.900000 0.146000 0.133000 1000 34 0.900000 0.942000 0.910000 600 39 1.000000 0.051000 0.051000 1.200000 0.036000 0.043000
1517174378027514965	400 38 0.900000 0.153000 0.139000 1000 34 0.900000 0.926000 0.895000 600 39 1.000000 0.051000 0.051000 1.200000 0.035000 0.042000
1517174378537973465	400 38 0.900000 0.145000 0.132000 1000 34 0.900000 0.998000 0.965000 600 40 1.000000 0.051000 0.051000 1.200000 0.041000 0.049000
1517174379047524548	400 37 0.900000 0.147000 0.133000 1000 34 0.900000 0.931000 0.900000 600 39 1.000000 0.051000 0.051000 1.200000 0.037000 0.044000
1517174379556110006	400 37 0.900000 0.146000 0.133000 1000 34 0.900000 0.928000 0.897000 600 39 1.000000 0.051000 0.051000 1.200000 0.036000 0.043000
1517174380064625715	400 37 0.900000 0.146000 0.133000 1000 34 0.900000 0.922000 0.891000 600 39 1.000000 0.051000 0.051000 1.200000 0.030000 0.036000
1517174380572973132	400 38 0.900000 0.155000 0.141000 1000 34 0.900000 0.999000 0.966000 600 39 1.000000 0.051000 0.051000 1.200000 0.038000 0.045000
1517174381081441007	400 38 0.900000 0.139000 0.126000 1000 34 0.900000 0.980000 0.947000 600 39 1.000000 0.051000 0.051000 1.200000 0.043000 0.052000
1517174381589813548	400 38 0.900000 0.145000 0.132000 1000 34 0.900000 0.917000 0.886000 600 39 1.000000 0.051000 0.051000 1.200000 0.038000 0.045000
1517174382098263173	400 38 0.900000 0.148000 0.134000 1000 34 0.900000 0.922000 0.891000 600 39 1.000000 0.051000 0.051000 1.200000 0.031000 0.037000
1517174382606868465	400 38 0.900000 0.148000 0.134000 1000 34 0.900000 0.924000 0.893000 600 39 1.000000 0.051000 0.051000 1.200000 0.037000 0.044000
1517174383115754049	400 37 0.900000 0.154000 0.140000 1000 34 0.900000 1.026000 0.992000 600 39 1.000000 0.051000 0.051000 1.200000 0.042000 0.050000
1517174383624371882	400 38 0.900000 0.145000 0.132000 1000 34 0.900000 0.930000 0.899000 600 39 1.000000 0.051000 0.051000 1.200000 0.039000 0.047000
1517174384132796215	400 38 0.900000 0.144000 0.131000 1000 34 0.900000 0.914000 0.883000 600 39 1.000000 0.051000 0.051000 1.200000 0.032000 0.038000
1517174384643920799	400 37 0.900000 0.149000 0.135000 1000 34 0.900000 0.931000 0.900000 600 39 1.000000 0.051000 0.051000 1.200000 0.038000 0.045000
1517174385152445757	400 38 0.900000 0.143000 0.130000 1000 34 0.900000 0.954000 0.922000 600 39 1.000000 0.051000 0.051000 1.200000 0.038000 0.045000
1517174385660938091	400 38 0.900000 0.148000 0.134000 1000 34 0.900000 0.918000 0.887000 600 39 1.000000 0.051000 0.051000 1.200000 0.036000 0.043000
1517174386169663882	400 38 0.900000 0.147000 0.133000 1000 34 0.900000 0.917000 0.886000 600 39 1.000000 0.051000 0.051000 1.200000 0.038000 0.045000
1517174386677986549	400 38 0.900000 0.147000 0.133000 1000 34 0.900000 0.987000 0.954000 600 39 1.000000 0.051000 0.051000 1.200000 0.037000 0.044000
1517174387188469466	400 38 0.900000 0.144000 0.131000 1000 34 0.900000 0.921000 0.890000 600 40 1.000000 0.051000 0.051000 1.200000 0.036000 0.043000
1517174387697006424	400 38 0.900000 0.141000 0.128000 1000 34 0.900000 0.917000 0.887000 600 39 1.000000 0.051000 0.051000 1.200000 0.034000 0.041000
1517174388205430424	400 38 0.900000 0.147000 0.133000 1000 34 0.900000 0.930000 0.899000 600 39 1.000000 0.051000 0.051000 1.200000 0.038000 0.045000
1517174388713976716	400 38 0.900000 0.144000 0.131000 1000 34 0.900000 0.925000 0.894000 600 39 1.000000 0.051000 0.051000 1.200000 0.037000 0.044000
1517174389222382466	400 38 0.900000 0.147000 0.133000 1000 34 0.900000 0.943000 0.911000 600 39 1.000000 0.051000 0.051000 1.200000 0.036000 0.043000
1517174389730814299	400 38 0.900000 0.142000 0.129000 1000 34 0.900000 0.922000 0.891000 600 39 1.000000 0.051000 0.051000 1.200000 0.031000 0.037000
1517174390239345091	400 37 0.900000 0.150000 0.136000 1000 34 0.900000 0.924000 0.893000 600 39 1.000000 0.050000 0.050000 1.200000 0.038000 0.045000
1517174390747573383	400 38 0.900000 0.149000 0.135000 1000 34 0.900000 0.934000 0.903000 600 39 1.000000 0.051000 0.051000 1.200000 0.038000 0.045000
1517174391255870883	400 38 0.900000 0.148000 0.134000 1000 34 0.900000 0.993000 0.961000 600 39 1.000000 0.051000 0.051000 1.200000 0.041000 0.049000
1517174391765721800	400 37 0.900000 0.140000 0.127000 1000 34 0.900000 0.933000 0.902000 600 39 1.000000 0.051000 0.051000 1.200000 0.037000 0.044000
1517174392274934550	400 38 0.900000 0.141000 0.128000 1000 34 0.900000 0.929000 0.898000 600 39 1.000000 0.051000 0.051000 1.200000 0.037000 0.044000
1517174392783255425	400 38 0.900000 0.150000 0.136000 1000 34 0.900000 0.928000 0.897000 600 39 1.000000 0.051000 0.051000 1.200000 0.036000 0.043000
1517174393292033633	400 37 0.900000 0.148000 0.134000 1000 34 0.900000 1.016000 0.983000 600 39 1.000000 0.051000 0.051000 1.200000 0.031000 0.037000
1517174393805430425	400 38 0.900000 0.147000 0.133000 1000 34 0.900000 0.925000 0.894000 600 41 1.000000 0.051000 0.051000 1.200000 0.037000 0.044000
1517174394313942342	400 38 0.900000 0.144000 0.131000 1000 34 0.900000 1.031000 0.998000 600 39 1.000000 0.051000 0.051000 1.200000 0.041000 0.049000
1517174394822130883	400 38 0.900000 0.148000 0.134000 1000 34 0.900000 0.930000 0.899000 600 39 1.000000 0.050000 0.050000 1.200000 0.035000 0.042000
1517174395330654425	400 38 0.900000 0.155000 0.141000 1000 34 0.900000 0.938000 0.907000 600 39 1.000000 0.051000 0.051000 1.200000 0.038000 0.045000
1517174395839253800	400 38 0.900000 0.148000 0.134000 1000 34 0.900000 0.920000 0.889000 600 40 1.000000 0.051000 0.051000 1.200000 0.037000 0.044000
1517174396347965883	400 38 0.900000 0.146000 0.133000 1000 34 0.900000 1.001000 0.967000 600 39 1.000000 0.051000 0.051000 1.200000 0.037000 0.044000
1517174396856096634	400 38 0.900000 0.147000 0.133000 1000 34 0.900000 0.924000 0.893000 600 39 1.000000 0.051000 0.051000 1.200000 0.029000 0.035000
1517174397364444300	400 38 0.900000 0.146000 0.133000 1000 34 0.900000 0.999000 0.966000 600 39 1.000000 0.050000 0.050000 1.200000 0.041000 0.049000
1517174397872918550	400 38 0.900000 0.155000 0.141000 1000 34 0.900000 0.937000 0.906000 600 39 1.000000 0.051000 0.051000 1.200000 0.038000 0.045000
1517174398381374717	400 38 0.900000 0.149000 0.135000 1000 34 0.900000 0.992000 0.959000 600 39 1.000000 0.051000 0.051000 1.200000 0.042000 0.050000
1517174398892888342	400 38 0.900000 0.145000 0.132000 1000 34 0.900000 0.929000 0.898000 600 40 1.000000 0.051000 0.051000 1.200000 0.030000 0.036000
1517174399401980176	400 38 0.900000 0.145000 0.132000 1000 34 0.900000 1.005000 0.971000 600 39 1.000000 0.051000 0.051000 1.200000 0.041000 0.049000
1517174399910521967	400 38 0.900000 0.148000 0.134000 1000 34 0.900000 0.934000 0.903000 600 39 1.000000 0.051000 0.051000 1.200000 0.038000 0.045000
1517174400419199967	400 38 0.900000 0.153000 0.139000 1000 34 0.900000 0.954000 0.922000 600 39 1.000000 0.050000 0.050000 1.200000 0.040000 0.048000
1517174400927819634	400 38 0.900000 0.145000 0.132000 1000 34 0.900000 0.933000 0.902000 600 40 1.000000 0.051000 0.051000 1.200000 0.037000 0.044000
1517174401436491717	400 38 0.900000 0.147000 0.133000 1000 34 0.900000 0.995000 0.962000 600 39 1.000000 0.051000 0.051000 1.200000 0.039000 0.047000
1517174401945341926	400 38 0.900000 0.148000 0.134000 1000 34 0.900000 0.929000 0.898000 600 39 1.000000 0.051000 0.051000 1.200000 0.037000 0.044000
1517174402453583426	400 38 0.900000 0.140000 0.127000 1000 34 0.900000 0.909000 0.879000 600 39 1.000000 0.051000 0.051000 1.200000 0.033000 0.039000
1517174402962393301	400 38 0.900000 0.148000 0.134000 1000 34 0.900000 0.917000 0.886000 600 39 1.000000 0.051000 0.051000 1.200000 0.036000 0.043000
1517174403470920301	400 38 0.900000 0.149000 0.135000 1000 34 0.900000 0.934000 0.903000 600 39 1.000000 0.051000 0.051000 1.200000 0.036000 0.043000
1517174403979222759	400 38 0.900000 0.148000 0.134000 1000 34 0.900000 0.925000 0.894000 600 39 1.000000 0.051000 0.051000 1.200000 0.036000 0.043000
1517174404489166884	400 38 0.900000 0.145000 0.132000 1000 34 0.900000 0.922000 0.891000 600 40 1.000000 0.051000 0.051000 1.200000 0.033000 0.039000
1517174404997663551	400 38 0.900000 0.144000 0.131000 1000 34 0.900000 1.107000 1.071000 600 39 1.000000 0.051000 0.051000 1.200000 0.043000 0.052000
1517174405506300510	400 38 0.900000 0.148000 0.134000 1000 34 0.900000 1.000000 0.967000 600 39 1.000000 0.051000 0.051000 1.200000 0.041000 0.049000
1517174406016845593	400 37 0.900000 0.147000 0.133000 1000 34 0.900000 0.926000 0.895000 600 39 1.000000 0.051000 0.051000 1.200000 0.038000 0.045000
1517174406525292218	400 37 0.900000 0.147000 0.133000 1000 34 0.900000 0.933000 0.902000 600 39 1.000000 0.051000 0.051000 1.200000 0.036000 0.043000
1517174407033734343	400 38 0.900000 0.139000 0.126000 1000 34 0.900000 1.113000 1.077000 600 39 1.000000 0.051000 0.051000 1.200000 0.043000 0.051000
1517174407542664843	400 38 0.900000 0.148000 0.134000 1000 34 0.900000 0.997000 0.964000 600 39 1.000000 0.050000 0.050000 1.200000 0.040000 0.048000
1517174408051149260	400 38 0.900000 0.150000 0.136000 1000 34 0.900000 0.934000 0.903000 600 39 1.000000 0.051000 0.051000 1.200000 0.030000 0.036000
1517174408559572843	400 38 0.900000 0.147000 0.133000 1000 34 0.900000 0.920000 0.889000 600 39 1.000000 0.051000 0.051000 1.200000 0.037000 0.044000
1517174409067688843	400 38 0.900000 0.139000 0.126000 1000 34 0.900000 1.059000 1.024000 600 39 1.000000 0.051000 0.051000 1.200000 0.042000 0.050000
1517174409575986510	400 38 0.900000 0.148000 0.134000 1000 34 0.900000 1.001000 0.967000 600 39 1.000000 0.051000 0.051000 1.200000 0.039000 0.047000
1517174410084399468	400 38 0.900000 0.156000 0.142000 1000 34 0.900000 0.919000 0.888000 600 39 1.000000 0.051000 0.051000 1.200000 0.035000 0.042000
1517174410593011927	400 38 0.900000 0.145000 0.132000 1000 34 0.900000 0.918000 0.887000 600 39 1.000000 0.051000 0.051000 1.200000 0.036000 0.043000
1517174411101066969	400 38 0.900000 0.145000 0.132000 1000 34 0.900000 0.933000 0.902000 600 40 1.000000 0.051000 0.051000 1.200000 0.037000 0.044000
1517174411609440552	400 38 0.900000 0.137000 0.124000 1000 34 0.900000 1.058000 1.024000 600 39 1.000000 0.051000 0.051000 1.200000 0.042000 0.050000
1517174412117800052	400 38 0.900000 0.149000 0.135000 1000 34 0.900000 0.938000 0.907000 600 39 1.000000 0.051000 0.051000 1.200000 0.036000 0.043000
1517174412626487344	400 38 0.900000 0.147000 0.133000 1000 34 0.900000 0.931000 0.900000 600 39 1.000000 0.051000 0.051000 1.200000 0.037000 0.044000
1517174413139291760	400 37 0.900000 0.149000 0.135000 1000 34 0.900000 0.928000 0.897000 600 40 1.000000 0.051000 0.051000 1.200000 0.037000 0.044000
1517174413647845469	400 38 0.900000 0.136000 0.124000 1000 34 0.900000 1.112000 1.076000 600 39 1.000000 0.051000 0.051000 1.200000 0.037000 0.044000
1517174414156278011	400 38 0.900000 0.148000 0.134000 1000 34 0.900000 0.936000 0.905000 600 39 1.000000 0.051000 0.051000 1.200000 0.037000 0.044000
1517174414665459427	400 38 0.900000 0.147000 0.133000 1000 34 0.900000 0.923000 0.892000 600 39 1.000000 0.051000 0.051000 1.200000 0.036000 0.043000
1517174415174504136	400 38 0.900000 0.155000 0.141000 1000 34 0.900000 0.927000 0.896000 600 39 1.000000 0.051000 0.051000 1.200000 0.036000 0.043000
1517174415683034052	400 38 0.900000 0.135000 0.122000 1000 34 0.900000 1.155000 1.118000 600 39 1.000000 0.051000 0.051000 1.200000 0.043000 0.052000
1517174416191453844	400 38 0.900000 0.147000 0.133000 1000 34 0.900000 0.922000 0.891000 600 39 1.000000 0.051000 0.051000 1.200000 0.037000 0.044000
1517174416700432636	400 38 0.900000 0.147000 0.133000 1000 34 0.900000 0.923000 0.892000 600 39 1.000000 0.051000 0.051000 1.200000 0.037000 0.044000
1517174417208876803	400 38 0.900000 0.147000 0.133000 1000 34 0.900000 0.918000 0.887000 600 39 1.000000 0.051000 0.051000 1.200000 0.031000 0.037000
1517174417717165594	400 38 0.900000 0.153000 0.139000 1000 34 0.900000 1.165000 1.127000 600 39 1.000000 0.051000 0.051000 1.200000 0.046000 0.055000
1517174418225627928	400 38 0.900000 0.137000 0.124000 1000 34 0.900000 0.919000 0.888000 600 39 1.000000 0.051000 0.051000 1.200000 0.037000 0.044000
1517174418734354719	400 38 0.900000 0.148000 0.134000 1000 34 0.900000 0.924000 0.893000 600 39 1.000000 0.051000 0.051000 1.200000 0.038000 0.045000
1517174419242862720	400 38 0.900000 0.147000 0.133000 1000 34 0.900000 0.930000 0.899000 600 39 1.000000 0.051000 0.051000 1.200000 0.033000 0.039000
1517174419750821261	400 38 0.900000 0.142000 0.129000 1000 34 0.900000 0.932000 0.901000 600 40 1.000000 0.051000 0.051000 1.200000 0.039000 0.047000
1517174420262034261	400 37 0.900000 0.145000 0.132000 1000 34 0.900000 0.915000 0.884000 600 39 1.000000 0.051000 0.051000 1.200000 0.036000 0.043000
1517174420771071803	400 38 0.900000 0.142000 0.129000 1000 34 0.900000 0.912000 0.881000 600 39 1.000000 0.051000 0.051000 1.200000 0.035000 0.042000
1517174421279559428	400 38 0.900000 0.146000 0.133000 1000 34 0.900000 0.923000 0.892000 600 39 1.000000 0.051000 0.051000 1.200000 0.035000 0.042000
1517174421791179678	400 38 0.900000 0.147000 0.133000 1000 34 0.900000 1.000000 0.967000 600 40 1.000000 0.051000 0.051000 1.200000 0.042000 0.050000
1517174422300271428	400 38 0.900000 0.140000 0.127000 1000 34 0.900000 0.953000 0.921000 600 39 1.000000 0.051000 0.051000 1.200000 0.043000 0.052000
1517174422808876970	400 38 0.900000 0.150000 0.136000 1000 34 0.900000 0.921000 0.890000 600 39 1.000000 0.051000 0.051000 1.200000 0.036000 0.043000
1517174423318060720	400 38 0.900000 0.147000 0.133000 1000 34 0.900000 0.919000 0.888000 600 39 1.000000 0.051000 0.051000 1.200000 0.035000 0.042000
1517174423826556595	400 38 0.900000 0.145000 0.132000 1000 34 0.900000 0.994000 0.961000 600 39 1.000000 0.051000 0.051000 1.200000 0.038000 0.045000
1517174424334986720	400 38 0.900000 0.137000 0.124000 1000 34 0.900000 0.992000 0.959000 600 39 1.000000 0.051000 0.051000 1.200000 0.042000 0.050000
1517174424843514304	400 38 0.900000 0.147000 0.133000 1000 34 0.900000 0.919000 0.888000 600 39 1.000000 0.051000 0.051000 1.200000 0.031000 0.037000
1517174425351892304	400 38 0.900000 0.150000 0.136000 1000 34 0.900000 0.919000 0.888000 600 39 1.000000 0.051000 0.051000 1.200000 0.039000 0.047000
1517174425860243679	400 38 0.900000 0.146000 0.133000 1000 34 0.900000 0.931000 0.900000 600 39 1.000000 0.051000 0.051000 1.200000 0.037000 0.044000
1517174426368597595	400 38 0.900000 0.147000 0.133000 1000 34 0.900000 0.982000 0.949000 600 39 1.000000 0.051000 0.051000 1.200000 0.041000 0.049000
1517174426877274887	400 38 0.900000 0.144000 0.131000 1000 34 0.900000 0.920000 0.889000 600 39 1.000000 0.051000 0.051000 1.200000 0.034000 0.041000
1517174427386951429	400 37 0.900000 0.147000 0.133000 1000 34 0.900000 0.926000 0.895000 600 39 1.000000 0.050000 0.050000 1.200000 0.038000 0.045000
1517174427895214971	400 38 0.900000 0.149000 0.135000 1000 34 0.900000 0.928000 0.897000 600 39 1.000000 0.051000 0.051000 1.200000 0.038000 0.045000
1517174428403898887	400 38 0.900000 0.147000 0.133000 1000 34 0.900000 1.016000 0.983000 600 40 1.000000 0.051000 0.051000 1.200000 0.040000 0.048000
1517174428912879512	400 38 0.900000 0.145000 0.132000 1000 34 0.900000 1.084000 1.049000 600 39 1.000000 0.051000 0.051000 1.200000 0.039000 0.047000
1517174429421486804	400 38 0.900000 0.147000 0.133000 1000 34 0.900000 0.930000 0.899000 600 39 1.000000 0.051000 0.051000 1.200000 0.037000 0.044000
1517174429929712137	400 38 0.900000 0.147000 0.133000 1000 34 0.900000 0.935000 0.904000 600 39 1.000000 0.051000 0.051000 1.200000 0.037000 0.044000
1517174430441148554	400 38 0.900000 0.143000 0.130000 1000 34 0.900000 0.920000 0.889000 600 39 1.000000 0.051000 0.051000 1.200000 0.032000 0.038000
1517174430950122763	400 38 0.900000 0.136000 0.124000 1000 34 0.900000 1.107000 1.071000 600 39 1.000000 0.051000 0.051000 1.200000 0.044000 0.053000
1517174431458633721	400 38 0.900000 0.147000 0.133000 1000 34 0.900000 0.940000 0.908000 600 39 1.000000 0.051000 0.051000 1.200000 0.039000 0.047000
1517174431966800596	400 38 0.900000 0.147000 0.133000 1000 34 0.900000 0.933000 0.902000 600 39 1.000000 0.051000 0.051000 1.200000 0.036000 0.043000
1517174432475345346	400 38 0.900000 0.154000 0.140000 1000 34 0.900000 0.921000 0.890000 600 39 1.000000 0.051000 0.051000 1.200000 0.034000 0.041000
1517174432983665221	400 38 0.900000 0.149000 0.135000 1000 34 0.900000 0.935000 0.904000 600 39 1.000000 0.051000 0.051000 1.200000 0.038000 0.045000
1517174433492076346	400 38 0.900000 0.145000 0.132000 1000 34 0.900000 0.919000 0.888000 600 39 1.000000 0.051000 0.051000 1.200000 0.038000 0.045000
1517174434000551971	400 38 0.900000 0.143000 0.130000 1000 34 0.900000 0.933000 0.902000 600 40 1.000000 0.051000 0.051000 1.200000 0.037000 0.044000
1517174434508932846	400 37 0.900000 0.146000 0.133000 1000 34 0.900000 0.999000 0.966000 600 39 1.000000 0.051000 0.051000 1.200000 0.039000 0.047000
1517174435017080930	400 38 0.900000 0.153000 0.139000 1000 34 0.900000 0.927000 0.896000 600 39 1.000000 0.051000 0.051000 1.200000 0.037000 0.044000
1517174435525305471	400 38 0.900000 0.147000 0.133000 1000 34 0.900000 0.944000 0.912000 600 39 1.000000 0.051000 0.051000 1.200000 0.038000 0.045000
1517174436034762013	400 38 0.900000 0.147000 0.133000 1000 34 0.900000 0.925000 0.894000 600 40 1.000000 0.051000 0.051000 1.200000 0.032000 0.038000
1517174436543694847	400 38 0.900000 0.146000 0.133000 1000 34 0.900000 1.008000 0.974000 600 39 1.000000 0.051000 0.051000 1.200000 0.039000 0.047000
1517174437052347763	400 38 0.900000 0.148000 0.134000 1000 34 0.900000 0.936000 0.905000 600 40 1.000000 0.051000 0.051000 1.200000 0.037000 0.044000
1517174437561343888	400 38 0.900000 0.145000 0.132000 1000 34 0.900000 0.979000 0.946000 600 39 1.000000 0.051000 0.051000 1.200000 0.037000 0.044000
1517174438070012430	400 38 0.900000 0.147000 0.133000 1000 34 0.900000 0.934000 0.903000 600 39 1.000000 0.051000 0.051000 1.200000 0.034000 0.041000
1517174438578733055	400 38 0.900000 0.147000 0.133000 1000 34 0.900000 0.942000 0.910000 600 39 1.000000 0.051000 0.051000 1.200000 0.038000 0.045000
1517174439088508264	400 38 0.900000 0.148000 0.134000 1000 34 0.900000 0.922000 0.891000 600 40 1.000000 0.051000 0.051000 1.200000 0.037000 0.044000
1517174439597359930	400 34 0.900000 0.018000 0.016000 1000 33 0.900000 0.239000 0.232000 600 38 1.000000 0.051000 0.051000 1.200000 0.025000 0.030000
1517174440105519055	400 33 0.900000 0.018000 0.016000 1000 33 0.900000 0.121000 0.118000 600 37 1.000000 0.051000 0.051000 1.200000 0.023000 0.027000
