#Timestamp	CPU(0) Frequency(MHz)	CPU(0) Temperature(C)	A7 Voltage(V)	A7 Current(A)	A7 Power(W)	CPU(4) Frequency(MHz)	CPU(4) Temperature(C)	A15 Voltage(V)	A15 Current(A)	A15 Power(W)	GPU Frequency(MHz)	GPU Temperature(C)	GPU Voltage(V)	GPU Current(A)	GPU Power(W)	RAM Voltage(V)	RAM Current(A)	RAM Power(W)
1559813840791805068	900 36 1.000000 0.096000 0.101000 1100 33 0.900000 0.340000 0.339000 600 37 1.000000 0.050000 0.050000 1.200000 0.051000 0.061000
1559813841302191943	900 37 1.000000 0.042000 0.044000 1100 33 0.900000 0.649000 0.643000 600 38 1.000000 0.051000 0.051000 1.200000 0.046000 0.055000
1559813841812114235	900 37 1.000000 0.049000 0.052000 1100 34 0.900000 0.649000 0.643000 600 38 1.000000 0.050000 0.050000 1.200000 0.050000 0.060000
1559813842322160527	900 38 1.000000 0.041000 0.043000 1100 34 0.900000 0.625000 0.619000 600 38 1.000000 0.051000 0.051000 1.200000 0.041000 0.049000
1559813842832007652	900 38 1.000000 0.059000 0.062000 1100 34 0.900000 0.624000 0.618000 600 38 1.000000 0.051000 0.051000 1.200000 0.030000 0.036000
1559813843342086193	900 38 1.000000 0.042000 0.044000 1100 34 0.900000 0.620000 0.614000 600 38 1.000000 0.051000 0.051000 1.200000 0.029000 0.035000
1559813843851897360	900 38 1.000000 0.059000 0.062000 1100 34 0.900000 0.617000 0.611000 600 38 1.000000 0.051000 0.051000 1.200000 0.030000 0.036000
1559813844361862152	900 38 1.000000 0.043000 0.045000 1100 34 0.900000 0.616000 0.610000 600 38 1.000000 0.051000 0.051000 1.200000 0.030000 0.036000
1559813844884620610	900 38 1.000000 0.042000 0.044000 1100 35 0.900000 0.618000 0.612000 600 39 1.000000 0.051000 0.051000 1.200000 0.029000 0.035000
1559813845395993819	900 39 1.000000 0.068000 0.072000 1100 35 0.900000 0.620000 0.614000 600 39 1.000000 0.051000 0.051000 1.200000 0.032000 0.038000
1559813845905882485	900 39 1.000000 0.055000 0.058000 1100 35 0.900000 0.619000 0.613000 600 39 1.000000 0.050000 0.050000 1.200000 0.027000 0.032000
1559813846415644152	900 38 1.000000 0.040000 0.042000 1100 35 0.900000 0.617000 0.611000 600 39 1.000000 0.051000 0.051000 1.200000 0.027000 0.032000
1559813846936872277	900 38 1.000000 0.040000 0.042000 1100 35 0.900000 0.617000 0.611000 600 39 1.000000 0.051000 0.051000 1.200000 0.027000 0.032000
1559813847468548861	900 39 1.000000 0.071000 0.075000 1100 35 0.900000 0.623000 0.617000 600 39 1.000000 0.051000 0.051000 1.200000 0.041000 0.049000
1559813847979002986	900 39 1.000000 0.040000 0.042000 1100 35 0.900000 0.620000 0.614000 600 39 1.000000 0.051000 0.051000 1.200000 0.027000 0.032000
1559813848488674444	900 39 1.000000 0.040000 0.042000 1100 35 0.900000 0.618000 0.612000 600 39 1.000000 0.051000 0.051000 1.200000 0.028000 0.033000
1559813848998608236	900 39 1.000000 0.040000 0.042000 1100 35 0.900000 0.616000 0.610000 600 39 1.000000 0.051000 0.051000 1.200000 0.028000 0.033000
1559813849524729986	900 39 1.000000 0.069000 0.073000 1100 35 0.900000 0.625000 0.619000 600 39 1.000000 0.051000 0.051000 1.200000 0.047000 0.056000
1559813850039005777	900 39 1.000000 0.062000 0.065000 1100 35 0.900000 0.614000 0.608000 600 39 1.000000 0.051000 0.051000 1.200000 0.027000 0.032000
1559813850548720153	900 39 1.000000 0.041000 0.043000 1100 35 0.900000 0.610000 0.604000 600 39 1.000000 0.050000 0.050000 1.200000 0.029000 0.035000
1559813851058597694	900 39 1.000000 0.041000 0.043000 1100 35 0.900000 0.610000 0.604000 600 39 1.000000 0.051000 0.051000 1.200000 0.029000 0.035000
1559813851596697569	900 39 1.000000 0.044000 0.046000 1100 35 0.900000 0.608000 0.602000 600 39 1.000000 0.051000 0.051000 1.200000 0.028000 0.033000
1559813852106779111	900 39 1.000000 0.091000 0.096000 1100 35 0.900000 0.635000 0.629000 600 39 1.000000 0.051000 0.051000 1.200000 0.037000 0.044000
1559813852616552153	900 39 1.000000 0.043000 0.045000 1100 35 0.900000 0.611000 0.605000 600 39 1.000000 0.051000 0.051000 1.200000 0.028000 0.033000
1559813853126498236	900 39 1.000000 0.040000 0.042000 1100 35 0.900000 0.610000 0.604000 600 39 1.000000 0.051000 0.051000 1.200000 0.028000 0.033000
1559813853652092945	900 39 1.000000 0.043000 0.045000 1100 35 0.900000 0.609000 0.603000 600 39 1.000000 0.051000 0.051000 1.200000 0.029000 0.035000
1559813854163902403	900 39 1.000000 0.089000 0.094000 1100 35 0.900000 0.629000 0.623000 600 39 1.000000 0.051000 0.051000 1.200000 0.045000 0.054000
1559813854673812361	900 39 1.000000 0.041000 0.043000 1100 35 0.900000 0.611000 0.605000 600 39 1.000000 0.051000 0.051000 1.200000 0.028000 0.033000
1559813855183835028	900 39 1.000000 0.040000 0.042000 1100 35 0.900000 0.614000 0.608000 600 39 1.000000 0.051000 0.051000 1.200000 0.028000 0.033000
1559813855693915153	900 39 1.000000 0.040000 0.042000 1100 35 0.900000 0.611000 0.605000 600 39 1.000000 0.051000 0.051000 1.200000 0.028000 0.033000
1559813856203754820	900 39 1.000000 0.045000 0.047000 1100 35 0.900000 0.614000 0.608000 600 39 1.000000 0.051000 0.051000 1.200000 0.048000 0.058000
1559813856713734112	900 39 1.000000 0.043000 0.045000 1100 35 0.900000 0.613000 0.607000 600 39 1.000000 0.051000 0.051000 1.200000 0.029000 0.035000
1559813857223420862	900 39 1.000000 0.040000 0.042000 1100 35 0.900000 0.614000 0.608000 600 39 1.000000 0.051000 0.051000 1.200000 0.028000 0.033000
1559813857733088903	900 39 1.000000 0.042000 0.044000 1100 35 0.900000 0.612000 0.606000 600 39 1.000000 0.051000 0.051000 1.200000 0.028000 0.033000
1559813858254395195	900 39 1.000000 0.061000 0.064000 1100 35 0.900000 0.615000 0.609000 600 39 1.000000 0.051000 0.051000 1.200000 0.040000 0.048000
1559813858767050362	900 39 1.000000 0.040000 0.042000 1100 35 0.900000 0.614000 0.608000 600 39 1.000000 0.051000 0.051000 1.200000 0.027000 0.032000
1559813859276898529	900 39 1.000000 0.040000 0.042000 1100 35 0.900000 0.610000 0.604000 600 39 1.000000 0.051000 0.051000 1.200000 0.027000 0.032000
1559813859786807737	900 39 1.000000 0.040000 0.042000 1100 35 0.900000 0.612000 0.606000 600 39 1.000000 0.051000 0.051000 1.200000 0.027000 0.032000
1559813860303687445	900 39 1.000000 0.043000 0.045000 1100 35 0.900000 0.611000 0.605000 600 39 1.000000 0.051000 0.051000 1.200000 0.030000 0.036000
1559813860818791362	900 39 1.000000 0.085000 0.090000 1100 35 0.900000 0.618000 0.612000 600 39 1.000000 0.051000 0.051000 1.200000 0.048000 0.057000
1559813861328614362	900 39 1.000000 0.043000 0.045000 1100 35 0.900000 0.609000 0.603000 600 39 1.000000 0.051000 0.051000 1.200000 0.029000 0.035000
1559813861838615071	900 39 1.000000 0.043000 0.045000 1100 35 0.900000 0.615000 0.609000 600 39 1.000000 0.051000 0.051000 1.200000 0.029000 0.035000
1559813862348355529	900 39 1.000000 0.058000 0.061000 1100 35 0.900000 0.613000 0.607000 600 39 1.000000 0.051000 0.051000 1.200000 0.034000 0.041000
1559813862858393154	900 39 1.000000 0.044000 0.046000 1100 35 0.900000 0.610000 0.604000 600 39 1.000000 0.051000 0.051000 1.200000 0.045000 0.054000
1559813863368205696	900 39 1.000000 0.042000 0.044000 1100 35 0.900000 0.609000 0.603000 600 39 1.000000 0.051000 0.051000 1.200000 0.027000 0.032000
1559813863878134446	900 39 1.000000 0.042000 0.044000 1100 35 0.900000 0.610000 0.604000 600 39 1.000000 0.051000 0.051000 1.200000 0.030000 0.036000
1559813864388010113	900 39 1.000000 0.043000 0.045000 1100 35 0.900000 0.610000 0.604000 600 39 1.000000 0.051000 0.051000 1.200000 0.029000 0.035000
1559813864898231279	900 39 1.000000 0.041000 0.043000 1100 35 0.900000 0.612000 0.606000 600 39 1.000000 0.051000 0.051000 1.200000 0.029000 0.035000
1559813865408042529	900 39 1.000000 0.043000 0.045000 1100 35 0.900000 0.614000 0.608000 600 39 1.000000 0.051000 0.051000 1.200000 0.038000 0.045000
1559813865917977946	900 39 1.000000 0.040000 0.042000 1100 35 0.900000 0.608000 0.602000 600 39 1.000000 0.050000 0.050000 1.200000 0.028000 0.033000
1559813866427836946	900 39 1.000000 0.054000 0.057000 1100 35 0.900000 0.609000 0.603000 600 39 1.000000 0.051000 0.051000 1.200000 0.028000 0.033000
1559813866948686529	900 39 1.000000 0.040000 0.042000 1100 35 0.900000 0.612000 0.606000 600 39 1.000000 0.051000 0.051000 1.200000 0.028000 0.033000
1559813867462405488	900 39 1.000000 0.043000 0.045000 1100 35 0.900000 0.621000 0.615000 600 39 1.000000 0.051000 0.051000 1.200000 0.046000 0.055000
1559813867972284155	900 39 1.000000 0.040000 0.042000 1100 35 0.900000 0.607000 0.601000 600 39 1.000000 0.051000 0.051000 1.200000 0.029000 0.035000
1559813868482204280	900 39 1.000000 0.060000 0.063000 1100 35 0.900000 0.612000 0.606000 600 39 1.000000 0.051000 0.051000 1.200000 0.028000 0.033000
1559813868991931321	900 39 1.000000 0.060000 0.063000 1100 35 0.900000 0.612000 0.606000 600 39 1.000000 0.051000 0.051000 1.200000 0.035000 0.042000
1559813869501904488	900 39 1.000000 0.043000 0.045000 1100 35 0.900000 0.613000 0.607000 600 39 1.000000 0.051000 0.051000 1.200000 0.030000 0.036000
1559813870011819447	900 39 1.000000 0.044000 0.046000 1100 35 0.900000 0.609000 0.603000 600 39 1.000000 0.051000 0.051000 1.200000 0.029000 0.035000
1559813870521595988	900 39 1.000000 0.041000 0.043000 1100 35 0.900000 0.609000 0.603000 600 39 1.000000 0.051000 0.051000 1.200000 0.028000 0.033000
1559813871031476863	900 39 1.000000 0.055000 0.058000 1100 35 0.900000 0.608000 0.602000 600 39 1.000000 0.051000 0.051000 1.200000 0.035000 0.042000
1559813871541438488	900 39 1.000000 0.041000 0.043000 1100 35 0.900000 0.610000 0.604000 600 39 1.000000 0.051000 0.051000 1.200000 0.029000 0.035000
1559813872051333322	900 39 1.000000 0.044000 0.046000 1100 35 0.900000 0.615000 0.609000 600 39 1.000000 0.051000 0.051000 1.200000 0.037000 0.044000
1559813872561190530	900 39 1.000000 0.043000 0.045000 1100 35 0.900000 0.610000 0.604000 600 39 1.000000 0.051000 0.051000 1.200000 0.027000 0.032000
1559813873071050114	900 39 1.000000 0.040000 0.042000 1100 35 0.900000 0.610000 0.604000 600 39 1.000000 0.051000 0.051000 1.200000 0.032000 0.038000
1559813873596953155	900 39 1.000000 0.040000 0.042000 1100 35 0.900000 0.609000 0.603000 600 39 1.000000 0.051000 0.051000 1.200000 0.028000 0.033000
1559813874106802947	900 39 1.000000 0.043000 0.045000 1100 35 0.900000 0.621000 0.615000 600 39 1.000000 0.051000 0.051000 1.200000 0.044000 0.053000
1559813874617011989	900 39 1.000000 0.041000 0.043000 1100 35 0.900000 0.609000 0.603000 600 39 1.000000 0.051000 0.051000 1.200000 0.030000 0.036000
1559813875126835322	900 39 1.000000 0.061000 0.064000 1100 35 0.900000 0.607000 0.601000 600 39 1.000000 0.051000 0.051000 1.200000 0.029000 0.035000
1559813875636442864	900 39 1.000000 0.041000 0.043000 1100 35 0.900000 0.607000 0.601000 600 39 1.000000 0.051000 0.051000 1.200000 0.028000 0.033000
1559813876146468072	900 39 1.000000 0.083000 0.088000 1100 35 0.900000 0.628000 0.622000 600 39 1.000000 0.051000 0.051000 1.200000 0.046000 0.055000
1559813876677546197	900 39 1.000000 0.046000 0.048000 1100 35 0.900000 0.611000 0.605000 600 39 1.000000 0.051000 0.051000 1.200000 0.029000 0.035000
1559813877187333489	900 39 1.000000 0.040000 0.042000 1100 35 0.900000 0.608000 0.602000 600 39 1.000000 0.051000 0.051000 1.200000 0.027000 0.032000
1559813877696994614	900 39 1.000000 0.041000 0.043000 1100 35 0.900000 0.609000 0.603000 600 39 1.000000 0.051000 0.051000 1.200000 0.028000 0.033000
1559813878206747406	900 39 1.000000 0.043000 0.045000 1100 35 0.900000 0.608000 0.602000 600 39 1.000000 0.051000 0.051000 1.200000 0.028000 0.033000
1559813878732637906	900 39 1.000000 0.042000 0.044000 1100 35 0.900000 0.609000 0.603000 600 39 1.000000 0.051000 0.051000 1.200000 0.033000 0.039000
1559813879242765239	900 39 1.000000 0.062000 0.065000 1100 35 0.900000 0.618000 0.612000 600 39 1.000000 0.051000 0.051000 1.200000 0.036000 0.043000
1559813879752555114	900 39 1.000000 0.042000 0.044000 1100 35 0.900000 0.609000 0.603000 600 39 1.000000 0.051000 0.051000 1.200000 0.027000 0.032000
1559813880272539114	900 39 1.000000 0.040000 0.042000 1100 35 0.900000 0.607000 0.601000 600 39 1.000000 0.051000 0.051000 1.200000 0.027000 0.032000
1559813880809088073	900 39 1.000000 0.043000 0.045000 1100 35 0.900000 0.612000 0.606000 600 39 1.000000 0.051000 0.051000 1.200000 0.040000 0.048000
1559813881319226823	900 39 1.000000 0.040000 0.042000 1100 35 0.900000 0.615000 0.609000 600 39 1.000000 0.051000 0.051000 1.200000 0.035000 0.042000
1559813881828893781	900 39 1.000000 0.041000 0.043000 1100 35 0.900000 0.610000 0.604000 600 39 1.000000 0.051000 0.051000 1.200000 0.029000 0.035000
1559813882350419156	900 39 1.000000 0.044000 0.046000 1100 35 0.900000 0.608000 0.602000 600 39 1.000000 0.051000 0.051000 1.200000 0.029000 0.035000
1559813882892728781	900 39 1.000000 0.081000 0.086000 1100 35 0.900000 0.620000 0.614000 600 39 1.000000 0.051000 0.051000 1.200000 0.049000 0.059000
1559813883402916448	900 39 1.000000 0.062000 0.065000 1100 35 0.900000 0.611000 0.605000 600 39 1.000000 0.051000 0.051000 1.200000 0.034000 0.041000
1559813883912609448	900 39 1.000000 0.041000 0.043000 1100 35 0.900000 0.612000 0.606000 600 39 1.000000 0.051000 0.051000 1.200000 0.027000 0.032000
1559813884422479698	900 39 1.000000 0.043000 0.045000 1100 35 0.900000 0.609000 0.603000 600 39 1.000000 0.051000 0.051000 1.200000 0.031000 0.037000
1559813884932189740	900 39 1.000000 0.080000 0.084000 1100 35 0.900000 0.632000 0.626000 600 39 1.000000 0.051000 0.051000 1.200000 0.045000 0.054000
1559813885444568073	900 39 1.000000 0.053000 0.056000 1100 35 0.900000 0.601000 0.595000 600 42 1.000000 0.051000 0.051000 1.200000 0.085000 0.103000
1559813885957435573	900 42 1.000000 0.238000 0.250000 1100 37 0.900000 2.004000 1.999000 600 46 1.000000 0.051000 0.051000 1.200000 0.101000 0.122000
1559813886470171198	900 43 1.000000 0.239000 0.250000 1100 38 0.900000 2.005000 2.000000 600 47 1.000000 0.051000 0.051000 1.200000 0.100000 0.121000
1559813886988900490	900 44 1.000000 0.267000 0.279000 1100 38 0.900000 1.995000 1.991000 600 48 1.000000 0.051000 0.051000 1.200000 0.106000 0.128000
1559813887501876282	900 44 1.000000 0.239000 0.250000 1100 39 0.900000 2.007000 2.002000 600 49 1.000000 0.051000 0.051000 1.200000 0.102000 0.123000
1559813888014860865	900 45 1.000000 0.241000 0.253000 1100 39 0.900000 2.008000 2.003000 600 49 1.000000 0.051000 0.051000 1.200000 0.100000 0.121000
1559813888527958157	900 45 1.000000 0.241000 0.253000 1100 40 0.900000 2.008000 2.003000 600 50 1.000000 0.051000 0.051000 1.200000 0.101000 0.122000
1559813889054398199	900 45 1.000000 0.242000 0.254000 1100 40 0.900000 2.007000 2.002000 600 50 1.000000 0.051000 0.051000 1.200000 0.102000 0.123000
1559813889567529949	900 46 1.000000 0.259000 0.271000 1100 40 0.900000 2.007000 2.002000 600 50 1.000000 0.052000 0.052000 1.200000 0.114000 0.138000
1559813890080093116	900 46 1.000000 0.242000 0.254000 1100 41 0.900000 2.008000 2.003000 600 51 1.000000 0.052000 0.052000 1.200000 0.101000 0.122000
1559813890592799824	900 46 1.000000 0.242000 0.254000 1100 41 0.900000 2.011000 2.004000 600 51 1.000000 0.051000 0.051000 1.200000 0.101000 0.122000
1559813891105574032	900 46 1.000000 0.242000 0.254000 1100 41 0.900000 2.011000 2.006000 600 51 1.000000 0.052000 0.052000 1.200000 0.101000 0.122000
1559813891633588657	900 47 1.000000 0.249000 0.260000 1100 41 0.900000 2.010000 2.005000 600 51 1.000000 0.052000 0.052000 1.200000 0.103000 0.124000
1559813892149589657	900 47 1.000000 0.249000 0.261000 1100 41 0.900000 2.003000 1.998000 600 51 1.000000 0.052000 0.052000 1.200000 0.103000 0.124000
1559813892662297824	900 47 1.000000 0.242000 0.254000 1100 42 0.900000 2.012000 2.005000 600 52 1.000000 0.052000 0.052000 1.200000 0.101000 0.122000
1559813893175159866	900 47 1.000000 0.240000 0.252000 1100 42 0.900000 2.013000 2.008000 600 52 1.000000 0.052000 0.052000 1.200000 0.100000 0.121000
1559813893702626283	900 47 1.000000 0.259000 0.271000 1100 42 0.900000 2.013000 2.006000 600 52 1.000000 0.052000 0.052000 1.200000 0.104000 0.126000
1559813894215671491	900 47 1.000000 0.261000 0.273000 1100 42 0.900000 2.007000 2.002000 600 52 1.000000 0.052000 0.052000 1.200000 0.111000 0.134000
1559813894728230533	900 47 1.000000 0.243000 0.254000 1100 42 0.900000 2.014000 2.009000 600 52 1.000000 0.052000 0.052000 1.200000 0.100000 0.121000
1559813895241103700	900 47 1.000000 0.242000 0.253000 1100 42 0.900000 2.014000 2.009000 600 52 1.000000 0.052000 0.052000 1.200000 0.100000 0.121000
1559813895754379408	900 47 1.000000 0.243000 0.254000 1100 42 0.900000 2.013000 2.008000 600 52 1.000000 0.052000 0.052000 1.200000 0.105000 0.127000
1559813896267090908	900 48 1.000000 0.256000 0.268000 1100 42 0.900000 2.012000 2.007000 600 52 1.000000 0.052000 0.052000 1.200000 0.112000 0.135000
1559813896780207741	900 48 1.000000 0.242000 0.254000 1100 42 0.900000 2.014000 2.009000 600 52 1.000000 0.052000 0.052000 1.200000 0.101000 0.122000
1559813897293004700	900 48 1.000000 0.242000 0.254000 1100 42 0.900000 2.015000 2.010000 600 53 1.000000 0.052000 0.052000 1.200000 0.100000 0.121000
1559813897805613492	900 48 1.000000 0.252000 0.264000 1100 43 0.900000 2.016000 2.011000 600 53 1.000000 0.052000 0.052000 1.200000 0.104000 0.126000
1559813898333829700	900 48 1.000000 0.246000 0.258000 1100 43 0.900000 2.017000 2.012000 600 53 1.000000 0.052000 0.052000 1.200000 0.104000 0.126000
1559813898846944825	900 48 1.000000 0.241000 0.252000 1100 43 0.900000 2.013000 2.008000 600 53 1.000000 0.052000 0.052000 1.200000 0.100000 0.121000
1559813899359725033	900 48 1.000000 0.242000 0.254000 1100 43 0.900000 2.015000 2.008000 600 53 1.000000 0.052000 0.052000 1.200000 0.100000 0.121000
1559813899872679242	900 48 1.000000 0.243000 0.255000 1100 43 0.900000 2.017000 2.012000 600 53 1.000000 0.052000 0.052000 1.200000 0.101000 0.122000
1559813900385511658	900 48 1.000000 0.243000 0.254000 1100 43 0.900000 2.013000 2.008000 600 53 1.000000 0.052000 0.052000 1.200000 0.101000 0.122000
1559813900898175367	900 48 1.000000 0.244000 0.256000 1100 43 0.900000 2.014000 2.009000 600 53 1.000000 0.052000 0.052000 1.200000 0.112000 0.135000
1559813901411011659	900 48 1.000000 0.247000 0.259000 1100 43 0.900000 2.016000 2.011000 600 53 1.000000 0.052000 0.052000 1.200000 0.100000 0.121000
1559813901923814450	900 48 1.000000 0.244000 0.256000 1100 43 0.900000 2.017000 2.012000 600 53 1.000000 0.052000 0.052000 1.200000 0.100000 0.121000
1559813902436472575	900 48 1.000000 0.263000 0.275000 1100 43 0.900000 2.015000 2.010000 600 53 1.000000 0.052000 0.052000 1.200000 0.101000 0.122000
1559813902958542200	900 49 1.000000 0.244000 0.255000 1100 43 0.900000 2.018000 2.013000 600 53 1.000000 0.053000 0.053000 1.200000 0.105000 0.127000
1559813903475844534	900 49 1.000000 0.255000 0.267000 1100 43 0.900000 2.014000 2.009000 600 53 1.000000 0.052000 0.052000 1.200000 0.101000 0.122000
1559813903988510034	900 49 1.000000 0.246000 0.257000 1100 43 0.900000 2.015000 2.010000 600 53 1.000000 0.053000 0.053000 1.200000 0.101000 0.122000
1559813904501213242	900 49 1.000000 0.245000 0.256000 1100 43 0.900000 2.014000 2.009000 600 53 1.000000 0.052000 0.052000 1.200000 0.106000 0.128000
1559813905027122576	900 49 1.000000 0.244000 0.255000 1100 43 0.900000 2.015000 2.010000 600 54 1.000000 0.053000 0.053000 1.200000 0.103000 0.124000
1559813905540260701	900 49 1.000000 0.264000 0.276000 1100 43 0.900000 2.005000 2.000000 600 54 1.000000 0.052000 0.052000 1.200000 0.112000 0.135000
1559813906073096701	900 49 1.000000 0.243000 0.254000 1100 44 0.900000 2.014000 2.009000 600 53 1.000000 0.052000 0.052000 1.200000 0.103000 0.124000
1559813906588699909	900 49 1.000000 0.242000 0.253000 1100 44 0.900000 2.016000 2.011000 600 54 1.000000 0.052000 0.052000 1.200000 0.106000 0.128000
1559813907101601326	900 49 1.000000 0.244000 0.256000 1100 44 0.900000 2.015000 2.010000 600 54 1.000000 0.052000 0.052000 1.200000 0.102000 0.123000
1559813907614338118	900 49 1.000000 0.251000 0.263000 1100 44 0.900000 2.009000 2.004000 600 54 1.000000 0.052000 0.052000 1.200000 0.104000 0.126000
1559813908149766826	900 49 1.000000 0.244000 0.256000 1100 44 0.900000 2.017000 2.012000 600 54 1.000000 0.052000 0.052000 1.200000 0.102000 0.123000
1559813908662719368	900 49 1.000000 0.257000 0.269000 1100 44 0.900000 2.016000 2.011000 600 54 1.000000 0.053000 0.053000 1.200000 0.106000 0.128000
1559813909175849076	900 49 1.000000 0.242000 0.254000 1100 44 0.900000 2.018000 2.013000 600 54 1.000000 0.052000 0.052000 1.200000 0.102000 0.123000
1559813909701627576	900 49 1.000000 0.242000 0.254000 1100 44 0.900000 2.016000 2.011000 600 54 1.000000 0.052000 0.052000 1.200000 0.102000 0.123000
1559813910240523868	900 49 1.000000 0.242000 0.253000 1100 44 0.900000 2.018000 2.013000 600 54 1.000000 0.053000 0.053000 1.200000 0.107000 0.129000
1559813910753237285	900 49 1.000000 0.242000 0.254000 1100 44 0.900000 2.016000 2.011000 600 54 1.000000 0.052000 0.052000 1.200000 0.105000 0.127000
1559813911265865201	900 49 1.000000 0.242000 0.254000 1100 44 0.900000 2.018000 2.013000 600 54 1.000000 0.052000 0.052000 1.200000 0.102000 0.123000
1559813911786747202	900 49 1.000000 0.242000 0.253000 1100 44 0.900000 2.018000 2.013000 600 54 1.000000 0.052000 0.052000 1.200000 0.102000 0.123000
1559813912301773577	900 49 1.000000 0.252000 0.264000 1100 44 0.900000 2.011000 2.006000 600 54 1.000000 0.052000 0.052000 1.200000 0.116000 0.140000
1559813912814601160	900 49 1.000000 0.262000 0.274000 1100 44 0.900000 2.018000 2.013000 600 54 1.000000 0.053000 0.053000 1.200000 0.105000 0.127000
1559813913327598327	900 49 1.000000 0.242000 0.254000 1100 44 0.900000 2.019000 2.014000 600 54 1.000000 0.053000 0.053000 1.200000 0.102000 0.123000
1559813913840295535	900 49 1.000000 0.244000 0.256000 1100 44 0.900000 2.016000 2.011000 600 54 1.000000 0.052000 0.052000 1.200000 0.102000 0.123000
1559813914352903868	900 49 1.000000 0.245000 0.257000 1100 44 0.900000 2.016000 2.011000 600 54 1.000000 0.053000 0.053000 1.200000 0.102000 0.123000
1559813914865830494	900 49 1.000000 0.271000 0.284000 1100 44 0.900000 2.014000 2.009000 600 54 1.000000 0.052000 0.052000 1.200000 0.111000 0.134000
1559813915378884744	900 49 1.000000 0.244000 0.256000 1100 44 0.900000 2.017000 2.012000 600 54 1.000000 0.052000 0.052000 1.200000 0.102000 0.123000
1559813915892024369	900 49 1.000000 0.243000 0.254000 1100 44 0.900000 2.018000 2.013000 600 54 1.000000 0.052000 0.052000 1.200000 0.102000 0.123000
1559813916417546410	900 49 1.000000 0.244000 0.256000 1100 44 0.900000 2.017000 2.012000 600 54 1.000000 0.053000 0.053000 1.200000 0.102000 0.123000
1559813916930280077	900 49 1.000000 0.285000 0.298000 1100 44 0.900000 2.008000 2.003000 600 54 1.000000 0.052000 0.052000 1.200000 0.115000 0.139000
1559813917443061161	900 50 1.000000 0.243000 0.255000 1100 44 0.900000 2.017000 2.012000 600 54 1.000000 0.052000 0.052000 1.200000 0.102000 0.123000
1559813917955524869	900 49 1.000000 0.242000 0.254000 1100 44 0.900000 2.019000 2.014000 600 54 1.000000 0.053000 0.053000 1.200000 0.102000 0.123000
1559813918468291202	900 50 1.000000 0.242000 0.254000 1100 44 0.900000 2.017000 2.012000 600 54 1.000000 0.052000 0.052000 1.200000 0.103000 0.124000
1559813918996673161	900 49 1.000000 0.275000 0.288000 1100 44 0.900000 2.011000 2.006000 600 54 1.000000 0.053000 0.053000 1.200000 0.104000 0.126000
1559813919507070911	900 46 1.000000 0.269000 0.281000 1100 44 0.900000 2.017000 2.010000 600 51 1.000000 0.053000 0.053000 1.200000 0.107000 0.129000
1559813920016806077	900 43 1.000000 0.056000 0.059000 1100 42 1.000000 0.130000 0.130000 600 47 1.000000 0.053000 0.053000 1.200000 0.023000 0.027000
