#Timestamp	CPU(0) Frequency(MHz)	CPU(0) Temperature(C)	A7 Voltage(V)	A7 Current(A)	A7 Power(W)	CPU(4) Frequency(MHz)	CPU(4) Temperature(C)	A15 Voltage(V)	A15 Current(A)	A15 Power(W)	GPU Frequency(MHz)	GPU Temperature(C)	GPU Voltage(V)	GPU Current(A)	GPU Power(W)	RAM Voltage(V)	RAM Current(A)	RAM Power(W)
1517186515758768662	800 31 1.000000 0.124000 0.126000 900 29 0.900000 0.155000 0.147000 600 34 1.000000 0.050000 0.050000 1.200000 0.049000 0.059000
1517186516269878953	800 33 1.000000 0.053000 0.054000 900 30 0.900000 0.465000 0.438000 600 34 1.000000 0.050000 0.050000 1.200000 0.048000 0.058000
1517186516780830745	800 33 1.000000 0.033000 0.033000 900 30 0.900000 0.467000 0.438000 600 34 1.000000 0.050000 0.050000 1.200000 0.032000 0.038000
1517186517291713328	800 33 1.000000 0.035000 0.035000 900 30 0.900000 0.466000 0.438000 600 34 1.000000 0.050000 0.050000 1.200000 0.031000 0.037000
1517186517802468828	800 33 1.000000 0.035000 0.035000 900 30 0.900000 0.480000 0.451000 600 34 1.000000 0.050000 0.050000 1.200000 0.030000 0.036000
1517186518313252287	800 33 1.000000 0.037000 0.037000 900 30 0.900000 0.473000 0.445000 600 34 1.000000 0.050000 0.050000 1.200000 0.032000 0.038000
1517186518824282412	800 33 1.000000 0.033000 0.033000 900 30 0.900000 0.469000 0.441000 600 34 1.000000 0.050000 0.050000 1.200000 0.030000 0.036000
1517186519335476037	800 33 1.000000 0.034000 0.034000 900 30 0.900000 0.491000 0.462000 600 36 1.000000 0.050000 0.050000 1.200000 0.030000 0.036000
1517186519849495329	800 34 1.000000 0.113000 0.115000 900 31 0.900000 1.307000 1.235000 600 38 1.000000 0.050000 0.050000 1.200000 0.043000 0.052000
1517186520363358245	800 35 1.000000 0.203000 0.207000 900 31 0.900000 1.387000 1.310000 600 39 1.000000 0.050000 0.050000 1.200000 0.051000 0.061000
1517186520875687371	800 35 1.000000 0.191000 0.195000 900 32 0.900000 1.386000 1.309000 600 39 1.000000 0.050000 0.050000 1.200000 0.052000 0.062000
1517186521387348954	800 36 1.000000 0.182000 0.186000 900 32 0.900000 1.386000 1.309000 600 40 1.000000 0.050000 0.050000 1.200000 0.037000 0.044000
1517186521899017829	800 36 1.000000 0.180000 0.183000 900 32 0.900000 1.385000 1.308000 600 40 1.000000 0.051000 0.051000 1.200000 0.039000 0.047000
1517186522410596829	800 36 1.000000 0.211000 0.215000 900 33 0.900000 1.381000 1.305000 600 40 1.000000 0.051000 0.051000 1.200000 0.044000 0.053000
1517186522922028579	800 36 1.000000 0.180000 0.183000 900 33 0.900000 1.385000 1.308000 600 41 1.000000 0.051000 0.051000 1.200000 0.044000 0.053000
1517186523433566537	800 37 1.000000 0.174000 0.177000 900 33 0.900000 1.389000 1.312000 600 41 1.000000 0.050000 0.050000 1.200000 0.038000 0.045000
1517186523945075871	800 37 1.000000 0.182000 0.186000 900 33 0.900000 1.385000 1.308000 600 41 1.000000 0.051000 0.051000 1.200000 0.041000 0.049000
1517186524457889496	800 37 1.000000 0.183000 0.187000 900 33 0.900000 1.390000 1.313000 600 41 1.000000 0.051000 0.051000 1.200000 0.038000 0.045000
1517186524969781288	800 37 1.000000 0.203000 0.207000 900 33 0.900000 1.389000 1.312000 600 41 1.000000 0.051000 0.051000 1.200000 0.049000 0.059000
1517186525482053329	800 37 1.000000 0.184000 0.188000 900 33 0.900000 1.391000 1.314000 600 41 1.000000 0.051000 0.051000 1.200000 0.038000 0.045000
1517186525994023746	800 37 1.000000 0.172000 0.175000 900 33 0.900000 1.386000 1.309000 600 41 1.000000 0.051000 0.051000 1.200000 0.043000 0.052000
1517186526516287788	800 37 1.000000 0.184000 0.188000 900 33 0.900000 1.391000 1.314000 600 42 1.000000 0.051000 0.051000 1.200000 0.038000 0.045000
1517186527028285121	800 37 1.000000 0.199000 0.203000 900 34 0.900000 1.390000 1.313000 600 42 1.000000 0.051000 0.051000 1.200000 0.061000 0.073000
1517186527539872996	800 37 1.000000 0.172000 0.175000 900 34 0.900000 1.393000 1.316000 600 42 1.000000 0.051000 0.051000 1.200000 0.037000 0.044000
1517186528052401996	800 37 1.000000 0.183000 0.187000 900 34 0.900000 1.390000 1.313000 600 42 1.000000 0.051000 0.051000 1.200000 0.042000 0.050000
1517186528564114205	800 37 1.000000 0.171000 0.174000 900 34 0.900000 1.379000 1.303000 600 42 1.000000 0.051000 0.051000 1.200000 0.036000 0.043000
1517186529075869371	800 38 1.000000 0.216000 0.220000 900 34 0.900000 1.386000 1.309000 600 42 1.000000 0.051000 0.051000 1.200000 0.039000 0.047000
1517186529590335705	800 37 1.000000 0.183000 0.187000 900 34 0.900000 1.386000 1.309000 600 42 1.000000 0.051000 0.051000 1.200000 0.044000 0.053000
1517186530102394247	800 38 1.000000 0.175000 0.178000 900 34 0.900000 1.382000 1.305000 600 42 1.000000 0.051000 0.051000 1.200000 0.038000 0.045000
1517186530615231580	800 38 1.000000 0.185000 0.189000 900 34 0.900000 1.391000 1.314000 600 42 1.000000 0.051000 0.051000 1.200000 0.044000 0.053000
1517186531127474413	800 38 1.000000 0.183000 0.187000 900 34 0.900000 1.380000 1.304000 600 42 1.000000 0.051000 0.051000 1.200000 0.040000 0.048000
1517186531640080580	800 38 1.000000 0.201000 0.205000 900 34 0.900000 1.391000 1.314000 600 42 1.000000 0.051000 0.051000 1.200000 0.053000 0.064000
1517186532151822414	800 38 1.000000 0.184000 0.188000 900 34 0.900000 1.382000 1.305000 600 42 1.000000 0.051000 0.051000 1.200000 0.036000 0.043000
1517186532663550497	800 38 1.000000 0.177000 0.180000 900 34 0.900000 1.390000 1.313000 600 42 1.000000 0.051000 0.051000 1.200000 0.042000 0.050000
1517186533177673039	800 38 1.000000 0.201000 0.205000 900 34 0.900000 1.386000 1.309000 600 42 1.000000 0.051000 0.051000 1.200000 0.042000 0.050000
1517186533689437622	800 38 1.000000 0.208000 0.212000 900 34 0.900000 1.392000 1.315000 600 42 1.000000 0.051000 0.051000 1.200000 0.061000 0.073000
1517186534202546497	800 38 1.000000 0.172000 0.175000 900 34 0.900000 1.391000 1.314000 600 42 1.000000 0.051000 0.051000 1.200000 0.036000 0.043000
1517186534714609872	800 38 1.000000 0.183000 0.187000 900 34 0.900000 1.389000 1.312000 600 42 1.000000 0.051000 0.051000 1.200000 0.038000 0.045000
1517186535226532831	800 38 1.000000 0.191000 0.195000 900 34 0.900000 1.391000 1.314000 600 42 1.000000 0.051000 0.051000 1.200000 0.042000 0.050000
1517186535738098289	800 38 1.000000 0.210000 0.214000 900 34 0.900000 1.388000 1.308000 600 42 1.000000 0.051000 0.051000 1.200000 0.054000 0.065000
1517186536249750456	800 38 1.000000 0.173000 0.176000 900 34 0.900000 1.388000 1.311000 600 42 1.000000 0.051000 0.051000 1.200000 0.035000 0.042000
1517186536762758956	800 38 1.000000 0.184000 0.188000 900 34 0.900000 1.389000 1.312000 600 42 1.000000 0.051000 0.051000 1.200000 0.040000 0.048000
1517186537274688956	800 38 1.000000 0.184000 0.188000 900 34 0.900000 1.389000 1.312000 600 42 1.000000 0.051000 0.051000 1.200000 0.042000 0.050000
1517186537790127456	800 38 1.000000 0.192000 0.196000 900 35 0.900000 1.391000 1.314000 600 42 1.000000 0.051000 0.051000 1.200000 0.044000 0.053000
1517186538302367623	800 38 1.000000 0.210000 0.214000 900 34 0.900000 1.383000 1.306000 600 42 1.000000 0.051000 0.051000 1.200000 0.055000 0.066000
1517186538814092998	800 38 1.000000 0.183000 0.187000 900 34 0.900000 1.393000 1.316000 600 42 1.000000 0.051000 0.051000 1.200000 0.039000 0.047000
1517186539325759373	800 38 1.000000 0.184000 0.188000 900 34 0.900000 1.383000 1.306000 600 42 1.000000 0.051000 0.051000 1.200000 0.036000 0.043000
1517186539837480206	800 38 1.000000 0.175000 0.178000 900 34 0.900000 1.393000 1.316000 600 43 1.000000 0.051000 0.051000 1.200000 0.040000 0.048000
1517186540349246040	800 38 1.000000 0.219000 0.223000 900 34 0.900000 1.410000 1.332000 600 42 1.000000 0.051000 0.051000 1.200000 0.060000 0.072000
1517186540860858581	800 38 1.000000 0.187000 0.191000 900 34 0.900000 1.429000 1.350000 600 43 1.000000 0.051000 0.051000 1.200000 0.042000 0.050000
1517186541375359081	800 38 1.000000 0.175000 0.178000 900 35 0.900000 1.425000 1.346000 600 43 1.000000 0.051000 0.051000 1.200000 0.039000 0.047000
1517186541887629206	800 38 1.000000 0.186000 0.190000 900 35 0.900000 1.423000 1.344000 600 43 1.000000 0.051000 0.051000 1.200000 0.037000 0.044000
1517186542399881415	800 39 1.000000 0.180000 0.183000 900 35 0.900000 1.425000 1.346000 600 43 1.000000 0.051000 0.051000 1.200000 0.050000 0.060000
1517186542911761540	800 38 1.000000 0.190000 0.194000 900 35 0.900000 1.427000 1.348000 600 43 1.000000 0.051000 0.051000 1.200000 0.038000 0.045000
1517186543423506873	800 39 1.000000 0.180000 0.183000 900 35 0.900000 1.425000 1.346000 600 43 1.000000 0.051000 0.051000 1.200000 0.039000 0.047000
1517186543935234998	800 38 1.000000 0.188000 0.192000 900 35 0.900000 1.408000 1.330000 600 43 1.000000 0.051000 0.051000 1.200000 0.037000 0.044000
1517186544447958248	800 39 1.000000 0.188000 0.192000 900 35 0.900000 1.426000 1.347000 600 43 1.000000 0.051000 0.051000 1.200000 0.042000 0.050000
1517186544960076373	800 39 1.000000 0.183000 0.187000 900 35 0.900000 1.412000 1.334000 600 43 1.000000 0.051000 0.051000 1.200000 0.037000 0.044000
1517186545471699082	800 39 1.000000 0.185000 0.189000 900 35 0.900000 1.423000 1.344000 600 43 1.000000 0.051000 0.051000 1.200000 0.044000 0.053000
1517186545984837749	800 38 1.000000 0.186000 0.190000 900 35 0.900000 1.416000 1.338000 600 43 1.000000 0.051000 0.051000 1.200000 0.036000 0.043000
1517186546496532165	800 38 1.000000 0.191000 0.195000 900 35 0.900000 1.430000 1.351000 600 43 1.000000 0.051000 0.051000 1.200000 0.037000 0.044000
1517186547009056707	800 39 1.000000 0.208000 0.212000 900 35 0.900000 1.416000 1.338000 600 43 1.000000 0.051000 0.051000 1.200000 0.053000 0.064000
1517186547521111999	800 39 1.000000 0.183000 0.187000 900 35 0.900000 1.426000 1.347000 600 43 1.000000 0.051000 0.051000 1.200000 0.040000 0.048000
1517186548033150874	800 39 1.000000 0.191000 0.195000 900 35 0.900000 1.401000 1.323000 600 43 1.000000 0.051000 0.051000 1.200000 0.040000 0.048000
1517186548544892457	800 38 1.000000 0.177000 0.180000 900 35 0.900000 1.427000 1.348000 600 43 1.000000 0.051000 0.051000 1.200000 0.044000 0.053000
1517186549056438707	800 39 1.000000 0.188000 0.192000 900 35 0.900000 1.401000 1.323000 600 43 1.000000 0.051000 0.051000 1.200000 0.042000 0.050000
1517186549568003166	800 39 1.000000 0.193000 0.197000 900 35 0.900000 1.425000 1.346000 600 43 1.000000 0.051000 0.051000 1.200000 0.043000 0.052000
1517186550079872374	800 39 1.000000 0.206000 0.210000 900 35 0.900000 1.417000 1.339000 600 43 1.000000 0.051000 0.051000 1.200000 0.037000 0.044000
1517186550591659041	800 38 1.000000 0.188000 0.192000 900 35 0.900000 1.425000 1.346000 600 43 1.000000 0.051000 0.051000 1.200000 0.041000 0.049000
1517186551106551916	800 39 1.000000 0.175000 0.179000 900 35 0.900000 1.419000 1.340000 600 43 1.000000 0.051000 0.051000 1.200000 0.036000 0.043000
1517186551619579166	800 39 1.000000 0.206000 0.210000 900 35 0.900000 1.420000 1.341000 600 43 1.000000 0.051000 0.051000 1.200000 0.041000 0.049000
1517186552131839499	800 39 1.000000 0.201000 0.205000 900 35 0.900000 1.422000 1.343000 600 43 1.000000 0.051000 0.051000 1.200000 0.036000 0.043000
1517186552643809541	800 39 1.000000 0.180000 0.183000 900 35 0.900000 1.428000 1.349000 600 43 1.000000 0.051000 0.051000 1.200000 0.037000 0.044000
1517186553155628499	800 39 1.000000 0.185000 0.189000 900 35 0.900000 1.425000 1.346000 600 43 1.000000 0.051000 0.051000 1.200000 0.036000 0.043000
1517186553667451999	800 39 1.000000 0.202000 0.206000 900 35 0.900000 1.411000 1.333000 600 43 1.000000 0.051000 0.051000 1.200000 0.052000 0.062000
1517186554179114916	800 39 1.000000 0.185000 0.189000 900 35 0.900000 1.416000 1.338000 600 43 1.000000 0.051000 0.051000 1.200000 0.040000 0.048000
1517186554690846333	800 39 1.000000 0.183000 0.187000 900 35 0.900000 1.399000 1.322000 600 43 1.000000 0.051000 0.051000 1.200000 0.036000 0.043000
1517186555202567041	800 39 1.000000 0.183000 0.187000 900 35 0.900000 1.422000 1.343000 600 43 1.000000 0.051000 0.051000 1.200000 0.037000 0.044000
1517186555713855291	800 39 1.000000 0.176000 0.179000 900 35 0.900000 1.422000 1.343000 600 43 1.000000 0.051000 0.051000 1.200000 0.039000 0.047000
1517186556227410791	800 39 1.000000 0.214000 0.218000 900 35 0.900000 1.408000 1.330000 600 43 1.000000 0.051000 0.051000 1.200000 0.042000 0.050000
1517186556739849083	800 39 1.000000 0.188000 0.192000 900 35 0.900000 1.414000 1.336000 600 43 1.000000 0.051000 0.051000 1.200000 0.044000 0.053000
1517186557252644750	800 39 1.000000 0.176000 0.179000 900 35 0.900000 1.411000 1.333000 600 43 1.000000 0.051000 0.051000 1.200000 0.038000 0.045000
1517186557767686875	800 39 1.000000 0.187000 0.191000 900 35 0.900000 1.406000 1.328000 600 43 1.000000 0.051000 0.051000 1.200000 0.042000 0.050000
1517186558279876667	800 39 1.000000 0.226000 0.230000 900 35 0.900000 1.413000 1.335000 600 43 1.000000 0.051000 0.051000 1.200000 0.051000 0.061000
1517186558791388833	800 39 1.000000 0.182000 0.186000 900 35 0.900000 1.404000 1.326000 600 43 1.000000 0.051000 0.051000 1.200000 0.041000 0.049000
1517186559303250333	800 39 1.000000 0.185000 0.189000 900 35 0.900000 1.416000 1.338000 600 43 1.000000 0.051000 0.051000 1.200000 0.037000 0.044000
1517186559815043042	800 39 1.000000 0.172000 0.175000 900 35 0.900000 1.392000 1.315000 600 43 1.000000 0.051000 0.051000 1.200000 0.038000 0.045000
1517186560326660209	800 39 1.000000 0.233000 0.237000 900 35 0.900000 1.413000 1.335000 600 43 1.000000 0.051000 0.051000 1.200000 0.042000 0.050000
1517186560840810167	800 39 1.000000 0.181000 0.184000 900 35 0.900000 1.400000 1.323000 600 43 1.000000 0.051000 0.051000 1.200000 0.039000 0.047000
1517186561352463334	800 39 1.000000 0.183000 0.187000 900 35 0.900000 1.403000 1.325000 600 43 1.000000 0.051000 0.051000 1.200000 0.041000 0.049000
1517186561864822917	800 39 1.000000 0.185000 0.189000 900 35 0.900000 1.404000 1.326000 600 43 1.000000 0.051000 0.051000 1.200000 0.037000 0.044000
1517186562377973209	800 39 1.000000 0.178000 0.181000 900 35 0.900000 1.391000 1.314000 600 43 1.000000 0.051000 0.051000 1.200000 0.042000 0.050000
1517186562890100001	800 39 1.000000 0.188000 0.192000 900 35 0.900000 1.400000 1.323000 600 43 1.000000 0.051000 0.051000 1.200000 0.043000 0.052000
1517186563402090959	800 39 1.000000 0.173000 0.176000 900 35 0.900000 1.397000 1.320000 600 43 1.000000 0.051000 0.051000 1.200000 0.043000 0.052000
1517186563914058626	800 39 1.000000 0.186000 0.190000 900 35 0.900000 1.408000 1.330000 600 43 1.000000 0.051000 0.051000 1.200000 0.038000 0.045000
1517186564427250542	800 39 1.000000 0.177000 0.180000 900 35 0.900000 1.389000 1.312000 600 43 1.000000 0.051000 0.051000 1.200000 0.040000 0.048000
1517186564938895959	800 39 1.000000 0.217000 0.221000 900 35 0.900000 1.400000 1.323000 600 43 1.000000 0.051000 0.051000 1.200000 0.053000 0.064000
1517186565450644584	800 38 1.000000 0.183000 0.187000 900 35 0.900000 1.405000 1.327000 600 43 1.000000 0.051000 0.051000 1.200000 0.041000 0.049000
1517186565962432709	800 39 1.000000 0.175000 0.178000 900 35 0.900000 1.397000 1.320000 600 43 1.000000 0.051000 0.051000 1.200000 0.037000 0.044000
1517186566475772626	800 39 1.000000 0.185000 0.189000 900 35 0.900000 1.407000 1.329000 600 43 1.000000 0.051000 0.051000 1.200000 0.044000 0.053000
1517186566988043251	800 39 1.000000 0.201000 0.205000 900 35 0.900000 1.395000 1.318000 600 43 1.000000 0.051000 0.051000 1.200000 0.044000 0.053000
1517186567500084001	800 39 1.000000 0.173000 0.176000 900 35 0.900000 1.399000 1.322000 600 43 1.000000 0.051000 0.051000 1.200000 0.044000 0.053000
1517186568011811959	800 39 1.000000 0.183000 0.187000 900 35 0.900000 1.382000 1.305000 600 43 1.000000 0.051000 0.051000 1.200000 0.037000 0.044000
1517186568524388335	800 39 1.000000 0.177000 0.180000 900 35 0.900000 1.382000 1.305000 600 43 1.000000 0.051000 0.051000 1.200000 0.042000 0.050000
1517186569039801626	800 39 1.000000 0.199000 0.203000 900 35 0.900000 1.397000 1.320000 600 43 1.000000 0.051000 0.051000 1.200000 0.042000 0.050000
1517186569551691626	800 39 1.000000 0.195000 0.199000 900 35 0.900000 1.396000 1.319000 600 43 1.000000 0.051000 0.051000 1.200000 0.048000 0.058000
1517186570063443168	800 39 1.000000 0.181000 0.184000 900 35 0.900000 1.396000 1.319000 600 43 1.000000 0.051000 0.051000 1.200000 0.037000 0.044000
1517186570575903001	800 39 1.000000 0.180000 0.183000 900 35 0.900000 1.383000 1.306000 600 43 1.000000 0.051000 0.051000 1.200000 0.037000 0.044000
1517186571090525293	800 39 1.000000 0.170000 0.173000 900 35 0.900000 1.383000 1.306000 600 43 1.000000 0.051000 0.051000 1.200000 0.038000 0.045000
1517186571602582960	800 39 1.000000 0.203000 0.207000 900 35 0.900000 1.396000 1.319000 600 43 1.000000 0.051000 0.051000 1.200000 0.058000 0.070000
1517186572115529460	800 39 1.000000 0.182000 0.186000 900 35 0.900000 1.405000 1.327000 600 43 1.000000 0.051000 0.051000 1.200000 0.040000 0.048000
1517186572627645210	800 39 1.000000 0.168000 0.171000 900 35 0.900000 1.377000 1.301000 600 43 1.000000 0.051000 0.051000 1.200000 0.035000 0.042000
1517186573139637918	800 39 1.000000 0.199000 0.203000 900 35 0.900000 1.390000 1.313000 600 43 1.000000 0.051000 0.051000 1.200000 0.045000 0.054000
1517186573651337085	800 39 1.000000 0.183000 0.187000 900 35 0.900000 1.388000 1.311000 600 43 1.000000 0.051000 0.051000 1.200000 0.039000 0.047000
1517186574163277752	800 39 1.000000 0.205000 0.209000 900 35 0.900000 1.398000 1.321000 600 43 1.000000 0.051000 0.051000 1.200000 0.044000 0.053000
1517186574674924294	800 39 1.000000 0.178000 0.181000 900 35 0.900000 1.379000 1.303000 600 43 1.000000 0.051000 0.051000 1.200000 0.039000 0.047000
1517186575186758169	800 39 1.000000 0.188000 0.192000 900 35 0.900000 1.382000 1.305000 600 43 1.000000 0.051000 0.051000 1.200000 0.048000 0.058000
1517186575701098502	800 39 1.000000 0.173000 0.176000 900 35 0.900000 1.396000 1.319000 600 43 1.000000 0.051000 0.051000 1.200000 0.038000 0.045000
1517186576213063585	800 39 1.000000 0.211000 0.215000 900 35 0.900000 1.383000 1.306000 600 43 1.000000 0.051000 0.051000 1.200000 0.057000 0.068000
1517186576725511377	800 39 1.000000 0.179000 0.182000 900 35 0.900000 1.376000 1.300000 600 43 1.000000 0.051000 0.051000 1.200000 0.038000 0.045000
1517186577237391002	800 39 1.000000 0.189000 0.193000 900 35 0.900000 1.389000 1.312000 600 43 1.000000 0.051000 0.051000 1.200000 0.051000 0.061000
1517186577749473961	800 39 1.000000 0.178000 0.181000 900 35 0.900000 1.379000 1.303000 600 43 1.000000 0.051000 0.051000 1.200000 0.038000 0.045000
1517186578261163669	800 39 1.000000 0.213000 0.217000 900 35 0.900000 1.383000 1.306000 600 43 1.000000 0.051000 0.051000 1.200000 0.066000 0.079000
1517186578772898461	800 39 1.000000 0.177000 0.180000 900 35 0.900000 1.398000 1.321000 600 43 1.000000 0.051000 0.051000 1.200000 0.036000 0.043000
1517186579284713586	800 39 1.000000 0.194000 0.198000 900 35 0.900000 1.383000 1.306000 600 43 1.000000 0.051000 0.051000 1.200000 0.047000 0.056000
1517186579796407378	800 39 1.000000 0.172000 0.175000 900 35 0.900000 1.382000 1.305000 600 43 1.000000 0.051000 0.051000 1.200000 0.036000 0.043000
1517186580309239128	800 39 1.000000 0.183000 0.187000 900 35 0.900000 1.406000 1.328000 600 43 1.000000 0.051000 0.051000 1.200000 0.048000 0.058000
1517186580820900628	800 39 1.000000 0.172000 0.175000 900 35 0.900000 1.383000 1.306000 600 43 1.000000 0.051000 0.051000 1.200000 0.035000 0.042000
1517186581333375586	800 39 1.000000 0.197000 0.201000 900 35 0.900000 1.379000 1.303000 600 43 1.000000 0.051000 0.051000 1.200000 0.043000 0.052000
1517186581845645044	800 39 1.000000 0.169000 0.172000 900 35 0.900000 1.384000 1.307000 600 43 1.000000 0.051000 0.051000 1.200000 0.037000 0.044000
1517186582361331253	800 39 1.000000 0.180000 0.183000 900 35 0.900000 1.382000 1.305000 600 43 1.000000 0.051000 0.051000 1.200000 0.046000 0.055000
1517186582873443961	800 39 1.000000 0.208000 0.212000 900 35 0.900000 1.382000 1.305000 600 43 1.000000 0.051000 0.051000 1.200000 0.060000 0.072000
1517186583385214295	800 39 1.000000 0.175000 0.178000 900 35 0.900000 1.383000 1.306000 600 43 1.000000 0.051000 0.051000 1.200000 0.040000 0.048000
1517186583896725211	800 39 1.000000 0.180000 0.183000 900 35 0.900000 1.382000 1.305000 600 43 1.000000 0.051000 0.051000 1.200000 0.038000 0.045000
1517186584408553003	800 39 1.000000 0.173000 0.176000 900 35 0.900000 1.379000 1.303000 600 43 1.000000 0.051000 0.051000 1.200000 0.039000 0.047000
1517186584919973336	800 39 1.000000 0.204000 0.208000 900 35 0.900000 1.383000 1.306000 600 43 1.000000 0.051000 0.051000 1.200000 0.056000 0.067000
1517186585431645045	800 39 1.000000 0.193000 0.197000 900 35 0.900000 1.379000 1.300000 600 43 1.000000 0.051000 0.051000 1.200000 0.040000 0.048000
1517186585945734337	800 39 1.000000 0.170000 0.173000 900 35 0.900000 1.381000 1.305000 600 43 1.000000 0.051000 0.051000 1.200000 0.040000 0.048000
1517186586457930587	800 39 1.000000 0.180000 0.183000 900 35 0.900000 1.377000 1.301000 600 43 1.000000 0.051000 0.051000 1.200000 0.037000 0.044000
1517186586969753337	800 39 1.000000 0.171000 0.174000 900 35 0.900000 1.383000 1.306000 600 43 1.000000 0.051000 0.051000 1.200000 0.047000 0.056000
1517186587481621337	800 39 1.000000 0.192000 0.196000 900 35 0.900000 1.371000 1.295000 600 43 1.000000 0.051000 0.051000 1.200000 0.042000 0.050000
1517186587993546379	800 39 1.000000 0.179000 0.182000 900 35 0.900000 1.379000 1.303000 600 43 1.000000 0.051000 0.051000 1.200000 0.042000 0.050000
1517186588505245712	800 39 1.000000 0.171000 0.174000 900 35 0.900000 1.383000 1.306000 600 43 1.000000 0.051000 0.051000 1.200000 0.036000 0.043000
1517186589020170879	800 39 1.000000 0.179000 0.182000 900 35 0.900000 1.383000 1.306000 600 43 1.000000 0.051000 0.051000 1.200000 0.043000 0.052000
1517186589531919212	800 39 1.000000 0.193000 0.197000 900 35 0.900000 1.380000 1.304000 600 43 1.000000 0.051000 0.051000 1.200000 0.045000 0.054000
1517186590043706545	800 39 1.000000 0.179000 0.182000 900 35 0.900000 1.383000 1.304000 600 43 1.000000 0.051000 0.051000 1.200000 0.040000 0.048000
1517186590557744545	800 39 1.000000 0.170000 0.173000 900 35 0.900000 1.377000 1.298000 600 43 1.000000 0.051000 0.051000 1.200000 0.037000 0.044000
1517186591069539629	800 39 1.000000 0.180000 0.183000 900 35 0.900000 1.382000 1.305000 600 43 1.000000 0.051000 0.051000 1.200000 0.043000 0.052000
1517186591582023754	800 39 1.000000 0.193000 0.197000 900 35 0.900000 1.380000 1.304000 600 44 1.000000 0.051000 0.051000 1.200000 0.048000 0.058000
1517186592093885171	800 39 1.000000 0.171000 0.174000 900 35 0.900000 1.383000 1.306000 600 44 1.000000 0.051000 0.051000 1.200000 0.044000 0.053000
1517186592605737671	800 39 1.000000 0.179000 0.182000 900 35 0.900000 1.382000 1.305000 600 43 1.000000 0.051000 0.051000 1.200000 0.036000 0.043000
1517186593117140546	800 39 1.000000 0.170000 0.173000 900 35 0.900000 1.384000 1.307000 600 44 1.000000 0.051000 0.051000 1.200000 0.041000 0.049000
1517186593637630754	800 39 1.000000 0.180000 0.183000 900 35 0.900000 1.381000 1.305000 600 43 1.000000 0.051000 0.051000 1.200000 0.035000 0.042000
1517186594149696504	800 39 1.000000 0.221000 0.225000 900 35 0.900000 1.388000 1.311000 600 44 1.000000 0.051000 0.051000 1.200000 0.040000 0.048000
1517186594661444713	800 39 1.000000 0.180000 0.183000 900 35 0.900000 1.397000 1.320000 600 44 1.000000 0.051000 0.051000 1.200000 0.036000 0.043000
1517186595172964838	800 39 1.000000 0.181000 0.184000 900 35 0.900000 1.379000 1.303000 600 43 1.000000 0.051000 0.051000 1.200000 0.037000 0.044000
1517186595691881504	800 39 1.000000 0.171000 0.174000 900 35 0.900000 1.383000 1.306000 600 44 1.000000 0.051000 0.051000 1.200000 0.035000 0.042000
1517186596206411671	800 39 1.000000 0.223000 0.227000 900 35 0.900000 1.381000 1.305000 600 43 1.000000 0.051000 0.051000 1.200000 0.050000 0.060000
1517186596718678130	800 39 1.000000 0.177000 0.180000 900 35 0.900000 1.385000 1.308000 600 43 1.000000 0.051000 0.051000 1.200000 0.040000 0.048000
1517186597231486463	800 39 1.000000 0.168000 0.171000 900 35 0.900000 1.377000 1.301000 600 44 1.000000 0.051000 0.051000 1.200000 0.036000 0.043000
1517186597743217921	800 39 1.000000 0.178000 0.181000 900 35 0.900000 1.383000 1.306000 600 44 1.000000 0.051000 0.051000 1.200000 0.042000 0.050000
1517186598254924921	800 39 1.000000 0.212000 0.216000 900 36 0.900000 1.383000 1.306000 600 43 1.000000 0.051000 0.051000 1.200000 0.048000 0.058000
1517186598766412046	800 39 1.000000 0.175000 0.178000 900 35 0.900000 1.385000 1.308000 600 43 1.000000 0.051000 0.051000 1.200000 0.037000 0.044000
1517186599278341922	800 39 1.000000 0.173000 0.176000 900 35 0.900000 1.383000 1.306000 600 43 1.000000 0.051000 0.051000 1.200000 0.038000 0.045000
1517186599789963005	800 39 1.000000 0.178000 0.181000 900 35 0.900000 1.383000 1.306000 600 44 1.000000 0.051000 0.051000 1.200000 0.036000 0.043000
1517186600302396713	800 39 1.000000 0.173000 0.176000 900 36 0.900000 1.379000 1.303000 600 44 1.000000 0.051000 0.051000 1.200000 0.043000 0.052000
1517186600816670005	800 39 1.000000 0.209000 0.213000 900 35 0.900000 1.382000 1.305000 600 43 1.000000 0.051000 0.051000 1.200000 0.053000 0.064000
1517186601328108005	800 39 1.000000 0.180000 0.183000 900 35 0.900000 1.373000 1.297000 600 44 1.000000 0.051000 0.051000 1.200000 0.041000 0.049000
1517186601840438380	800 39 1.000000 0.172000 0.175000 900 35 0.900000 1.382000 1.305000 600 43 1.000000 0.051000 0.051000 1.200000 0.037000 0.044000
1517186602352737255	800 39 1.000000 0.195000 0.199000 900 35 0.900000 1.385000 1.308000 600 44 1.000000 0.051000 0.051000 1.200000 0.037000 0.044000
1517186602864736172	800 39 1.000000 0.205000 0.209000 900 36 0.900000 1.382000 1.305000 600 43 1.000000 0.051000 0.051000 1.200000 0.045000 0.054000
1517186603375772839	800 36 1.000000 0.163000 0.166000 900 34 0.900000 0.907000 0.858000 600 40 1.000000 0.051000 0.051000 1.200000 0.039000 0.047000
1517186603886717089	800 34 1.000000 0.035000 0.035000 900 34 0.900000 0.096000 0.091000 600 38 1.000000 0.051000 0.051000 1.200000 0.024000 0.029000
