#Timestamp	CPU(0) Frequency(MHz)	CPU(0) Temperature(C)	A7 Voltage(V)	A7 Current(A)	A7 Power(W)	CPU(4) Frequency(MHz)	CPU(4) Temperature(C)	A15 Voltage(V)	A15 Current(A)	A15 Power(W)	GPU Frequency(MHz)	GPU Temperature(C)	GPU Voltage(V)	GPU Current(A)	GPU Power(W)	RAM Voltage(V)	RAM Current(A)	RAM Power(W)
1560147673869297698	700 43 0.900000 0.069000 0.068000 1200 41 1.000000 0.221000 0.226000 600 46 1.000000 0.052000 0.052000 1.200000 0.046000 0.055000
1560147674385135281	700 43 0.900000 0.044000 0.043000 1200 41 1.000000 0.587000 0.596000 600 45 1.000000 0.052000 0.052000 1.200000 0.035000 0.042000
1560147674893727281	700 43 0.900000 0.031000 0.030000 1200 40 1.000000 0.590000 0.600000 600 45 1.000000 0.052000 0.052000 1.200000 0.036000 0.043000
1560147675401392823	700 42 0.900000 0.031000 0.030000 1200 40 1.000000 0.588000 0.597000 600 44 1.000000 0.052000 0.052000 1.200000 0.035000 0.042000
1560147675908763115	700 45 0.900000 0.032000 0.031000 1200 40 1.000000 0.610000 0.620000 600 49 1.000000 0.052000 0.052000 1.200000 0.043000 0.052000
1560147676416292615	700 45 0.900000 0.032000 0.031000 1200 40 1.000000 1.856000 1.898000 600 51 1.000000 0.052000 0.052000 1.200000 0.023000 0.027000
1560147676926230781	700 46 0.900000 0.048000 0.047000 1200 41 1.000000 1.908000 1.951000 600 52 1.000000 0.052000 0.052000 1.200000 0.043000 0.051000
1560147677433944240	700 46 0.900000 0.032000 0.031000 1200 41 1.000000 1.857000 1.899000 600 52 1.000000 0.052000 0.052000 1.200000 0.025000 0.030000
1560147677941135865	700 46 0.900000 0.033000 0.032000 1200 41 1.000000 1.863000 1.905000 600 52 1.000000 0.052000 0.052000 1.200000 0.023000 0.027000
1560147678448191657	700 46 0.900000 0.032000 0.031000 1200 41 1.000000 1.865000 1.907000 600 52 1.000000 0.052000 0.052000 1.200000 0.024000 0.028000
1560147678955260657	700 47 0.900000 0.058000 0.057000 1200 41 1.000000 1.888000 1.931000 600 52 1.000000 0.052000 0.052000 1.200000 0.037000 0.044000
1560147679462247740	700 47 0.900000 0.032000 0.031000 1200 41 1.000000 1.872000 1.915000 600 52 1.000000 0.052000 0.052000 1.200000 0.024000 0.028000
1560147679969226240	700 47 0.900000 0.032000 0.031000 1200 41 1.000000 1.863000 1.905000 600 52 1.000000 0.052000 0.052000 1.200000 0.025000 0.030000
1560147680476184657	700 47 0.900000 0.032000 0.031000 1200 41 1.000000 1.874000 1.917000 600 52 1.000000 0.052000 0.052000 1.200000 0.024000 0.028000
1560147680983105907	700 47 0.900000 0.060000 0.059000 1200 41 1.000000 1.859000 1.901000 600 52 1.000000 0.052000 0.052000 1.200000 0.033000 0.039000
1560147681490169282	700 47 0.900000 0.032000 0.031000 1200 41 1.000000 1.854000 1.896000 600 52 1.000000 0.052000 0.052000 1.200000 0.024000 0.028000
1560147681997053407	700 47 0.900000 0.033000 0.032000 1200 41 1.000000 1.861000 1.903000 600 52 1.000000 0.052000 0.052000 1.200000 0.024000 0.028000
1560147682504028865	700 47 0.900000 0.032000 0.031000 1200 41 1.000000 1.853000 1.895000 600 52 1.000000 0.052000 0.052000 1.200000 0.023000 0.027000
1560147683011305865	700 47 0.900000 0.032000 0.031000 1200 41 1.000000 1.853000 1.895000 600 52 1.000000 0.052000 0.052000 1.200000 0.032000 0.038000
1560147683518331616	700 47 0.900000 0.055000 0.054000 1200 41 1.000000 1.945000 1.989000 600 52 1.000000 0.052000 0.052000 1.200000 0.044000 0.053000
1560147684025373199	700 47 0.900000 0.032000 0.031000 1200 41 1.000000 1.859000 1.901000 600 52 1.000000 0.052000 0.052000 1.200000 0.025000 0.030000
1560147684532598532	700 46 0.900000 0.033000 0.032000 1200 41 1.000000 1.871000 1.914000 600 52 1.000000 0.052000 0.052000 1.200000 0.024000 0.028000
1560147685039608616	700 46 0.900000 0.032000 0.031000 1200 41 1.000000 1.861000 1.903000 600 52 1.000000 0.052000 0.052000 1.200000 0.024000 0.028000
1560147685546693032	700 46 0.900000 0.052000 0.051000 1200 41 1.000000 1.908000 1.951000 600 52 1.000000 0.052000 0.052000 1.200000 0.042000 0.050000
1560147686053700783	700 46 0.900000 0.032000 0.031000 1200 41 1.000000 1.856000 1.898000 600 52 1.000000 0.052000 0.052000 1.200000 0.023000 0.027000
1560147686560803741	700 46 0.900000 0.032000 0.031000 1200 41 1.000000 1.852000 1.894000 600 52 1.000000 0.052000 0.052000 1.200000 0.023000 0.027000
1560147687067979741	700 46 0.900000 0.032000 0.031000 1200 41 1.000000 1.857000 1.899000 600 52 1.000000 0.052000 0.052000 1.200000 0.023000 0.027000
1560147687575035158	700 46 0.900000 0.053000 0.052000 1200 41 1.000000 1.877000 1.920000 600 52 1.000000 0.052000 0.052000 1.200000 0.032000 0.038000
1560147688082037324	700 46 0.900000 0.042000 0.041000 1200 41 1.000000 1.855000 1.897000 600 52 1.000000 0.052000 0.052000 1.200000 0.024000 0.028000
1560147688589090616	700 46 0.900000 0.032000 0.031000 1200 41 1.000000 1.869000 1.911000 600 52 1.000000 0.052000 0.052000 1.200000 0.023000 0.027000
1560147689096266283	700 46 0.900000 0.032000 0.031000 1200 41 1.000000 1.863000 1.905000 600 52 1.000000 0.052000 0.052000 1.200000 0.023000 0.027000
1560147689608409075	700 46 0.900000 0.049000 0.048000 1200 40 1.000000 1.867000 1.909000 600 52 1.000000 0.052000 0.052000 1.200000 0.031000 0.037000
1560147690117875866	700 46 0.900000 0.053000 0.052000 1200 41 1.000000 1.918000 1.962000 600 52 1.000000 0.052000 0.052000 1.200000 0.043000 0.052000
1560147690625426825	700 46 0.900000 0.033000 0.032000 1200 40 1.000000 1.864000 1.906000 600 52 1.000000 0.052000 0.052000 1.200000 0.024000 0.028000
1560147691132595700	700 46 0.900000 0.032000 0.031000 1200 40 1.000000 1.850000 1.892000 600 52 1.000000 0.052000 0.052000 1.200000 0.024000 0.028000
1560147691639728617	700 46 0.900000 0.050000 0.049000 1200 40 1.000000 1.872000 1.915000 600 52 1.000000 0.052000 0.052000 1.200000 0.029000 0.035000
1560147692146808658	700 46 0.900000 0.053000 0.052000 1200 40 1.000000 1.918000 1.962000 600 52 1.000000 0.052000 0.052000 1.200000 0.044000 0.053000
1560147692653822617	700 46 0.900000 0.031000 0.030000 1200 40 1.000000 1.853000 1.895000 600 52 1.000000 0.052000 0.052000 1.200000 0.023000 0.027000
1560147693160961408	700 46 0.900000 0.032000 0.031000 1200 40 1.000000 1.849000 1.891000 600 51 1.000000 0.052000 0.052000 1.200000 0.023000 0.027000
1560147693668041450	700 46 0.900000 0.038000 0.037000 1200 40 1.000000 1.851000 1.893000 600 52 1.000000 0.052000 0.052000 1.200000 0.026000 0.031000
1560147694175141575	700 46 0.900000 0.050000 0.049000 1200 40 1.000000 1.913000 1.956000 600 52 1.000000 0.052000 0.052000 1.200000 0.037000 0.044000
1560147694682089367	700 46 0.900000 0.037000 0.036000 1200 40 1.000000 1.852000 1.894000 600 51 1.000000 0.052000 0.052000 1.200000 0.023000 0.027000
1560147695189074325	700 46 0.900000 0.032000 0.031000 1200 40 1.000000 1.850000 1.892000 600 51 1.000000 0.052000 0.052000 1.200000 0.023000 0.027000
1560147695696176200	700 46 0.900000 0.048000 0.047000 1200 40 1.000000 1.853000 1.895000 600 51 1.000000 0.052000 0.052000 1.200000 0.023000 0.027000
1560147696207109825	700 46 0.900000 0.032000 0.031000 1200 40 1.000000 1.880000 1.923000 600 51 1.000000 0.052000 0.052000 1.200000 0.032000 0.038000
1560147696714778617	700 46 0.900000 0.055000 0.054000 1200 40 1.000000 1.918000 1.962000 600 51 1.000000 0.052000 0.052000 1.200000 0.034000 0.041000
1560147697221828409	700 46 0.900000 0.032000 0.031000 1200 40 1.000000 1.851000 1.893000 600 51 1.000000 0.052000 0.052000 1.200000 0.023000 0.027000
1560147697728992451	700 46 0.900000 0.032000 0.031000 1200 40 1.000000 1.854000 1.896000 600 51 1.000000 0.052000 0.052000 1.200000 0.024000 0.028000
1560147698236036784	700 46 0.900000 0.032000 0.031000 1200 40 1.000000 1.843000 1.885000 600 51 1.000000 0.052000 0.052000 1.200000 0.024000 0.028000
1560147698743188076	700 46 0.900000 0.055000 0.054000 1200 40 1.000000 1.941000 1.989000 600 51 1.000000 0.052000 0.052000 1.200000 0.026000 0.031000
1560147699250127659	700 46 0.900000 0.032000 0.031000 1200 40 1.000000 1.854000 1.896000 600 51 1.000000 0.052000 0.052000 1.200000 0.023000 0.027000
1560147699757254659	700 46 0.900000 0.047000 0.046000 1200 40 1.000000 1.871000 1.914000 600 51 1.000000 0.052000 0.052000 1.200000 0.024000 0.028000
1560147700264280368	700 45 0.900000 0.032000 0.031000 1200 40 1.000000 1.862000 1.904000 600 51 1.000000 0.052000 0.052000 1.200000 0.023000 0.027000
1560147700771276701	700 46 0.900000 0.032000 0.031000 1200 40 1.000000 1.871000 1.914000 600 51 1.000000 0.052000 0.052000 1.200000 0.024000 0.028000
1560147701278194118	700 45 0.900000 0.032000 0.031000 1200 40 1.000000 1.856000 1.898000 600 51 1.000000 0.051000 0.051000 1.200000 0.024000 0.028000
1560147701785306451	700 45 0.900000 0.032000 0.031000 1200 40 1.000000 1.872000 1.915000 600 51 1.000000 0.052000 0.052000 1.200000 0.024000 0.028000
1560147702292415118	700 45 0.900000 0.031000 0.030000 1200 40 1.000000 1.854000 1.896000 600 51 1.000000 0.052000 0.052000 1.200000 0.024000 0.028000
1560147702804745076	700 46 0.900000 0.032000 0.031000 1200 40 1.000000 1.865000 1.907000 600 51 1.000000 0.052000 0.052000 1.200000 0.023000 0.027000
1560147703314001326	700 45 0.900000 0.055000 0.054000 1200 40 1.000000 1.939000 1.983000 600 51 1.000000 0.052000 0.052000 1.200000 0.042000 0.050000
1560147703821189451	700 46 0.900000 0.032000 0.031000 1200 40 1.000000 1.851000 1.893000 600 51 1.000000 0.052000 0.052000 1.200000 0.024000 0.028000
1560147704328348951	700 45 0.900000 0.041000 0.040000 1200 40 1.000000 1.867000 1.909000 600 51 1.000000 0.051000 0.051000 1.200000 0.030000 0.036000
1560147704839642535	700 45 0.900000 0.032000 0.031000 1200 40 1.000000 1.861000 1.903000 600 51 1.000000 0.052000 0.052000 1.200000 0.025000 0.030000
1560147705347763826	700 45 0.900000 0.063000 0.062000 1200 40 1.000000 1.886000 1.929000 600 51 1.000000 0.052000 0.052000 1.200000 0.038000 0.045000
1560147705858790368	700 45 0.900000 0.032000 0.031000 1200 40 1.000000 1.860000 1.902000 600 51 1.000000 0.052000 0.052000 1.200000 0.024000 0.028000
1560147706366823452	700 45 0.900000 0.031000 0.030000 1200 40 1.000000 1.852000 1.894000 600 51 1.000000 0.052000 0.052000 1.200000 0.032000 0.038000
1560147706873843910	700 45 0.900000 0.032000 0.031000 1200 39 1.000000 1.845000 1.887000 600 51 1.000000 0.052000 0.052000 1.200000 0.024000 0.028000
1560147707381026243	700 45 0.900000 0.032000 0.031000 1200 40 1.000000 1.882000 1.925000 600 51 1.000000 0.052000 0.052000 1.200000 0.029000 0.035000
1560147707888227993	700 45 0.900000 0.032000 0.031000 1200 40 1.000000 1.847000 1.889000 600 51 1.000000 0.052000 0.052000 1.200000 0.024000 0.028000
1560147708395365660	700 45 0.900000 0.049000 0.048000 1200 40 1.000000 1.865000 1.907000 600 51 1.000000 0.052000 0.052000 1.200000 0.030000 0.036000
1560147708902429952	700 45 0.900000 0.032000 0.031000 1200 40 1.000000 1.860000 1.902000 600 51 1.000000 0.052000 0.052000 1.200000 0.023000 0.027000
1560147709409831369	700 45 0.900000 0.032000 0.031000 1200 40 1.000000 1.848000 1.890000 600 51 1.000000 0.052000 0.052000 1.200000 0.023000 0.027000
1560147709917078952	700 45 0.900000 0.061000 0.060000 1200 40 1.000000 1.925000 1.973000 600 51 1.000000 0.051000 0.051000 1.200000 0.045000 0.054000
1560147710424313160	700 45 0.900000 0.048000 0.047000 1200 39 1.000000 1.859000 1.901000 600 51 1.000000 0.052000 0.052000 1.200000 0.028000 0.033000
1560147710931401327	700 45 0.900000 0.032000 0.031000 1200 40 1.000000 1.858000 1.900000 600 51 1.000000 0.052000 0.052000 1.200000 0.024000 0.028000
1560147711438741202	700 45 0.900000 0.032000 0.031000 1200 39 1.000000 1.852000 1.894000 600 51 1.000000 0.052000 0.052000 1.200000 0.024000 0.028000
1560147711945805702	700 45 0.900000 0.059000 0.058000 1200 39 1.000000 1.918000 1.962000 600 51 1.000000 0.052000 0.052000 1.200000 0.042000 0.050000
1560147712453072869	700 45 0.900000 0.047000 0.046000 1200 39 1.000000 1.853000 1.895000 600 51 1.000000 0.052000 0.052000 1.200000 0.030000 0.036000
1560147712960125702	700 45 0.900000 0.032000 0.031000 1200 39 1.000000 1.867000 1.909000 600 50 1.000000 0.052000 0.052000 1.200000 0.024000 0.028000
1560147713467083411	700 45 0.900000 0.031000 0.030000 1200 39 1.000000 1.849000 1.891000 600 50 1.000000 0.052000 0.052000 1.200000 0.025000 0.030000
1560147713974173119	700 45 0.900000 0.035000 0.034000 1200 39 1.000000 1.897000 1.940000 600 51 1.000000 0.051000 0.051000 1.200000 0.034000 0.041000
1560147714481343578	700 45 0.900000 0.040000 0.039000 1200 39 1.000000 1.853000 1.895000 600 50 1.000000 0.052000 0.052000 1.200000 0.030000 0.036000
1560147714988404203	700 45 0.900000 0.032000 0.031000 1200 39 1.000000 1.848000 1.890000 600 50 1.000000 0.052000 0.052000 1.200000 0.023000 0.027000
1560147715495354911	700 45 0.900000 0.032000 0.031000 1200 39 1.000000 1.851000 1.893000 600 50 1.000000 0.052000 0.052000 1.200000 0.023000 0.027000
1560147716004465619	700 45 0.900000 0.035000 0.034000 1200 39 1.000000 1.855000 1.897000 600 50 1.000000 0.052000 0.052000 1.200000 0.027000 0.032000
1560147716512345286	700 45 0.900000 0.058000 0.057000 1200 39 1.000000 1.904000 1.947000 600 50 1.000000 0.052000 0.052000 1.200000 0.041000 0.049000
1560147717019403911	700 45 0.900000 0.033000 0.032000 1200 39 1.000000 1.847000 1.889000 600 50 1.000000 0.052000 0.052000 1.200000 0.025000 0.030000
1560147717526326953	700 45 0.900000 0.032000 0.031000 1200 39 1.000000 1.864000 1.906000 600 50 1.000000 0.052000 0.052000 1.200000 0.024000 0.028000
1560147718037544036	700 45 0.900000 0.032000 0.031000 1200 39 1.000000 1.852000 1.894000 600 50 1.000000 0.051000 0.051000 1.200000 0.024000 0.028000
1560147718545612578	700 45 0.900000 0.058000 0.057000 1200 39 1.000000 1.916000 1.960000 600 50 1.000000 0.052000 0.052000 1.200000 0.045000 0.054000
1560147719052663786	700 45 0.900000 0.031000 0.030000 1200 39 1.000000 1.858000 1.900000 600 50 1.000000 0.052000 0.052000 1.200000 0.023000 0.027000
1560147719559687370	700 45 0.900000 0.032000 0.031000 1200 39 1.000000 1.843000 1.885000 600 50 1.000000 0.052000 0.052000 1.200000 0.025000 0.030000
1560147720066701912	700 45 0.900000 0.032000 0.031000 1200 39 1.000000 1.862000 1.904000 600 50 1.000000 0.052000 0.052000 1.200000 0.024000 0.028000
1560147720573769662	700 45 0.900000 0.036000 0.035000 1200 39 1.000000 1.895000 1.942000 600 50 1.000000 0.052000 0.052000 1.200000 0.040000 0.048000
1560147721080916287	700 45 0.900000 0.032000 0.031000 1200 39 1.000000 1.846000 1.888000 600 50 1.000000 0.051000 0.051000 1.200000 0.023000 0.027000
1560147721587988203	700 45 0.900000 0.032000 0.031000 1200 39 1.000000 1.848000 1.890000 600 50 1.000000 0.052000 0.052000 1.200000 0.024000 0.028000
1560147722095070328	700 45 0.900000 0.031000 0.030000 1200 39 1.000000 1.851000 1.893000 600 50 1.000000 0.052000 0.052000 1.200000 0.024000 0.028000
1560147722602460579	700 45 0.900000 0.037000 0.036000 1200 39 1.000000 1.871000 1.914000 600 50 1.000000 0.052000 0.052000 1.200000 0.031000 0.037000
1560147723110002912	700 45 0.900000 0.075000 0.073000 1200 39 1.000000 1.905000 1.948000 600 50 1.000000 0.052000 0.052000 1.200000 0.043000 0.052000
1560147723617113329	700 45 0.900000 0.032000 0.031000 1200 39 1.000000 1.857000 1.899000 600 50 1.000000 0.052000 0.052000 1.200000 0.023000 0.027000
1560147724124088829	700 45 0.900000 0.031000 0.030000 1200 39 1.000000 1.859000 1.901000 600 50 1.000000 0.052000 0.052000 1.200000 0.024000 0.028000
1560147724634123245	700 45 0.900000 0.032000 0.031000 1200 39 1.000000 1.861000 1.903000 600 50 1.000000 0.052000 0.052000 1.200000 0.023000 0.027000
1560147725142766037	700 45 0.900000 0.062000 0.061000 1200 39 1.000000 1.966000 2.011000 600 50 1.000000 0.051000 0.051000 1.200000 0.048000 0.058000
1560147725649738954	700 45 0.900000 0.032000 0.031000 1200 39 1.000000 1.859000 1.901000 600 50 1.000000 0.052000 0.052000 1.200000 0.025000 0.030000
1560147726156713787	700 45 0.900000 0.032000 0.031000 1200 39 1.000000 1.849000 1.891000 600 50 1.000000 0.052000 0.052000 1.200000 0.023000 0.027000
1560147726663788079	700 45 0.900000 0.032000 0.031000 1200 39 1.000000 1.845000 1.887000 600 50 1.000000 0.052000 0.052000 1.200000 0.023000 0.027000
1560147727171034329	700 45 0.900000 0.054000 0.053000 1200 39 1.000000 1.916000 1.960000 600 50 1.000000 0.052000 0.052000 1.200000 0.049000 0.059000
1560147727678155871	700 45 0.900000 0.032000 0.031000 1200 39 1.000000 1.842000 1.884000 600 50 1.000000 0.052000 0.052000 1.200000 0.023000 0.027000
1560147728185451788	700 45 0.900000 0.032000 0.031000 1200 39 1.000000 1.838000 1.880000 600 50 1.000000 0.052000 0.052000 1.200000 0.023000 0.027000
1560147728692445996	700 44 0.900000 0.031000 0.030000 1200 39 1.000000 1.844000 1.886000 600 50 1.000000 0.052000 0.052000 1.200000 0.023000 0.027000
1560147729204524829	700 45 0.900000 0.053000 0.052000 1200 39 1.000000 1.891000 1.934000 600 50 1.000000 0.052000 0.052000 1.200000 0.039000 0.047000
1560147729712324038	700 44 0.900000 0.031000 0.030000 1200 39 1.000000 1.851000 1.893000 600 50 1.000000 0.052000 0.052000 1.200000 0.023000 0.027000
1560147730219426079	700 44 0.900000 0.032000 0.031000 1200 39 1.000000 1.849000 1.891000 600 50 1.000000 0.052000 0.052000 1.200000 0.024000 0.028000
1560147730726326454	700 44 0.900000 0.032000 0.031000 1200 39 1.000000 1.864000 1.906000 600 50 1.000000 0.051000 0.051000 1.200000 0.024000 0.028000
1560147731236599163	700 44 0.900000 0.046000 0.045000 1200 39 1.000000 1.857000 1.899000 600 50 1.000000 0.052000 0.052000 1.200000 0.029000 0.035000
1560147731747047788	700 44 0.900000 0.048000 0.047000 1200 39 1.000000 1.930000 1.974000 600 50 1.000000 0.052000 0.052000 1.200000 0.037000 0.044000
1560147732254036621	700 44 0.900000 0.032000 0.031000 1200 39 1.000000 1.851000 1.893000 600 50 1.000000 0.051000 0.051000 1.200000 0.023000 0.027000
1560147732761133246	700 44 0.900000 0.032000 0.031000 1200 39 1.000000 1.849000 1.891000 600 50 1.000000 0.052000 0.052000 1.200000 0.023000 0.027000
1560147733268384871	700 44 0.900000 0.032000 0.031000 1200 39 1.000000 1.858000 1.900000 600 50 1.000000 0.051000 0.051000 1.200000 0.030000 0.036000
1560147733778197122	700 44 0.900000 0.040000 0.039000 1200 39 1.000000 1.954000 1.998000 600 50 1.000000 0.051000 0.051000 1.200000 0.042000 0.050000
1560147734285679747	700 44 0.900000 0.033000 0.032000 1200 39 1.000000 1.846000 1.888000 600 50 1.000000 0.051000 0.051000 1.200000 0.023000 0.027000
1560147734792796455	700 44 0.900000 0.031000 0.030000 1200 39 1.000000 1.844000 1.886000 600 50 1.000000 0.051000 0.051000 1.200000 0.023000 0.027000
1560147735299988580	700 44 0.900000 0.035000 0.034000 1200 39 1.000000 1.850000 1.892000 600 50 1.000000 0.051000 0.051000 1.200000 0.030000 0.036000
1560147735806945413	700 44 0.900000 0.043000 0.042000 1200 39 1.000000 1.950000 1.994000 600 50 1.000000 0.051000 0.051000 1.200000 0.041000 0.049000
1560147736313955997	700 44 0.900000 0.031000 0.030000 1200 39 1.000000 1.847000 1.889000 600 50 1.000000 0.052000 0.052000 1.200000 0.023000 0.027000
1560147736821024622	700 44 0.900000 0.031000 0.030000 1200 39 1.000000 1.864000 1.906000 600 50 1.000000 0.051000 0.051000 1.200000 0.024000 0.028000
1560147737328243455	700 44 0.900000 0.032000 0.031000 1200 38 1.000000 1.842000 1.884000 600 50 1.000000 0.052000 0.052000 1.200000 0.023000 0.027000
1560147737838220580	700 44 0.900000 0.032000 0.031000 1200 39 1.000000 1.863000 1.905000 600 50 1.000000 0.051000 0.051000 1.200000 0.031000 0.037000
1560147738345941497	700 44 0.900000 0.042000 0.041000 1200 39 1.000000 1.923000 1.967000 600 50 1.000000 0.051000 0.051000 1.200000 0.038000 0.045000
1560147738853125039	700 44 0.900000 0.032000 0.031000 1200 39 1.000000 1.859000 1.901000 600 50 1.000000 0.052000 0.052000 1.200000 0.024000 0.028000
1560147739360503706	700 44 0.900000 0.032000 0.031000 1200 39 1.000000 1.861000 1.903000 600 50 1.000000 0.052000 0.052000 1.200000 0.024000 0.028000
1560147739867771372	700 44 0.900000 0.049000 0.048000 1200 39 1.000000 1.854000 1.896000 600 50 1.000000 0.052000 0.052000 1.200000 0.032000 0.038000
1560147740375025456	700 44 0.900000 0.053000 0.052000 1200 38 1.000000 1.891000 1.934000 600 50 1.000000 0.052000 0.052000 1.200000 0.033000 0.039000
1560147740882109706	700 44 0.900000 0.032000 0.031000 1200 39 1.000000 1.856000 1.898000 600 50 1.000000 0.051000 0.051000 1.200000 0.024000 0.028000
1560147741389341956	700 44 0.900000 0.031000 0.030000 1200 39 1.000000 1.873000 1.916000 600 50 1.000000 0.052000 0.052000 1.200000 0.024000 0.028000
1560147741896598081	700 44 0.900000 0.035000 0.034000 1200 38 1.000000 1.858000 1.900000 600 50 1.000000 0.051000 0.051000 1.200000 0.032000 0.038000
1560147742403867331	700 44 0.900000 0.053000 0.052000 1200 39 1.000000 1.868000 1.910000 600 50 1.000000 0.051000 0.051000 1.200000 0.025000 0.030000
1560147742910947623	700 44 0.900000 0.031000 0.030000 1200 39 1.000000 1.862000 1.904000 600 50 1.000000 0.052000 0.052000 1.200000 0.025000 0.030000
1560147743418122081	700 44 0.900000 0.032000 0.031000 1200 38 1.000000 1.855000 1.897000 600 50 1.000000 0.052000 0.052000 1.200000 0.023000 0.027000
1560147743925322206	700 44 0.900000 0.048000 0.047000 1200 38 1.000000 1.855000 1.897000 600 50 1.000000 0.052000 0.052000 1.200000 0.024000 0.028000
1560147744434660039	700 44 0.900000 0.032000 0.031000 1200 38 1.000000 1.855000 1.897000 600 50 1.000000 0.052000 0.052000 1.200000 0.023000 0.027000
1560147744942613123	700 44 0.900000 0.053000 0.052000 1200 39 1.000000 1.916000 1.960000 600 50 1.000000 0.052000 0.052000 1.200000 0.045000 0.054000
1560147745449660248	700 44 0.900000 0.032000 0.031000 1200 38 1.000000 1.847000 1.889000 600 50 1.000000 0.051000 0.051000 1.200000 0.025000 0.030000
1560147745956929790	700 44 0.900000 0.034000 0.033000 1200 38 1.000000 1.859000 1.901000 600 50 1.000000 0.052000 0.052000 1.200000 0.025000 0.030000
1560147746463986540	700 44 0.900000 0.032000 0.031000 1200 38 1.000000 1.849000 1.891000 600 50 1.000000 0.051000 0.051000 1.200000 0.025000 0.030000
1560147746971184373	700 44 0.900000 0.055000 0.054000 1200 38 1.000000 1.897000 1.940000 600 50 1.000000 0.052000 0.052000 1.200000 0.036000 0.043000
1560147747478298123	700 44 0.900000 0.032000 0.031000 1200 38 1.000000 1.852000 1.894000 600 50 1.000000 0.051000 0.051000 1.200000 0.024000 0.028000
1560147747985453040	700 44 0.900000 0.047000 0.046000 1200 38 1.000000 1.858000 1.900000 600 50 1.000000 0.052000 0.052000 1.200000 0.029000 0.035000
1560147748492491040	700 44 0.900000 0.031000 0.030000 1200 38 1.000000 1.856000 1.898000 600 50 1.000000 0.052000 0.052000 1.200000 0.024000 0.028000
1560147748999798415	700 44 0.900000 0.055000 0.054000 1200 38 1.000000 1.867000 1.909000 600 50 1.000000 0.051000 0.051000 1.200000 0.029000 0.035000
1560147749507084873	700 44 0.900000 0.031000 0.030000 1200 39 1.000000 1.846000 1.888000 600 50 1.000000 0.051000 0.051000 1.200000 0.023000 0.027000
1560147750014256207	700 44 0.900000 0.032000 0.031000 1200 38 1.000000 1.842000 1.884000 600 50 1.000000 0.052000 0.052000 1.200000 0.025000 0.030000
1560147750521398415	700 44 0.900000 0.032000 0.031000 1200 38 1.000000 1.865000 1.907000 600 50 1.000000 0.051000 0.051000 1.200000 0.024000 0.028000
1560147751032341457	700 44 0.900000 0.031000 0.030000 1200 38 1.000000 1.844000 1.886000 600 50 1.000000 0.051000 0.051000 1.200000 0.024000 0.028000
1560147751540757415	700 44 0.900000 0.055000 0.054000 1200 38 1.000000 1.921000 1.965000 600 50 1.000000 0.051000 0.051000 1.200000 0.044000 0.053000
1560147752047968540	700 44 0.900000 0.032000 0.031000 1200 38 1.000000 1.862000 1.904000 600 49 1.000000 0.052000 0.052000 1.200000 0.023000 0.027000
1560147752555005457	700 44 0.900000 0.037000 0.036000 1200 38 1.000000 1.843000 1.885000 600 50 1.000000 0.052000 0.052000 1.200000 0.025000 0.030000
1560147753061974790	700 44 0.900000 0.032000 0.031000 1200 38 1.000000 1.864000 1.906000 600 50 1.000000 0.052000 0.052000 1.200000 0.023000 0.027000
1560147753569125416	700 44 0.900000 0.056000 0.055000 1200 38 1.000000 1.915000 1.959000 600 50 1.000000 0.052000 0.052000 1.200000 0.042000 0.050000
1560147754076277707	700 44 0.900000 0.032000 0.031000 1200 38 1.000000 1.866000 1.908000 600 50 1.000000 0.051000 0.051000 1.200000 0.024000 0.028000
1560147754583276666	700 44 0.900000 0.031000 0.030000 1200 38 1.000000 1.853000 1.895000 600 49 1.000000 0.051000 0.051000 1.200000 0.024000 0.028000
1560147755090156749	700 44 0.900000 0.031000 0.030000 1200 38 1.000000 1.854000 1.896000 600 50 1.000000 0.051000 0.051000 1.200000 0.023000 0.027000
1560147755597344416	700 44 0.900000 0.056000 0.055000 1200 38 1.000000 1.878000 1.921000 600 50 1.000000 0.051000 0.051000 1.200000 0.033000 0.039000
1560147756104708499	700 44 0.900000 0.032000 0.031000 1200 38 1.000000 1.843000 1.885000 600 50 1.000000 0.051000 0.051000 1.200000 0.023000 0.027000
1560147756612038999	700 44 0.900000 0.047000 0.046000 1200 38 1.000000 1.862000 1.904000 600 49 1.000000 0.051000 0.051000 1.200000 0.030000 0.036000
1560147757119077166	700 44 0.900000 0.032000 0.031000 1200 38 1.000000 1.844000 1.886000 600 49 1.000000 0.052000 0.052000 1.200000 0.024000 0.028000
1560147757629494291	700 44 0.900000 0.031000 0.030000 1200 38 1.000000 1.857000 1.899000 600 50 1.000000 0.052000 0.052000 1.200000 0.023000 0.027000
1560147758137547291	700 44 0.900000 0.055000 0.054000 1200 38 1.000000 1.928000 1.972000 600 50 1.000000 0.051000 0.051000 1.200000 0.041000 0.049000
1560147758644756333	700 44 0.900000 0.049000 0.048000 1200 38 1.000000 1.862000 1.904000 600 49 1.000000 0.051000 0.051000 1.200000 0.031000 0.037000
1560147759151803333	700 44 0.900000 0.032000 0.031000 1200 38 1.000000 1.857000 1.899000 600 49 1.000000 0.052000 0.052000 1.200000 0.023000 0.027000
1560147759658873916	700 44 0.900000 0.031000 0.030000 1200 38 1.000000 1.849000 1.891000 600 49 1.000000 0.051000 0.051000 1.200000 0.025000 0.030000
1560147760165851750	700 44 0.900000 0.054000 0.053000 1200 38 1.000000 1.947000 1.995000 600 49 1.000000 0.051000 0.051000 1.200000 0.041000 0.049000
1560147760673101750	700 44 0.900000 0.049000 0.048000 1200 38 1.000000 1.850000 1.892000 600 49 1.000000 0.051000 0.051000 1.200000 0.030000 0.036000
1560147761180138125	700 44 0.900000 0.031000 0.030000 1200 38 1.000000 1.844000 1.886000 600 50 1.000000 0.051000 0.051000 1.200000 0.023000 0.027000
1560147761687200167	700 44 0.900000 0.031000 0.030000 1200 38 1.000000 1.841000 1.883000 600 49 1.000000 0.052000 0.052000 1.200000 0.023000 0.027000
1560147762194175458	700 44 0.900000 0.052000 0.051000 1200 38 1.000000 1.938000 1.982000 600 49 1.000000 0.052000 0.052000 1.200000 0.040000 0.048000
1560147762701290083	700 44 0.900000 0.038000 0.037000 1200 38 1.000000 1.857000 1.899000 600 49 1.000000 0.051000 0.051000 1.200000 0.031000 0.037000
1560147763209850375	700 44 0.900000 0.032000 0.031000 1200 38 1.000000 1.862000 1.904000 600 49 1.000000 0.051000 0.051000 1.200000 0.024000 0.028000
1560147763717494792	700 44 0.900000 0.031000 0.030000 1200 38 1.000000 1.848000 1.890000 600 49 1.000000 0.051000 0.051000 1.200000 0.024000 0.028000
1560147764226714042	700 44 0.900000 0.033000 0.032000 1200 38 1.000000 1.855000 1.897000 600 49 1.000000 0.051000 0.051000 1.200000 0.024000 0.028000
1560147764734348709	700 44 0.900000 0.059000 0.058000 1200 38 1.000000 1.889000 1.932000 600 49 1.000000 0.052000 0.052000 1.200000 0.036000 0.043000
1560147765241424125	700 44 0.900000 0.032000 0.031000 1200 38 1.000000 1.842000 1.884000 600 49 1.000000 0.052000 0.052000 1.200000 0.024000 0.028000
1560147765748673250	700 44 0.900000 0.031000 0.030000 1200 38 1.000000 1.841000 1.883000 600 49 1.000000 0.052000 0.052000 1.200000 0.024000 0.028000
1560147766257746834	700 44 0.900000 0.032000 0.031000 1200 38 1.000000 1.854000 1.896000 600 49 1.000000 0.052000 0.052000 1.200000 0.023000 0.027000
1560147766765715000	700 44 0.900000 0.061000 0.060000 1200 38 1.000000 1.907000 1.950000 600 49 1.000000 0.051000 0.051000 1.200000 0.044000 0.053000
1560147767272830584	700 44 0.900000 0.031000 0.030000 1200 38 1.000000 1.846000 1.888000 600 49 1.000000 0.052000 0.052000 1.200000 0.024000 0.028000
1560147767779793417	700 44 0.900000 0.031000 0.030000 1200 38 1.000000 1.840000 1.882000 600 49 1.000000 0.052000 0.052000 1.200000 0.023000 0.027000
1560147768286888834	700 44 0.900000 0.031000 0.030000 1200 38 1.000000 1.844000 1.886000 600 49 1.000000 0.051000 0.051000 1.200000 0.023000 0.027000
1560147768794083542	700 44 0.900000 0.069000 0.068000 1200 38 1.000000 1.970000 2.015000 600 49 1.000000 0.052000 0.052000 1.200000 0.049000 0.059000
1560147769301272501	700 44 0.900000 0.031000 0.030000 1200 38 1.000000 1.842000 1.884000 600 49 1.000000 0.052000 0.052000 1.200000 0.023000 0.027000
1560147769808505792	700 44 0.900000 0.032000 0.031000 1200 38 1.000000 1.848000 1.890000 600 49 1.000000 0.051000 0.051000 1.200000 0.024000 0.028000
1560147770315719751	700 44 0.900000 0.031000 0.030000 1200 38 1.000000 1.869000 1.911000 600 49 1.000000 0.052000 0.052000 1.200000 0.024000 0.028000
1560147770825310751	700 44 0.900000 0.031000 0.030000 1200 38 1.000000 1.854000 1.896000 600 49 1.000000 0.051000 0.051000 1.200000 0.024000 0.028000
1560147771332990501	700 44 0.900000 0.074000 0.072000 1200 38 1.000000 1.861000 1.903000 600 49 1.000000 0.051000 0.051000 1.200000 0.026000 0.031000
1560147771840094459	700 44 0.900000 0.031000 0.030000 1200 38 1.000000 1.849000 1.891000 600 49 1.000000 0.051000 0.051000 1.200000 0.023000 0.027000
1560147772347193084	700 44 0.900000 0.031000 0.030000 1200 38 1.000000 1.841000 1.883000 600 49 1.000000 0.051000 0.051000 1.200000 0.023000 0.027000
1560147772854614126	700 44 0.900000 0.031000 0.030000 1200 38 1.000000 1.845000 1.887000 600 49 1.000000 0.051000 0.051000 1.200000 0.023000 0.027000
1560147773361801543	700 44 0.900000 0.065000 0.064000 1200 38 1.000000 1.871000 1.914000 600 49 1.000000 0.051000 0.051000 1.200000 0.034000 0.041000
1560147773868943293	700 44 0.900000 0.031000 0.030000 1200 38 1.000000 1.842000 1.884000 600 49 1.000000 0.051000 0.051000 1.200000 0.024000 0.028000
1560147774375976835	700 44 0.900000 0.031000 0.030000 1200 38 1.000000 1.857000 1.899000 600 49 1.000000 0.051000 0.051000 1.200000 0.023000 0.027000
1560147774883308293	700 44 0.900000 0.031000 0.030000 1200 38 1.000000 1.853000 1.895000 600 49 1.000000 0.051000 0.051000 1.200000 0.024000 0.028000
1560147775390581585	700 44 0.900000 0.062000 0.061000 1200 38 1.000000 1.881000 1.924000 600 49 1.000000 0.052000 0.052000 1.200000 0.042000 0.050000
1560147775897643460	700 44 0.900000 0.031000 0.030000 1200 38 1.000000 1.855000 1.897000 600 49 1.000000 0.051000 0.051000 1.200000 0.023000 0.027000
1560147776404695335	700 44 0.900000 0.032000 0.031000 1200 38 1.000000 1.853000 1.895000 600 49 1.000000 0.051000 0.051000 1.200000 0.025000 0.030000
1560147776911895835	700 44 0.900000 0.032000 0.031000 1200 38 1.000000 1.854000 1.896000 600 49 1.000000 0.051000 0.051000 1.200000 0.023000 0.027000
1560147777421571752	700 44 0.900000 0.034000 0.033000 1200 38 1.000000 1.873000 1.916000 600 49 1.000000 0.051000 0.051000 1.200000 0.031000 0.037000
1560147777929198460	700 44 0.900000 0.063000 0.062000 1200 38 1.000000 1.922000 1.966000 600 49 1.000000 0.052000 0.052000 1.200000 0.023000 0.027000
1560147778436345169	700 44 0.900000 0.032000 0.031000 1200 38 1.000000 1.857000 1.899000 600 49 1.000000 0.051000 0.051000 1.200000 0.023000 0.027000
1560147778946390919	700 44 0.900000 0.032000 0.031000 1200 38 1.000000 1.861000 1.903000 600 49 1.000000 0.052000 0.052000 1.200000 0.024000 0.028000
1560147779454352960	700 44 0.900000 0.050000 0.049000 1200 38 1.000000 1.853000 1.895000 600 49 1.000000 0.051000 0.051000 1.200000 0.025000 0.030000
1560147779961618960	700 44 0.900000 0.061000 0.060000 1200 38 1.000000 1.918000 1.962000 600 49 1.000000 0.051000 0.051000 1.200000 0.039000 0.047000
1560147780468611544	700 44 0.900000 0.031000 0.030000 1200 38 1.000000 1.854000 1.896000 600 49 1.000000 0.051000 0.051000 1.200000 0.025000 0.030000
1560147780975640544	700 44 0.900000 0.031000 0.030000 1200 38 1.000000 1.860000 1.902000 600 49 1.000000 0.051000 0.051000 1.200000 0.024000 0.028000
1560147781482706794	700 44 0.900000 0.048000 0.047000 1200 38 1.000000 1.866000 1.908000 600 49 1.000000 0.051000 0.051000 1.200000 0.027000 0.032000
1560147781989730127	700 44 0.900000 0.060000 0.059000 1200 38 1.000000 1.889000 1.932000 600 49 1.000000 0.051000 0.051000 1.200000 0.031000 0.037000
1560147782496830461	700 44 0.900000 0.031000 0.030000 1200 38 1.000000 1.852000 1.894000 600 49 1.000000 0.051000 0.051000 1.200000 0.024000 0.028000
1560147783003793877	700 44 0.900000 0.032000 0.031000 1200 38 1.000000 1.853000 1.895000 600 49 1.000000 0.052000 0.052000 1.200000 0.024000 0.028000
1560147783510865544	700 44 0.900000 0.032000 0.031000 1200 38 1.000000 1.862000 1.904000 600 49 1.000000 0.051000 0.051000 1.200000 0.024000 0.028000
1560147784019998086	700 44 0.900000 0.035000 0.034000 1200 38 1.000000 1.845000 1.887000 600 49 1.000000 0.052000 0.052000 1.200000 0.025000 0.030000
1560147784527700961	700 44 0.900000 0.062000 0.061000 1200 38 1.000000 1.911000 1.954000 600 49 1.000000 0.051000 0.051000 1.200000 0.045000 0.054000
1560147785034843711	700 44 0.900000 0.032000 0.031000 1200 38 1.000000 1.855000 1.897000 600 49 1.000000 0.052000 0.052000 1.200000 0.025000 0.030000
1560147785541943919	700 44 0.900000 0.032000 0.031000 1200 38 1.000000 1.851000 1.893000 600 49 1.000000 0.051000 0.051000 1.200000 0.024000 0.028000
1560147786049449544	700 44 0.900000 0.031000 0.030000 1200 38 1.000000 1.857000 1.899000 600 49 1.000000 0.051000 0.051000 1.200000 0.024000 0.028000
1560147786556679128	700 44 0.900000 0.060000 0.059000 1200 38 1.000000 1.925000 1.969000 600 49 1.000000 0.051000 0.051000 1.200000 0.043000 0.051000
1560147787063795628	700 44 0.900000 0.031000 0.030000 1200 38 1.000000 1.862000 1.904000 600 49 1.000000 0.052000 0.052000 1.200000 0.024000 0.028000
1560147787570899336	700 44 0.900000 0.034000 0.033000 1200 38 1.000000 1.858000 1.900000 600 49 1.000000 0.051000 0.051000 1.200000 0.024000 0.028000
1560147788077951003	700 44 0.900000 0.031000 0.030000 1200 38 1.000000 1.869000 1.911000 600 49 1.000000 0.052000 0.052000 1.200000 0.024000 0.028000
1560147788585230336	700 44 0.900000 0.058000 0.057000 1200 38 1.000000 1.896000 1.939000 600 49 1.000000 0.051000 0.051000 1.200000 0.036000 0.043000
1560147789092284253	700 44 0.900000 0.032000 0.031000 1200 38 1.000000 1.851000 1.893000 600 49 1.000000 0.052000 0.052000 1.200000 0.023000 0.027000
1560147789603093587	700 44 0.900000 0.031000 0.030000 1200 38 1.000000 1.849000 1.891000 600 49 1.000000 0.052000 0.052000 1.200000 0.023000 0.027000
1560147790110990128	700 44 0.900000 0.049000 0.048000 1200 38 1.000000 1.871000 1.914000 600 49 1.000000 0.051000 0.051000 1.200000 0.033000 0.039000
1560147790621715670	700 44 0.900000 0.031000 0.030000 1200 38 1.000000 1.861000 1.903000 600 49 1.000000 0.052000 0.052000 1.200000 0.023000 0.027000
1560147791130001545	700 44 0.900000 0.059000 0.058000 1200 38 1.000000 1.894000 1.937000 600 49 1.000000 0.051000 0.051000 1.200000 0.042000 0.050000
1560147791637416462	700 44 0.900000 0.032000 0.031000 1200 38 1.000000 1.856000 1.898000 600 49 1.000000 0.051000 0.051000 1.200000 0.024000 0.028000
1560147792144448253	700 44 0.900000 0.049000 0.048000 1200 38 1.000000 1.853000 1.895000 600 49 1.000000 0.051000 0.051000 1.200000 0.032000 0.038000
1560147792655682212	700 44 0.900000 0.032000 0.031000 1200 38 1.000000 1.848000 1.890000 600 49 1.000000 0.052000 0.052000 1.200000 0.025000 0.030000
1560147793164904045	700 44 0.900000 0.051000 0.050000 1200 38 1.000000 1.946000 1.994000 600 49 1.000000 0.051000 0.051000 1.200000 0.042000 0.050000
1560147793671904504	700 44 0.900000 0.031000 0.030000 1200 38 1.000000 1.869000 1.911000 600 49 1.000000 0.051000 0.051000 1.200000 0.023000 0.027000
1560147794179125045	700 44 0.900000 0.037000 0.036000 1200 38 1.000000 1.852000 1.894000 600 49 1.000000 0.052000 0.052000 1.200000 0.032000 0.038000
1560147794686086170	700 44 0.900000 0.031000 0.030000 1200 38 1.000000 1.841000 1.883000 600 49 1.000000 0.052000 0.052000 1.200000 0.023000 0.027000
1560147795193193796	700 44 0.900000 0.048000 0.047000 1200 38 1.000000 1.952000 1.996000 600 49 1.000000 0.051000 0.051000 1.200000 0.040000 0.048000
1560147795700230129	700 44 0.900000 0.032000 0.031000 1200 38 1.000000 1.855000 1.897000 600 49 1.000000 0.052000 0.052000 1.200000 0.023000 0.027000
1560147796207599421	700 44 0.900000 0.047000 0.046000 1200 38 1.000000 1.853000 1.895000 600 49 1.000000 0.051000 0.051000 1.200000 0.030000 0.036000
1560147796714718962	700 44 0.900000 0.032000 0.031000 1200 38 1.000000 1.866000 1.908000 600 49 1.000000 0.051000 0.051000 1.200000 0.024000 0.028000
1560147797221691379	700 44 0.900000 0.031000 0.030000 1200 38 1.000000 1.857000 1.899000 600 49 1.000000 0.051000 0.051000 1.200000 0.023000 0.027000
1560147797728910629	700 44 0.900000 0.045000 0.044000 1200 38 1.000000 1.889000 1.932000 600 49 1.000000 0.052000 0.052000 1.200000 0.031000 0.037000
1560147798236017088	700 44 0.900000 0.033000 0.032000 1200 38 1.000000 1.866000 1.908000 600 49 1.000000 0.051000 0.051000 1.200000 0.025000 0.030000
1560147798743217713	700 44 0.900000 0.032000 0.031000 1200 38 1.000000 1.862000 1.904000 600 49 1.000000 0.051000 0.051000 1.200000 0.024000 0.028000
1560147799251272088	700 44 0.900000 0.031000 0.030000 1200 38 1.000000 1.851000 1.893000 600 49 1.000000 0.051000 0.051000 1.200000 0.023000 0.027000
1560147799758473171	700 44 0.900000 0.042000 0.041000 1200 38 1.000000 1.896000 1.939000 600 49 1.000000 0.051000 0.051000 1.200000 0.035000 0.042000
1560147800265597879	700 44 0.900000 0.047000 0.046000 1200 38 1.000000 1.862000 1.904000 600 49 1.000000 0.051000 0.051000 1.200000 0.028000 0.033000
1560147800772777088	700 44 0.900000 0.031000 0.030000 1200 38 1.000000 1.855000 1.897000 600 49 1.000000 0.052000 0.052000 1.200000 0.024000 0.028000
1560147801279838546	700 44 0.900000 0.031000 0.030000 1200 38 1.000000 1.854000 1.896000 600 49 1.000000 0.052000 0.052000 1.200000 0.023000 0.027000
1560147801786873588	700 44 0.900000 0.046000 0.045000 1200 38 1.000000 1.927000 1.971000 600 49 1.000000 0.052000 0.052000 1.200000 0.040000 0.048000
1560147802293993921	700 44 0.900000 0.032000 0.031000 1200 38 1.000000 1.852000 1.894000 600 49 1.000000 0.051000 0.051000 1.200000 0.030000 0.036000
1560147802801046963	700 44 0.900000 0.032000 0.031000 1200 38 1.000000 1.847000 1.889000 600 49 1.000000 0.051000 0.051000 1.200000 0.023000 0.027000
1560147803309644755	700 44 0.900000 0.032000 0.031000 1200 38 1.000000 1.858000 1.900000 600 49 1.000000 0.051000 0.051000 1.200000 0.025000 0.030000
1560147803817006047	700 44 0.900000 0.033000 0.032000 1200 38 1.000000 1.851000 1.893000 600 49 1.000000 0.051000 0.051000 1.200000 0.024000 0.028000
1560147804324138838	700 44 0.900000 0.036000 0.035000 1200 38 1.000000 1.849000 1.891000 600 49 1.000000 0.051000 0.051000 1.200000 0.024000 0.028000
1560147804831311838	700 44 0.900000 0.037000 0.036000 1200 38 1.000000 1.856000 1.898000 600 49 1.000000 0.052000 0.052000 1.200000 0.024000 0.028000
1560147805338254922	700 44 0.900000 0.032000 0.031000 1200 38 1.000000 1.846000 1.888000 600 49 1.000000 0.051000 0.051000 1.200000 0.023000 0.027000
1560147805849508255	700 44 0.900000 0.031000 0.030000 1200 38 1.000000 1.853000 1.895000 600 49 1.000000 0.051000 0.051000 1.200000 0.025000 0.030000
1560147806357571797	700 44 0.900000 0.033000 0.032000 1200 38 1.000000 1.855000 1.897000 600 49 1.000000 0.051000 0.051000 1.200000 0.025000 0.030000
1560147806864765130	700 44 0.900000 0.031000 0.030000 1200 38 1.000000 1.848000 1.890000 600 49 1.000000 0.051000 0.051000 1.200000 0.023000 0.027000
1560147807371724714	700 44 0.900000 0.031000 0.030000 1200 38 1.000000 1.852000 1.894000 600 49 1.000000 0.051000 0.051000 1.200000 0.023000 0.027000
1560147807879788464	700 44 0.900000 0.032000 0.031000 1200 38 1.000000 1.851000 1.893000 600 49 1.000000 0.052000 0.052000 1.200000 0.023000 0.027000
1560147808387361880	700 44 0.900000 0.053000 0.052000 1200 38 1.000000 1.876000 1.919000 600 49 1.000000 0.052000 0.052000 1.200000 0.030000 0.036000
1560147808894609505	700 44 0.900000 0.047000 0.046000 1200 38 1.000000 1.852000 1.894000 600 49 1.000000 0.051000 0.051000 1.200000 0.023000 0.027000
1560147809401628464	700 44 0.900000 0.031000 0.030000 1200 38 1.000000 1.855000 1.897000 600 49 1.000000 0.051000 0.051000 1.200000 0.023000 0.027000
1560147809908790172	700 44 0.900000 0.032000 0.031000 1200 38 1.000000 1.856000 1.898000 600 49 1.000000 0.052000 0.052000 1.200000 0.024000 0.028000
1560147810416044297	700 44 0.900000 0.032000 0.031000 1200 38 1.000000 1.906000 1.949000 600 49 1.000000 0.051000 0.051000 1.200000 0.029000 0.035000
1560147810923214422	700 44 0.900000 0.049000 0.048000 1200 38 1.000000 1.866000 1.908000 600 49 1.000000 0.051000 0.051000 1.200000 0.032000 0.038000
1560147811430441589	700 44 0.900000 0.032000 0.031000 1200 38 1.000000 1.849000 1.891000 600 49 1.000000 0.051000 0.051000 1.200000 0.023000 0.027000
1560147811937490881	700 44 0.900000 0.031000 0.030000 1200 38 1.000000 1.846000 1.888000 600 49 1.000000 0.052000 0.052000 1.200000 0.023000 0.027000
1560147812444547089	700 44 0.900000 0.032000 0.031000 1200 38 1.000000 1.869000 1.911000 600 49 1.000000 0.051000 0.051000 1.200000 0.023000 0.027000
1560147812951749423	700 44 0.900000 0.046000 0.045000 1200 38 1.000000 1.858000 1.900000 600 49 1.000000 0.051000 0.051000 1.200000 0.031000 0.037000
1560147813458876756	700 44 0.900000 0.031000 0.030000 1200 38 1.000000 1.853000 1.895000 600 49 1.000000 0.051000 0.051000 1.200000 0.023000 0.027000
1560147813965853381	700 44 0.900000 0.031000 0.030000 1200 38 1.000000 1.877000 1.920000 600 49 1.000000 0.051000 0.051000 1.200000 0.023000 0.027000
1560147814477355964	700 44 0.900000 0.033000 0.032000 1200 38 1.000000 1.849000 1.891000 600 49 1.000000 0.051000 0.051000 1.200000 0.023000 0.027000
1560147814985489090	700 44 0.900000 0.066000 0.065000 1200 38 1.000000 1.962000 2.007000 600 49 1.000000 0.052000 0.052000 1.200000 0.029000 0.035000
1560147815492619048	700 44 0.900000 0.031000 0.030000 1200 38 1.000000 1.861000 1.903000 600 49 1.000000 0.051000 0.051000 1.200000 0.023000 0.027000
1560147815999676923	700 44 0.900000 0.031000 0.030000 1200 38 1.000000 1.858000 1.900000 600 49 1.000000 0.051000 0.051000 1.200000 0.023000 0.027000
1560147816506747131	700 44 0.900000 0.032000 0.031000 1200 38 1.000000 1.845000 1.887000 600 49 1.000000 0.051000 0.051000 1.200000 0.023000 0.027000
1560147817013872840	700 44 0.900000 0.033000 0.032000 1200 38 1.000000 1.850000 1.892000 600 49 1.000000 0.051000 0.051000 1.200000 0.042000 0.050000
1560147817521075798	700 44 0.900000 0.032000 0.031000 1200 38 1.000000 1.871000 1.914000 600 49 1.000000 0.051000 0.051000 1.200000 0.023000 0.027000
1560147818028097340	700 44 0.900000 0.031000 0.030000 1200 38 1.000000 1.855000 1.897000 600 49 1.000000 0.051000 0.051000 1.200000 0.023000 0.027000
1560147818535114965	700 44 0.900000 0.032000 0.031000 1200 38 1.000000 1.865000 1.907000 600 49 1.000000 0.052000 0.052000 1.200000 0.023000 0.027000
1560147819042034590	700 44 0.900000 0.037000 0.036000 1200 38 1.000000 1.857000 1.899000 600 49 1.000000 0.051000 0.051000 1.200000 0.037000 0.044000
1560147819549239923	700 44 0.900000 0.031000 0.030000 1200 38 1.000000 1.893000 1.936000 600 49 1.000000 0.052000 0.052000 1.200000 0.032000 0.038000
1560147820056174757	700 44 0.900000 0.031000 0.030000 1200 38 1.000000 1.866000 1.908000 600 49 1.000000 0.051000 0.051000 1.200000 0.024000 0.028000
1560147820563235924	700 44 0.900000 0.032000 0.031000 1200 38 1.000000 1.861000 1.903000 600 49 1.000000 0.051000 0.051000 1.200000 0.024000 0.028000
1560147821074237674	700 44 0.900000 0.032000 0.031000 1200 38 1.000000 1.856000 1.898000 600 49 1.000000 0.051000 0.051000 1.200000 0.024000 0.028000
1560147821581953590	700 44 0.900000 0.052000 0.051000 1200 38 1.000000 1.912000 1.955000 600 49 1.000000 0.051000 0.051000 1.200000 0.039000 0.047000
1560147822089134507	700 44 0.900000 0.031000 0.030000 1200 38 1.000000 1.851000 1.893000 600 49 1.000000 0.052000 0.052000 1.200000 0.024000 0.028000
1560147822596130299	700 43 0.900000 0.031000 0.030000 1200 38 1.000000 1.848000 1.890000 600 49 1.000000 0.051000 0.051000 1.200000 0.024000 0.028000
1560147823103307716	700 44 0.900000 0.031000 0.030000 1200 38 1.000000 1.847000 1.889000 600 49 1.000000 0.051000 0.051000 1.200000 0.023000 0.027000
1560147823610364507	700 44 0.900000 0.056000 0.055000 1200 38 1.000000 1.881000 1.924000 600 49 1.000000 0.052000 0.052000 1.200000 0.030000 0.036000
1560147824117429799	700 44 0.900000 0.031000 0.030000 1200 38 1.000000 1.855000 1.897000 600 49 1.000000 0.051000 0.051000 1.200000 0.024000 0.028000
1560147824624557174	700 44 0.900000 0.032000 0.031000 1200 38 1.000000 1.859000 1.901000 600 49 1.000000 0.051000 0.051000 1.200000 0.023000 0.027000
1560147825131884882	700 44 0.900000 0.031000 0.030000 1200 38 1.000000 1.853000 1.895000 600 49 1.000000 0.051000 0.051000 1.200000 0.024000 0.028000
1560147825638939091	700 44 0.900000 0.045000 0.044000 1200 38 1.000000 1.878000 1.921000 600 49 1.000000 0.051000 0.051000 1.200000 0.031000 0.037000
1560147826145943591	700 44 0.900000 0.031000 0.030000 1200 38 1.000000 1.845000 1.887000 600 49 1.000000 0.051000 0.051000 1.200000 0.025000 0.030000
1560147826652942883	700 44 0.900000 0.031000 0.030000 1200 38 1.000000 1.856000 1.898000 600 49 1.000000 0.051000 0.051000 1.200000 0.024000 0.028000
1560147827163794674	700 44 0.900000 0.032000 0.031000 1200 38 1.000000 1.851000 1.893000 600 49 1.000000 0.051000 0.051000 1.200000 0.024000 0.028000
1560147827675356258	700 44 0.900000 0.051000 0.050000 1200 38 1.000000 1.864000 1.906000 600 49 1.000000 0.051000 0.051000 1.200000 0.032000 0.038000
1560147828183175299	700 44 0.900000 0.041000 0.040000 1200 38 1.000000 1.847000 1.889000 600 49 1.000000 0.051000 0.051000 1.200000 0.029000 0.035000
1560147828690178425	700 44 0.900000 0.031000 0.030000 1200 38 1.000000 1.851000 1.893000 600 49 1.000000 0.052000 0.052000 1.200000 0.024000 0.028000
1560147829197150300	700 44 0.900000 0.031000 0.030000 1200 38 1.000000 1.848000 1.890000 600 49 1.000000 0.051000 0.051000 1.200000 0.023000 0.027000
1560147829704462008	700 44 0.900000 0.044000 0.043000 1200 38 1.000000 1.853000 1.895000 600 49 1.000000 0.052000 0.052000 1.200000 0.031000 0.037000
1560147830211554508	700 44 0.900000 0.050000 0.049000 1200 38 1.000000 1.911000 1.954000 600 49 1.000000 0.051000 0.051000 1.200000 0.032000 0.038000
1560147830718677841	700 43 0.900000 0.032000 0.031000 1200 38 1.000000 1.878000 1.921000 600 49 1.000000 0.051000 0.051000 1.200000 0.024000 0.028000
1560147831225576216	700 44 0.900000 0.030000 0.029000 1200 38 1.000000 1.856000 1.898000 600 49 1.000000 0.051000 0.051000 1.200000 0.024000 0.028000
1560147831732753508	700 44 0.900000 0.050000 0.049000 1200 38 1.000000 1.885000 1.928000 600 49 1.000000 0.051000 0.051000 1.200000 0.026000 0.031000
1560147832239812842	700 44 0.900000 0.050000 0.049000 1200 38 1.000000 1.898000 1.941000 600 49 1.000000 0.051000 0.051000 1.200000 0.026000 0.031000
1560147832746906050	700 44 0.900000 0.031000 0.030000 1200 38 1.000000 1.869000 1.911000 600 49 1.000000 0.051000 0.051000 1.200000 0.024000 0.028000
1560147833253814550	700 44 0.900000 0.031000 0.030000 1200 38 1.000000 1.854000 1.896000 600 49 1.000000 0.051000 0.051000 1.200000 0.023000 0.027000
1560147833760992925	700 44 0.900000 0.032000 0.031000 1200 38 1.000000 1.860000 1.902000 600 49 1.000000 0.052000 0.052000 1.200000 0.028000 0.033000
1560147834267893967	700 44 0.900000 0.031000 0.030000 1200 38 1.000000 1.859000 1.901000 600 49 1.000000 0.052000 0.052000 1.200000 0.023000 0.027000
1560147834774916759	700 44 0.900000 0.032000 0.031000 1200 38 1.000000 1.852000 1.894000 600 49 1.000000 0.051000 0.051000 1.200000 0.024000 0.028000
1560147835281842384	700 43 0.900000 0.031000 0.030000 1200 38 1.000000 1.843000 1.885000 600 49 1.000000 0.051000 0.051000 1.200000 0.023000 0.027000
1560147835788940925	700 44 0.900000 0.044000 0.043000 1200 38 1.000000 1.854000 1.896000 600 49 1.000000 0.051000 0.051000 1.200000 0.029000 0.035000
1560147836296381509	700 44 0.900000 0.035000 0.034000 1200 38 1.000000 1.850000 1.892000 600 49 1.000000 0.051000 0.051000 1.200000 0.025000 0.030000
1560147836804620050	700 44 0.900000 0.053000 0.052000 1200 38 1.000000 1.947000 1.991000 600 49 1.000000 0.051000 0.051000 1.200000 0.042000 0.050000
1560147837311659592	700 44 0.900000 0.031000 0.030000 1200 38 1.000000 1.869000 1.911000 600 49 1.000000 0.052000 0.052000 1.200000 0.024000 0.028000
1560147837818735884	700 44 0.900000 0.031000 0.030000 1200 38 1.000000 1.857000 1.899000 600 49 1.000000 0.051000 0.051000 1.200000 0.023000 0.027000
1560147838325740967	700 44 0.900000 0.032000 0.031000 1200 38 1.000000 1.867000 1.909000 600 49 1.000000 0.052000 0.052000 1.200000 0.025000 0.030000
1560147838832788217	700 44 0.900000 0.055000 0.054000 1200 38 1.000000 1.949000 1.993000 600 49 1.000000 0.051000 0.051000 1.200000 0.036000 0.043000
1560147839339822759	700 44 0.900000 0.031000 0.030000 1200 38 1.000000 1.846000 1.888000 600 49 1.000000 0.052000 0.052000 1.200000 0.025000 0.030000
1560147839846915718	700 44 0.900000 0.031000 0.030000 1200 38 1.000000 1.861000 1.903000 600 49 1.000000 0.052000 0.052000 1.200000 0.024000 0.028000
1560147840353854759	700 44 0.900000 0.045000 0.044000 1200 38 1.000000 1.855000 1.897000 600 49 1.000000 0.051000 0.051000 1.200000 0.023000 0.027000
1560147840860957759	700 44 0.900000 0.031000 0.030000 1200 38 1.000000 1.922000 1.966000 600 49 1.000000 0.052000 0.052000 1.200000 0.031000 0.037000
1560147841367911718	700 44 0.900000 0.032000 0.031000 1200 38 1.000000 1.840000 1.882000 600 49 1.000000 0.051000 0.051000 1.200000 0.023000 0.027000
1560147841875072218	700 43 0.900000 0.031000 0.030000 1200 38 1.000000 1.850000 1.892000 600 49 1.000000 0.051000 0.051000 1.200000 0.023000 0.027000
1560147842382095134	700 43 0.900000 0.031000 0.030000 1200 38 1.000000 1.856000 1.898000 600 49 1.000000 0.051000 0.051000 1.200000 0.023000 0.027000
1560147842893484343	700 44 0.900000 0.031000 0.030000 1200 38 1.000000 1.875000 1.918000 600 49 1.000000 0.051000 0.051000 1.200000 0.024000 0.028000
1560147843401551260	700 44 0.900000 0.063000 0.062000 1200 38 1.000000 1.894000 1.937000 600 49 1.000000 0.051000 0.051000 1.200000 0.043000 0.051000
1560147843908952093	700 44 0.900000 0.031000 0.030000 1200 38 1.000000 1.846000 1.888000 600 49 1.000000 0.051000 0.051000 1.200000 0.024000 0.028000
1560147844416177968	700 44 0.900000 0.050000 0.049000 1200 38 1.000000 1.867000 1.909000 600 49 1.000000 0.052000 0.052000 1.200000 0.032000 0.038000
1560147844923233843	700 44 0.900000 0.031000 0.030000 1200 38 1.000000 1.856000 1.898000 600 49 1.000000 0.051000 0.051000 1.200000 0.023000 0.027000
1560147845430310052	700 44 0.900000 0.053000 0.052000 1200 38 1.000000 1.947000 1.991000 600 49 1.000000 0.051000 0.051000 1.200000 0.043000 0.052000
1560147845937440802	700 44 0.900000 0.031000 0.030000 1200 38 1.000000 1.849000 1.891000 600 49 1.000000 0.051000 0.051000 1.200000 0.023000 0.027000
1560147846444687552	700 44 0.900000 0.044000 0.043000 1200 38 1.000000 1.854000 1.896000 600 49 1.000000 0.051000 0.051000 1.200000 0.031000 0.037000
1560147846951736468	700 43 0.900000 0.030000 0.029000 1200 38 1.000000 1.842000 1.884000 600 49 1.000000 0.051000 0.051000 1.200000 0.023000 0.027000
1560147847458724010	700 44 0.900000 0.036000 0.035000 1200 38 1.000000 1.952000 1.996000 600 49 1.000000 0.051000 0.051000 1.200000 0.039000 0.047000
1560147847965728677	700 43 0.900000 0.031000 0.030000 1200 38 1.000000 1.853000 1.895000 600 49 1.000000 0.051000 0.051000 1.200000 0.023000 0.027000
1560147848473017594	700 44 0.900000 0.047000 0.046000 1200 38 1.000000 1.857000 1.899000 600 49 1.000000 0.051000 0.051000 1.200000 0.030000 0.036000
1560147848980135094	700 44 0.900000 0.031000 0.030000 1200 38 1.000000 1.856000 1.898000 600 49 1.000000 0.051000 0.051000 1.200000 0.023000 0.027000
1560147849486995677	700 44 0.900000 0.032000 0.031000 1200 38 1.000000 1.856000 1.898000 600 49 1.000000 0.052000 0.052000 1.200000 0.024000 0.028000
1560147849994071802	700 44 0.900000 0.045000 0.044000 1200 38 1.000000 1.866000 1.908000 600 49 1.000000 0.051000 0.051000 1.200000 0.031000 0.037000
1560147850501297177	700 44 0.900000 0.034000 0.033000 1200 38 1.000000 1.861000 1.903000 600 49 1.000000 0.052000 0.052000 1.200000 0.026000 0.031000
1560147851008360011	700 44 0.900000 0.031000 0.030000 1200 38 1.000000 1.839000 1.881000 600 49 1.000000 0.051000 0.051000 1.200000 0.024000 0.028000
1560147851515593427	700 44 0.900000 0.031000 0.030000 1200 38 1.000000 1.844000 1.886000 600 49 1.000000 0.051000 0.051000 1.200000 0.024000 0.028000
1560147852022830677	700 44 0.900000 0.047000 0.046000 1200 38 1.000000 1.910000 1.953000 600 49 1.000000 0.052000 0.052000 1.200000 0.039000 0.047000
1560147852529915886	700 43 0.900000 0.032000 0.031000 1200 38 1.000000 1.844000 1.886000 600 49 1.000000 0.052000 0.052000 1.200000 0.028000 0.033000
1560147853036969302	700 44 0.900000 0.032000 0.031000 1200 38 1.000000 1.863000 1.903000 600 49 1.000000 0.051000 0.051000 1.200000 0.023000 0.027000
1560147853543987344	700 44 0.900000 0.031000 0.030000 1200 38 1.000000 1.855000 1.897000 600 49 1.000000 0.051000 0.051000 1.200000 0.023000 0.027000
1560147854051176553	700 44 0.900000 0.046000 0.045000 1200 38 1.000000 1.876000 1.919000 600 49 1.000000 0.052000 0.052000 1.200000 0.045000 0.054000
1560147854558347469	700 44 0.900000 0.032000 0.031000 1200 38 1.000000 1.865000 1.907000 600 49 1.000000 0.051000 0.051000 1.200000 0.030000 0.036000
1560147855065381553	700 43 0.900000 0.031000 0.030000 1200 38 1.000000 1.853000 1.895000 600 49 1.000000 0.051000 0.051000 1.200000 0.023000 0.027000
1560147855572494136	700 43 0.900000 0.031000 0.030000 1200 38 1.000000 1.853000 1.895000 600 49 1.000000 0.052000 0.052000 1.200000 0.023000 0.027000
1560147856083476094	700 44 0.900000 0.031000 0.030000 1200 38 1.000000 1.853000 1.895000 600 49 1.000000 0.051000 0.051000 1.200000 0.024000 0.028000
1560147856591357303	700 44 0.900000 0.048000 0.047000 1200 38 1.000000 1.919000 1.963000 600 49 1.000000 0.052000 0.052000 1.200000 0.027000 0.032000
1560147857098392136	700 43 0.900000 0.038000 0.037000 1200 38 1.000000 1.872000 1.915000 600 49 1.000000 0.051000 0.051000 1.200000 0.024000 0.028000
1560147857605418928	700 44 0.900000 0.031000 0.030000 1200 38 1.000000 1.858000 1.898000 600 49 1.000000 0.051000 0.051000 1.200000 0.023000 0.027000
1560147858112850636	700 43 0.900000 0.031000 0.030000 1200 38 1.000000 1.856000 1.898000 600 49 1.000000 0.051000 0.051000 1.200000 0.023000 0.027000
1560147858620142470	700 44 0.900000 0.045000 0.044000 1200 38 1.000000 1.925000 1.969000 600 49 1.000000 0.052000 0.052000 1.200000 0.032000 0.038000
1560147859127308511	700 43 0.900000 0.047000 0.046000 1200 38 1.000000 1.872000 1.915000 600 49 1.000000 0.051000 0.051000 1.200000 0.023000 0.027000
1560147859634256220	700 43 0.900000 0.031000 0.030000 1200 38 1.000000 1.855000 1.897000 600 49 1.000000 0.051000 0.051000 1.200000 0.023000 0.027000
1560147860141239095	700 43 0.900000 0.032000 0.031000 1200 38 1.000000 1.868000 1.909000 600 49 1.000000 0.051000 0.051000 1.200000 0.023000 0.027000
1560147860648374178	700 44 0.900000 0.046000 0.045000 1200 38 1.000000 1.916000 1.960000 600 49 1.000000 0.051000 0.051000 1.200000 0.028000 0.033000
1560147861155723345	700 44 0.900000 0.040000 0.039000 1200 38 1.000000 1.894000 1.937000 600 49 1.000000 0.051000 0.051000 1.200000 0.031000 0.037000
1560147861662889720	700 43 0.900000 0.032000 0.031000 1200 38 1.000000 1.852000 1.894000 600 49 1.000000 0.051000 0.051000 1.200000 0.024000 0.028000
1560147862170018512	700 44 0.900000 0.031000 0.030000 1200 38 1.000000 1.858000 1.900000 600 49 1.000000 0.051000 0.051000 1.200000 0.024000 0.028000
1560147862677139887	700 44 0.900000 0.032000 0.031000 1200 38 1.000000 1.847000 1.889000 600 49 1.000000 0.052000 0.052000 1.200000 0.023000 0.027000
1560147863184279012	700 44 0.900000 0.054000 0.053000 1200 38 1.000000 1.937000 1.981000 600 49 1.000000 0.051000 0.051000 1.200000 0.043000 0.051000
1560147863691376637	700 44 0.900000 0.031000 0.030000 1200 38 1.000000 1.865000 1.907000 600 49 1.000000 0.051000 0.051000 1.200000 0.023000 0.027000
1560147864198313095	700 44 0.900000 0.032000 0.031000 1200 38 1.000000 1.859000 1.901000 600 49 1.000000 0.051000 0.051000 1.200000 0.024000 0.028000
1560147864707491929	700 44 0.900000 0.031000 0.030000 1200 38 1.000000 1.868000 1.910000 600 49 1.000000 0.051000 0.051000 1.200000 0.023000 0.027000
1560147865218213596	700 44 0.900000 0.058000 0.057000 1200 38 1.000000 1.919000 1.963000 600 49 1.000000 0.051000 0.051000 1.200000 0.044000 0.053000
1560147865725900429	700 44 0.900000 0.032000 0.031000 1200 38 1.000000 1.853000 1.895000 600 49 1.000000 0.051000 0.051000 1.200000 0.025000 0.030000
1560147866232925054	700 43 0.900000 0.032000 0.031000 1200 38 1.000000 1.864000 1.906000 600 49 1.000000 0.051000 0.051000 1.200000 0.023000 0.027000
1560147866740040512	700 44 0.900000 0.032000 0.031000 1200 38 1.000000 1.855000 1.897000 600 49 1.000000 0.051000 0.051000 1.200000 0.025000 0.030000
1560147867247243304	700 44 0.900000 0.069000 0.067000 1200 38 1.000000 1.944000 1.988000 600 49 1.000000 0.052000 0.052000 1.200000 0.037000 0.044000
1560147867754374471	700 44 0.900000 0.031000 0.030000 1200 38 1.000000 1.861000 1.903000 600 49 1.000000 0.051000 0.051000 1.200000 0.024000 0.028000
1560147868261328221	700 44 0.900000 0.031000 0.030000 1200 38 1.000000 1.858000 1.900000 600 49 1.000000 0.052000 0.052000 1.200000 0.024000 0.028000
1560147868768346763	700 43 0.900000 0.031000 0.030000 1200 38 1.000000 1.853000 1.895000 600 49 1.000000 0.051000 0.051000 1.200000 0.024000 0.028000
1560147869275418388	700 44 0.900000 0.032000 0.031000 1200 38 1.000000 1.947000 1.991000 600 49 1.000000 0.051000 0.051000 1.200000 0.030000 0.036000
1560147869782634929	700 44 0.900000 0.032000 0.031000 1200 38 1.000000 1.897000 1.940000 600 49 1.000000 0.051000 0.051000 1.200000 0.039000 0.047000
1560147870289728471	700 44 0.900000 0.031000 0.030000 1200 38 1.000000 1.861000 1.903000 600 49 1.000000 0.051000 0.051000 1.200000 0.024000 0.028000
1560147870796823555	700 43 0.900000 0.031000 0.030000 1200 38 1.000000 1.860000 1.902000 600 49 1.000000 0.051000 0.051000 1.200000 0.023000 0.027000
1560147871309633305	700 44 0.900000 0.031000 0.030000 1200 38 1.000000 1.854000 1.896000 600 49 1.000000 0.051000 0.051000 1.200000 0.024000 0.028000
1560147871817870305	700 44 0.900000 0.068000 0.066000 1200 38 1.000000 1.925000 1.969000 600 49 1.000000 0.052000 0.052000 1.200000 0.042000 0.050000
1560147872324974596	700 44 0.900000 0.032000 0.031000 1200 38 1.000000 1.858000 1.900000 600 49 1.000000 0.051000 0.051000 1.200000 0.023000 0.027000
1560147872832008263	700 44 0.900000 0.031000 0.030000 1200 38 1.000000 1.855000 1.897000 600 49 1.000000 0.051000 0.051000 1.200000 0.024000 0.028000
1560147873339047763	700 44 0.900000 0.032000 0.031000 1200 38 1.000000 1.848000 1.890000 600 49 1.000000 0.052000 0.052000 1.200000 0.024000 0.028000
1560147873846166847	700 44 0.900000 0.060000 0.059000 1200 38 1.000000 1.919000 1.963000 600 49 1.000000 0.051000 0.051000 1.200000 0.045000 0.054000
1560147874353177055	700 44 0.900000 0.031000 0.030000 1200 38 1.000000 1.852000 1.894000 600 49 1.000000 0.051000 0.051000 1.200000 0.024000 0.028000
1560147874860153097	700 44 0.900000 0.031000 0.030000 1200 38 1.000000 1.853000 1.895000 600 49 1.000000 0.051000 0.051000 1.200000 0.024000 0.028000
1560147875367351180	700 44 0.900000 0.031000 0.030000 1200 38 1.000000 1.850000 1.892000 600 49 1.000000 0.051000 0.051000 1.200000 0.023000 0.027000
1560147875874355305	700 44 0.900000 0.061000 0.060000 1200 38 1.000000 1.914000 1.958000 600 49 1.000000 0.052000 0.052000 1.200000 0.038000 0.045000
1560147876381592305	700 44 0.900000 0.031000 0.030000 1200 38 1.000000 1.864000 1.906000 600 49 1.000000 0.052000 0.052000 1.200000 0.032000 0.038000
1560147876888685139	700 44 0.900000 0.032000 0.031000 1200 38 1.000000 1.850000 1.892000 600 49 1.000000 0.051000 0.051000 1.200000 0.023000 0.027000
1560147877396014639	700 43 0.900000 0.031000 0.030000 1200 38 1.000000 1.860000 1.902000 600 49 1.000000 0.051000 0.051000 1.200000 0.024000 0.028000
1560147877906820514	700 43 0.900000 0.044000 0.043000 1200 38 1.000000 1.875000 1.918000 600 49 1.000000 0.051000 0.051000 1.200000 0.032000 0.038000
1560147878414963972	700 44 0.900000 0.061000 0.060000 1200 38 1.000000 1.887000 1.930000 600 49 1.000000 0.052000 0.052000 1.200000 0.038000 0.045000
1560147878922042930	700 44 0.900000 0.031000 0.030000 1200 38 1.000000 1.848000 1.890000 600 49 1.000000 0.051000 0.051000 1.200000 0.024000 0.028000
1560147879429144722	700 44 0.900000 0.031000 0.030000 1200 38 1.000000 1.850000 1.892000 600 49 1.000000 0.052000 0.052000 1.200000 0.023000 0.027000
1560147879936192264	700 43 0.900000 0.048000 0.047000 1200 38 1.000000 1.852000 1.894000 600 49 1.000000 0.051000 0.051000 1.200000 0.031000 0.037000
1560147880443305847	700 44 0.900000 0.053000 0.052000 1200 38 1.000000 1.922000 1.966000 600 49 1.000000 0.051000 0.051000 1.200000 0.040000 0.048000
1560147880950385222	700 43 0.900000 0.031000 0.030000 1200 38 1.000000 1.836000 1.878000 600 49 1.000000 0.051000 0.051000 1.200000 0.023000 0.027000
1560147881457448514	700 43 0.900000 0.031000 0.030000 1200 38 1.000000 1.841000 1.883000 600 49 1.000000 0.051000 0.051000 1.200000 0.023000 0.027000
1560147881964555723	700 44 0.900000 0.046000 0.045000 1200 38 1.000000 1.844000 1.886000 600 49 1.000000 0.051000 0.051000 1.200000 0.030000 0.036000
1560147882471688223	700 44 0.900000 0.053000 0.052000 1200 38 1.000000 1.945000 1.989000 600 49 1.000000 0.051000 0.051000 1.200000 0.041000 0.049000
1560147882978783223	700 44 0.900000 0.032000 0.031000 1200 38 1.000000 1.849000 1.891000 600 49 1.000000 0.051000 0.051000 1.200000 0.023000 0.027000
1560147883485722764	700 43 0.900000 0.031000 0.030000 1200 38 1.000000 1.863000 1.905000 600 49 1.000000 0.051000 0.051000 1.200000 0.024000 0.028000
1560147883992794348	700 44 0.900000 0.031000 0.030000 1200 38 1.000000 1.849000 1.891000 600 49 1.000000 0.051000 0.051000 1.200000 0.023000 0.027000
1560147884499817056	700 44 0.900000 0.031000 0.030000 1200 38 1.000000 1.841000 1.883000 600 49 1.000000 0.051000 0.051000 1.200000 0.024000 0.028000
1560147885006902390	700 44 0.900000 0.051000 0.050000 1200 38 1.000000 1.846000 1.888000 600 49 1.000000 0.052000 0.052000 1.200000 0.027000 0.032000
1560147885513879681	700 44 0.900000 0.031000 0.030000 1200 38 1.000000 1.838000 1.880000 600 49 1.000000 0.051000 0.051000 1.200000 0.024000 0.028000
1560147886021025848	700 43 0.900000 0.032000 0.031000 1200 38 1.000000 1.843000 1.885000 600 49 1.000000 0.052000 0.052000 1.200000 0.026000 0.031000
1560147886530135556	700 43 0.900000 0.031000 0.030000 1200 38 1.000000 1.840000 1.882000 600 49 1.000000 0.052000 0.052000 1.200000 0.023000 0.027000
1560147887037947306	700 43 0.900000 0.055000 0.054000 1200 38 1.000000 1.853000 1.895000 600 49 1.000000 0.051000 0.051000 1.200000 0.034000 0.041000
1560147887545010848	700 43 0.900000 0.031000 0.030000 1200 38 1.000000 1.835000 1.877000 600 49 1.000000 0.051000 0.051000 1.200000 0.023000 0.027000
1560147888052090057	700 43 0.900000 0.043000 0.042000 1200 38 1.000000 1.840000 1.882000 600 49 1.000000 0.051000 0.051000 1.200000 0.029000 0.035000
1560147888559167765	700 43 0.900000 0.031000 0.030000 1200 38 1.000000 1.838000 1.880000 600 49 1.000000 0.052000 0.052000 1.200000 0.023000 0.027000
1560147889066275307	700 43 0.900000 0.054000 0.053000 1200 38 1.000000 1.881000 1.924000 600 49 1.000000 0.051000 0.051000 1.200000 0.043000 0.051000
1560147889573318765	700 43 0.900000 0.032000 0.031000 1200 38 1.000000 1.844000 1.886000 600 49 1.000000 0.051000 0.051000 1.200000 0.025000 0.030000
1560147890080406723	700 43 0.900000 0.032000 0.031000 1200 38 1.000000 1.845000 1.887000 600 49 1.000000 0.051000 0.051000 1.200000 0.023000 0.027000
1560147890587514724	700 43 0.900000 0.048000 0.047000 1200 38 1.000000 1.852000 1.892000 600 49 1.000000 0.051000 0.051000 1.200000 0.025000 0.030000
1560147891094499599	700 44 0.900000 0.032000 0.031000 1200 38 1.000000 1.850000 1.890000 600 49 1.000000 0.051000 0.051000 1.200000 0.023000 0.027000
1560147891601646640	700 43 0.900000 0.053000 0.052000 1200 38 1.000000 1.910000 1.953000 600 49 1.000000 0.052000 0.052000 1.200000 0.023000 0.027000
1560147892108856099	700 43 0.900000 0.032000 0.031000 1200 38 1.000000 1.850000 1.892000 600 49 1.000000 0.051000 0.051000 1.200000 0.023000 0.027000
1560147892616110265	700 43 0.900000 0.047000 0.046000 1200 38 1.000000 1.856000 1.896000 600 49 1.000000 0.051000 0.051000 1.200000 0.023000 0.027000
1560147893123561057	700 43 0.900000 0.030000 0.029000 1200 38 1.000000 1.844000 1.886000 600 49 1.000000 0.052000 0.052000 1.200000 0.023000 0.027000
1560147893630736141	700 43 0.900000 0.047000 0.046000 1200 38 1.000000 1.949000 1.993000 600 49 1.000000 0.052000 0.052000 1.200000 0.028000 0.033000
1560147894138100057	700 43 0.900000 0.031000 0.030000 1200 38 1.000000 1.836000 1.876000 600 49 1.000000 0.051000 0.051000 1.200000 0.023000 0.027000
1560147894645340141	700 43 0.900000 0.031000 0.030000 1200 38 1.000000 1.864000 1.906000 600 49 1.000000 0.051000 0.051000 1.200000 0.023000 0.027000
1560147895152478891	700 43 0.900000 0.031000 0.030000 1200 38 1.000000 1.846000 1.888000 600 49 1.000000 0.052000 0.052000 1.200000 0.023000 0.027000
1560147895662254516	700 44 0.900000 0.044000 0.043000 1200 38 1.000000 1.926000 1.970000 600 49 1.000000 0.051000 0.051000 1.200000 0.033000 0.039000
1560147896169896099	700 43 0.900000 0.032000 0.031000 1200 38 1.000000 1.866000 1.908000 600 49 1.000000 0.051000 0.051000 1.200000 0.024000 0.028000
1560147896677136099	700 43 0.900000 0.032000 0.031000 1200 38 1.000000 1.844000 1.886000 600 49 1.000000 0.051000 0.051000 1.200000 0.031000 0.037000
1560147897184187141	700 43 0.900000 0.031000 0.030000 1200 38 1.000000 1.857000 1.899000 600 49 1.000000 0.052000 0.052000 1.200000 0.023000 0.027000
1560147897691088474	700 44 0.900000 0.032000 0.031000 1200 38 1.000000 1.836000 1.878000 600 49 1.000000 0.052000 0.052000 1.200000 0.026000 0.031000
1560147898198024724	700 43 0.900000 0.041000 0.040000 1200 38 1.000000 1.911000 1.954000 600 49 1.000000 0.052000 0.052000 1.200000 0.024000 0.028000
1560147898705220766	700 43 0.900000 0.042000 0.041000 1200 38 1.000000 1.845000 1.887000 600 49 1.000000 0.052000 0.052000 1.200000 0.030000 0.036000
1560147899212328433	700 43 0.900000 0.031000 0.030000 1200 37 1.000000 1.851000 1.893000 600 49 1.000000 0.051000 0.051000 1.200000 0.023000 0.027000
1560147899722197433	700 43 0.900000 0.032000 0.031000 1200 38 1.000000 1.850000 1.892000 600 49 1.000000 0.051000 0.051000 1.200000 0.023000 0.027000
1560147900229818766	700 43 0.900000 0.037000 0.036000 1200 38 1.000000 1.918000 1.962000 600 49 1.000000 0.052000 0.052000 1.200000 0.023000 0.027000
1560147900737093225	700 43 0.900000 0.049000 0.048000 1200 38 1.000000 1.867000 1.909000 600 49 1.000000 0.051000 0.051000 1.200000 0.031000 0.037000
1560147901244301683	700 43 0.900000 0.031000 0.030000 1200 38 1.000000 1.842000 1.884000 600 49 1.000000 0.051000 0.051000 1.200000 0.024000 0.028000
1560147901751401725	700 43 0.900000 0.031000 0.030000 1200 38 1.000000 1.837000 1.879000 600 49 1.000000 0.051000 0.051000 1.200000 0.024000 0.028000
1560147902258665600	700 43 0.900000 0.038000 0.037000 1200 38 1.000000 1.926000 1.970000 600 49 1.000000 0.051000 0.051000 1.200000 0.043000 0.051000
1560147902765753892	700 43 0.900000 0.032000 0.031000 1200 38 1.000000 1.852000 1.892000 600 49 1.000000 0.051000 0.051000 1.200000 0.025000 0.030000
1560147903272829392	700 43 0.900000 0.048000 0.047000 1200 38 1.000000 1.851000 1.893000 600 49 1.000000 0.051000 0.051000 1.200000 0.030000 0.036000
1560147903780082975	700 43 0.900000 0.032000 0.031000 1200 37 1.000000 1.847000 1.889000 600 49 1.000000 0.051000 0.051000 1.200000 0.024000 0.028000
1560147904287367767	700 44 0.900000 0.031000 0.030000 1200 38 1.000000 1.845000 1.887000 600 49 1.000000 0.052000 0.052000 1.200000 0.023000 0.027000
1560147904794489142	700 43 0.900000 0.038000 0.037000 1200 38 1.000000 1.849000 1.891000 600 49 1.000000 0.051000 0.051000 1.200000 0.034000 0.041000
1560147905301530767	700 43 0.900000 0.031000 0.030000 1200 38 1.000000 1.857000 1.899000 600 49 1.000000 0.051000 0.051000 1.200000 0.028000 0.033000
1560147905808620142	700 43 0.900000 0.032000 0.031000 1200 38 1.000000 1.841000 1.883000 600 49 1.000000 0.051000 0.051000 1.200000 0.024000 0.028000
1560147906316082684	700 43 0.900000 0.031000 0.030000 1200 38 1.000000 1.853000 1.895000 600 49 1.000000 0.051000 0.051000 1.200000 0.024000 0.028000
1560147906823168267	700 44 0.900000 0.037000 0.036000 1200 38 1.000000 1.872000 1.915000 600 49 1.000000 0.051000 0.051000 1.200000 0.041000 0.049000
1560147907330187392	700 43 0.900000 0.031000 0.030000 1200 38 1.000000 1.839000 1.881000 600 49 1.000000 0.051000 0.051000 1.200000 0.025000 0.030000
1560147907837288767	700 43 0.900000 0.031000 0.030000 1200 38 1.000000 1.835000 1.877000 600 49 1.000000 0.051000 0.051000 1.200000 0.024000 0.028000
1560147908344299892	700 43 0.900000 0.031000 0.030000 1200 38 1.000000 1.839000 1.881000 600 49 1.000000 0.052000 0.052000 1.200000 0.025000 0.030000
1560147908851677309	700 44 0.900000 0.045000 0.044000 1200 38 1.000000 1.895000 1.938000 600 49 1.000000 0.051000 0.051000 1.200000 0.045000 0.054000
1560147909359013976	700 43 0.900000 0.045000 0.044000 1200 38 1.000000 1.852000 1.894000 600 49 1.000000 0.051000 0.051000 1.200000 0.031000 0.037000
1560147909865943684	700 43 0.900000 0.031000 0.030000 1200 38 1.000000 1.852000 1.892000 600 49 1.000000 0.051000 0.051000 1.200000 0.024000 0.028000
1560147910372942934	700 43 0.900000 0.032000 0.031000 1200 38 1.000000 1.850000 1.892000 600 49 1.000000 0.051000 0.051000 1.200000 0.024000 0.028000
1560147910880212393	700 43 0.900000 0.031000 0.030000 1200 38 1.000000 1.848000 1.890000 600 49 1.000000 0.051000 0.051000 1.200000 0.024000 0.028000
1560147911387499184	700 43 0.900000 0.048000 0.047000 1200 38 1.000000 1.881000 1.924000 600 49 1.000000 0.052000 0.052000 1.200000 0.035000 0.042000
1560147911894499726	700 43 0.900000 0.031000 0.030000 1200 38 1.000000 1.852000 1.894000 600 49 1.000000 0.051000 0.051000 1.200000 0.024000 0.028000
1560147912401531559	700 43 0.900000 0.032000 0.031000 1200 38 1.000000 1.851000 1.893000 600 49 1.000000 0.052000 0.052000 1.200000 0.024000 0.028000
1560147912909099643	700 43 0.900000 0.031000 0.030000 1200 38 1.000000 1.843000 1.885000 600 49 1.000000 0.051000 0.051000 1.200000 0.024000 0.028000
1560147913416313851	700 43 0.900000 0.052000 0.051000 1200 38 1.000000 1.860000 1.902000 600 49 1.000000 0.051000 0.051000 1.200000 0.043000 0.051000
1560147913923435226	700 43 0.900000 0.032000 0.031000 1200 38 1.000000 1.844000 1.886000 600 49 1.000000 0.051000 0.051000 1.200000 0.025000 0.030000
1560147914430626060	700 43 0.900000 0.031000 0.030000 1200 38 1.000000 1.839000 1.881000 600 49 1.000000 0.051000 0.051000 1.200000 0.023000 0.027000
1560147914937656310	700 43 0.900000 0.031000 0.030000 1200 38 1.000000 1.835000 1.877000 600 49 1.000000 0.051000 0.051000 1.200000 0.023000 0.027000
1560147915444812227	700 43 0.900000 0.074000 0.072000 1200 38 1.000000 1.886000 1.929000 600 49 1.000000 0.051000 0.051000 1.200000 0.024000 0.028000
1560147915951845352	700 43 0.900000 0.038000 0.037000 1200 38 1.000000 1.850000 1.892000 600 49 1.000000 0.051000 0.051000 1.200000 0.024000 0.028000
1560147916458875477	700 43 0.900000 0.031000 0.030000 1200 38 1.000000 1.851000 1.893000 600 49 1.000000 0.051000 0.051000 1.200000 0.024000 0.028000
1560147916965826727	700 43 0.900000 0.031000 0.030000 1200 38 1.000000 1.847000 1.889000 600 49 1.000000 0.051000 0.051000 1.200000 0.023000 0.027000
1560147917473040935	700 43 0.900000 0.032000 0.031000 1200 38 1.000000 1.863000 1.905000 600 49 1.000000 0.051000 0.051000 1.200000 0.024000 0.028000
1560147917980028060	700 43 0.900000 0.038000 0.037000 1200 38 1.000000 1.836000 1.878000 600 49 1.000000 0.052000 0.052000 1.200000 0.026000 0.031000
1560147918487097769	700 43 0.900000 0.031000 0.030000 1200 38 1.000000 1.845000 1.885000 600 49 1.000000 0.051000 0.051000 1.200000 0.025000 0.030000
1560147918994129685	700 43 0.900000 0.032000 0.031000 1200 38 1.000000 1.844000 1.886000 600 49 1.000000 0.051000 0.051000 1.200000 0.024000 0.028000
1560147919501758519	700 43 0.900000 0.037000 0.036000 1200 38 1.000000 1.839000 1.881000 600 49 1.000000 0.051000 0.051000 1.200000 0.024000 0.028000
1560147920009063144	700 43 0.900000 0.035000 0.034000 1200 38 1.000000 1.841000 1.883000 600 49 1.000000 0.051000 0.051000 1.200000 0.033000 0.039000
1560147920516135685	700 43 0.900000 0.031000 0.030000 1200 38 1.000000 1.844000 1.886000 600 49 1.000000 0.051000 0.051000 1.200000 0.023000 0.027000
1560147921023190686	700 43 0.900000 0.031000 0.030000 1200 38 1.000000 1.841000 1.883000 600 49 1.000000 0.051000 0.051000 1.200000 0.023000 0.027000
1560147921530264061	700 43 0.900000 0.047000 0.046000 1200 38 1.000000 1.845000 1.887000 600 49 1.000000 0.051000 0.051000 1.200000 0.025000 0.030000
1560147922041170686	700 43 0.900000 0.047000 0.046000 1200 38 1.000000 1.895000 1.938000 600 49 1.000000 0.051000 0.051000 1.200000 0.035000 0.042000
1560147922549250144	700 43 0.900000 0.035000 0.034000 1200 37 1.000000 1.840000 1.882000 600 49 1.000000 0.051000 0.051000 1.200000 0.024000 0.028000
1560147923056407144	700 43 0.900000 0.032000 0.031000 1200 38 1.000000 1.851000 1.893000 600 49 1.000000 0.051000 0.051000 1.200000 0.023000 0.027000
1560147923566281394	700 43 0.900000 0.031000 0.030000 1200 38 1.000000 1.850000 1.892000 600 49 1.000000 0.051000 0.051000 1.200000 0.024000 0.028000
1560147924074003478	700 44 0.900000 0.050000 0.049000 1200 38 1.000000 1.858000 1.900000 600 49 1.000000 0.051000 0.051000 1.200000 0.028000 0.033000
1560147924581234228	700 43 0.900000 0.035000 0.034000 1200 38 1.000000 1.838000 1.880000 600 49 1.000000 0.051000 0.051000 1.200000 0.024000 0.028000
1560147925088246894	700 43 0.900000 0.031000 0.030000 1200 38 1.000000 1.836000 1.878000 600 49 1.000000 0.052000 0.052000 1.200000 0.025000 0.030000
1560147925595494853	700 43 0.900000 0.031000 0.030000 1200 38 1.000000 1.843000 1.885000 600 49 1.000000 0.051000 0.051000 1.200000 0.023000 0.027000
1560147926106639561	700 43 0.900000 0.032000 0.031000 1200 38 1.000000 1.845000 1.887000 600 49 1.000000 0.051000 0.051000 1.200000 0.025000 0.030000
1560147926614931853	700 43 0.900000 0.034000 0.033000 1200 38 1.000000 1.834000 1.876000 600 49 1.000000 0.051000 0.051000 1.200000 0.029000 0.035000
1560147927121972311	700 43 0.900000 0.031000 0.030000 1200 38 1.000000 1.837000 1.879000 600 49 1.000000 0.051000 0.051000 1.200000 0.023000 0.027000
1560147927629085603	700 43 0.900000 0.031000 0.030000 1200 38 1.000000 1.844000 1.886000 600 49 1.000000 0.051000 0.051000 1.200000 0.023000 0.027000
1560147928136306103	700 43 0.900000 0.048000 0.047000 1200 38 1.000000 1.839000 1.881000 600 49 1.000000 0.051000 0.051000 1.200000 0.024000 0.028000
1560147928643424895	700 43 0.900000 0.060000 0.059000 1200 38 1.000000 1.908000 1.951000 600 49 1.000000 0.051000 0.051000 1.200000 0.037000 0.044000
1560147929150652228	700 43 0.900000 0.034000 0.033000 1200 38 1.000000 1.849000 1.891000 600 49 1.000000 0.051000 0.051000 1.200000 0.024000 0.028000
1560147929657700270	700 43 0.900000 0.032000 0.031000 1200 38 1.000000 1.852000 1.894000 600 49 1.000000 0.051000 0.051000 1.200000 0.024000 0.028000
1560147930164825187	700 43 0.900000 0.037000 0.036000 1200 38 1.000000 1.852000 1.894000 600 49 1.000000 0.051000 0.051000 1.200000 0.031000 0.037000
1560147930672031603	700 43 0.900000 0.031000 0.030000 1200 38 1.000000 1.850000 1.892000 600 49 1.000000 0.051000 0.051000 1.200000 0.024000 0.028000
1560147931179222562	700 43 0.900000 0.033000 0.032000 1200 38 1.000000 1.876000 1.919000 600 49 1.000000 0.051000 0.051000 1.200000 0.025000 0.030000
1560147931686231978	700 43 0.900000 0.031000 0.030000 1200 38 1.000000 1.856000 1.898000 600 49 1.000000 0.051000 0.051000 1.200000 0.023000 0.027000
1560147932193340520	700 43 0.900000 0.047000 0.046000 1200 38 1.000000 1.844000 1.886000 600 49 1.000000 0.051000 0.051000 1.200000 0.031000 0.037000
1560147932704420895	700 43 0.900000 0.031000 0.030000 1200 38 1.000000 1.859000 1.901000 600 49 1.000000 0.051000 0.051000 1.200000 0.023000 0.027000
1560147933212667145	700 43 0.900000 0.033000 0.032000 1200 38 1.000000 1.905000 1.948000 600 49 1.000000 0.051000 0.051000 1.200000 0.024000 0.028000
1560147933719780354	700 43 0.900000 0.031000 0.030000 1200 38 1.000000 1.844000 1.886000 600 49 1.000000 0.051000 0.051000 1.200000 0.023000 0.027000
1560147934226962395	700 43 0.900000 0.048000 0.047000 1200 38 1.000000 1.859000 1.901000 600 49 1.000000 0.052000 0.052000 1.200000 0.032000 0.038000
1560147934734085395	700 43 0.900000 0.032000 0.031000 1200 38 1.000000 1.841000 1.883000 600 49 1.000000 0.051000 0.051000 1.200000 0.023000 0.027000
1560147935241401396	700 43 0.900000 0.061000 0.060000 1200 38 1.000000 1.909000 1.952000 600 49 1.000000 0.051000 0.051000 1.200000 0.032000 0.038000
1560147935748485646	700 43 0.900000 0.032000 0.031000 1200 38 1.000000 1.847000 1.889000 600 49 1.000000 0.051000 0.051000 1.200000 0.024000 0.028000
1560147936255610604	700 43 0.900000 0.031000 0.030000 1200 37 1.000000 1.849000 1.891000 600 49 1.000000 0.051000 0.051000 1.200000 0.024000 0.028000
1560147936762715229	700 43 0.900000 0.034000 0.033000 1200 37 1.000000 1.850000 1.892000 600 49 1.000000 0.051000 0.051000 1.200000 0.024000 0.028000
1560147937269811562	700 43 0.900000 0.032000 0.031000 1200 38 1.000000 1.851000 1.893000 600 49 1.000000 0.051000 0.051000 1.200000 0.028000 0.033000
1560147937776949979	700 43 0.900000 0.032000 0.031000 1200 38 1.000000 1.871000 1.914000 600 49 1.000000 0.052000 0.052000 1.200000 0.023000 0.027000
1560147938284140438	700 43 0.900000 0.031000 0.030000 1200 38 1.000000 1.843000 1.885000 600 49 1.000000 0.051000 0.051000 1.200000 0.023000 0.027000
1560147938791290063	700 43 0.900000 0.031000 0.030000 1200 38 1.000000 1.854000 1.896000 600 49 1.000000 0.051000 0.051000 1.200000 0.024000 0.028000
1560147939298790354	700 43 0.900000 0.031000 0.030000 1200 38 1.000000 1.848000 1.890000 600 49 1.000000 0.051000 0.051000 1.200000 0.023000 0.027000
1560147939805945271	700 43 0.900000 0.031000 0.030000 1200 37 1.000000 1.899000 1.942000 600 49 1.000000 0.051000 0.051000 1.200000 0.023000 0.027000
1560147940313106271	700 43 0.900000 0.035000 0.034000 1200 38 1.000000 1.838000 1.880000 600 49 1.000000 0.052000 0.052000 1.200000 0.027000 0.032000
1560147940820160105	700 43 0.900000 0.037000 0.036000 1200 38 1.000000 1.844000 1.886000 600 49 1.000000 0.051000 0.051000 1.200000 0.023000 0.027000
1560147941327106396	700 43 0.900000 0.032000 0.031000 1200 38 1.000000 1.845000 1.887000 600 49 1.000000 0.051000 0.051000 1.200000 0.023000 0.027000
1560147941834321980	700 39 0.900000 0.062000 0.061000 1200 37 1.000000 1.852000 1.894000 600 44 1.000000 0.051000 0.051000 1.200000 0.031000 0.037000
1560147942341321271	700 36 0.900000 0.034000 0.033000 1200 36 1.000000 0.215000 0.220000 600 41 1.000000 0.051000 0.051000 1.200000 0.031000 0.037000
