#Timestamp	CPU(0) Frequency(MHz)	CPU(0) Temperature(C)	A7 Voltage(V)	A7 Current(A)	A7 Power(W)	CPU(4) Frequency(MHz)	CPU(4) Temperature(C)	A15 Voltage(V)	A15 Current(A)	A15 Power(W)	GPU Frequency(MHz)	GPU Temperature(C)	GPU Voltage(V)	GPU Current(A)	GPU Power(W)	RAM Voltage(V)	RAM Current(A)	RAM Power(W)
1517210213202300570	700 34 0.900000 0.033000 0.032000 700 32 0.900000 0.466000 0.421000 600 37 1.000000 0.050000 0.050000 1.200000 0.040000 0.048000
1517210213712563778	700 34 0.900000 0.030000 0.029000 700 32 0.900000 0.373000 0.339000 600 37 1.000000 0.051000 0.051000 1.200000 0.032000 0.038000
1517210214222751862	700 34 0.900000 0.029000 0.028000 700 32 0.900000 0.389000 0.354000 600 37 1.000000 0.050000 0.050000 1.200000 0.029000 0.035000
1517210214732939487	700 34 0.900000 0.029000 0.028000 700 32 0.900000 0.382000 0.348000 600 37 1.000000 0.051000 0.051000 1.200000 0.029000 0.035000
1517210215243456320	700 34 0.900000 0.029000 0.028000 700 32 0.900000 0.381000 0.347000 600 37 1.000000 0.051000 0.051000 1.200000 0.030000 0.036000
1517210215753681154	700 35 0.900000 0.035000 0.034000 700 32 0.900000 0.486000 0.440000 600 37 1.000000 0.051000 0.051000 1.200000 0.037000 0.044000
1517210216263772987	700 35 0.900000 0.029000 0.028000 700 33 0.900000 0.375000 0.341000 600 37 1.000000 0.050000 0.050000 1.200000 0.029000 0.035000
1517210216773859362	700 35 0.900000 0.029000 0.028000 700 32 0.900000 0.374000 0.340000 600 37 1.000000 0.051000 0.051000 1.200000 0.029000 0.035000
1517210217283945612	700 35 0.900000 0.029000 0.028000 700 32 0.900000 0.388000 0.353000 600 37 1.000000 0.051000 0.051000 1.200000 0.029000 0.035000
1517210217793936279	700 35 0.900000 0.033000 0.032000 700 33 0.900000 0.526000 0.476000 600 37 1.000000 0.051000 0.051000 1.200000 0.037000 0.044000
1517210218304277862	700 35 0.900000 0.230000 0.226000 700 33 0.900000 0.374000 0.340000 600 37 1.000000 0.051000 0.051000 1.200000 0.027000 0.032000
1517210218814299071	700 35 0.900000 0.208000 0.204000 700 33 0.900000 0.375000 0.341000 600 37 1.000000 0.051000 0.051000 1.200000 0.037000 0.044000
1517210219324234446	700 36 0.900000 0.228000 0.224000 700 33 0.900000 0.429000 0.390000 600 37 1.000000 0.051000 0.051000 1.200000 0.041000 0.049000
1517210219834021654	700 36 0.900000 0.220000 0.216000 700 33 0.900000 0.401000 0.365000 600 38 1.000000 0.051000 0.051000 1.200000 0.045000 0.054000
1517210220344191862	700 36 0.900000 0.208000 0.204000 700 33 0.900000 0.379000 0.345000 600 37 1.000000 0.051000 0.051000 1.200000 0.028000 0.033000
1517210220854962362	700 36 0.900000 0.209000 0.205000 700 33 0.900000 0.477000 0.434000 600 37 1.000000 0.051000 0.051000 1.200000 0.029000 0.035000
1517210221364825071	700 36 0.900000 0.219000 0.215000 700 33 0.900000 0.390000 0.355000 600 38 1.000000 0.051000 0.051000 1.200000 0.042000 0.050000
1517210221876830363	700 36 0.900000 0.205000 0.201000 700 34 0.900000 0.444000 0.403000 600 38 1.000000 0.051000 0.051000 1.200000 0.028000 0.033000
1517210222387253821	700 36 0.900000 0.222000 0.218000 700 34 0.900000 0.503000 0.456000 600 37 1.000000 0.051000 0.051000 1.200000 0.041000 0.049000
1517210222897502738	700 36 0.900000 0.210000 0.206000 700 34 0.900000 0.378000 0.344000 600 37 1.000000 0.051000 0.051000 1.200000 0.038000 0.045000
1517210223407772488	700 36 0.900000 0.206000 0.202000 700 34 0.900000 0.386000 0.351000 600 38 1.000000 0.051000 0.051000 1.200000 0.038000 0.045000
1517210223918033571	700 36 0.900000 0.207000 0.203000 700 34 0.900000 0.452000 0.411000 600 37 1.000000 0.051000 0.051000 1.200000 0.042000 0.050000
1517210224428249613	700 36 0.900000 0.221000 0.217000 700 34 0.900000 0.422000 0.383000 600 38 1.000000 0.051000 0.051000 1.200000 0.040000 0.048000
1517210224938618863	700 36 0.900000 0.225000 0.221000 700 34 0.900000 0.381000 0.347000 600 37 1.000000 0.051000 0.051000 1.200000 0.040000 0.048000
1517210225448754780	700 36 0.900000 0.208000 0.204000 700 34 0.900000 0.389000 0.354000 600 38 1.000000 0.051000 0.051000 1.200000 0.031000 0.037000
1517210225958980946	700 36 0.900000 0.228000 0.224000 700 34 0.900000 0.447000 0.405000 600 38 1.000000 0.051000 0.051000 1.200000 0.033000 0.039000
1517210226468836113	700 36 0.900000 0.208000 0.204000 700 34 0.900000 0.383000 0.348000 600 38 1.000000 0.051000 0.051000 1.200000 0.039000 0.047000
1517210226979414988	700 36 0.900000 0.207000 0.203000 700 34 0.900000 0.387000 0.352000 600 38 1.000000 0.050000 0.050000 1.200000 0.038000 0.045000
1517210227490015447	700 36 0.900000 0.207000 0.203000 700 34 0.900000 0.389000 0.354000 600 38 1.000000 0.051000 0.051000 1.200000 0.038000 0.045000
1517210228000660738	700 36 0.900000 0.216000 0.212000 700 34 0.900000 0.443000 0.402000 600 38 1.000000 0.051000 0.051000 1.200000 0.034000 0.041000
1517210228512287572	700 36 0.900000 0.208000 0.204000 700 34 0.900000 0.380000 0.346000 600 38 1.000000 0.051000 0.051000 1.200000 0.037000 0.044000
1517210229023679072	700 36 0.900000 0.206000 0.202000 700 34 0.900000 0.377000 0.343000 600 38 1.000000 0.051000 0.051000 1.200000 0.039000 0.047000
1517210229534369280	700 36 0.900000 0.225000 0.221000 700 34 0.900000 0.388000 0.353000 600 37 1.000000 0.051000 0.051000 1.200000 0.028000 0.033000
1517210230044574072	700 36 0.900000 0.205000 0.201000 700 34 0.900000 0.412000 0.375000 600 38 1.000000 0.051000 0.051000 1.200000 0.036000 0.043000
1517210230556151947	700 36 0.900000 0.214000 0.210000 700 34 0.900000 0.380000 0.346000 600 38 1.000000 0.051000 0.051000 1.200000 0.039000 0.047000
1517210231067152155	700 36 0.900000 0.209000 0.205000 700 34 0.900000 0.481000 0.436000 600 38 1.000000 0.051000 0.051000 1.200000 0.043000 0.052000
1517210231577618155	700 36 0.900000 0.207000 0.203000 700 34 0.900000 0.386000 0.351000 600 38 1.000000 0.051000 0.051000 1.200000 0.028000 0.033000
1517210232088103197	700 36 0.900000 0.229000 0.225000 700 34 0.900000 0.455000 0.413000 600 38 1.000000 0.051000 0.051000 1.200000 0.037000 0.044000
1517210232598490406	700 36 0.900000 0.209000 0.205000 700 34 0.900000 0.381000 0.347000 600 38 1.000000 0.051000 0.051000 1.200000 0.038000 0.045000
1517210233108560281	700 36 0.900000 0.205000 0.201000 700 34 0.900000 0.431000 0.391000 600 38 1.000000 0.051000 0.051000 1.200000 0.042000 0.050000
1517210233618822322	700 36 0.900000 0.229000 0.225000 700 34 0.900000 0.387000 0.352000 600 38 1.000000 0.051000 0.051000 1.200000 0.029000 0.035000
1517210234129157239	700 36 0.900000 0.207000 0.203000 700 34 0.900000 0.455000 0.414000 600 38 1.000000 0.051000 0.051000 1.200000 0.041000 0.049000
1517210234639824322	700 36 0.900000 0.206000 0.202000 700 34 0.900000 0.379000 0.345000 600 38 1.000000 0.051000 0.051000 1.200000 0.039000 0.047000
1517210235149721947	700 36 0.900000 0.224000 0.220000 700 34 0.900000 0.374000 0.340000 600 38 1.000000 0.051000 0.051000 1.200000 0.039000 0.047000
1517210235659890281	700 36 0.900000 0.221000 0.217000 700 34 0.900000 0.377000 0.343000 600 38 1.000000 0.051000 0.051000 1.200000 0.029000 0.035000
1517210236170040031	700 36 0.900000 0.207000 0.203000 700 34 0.900000 0.444000 0.404000 600 38 1.000000 0.051000 0.051000 1.200000 0.037000 0.044000
1517210236680357656	700 36 0.900000 0.206000 0.202000 700 34 0.900000 0.377000 0.343000 600 38 1.000000 0.051000 0.051000 1.200000 0.038000 0.045000
1517210237191936823	700 36 0.900000 0.226000 0.222000 700 34 0.900000 0.376000 0.342000 600 38 1.000000 0.051000 0.051000 1.200000 0.039000 0.047000
1517210237703226198	700 36 0.900000 0.204000 0.200000 700 34 0.900000 0.532000 0.481000 600 38 1.000000 0.051000 0.051000 1.200000 0.041000 0.049000
1517210238213509906	700 36 0.900000 0.231000 0.227000 700 34 0.900000 0.388000 0.353000 600 38 1.000000 0.051000 0.051000 1.200000 0.038000 0.045000
1517210238723876115	700 36 0.900000 0.208000 0.204000 700 34 0.900000 0.383000 0.348000 600 38 1.000000 0.050000 0.050000 1.200000 0.038000 0.045000
1517210239234127781	700 36 0.900000 0.207000 0.203000 700 34 0.900000 0.378000 0.344000 600 38 1.000000 0.051000 0.051000 1.200000 0.036000 0.043000
1517210239744322240	700 36 0.900000 0.218000 0.214000 700 34 0.900000 0.479000 0.435000 600 38 1.000000 0.051000 0.051000 1.200000 0.032000 0.038000
1517210240254529073	700 36 0.900000 0.230000 0.226000 700 34 0.900000 0.396000 0.360000 600 38 1.000000 0.051000 0.051000 1.200000 0.030000 0.036000
1517210240765364240	700 36 0.900000 0.208000 0.204000 700 34 0.900000 0.381000 0.347000 600 38 1.000000 0.051000 0.051000 1.200000 0.038000 0.045000
1517210241275676657	700 36 0.900000 0.207000 0.203000 700 34 0.900000 0.384000 0.349000 600 38 1.000000 0.051000 0.051000 1.200000 0.039000 0.047000
1517210241785844907	700 36 0.900000 0.226000 0.222000 700 34 0.900000 0.419000 0.381000 600 38 1.000000 0.051000 0.051000 1.200000 0.033000 0.039000
1517210242296255698	700 36 0.900000 0.230000 0.226000 700 34 0.900000 0.421000 0.383000 600 38 1.000000 0.051000 0.051000 1.200000 0.030000 0.036000
1517210242806560740	700 36 0.900000 0.208000 0.204000 700 34 0.900000 0.377000 0.343000 600 38 1.000000 0.051000 0.051000 1.200000 0.035000 0.042000
1517210243316678323	700 36 0.900000 0.206000 0.202000 700 34 0.900000 0.375000 0.341000 600 38 1.000000 0.051000 0.051000 1.200000 0.038000 0.045000
1517210243828324865	700 36 0.900000 0.227000 0.223000 700 34 0.900000 0.374000 0.340000 600 38 1.000000 0.051000 0.051000 1.200000 0.038000 0.045000
1517210244339176824	700 36 0.900000 0.204000 0.200000 700 34 0.900000 0.433000 0.394000 600 38 1.000000 0.051000 0.051000 1.200000 0.032000 0.038000
1517210244849700532	700 36 0.900000 0.208000 0.204000 700 34 0.900000 0.374000 0.340000 600 38 1.000000 0.051000 0.051000 1.200000 0.028000 0.033000
1517210245360038324	700 36 0.900000 0.208000 0.204000 700 34 0.900000 0.387000 0.352000 600 38 1.000000 0.051000 0.051000 1.200000 0.040000 0.048000
1517210245870497699	700 36 0.900000 0.206000 0.202000 700 34 0.900000 0.391000 0.356000 600 38 1.000000 0.051000 0.051000 1.200000 0.031000 0.037000
1517210246380302199	700 36 0.900000 0.226000 0.222000 700 34 0.900000 0.525000 0.475000 600 38 1.000000 0.051000 0.051000 1.200000 0.042000 0.050000
1517210246890639824	700 36 0.900000 0.207000 0.203000 700 34 0.900000 0.379000 0.345000 600 38 1.000000 0.051000 0.051000 1.200000 0.038000 0.045000
1517210247400730949	700 36 0.900000 0.206000 0.202000 700 34 0.900000 0.382000 0.348000 600 38 1.000000 0.051000 0.051000 1.200000 0.037000 0.044000
1517210247911117491	700 36 0.900000 0.229000 0.225000 700 34 0.900000 0.389000 0.354000 600 38 1.000000 0.051000 0.051000 1.200000 0.029000 0.035000
1517210248421259699	700 36 0.900000 0.206000 0.202000 700 34 0.900000 0.467000 0.423000 600 38 1.000000 0.051000 0.051000 1.200000 0.041000 0.049000
1517210248931565199	700 36 0.900000 0.207000 0.203000 700 34 0.900000 0.376000 0.342000 600 38 1.000000 0.051000 0.051000 1.200000 0.038000 0.045000
1517210249443453324	700 36 0.900000 0.206000 0.202000 700 34 0.900000 0.376000 0.342000 600 38 1.000000 0.051000 0.051000 1.200000 0.039000 0.047000
1517210249953611116	700 36 0.900000 0.225000 0.221000 700 34 0.900000 0.374000 0.340000 600 38 1.000000 0.051000 0.051000 1.200000 0.028000 0.033000
1517210250464098866	700 36 0.900000 0.204000 0.200000 700 34 0.900000 0.409000 0.372000 600 39 1.000000 0.051000 0.051000 1.200000 0.038000 0.045000
1517210250975073783	700 36 0.900000 0.225000 0.221000 700 34 0.900000 0.376000 0.342000 600 38 1.000000 0.051000 0.051000 1.200000 0.038000 0.045000
1517210251485279491	700 36 0.900000 0.208000 0.204000 700 34 0.900000 0.374000 0.340000 600 38 1.000000 0.051000 0.051000 1.200000 0.037000 0.044000
1517210251997118074	700 36 0.900000 0.207000 0.203000 700 34 0.900000 0.373000 0.339000 600 38 1.000000 0.051000 0.051000 1.200000 0.028000 0.033000
1517210252508948241	700 36 0.900000 0.229000 0.225000 700 34 0.900000 0.388000 0.353000 600 39 1.000000 0.051000 0.051000 1.200000 0.034000 0.041000
1517210253019926075	700 36 0.900000 0.205000 0.201000 700 34 0.900000 0.377000 0.343000 600 38 1.000000 0.051000 0.051000 1.200000 0.038000 0.045000
1517210253530112991	700 36 0.900000 0.214000 0.210000 700 34 0.900000 0.384000 0.349000 600 38 1.000000 0.051000 0.051000 1.200000 0.029000 0.035000
1517210254040434450	700 36 0.900000 0.225000 0.221000 700 34 0.900000 0.387000 0.352000 600 38 1.000000 0.051000 0.051000 1.200000 0.039000 0.047000
1517210254553071075	700 36 0.900000 0.207000 0.203000 700 34 0.900000 0.388000 0.353000 600 38 1.000000 0.051000 0.051000 1.200000 0.039000 0.047000
1517210255063855700	700 36 0.900000 0.206000 0.202000 700 34 0.900000 0.500000 0.454000 600 38 1.000000 0.051000 0.051000 1.200000 0.043000 0.052000
1517210255573924325	700 36 0.900000 0.229000 0.225000 700 34 0.900000 0.377000 0.343000 600 38 1.000000 0.051000 0.051000 1.200000 0.028000 0.033000
1517210256084187283	700 36 0.900000 0.208000 0.204000 700 34 0.900000 0.377000 0.343000 600 38 1.000000 0.051000 0.051000 1.200000 0.037000 0.044000
1517210256595416367	700 36 0.900000 0.206000 0.202000 700 34 0.900000 0.378000 0.344000 600 38 1.000000 0.051000 0.051000 1.200000 0.038000 0.045000
1517210257105964075	700 36 0.900000 0.207000 0.203000 700 34 0.900000 0.429000 0.390000 600 38 1.000000 0.051000 0.051000 1.200000 0.035000 0.042000
1517210257616214117	700 36 0.900000 0.207000 0.203000 700 34 0.900000 0.375000 0.341000 600 38 1.000000 0.051000 0.051000 1.200000 0.027000 0.032000
1517210258126496117	700 36 0.900000 0.220000 0.216000 700 34 0.900000 0.377000 0.343000 600 38 1.000000 0.051000 0.051000 1.200000 0.038000 0.045000
1517210258636699950	700 36 0.900000 0.222000 0.218000 700 34 0.900000 0.388000 0.353000 600 38 1.000000 0.051000 0.051000 1.200000 0.037000 0.044000
1517210259147505367	700 36 0.900000 0.206000 0.202000 700 34 0.900000 0.450000 0.409000 600 38 1.000000 0.051000 0.051000 1.200000 0.038000 0.045000
1517210259657854742	700 36 0.900000 0.210000 0.206000 700 34 0.900000 0.508000 0.460000 600 38 1.000000 0.051000 0.051000 1.200000 0.029000 0.035000
1517210260168288117	700 36 0.900000 0.233000 0.229000 700 34 0.900000 0.392000 0.357000 600 38 1.000000 0.051000 0.051000 1.200000 0.030000 0.036000
1517210260678447076	700 36 0.900000 0.226000 0.222000 700 34 0.900000 0.394000 0.358000 600 38 1.000000 0.051000 0.051000 1.200000 0.037000 0.044000
1517210261188904951	700 36 0.900000 0.218000 0.214000 700 34 0.900000 0.382000 0.348000 600 38 1.000000 0.050000 0.050000 1.200000 0.034000 0.041000
1517210261699055826	700 36 0.900000 0.233000 0.229000 700 34 0.900000 0.386000 0.351000 600 38 1.000000 0.051000 0.051000 1.200000 0.045000 0.054000
1517210262209252367	700 36 0.900000 0.214000 0.210000 700 34 0.900000 0.400000 0.364000 600 38 1.000000 0.051000 0.051000 1.200000 0.038000 0.045000
1517210262721186076	700 36 0.900000 0.211000 0.207000 700 34 0.900000 0.397000 0.361000 600 38 1.000000 0.050000 0.050000 1.200000 0.038000 0.045000
1517210263231943409	700 36 0.900000 0.233000 0.229000 700 34 0.900000 0.392000 0.357000 600 38 1.000000 0.051000 0.051000 1.200000 0.033000 0.039000
1517210263741917659	700 36 0.900000 0.210000 0.206000 700 34 0.900000 0.385000 0.350000 600 38 1.000000 0.051000 0.051000 1.200000 0.037000 0.044000
1517210264252178951	700 36 0.900000 0.224000 0.220000 700 34 0.900000 0.450000 0.408000 600 38 1.000000 0.051000 0.051000 1.200000 0.037000 0.044000
1517210264762522993	700 36 0.900000 0.232000 0.228000 700 34 0.900000 0.397000 0.361000 600 38 1.000000 0.051000 0.051000 1.200000 0.029000 0.035000
1517210265272994284	700 36 0.900000 0.211000 0.207000 700 34 0.900000 0.408000 0.371000 600 38 1.000000 0.050000 0.050000 1.200000 0.039000 0.047000
1517210265783610784	700 36 0.900000 0.210000 0.206000 700 34 0.900000 0.384000 0.349000 600 38 1.000000 0.051000 0.051000 1.200000 0.039000 0.047000
1517210266293924451	700 36 0.900000 0.233000 0.229000 700 34 0.900000 0.497000 0.451000 600 38 1.000000 0.051000 0.051000 1.200000 0.050000 0.060000
1517210266804378618	700 36 0.900000 0.216000 0.212000 700 34 0.900000 0.397000 0.361000 600 38 1.000000 0.051000 0.051000 1.200000 0.029000 0.035000
1517210267314523576	700 36 0.900000 0.213000 0.209000 700 34 0.900000 0.447000 0.405000 600 38 1.000000 0.051000 0.051000 1.200000 0.034000 0.041000
1517210267824714868	700 36 0.900000 0.220000 0.216000 700 34 0.900000 0.385000 0.350000 600 38 1.000000 0.051000 0.051000 1.200000 0.038000 0.045000
1517210268335819951	700 36 0.900000 0.234000 0.230000 700 34 0.900000 0.508000 0.460000 600 38 1.000000 0.051000 0.051000 1.200000 0.049000 0.059000
1517210268846391076	700 36 0.900000 0.211000 0.207000 700 34 0.900000 0.394000 0.358000 600 38 1.000000 0.050000 0.050000 1.200000 0.039000 0.047000
1517210269356801202	700 36 0.900000 0.234000 0.230000 700 34 0.900000 0.386000 0.351000 600 38 1.000000 0.051000 0.051000 1.200000 0.039000 0.047000
1517210269867177660	700 36 0.900000 0.213000 0.209000 700 34 0.900000 0.386000 0.351000 600 38 1.000000 0.050000 0.050000 1.200000 0.039000 0.047000
1517210270377155327	700 36 0.900000 0.233000 0.229000 700 34 0.900000 0.394000 0.358000 600 38 1.000000 0.051000 0.051000 1.200000 0.029000 0.035000
1517210270887749160	700 36 0.900000 0.224000 0.220000 700 34 0.900000 0.424000 0.386000 600 38 1.000000 0.051000 0.051000 1.200000 0.038000 0.045000
1517210271398083702	700 36 0.900000 0.210000 0.206000 700 34 0.900000 0.384000 0.349000 600 38 1.000000 0.051000 0.051000 1.200000 0.038000 0.045000
1517210271908448327	700 36 0.900000 0.210000 0.206000 700 34 0.900000 0.390000 0.355000 600 38 1.000000 0.051000 0.051000 1.200000 0.039000 0.047000
1517210272419116827	700 36 0.900000 0.235000 0.231000 700 34 0.900000 0.397000 0.361000 600 38 1.000000 0.051000 0.051000 1.200000 0.029000 0.035000
1517210272929480452	700 36 0.900000 0.208000 0.204000 700 34 0.900000 0.473000 0.429000 600 38 1.000000 0.051000 0.051000 1.200000 0.037000 0.044000
1517210273440312577	700 36 0.900000 0.210000 0.206000 700 34 0.900000 0.387000 0.352000 600 38 1.000000 0.051000 0.051000 1.200000 0.038000 0.045000
1517210273950859077	700 36 0.900000 0.226000 0.222000 700 34 0.900000 0.387000 0.352000 600 38 1.000000 0.051000 0.051000 1.200000 0.039000 0.047000
1517210274461224160	700 36 0.900000 0.229000 0.225000 700 34 0.900000 0.384000 0.349000 600 38 1.000000 0.051000 0.051000 1.200000 0.032000 0.038000
1517210274971548661	700 36 0.900000 0.209000 0.205000 700 34 0.900000 0.530000 0.480000 600 38 1.000000 0.051000 0.051000 1.200000 0.036000 0.043000
1517210275481723161	700 36 0.900000 0.210000 0.206000 700 34 0.900000 0.381000 0.347000 600 38 1.000000 0.051000 0.051000 1.200000 0.037000 0.044000
1517210275992014536	700 36 0.900000 0.211000 0.207000 700 34 0.900000 0.381000 0.347000 600 38 1.000000 0.051000 0.051000 1.200000 0.038000 0.045000
1517210276503909077	700 36 0.900000 0.208000 0.204000 700 34 0.900000 0.377000 0.343000 600 38 1.000000 0.050000 0.050000 1.200000 0.036000 0.043000
1517210277014078786	700 36 0.900000 0.211000 0.207000 700 34 0.900000 0.392000 0.357000 600 38 1.000000 0.051000 0.051000 1.200000 0.037000 0.044000
1517210277524244828	700 36 0.900000 0.210000 0.206000 700 34 0.900000 0.393000 0.358000 600 38 1.000000 0.051000 0.051000 1.200000 0.041000 0.049000
1517210278034772036	700 36 0.900000 0.219000 0.215000 700 34 0.900000 0.418000 0.380000 600 38 1.000000 0.051000 0.051000 1.200000 0.037000 0.044000
1517210278545061161	700 36 0.900000 0.234000 0.230000 700 34 0.900000 0.394000 0.358000 600 38 1.000000 0.051000 0.051000 1.200000 0.029000 0.035000
1517210279057446286	700 36 0.900000 0.210000 0.206000 700 34 0.900000 0.392000 0.357000 600 39 1.000000 0.051000 0.051000 1.200000 0.038000 0.045000
1517210279567701119	700 36 0.900000 0.210000 0.206000 700 34 0.900000 0.434000 0.394000 600 38 1.000000 0.051000 0.051000 1.200000 0.042000 0.050000
1517210280077857203	700 36 0.900000 0.234000 0.230000 700 34 0.900000 0.390000 0.355000 600 38 1.000000 0.051000 0.051000 1.200000 0.037000 0.044000
1517210280588090203	700 36 0.900000 0.221000 0.217000 700 34 0.900000 0.394000 0.358000 600 38 1.000000 0.051000 0.051000 1.200000 0.029000 0.035000
1517210281099625453	700 36 0.900000 0.209000 0.205000 700 34 0.900000 0.381000 0.347000 600 38 1.000000 0.051000 0.051000 1.200000 0.038000 0.045000
1517210281609568203	700 36 0.900000 0.213000 0.209000 700 34 0.900000 0.487000 0.441000 600 38 1.000000 0.051000 0.051000 1.200000 0.045000 0.054000
1517210282120196161	700 36 0.900000 0.235000 0.231000 700 34 0.900000 0.382000 0.348000 600 38 1.000000 0.051000 0.051000 1.200000 0.038000 0.045000
1517210282630532286	700 36 0.900000 0.212000 0.208000 700 34 0.900000 0.381000 0.347000 600 38 1.000000 0.051000 0.051000 1.200000 0.028000 0.033000
1517210283140631537	700 36 0.900000 0.233000 0.229000 700 34 0.900000 0.380000 0.346000 600 38 1.000000 0.051000 0.051000 1.200000 0.033000 0.039000
1517210283650947537	700 36 0.900000 0.210000 0.206000 700 34 0.900000 0.534000 0.483000 600 39 1.000000 0.051000 0.051000 1.200000 0.044000 0.053000
1517210284161198662	700 36 0.900000 0.213000 0.209000 700 34 0.900000 0.379000 0.345000 600 38 1.000000 0.051000 0.051000 1.200000 0.038000 0.045000
1517210284673046537	700 36 0.900000 0.227000 0.223000 700 34 0.900000 0.396000 0.360000 600 38 1.000000 0.051000 0.051000 1.200000 0.038000 0.045000
1517210285183842912	700 36 0.900000 0.210000 0.206000 700 34 0.900000 0.393000 0.358000 600 38 1.000000 0.051000 0.051000 1.200000 0.038000 0.045000
1517210285694059620	700 36 0.900000 0.208000 0.204000 700 34 0.900000 0.388000 0.353000 600 39 1.000000 0.051000 0.051000 1.200000 0.036000 0.043000
1517210286204464120	700 36 0.900000 0.229000 0.225000 700 34 0.900000 0.463000 0.420000 600 38 1.000000 0.051000 0.051000 1.200000 0.036000 0.043000
1517210286714817579	700 36 0.900000 0.214000 0.210000 700 34 0.900000 0.392000 0.357000 600 38 1.000000 0.051000 0.051000 1.200000 0.035000 0.042000
1517210287225516912	700 36 0.900000 0.210000 0.206000 700 34 0.900000 0.392000 0.357000 600 38 1.000000 0.051000 0.051000 1.200000 0.039000 0.047000
1517210287737631870	700 36 0.900000 0.222000 0.218000 700 34 0.900000 0.379000 0.345000 600 38 1.000000 0.051000 0.051000 1.200000 0.038000 0.045000
1517210288248518954	700 36 0.900000 0.229000 0.225000 700 34 0.900000 0.500000 0.454000 600 38 1.000000 0.051000 0.051000 1.200000 0.039000 0.047000
1517210288758899121	700 36 0.900000 0.212000 0.208000 700 34 0.900000 0.381000 0.347000 600 38 1.000000 0.051000 0.051000 1.200000 0.030000 0.036000
1517210289269087746	700 36 0.900000 0.234000 0.230000 700 34 0.900000 0.381000 0.347000 600 38 1.000000 0.050000 0.050000 1.200000 0.037000 0.044000
1517210289779677329	700 36 0.900000 0.209000 0.205000 700 34 0.900000 0.381000 0.347000 600 38 1.000000 0.051000 0.051000 1.200000 0.037000 0.044000
1517210290290838037	700 36 0.900000 0.204000 0.200000 700 34 0.900000 0.533000 0.482000 600 38 1.000000 0.051000 0.051000 1.200000 0.041000 0.049000
1517210290801004287	700 36 0.900000 0.225000 0.221000 700 34 0.900000 0.380000 0.346000 600 38 1.000000 0.051000 0.051000 1.200000 0.028000 0.033000
1517210291311302038	700 36 0.900000 0.227000 0.223000 700 34 0.900000 0.379000 0.345000 600 38 1.000000 0.051000 0.051000 1.200000 0.037000 0.044000
1517210291821367204	700 36 0.900000 0.208000 0.204000 700 34 0.900000 0.381000 0.347000 600 38 1.000000 0.051000 0.051000 1.200000 0.038000 0.045000
1517210292331403038	700 36 0.900000 0.230000 0.226000 700 34 0.900000 0.529000 0.478000 600 38 1.000000 0.051000 0.051000 1.200000 0.042000 0.050000
1517210292841998913	700 36 0.900000 0.206000 0.202000 700 34 0.900000 0.389000 0.354000 600 38 1.000000 0.051000 0.051000 1.200000 0.038000 0.045000
1517210293352513788	700 36 0.900000 0.211000 0.207000 700 34 0.900000 0.395000 0.359000 600 38 1.000000 0.051000 0.051000 1.200000 0.039000 0.047000
1517210293862817246	700 36 0.900000 0.232000 0.228000 700 34 0.900000 0.388000 0.353000 600 38 1.000000 0.051000 0.051000 1.200000 0.030000 0.036000
1517210294374710121	700 36 0.900000 0.216000 0.212000 700 34 0.900000 0.445000 0.404000 600 39 1.000000 0.051000 0.051000 1.200000 0.033000 0.039000
1517210294886623205	700 36 0.900000 0.207000 0.203000 700 34 0.900000 0.410000 0.373000 600 38 1.000000 0.050000 0.050000 1.200000 0.041000 0.049000
1517210295397469246	700 36 0.900000 0.230000 0.226000 700 34 0.900000 0.381000 0.347000 600 38 1.000000 0.051000 0.051000 1.200000 0.038000 0.045000
1517210295907837205	700 36 0.900000 0.212000 0.208000 700 34 0.900000 0.381000 0.347000 600 38 1.000000 0.051000 0.051000 1.200000 0.034000 0.041000
1517210296418393246	700 36 0.900000 0.210000 0.206000 700 34 0.900000 0.446000 0.406000 600 38 1.000000 0.051000 0.051000 1.200000 0.032000 0.038000
1517210296928805288	700 36 0.900000 0.223000 0.219000 700 34 0.900000 0.460000 0.418000 600 38 1.000000 0.051000 0.051000 1.200000 0.043000 0.052000
1517210297439396038	700 36 0.900000 0.216000 0.212000 700 34 0.900000 0.393000 0.358000 600 38 1.000000 0.051000 0.051000 1.200000 0.038000 0.045000
1517210297949612455	700 36 0.900000 0.209000 0.205000 700 34 0.900000 0.387000 0.352000 600 38 1.000000 0.051000 0.051000 1.200000 0.037000 0.044000
1517210298460522455	700 36 0.900000 0.213000 0.209000 700 34 0.900000 0.382000 0.348000 600 38 1.000000 0.051000 0.051000 1.200000 0.032000 0.038000
1517210298970851247	700 36 0.900000 0.226000 0.222000 700 34 0.900000 0.416000 0.378000 600 38 1.000000 0.051000 0.051000 1.200000 0.042000 0.050000
1517210299481111455	700 36 0.900000 0.209000 0.205000 700 34 0.900000 0.394000 0.358000 600 38 1.000000 0.051000 0.051000 1.200000 0.037000 0.044000
1517210299991331289	700 36 0.900000 0.208000 0.204000 700 34 0.900000 0.392000 0.357000 600 38 1.000000 0.051000 0.051000 1.200000 0.037000 0.044000
1517210300502802830	700 36 0.900000 0.210000 0.206000 700 34 0.900000 0.375000 0.341000 600 38 1.000000 0.051000 0.051000 1.200000 0.039000 0.047000
1517210301013978622	700 36 0.900000 0.211000 0.207000 700 34 0.900000 0.443000 0.403000 600 39 1.000000 0.051000 0.051000 1.200000 0.039000 0.047000
1517210301524476039	700 36 0.900000 0.219000 0.215000 700 34 0.900000 0.549000 0.496000 600 38 1.000000 0.051000 0.051000 1.200000 0.038000 0.045000
1517210302034698164	700 36 0.900000 0.206000 0.202000 700 34 0.900000 0.392000 0.357000 600 38 1.000000 0.051000 0.051000 1.200000 0.028000 0.033000
1517210302544716831	700 36 0.900000 0.206000 0.202000 700 34 0.900000 0.383000 0.348000 600 38 1.000000 0.051000 0.051000 1.200000 0.034000 0.041000
1517210303055493164	700 36 0.900000 0.223000 0.219000 700 34 0.900000 0.394000 0.358000 600 38 1.000000 0.051000 0.051000 1.200000 0.037000 0.044000
1517210303565567039	700 36 0.900000 0.204000 0.200000 700 34 0.900000 0.517000 0.468000 600 38 1.000000 0.051000 0.051000 1.200000 0.041000 0.049000
1517210304076287122	700 36 0.900000 0.208000 0.204000 700 34 0.900000 0.392000 0.357000 600 38 1.000000 0.051000 0.051000 1.200000 0.028000 0.033000
1517210304586528914	700 36 0.900000 0.223000 0.219000 700 34 0.900000 0.383000 0.348000 600 38 1.000000 0.051000 0.051000 1.200000 0.034000 0.041000
1517210305096689914	700 36 0.900000 0.218000 0.214000 700 34 0.900000 0.380000 0.346000 600 38 1.000000 0.051000 0.051000 1.200000 0.038000 0.045000
1517210305606772998	700 36 0.900000 0.203000 0.199000 700 34 0.900000 0.457000 0.414000 600 38 1.000000 0.051000 0.051000 1.200000 0.043000 0.051000
1517210306117032956	700 36 0.900000 0.207000 0.203000 700 34 0.900000 0.389000 0.354000 600 38 1.000000 0.051000 0.051000 1.200000 0.036000 0.043000
1517210306628857373	700 36 0.900000 0.231000 0.227000 700 34 0.900000 0.383000 0.348000 600 38 1.000000 0.051000 0.051000 1.200000 0.039000 0.047000
1517210307139550998	700 36 0.900000 0.212000 0.208000 700 34 0.900000 0.376000 0.342000 600 38 1.000000 0.051000 0.051000 1.200000 0.039000 0.047000
1517210307649414789	700 36 0.900000 0.229000 0.225000 700 34 0.900000 0.390000 0.355000 600 38 1.000000 0.051000 0.051000 1.200000 0.028000 0.033000
1517210308159702248	700 36 0.900000 0.204000 0.200000 700 34 0.900000 0.533000 0.482000 600 38 1.000000 0.051000 0.051000 1.200000 0.046000 0.055000
1517210308669633165	700 36 0.900000 0.216000 0.212000 700 34 0.900000 0.382000 0.348000 600 38 1.000000 0.051000 0.051000 1.200000 0.035000 0.042000
1517210309180193831	700 36 0.900000 0.229000 0.225000 700 34 0.900000 0.451000 0.409000 600 38 1.000000 0.051000 0.051000 1.200000 0.033000 0.039000
1517210309691790206	700 36 0.900000 0.208000 0.204000 700 34 0.900000 0.390000 0.355000 600 39 1.000000 0.051000 0.051000 1.200000 0.037000 0.044000
1517210310202063373	700 36 0.900000 0.202000 0.198000 700 34 0.900000 0.534000 0.483000 600 38 1.000000 0.051000 0.051000 1.200000 0.044000 0.053000
1517210310712344415	700 36 0.900000 0.229000 0.225000 700 34 0.900000 0.382000 0.348000 600 38 1.000000 0.051000 0.051000 1.200000 0.039000 0.047000
1517210311222632540	700 36 0.900000 0.215000 0.211000 700 34 0.900000 0.450000 0.409000 600 38 1.000000 0.051000 0.051000 1.200000 0.033000 0.039000
1517210311733418748	700 36 0.900000 0.208000 0.204000 700 34 0.900000 0.393000 0.358000 600 38 1.000000 0.051000 0.051000 1.200000 0.035000 0.042000
1517210312243941915	700 36 0.900000 0.207000 0.203000 700 34 0.900000 0.492000 0.445000 600 38 1.000000 0.051000 0.051000 1.200000 0.042000 0.050000
1517210312754582498	700 36 0.900000 0.223000 0.219000 700 34 0.900000 0.376000 0.342000 600 38 1.000000 0.051000 0.051000 1.200000 0.038000 0.045000
1517210313264803207	700 36 0.900000 0.202000 0.198000 700 34 0.900000 0.424000 0.385000 600 38 1.000000 0.051000 0.051000 1.200000 0.033000 0.039000
1517210313775114332	700 36 0.900000 0.202000 0.198000 700 34 0.900000 0.377000 0.343000 600 38 1.000000 0.051000 0.051000 1.200000 0.030000 0.036000
1517210314285176457	700 36 0.900000 0.203000 0.199000 700 34 0.900000 0.428000 0.389000 600 38 1.000000 0.051000 0.051000 1.200000 0.038000 0.045000
1517210314796327457	700 36 0.900000 0.208000 0.204000 700 34 0.900000 0.378000 0.344000 600 38 1.000000 0.051000 0.051000 1.200000 0.038000 0.045000
1517210315306947040	700 36 0.900000 0.216000 0.212000 700 34 0.900000 0.380000 0.346000 600 38 1.000000 0.050000 0.050000 1.200000 0.035000 0.042000
1517210315817381040	700 36 0.900000 0.223000 0.219000 700 34 0.900000 0.377000 0.343000 600 38 1.000000 0.051000 0.051000 1.200000 0.028000 0.033000
1517210316328156457	700 36 0.900000 0.200000 0.197000 700 34 0.900000 0.382000 0.348000 600 39 1.000000 0.051000 0.051000 1.200000 0.038000 0.045000
1517210316838640041	700 36 0.900000 0.215000 0.211000 700 34 0.900000 0.524000 0.474000 600 38 1.000000 0.051000 0.051000 1.200000 0.036000 0.043000
1517210317349399166	700 36 0.900000 0.204000 0.200000 700 34 0.900000 0.442000 0.401000 600 38 1.000000 0.051000 0.051000 1.200000 0.034000 0.041000
1517210317859909874	700 36 0.900000 0.204000 0.200000 700 34 0.900000 0.387000 0.352000 600 38 1.000000 0.051000 0.051000 1.200000 0.037000 0.044000
1517210318370272041	700 36 0.900000 0.214000 0.210000 700 34 0.900000 0.384000 0.349000 600 38 1.000000 0.051000 0.051000 1.200000 0.038000 0.045000
1517210318880438916	700 36 0.900000 0.223000 0.219000 700 34 0.900000 0.526000 0.477000 600 38 1.000000 0.051000 0.051000 1.200000 0.035000 0.042000
1517210319390820833	700 36 0.900000 0.209000 0.205000 700 34 0.900000 0.447000 0.406000 600 38 1.000000 0.051000 0.051000 1.200000 0.033000 0.039000
1517210319901226624	700 36 0.900000 0.205000 0.201000 700 34 0.900000 0.388000 0.353000 600 38 1.000000 0.051000 0.051000 1.200000 0.038000 0.045000
1517210320411829666	700 36 0.900000 0.203000 0.199000 700 34 0.900000 0.376000 0.342000 600 38 1.000000 0.051000 0.051000 1.200000 0.038000 0.045000
1517210320922297291	700 36 0.900000 0.201000 0.197000 700 34 0.900000 0.474000 0.429000 600 38 1.000000 0.051000 0.051000 1.200000 0.037000 0.044000
1517210321432593749	700 36 0.900000 0.222000 0.218000 700 34 0.900000 0.435000 0.394000 600 38 1.000000 0.051000 0.051000 1.200000 0.033000 0.039000
1517210321942951666	700 36 0.900000 0.225000 0.221000 700 34 0.900000 0.377000 0.343000 600 38 1.000000 0.051000 0.051000 1.200000 0.037000 0.044000
1517210322453172333	700 36 0.900000 0.204000 0.200000 700 34 0.900000 0.375000 0.341000 600 38 1.000000 0.051000 0.051000 1.200000 0.037000 0.044000
1517210322963584625	700 36 0.900000 0.202000 0.198000 700 34 0.900000 0.425000 0.385000 600 39 1.000000 0.051000 0.051000 1.200000 0.036000 0.043000
1517210323473784666	700 36 0.900000 0.221000 0.217000 700 34 0.900000 0.431000 0.391000 600 38 1.000000 0.051000 0.051000 1.200000 0.032000 0.038000
1517210323984357458	700 36 0.900000 0.206000 0.202000 700 34 0.900000 0.394000 0.358000 600 38 1.000000 0.051000 0.051000 1.200000 0.040000 0.048000
1517210324494744625	700 36 0.900000 0.229000 0.225000 700 34 0.900000 0.382000 0.348000 600 38 1.000000 0.051000 0.051000 1.200000 0.034000 0.041000
1517210325006559083	700 36 0.900000 0.219000 0.215000 700 34 0.900000 0.384000 0.349000 600 38 1.000000 0.051000 0.051000 1.200000 0.029000 0.035000
1517210325516911250	700 36 0.900000 0.197000 0.194000 700 34 0.900000 0.580000 0.523000 600 38 1.000000 0.051000 0.051000 1.200000 0.047000 0.056000
1517210326027351208	700 36 0.900000 0.202000 0.198000 700 34 0.900000 0.390000 0.355000 600 38 1.000000 0.051000 0.051000 1.200000 0.038000 0.045000
1517210326537715750	700 36 0.900000 0.231000 0.227000 700 34 0.900000 0.384000 0.349000 600 38 1.000000 0.051000 0.051000 1.200000 0.036000 0.043000
1517210327048230750	700 36 0.900000 0.210000 0.206000 700 34 0.900000 0.379000 0.345000 600 38 1.000000 0.051000 0.051000 1.200000 0.029000 0.035000
1517210327558254042	700 36 0.900000 0.222000 0.218000 700 34 0.900000 0.549000 0.496000 600 38 1.000000 0.051000 0.051000 1.200000 0.043000 0.052000
1517210328068427709	700 36 0.900000 0.209000 0.205000 700 34 0.900000 0.376000 0.342000 600 38 1.000000 0.051000 0.051000 1.200000 0.038000 0.045000
1517210328580288334	700 36 0.900000 0.204000 0.200000 700 34 0.900000 0.371000 0.337000 600 38 1.000000 0.051000 0.051000 1.200000 0.038000 0.045000
1517210329091033167	700 36 0.900000 0.210000 0.206000 700 34 0.900000 0.372000 0.338000 600 38 1.000000 0.051000 0.051000 1.200000 0.028000 0.033000
1517210329600986959	700 36 0.900000 0.223000 0.219000 700 34 0.900000 0.501000 0.454000 600 39 1.000000 0.051000 0.051000 1.200000 0.035000 0.042000
1517210330111326709	700 36 0.900000 0.202000 0.198000 700 34 0.900000 0.375000 0.341000 600 38 1.000000 0.051000 0.051000 1.200000 0.037000 0.044000
1517210330621742917	700 36 0.900000 0.204000 0.200000 700 34 0.900000 0.373000 0.339000 600 38 1.000000 0.051000 0.051000 1.200000 0.037000 0.044000
1517210331132384001	700 36 0.900000 0.223000 0.219000 700 34 0.900000 0.373000 0.339000 600 38 1.000000 0.051000 0.051000 1.200000 0.029000 0.035000
1517210331643052042	700 36 0.900000 0.207000 0.203000 700 34 0.900000 0.388000 0.353000 600 39 1.000000 0.051000 0.051000 1.200000 0.038000 0.045000
1517210332153501834	700 36 0.900000 0.207000 0.203000 700 34 0.900000 0.518000 0.469000 600 38 1.000000 0.051000 0.051000 1.200000 0.046000 0.055000
1517210332663965084	700 36 0.900000 0.230000 0.226000 700 34 0.900000 0.383000 0.348000 600 38 1.000000 0.051000 0.051000 1.200000 0.029000 0.035000
1517210333174145584	700 36 0.900000 0.203000 0.199000 700 34 0.900000 0.377000 0.343000 600 38 1.000000 0.051000 0.051000 1.200000 0.032000 0.038000
1517210333684566376	700 36 0.900000 0.222000 0.218000 700 34 0.900000 0.375000 0.341000 600 38 1.000000 0.051000 0.051000 1.200000 0.038000 0.045000
1517210334195197501	700 36 0.900000 0.204000 0.200000 700 34 0.900000 0.516000 0.466000 600 38 1.000000 0.051000 0.051000 1.200000 0.044000 0.053000
1517210334705640084	700 36 0.900000 0.205000 0.201000 700 34 0.900000 0.376000 0.342000 600 38 1.000000 0.051000 0.051000 1.200000 0.030000 0.036000
1517210335215970459	700 36 0.900000 0.216000 0.212000 700 34 0.900000 0.376000 0.342000 600 38 1.000000 0.051000 0.051000 1.200000 0.028000 0.033000
1517210335725948043	700 36 0.900000 0.218000 0.214000 700 34 0.900000 0.376000 0.342000 600 38 1.000000 0.051000 0.051000 1.200000 0.037000 0.044000
1517210336235831001	700 36 0.900000 0.204000 0.200000 700 34 0.900000 0.453000 0.411000 600 38 1.000000 0.050000 0.050000 1.200000 0.042000 0.050000
1517210336746423710	700 36 0.900000 0.203000 0.199000 700 34 0.900000 0.410000 0.373000 600 38 1.000000 0.051000 0.051000 1.200000 0.034000 0.041000
1517210337256844751	700 36 0.900000 0.231000 0.227000 700 34 0.900000 0.384000 0.349000 600 38 1.000000 0.051000 0.051000 1.200000 0.028000 0.033000
1517210337766946418	700 36 0.900000 0.210000 0.206000 700 34 0.900000 0.390000 0.355000 600 38 1.000000 0.051000 0.051000 1.200000 0.037000 0.044000
1517210338277399293	700 36 0.900000 0.203000 0.199000 700 34 0.900000 0.412000 0.374000 600 39 1.000000 0.051000 0.051000 1.200000 0.040000 0.048000
1517210338787883418	700 36 0.900000 0.211000 0.207000 700 34 0.900000 0.463000 0.419000 600 38 1.000000 0.051000 0.051000 1.200000 0.038000 0.045000
1517210339298765127	700 36 0.900000 0.202000 0.198000 700 34 0.900000 0.381000 0.347000 600 38 1.000000 0.051000 0.051000 1.200000 0.028000 0.033000
1517210339808988127	700 36 0.900000 0.223000 0.219000 700 34 0.900000 0.385000 0.350000 600 39 1.000000 0.051000 0.051000 1.200000 0.038000 0.045000
1517210340319361960	700 36 0.900000 0.203000 0.199000 700 34 0.900000 0.443000 0.402000 600 38 1.000000 0.051000 0.051000 1.200000 0.035000 0.042000
1517210340829663085	700 36 0.900000 0.203000 0.199000 700 34 0.900000 0.393000 0.357000 600 38 1.000000 0.051000 0.051000 1.200000 0.039000 0.047000
1517210341339991293	700 36 0.900000 0.222000 0.218000 700 34 0.900000 0.381000 0.347000 600 38 1.000000 0.051000 0.051000 1.200000 0.037000 0.044000
1517210341850326419	700 36 0.900000 0.210000 0.206000 700 34 0.900000 0.384000 0.349000 600 39 1.000000 0.051000 0.051000 1.200000 0.042000 0.050000
1517210342361761627	700 36 0.900000 0.204000 0.200000 700 34 0.900000 0.451000 0.409000 600 38 1.000000 0.051000 0.051000 1.200000 0.037000 0.044000
1517210342872067169	700 36 0.900000 0.204000 0.200000 700 34 0.900000 0.384000 0.349000 600 38 1.000000 0.051000 0.051000 1.200000 0.036000 0.043000
1517210343382445419	700 36 0.900000 0.223000 0.219000 700 34 0.900000 0.385000 0.350000 600 38 1.000000 0.051000 0.051000 1.200000 0.035000 0.042000
1517210343892700252	700 36 0.900000 0.204000 0.200000 700 34 0.900000 0.385000 0.350000 600 38 1.000000 0.051000 0.051000 1.200000 0.037000 0.044000
1517210344403015044	700 36 0.900000 0.204000 0.200000 700 34 0.900000 0.454000 0.412000 600 38 1.000000 0.051000 0.051000 1.200000 0.038000 0.045000
1517210344915510752	700 36 0.900000 0.219000 0.215000 700 34 0.900000 0.383000 0.348000 600 39 1.000000 0.051000 0.051000 1.200000 0.033000 0.039000
1517210345425908711	700 36 0.900000 0.226000 0.222000 700 34 0.900000 0.420000 0.382000 600 38 1.000000 0.051000 0.051000 1.200000 0.029000 0.035000
1517210345936200086	700 36 0.900000 0.215000 0.211000 700 34 0.900000 0.389000 0.354000 600 38 1.000000 0.051000 0.051000 1.200000 0.037000 0.044000
1517210346446666002	700 36 0.900000 0.220000 0.216000 700 34 0.900000 0.440000 0.399000 600 38 1.000000 0.051000 0.051000 1.200000 0.037000 0.044000
1517210346957271377	700 36 0.900000 0.202000 0.198000 700 34 0.900000 0.375000 0.341000 600 38 1.000000 0.051000 0.051000 1.200000 0.029000 0.035000
1517210347467882961	700 36 0.900000 0.220000 0.216000 700 34 0.900000 0.442000 0.401000 600 38 1.000000 0.051000 0.051000 1.200000 0.045000 0.054000
1517210347978255503	700 36 0.900000 0.205000 0.201000 700 34 0.900000 0.389000 0.354000 600 38 1.000000 0.051000 0.051000 1.200000 0.028000 0.033000
1517210348488683753	700 36 0.900000 0.204000 0.200000 700 34 0.900000 0.393000 0.358000 600 38 1.000000 0.051000 0.051000 1.200000 0.038000 0.045000
1517210348998907961	700 36 0.900000 0.213000 0.209000 700 34 0.900000 0.378000 0.344000 600 38 1.000000 0.051000 0.051000 1.200000 0.040000 0.048000
1517210349508891336	700 36 0.900000 0.218000 0.214000 700 34 0.900000 0.387000 0.352000 600 38 1.000000 0.051000 0.051000 1.200000 0.034000 0.041000
1517210350019120545	700 36 0.900000 0.205000 0.201000 700 34 0.900000 0.392000 0.357000 600 38 1.000000 0.050000 0.050000 1.200000 0.028000 0.033000
1517210350531037461	700 36 0.900000 0.203000 0.199000 700 34 0.900000 0.430000 0.390000 600 38 1.000000 0.051000 0.051000 1.200000 0.037000 0.044000
1517210351041515836	700 36 0.900000 0.223000 0.219000 700 34 0.900000 0.380000 0.346000 600 38 1.000000 0.051000 0.051000 1.200000 0.038000 0.045000
1517210351551800086	700 36 0.900000 0.209000 0.205000 700 34 0.900000 0.384000 0.349000 600 38 1.000000 0.051000 0.051000 1.200000 0.037000 0.044000
1517210352061954003	700 36 0.900000 0.217000 0.213000 700 34 0.900000 0.390000 0.355000 600 38 1.000000 0.051000 0.051000 1.200000 0.032000 0.038000
1517210352572225378	700 36 0.900000 0.216000 0.212000 700 34 0.900000 0.449000 0.407000 600 38 1.000000 0.051000 0.051000 1.200000 0.036000 0.043000
1517210353082769670	700 36 0.900000 0.204000 0.200000 700 34 0.900000 0.375000 0.341000 600 38 1.000000 0.051000 0.051000 1.200000 0.039000 0.047000
1517210353593532837	700 36 0.900000 0.201000 0.197000 700 34 0.900000 0.371000 0.337000 600 38 1.000000 0.051000 0.051000 1.200000 0.039000 0.047000
1517210354104049337	700 36 0.900000 0.218000 0.214000 700 34 0.900000 0.429000 0.389000 600 38 1.000000 0.051000 0.051000 1.200000 0.036000 0.043000
1517210354614393587	700 36 0.900000 0.204000 0.200000 700 34 0.900000 0.438000 0.397000 600 38 1.000000 0.051000 0.051000 1.200000 0.033000 0.039000
1517210355124724253	700 36 0.900000 0.222000 0.218000 700 34 0.900000 0.377000 0.343000 600 38 1.000000 0.051000 0.051000 1.200000 0.037000 0.044000
1517210355635436045	700 36 0.900000 0.210000 0.206000 700 34 0.900000 0.384000 0.349000 600 38 1.000000 0.050000 0.050000 1.200000 0.029000 0.035000
1517210356146138004	700 36 0.900000 0.198000 0.195000 700 34 0.900000 0.427000 0.387000 600 38 1.000000 0.051000 0.051000 1.200000 0.037000 0.044000
1517210356656534670	700 36 0.900000 0.203000 0.199000 700 34 0.900000 0.383000 0.348000 600 38 1.000000 0.051000 0.051000 1.200000 0.038000 0.045000
1517210357166865462	700 36 0.900000 0.229000 0.225000 700 34 0.900000 0.382000 0.348000 600 38 1.000000 0.050000 0.050000 1.200000 0.039000 0.047000
1517210357677066170	700 36 0.900000 0.203000 0.199000 700 34 0.900000 0.383000 0.348000 600 38 1.000000 0.051000 0.051000 1.200000 0.029000 0.035000
1517210358187223045	700 36 0.900000 0.198000 0.195000 700 34 0.900000 0.386000 0.351000 600 38 1.000000 0.051000 0.051000 1.200000 0.033000 0.039000
1517210358697779796	700 36 0.900000 0.204000 0.200000 700 34 0.900000 0.381000 0.347000 600 38 1.000000 0.051000 0.051000 1.200000 0.038000 0.045000
1517210359208247379	700 36 0.900000 0.203000 0.199000 700 34 0.900000 0.374000 0.340000 600 38 1.000000 0.051000 0.051000 1.200000 0.038000 0.045000
1517210359718592504	700 36 0.900000 0.208000 0.204000 700 34 0.900000 0.374000 0.340000 600 38 1.000000 0.051000 0.051000 1.200000 0.030000 0.036000
1517210360230139379	700 36 0.900000 0.223000 0.219000 700 34 0.900000 0.374000 0.340000 600 39 1.000000 0.051000 0.051000 1.200000 0.028000 0.033000
1517210360740482129	700 36 0.900000 0.198000 0.195000 700 34 0.900000 0.402000 0.365000 600 38 1.000000 0.051000 0.051000 1.200000 0.040000 0.048000
1517210361251443129	700 36 0.900000 0.202000 0.198000 700 34 0.900000 0.375000 0.341000 600 38 1.000000 0.051000 0.051000 1.200000 0.038000 0.045000
1517210361761694921	700 36 0.900000 0.223000 0.219000 700 34 0.900000 0.373000 0.339000 600 38 1.000000 0.051000 0.051000 1.200000 0.034000 0.041000
1517210362272003671	700 36 0.900000 0.213000 0.209000 700 34 0.900000 0.376000 0.342000 600 38 1.000000 0.051000 0.051000 1.200000 0.028000 0.033000
1517210362781900671	700 36 0.900000 0.198000 0.195000 700 34 0.900000 0.491000 0.445000 600 38 1.000000 0.051000 0.051000 1.200000 0.042000 0.050000
1517210363292257254	700 36 0.900000 0.222000 0.218000 700 34 0.900000 0.382000 0.348000 600 38 1.000000 0.051000 0.051000 1.200000 0.034000 0.041000
1517210363802538838	700 36 0.900000 0.201000 0.197000 700 34 0.900000 0.384000 0.349000 600 38 1.000000 0.051000 0.051000 1.200000 0.029000 0.035000
1517210364313387880	700 36 0.900000 0.203000 0.199000 700 34 0.900000 0.389000 0.354000 600 38 1.000000 0.051000 0.051000 1.200000 0.038000 0.045000
1517210364823493505	700 36 0.900000 0.205000 0.201000 700 34 0.900000 0.425000 0.386000 600 38 1.000000 0.051000 0.051000 1.200000 0.039000 0.047000
1517210365333703588	700 36 0.900000 0.200000 0.197000 700 34 0.900000 0.380000 0.346000 600 38 1.000000 0.051000 0.051000 1.200000 0.035000 0.042000
1517210365844028296	700 36 0.900000 0.213000 0.209000 700 34 0.900000 0.375000 0.341000 600 38 1.000000 0.051000 0.051000 1.200000 0.029000 0.035000
1517210366354286755	700 36 0.900000 0.218000 0.214000 700 34 0.900000 0.375000 0.341000 600 38 1.000000 0.051000 0.051000 1.200000 0.039000 0.047000
1517210366865472297	700 36 0.900000 0.204000 0.200000 700 34 0.900000 0.377000 0.343000 600 39 1.000000 0.051000 0.051000 1.200000 0.039000 0.047000
1517210367375882630	700 36 0.900000 0.202000 0.198000 700 34 0.900000 0.374000 0.340000 600 38 1.000000 0.051000 0.051000 1.200000 0.038000 0.045000
1517210367886303255	700 36 0.900000 0.223000 0.219000 700 34 0.900000 0.377000 0.343000 600 38 1.000000 0.051000 0.051000 1.200000 0.028000 0.033000
1517210368396434005	700 36 0.900000 0.202000 0.198000 700 34 0.900000 0.374000 0.340000 600 38 1.000000 0.051000 0.051000 1.200000 0.035000 0.042000
1517210368909410005	700 36 0.900000 0.203000 0.199000 700 34 0.900000 0.376000 0.342000 600 39 1.000000 0.051000 0.051000 1.200000 0.037000 0.044000
1517210369419584297	700 36 0.900000 0.210000 0.206000 700 34 0.900000 0.391000 0.356000 600 38 1.000000 0.051000 0.051000 1.200000 0.042000 0.050000
1517210369930121922	700 36 0.900000 0.223000 0.219000 700 34 0.900000 0.372000 0.338000 600 38 1.000000 0.051000 0.051000 1.200000 0.028000 0.033000
1517210370440507130	700 36 0.900000 0.202000 0.198000 700 34 0.900000 0.373000 0.339000 600 38 1.000000 0.051000 0.051000 1.200000 0.031000 0.037000
1517210370951138422	700 36 0.900000 0.223000 0.219000 700 34 0.900000 0.379000 0.345000 600 38 1.000000 0.051000 0.051000 1.200000 0.035000 0.042000
1517210371461070922	700 36 0.900000 0.203000 0.199000 700 34 0.900000 0.516000 0.467000 600 38 1.000000 0.051000 0.051000 1.200000 0.034000 0.041000
1517210371971370714	700 36 0.900000 0.220000 0.216000 700 34 0.900000 0.387000 0.352000 600 38 1.000000 0.051000 0.051000 1.200000 0.035000 0.042000
1517210372483126506	700 36 0.900000 0.209000 0.205000 700 34 0.900000 0.376000 0.342000 600 38 1.000000 0.051000 0.051000 1.200000 0.039000 0.047000
1517210372993648547	700 36 0.900000 0.202000 0.198000 700 34 0.900000 0.373000 0.339000 600 38 1.000000 0.051000 0.051000 1.200000 0.039000 0.047000
1517210373503629172	700 36 0.900000 0.207000 0.203000 700 34 0.900000 0.435000 0.394000 600 39 1.000000 0.051000 0.051000 1.200000 0.034000 0.041000
1517210374013698464	700 36 0.900000 0.221000 0.217000 700 34 0.900000 0.376000 0.342000 600 38 1.000000 0.051000 0.051000 1.200000 0.033000 0.039000
1517210374524044797	700 36 0.900000 0.201000 0.197000 700 34 0.900000 0.375000 0.341000 600 38 1.000000 0.051000 0.051000 1.200000 0.038000 0.045000
1517210375034715256	700 36 0.900000 0.202000 0.198000 700 34 0.900000 0.383000 0.348000 600 38 1.000000 0.051000 0.051000 1.200000 0.038000 0.045000
1517210375545894506	700 36 0.900000 0.221000 0.217000 700 34 0.900000 0.440000 0.399000 600 38 1.000000 0.051000 0.051000 1.200000 0.033000 0.039000
1517210376056269464	700 36 0.900000 0.214000 0.210000 700 34 0.900000 0.534000 0.483000 600 38 1.000000 0.051000 0.051000 1.200000 0.030000 0.036000
1517210376566535339	700 36 0.900000 0.201000 0.197000 700 34 0.900000 0.386000 0.351000 600 38 1.000000 0.051000 0.051000 1.200000 0.037000 0.044000
1517210377076679006	700 36 0.900000 0.203000 0.199000 700 34 0.900000 0.384000 0.349000 600 38 1.000000 0.051000 0.051000 1.200000 0.038000 0.045000
1517210377587395339	700 36 0.900000 0.203000 0.199000 700 34 0.900000 0.446000 0.406000 600 38 1.000000 0.051000 0.051000 1.200000 0.032000 0.038000
1517210378097837631	700 36 0.900000 0.198000 0.195000 700 34 0.900000 0.501000 0.454000 600 38 1.000000 0.051000 0.051000 1.200000 0.033000 0.039000
1517210378608186923	700 36 0.900000 0.223000 0.219000 700 34 0.900000 0.388000 0.353000 600 38 1.000000 0.051000 0.051000 1.200000 0.037000 0.044000
1517210379118453715	700 36 0.900000 0.202000 0.198000 700 34 0.900000 0.380000 0.346000 600 38 1.000000 0.051000 0.051000 1.200000 0.030000 0.036000
1517210379628651173	700 36 0.900000 0.214000 0.210000 700 34 0.900000 0.380000 0.346000 600 38 1.000000 0.051000 0.051000 1.200000 0.035000 0.042000
1517210380138550256	700 36 0.900000 0.219000 0.215000 700 34 0.900000 0.385000 0.350000 600 38 1.000000 0.051000 0.051000 1.200000 0.037000 0.044000
1517210380649341673	700 36 0.900000 0.204000 0.200000 700 34 0.900000 0.461000 0.419000 600 38 1.000000 0.051000 0.051000 1.200000 0.038000 0.045000
1517210381159880757	700 36 0.900000 0.204000 0.200000 700 34 0.900000 0.380000 0.346000 600 38 1.000000 0.051000 0.051000 1.200000 0.031000 0.037000
1517210381670084590	700 36 0.900000 0.221000 0.217000 700 34 0.900000 0.381000 0.347000 600 38 1.000000 0.050000 0.050000 1.200000 0.032000 0.038000
1517210382180849382	700 36 0.900000 0.202000 0.198000 700 34 0.900000 0.388000 0.353000 600 39 1.000000 0.051000 0.051000 1.200000 0.037000 0.044000
1517210382691156465	700 36 0.900000 0.203000 0.199000 700 34 0.900000 0.502000 0.455000 600 38 1.000000 0.051000 0.051000 1.200000 0.039000 0.047000
1517210383203057882	700 36 0.900000 0.209000 0.205000 700 34 0.900000 0.378000 0.344000 600 38 1.000000 0.051000 0.051000 1.200000 0.036000 0.043000
1517210383713235965	700 36 0.900000 0.204000 0.200000 700 34 0.900000 0.388000 0.353000 600 38 1.000000 0.051000 0.051000 1.200000 0.033000 0.039000
1517210384223471965	700 36 0.900000 0.203000 0.199000 700 34 0.900000 0.385000 0.350000 600 38 1.000000 0.051000 0.051000 1.200000 0.036000 0.043000
1517210384733628507	700 36 0.900000 0.221000 0.217000 700 34 0.900000 0.509000 0.461000 600 38 1.000000 0.051000 0.051000 1.200000 0.043000 0.052000
1517210385243818840	700 36 0.900000 0.203000 0.199000 700 34 0.900000 0.379000 0.345000 600 38 1.000000 0.051000 0.051000 1.200000 0.038000 0.045000
1517210385753872465	700 36 0.900000 0.204000 0.200000 700 34 0.900000 0.421000 0.383000 600 38 1.000000 0.051000 0.051000 1.200000 0.034000 0.041000
1517210386265132090	700 36 0.900000 0.214000 0.210000 700 34 0.900000 0.376000 0.342000 600 38 1.000000 0.051000 0.051000 1.200000 0.032000 0.038000
1517210386775614382	700 36 0.900000 0.204000 0.200000 700 34 0.900000 0.387000 0.352000 600 38 1.000000 0.051000 0.051000 1.200000 0.038000 0.045000
1517210387285843799	700 36 0.900000 0.201000 0.197000 700 34 0.900000 0.421000 0.383000 600 38 1.000000 0.051000 0.051000 1.200000 0.029000 0.035000
1517210387795950049	700 36 0.900000 0.222000 0.218000 700 34 0.900000 0.378000 0.344000 600 38 1.000000 0.051000 0.051000 1.200000 0.038000 0.045000
1517210388306098716	700 36 0.900000 0.204000 0.200000 700 34 0.900000 0.386000 0.351000 600 38 1.000000 0.051000 0.051000 1.200000 0.038000 0.045000
1517210388817088091	700 36 0.900000 0.204000 0.200000 700 34 0.900000 0.384000 0.349000 600 39 1.000000 0.051000 0.051000 1.200000 0.028000 0.033000
1517210389327707341	700 36 0.900000 0.215000 0.211000 700 34 0.900000 0.467000 0.424000 600 38 1.000000 0.051000 0.051000 1.200000 0.050000 0.060000
1517210389837478758	700 34 0.900000 0.211000 0.207000 700 34 0.900000 0.380000 0.346000 600 38 1.000000 0.051000 0.051000 1.200000 0.039000 0.047000
1517210390346957049	700 33 0.900000 0.031000 0.030000 700 33 0.900000 0.090000 0.082000 600 37 1.000000 0.051000 0.051000 1.200000 0.025000 0.030000
