#Timestamp	CPU(0) Frequency(MHz)	CPU(0) Temperature(C)	A7 Voltage(V)	A7 Current(A)	A7 Power(W)	CPU(4) Frequency(MHz)	CPU(4) Temperature(C)	A15 Voltage(V)	A15 Current(A)	A15 Power(W)	GPU Frequency(MHz)	GPU Temperature(C)	GPU Voltage(V)	GPU Current(A)	GPU Power(W)	RAM Voltage(V)	RAM Current(A)	RAM Power(W)
1517159054018462513	600 36 0.900000 0.028000 0.026000 200 35 0.900000 0.194000 0.176000 600 40 1.000000 0.051000 0.051000 1.200000 0.041000 0.049000
1517159054551260888	600 36 0.900000 0.050000 0.047000 200 35 0.900000 0.094000 0.085000 600 39 1.000000 0.051000 0.051000 1.200000 0.034000 0.041000
1517159055084042638	600 36 0.900000 0.051000 0.048000 200 35 0.900000 0.061000 0.055000 600 40 1.000000 0.051000 0.051000 1.200000 0.057000 0.069000
1517159055615890221	600 36 0.900000 0.065000 0.061000 200 35 0.900000 0.066000 0.060000 600 39 1.000000 0.051000 0.051000 1.200000 0.030000 0.036000
1517159056152941430	600 36 0.900000 0.066000 0.062000 200 35 0.900000 0.043000 0.039000 600 39 1.000000 0.051000 0.051000 1.200000 0.028000 0.033000
1517159056686128180	600 36 0.900000 0.066000 0.062000 200 35 0.900000 0.129000 0.117000 600 39 1.000000 0.051000 0.051000 1.200000 0.033000 0.039000
1517159057219580222	600 36 0.900000 0.066000 0.062000 200 35 0.900000 0.046000 0.041000 600 39 1.000000 0.051000 0.051000 1.200000 0.027000 0.032000
1517159057751382680	600 35 0.900000 0.066000 0.062000 200 35 0.900000 0.107000 0.097000 600 39 1.000000 0.051000 0.051000 1.200000 0.034000 0.041000
1517159058282649888	600 35 0.900000 0.065000 0.061000 200 35 0.900000 0.044000 0.040000 600 39 1.000000 0.051000 0.051000 1.200000 0.031000 0.037000
1517159058816491972	600 36 0.900000 0.065000 0.061000 200 35 0.900000 0.044000 0.040000 600 39 1.000000 0.051000 0.051000 1.200000 0.029000 0.035000
1517159059347694180	600 36 0.900000 0.068000 0.064000 200 35 0.900000 0.130000 0.118000 600 39 1.000000 0.051000 0.051000 1.200000 0.033000 0.039000
1517159059879691180	600 35 0.900000 0.065000 0.061000 200 35 0.900000 0.103000 0.093000 600 39 1.000000 0.051000 0.051000 1.200000 0.034000 0.041000
1517159060410792555	600 35 0.900000 0.065000 0.061000 200 35 0.900000 0.051000 0.046000 600 39 1.000000 0.051000 0.051000 1.200000 0.030000 0.036000
1517159060941911347	600 35 0.900000 0.065000 0.061000 200 35 0.900000 0.042000 0.038000 600 39 1.000000 0.051000 0.051000 1.200000 0.029000 0.035000
1517159061477995180	600 35 0.900000 0.065000 0.061000 200 35 0.900000 0.042000 0.038000 600 39 1.000000 0.051000 0.051000 1.200000 0.030000 0.036000
1517159062009277097	600 35 0.900000 0.068000 0.064000 200 35 0.900000 0.140000 0.127000 600 39 1.000000 0.051000 0.051000 1.200000 0.035000 0.042000
1517159062540223181	600 35 0.900000 0.067000 0.063000 200 35 0.900000 0.044000 0.040000 600 39 1.000000 0.051000 0.051000 1.200000 0.029000 0.035000
1517159063071365472	600 35 0.900000 0.065000 0.061000 200 35 0.900000 0.042000 0.038000 600 39 1.000000 0.051000 0.051000 1.200000 0.030000 0.036000
1517159063601695264	600 35 0.900000 0.065000 0.061000 200 35 0.900000 0.044000 0.040000 600 39 1.000000 0.051000 0.051000 1.200000 0.029000 0.035000
1517159064136057097	600 36 0.900000 0.160000 0.151000 200 35 0.900000 0.045000 0.041000 600 39 1.000000 0.051000 0.051000 1.200000 0.024000 0.028000
1517159064667694222	600 36 0.900000 0.166000 0.157000 200 35 0.900000 0.155000 0.141000 600 39 1.000000 0.051000 0.051000 1.200000 0.042000 0.050000
1517159065199446181	600 36 0.900000 0.190000 0.180000 200 35 0.900000 0.045000 0.041000 600 39 1.000000 0.051000 0.051000 1.200000 0.025000 0.030000
1517159065730892848	600 36 0.900000 0.190000 0.180000 200 35 0.900000 0.082000 0.074000 600 39 1.000000 0.051000 0.051000 1.200000 0.028000 0.033000
1517159066261961681	600 36 0.900000 0.176000 0.166000 200 35 0.900000 0.043000 0.039000 600 39 1.000000 0.051000 0.051000 1.200000 0.025000 0.030000
1517159066795084139	600 36 0.900000 0.169000 0.160000 200 35 0.900000 0.121000 0.110000 600 39 1.000000 0.051000 0.051000 1.200000 0.040000 0.048000
1517159067326406431	600 36 0.900000 0.182000 0.172000 200 35 0.900000 0.129000 0.117000 600 39 1.000000 0.051000 0.051000 1.200000 0.033000 0.039000
1517159067857513681	600 36 0.900000 0.190000 0.180000 200 35 0.900000 0.042000 0.038000 600 39 1.000000 0.051000 0.051000 1.200000 0.023000 0.027000
1517159068388407098	600 36 0.900000 0.190000 0.180000 200 35 0.900000 0.044000 0.040000 600 39 1.000000 0.051000 0.051000 1.200000 0.024000 0.028000
1517159068919802223	600 36 0.900000 0.180000 0.170000 200 35 0.900000 0.098000 0.089000 600 39 1.000000 0.051000 0.051000 1.200000 0.038000 0.045000
1517159069452764431	600 36 0.900000 0.189000 0.179000 200 35 0.900000 0.065000 0.059000 600 39 1.000000 0.051000 0.051000 1.200000 0.036000 0.043000
1517159069985056431	600 36 0.900000 0.185000 0.175000 200 35 0.900000 0.130000 0.118000 600 39 1.000000 0.051000 0.051000 1.200000 0.032000 0.038000
1517159070515992057	600 36 0.900000 0.187000 0.177000 200 35 0.900000 0.044000 0.040000 600 39 1.000000 0.051000 0.051000 1.200000 0.024000 0.028000
1517159071047709723	600 36 0.900000 0.171000 0.162000 200 35 0.900000 0.050000 0.045000 600 39 1.000000 0.051000 0.051000 1.200000 0.027000 0.032000
1517159071578912390	600 36 0.900000 0.172000 0.163000 200 35 0.900000 0.051000 0.046000 600 39 1.000000 0.051000 0.051000 1.200000 0.036000 0.043000
1517159072112596473	600 36 0.900000 0.189000 0.179000 200 35 0.900000 0.083000 0.075000 600 39 1.000000 0.051000 0.051000 1.200000 0.033000 0.039000
1517159072643903682	600 36 0.900000 0.185000 0.175000 200 35 0.900000 0.138000 0.125000 600 39 1.000000 0.051000 0.051000 1.200000 0.036000 0.043000
1517159073176683973	600 36 0.900000 0.169000 0.160000 200 35 0.900000 0.055000 0.050000 600 39 1.000000 0.051000 0.051000 1.200000 0.031000 0.037000
1517159073708514515	600 36 0.900000 0.171000 0.162000 200 35 0.900000 0.101000 0.092000 600 39 1.000000 0.051000 0.051000 1.200000 0.031000 0.037000
1517159074240236057	600 36 0.900000 0.184000 0.174000 200 35 0.900000 0.053000 0.048000 600 39 1.000000 0.051000 0.051000 1.200000 0.025000 0.030000
1517159074773461682	600 36 0.900000 0.187000 0.177000 200 35 0.900000 0.056000 0.051000 600 39 1.000000 0.051000 0.051000 1.200000 0.028000 0.033000
1517159075306150599	600 36 0.900000 0.168000 0.159000 200 35 0.900000 0.137000 0.124000 600 39 1.000000 0.051000 0.051000 1.200000 0.041000 0.049000
1517159075838029599	600 36 0.900000 0.190000 0.180000 200 35 0.900000 0.058000 0.052000 600 39 1.000000 0.051000 0.051000 1.200000 0.026000 0.031000
1517159076369415599	600 36 0.900000 0.188000 0.178000 200 35 0.900000 0.054000 0.049000 600 39 1.000000 0.051000 0.051000 1.200000 0.026000 0.031000
1517159076900711307	600 36 0.900000 0.168000 0.159000 200 35 0.900000 0.059000 0.053000 600 39 1.000000 0.051000 0.051000 1.200000 0.036000 0.043000
1517159077436867349	600 36 0.900000 0.173000 0.164000 200 35 0.900000 0.051000 0.046000 600 39 1.000000 0.051000 0.051000 1.200000 0.025000 0.030000
1517159077971922016	600 36 0.900000 0.168000 0.159000 200 35 0.900000 0.141000 0.128000 600 39 1.000000 0.051000 0.051000 1.200000 0.040000 0.048000
1517159078502938182	600 36 0.900000 0.185000 0.175000 200 35 0.900000 0.046000 0.041000 600 39 1.000000 0.051000 0.051000 1.200000 0.024000 0.028000
1517159079033588974	600 36 0.900000 0.190000 0.180000 200 35 0.900000 0.046000 0.041000 600 39 1.000000 0.051000 0.051000 1.200000 0.024000 0.028000
1517159079564944516	600 36 0.900000 0.189000 0.179000 200 35 0.900000 0.050000 0.045000 600 39 1.000000 0.051000 0.051000 1.200000 0.036000 0.043000
1517159080099654183	600 36 0.900000 0.167000 0.158000 200 36 0.900000 0.122000 0.111000 600 40 1.000000 0.051000 0.051000 1.200000 0.036000 0.043000
1517159080631563891	600 36 0.900000 0.170000 0.161000 200 35 0.900000 0.079000 0.072000 600 39 1.000000 0.051000 0.051000 1.200000 0.029000 0.035000
1517159081163019224	600 36 0.900000 0.187000 0.177000 200 35 0.900000 0.046000 0.041000 600 39 1.000000 0.051000 0.051000 1.200000 0.024000 0.028000
1517159081693571766	600 36 0.900000 0.171000 0.162000 200 35 0.900000 0.051000 0.046000 600 39 1.000000 0.051000 0.051000 1.200000 0.035000 0.042000
1517159082228832891	600 36 0.900000 0.180000 0.170000 200 35 0.900000 0.051000 0.046000 600 39 1.000000 0.051000 0.051000 1.200000 0.034000 0.041000
1517159082762658433	600 36 0.900000 0.188000 0.178000 200 35 0.900000 0.154000 0.140000 600 39 1.000000 0.051000 0.051000 1.200000 0.037000 0.044000
1517159083293895683	600 36 0.900000 0.188000 0.178000 200 35 0.900000 0.058000 0.052000 600 39 1.000000 0.051000 0.051000 1.200000 0.026000 0.031000
1517159083825317683	600 36 0.900000 0.185000 0.175000 200 35 0.900000 0.052000 0.047000 600 39 1.000000 0.051000 0.051000 1.200000 0.029000 0.035000
1517159084356777266	600 36 0.900000 0.170000 0.161000 200 35 0.900000 0.056000 0.051000 600 39 1.000000 0.051000 0.051000 1.200000 0.035000 0.042000
1517159084890040975	600 36 0.900000 0.178000 0.168000 200 35 0.900000 0.130000 0.118000 600 39 1.000000 0.051000 0.051000 1.200000 0.033000 0.039000
1517159085422274350	600 36 0.900000 0.188000 0.178000 200 35 0.900000 0.128000 0.116000 600 39 1.000000 0.051000 0.051000 1.200000 0.035000 0.042000
1517159085953164558	600 36 0.900000 0.188000 0.178000 200 35 0.900000 0.056000 0.051000 600 39 1.000000 0.051000 0.051000 1.200000 0.030000 0.036000
1517159086484784225	600 36 0.900000 0.169000 0.160000 200 35 0.900000 0.055000 0.050000 600 39 1.000000 0.051000 0.051000 1.200000 0.035000 0.042000
1517159087016437017	600 36 0.900000 0.172000 0.163000 200 35 0.900000 0.089000 0.081000 600 39 1.000000 0.051000 0.051000 1.200000 0.029000 0.035000
1517159087550823975	600 36 0.900000 0.187000 0.177000 200 35 0.900000 0.048000 0.043000 600 39 1.000000 0.051000 0.051000 1.200000 0.025000 0.030000
1517159088081827725	600 36 0.900000 0.166000 0.157000 200 35 0.900000 0.125000 0.114000 600 39 1.000000 0.051000 0.051000 1.200000 0.039000 0.047000
1517159088613227309	600 36 0.900000 0.190000 0.180000 200 35 0.900000 0.052000 0.047000 600 39 1.000000 0.051000 0.051000 1.200000 0.028000 0.033000
1517159089145430600	600 36 0.900000 0.189000 0.178000 200 35 0.900000 0.049000 0.044000 600 39 1.000000 0.051000 0.051000 1.200000 0.025000 0.030000
1517159089676596767	600 36 0.900000 0.188000 0.178000 200 35 0.900000 0.049000 0.044000 600 39 1.000000 0.051000 0.051000 1.200000 0.026000 0.031000
1517159090209671434	600 36 0.900000 0.183000 0.173000 200 35 0.900000 0.049000 0.044000 600 39 1.000000 0.051000 0.051000 1.200000 0.026000 0.031000
1517159090741653726	600 36 0.900000 0.169000 0.160000 200 35 0.900000 0.127000 0.115000 600 39 1.000000 0.051000 0.051000 1.200000 0.043000 0.052000
1517159091275054184	600 36 0.900000 0.186000 0.176000 200 35 0.900000 0.051000 0.046000 600 39 1.000000 0.051000 0.051000 1.200000 0.025000 0.030000
1517159091806854351	600 36 0.900000 0.189000 0.179000 200 35 0.900000 0.092000 0.083000 600 39 1.000000 0.051000 0.051000 1.200000 0.029000 0.035000
1517159092338343767	600 36 0.900000 0.189000 0.179000 200 35 0.900000 0.052000 0.047000 600 39 1.000000 0.051000 0.051000 1.200000 0.026000 0.031000
1517159092871191851	600 36 0.900000 0.176000 0.166000 200 35 0.900000 0.070000 0.063000 600 39 1.000000 0.051000 0.051000 1.200000 0.038000 0.045000
1517159093404125018	600 36 0.900000 0.179000 0.169000 200 35 0.900000 0.136000 0.124000 600 39 1.000000 0.051000 0.051000 1.200000 0.031000 0.037000
1517159093936244268	600 36 0.900000 0.176000 0.166000 200 36 0.900000 0.136000 0.124000 600 39 1.000000 0.051000 0.051000 1.200000 0.034000 0.041000
1517159094467358184	600 36 0.900000 0.169000 0.160000 200 35 0.900000 0.054000 0.049000 600 39 1.000000 0.051000 0.051000 1.200000 0.029000 0.035000
1517159094998431351	600 36 0.900000 0.177000 0.167000 200 35 0.900000 0.058000 0.052000 600 39 1.000000 0.051000 0.051000 1.200000 0.036000 0.043000
1517159095532298351	600 36 0.900000 0.188000 0.178000 200 35 0.900000 0.090000 0.082000 600 39 1.000000 0.051000 0.051000 1.200000 0.028000 0.033000
1517159096064310143	600 36 0.900000 0.185000 0.175000 200 35 0.900000 0.155000 0.141000 600 39 1.000000 0.051000 0.051000 1.200000 0.035000 0.042000
1517159096595268143	600 36 0.900000 0.168000 0.159000 200 35 0.900000 0.054000 0.049000 600 39 1.000000 0.051000 0.051000 1.200000 0.031000 0.037000
1517159097126387310	600 36 0.900000 0.170000 0.161000 200 35 0.900000 0.059000 0.053000 600 39 1.000000 0.051000 0.051000 1.200000 0.036000 0.043000
1517159097657277226	600 36 0.900000 0.190000 0.180000 200 35 0.900000 0.052000 0.047000 600 39 1.000000 0.051000 0.051000 1.200000 0.025000 0.030000
1517159098194027060	600 36 0.900000 0.188000 0.178000 200 35 0.900000 0.106000 0.096000 600 40 1.000000 0.051000 0.051000 1.200000 0.029000 0.035000
1517159098726395727	600 36 0.900000 0.180000 0.170000 200 35 0.900000 0.123000 0.112000 600 39 1.000000 0.051000 0.051000 1.200000 0.034000 0.041000
1517159099256991018	600 36 0.900000 0.170000 0.161000 200 35 0.900000 0.059000 0.053000 600 39 1.000000 0.051000 0.051000 1.200000 0.035000 0.042000
1517159099787911810	600 36 0.900000 0.184000 0.174000 200 35 0.900000 0.052000 0.047000 600 39 1.000000 0.051000 0.051000 1.200000 0.025000 0.030000
1517159100324697768	600 36 0.900000 0.173000 0.164000 200 35 0.900000 0.054000 0.049000 600 39 1.000000 0.051000 0.051000 1.200000 0.025000 0.030000
1517159100861319685	600 36 0.900000 0.173000 0.164000 200 35 0.900000 0.161000 0.146000 600 39 1.000000 0.051000 0.051000 1.200000 0.042000 0.050000
1517159101393029894	600 36 0.900000 0.185000 0.175000 200 35 0.900000 0.106000 0.096000 600 39 1.000000 0.051000 0.051000 1.200000 0.036000 0.043000
1517159101924315394	600 36 0.900000 0.188000 0.178000 200 35 0.900000 0.055000 0.050000 600 39 1.000000 0.051000 0.051000 1.200000 0.025000 0.030000
1517159102455951185	600 36 0.900000 0.173000 0.164000 200 35 0.900000 0.054000 0.049000 600 39 1.000000 0.051000 0.051000 1.200000 0.026000 0.031000
1517159102989099019	600 36 0.900000 0.171000 0.162000 200 35 0.900000 0.122000 0.111000 600 39 1.000000 0.051000 0.051000 1.200000 0.041000 0.049000
1517159103523249060	600 36 0.900000 0.182000 0.172000 200 35 0.900000 0.129000 0.117000 600 39 1.000000 0.051000 0.051000 1.200000 0.039000 0.047000
1517159104054941477	600 36 0.900000 0.187000 0.177000 200 35 0.900000 0.084000 0.076000 600 39 1.000000 0.051000 0.051000 1.200000 0.027000 0.032000
1517159104586629061	600 36 0.900000 0.189000 0.179000 200 35 0.900000 0.052000 0.047000 600 39 1.000000 0.051000 0.051000 1.200000 0.025000 0.030000
1517159105118386102	600 36 0.900000 0.167000 0.158000 200 35 0.900000 0.083000 0.075000 600 39 1.000000 0.051000 0.051000 1.200000 0.037000 0.044000
1517159105652229894	600 36 0.900000 0.170000 0.161000 200 35 0.900000 0.061000 0.055000 600 39 1.000000 0.051000 0.051000 1.200000 0.036000 0.043000
1517159106186501144	600 36 0.900000 0.183000 0.173000 200 35 0.900000 0.135000 0.123000 600 39 1.000000 0.051000 0.051000 1.200000 0.031000 0.037000
1517159106717996144	600 36 0.900000 0.170000 0.161000 200 35 0.900000 0.069000 0.062000 600 39 1.000000 0.051000 0.051000 1.200000 0.026000 0.031000
1517159107251842811	600 36 0.900000 0.172000 0.163000 200 35 0.900000 0.055000 0.050000 600 39 1.000000 0.051000 0.051000 1.200000 0.031000 0.037000
1517159107783273769	600 36 0.900000 0.189000 0.179000 200 35 0.900000 0.043000 0.039000 600 39 1.000000 0.051000 0.051000 1.200000 0.024000 0.028000
1517159108319006353	600 36 0.900000 0.172000 0.163000 200 35 0.900000 0.070000 0.063000 600 39 1.000000 0.051000 0.051000 1.200000 0.038000 0.045000
1517159108850694519	600 36 0.900000 0.186000 0.176000 200 35 0.900000 0.131000 0.119000 600 39 1.000000 0.051000 0.051000 1.200000 0.038000 0.045000
1517159109383637603	600 36 0.900000 0.189000 0.179000 200 35 0.900000 0.070000 0.063000 600 39 1.000000 0.051000 0.051000 1.200000 0.027000 0.032000
1517159109915558770	600 36 0.900000 0.171000 0.162000 200 35 0.900000 0.042000 0.038000 600 39 1.000000 0.051000 0.051000 1.200000 0.025000 0.030000
1517159110446915353	600 36 0.900000 0.170000 0.161000 200 35 0.900000 0.049000 0.044000 600 39 1.000000 0.051000 0.051000 1.200000 0.035000 0.042000
1517159110980803770	600 36 0.900000 0.182000 0.172000 200 35 0.900000 0.083000 0.075000 600 39 1.000000 0.051000 0.051000 1.200000 0.036000 0.043000
1517159111513601228	600 36 0.900000 0.186000 0.176000 200 35 0.900000 0.135000 0.123000 600 39 1.000000 0.051000 0.051000 1.200000 0.030000 0.036000
1517159112046036228	600 36 0.900000 0.189000 0.179000 200 35 0.900000 0.120000 0.109000 600 39 1.000000 0.051000 0.051000 1.200000 0.026000 0.031000
1517159112577426520	600 36 0.900000 0.171000 0.162000 200 35 0.900000 0.055000 0.050000 600 39 1.000000 0.051000 0.051000 1.200000 0.036000 0.043000
1517159113108764187	600 36 0.900000 0.189000 0.179000 200 35 0.900000 0.053000 0.048000 600 39 1.000000 0.051000 0.051000 1.200000 0.034000 0.041000
1517159113643030937	600 36 0.900000 0.187000 0.177000 200 35 0.900000 0.054000 0.049000 600 39 1.000000 0.051000 0.051000 1.200000 0.028000 0.033000
1517159114174501062	600 36 0.900000 0.173000 0.164000 200 35 0.900000 0.144000 0.131000 600 39 1.000000 0.051000 0.051000 1.200000 0.044000 0.053000
1517159114705096062	600 36 0.900000 0.190000 0.180000 200 35 0.900000 0.052000 0.047000 600 39 1.000000 0.051000 0.051000 1.200000 0.025000 0.030000
1517159115236672354	600 36 0.900000 0.189000 0.179000 200 35 0.900000 0.053000 0.048000 600 39 1.000000 0.051000 0.051000 1.200000 0.025000 0.030000
1517159115768236687	600 36 0.900000 0.188000 0.178000 200 35 0.900000 0.058000 0.052000 600 39 1.000000 0.051000 0.051000 1.200000 0.035000 0.042000
1517159116301593270	600 36 0.900000 0.167000 0.158000 200 35 0.900000 0.057000 0.051000 600 39 1.000000 0.051000 0.051000 1.200000 0.035000 0.042000
1517159116833636854	600 36 0.900000 0.180000 0.170000 200 35 0.900000 0.142000 0.129000 600 39 1.000000 0.051000 0.051000 1.200000 0.033000 0.039000
1517159117364973687	600 36 0.900000 0.189000 0.179000 200 35 0.900000 0.055000 0.050000 600 39 1.000000 0.051000 0.051000 1.200000 0.026000 0.031000
1517159117895962854	600 36 0.900000 0.190000 0.180000 200 35 0.900000 0.057000 0.051000 600 39 1.000000 0.051000 0.051000 1.200000 0.035000 0.042000
1517159118427416146	600 36 0.900000 0.188000 0.178000 200 35 0.900000 0.058000 0.052000 600 39 1.000000 0.051000 0.051000 1.200000 0.035000 0.042000
1517159118957843021	600 36 0.900000 0.169000 0.160000 200 35 0.900000 0.103000 0.093000 600 39 1.000000 0.051000 0.051000 1.200000 0.031000 0.037000
1517159119488891354	600 36 0.900000 0.188000 0.178000 200 35 0.900000 0.135000 0.123000 600 39 1.000000 0.051000 0.051000 1.200000 0.032000 0.038000
1517159120020154562	600 36 0.900000 0.186000 0.176000 200 35 0.900000 0.054000 0.049000 600 39 1.000000 0.051000 0.051000 1.200000 0.026000 0.031000
1517159120552721771	600 36 0.900000 0.168000 0.159000 200 35 0.900000 0.064000 0.058000 600 39 1.000000 0.051000 0.051000 1.200000 0.035000 0.042000
1517159121084406729	600 36 0.900000 0.188000 0.178000 200 35 0.900000 0.123000 0.112000 600 39 1.000000 0.051000 0.051000 1.200000 0.031000 0.037000
1517159121617611938	600 36 0.900000 0.188000 0.178000 200 35 0.900000 0.064000 0.058000 600 39 1.000000 0.051000 0.051000 1.200000 0.026000 0.031000
1517159122149858688	600 36 0.900000 0.186000 0.176000 200 35 0.900000 0.138000 0.125000 600 39 1.000000 0.051000 0.051000 1.200000 0.032000 0.038000
1517159122680957729	600 36 0.900000 0.188000 0.178000 200 35 0.900000 0.058000 0.052000 600 39 1.000000 0.051000 0.051000 1.200000 0.035000 0.042000
1517159123212686229	600 36 0.900000 0.171000 0.162000 200 35 0.900000 0.087000 0.079000 600 39 1.000000 0.051000 0.051000 1.200000 0.035000 0.042000
1517159123744488230	600 36 0.900000 0.188000 0.178000 200 35 0.900000 0.055000 0.050000 600 39 1.000000 0.051000 0.051000 1.200000 0.025000 0.030000
1517159124274652063	600 36 0.900000 0.187000 0.177000 200 35 0.900000 0.082000 0.074000 600 39 1.000000 0.051000 0.051000 1.200000 0.028000 0.033000
1517159124805889521	600 36 0.900000 0.187000 0.177000 200 35 0.900000 0.131000 0.119000 600 39 1.000000 0.051000 0.051000 1.200000 0.041000 0.049000
1517159125338040855	600 36 0.900000 0.170000 0.161000 200 35 0.900000 0.064000 0.058000 600 39 1.000000 0.051000 0.051000 1.200000 0.036000 0.043000
1517159125869374396	600 36 0.900000 0.188000 0.178000 200 35 0.900000 0.063000 0.057000 600 39 1.000000 0.051000 0.051000 1.200000 0.027000 0.032000
1517159126401576230	600 36 0.900000 0.180000 0.170000 200 35 0.900000 0.054000 0.049000 600 39 1.000000 0.051000 0.051000 1.200000 0.026000 0.031000
1517159126935308563	600 36 0.900000 0.168000 0.159000 200 35 0.900000 0.103000 0.093000 600 39 1.000000 0.051000 0.051000 1.200000 0.038000 0.045000
1517159127467110730	600 36 0.900000 0.180000 0.170000 200 35 0.900000 0.123000 0.112000 600 39 1.000000 0.051000 0.051000 1.200000 0.037000 0.044000
1517159127998555563	600 36 0.900000 0.189000 0.179000 200 35 0.900000 0.101000 0.092000 600 39 1.000000 0.051000 0.051000 1.200000 0.031000 0.037000
1517159128529970063	600 36 0.900000 0.189000 0.178000 200 35 0.900000 0.055000 0.050000 600 39 1.000000 0.051000 0.051000 1.200000 0.026000 0.031000
1517159129061666022	600 36 0.900000 0.182000 0.172000 200 35 0.900000 0.054000 0.049000 600 39 1.000000 0.051000 0.051000 1.200000 0.032000 0.038000
1517159129596968647	600 36 0.900000 0.169000 0.160000 200 35 0.900000 0.114000 0.104000 600 39 1.000000 0.051000 0.051000 1.200000 0.039000 0.047000
1517159130129343564	600 36 0.900000 0.188000 0.178000 200 35 0.900000 0.166000 0.151000 600 39 1.000000 0.051000 0.051000 1.200000 0.036000 0.043000
1517159130660689564	600 36 0.900000 0.189000 0.179000 200 35 0.900000 0.053000 0.048000 600 39 1.000000 0.051000 0.051000 1.200000 0.026000 0.031000
1517159131192032439	600 36 0.900000 0.188000 0.178000 200 35 0.900000 0.055000 0.050000 600 39 1.000000 0.051000 0.051000 1.200000 0.036000 0.043000
1517159131725992855	600 36 0.900000 0.171000 0.162000 200 35 0.900000 0.056000 0.051000 600 39 1.000000 0.051000 0.051000 1.200000 0.028000 0.033000
1517159132260222272	600 36 0.900000 0.190000 0.180000 200 35 0.900000 0.146000 0.133000 600 39 1.000000 0.051000 0.051000 1.200000 0.033000 0.039000
1517159132791964272	600 36 0.900000 0.172000 0.163000 200 35 0.900000 0.094000 0.085000 600 39 1.000000 0.051000 0.051000 1.200000 0.030000 0.036000
1517159133322965939	600 36 0.900000 0.175000 0.165000 200 35 0.900000 0.058000 0.052000 600 39 1.000000 0.051000 0.051000 1.200000 0.036000 0.043000
1517159133854347689	600 36 0.900000 0.194000 0.183000 200 35 0.900000 0.055000 0.050000 600 39 1.000000 0.051000 0.051000 1.200000 0.030000 0.036000
1517159134388771272	600 36 0.900000 0.193000 0.182000 200 35 0.900000 0.053000 0.048000 600 39 1.000000 0.051000 0.051000 1.200000 0.026000 0.031000
1517159134921211148	600 36 0.900000 0.189000 0.178000 200 35 0.900000 0.154000 0.140000 600 39 1.000000 0.051000 0.051000 1.200000 0.034000 0.041000
1517159135452894064	600 36 0.900000 0.172000 0.163000 200 35 0.900000 0.081000 0.073000 600 39 1.000000 0.051000 0.051000 1.200000 0.037000 0.044000
1517159135984336689	600 36 0.900000 0.180000 0.170000 200 35 0.900000 0.056000 0.051000 600 39 1.000000 0.051000 0.051000 1.200000 0.031000 0.037000
1517159136517071148	600 36 0.900000 0.193000 0.182000 200 35 0.900000 0.054000 0.049000 600 39 1.000000 0.051000 0.051000 1.200000 0.025000 0.030000
1517159137051189814	600 36 0.900000 0.193000 0.182000 200 35 0.900000 0.117000 0.106000 600 39 1.000000 0.051000 0.051000 1.200000 0.033000 0.039000
1517159137582512940	600 36 0.900000 0.180000 0.170000 200 35 0.900000 0.135000 0.123000 600 39 1.000000 0.051000 0.051000 1.200000 0.040000 0.048000
1517159138113391106	600 36 0.900000 0.174000 0.164000 200 35 0.900000 0.070000 0.063000 600 39 1.000000 0.051000 0.051000 1.200000 0.033000 0.039000
1517159138646011273	600 36 0.900000 0.194000 0.183000 200 35 0.900000 0.053000 0.048000 600 39 1.000000 0.051000 0.051000 1.200000 0.025000 0.030000
1517159139177770648	600 36 0.900000 0.175000 0.165000 200 35 0.900000 0.109000 0.099000 600 39 1.000000 0.051000 0.051000 1.200000 0.031000 0.037000
1517159139711236940	600 36 0.900000 0.172000 0.163000 200 35 0.900000 0.060000 0.054000 600 39 1.000000 0.051000 0.051000 1.200000 0.036000 0.043000
1517159140242830315	600 36 0.900000 0.169000 0.160000 200 35 0.900000 0.123000 0.112000 600 39 1.000000 0.051000 0.051000 1.200000 0.032000 0.038000
1517159140773517065	600 36 0.900000 0.175000 0.165000 200 35 0.900000 0.047000 0.042000 600 39 1.000000 0.051000 0.051000 1.200000 0.033000 0.039000
1517159141305109773	600 36 0.900000 0.194000 0.183000 200 35 0.900000 0.110000 0.100000 600 39 1.000000 0.051000 0.051000 1.200000 0.031000 0.037000
1517159141836577232	600 36 0.900000 0.195000 0.184000 200 35 0.900000 0.042000 0.038000 600 39 1.000000 0.051000 0.051000 1.200000 0.024000 0.028000
1517159142369588857	600 36 0.900000 0.191000 0.181000 200 35 0.900000 0.091000 0.082000 600 39 1.000000 0.051000 0.051000 1.200000 0.028000 0.033000
1517159142901347982	600 36 0.900000 0.171000 0.162000 200 35 0.900000 0.105000 0.095000 600 39 1.000000 0.051000 0.051000 1.200000 0.038000 0.045000
1517159143433621857	600 36 0.900000 0.186000 0.176000 200 35 0.900000 0.103000 0.093000 600 39 1.000000 0.051000 0.051000 1.200000 0.032000 0.038000
1517159143964919315	600 36 0.900000 0.195000 0.184000 200 35 0.900000 0.042000 0.038000 600 39 1.000000 0.051000 0.051000 1.200000 0.025000 0.030000
1517159144495982982	600 36 0.900000 0.173000 0.164000 200 35 0.900000 0.043000 0.039000 600 39 1.000000 0.051000 0.051000 1.200000 0.025000 0.030000
1517159145028836190	600 36 0.900000 0.190000 0.180000 200 35 0.900000 0.109000 0.099000 600 39 1.000000 0.051000 0.051000 1.200000 0.038000 0.045000
1517159145561482815	600 36 0.900000 0.191000 0.181000 200 35 0.900000 0.107000 0.097000 600 39 1.000000 0.051000 0.051000 1.200000 0.031000 0.037000
1517159146092353274	600 36 0.900000 0.193000 0.182000 200 35 0.900000 0.043000 0.039000 600 39 1.000000 0.051000 0.051000 1.200000 0.024000 0.028000
1517159146623737899	600 36 0.900000 0.172000 0.163000 200 35 0.900000 0.044000 0.040000 600 39 1.000000 0.051000 0.051000 1.200000 0.025000 0.030000
1517159147154909607	600 36 0.900000 0.175000 0.165000 200 35 0.900000 0.049000 0.044000 600 39 1.000000 0.051000 0.051000 1.200000 0.034000 0.041000
1517159147692610816	600 36 0.900000 0.192000 0.182000 200 35 0.900000 0.127000 0.115000 600 39 1.000000 0.051000 0.051000 1.200000 0.034000 0.041000
1517159148224673066	600 36 0.900000 0.190000 0.180000 200 35 0.900000 0.097000 0.088000 600 39 1.000000 0.051000 0.051000 1.200000 0.031000 0.037000
1517159148755790066	600 36 0.900000 0.187000 0.177000 200 35 0.900000 0.043000 0.039000 600 39 1.000000 0.051000 0.051000 1.200000 0.025000 0.030000
1517159149286800233	600 36 0.900000 0.174000 0.164000 200 35 0.900000 0.049000 0.044000 600 39 1.000000 0.051000 0.051000 1.200000 0.035000 0.042000
1517159149817297983	600 36 0.900000 0.184000 0.174000 200 35 0.900000 0.050000 0.045000 600 39 1.000000 0.051000 0.051000 1.200000 0.031000 0.037000
1517159150351060191	600 36 0.900000 0.191000 0.181000 200 35 0.900000 0.071000 0.064000 600 39 1.000000 0.051000 0.051000 1.200000 0.039000 0.047000
1517159150882095274	600 36 0.900000 0.168000 0.159000 200 35 0.900000 0.138000 0.125000 600 39 1.000000 0.051000 0.051000 1.200000 0.027000 0.032000
1517159151413095191	600 36 0.900000 0.190000 0.180000 200 35 0.900000 0.052000 0.047000 600 39 1.000000 0.051000 0.051000 1.200000 0.034000 0.041000
1517159151944298858	600 36 0.900000 0.193000 0.182000 200 35 0.900000 0.053000 0.048000 600 39 1.000000 0.051000 0.051000 1.200000 0.032000 0.038000
1517159152475744358	600 36 0.900000 0.194000 0.183000 200 35 0.900000 0.055000 0.050000 600 39 1.000000 0.051000 0.051000 1.200000 0.028000 0.033000
1517159153012935566	600 36 0.900000 0.170000 0.161000 200 35 0.900000 0.087000 0.079000 600 39 1.000000 0.051000 0.051000 1.200000 0.031000 0.037000
1517159153544141858	600 36 0.900000 0.172000 0.163000 200 35 0.900000 0.137000 0.124000 600 39 1.000000 0.051000 0.051000 1.200000 0.036000 0.043000
1517159154075068400	600 36 0.900000 0.193000 0.182000 200 35 0.900000 0.053000 0.048000 600 39 1.000000 0.051000 0.051000 1.200000 0.034000 0.041000
1517159154607000775	600 36 0.900000 0.193000 0.182000 200 35 0.900000 0.055000 0.050000 600 39 1.000000 0.051000 0.051000 1.200000 0.026000 0.031000
1517159155138337483	600 36 0.900000 0.191000 0.181000 200 35 0.900000 0.114000 0.103000 600 39 1.000000 0.051000 0.051000 1.200000 0.024000 0.028000
1517159155671796483	600 36 0.900000 0.170000 0.161000 200 35 0.900000 0.095000 0.086000 600 39 1.000000 0.051000 0.051000 1.200000 0.029000 0.035000
1517159156203524317	600 36 0.900000 0.186000 0.176000 200 35 0.900000 0.123000 0.112000 600 39 1.000000 0.051000 0.051000 1.200000 0.032000 0.038000
1517159156735832358	600 36 0.900000 0.195000 0.184000 200 35 0.900000 0.054000 0.049000 600 39 1.000000 0.051000 0.051000 1.200000 0.027000 0.032000
1517159157267967025	600 36 0.900000 0.172000 0.163000 200 36 0.900000 0.115000 0.104000 600 39 1.000000 0.051000 0.051000 1.200000 0.039000 0.047000
1517159157801754150	600 36 0.900000 0.190000 0.180000 200 35 0.900000 0.059000 0.053000 600 39 1.000000 0.051000 0.051000 1.200000 0.027000 0.032000
1517159158335171109	600 36 0.900000 0.191000 0.181000 200 35 0.900000 0.105000 0.095000 600 39 1.000000 0.051000 0.051000 1.200000 0.028000 0.033000
1517159158866583109	600 36 0.900000 0.190000 0.180000 200 35 0.900000 0.105000 0.095000 600 39 1.000000 0.051000 0.051000 1.200000 0.031000 0.037000
1517159159398297817	600 36 0.900000 0.172000 0.163000 200 35 0.900000 0.080000 0.073000 600 39 1.000000 0.051000 0.051000 1.200000 0.037000 0.044000
1517159159929483567	600 36 0.900000 0.174000 0.164000 200 35 0.900000 0.058000 0.052000 600 39 1.000000 0.051000 0.051000 1.200000 0.029000 0.035000
1517159160463672234	600 36 0.900000 0.194000 0.183000 200 35 0.900000 0.052000 0.047000 600 39 1.000000 0.051000 0.051000 1.200000 0.025000 0.030000
1517159160995700067	600 36 0.900000 0.190000 0.180000 200 35 0.900000 0.121000 0.110000 600 39 1.000000 0.051000 0.051000 1.200000 0.030000 0.036000
1517159161527197401	600 36 0.900000 0.185000 0.175000 200 35 0.900000 0.092000 0.083000 600 39 1.000000 0.051000 0.051000 1.200000 0.038000 0.045000
1517159162058748901	600 36 0.900000 0.174000 0.164000 200 35 0.900000 0.080000 0.072000 600 39 1.000000 0.051000 0.051000 1.200000 0.032000 0.038000
1517159162589931901	600 36 0.900000 0.183000 0.173000 200 35 0.900000 0.055000 0.050000 600 39 1.000000 0.051000 0.051000 1.200000 0.025000 0.030000
1517159163123168443	600 36 0.900000 0.194000 0.183000 200 35 0.900000 0.052000 0.047000 600 39 1.000000 0.051000 0.051000 1.200000 0.026000 0.031000
1517159163654920609	600 36 0.900000 0.170000 0.161000 200 35 0.900000 0.137000 0.124000 600 39 1.000000 0.051000 0.051000 1.200000 0.041000 0.049000
1517159164186339776	600 36 0.900000 0.187000 0.177000 200 35 0.900000 0.139000 0.126000 600 39 1.000000 0.051000 0.051000 1.200000 0.040000 0.048000
1517159164717639818	600 36 0.900000 0.193000 0.182000 200 35 0.900000 0.053000 0.048000 600 39 1.000000 0.051000 0.051000 1.200000 0.025000 0.030000
1517159165248583568	600 36 0.900000 0.193000 0.182000 200 35 0.900000 0.051000 0.046000 600 39 1.000000 0.051000 0.051000 1.200000 0.026000 0.031000
1517159165781841318	600 36 0.900000 0.172000 0.163000 200 35 0.900000 0.057000 0.051000 600 39 1.000000 0.051000 0.051000 1.200000 0.035000 0.042000
1517159166313706110	600 36 0.900000 0.171000 0.162000 200 35 0.900000 0.174000 0.158000 600 39 1.000000 0.051000 0.051000 1.200000 0.042000 0.050000
1517159166845280193	600 36 0.900000 0.193000 0.182000 200 35 0.900000 0.059000 0.053000 600 39 1.000000 0.051000 0.051000 1.200000 0.028000 0.033000
1517159167376384443	600 36 0.900000 0.193000 0.182000 200 35 0.900000 0.053000 0.048000 600 39 1.000000 0.051000 0.051000 1.200000 0.026000 0.031000
1517159167907635443	600 36 0.900000 0.191000 0.181000 200 35 0.900000 0.056000 0.051000 600 39 1.000000 0.051000 0.051000 1.200000 0.036000 0.043000
1517159168441181652	600 36 0.900000 0.171000 0.162000 200 35 0.900000 0.066000 0.060000 600 39 1.000000 0.051000 0.051000 1.200000 0.034000 0.041000
1517159168972873735	600 36 0.900000 0.179000 0.169000 200 35 0.900000 0.137000 0.124000 600 39 1.000000 0.051000 0.051000 1.200000 0.032000 0.038000
1517159169504749818	600 36 0.900000 0.193000 0.182000 200 35 0.900000 0.054000 0.049000 600 39 1.000000 0.051000 0.051000 1.200000 0.026000 0.031000
1517159170036740068	600 36 0.900000 0.172000 0.163000 200 35 0.900000 0.055000 0.050000 600 39 1.000000 0.051000 0.051000 1.200000 0.035000 0.042000
1517159170567991360	600 36 0.900000 0.189000 0.178000 200 35 0.900000 0.056000 0.051000 600 39 1.000000 0.051000 0.051000 1.200000 0.034000 0.041000
1517159171100804819	600 36 0.900000 0.193000 0.182000 200 35 0.900000 0.086000 0.078000 600 39 1.000000 0.051000 0.051000 1.200000 0.029000 0.035000
1517159171632951652	600 36 0.900000 0.188000 0.178000 200 35 0.900000 0.137000 0.124000 600 39 1.000000 0.051000 0.051000 1.200000 0.033000 0.039000
1517159172164273319	600 36 0.900000 0.173000 0.164000 200 35 0.900000 0.055000 0.050000 600 39 1.000000 0.051000 0.051000 1.200000 0.035000 0.042000
1517159172695654277	600 36 0.900000 0.173000 0.164000 200 35 0.900000 0.050000 0.045000 600 39 1.000000 0.051000 0.051000 1.200000 0.034000 0.041000
1517159173227696110	600 36 0.900000 0.172000 0.163000 200 35 0.900000 0.048000 0.043000 600 39 1.000000 0.051000 0.051000 1.200000 0.035000 0.042000
1517159173761155319	600 36 0.900000 0.172000 0.163000 200 35 0.900000 0.113000 0.103000 600 39 1.000000 0.051000 0.051000 1.200000 0.033000 0.039000
1517159174293158611	600 36 0.900000 0.193000 0.182000 200 36 0.900000 0.084000 0.076000 600 39 1.000000 0.051000 0.051000 1.200000 0.029000 0.035000
1517159174826101902	600 36 0.900000 0.194000 0.183000 200 35 0.900000 0.042000 0.038000 600 39 1.000000 0.051000 0.051000 1.200000 0.025000 0.030000
1517159175357719944	600 36 0.900000 0.182000 0.172000 200 35 0.900000 0.076000 0.069000 600 39 1.000000 0.051000 0.051000 1.200000 0.038000 0.045000
1517159175888903861	600 36 0.900000 0.173000 0.164000 200 35 0.900000 0.046000 0.041000 600 39 1.000000 0.051000 0.051000 1.200000 0.030000 0.036000
1517159176423057694	600 36 0.900000 0.191000 0.181000 200 35 0.900000 0.130000 0.118000 600 39 1.000000 0.051000 0.051000 1.200000 0.031000 0.037000
1517159176955103153	600 36 0.900000 0.172000 0.163000 200 35 0.900000 0.069000 0.062000 600 39 1.000000 0.051000 0.051000 1.200000 0.027000 0.032000
1517159177486381778	600 36 0.900000 0.171000 0.162000 200 35 0.900000 0.116000 0.105000 600 39 1.000000 0.051000 0.051000 1.200000 0.040000 0.048000
1517159178017753778	600 36 0.900000 0.191000 0.181000 200 35 0.900000 0.048000 0.043000 600 39 1.000000 0.051000 0.051000 1.200000 0.032000 0.038000
1517159178549744528	600 36 0.900000 0.193000 0.182000 200 35 0.900000 0.044000 0.040000 600 39 1.000000 0.051000 0.051000 1.200000 0.024000 0.029000
1517159179082856028	600 36 0.900000 0.186000 0.176000 200 35 0.900000 0.132000 0.120000 600 39 1.000000 0.051000 0.051000 1.200000 0.032000 0.038000
1517159179614816903	600 36 0.900000 0.170000 0.161000 200 35 0.900000 0.106000 0.096000 600 39 1.000000 0.051000 0.051000 1.200000 0.041000 0.049000
1517159180146317611	600 36 0.900000 0.175000 0.165000 200 35 0.900000 0.046000 0.041000 600 39 1.000000 0.051000 0.051000 1.200000 0.033000 0.039000
1517159180676942445	600 36 0.900000 0.193000 0.182000 200 35 0.900000 0.041000 0.037000 600 39 1.000000 0.051000 0.051000 1.200000 0.024000 0.028000
1517159181208726236	600 36 0.900000 0.192000 0.182000 200 35 0.900000 0.044000 0.040000 600 39 1.000000 0.051000 0.051000 1.200000 0.024000 0.028000
1517159181741818695	600 36 0.900000 0.181000 0.171000 200 35 0.900000 0.138000 0.125000 600 39 1.000000 0.051000 0.051000 1.200000 0.039000 0.047000
1517159182273359320	600 36 0.900000 0.172000 0.163000 200 35 0.900000 0.049000 0.044000 600 39 1.000000 0.051000 0.051000 1.200000 0.035000 0.042000
1517159182804906612	600 36 0.900000 0.192000 0.182000 200 35 0.900000 0.042000 0.038000 600 39 1.000000 0.051000 0.051000 1.200000 0.024000 0.028000
1517159183336265445	600 36 0.900000 0.175000 0.165000 200 35 0.900000 0.045000 0.041000 600 39 1.000000 0.051000 0.051000 1.200000 0.025000 0.030000
1517159183874409903	600 36 0.900000 0.171000 0.162000 200 35 0.900000 0.045000 0.041000 600 39 1.000000 0.051000 0.051000 1.200000 0.033000 0.039000
1517159184409165570	600 36 0.900000 0.190000 0.180000 200 35 0.900000 0.162000 0.147000 600 39 1.000000 0.051000 0.051000 1.200000 0.044000 0.053000
1517159184940854153	600 36 0.900000 0.190000 0.180000 200 35 0.900000 0.043000 0.039000 600 39 1.000000 0.051000 0.051000 1.200000 0.024000 0.028000
1517159185473547654	600 36 0.900000 0.191000 0.181000 200 35 0.900000 0.044000 0.040000 600 39 1.000000 0.051000 0.051000 1.200000 0.025000 0.030000
1517159186005053070	600 36 0.900000 0.170000 0.161000 200 35 0.900000 0.044000 0.040000 600 39 1.000000 0.051000 0.051000 1.200000 0.032000 0.038000
1517159186538745070	600 36 0.900000 0.173000 0.164000 200 35 0.900000 0.126000 0.115000 600 39 1.000000 0.051000 0.051000 1.200000 0.039000 0.047000
1517159187072338362	600 36 0.900000 0.189000 0.179000 200 35 0.900000 0.131000 0.119000 600 39 1.000000 0.051000 0.051000 1.200000 0.031000 0.037000
1517159187603972445	600 36 0.900000 0.193000 0.182000 200 35 0.900000 0.041000 0.037000 600 39 1.000000 0.051000 0.051000 1.200000 0.025000 0.030000
1517159188135459071	600 36 0.900000 0.182000 0.172000 200 35 0.900000 0.044000 0.040000 600 39 1.000000 0.051000 0.051000 1.200000 0.031000 0.037000
1517159188666984196	600 36 0.900000 0.172000 0.163000 200 35 0.900000 0.085000 0.077000 600 39 1.000000 0.051000 0.051000 1.200000 0.037000 0.044000
1517159189200259196	600 36 0.900000 0.191000 0.181000 200 35 0.900000 0.043000 0.039000 600 39 1.000000 0.051000 0.051000 1.200000 0.024000 0.028000
1517159189732186779	600 36 0.900000 0.174000 0.164000 200 35 0.900000 0.126000 0.114000 600 39 1.000000 0.051000 0.051000 1.200000 0.032000 0.038000
1517159190263139821	600 36 0.900000 0.170000 0.161000 200 35 0.900000 0.097000 0.088000 600 39 1.000000 0.051000 0.051000 1.200000 0.029000 0.035000
1517159190794449946	600 36 0.900000 0.192000 0.182000 200 35 0.900000 0.055000 0.050000 600 39 1.000000 0.051000 0.051000 1.200000 0.034000 0.041000
1517159191326060404	600 36 0.900000 0.190000 0.180000 200 35 0.900000 0.133000 0.121000 600 39 1.000000 0.051000 0.051000 1.200000 0.025000 0.030000
1517159191860234821	600 36 0.900000 0.189000 0.179000 200 35 0.900000 0.057000 0.051000 600 39 1.000000 0.051000 0.051000 1.200000 0.024000 0.028000
1517159192391766113	600 36 0.900000 0.166000 0.157000 200 35 0.900000 0.138000 0.125000 600 39 1.000000 0.051000 0.051000 1.200000 0.033000 0.039000
1517159192925015363	600 36 0.900000 0.173000 0.164000 200 35 0.900000 0.077000 0.070000 600 39 1.000000 0.051000 0.051000 1.200000 0.035000 0.042000
1517159193457343530	600 36 0.900000 0.189000 0.179000 200 35 0.900000 0.089000 0.081000 600 39 1.000000 0.051000 0.051000 1.200000 0.030000 0.036000
1517159193988870988	600 36 0.900000 0.192000 0.182000 200 35 0.900000 0.058000 0.052000 600 39 1.000000 0.051000 0.051000 1.200000 0.024000 0.028000
1517159194522306530	600 36 0.900000 0.185000 0.175000 200 35 0.900000 0.057000 0.052000 600 39 1.000000 0.051000 0.051000 1.200000 0.026000 0.031000
1517159195053708988	600 36 0.900000 0.170000 0.161000 200 35 0.900000 0.135000 0.123000 600 39 1.000000 0.051000 0.051000 1.200000 0.040000 0.048000
1517159195585537113	600 36 0.900000 0.191000 0.181000 200 35 0.900000 0.061000 0.055000 600 39 1.000000 0.051000 0.051000 1.200000 0.031000 0.037000
1517159196116917238	600 36 0.900000 0.175000 0.165000 200 35 0.900000 0.061000 0.055000 600 39 1.000000 0.051000 0.051000 1.200000 0.025000 0.030000
1517159196648164363	600 36 0.900000 0.171000 0.162000 200 35 0.900000 0.057000 0.052000 600 39 1.000000 0.051000 0.051000 1.200000 0.025000 0.030000
1517159197180945030	600 36 0.900000 0.188000 0.178000 200 35 0.900000 0.050000 0.045000 600 39 1.000000 0.051000 0.051000 1.200000 0.025000 0.030000
1517159197713063738	600 36 0.900000 0.188000 0.178000 200 35 0.900000 0.139000 0.126000 600 39 1.000000 0.051000 0.051000 1.200000 0.032000 0.038000
1517159198247943863	600 36 0.900000 0.188000 0.178000 200 35 0.900000 0.098000 0.089000 600 39 1.000000 0.051000 0.051000 1.200000 0.039000 0.047000
1517159198783427655	600 36 0.900000 0.178000 0.168000 200 35 0.900000 0.128000 0.116000 600 39 1.000000 0.051000 0.051000 1.200000 0.039000 0.047000
1517159199315087614	600 36 0.900000 0.173000 0.164000 200 35 0.900000 0.053000 0.048000 600 39 1.000000 0.051000 0.051000 1.200000 0.025000 0.030000
1517159199852200114	600 36 0.900000 0.193000 0.182000 200 35 0.900000 0.053000 0.048000 600 39 1.000000 0.051000 0.051000 1.200000 0.025000 0.030000
1517159200384050405	600 36 0.900000 0.187000 0.177000 200 35 0.900000 0.187000 0.170000 600 39 1.000000 0.051000 0.051000 1.200000 0.044000 0.053000
1517159200915030030	600 36 0.900000 0.180000 0.170000 200 35 0.900000 0.059000 0.053000 600 39 1.000000 0.051000 0.051000 1.200000 0.035000 0.042000
1517159201446034947	600 36 0.900000 0.171000 0.162000 200 35 0.900000 0.053000 0.048000 600 39 1.000000 0.051000 0.051000 1.200000 0.025000 0.030000
1517159201978596697	600 36 0.900000 0.189000 0.179000 200 35 0.900000 0.052000 0.047000 600 39 1.000000 0.051000 0.051000 1.200000 0.026000 0.031000
1517159202512227239	600 36 0.900000 0.179000 0.169000 200 35 0.900000 0.081000 0.073000 600 39 1.000000 0.051000 0.051000 1.200000 0.032000 0.038000
1517159203044433822	600 36 0.900000 0.185000 0.175000 200 35 0.900000 0.098000 0.089000 600 39 1.000000 0.051000 0.051000 1.200000 0.031000 0.037000
1517159203575481322	600 36 0.900000 0.172000 0.163000 200 35 0.900000 0.048000 0.043000 600 39 1.000000 0.051000 0.051000 1.200000 0.034000 0.041000
1517159204106568822	600 36 0.900000 0.172000 0.163000 200 35 0.900000 0.046000 0.041000 600 39 1.000000 0.051000 0.051000 1.200000 0.031000 0.037000
1517159204638083364	600 36 0.900000 0.188000 0.178000 200 35 0.900000 0.116000 0.105000 600 39 1.000000 0.051000 0.051000 1.200000 0.031000 0.037000
1517159205171861281	600 36 0.900000 0.185000 0.175000 200 35 0.900000 0.118000 0.107000 600 39 1.000000 0.051000 0.051000 1.200000 0.029000 0.035000
1517159205703358156	600 36 0.900000 0.187000 0.177000 200 35 0.900000 0.080000 0.073000 600 39 1.000000 0.051000 0.051000 1.200000 0.038000 0.045000
1517159206234647614	600 36 0.900000 0.172000 0.163000 200 35 0.900000 0.047000 0.042000 600 39 1.000000 0.051000 0.051000 1.200000 0.033000 0.039000
1517159206765913698	600 36 0.900000 0.177000 0.167000 200 35 0.900000 0.075000 0.068000 600 39 1.000000 0.051000 0.051000 1.200000 0.026000 0.031000
1517159207297184031	600 36 0.900000 0.191000 0.181000 200 35 0.900000 0.042000 0.038000 600 39 1.000000 0.051000 0.051000 1.200000 0.025000 0.030000
1517159207830705615	600 36 0.900000 0.169000 0.160000 200 35 0.900000 0.132000 0.120000 600 39 1.000000 0.051000 0.051000 1.200000 0.039000 0.047000
1517159208362859323	600 36 0.900000 0.183000 0.173000 200 35 0.900000 0.071000 0.064000 600 39 1.000000 0.051000 0.051000 1.200000 0.036000 0.043000
1517159208894725115	600 36 0.900000 0.192000 0.182000 200 35 0.900000 0.042000 0.038000 600 39 1.000000 0.051000 0.051000 1.200000 0.025000 0.030000
1517159209426320406	600 36 0.900000 0.189000 0.179000 200 35 0.900000 0.052000 0.047000 600 39 1.000000 0.051000 0.051000 1.200000 0.027000 0.032000
1517159209958784865	600 36 0.900000 0.175000 0.165000 200 35 0.900000 0.045000 0.041000 600 39 1.000000 0.051000 0.051000 1.200000 0.033000 0.039000
1517159210495867073	600 36 0.900000 0.169000 0.160000 200 35 0.900000 0.129000 0.117000 600 39 1.000000 0.051000 0.051000 1.200000 0.040000 0.048000
1517159211029267573	600 36 0.900000 0.184000 0.174000 200 35 0.900000 0.046000 0.041000 600 39 1.000000 0.051000 0.051000 1.200000 0.027000 0.032000
1517159211561102615	600 36 0.900000 0.188000 0.178000 200 35 0.900000 0.093000 0.084000 600 39 1.000000 0.051000 0.051000 1.200000 0.031000 0.037000
1517159212092598782	600 36 0.900000 0.188000 0.178000 200 35 0.900000 0.042000 0.038000 600 39 1.000000 0.051000 0.051000 1.200000 0.033000 0.039000
1517159212626706698	600 36 0.900000 0.171000 0.162000 200 35 0.900000 0.047000 0.042000 600 39 1.000000 0.051000 0.051000 1.200000 0.035000 0.042000
1517159213160681449	600 36 0.900000 0.175000 0.165000 200 35 0.900000 0.131000 0.119000 600 39 1.000000 0.051000 0.051000 1.200000 0.032000 0.038000
1517159213692661199	600 36 0.900000 0.191000 0.181000 200 35 0.900000 0.117000 0.106000 600 39 1.000000 0.051000 0.051000 1.200000 0.032000 0.038000
1517159214224450615	600 36 0.900000 0.170000 0.161000 200 35 0.900000 0.041000 0.037000 600 39 1.000000 0.051000 0.051000 1.200000 0.031000 0.037000
1517159214756073699	600 36 0.900000 0.177000 0.167000 200 35 0.900000 0.048000 0.043000 600 39 1.000000 0.051000 0.051000 1.200000 0.035000 0.042000
1517159215289982574	600 36 0.900000 0.191000 0.181000 200 35 0.900000 0.045000 0.041000 600 39 1.000000 0.051000 0.051000 1.200000 0.025000 0.030000
1517159215821421616	600 36 0.900000 0.186000 0.176000 200 35 0.900000 0.151000 0.137000 600 39 1.000000 0.051000 0.051000 1.200000 0.034000 0.041000
1517159216352949157	600 36 0.900000 0.172000 0.163000 200 35 0.900000 0.044000 0.040000 600 39 1.000000 0.051000 0.051000 1.200000 0.030000 0.036000
1517159216884086199	600 36 0.900000 0.174000 0.164000 200 35 0.900000 0.049000 0.044000 600 39 1.000000 0.051000 0.051000 1.200000 0.035000 0.042000
1517159217414875032	600 36 0.900000 0.189000 0.179000 200 35 0.900000 0.046000 0.041000 600 39 1.000000 0.051000 0.051000 1.200000 0.025000 0.030000
1517159217948690282	600 36 0.900000 0.183000 0.173000 200 35 0.900000 0.045000 0.041000 600 39 1.000000 0.051000 0.051000 1.200000 0.025000 0.030000
1517159218480607866	600 36 0.900000 0.184000 0.174000 200 35 0.900000 0.147000 0.134000 600 39 1.000000 0.051000 0.051000 1.200000 0.036000 0.043000
1517159219011868991	600 36 0.900000 0.171000 0.162000 200 35 0.900000 0.046000 0.041000 600 39 1.000000 0.051000 0.051000 1.200000 0.036000 0.043000
1517159219542720783	600 36 0.900000 0.179000 0.169000 200 35 0.900000 0.046000 0.041000 600 39 1.000000 0.051000 0.051000 1.200000 0.025000 0.030000
1517159220075095449	600 35 0.900000 0.190000 0.180000 200 35 0.900000 0.045000 0.041000 600 39 1.000000 0.051000 0.051000 1.200000 0.025000 0.030000
1517159220608840949	600 36 0.900000 0.170000 0.161000 200 35 0.900000 0.112000 0.102000 600 39 1.000000 0.051000 0.051000 1.200000 0.034000 0.041000
1517159221140102199	600 36 0.900000 0.178000 0.168000 200 35 0.900000 0.129000 0.117000 600 39 1.000000 0.051000 0.051000 1.200000 0.039000 0.047000
1517159221671108866	600 36 0.900000 0.183000 0.173000 200 35 0.900000 0.048000 0.043000 600 39 1.000000 0.051000 0.051000 1.200000 0.025000 0.030000
1517159222202112491	600 36 0.900000 0.188000 0.178000 200 35 0.900000 0.043000 0.039000 600 39 1.000000 0.051000 0.051000 1.200000 0.025000 0.030000
1517159222733849075	600 36 0.900000 0.167000 0.158000 200 35 0.900000 0.103000 0.094000 600 39 1.000000 0.051000 0.051000 1.200000 0.030000 0.036000
1517159223266813200	600 36 0.900000 0.167000 0.158000 200 35 0.900000 0.055000 0.050000 600 39 1.000000 0.051000 0.051000 1.200000 0.035000 0.042000
1517159223798345408	600 36 0.900000 0.180000 0.170000 200 35 0.900000 0.130000 0.118000 600 39 1.000000 0.051000 0.051000 1.200000 0.032000 0.038000
1517159224329470992	600 36 0.900000 0.189000 0.179000 200 35 0.900000 0.042000 0.038000 600 39 1.000000 0.051000 0.051000 1.200000 0.025000 0.030000
1517159224860344075	600 36 0.900000 0.181000 0.171000 200 35 0.900000 0.061000 0.055000 600 39 1.000000 0.051000 0.051000 1.200000 0.026000 0.031000
1517159225391381450	600 36 0.900000 0.170000 0.161000 200 35 0.900000 0.049000 0.044000 600 39 1.000000 0.051000 0.051000 1.200000 0.036000 0.043000
1517159225924744283	600 36 0.900000 0.172000 0.163000 200 35 0.900000 0.068000 0.062000 600 39 1.000000 0.051000 0.051000 1.200000 0.030000 0.036000
1517159226456341742	600 36 0.900000 0.180000 0.170000 200 35 0.900000 0.127000 0.115000 600 39 1.000000 0.051000 0.051000 1.200000 0.031000 0.037000
1517159226988615783	600 36 0.900000 0.166000 0.157000 200 35 0.900000 0.042000 0.038000 600 39 1.000000 0.051000 0.051000 1.200000 0.026000 0.031000
1517159227519873117	600 36 0.900000 0.175000 0.165000 200 35 0.900000 0.066000 0.060000 600 39 1.000000 0.051000 0.051000 1.200000 0.038000 0.045000
1517159228051075325	600 36 0.900000 0.191000 0.181000 200 35 0.900000 0.049000 0.044000 600 39 1.000000 0.051000 0.051000 1.200000 0.032000 0.038000
1517159228587017325	600 36 0.900000 0.181000 0.171000 200 35 0.900000 0.051000 0.046000 600 39 1.000000 0.051000 0.051000 1.200000 0.027000 0.032000
1517159229120055950	600 36 0.900000 0.170000 0.161000 200 35 0.900000 0.134000 0.122000 600 39 1.000000 0.051000 0.051000 1.200000 0.032000 0.038000
1517159229652070659	600 36 0.900000 0.171000 0.162000 200 35 0.900000 0.069000 0.062000 600 39 1.000000 0.051000 0.051000 1.200000 0.040000 0.048000
1517159230183578617	600 36 0.900000 0.183000 0.173000 200 35 0.900000 0.052000 0.047000 600 39 1.000000 0.051000 0.051000 1.200000 0.032000 0.038000
1517159230714876326	600 36 0.900000 0.183000 0.173000 200 35 0.900000 0.052000 0.047000 600 39 1.000000 0.051000 0.051000 1.200000 0.025000 0.030000
1517159231248111534	600 36 0.900000 0.181000 0.171000 200 35 0.900000 0.058000 0.052000 600 39 1.000000 0.051000 0.051000 1.200000 0.029000 0.035000
1517159231780105117	600 36 0.900000 0.163000 0.154000 200 35 0.900000 0.136000 0.124000 600 39 1.000000 0.051000 0.051000 1.200000 0.043000 0.052000
1517159232311666076	600 36 0.900000 0.171000 0.162000 200 35 0.900000 0.079000 0.072000 600 39 1.000000 0.051000 0.051000 1.200000 0.035000 0.042000
1517159232843031909	600 36 0.900000 0.189000 0.179000 200 35 0.900000 0.055000 0.050000 600 39 1.000000 0.051000 0.051000 1.200000 0.025000 0.030000
1517159233374422868	600 36 0.900000 0.172000 0.163000 200 35 0.900000 0.057000 0.052000 600 39 1.000000 0.051000 0.051000 1.200000 0.025000 0.030000
1517159233910101618	600 36 0.900000 0.180000 0.170000 200 35 0.900000 0.055000 0.050000 600 39 1.000000 0.051000 0.051000 1.200000 0.038000 0.045000
1517159234441942326	600 36 0.900000 0.185000 0.175000 200 35 0.900000 0.188000 0.171000 600 39 1.000000 0.051000 0.051000 1.200000 0.040000 0.048000
1517159234973448034	600 36 0.900000 0.187000 0.177000 200 35 0.900000 0.044000 0.040000 600 39 1.000000 0.051000 0.051000 1.200000 0.035000 0.042000
1517159235504726951	600 36 0.900000 0.183000 0.173000 200 35 0.900000 0.044000 0.040000 600 39 1.000000 0.051000 0.051000 1.200000 0.027000 0.032000
1517159236036783076	600 36 0.900000 0.183000 0.173000 200 35 0.900000 0.042000 0.038000 600 39 1.000000 0.051000 0.051000 1.200000 0.028000 0.033000
1517159236571140285	600 36 0.900000 0.163000 0.154000 200 35 0.900000 0.152000 0.138000 600 39 1.000000 0.051000 0.051000 1.200000 0.029000 0.035000
1517159237102429826	600 36 0.900000 0.168000 0.159000 200 35 0.900000 0.073000 0.066000 600 39 1.000000 0.051000 0.051000 1.200000 0.034000 0.041000
1517159237633067035	600 36 0.900000 0.193000 0.182000 200 35 0.900000 0.044000 0.040000 600 39 1.000000 0.051000 0.051000 1.200000 0.027000 0.032000
1517159238163996701	600 36 0.900000 0.184000 0.174000 200 35 0.900000 0.043000 0.039000 600 39 1.000000 0.051000 0.051000 1.200000 0.031000 0.037000
1517159238697805660	600 36 0.900000 0.187000 0.177000 200 35 0.900000 0.120000 0.109000 600 39 1.000000 0.051000 0.051000 1.200000 0.039000 0.047000
1517159239236700285	600 36 0.900000 0.165000 0.156000 200 35 0.900000 0.129000 0.117000 600 39 1.000000 0.051000 0.051000 1.200000 0.032000 0.038000
1517159239768128952	600 36 0.900000 0.182000 0.172000 200 35 0.900000 0.055000 0.050000 600 39 1.000000 0.051000 0.051000 1.200000 0.029000 0.035000
1517159240298896702	600 36 0.900000 0.173000 0.164000 200 35 0.900000 0.045000 0.041000 600 39 1.000000 0.051000 0.051000 1.200000 0.030000 0.036000
1517159240830401743	600 36 0.900000 0.167000 0.158000 200 35 0.900000 0.095000 0.086000 600 39 1.000000 0.051000 0.051000 1.200000 0.037000 0.044000
1517159241363090827	600 36 0.900000 0.177000 0.167000 200 35 0.900000 0.046000 0.041000 600 39 1.000000 0.051000 0.051000 1.200000 0.025000 0.030000
1517159241895555369	600 36 0.900000 0.179000 0.169000 200 35 0.900000 0.133000 0.121000 600 39 1.000000 0.051000 0.051000 1.200000 0.032000 0.038000
1517159242426710827	600 36 0.900000 0.183000 0.173000 200 35 0.900000 0.046000 0.041000 600 39 1.000000 0.051000 0.051000 1.200000 0.030000 0.036000
1517159242958514035	600 36 0.900000 0.171000 0.162000 200 35 0.900000 0.054000 0.049000 600 39 1.000000 0.051000 0.051000 1.200000 0.036000 0.043000
1517159243489651619	600 36 0.900000 0.172000 0.163000 200 35 0.900000 0.048000 0.043000 600 39 1.000000 0.051000 0.051000 1.200000 0.026000 0.031000
1517159244024001202	600 36 0.900000 0.189000 0.179000 200 35 0.900000 0.045000 0.041000 600 39 1.000000 0.051000 0.051000 1.200000 0.025000 0.030000
1517159244555509702	600 36 0.900000 0.185000 0.175000 200 35 0.900000 0.132000 0.120000 600 39 1.000000 0.051000 0.051000 1.200000 0.032000 0.038000
1517159245087520786	600 36 0.900000 0.182000 0.172000 200 35 0.900000 0.052000 0.047000 600 39 1.000000 0.051000 0.051000 1.200000 0.035000 0.042000
1517159245619483744	600 36 0.900000 0.166000 0.157000 200 35 0.900000 0.084000 0.076000 600 39 1.000000 0.051000 0.051000 1.200000 0.030000 0.036000
1517159246150808827	600 36 0.900000 0.183000 0.173000 200 35 0.900000 0.047000 0.042000 600 39 1.000000 0.051000 0.051000 1.200000 0.026000 0.031000
1517159246684747994	600 36 0.900000 0.183000 0.173000 200 35 0.900000 0.049000 0.044000 600 39 1.000000 0.051000 0.051000 1.200000 0.026000 0.031000
1517159247217063286	600 36 0.900000 0.166000 0.157000 200 35 0.900000 0.135000 0.123000 600 39 1.000000 0.051000 0.051000 1.200000 0.040000 0.048000
1517159247749650828	600 36 0.900000 0.180000 0.170000 200 35 0.900000 0.123000 0.112000 600 39 1.000000 0.051000 0.051000 1.200000 0.034000 0.041000
1517159248280804911	600 36 0.900000 0.183000 0.173000 200 35 0.900000 0.048000 0.043000 600 39 1.000000 0.051000 0.051000 1.200000 0.026000 0.031000
1517159248811984161	600 36 0.900000 0.182000 0.172000 200 35 0.900000 0.049000 0.044000 600 39 1.000000 0.051000 0.051000 1.200000 0.026000 0.031000
1517159249345607244	600 36 0.900000 0.174000 0.164000 200 35 0.900000 0.053000 0.048000 600 39 1.000000 0.051000 0.051000 1.200000 0.035000 0.042000
1517159249877749453	600 36 0.900000 0.169000 0.160000 200 35 0.900000 0.170000 0.155000 600 39 1.000000 0.050000 0.050000 1.200000 0.037000 0.044000
1517159250409437703	600 36 0.900000 0.184000 0.174000 200 35 0.900000 0.049000 0.044000 600 39 1.000000 0.051000 0.051000 1.200000 0.025000 0.030000
1517159250940613536	600 36 0.900000 0.183000 0.173000 200 35 0.900000 0.047000 0.042000 600 39 1.000000 0.051000 0.051000 1.200000 0.026000 0.031000
1517159251471740078	600 36 0.900000 0.182000 0.172000 200 35 0.900000 0.051000 0.046000 600 39 1.000000 0.051000 0.051000 1.200000 0.035000 0.042000
1517159252006662370	600 36 0.900000 0.165000 0.156000 200 35 0.900000 0.064000 0.058000 600 39 1.000000 0.051000 0.051000 1.200000 0.031000 0.037000
1517159252538622203	600 36 0.900000 0.179000 0.169000 200 35 0.900000 0.134000 0.122000 600 39 1.000000 0.051000 0.051000 1.200000 0.034000 0.041000
1517159253069336537	600 36 0.900000 0.173000 0.164000 200 35 0.900000 0.048000 0.043000 600 39 1.000000 0.051000 0.051000 1.200000 0.026000 0.031000
1517159253600762745	600 36 0.900000 0.169000 0.160000 200 35 0.900000 0.051000 0.046000 600 39 1.000000 0.051000 0.051000 1.200000 0.034000 0.041000
1517159254134379120	600 36 0.900000 0.183000 0.173000 200 35 0.900000 0.055000 0.050000 600 39 1.000000 0.051000 0.051000 1.200000 0.032000 0.038000
1517159254668717912	600 36 0.900000 0.183000 0.173000 200 35 0.900000 0.110000 0.100000 600 39 1.000000 0.051000 0.051000 1.200000 0.032000 0.038000
1517159255197128995	600 36 0.900000 0.187000 0.177000 200 35 0.900000 0.135000 0.123000 600 39 1.000000 0.051000 0.051000 1.200000 0.031000 0.037000
1517159255728457912	600 36 0.900000 0.167000 0.158000 200 35 0.900000 0.050000 0.045000 600 39 1.000000 0.051000 0.051000 1.200000 0.035000 0.042000
1517159256260863954	600 36 0.900000 0.169000 0.160000 200 35 0.900000 0.056000 0.051000 600 39 1.000000 0.051000 0.051000 1.200000 0.034000 0.041000
1517159256792777620	600 36 0.900000 0.189000 0.179000 200 35 0.900000 0.130000 0.118000 600 39 1.000000 0.051000 0.051000 1.200000 0.032000 0.038000
1517159257326044370	600 36 0.900000 0.182000 0.172000 200 35 0.900000 0.087000 0.079000 600 39 1.000000 0.051000 0.051000 1.200000 0.027000 0.032000
1517159257857967246	600 36 0.900000 0.179000 0.169000 200 35 0.900000 0.126000 0.114000 600 39 1.000000 0.051000 0.051000 1.200000 0.039000 0.047000
1517159258389575662	600 36 0.900000 0.167000 0.158000 200 35 0.900000 0.060000 0.054000 600 39 1.000000 0.051000 0.051000 1.200000 0.034000 0.041000
1517159258921358704	600 36 0.900000 0.183000 0.173000 200 35 0.900000 0.092000 0.083000 600 39 1.000000 0.051000 0.051000 1.200000 0.027000 0.032000
1517159259452750579	600 36 0.900000 0.177000 0.167000 200 35 0.900000 0.053000 0.048000 600 39 1.000000 0.051000 0.051000 1.200000 0.026000 0.031000
1517159259986101871	600 36 0.900000 0.168000 0.159000 200 35 0.900000 0.104000 0.094000 600 39 1.000000 0.051000 0.051000 1.200000 0.036000 0.043000
1517159260517732454	600 36 0.900000 0.181000 0.171000 200 35 0.900000 0.113000 0.103000 600 39 1.000000 0.051000 0.051000 1.200000 0.041000 0.049000
1517159261048981038	600 36 0.900000 0.183000 0.173000 200 35 0.900000 0.053000 0.048000 600 39 1.000000 0.051000 0.051000 1.200000 0.025000 0.030000
1517159261579938496	600 36 0.900000 0.183000 0.173000 200 35 0.900000 0.054000 0.049000 600 39 1.000000 0.051000 0.051000 1.200000 0.028000 0.033000
1517159262111097371	600 36 0.900000 0.167000 0.158000 200 35 0.900000 0.056000 0.051000 600 39 1.000000 0.051000 0.051000 1.200000 0.034000 0.041000
1517159262644387454	600 36 0.900000 0.167000 0.158000 200 35 0.900000 0.120000 0.109000 600 39 1.000000 0.051000 0.051000 1.200000 0.038000 0.045000
1517159263176034954	600 36 0.900000 0.187000 0.177000 200 35 0.900000 0.092000 0.083000 600 39 1.000000 0.051000 0.051000 1.200000 0.030000 0.036000
1517159263707816580	600 36 0.900000 0.182000 0.172000 200 35 0.900000 0.091000 0.082000 600 39 1.000000 0.051000 0.051000 1.200000 0.032000 0.038000
1517159264238834871	600 36 0.900000 0.181000 0.171000 200 35 0.900000 0.054000 0.049000 600 39 1.000000 0.051000 0.051000 1.200000 0.032000 0.038000
1517159264773033455	600 36 0.900000 0.166000 0.157000 200 35 0.900000 0.059000 0.053000 600 39 1.000000 0.051000 0.051000 1.200000 0.034000 0.041000
1517159265309058496	600 36 0.900000 0.183000 0.173000 200 35 0.900000 0.135000 0.123000 600 39 1.000000 0.051000 0.051000 1.200000 0.030000 0.036000
1517159265841517246	600 36 0.900000 0.175000 0.165000 200 35 0.900000 0.150000 0.136000 600 39 1.000000 0.051000 0.051000 1.200000 0.037000 0.044000
1517159266373045372	600 36 0.900000 0.167000 0.158000 200 35 0.900000 0.043000 0.039000 600 39 1.000000 0.051000 0.051000 1.200000 0.032000 0.038000
1517159266904286163	600 36 0.900000 0.170000 0.161000 200 35 0.900000 0.044000 0.040000 600 39 1.000000 0.051000 0.051000 1.200000 0.024000 0.028000
1517159267437530622	600 36 0.900000 0.168000 0.159000 200 35 0.900000 0.055000 0.050000 600 39 1.000000 0.051000 0.051000 1.200000 0.035000 0.042000
1517159267971649372	600 36 0.900000 0.180000 0.170000 200 35 0.900000 0.163000 0.148000 600 39 1.000000 0.051000 0.051000 1.200000 0.043000 0.052000
1517159268502800830	600 36 0.900000 0.190000 0.180000 200 35 0.900000 0.070000 0.063000 600 39 1.000000 0.051000 0.051000 1.200000 0.024000 0.028000
1517159269033657830	600 36 0.900000 0.183000 0.173000 200 35 0.900000 0.059000 0.053000 600 39 1.000000 0.051000 0.051000 1.200000 0.024000 0.029000
1517159269564895872	600 36 0.900000 0.167000 0.158000 200 35 0.900000 0.056000 0.051000 600 39 1.000000 0.051000 0.051000 1.200000 0.035000 0.042000
1517159270098326122	600 36 0.900000 0.167000 0.158000 200 35 0.900000 0.052000 0.047000 600 39 1.000000 0.051000 0.051000 1.200000 0.038000 0.045000
1517159270629680039	600 36 0.900000 0.180000 0.170000 200 35 0.900000 0.141000 0.128000 600 39 1.000000 0.051000 0.051000 1.200000 0.031000 0.037000
1517159271160537497	600 36 0.900000 0.168000 0.159000 200 35 0.900000 0.060000 0.054000 600 39 1.000000 0.051000 0.051000 1.200000 0.025000 0.030000
1517159271691437705	600 36 0.900000 0.177000 0.167000 200 35 0.900000 0.060000 0.054000 600 39 1.000000 0.051000 0.051000 1.200000 0.034000 0.041000
1517159272224211706	600 36 0.900000 0.183000 0.173000 200 35 0.900000 0.054000 0.049000 600 39 1.000000 0.051000 0.051000 1.200000 0.035000 0.042000
1517159272758555789	600 36 0.900000 0.182000 0.172000 200 35 0.900000 0.097000 0.088000 600 39 1.000000 0.051000 0.051000 1.200000 0.026000 0.031000
1517159273289925539	600 36 0.900000 0.169000 0.160000 200 35 0.900000 0.137000 0.124000 600 39 1.000000 0.051000 0.051000 1.200000 0.030000 0.036000
1517159273821317997	600 36 0.900000 0.167000 0.158000 200 35 0.900000 0.060000 0.054000 600 39 1.000000 0.051000 0.051000 1.200000 0.034000 0.041000
1517159274354806622	600 36 0.900000 0.182000 0.172000 200 35 0.900000 0.054000 0.049000 600 39 1.000000 0.051000 0.051000 1.200000 0.034000 0.041000
1517159274886668956	600 36 0.900000 0.183000 0.173000 200 35 0.900000 0.126000 0.114000 600 39 1.000000 0.051000 0.051000 1.200000 0.026000 0.031000
1517159275422896123	600 36 0.900000 0.182000 0.172000 200 35 0.900000 0.058000 0.052000 600 39 1.000000 0.051000 0.051000 1.200000 0.028000 0.033000
1517159275954622039	600 36 0.900000 0.166000 0.157000 200 35 0.900000 0.137000 0.124000 600 39 1.000000 0.051000 0.051000 1.200000 0.036000 0.043000
1517159276486004498	600 36 0.900000 0.172000 0.163000 200 35 0.900000 0.054000 0.049000 600 39 1.000000 0.051000 0.051000 1.200000 0.033000 0.039000
1517159277017797956	600 36 0.900000 0.183000 0.173000 200 35 0.900000 0.090000 0.082000 600 39 1.000000 0.051000 0.051000 1.200000 0.032000 0.038000
1517159277549347415	600 36 0.900000 0.166000 0.157000 200 35 0.900000 0.055000 0.050000 600 39 1.000000 0.051000 0.051000 1.200000 0.024000 0.029000
1517159278083284373	600 36 0.900000 0.170000 0.161000 200 35 0.900000 0.057000 0.052000 600 39 1.000000 0.051000 0.051000 1.200000 0.032000 0.038000
1517159278615166540	600 36 0.900000 0.179000 0.169000 200 35 0.900000 0.136000 0.124000 600 39 1.000000 0.051000 0.051000 1.200000 0.038000 0.045000
1517159279146888790	600 36 0.900000 0.183000 0.173000 200 35 0.900000 0.055000 0.050000 600 39 1.000000 0.051000 0.051000 1.200000 0.031000 0.037000
1517159279678522165	600 36 0.900000 0.176000 0.166000 200 35 0.900000 0.057000 0.051000 600 39 1.000000 0.051000 0.051000 1.200000 0.037000 0.044000
1517159280209276582	600 36 0.900000 0.170000 0.161000 200 35 0.900000 0.059000 0.053000 600 39 1.000000 0.051000 0.051000 1.200000 0.032000 0.038000
1517159280741899207	600 36 0.900000 0.180000 0.170000 200 35 0.900000 0.057000 0.052000 600 39 1.000000 0.051000 0.051000 1.200000 0.025000 0.030000
1517159281274088248	600 36 0.900000 0.180000 0.170000 200 35 0.900000 0.137000 0.124000 600 39 1.000000 0.051000 0.051000 1.200000 0.032000 0.038000
1517159281805380248	600 36 0.900000 0.182000 0.172000 200 35 0.900000 0.093000 0.084000 600 39 1.000000 0.051000 0.051000 1.200000 0.039000 0.047000
1517159282337361748	600 36 0.900000 0.167000 0.158000 200 35 0.900000 0.060000 0.054000 600 39 1.000000 0.051000 0.051000 1.200000 0.033000 0.039000
1517159282868873582	600 36 0.900000 0.167000 0.158000 200 35 0.900000 0.054000 0.049000 600 39 1.000000 0.051000 0.051000 1.200000 0.025000 0.030000
1517159283403111040	600 36 0.900000 0.181000 0.171000 200 35 0.900000 0.069000 0.062000 600 39 1.000000 0.051000 0.051000 1.200000 0.025000 0.030000
1517159283935645499	600 36 0.900000 0.163000 0.154000 200 35 0.900000 0.190000 0.173000 600 39 1.000000 0.051000 0.051000 1.200000 0.045000 0.054000
1517159284466647957	600 36 0.900000 0.172000 0.163000 200 35 0.900000 0.059000 0.053000 600 39 1.000000 0.051000 0.051000 1.200000 0.034000 0.041000
1517159284998117832	600 36 0.900000 0.183000 0.173000 200 35 0.900000 0.052000 0.047000 600 39 1.000000 0.051000 0.051000 1.200000 0.025000 0.030000
1517159285529234207	600 35 0.900000 0.188000 0.178000 200 35 0.900000 0.054000 0.049000 600 39 1.000000 0.050000 0.050000 1.200000 0.025000 0.030000
1517159286062078666	600 36 0.900000 0.173000 0.164000 200 35 0.900000 0.108000 0.098000 600 39 1.000000 0.051000 0.051000 1.200000 0.035000 0.042000
1517159286593900041	600 36 0.900000 0.164000 0.155000 200 35 0.900000 0.137000 0.124000 600 39 1.000000 0.051000 0.051000 1.200000 0.041000 0.049000
1517159287125061916	600 36 0.900000 0.182000 0.172000 200 35 0.900000 0.051000 0.046000 600 39 1.000000 0.051000 0.051000 1.200000 0.026000 0.031000
1517159287656478166	600 36 0.900000 0.183000 0.173000 200 35 0.900000 0.054000 0.049000 600 39 1.000000 0.051000 0.051000 1.200000 0.025000 0.030000
1517159288188214124	600 36 0.900000 0.183000 0.173000 200 35 0.900000 0.052000 0.047000 600 39 1.000000 0.051000 0.051000 1.200000 0.033000 0.039000
1517159288721964999	600 36 0.900000 0.163000 0.154000 200 35 0.900000 0.112000 0.102000 600 39 1.000000 0.051000 0.051000 1.200000 0.040000 0.048000
1517159289253913708	600 36 0.900000 0.166000 0.157000 200 35 0.900000 0.122000 0.111000 600 39 1.000000 0.051000 0.051000 1.200000 0.032000 0.038000
1517159289785247541	600 36 0.900000 0.183000 0.173000 200 35 0.900000 0.052000 0.047000 600 39 1.000000 0.051000 0.051000 1.200000 0.026000 0.031000
1517159290318130166	600 36 0.900000 0.166000 0.157000 200 35 0.900000 0.052000 0.047000 600 39 1.000000 0.051000 0.051000 1.200000 0.031000 0.037000
1517159290849844624	600 36 0.900000 0.170000 0.161000 200 35 0.900000 0.106000 0.096000 600 39 1.000000 0.051000 0.051000 1.200000 0.042000 0.050000
1517159291383368750	600 36 0.900000 0.182000 0.172000 200 35 0.900000 0.111000 0.101000 600 39 1.000000 0.051000 0.051000 1.200000 0.028000 0.033000
1517159291915821500	600 36 0.900000 0.180000 0.170000 200 35 0.900000 0.105000 0.095000 600 39 1.000000 0.051000 0.051000 1.200000 0.032000 0.038000
1517159292448938333	600 36 0.900000 0.171000 0.162000 200 35 0.900000 0.053000 0.048000 600 39 1.000000 0.051000 0.051000 1.200000 0.032000 0.038000
1517159292980879375	600 36 0.900000 0.166000 0.157000 200 35 0.900000 0.119000 0.108000 600 39 1.000000 0.051000 0.051000 1.200000 0.038000 0.045000
1517159293514833750	600 36 0.900000 0.181000 0.171000 200 35 0.900000 0.058000 0.052000 600 39 1.000000 0.051000 0.051000 1.200000 0.025000 0.030000
1517159294048452875	600 36 0.900000 0.180000 0.170000 200 35 0.900000 0.125000 0.114000 600 39 1.000000 0.051000 0.051000 1.200000 0.029000 0.035000
1517159294580669833	600 36 0.900000 0.181000 0.171000 200 35 0.900000 0.091000 0.082000 600 39 1.000000 0.051000 0.051000 1.200000 0.034000 0.041000
1517159295112562208	600 36 0.900000 0.166000 0.157000 200 35 0.900000 0.083000 0.075000 600 39 1.000000 0.051000 0.051000 1.200000 0.033000 0.039000
1517159295644074292	600 36 0.900000 0.167000 0.158000 200 35 0.900000 0.059000 0.053000 600 39 1.000000 0.051000 0.051000 1.200000 0.025000 0.030000
1517159296180168792	600 36 0.900000 0.183000 0.173000 200 35 0.900000 0.054000 0.049000 600 39 1.000000 0.051000 0.051000 1.200000 0.025000 0.030000
1517159296712242542	600 36 0.900000 0.165000 0.156000 200 35 0.900000 0.137000 0.124000 600 39 1.000000 0.051000 0.051000 1.200000 0.031000 0.037000
1517159297244093459	600 36 0.900000 0.170000 0.161000 200 35 0.900000 0.076000 0.069000 600 39 1.000000 0.051000 0.051000 1.200000 0.037000 0.044000
1517159297775490750	600 36 0.900000 0.169000 0.160000 200 35 0.900000 0.043000 0.039000 600 39 1.000000 0.051000 0.051000 1.200000 0.035000 0.042000
1517159298306613917	600 36 0.900000 0.180000 0.170000 200 35 0.900000 0.048000 0.043000 600 39 1.000000 0.051000 0.051000 1.200000 0.034000 0.041000
1517159298840031750	600 36 0.900000 0.189000 0.179000 200 35 0.900000 0.058000 0.052000 600 39 1.000000 0.051000 0.051000 1.200000 0.024000 0.028000
1517159299372731584	600 36 0.900000 0.180000 0.170000 200 35 0.900000 0.149000 0.135000 600 39 1.000000 0.051000 0.051000 1.200000 0.030000 0.036000
1517159299904453042	600 36 0.900000 0.167000 0.158000 200 35 0.900000 0.042000 0.038000 600 39 1.000000 0.051000 0.051000 1.200000 0.034000 0.041000
1517159300435750417	600 36 0.900000 0.167000 0.158000 200 35 0.900000 0.049000 0.044000 600 39 1.000000 0.051000 0.051000 1.200000 0.033000 0.039000
1517159300967904292	600 36 0.900000 0.183000 0.173000 200 35 0.900000 0.045000 0.041000 600 39 1.000000 0.051000 0.051000 1.200000 0.024000 0.029000
1517159301506096376	600 36 0.900000 0.183000 0.173000 200 35 0.900000 0.073000 0.066000 600 39 1.000000 0.051000 0.051000 1.200000 0.024000 0.028000
1517159302037596709	600 36 0.900000 0.184000 0.174000 200 35 0.900000 0.144000 0.131000 600 39 1.000000 0.051000 0.051000 1.200000 0.041000 0.049000
1517159302568487876	600 36 0.900000 0.167000 0.158000 200 35 0.900000 0.048000 0.043000 600 39 1.000000 0.051000 0.051000 1.200000 0.035000 0.042000
1517159303100071876	600 36 0.900000 0.183000 0.173000 200 35 0.900000 0.046000 0.041000 600 39 1.000000 0.051000 0.051000 1.200000 0.024000 0.029000
1517159303631106959	600 36 0.900000 0.180000 0.170000 200 35 0.900000 0.043000 0.039000 600 39 1.000000 0.051000 0.051000 1.200000 0.024000 0.029000
1517159304166131459	600 36 0.900000 0.165000 0.156000 200 35 0.900000 0.141000 0.128000 600 39 1.000000 0.051000 0.051000 1.200000 0.038000 0.045000
1517159304698401584	600 36 0.900000 0.173000 0.164000 200 35 0.900000 0.116000 0.105000 600 39 1.000000 0.051000 0.051000 1.200000 0.040000 0.048000
1517159305229067168	600 36 0.900000 0.184000 0.174000 200 35 0.900000 0.047000 0.042000 600 39 1.000000 0.051000 0.051000 1.200000 0.024000 0.028000
1517159305761484043	600 36 0.900000 0.190000 0.180000 200 35 0.900000 0.069000 0.062000 600 39 1.000000 0.051000 0.051000 1.200000 0.024000 0.029000
1517159306292868251	600 36 0.900000 0.168000 0.159000 200 35 0.900000 0.061000 0.055000 600 39 1.000000 0.051000 0.051000 1.200000 0.033000 0.039000
1517159306829545835	600 36 0.900000 0.165000 0.156000 200 35 0.900000 0.073000 0.066000 600 39 1.000000 0.051000 0.051000 1.200000 0.036000 0.043000
1517159307361048126	600 36 0.900000 0.180000 0.170000 200 35 0.900000 0.137000 0.124000 600 39 1.000000 0.051000 0.051000 1.200000 0.030000 0.036000
1517159307891868293	600 36 0.900000 0.183000 0.173000 200 35 0.900000 0.057000 0.051000 600 39 1.000000 0.051000 0.051000 1.200000 0.024000 0.028000
1517159308423801377	600 36 0.900000 0.182000 0.172000 200 35 0.900000 0.059000 0.053000 600 39 1.000000 0.051000 0.051000 1.200000 0.027000 0.032000
1517159308955789752	600 36 0.900000 0.166000 0.157000 200 35 0.900000 0.112000 0.102000 600 39 1.000000 0.051000 0.051000 1.200000 0.035000 0.042000
1517159309489768543	600 36 0.900000 0.183000 0.173000 200 35 0.900000 0.054000 0.049000 600 39 1.000000 0.051000 0.051000 1.200000 0.028000 0.033000
1517159310021924960	600 36 0.900000 0.177000 0.167000 200 35 0.900000 0.136000 0.124000 600 39 1.000000 0.051000 0.051000 1.200000 0.029000 0.035000
1517159310554956960	600 36 0.900000 0.167000 0.158000 200 35 0.900000 0.058000 0.052000 600 39 1.000000 0.051000 0.051000 1.200000 0.027000 0.032000
1517159311086841877	600 36 0.900000 0.174000 0.164000 200 35 0.900000 0.109000 0.099000 600 39 1.000000 0.051000 0.051000 1.200000 0.038000 0.045000
1517159311617968752	600 36 0.900000 0.183000 0.173000 200 35 0.900000 0.052000 0.047000 600 39 1.000000 0.051000 0.051000 1.200000 0.025000 0.030000
1517159312151279544	600 36 0.900000 0.182000 0.172000 200 35 0.900000 0.052000 0.047000 600 39 1.000000 0.051000 0.051000 1.200000 0.029000 0.035000
1517159312682500335	600 36 0.900000 0.166000 0.157000 200 35 0.900000 0.138000 0.125000 600 39 1.000000 0.051000 0.051000 1.200000 0.028000 0.033000
1517159313213953919	600 36 0.900000 0.167000 0.158000 200 35 0.900000 0.072000 0.065000 600 39 1.000000 0.051000 0.051000 1.200000 0.039000 0.047000
1517159313745256336	600 36 0.900000 0.184000 0.174000 200 35 0.900000 0.052000 0.047000 600 39 1.000000 0.051000 0.051000 1.200000 0.025000 0.030000
1517159314278276419	600 36 0.900000 0.183000 0.173000 200 35 0.900000 0.053000 0.048000 600 39 1.000000 0.051000 0.051000 1.200000 0.024000 0.028000
1517159314811351877	600 36 0.900000 0.179000 0.169000 200 35 0.900000 0.076000 0.069000 600 39 1.000000 0.051000 0.051000 1.200000 0.029000 0.035000
1517159315343417252	600 36 0.900000 0.165000 0.156000 200 35 0.900000 0.137000 0.124000 600 39 1.000000 0.051000 0.051000 1.200000 0.041000 0.049000
1517159315874350377	600 36 0.900000 0.183000 0.173000 200 35 0.900000 0.073000 0.066000 600 39 1.000000 0.051000 0.051000 1.200000 0.027000 0.032000
1517159316405146502	600 36 0.900000 0.179000 0.169000 200 35 0.900000 0.054000 0.049000 600 39 1.000000 0.051000 0.051000 1.200000 0.024000 0.028000
1517159316936049169	600 36 0.900000 0.166000 0.157000 200 35 0.900000 0.057000 0.051000 600 39 1.000000 0.051000 0.051000 1.200000 0.025000 0.030000
1517159317470055336	600 36 0.900000 0.173000 0.164000 200 35 0.900000 0.084000 0.076000 600 39 1.000000 0.051000 0.051000 1.200000 0.039000 0.047000
1517159318001807419	600 36 0.900000 0.180000 0.170000 200 35 0.900000 0.177000 0.161000 600 39 1.000000 0.051000 0.051000 1.200000 0.031000 0.037000
1517159318533059544	600 36 0.900000 0.183000 0.173000 200 35 0.900000 0.054000 0.049000 600 39 1.000000 0.051000 0.051000 1.200000 0.025000 0.030000
1517159319064125128	600 36 0.900000 0.168000 0.159000 200 35 0.900000 0.056000 0.051000 600 39 1.000000 0.051000 0.051000 1.200000 0.024000 0.029000
1517159319597930586	600 36 0.900000 0.171000 0.162000 200 35 0.900000 0.059000 0.053000 600 39 1.000000 0.051000 0.051000 1.200000 0.042000 0.050000
1517159320128665753	600 36 0.900000 0.179000 0.169000 200 35 0.900000 0.143000 0.130000 600 39 1.000000 0.051000 0.051000 1.200000 0.042000 0.050000
1517159320659906378	600 36 0.900000 0.182000 0.172000 200 35 0.900000 0.113000 0.103000 600 39 1.000000 0.051000 0.051000 1.200000 0.025000 0.030000
1517159321190937836	600 36 0.900000 0.182000 0.172000 200 35 0.900000 0.058000 0.052000 600 39 1.000000 0.051000 0.051000 1.200000 0.035000 0.042000
1517159321721940295	600 36 0.900000 0.167000 0.158000 200 35 0.900000 0.058000 0.052000 600 39 1.000000 0.051000 0.051000 1.200000 0.025000 0.030000
1517159322258308837	600 36 0.900000 0.183000 0.173000 200 35 0.900000 0.065000 0.059000 600 39 1.000000 0.051000 0.051000 1.200000 0.025000 0.030000
1517159322791931920	600 36 0.900000 0.180000 0.170000 200 35 0.900000 0.111000 0.101000 600 39 1.000000 0.051000 0.051000 1.200000 0.031000 0.037000
1517159323323787378	600 36 0.900000 0.165000 0.156000 200 35 0.900000 0.100000 0.091000 600 39 1.000000 0.051000 0.051000 1.200000 0.040000 0.048000
1517159323855034295	600 36 0.900000 0.175000 0.165000 200 35 0.900000 0.057000 0.051000 600 39 1.000000 0.051000 0.051000 1.200000 0.025000 0.030000
1517159324386505837	600 36 0.900000 0.183000 0.173000 200 35 0.900000 0.052000 0.047000 600 39 1.000000 0.051000 0.051000 1.200000 0.025000 0.030000
1517159324919950129	600 36 0.900000 0.182000 0.172000 200 35 0.900000 0.081000 0.073000 600 39 1.000000 0.051000 0.051000 1.200000 0.033000 0.039000
1517159325451547462	600 36 0.900000 0.169000 0.160000 200 35 0.900000 0.129000 0.117000 600 39 1.000000 0.051000 0.051000 1.200000 0.039000 0.047000
1517159325983388462	600 36 0.900000 0.166000 0.157000 200 35 0.900000 0.090000 0.082000 600 39 1.000000 0.050000 0.050000 1.200000 0.029000 0.035000
1517159326515657504	600 36 0.900000 0.183000 0.173000 200 35 0.900000 0.052000 0.047000 600 39 1.000000 0.051000 0.051000 1.200000 0.025000 0.030000
1517159327047178129	600 36 0.900000 0.182000 0.172000 200 35 0.900000 0.099000 0.090000 600 39 1.000000 0.051000 0.051000 1.200000 0.034000 0.041000
1517159327581474087	600 36 0.900000 0.182000 0.172000 200 35 0.900000 0.056000 0.051000 600 39 1.000000 0.051000 0.051000 1.200000 0.035000 0.042000
1517159328112631296	600 36 0.900000 0.162000 0.153000 200 35 0.900000 0.136000 0.124000 600 39 1.000000 0.051000 0.051000 1.200000 0.031000 0.037000
1517159328641401671	600 36 0.900000 0.180000 0.170000 200 35 0.900000 0.071000 0.064000 600 39 1.000000 0.051000 0.051000 1.200000 0.029000 0.035000
1517159329173355962	600 36 0.900000 0.180000 0.170000 200 35 0.900000 0.119000 0.108000 600 39 1.000000 0.051000 0.051000 1.200000 0.031000 0.037000
1517159329704541546	600 36 0.900000 0.183000 0.173000 200 35 0.900000 0.042000 0.038000 600 39 1.000000 0.051000 0.051000 1.200000 0.025000 0.030000
1517159330239387462	600 36 0.900000 0.177000 0.167000 200 35 0.900000 0.070000 0.063000 600 39 1.000000 0.051000 0.051000 1.200000 0.030000 0.036000
1517159330771516421	600 36 0.900000 0.164000 0.155000 200 35 0.900000 0.127000 0.115000 600 39 1.000000 0.051000 0.051000 1.200000 0.038000 0.045000
1517159331303137546	600 36 0.900000 0.180000 0.170000 200 35 0.900000 0.097000 0.088000 600 39 1.000000 0.051000 0.051000 1.200000 0.033000 0.039000
1517159331834278879	600 36 0.900000 0.184000 0.174000 200 35 0.900000 0.043000 0.039000 600 39 1.000000 0.051000 0.051000 1.200000 0.024000 0.028000
1517159332365206338	600 36 0.900000 0.183000 0.173000 200 35 0.900000 0.044000 0.040000 600 39 1.000000 0.051000 0.051000 1.200000 0.028000 0.033000
1517159332898732213	600 36 0.900000 0.166000 0.157000 200 35 0.900000 0.089000 0.081000 600 39 1.000000 0.051000 0.051000 1.200000 0.036000 0.043000
1517159333430643796	600 36 0.900000 0.165000 0.156000 200 35 0.900000 0.170000 0.155000 600 39 1.000000 0.051000 0.051000 1.200000 0.036000 0.043000
1517159333962073213	600 36 0.900000 0.184000 0.174000 200 35 0.900000 0.043000 0.039000 600 39 1.000000 0.050000 0.050000 1.200000 0.024000 0.029000
1517159334492739588	600 36 0.900000 0.167000 0.158000 200 35 0.900000 0.043000 0.039000 600 39 1.000000 0.051000 0.051000 1.200000 0.027000 0.032000
1517159335023701505	600 36 0.900000 0.169000 0.160000 200 35 0.900000 0.046000 0.041000 600 39 1.000000 0.051000 0.051000 1.200000 0.034000 0.041000
1517159335557389338	600 36 0.900000 0.183000 0.173000 200 35 0.900000 0.114000 0.104000 600 39 1.000000 0.051000 0.051000 1.200000 0.026000 0.031000
1517159336088986422	600 36 0.900000 0.181000 0.171000 200 35 0.900000 0.092000 0.083000 600 39 1.000000 0.051000 0.051000 1.200000 0.035000 0.042000
1517159336620004755	600 36 0.900000 0.175000 0.165000 200 35 0.900000 0.042000 0.038000 600 39 1.000000 0.051000 0.051000 1.200000 0.027000 0.032000
1517159337151337380	600 36 0.900000 0.167000 0.158000 200 35 0.900000 0.049000 0.044000 600 39 1.000000 0.051000 0.051000 1.200000 0.034000 0.041000
1517159337683352880	600 36 0.900000 0.178000 0.168000 200 35 0.900000 0.047000 0.042000 600 39 1.000000 0.051000 0.051000 1.200000 0.025000 0.030000
1517159338216627963	600 36 0.900000 0.181000 0.171000 200 35 0.900000 0.126000 0.115000 600 39 1.000000 0.051000 0.051000 1.200000 0.034000 0.041000
1517159338748720172	600 36 0.900000 0.181000 0.171000 200 35 0.900000 0.082000 0.074000 600 39 1.000000 0.051000 0.051000 1.200000 0.031000 0.037000
1517159339279455380	600 36 0.900000 0.167000 0.158000 200 35 0.900000 0.047000 0.042000 600 39 1.000000 0.051000 0.051000 1.200000 0.034000 0.041000
1517159339810422714	600 36 0.900000 0.167000 0.158000 200 35 0.900000 0.049000 0.044000 600 39 1.000000 0.051000 0.051000 1.200000 0.025000 0.030000
1517159340342022255	600 36 0.900000 0.183000 0.173000 200 35 0.900000 0.107000 0.097000 600 39 1.000000 0.051000 0.051000 1.200000 0.032000 0.038000
1517159340874946005	600 36 0.900000 0.166000 0.157000 200 35 0.900000 0.128000 0.116000 600 39 1.000000 0.051000 0.051000 1.200000 0.030000 0.036000
1517159341407188714	600 36 0.900000 0.167000 0.158000 200 35 0.900000 0.064000 0.058000 600 39 1.000000 0.051000 0.051000 1.200000 0.038000 0.045000
1517159341951180964	600 36 0.900000 0.185000 0.175000 200 35 0.900000 0.140000 0.127000 600 39 1.000000 0.051000 0.051000 1.200000 0.037000 0.044000
1517159342483093422	600 36 0.900000 0.180000 0.170000 200 35 0.900000 0.158000 0.144000 600 39 1.000000 0.051000 0.051000 1.200000 0.036000 0.043000
1517159343014780964	600 36 0.900000 0.171000 0.162000 200 35 0.900000 0.042000 0.038000 600 39 1.000000 0.051000 0.051000 1.200000 0.026000 0.031000
1517159343548442214	600 36 0.900000 0.165000 0.156000 200 35 0.900000 0.129000 0.117000 600 39 1.000000 0.051000 0.051000 1.200000 0.038000 0.045000
1517159344080612214	600 36 0.900000 0.182000 0.172000 200 35 0.900000 0.052000 0.047000 600 39 1.000000 0.051000 0.051000 1.200000 0.030000 0.036000
1517159344608713089	600 36 0.900000 0.183000 0.173000 200 35 0.900000 0.063000 0.057000 600 39 1.000000 0.051000 0.051000 1.200000 0.025000 0.030000
1517159345139880798	600 35 0.900000 0.025000 0.023000 200 35 0.900000 0.122000 0.111000 600 39 1.000000 0.051000 0.051000 1.200000 0.025000 0.030000
