#Timestamp	CPU(0) Frequency(MHz)	CPU(0) Temperature(C)	A7 Voltage(V)	A7 Current(A)	A7 Power(W)	CPU(4) Frequency(MHz)	CPU(4) Temperature(C)	A15 Voltage(V)	A15 Current(A)	A15 Power(W)	GPU Frequency(MHz)	GPU Temperature(C)	GPU Voltage(V)	GPU Current(A)	GPU Power(W)	RAM Voltage(V)	RAM Current(A)	RAM Power(W)
1517156363068778109	1100 38 1.100000 0.218000 0.245000 1000 34 0.900000 1.075000 1.048000 600 42 1.000000 0.051000 0.051000 1.200000 0.039000 0.047000
1517156363578223775	1100 41 1.100000 0.344000 0.385000 1000 35 0.900000 2.272000 2.210000 600 45 1.000000 0.050000 0.050000 1.200000 0.023000 0.027000
1517156364088063734	1100 42 1.100000 0.346000 0.387000 1000 37 0.900000 2.270000 2.208000 600 46 1.000000 0.051000 0.051000 1.200000 0.023000 0.027000
1517156364597561776	1100 43 1.100000 0.348000 0.390000 1000 37 0.900000 2.272000 2.210000 600 47 1.000000 0.051000 0.051000 1.200000 0.025000 0.030000
1517156365107062692	1100 44 1.100000 0.346000 0.387000 1000 38 0.900000 2.274000 2.212000 600 48 1.000000 0.051000 0.051000 1.200000 0.025000 0.030000
1517156365616715317	1100 44 1.100000 0.348000 0.390000 1000 39 0.900000 2.282000 2.220000 600 49 1.000000 0.051000 0.051000 1.200000 0.023000 0.027000
1517156366126369734	1100 45 1.100000 0.347000 0.388000 1000 39 0.900000 2.271000 2.209000 600 49 1.000000 0.052000 0.052000 1.200000 0.025000 0.030000
1517156366636003401	1100 45 1.100000 0.347000 0.388000 1000 39 0.900000 2.275000 2.213000 600 50 1.000000 0.051000 0.051000 1.200000 0.025000 0.030000
1517156367145527484	1100 45 1.100000 0.349000 0.391000 1000 40 0.900000 2.270000 2.208000 600 50 1.000000 0.052000 0.052000 1.200000 0.024000 0.028000
1517156367654872859	1100 46 1.100000 0.363000 0.406000 1000 40 0.900000 2.290000 2.228000 600 51 1.000000 0.052000 0.052000 1.200000 0.024000 0.028000
1517156368164486484	1100 46 1.100000 0.349000 0.391000 1000 40 0.900000 2.282000 2.220000 600 51 1.000000 0.052000 0.052000 1.200000 0.025000 0.030000
1517156368673910151	1100 46 1.100000 0.349000 0.391000 1000 41 0.900000 2.285000 2.223000 600 51 1.000000 0.052000 0.052000 1.200000 0.023000 0.027000
1517156369183260484	1100 46 1.100000 0.348000 0.390000 1000 41 0.900000 2.291000 2.229000 600 51 1.000000 0.052000 0.052000 1.200000 0.023000 0.027000
1517156369693033110	1100 46 1.100000 0.347000 0.388000 1000 41 0.900000 2.285000 2.223000 600 51 1.000000 0.052000 0.052000 1.200000 0.023000 0.027000
1517156370203535318	1100 47 1.100000 0.347000 0.388000 1000 41 0.900000 2.287000 2.225000 600 52 1.000000 0.052000 0.052000 1.200000 0.023000 0.027000
1517156370713388526	1100 47 1.100000 0.348000 0.390000 1000 41 0.900000 2.286000 2.224000 600 52 1.000000 0.052000 0.052000 1.200000 0.023000 0.027000
1517156371222954068	1100 47 1.100000 0.347000 0.388000 1000 41 0.900000 2.290000 2.228000 600 52 1.000000 0.052000 0.052000 1.200000 0.023000 0.027000
1517156371732768610	1100 47 1.100000 0.348000 0.390000 1000 41 0.900000 2.288000 2.226000 600 52 1.000000 0.052000 0.052000 1.200000 0.025000 0.030000
1517156372242112235	1100 47 1.100000 0.350000 0.392000 1000 42 0.900000 2.298000 2.235000 600 52 1.000000 0.052000 0.052000 1.200000 0.025000 0.030000
1517156372751602235	1100 47 1.100000 0.349000 0.391000 1000 42 0.900000 2.285000 2.223000 600 52 1.000000 0.052000 0.052000 1.200000 0.023000 0.027000
1517156373261176443	1100 47 1.100000 0.348000 0.390000 1000 42 0.900000 2.285000 2.223000 600 52 1.000000 0.052000 0.052000 1.200000 0.025000 0.030000
1517156373770579568	1100 47 1.100000 0.360000 0.403000 1000 42 0.900000 2.264000 2.202000 600 52 1.000000 0.052000 0.052000 1.200000 0.054000 0.065000
1517156374280023610	1100 47 1.100000 0.348000 0.390000 1000 42 0.900000 2.287000 2.225000 600 52 1.000000 0.052000 0.052000 1.200000 0.024000 0.028000
1517156374789536652	1100 47 1.100000 0.350000 0.392000 1000 42 0.900000 2.292000 2.230000 600 52 1.000000 0.052000 0.052000 1.200000 0.023000 0.027000
1517156375299169694	1100 48 1.100000 0.350000 0.392000 1000 42 0.900000 2.289000 2.227000 600 52 1.000000 0.052000 0.052000 1.200000 0.024000 0.028000
1517156375808766194	1100 47 1.100000 0.349000 0.391000 1000 42 0.900000 2.289000 2.227000 600 52 1.000000 0.052000 0.052000 1.200000 0.024000 0.028000
1517156376318323360	1100 48 1.100000 0.348000 0.390000 1000 42 0.900000 2.285000 2.223000 600 53 1.000000 0.052000 0.052000 1.200000 0.024000 0.028000
1517156376827798819	1100 48 1.100000 0.379000 0.424000 1000 42 0.900000 2.263000 2.201000 600 53 1.000000 0.052000 0.052000 1.200000 0.053000 0.064000
1517156377337409235	1100 48 1.100000 0.348000 0.390000 1000 42 0.900000 2.297000 2.234000 600 53 1.000000 0.052000 0.052000 1.200000 0.023000 0.027000
1517156377845780569	1100 44 1.100000 0.348000 0.390000 1000 42 0.900000 2.293000 2.235000 600 50 1.000000 0.052000 0.052000 1.200000 0.022000 0.026000
1517156378354020402	1100 41 1.100000 0.054000 0.061000 1000 40 0.900000 0.118000 0.115000 600 45 1.000000 0.052000 0.052000 1.200000 0.022000 0.026000
