#Timestamp	CPU(0) Frequency(MHz)	CPU(0) Temperature(C)	A7 Voltage(V)	A7 Current(A)	A7 Power(W)	CPU(4) Frequency(MHz)	CPU(4) Temperature(C)	A15 Voltage(V)	A15 Current(A)	A15 Power(W)	GPU Frequency(MHz)	GPU Temperature(C)	GPU Voltage(V)	GPU Current(A)	GPU Power(W)	RAM Voltage(V)	RAM Current(A)	RAM Power(W)
1517188181040412110	500 41 0.900000 0.022000 0.020000 700 38 0.900000 0.675000 0.611000 600 43 1.000000 0.051000 0.051000 1.200000 0.039000 0.047000
1517188181550090902	500 41 0.900000 0.022000 0.020000 700 38 0.900000 0.903000 0.815000 600 43 1.000000 0.052000 0.052000 1.200000 0.023000 0.027000
1517188182059837694	500 41 0.900000 0.022000 0.020000 700 38 0.900000 0.935000 0.844000 600 43 1.000000 0.051000 0.051000 1.200000 0.023000 0.027000
1517188182569648694	500 41 0.900000 0.022000 0.020000 700 38 0.900000 0.931000 0.840000 600 43 1.000000 0.051000 0.051000 1.200000 0.023000 0.027000
1517188183079403985	500 41 0.900000 0.022000 0.020000 700 38 0.900000 0.935000 0.844000 600 43 1.000000 0.052000 0.052000 1.200000 0.023000 0.027000
1517188183589143319	500 41 0.900000 0.022000 0.020000 700 38 0.900000 0.928000 0.837000 600 43 1.000000 0.052000 0.052000 1.200000 0.023000 0.027000
1517188184098990235	500 41 0.900000 0.022000 0.020000 700 38 0.900000 0.942000 0.850000 600 43 1.000000 0.052000 0.052000 1.200000 0.023000 0.027000
1517188184608920152	500 41 0.900000 0.023000 0.021000 700 38 0.900000 0.932000 0.841000 600 43 1.000000 0.051000 0.051000 1.200000 0.024000 0.028000
1517188185118687652	500 41 0.900000 0.024000 0.021000 700 38 0.900000 0.932000 0.841000 600 43 1.000000 0.051000 0.051000 1.200000 0.026000 0.031000
1517188185628382277	500 41 0.900000 0.022000 0.020000 700 38 0.900000 0.933000 0.842000 600 43 1.000000 0.051000 0.051000 1.200000 0.024000 0.028000
1517188186138173027	500 40 0.900000 0.022000 0.020000 700 37 0.900000 0.951000 0.858000 600 43 1.000000 0.051000 0.051000 1.200000 0.024000 0.028000
1517188186647937861	500 40 0.900000 0.022000 0.020000 700 37 0.900000 0.937000 0.846000 600 43 1.000000 0.051000 0.051000 1.200000 0.024000 0.028000
1517188187157772361	500 40 0.900000 0.022000 0.020000 700 37 0.900000 0.933000 0.842000 600 43 1.000000 0.051000 0.051000 1.200000 0.023000 0.027000
1517188187667565361	500 40 0.900000 0.021000 0.019000 700 37 0.900000 0.938000 0.847000 600 43 1.000000 0.051000 0.051000 1.200000 0.023000 0.027000
1517188188177358361	500 40 0.900000 0.022000 0.020000 700 37 0.900000 0.934000 0.843000 600 43 1.000000 0.051000 0.051000 1.200000 0.023000 0.027000
1517188188687134028	500 40 0.900000 0.021000 0.019000 700 37 0.900000 0.936000 0.845000 600 42 1.000000 0.051000 0.051000 1.200000 0.023000 0.027000
1517188189196908236	500 40 0.900000 0.022000 0.020000 700 37 0.900000 0.925000 0.835000 600 43 1.000000 0.051000 0.051000 1.200000 0.023000 0.027000
1517188189706502194	500 40 0.900000 0.022000 0.020000 700 37 0.900000 0.937000 0.846000 600 42 1.000000 0.051000 0.051000 1.200000 0.023000 0.027000
1517188190216217445	500 40 0.900000 0.022000 0.020000 700 37 0.900000 0.927000 0.837000 600 42 1.000000 0.051000 0.051000 1.200000 0.023000 0.027000
1517188190726034403	500 40 0.900000 0.021000 0.019000 700 37 0.900000 0.926000 0.836000 600 42 1.000000 0.051000 0.051000 1.200000 0.023000 0.027000
1517188191238158945	500 40 0.900000 0.022000 0.020000 700 37 0.900000 0.929000 0.838000 600 42 1.000000 0.051000 0.051000 1.200000 0.023000 0.027000
1517188191748152195	500 40 0.900000 0.021000 0.019000 700 37 0.900000 0.913000 0.824000 600 42 1.000000 0.051000 0.051000 1.200000 0.023000 0.027000
1517188192258158486	500 40 0.900000 0.022000 0.020000 700 37 0.900000 0.934000 0.843000 600 42 1.000000 0.051000 0.051000 1.200000 0.025000 0.030000
1517188192768051236	500 40 0.900000 0.022000 0.020000 700 37 0.900000 0.941000 0.849000 600 42 1.000000 0.051000 0.051000 1.200000 0.024000 0.028000
1517188193277730737	500 40 0.900000 0.022000 0.020000 700 37 0.900000 0.940000 0.848000 600 42 1.000000 0.051000 0.051000 1.200000 0.025000 0.030000
1517188193787388653	500 40 0.900000 0.022000 0.020000 700 37 0.900000 0.936000 0.845000 600 42 1.000000 0.051000 0.051000 1.200000 0.024000 0.028000
1517188194297187862	500 40 0.900000 0.021000 0.019000 700 37 0.900000 0.938000 0.847000 600 42 1.000000 0.051000 0.051000 1.200000 0.023000 0.027000
1517188194806924862	500 40 0.900000 0.021000 0.019000 700 37 0.900000 0.953000 0.860000 600 42 1.000000 0.051000 0.051000 1.200000 0.023000 0.027000
1517188195316648112	500 40 0.900000 0.022000 0.020000 700 37 0.900000 0.931000 0.840000 600 42 1.000000 0.051000 0.051000 1.200000 0.023000 0.027000
1517188195826473987	500 40 0.900000 0.022000 0.020000 700 37 0.900000 0.919000 0.829000 600 42 1.000000 0.051000 0.051000 1.200000 0.023000 0.027000
1517188196336237529	500 40 0.900000 0.022000 0.020000 700 36 0.900000 0.915000 0.826000 600 42 1.000000 0.051000 0.051000 1.200000 0.023000 0.027000
1517188196845918820	500 40 0.900000 0.021000 0.019000 700 37 0.900000 0.930000 0.839000 600 42 1.000000 0.051000 0.051000 1.200000 0.023000 0.027000
1517188197357714029	500 39 0.900000 0.021000 0.019000 700 37 0.900000 0.918000 0.828000 600 42 1.000000 0.051000 0.051000 1.200000 0.023000 0.027000
1517188197867873195	500 39 0.900000 0.021000 0.019000 700 37 0.900000 0.929000 0.838000 600 42 1.000000 0.051000 0.051000 1.200000 0.023000 0.027000
1517188198377712404	500 39 0.900000 0.021000 0.019000 700 37 0.900000 0.912000 0.823000 600 42 1.000000 0.051000 0.051000 1.200000 0.023000 0.027000
1517188198887351112	500 39 0.900000 0.021000 0.019000 700 36 0.900000 0.918000 0.828000 600 42 1.000000 0.051000 0.051000 1.200000 0.023000 0.027000
1517188199397101404	500 39 0.900000 0.021000 0.019000 700 36 0.900000 0.912000 0.823000 600 42 1.000000 0.051000 0.051000 1.200000 0.023000 0.027000
1517188199906762446	500 39 0.900000 0.022000 0.020000 700 36 0.900000 0.938000 0.847000 600 42 1.000000 0.051000 0.051000 1.200000 0.024000 0.028000
1517188200416620571	500 39 0.900000 0.021000 0.019000 700 36 0.900000 0.943000 0.851000 600 42 1.000000 0.051000 0.051000 1.200000 0.024000 0.028000
1517188200926349737	500 39 0.900000 0.022000 0.020000 700 36 0.900000 0.934000 0.843000 600 42 1.000000 0.051000 0.051000 1.200000 0.023000 0.027000
1517188201435930154	500 39 0.900000 0.021000 0.019000 700 36 0.900000 0.940000 0.848000 600 42 1.000000 0.051000 0.051000 1.200000 0.023000 0.027000
1517188201945522154	500 39 0.900000 0.022000 0.020000 700 36 0.900000 0.937000 0.846000 600 42 1.000000 0.051000 0.051000 1.200000 0.023000 0.027000
1517188202455102863	500 39 0.900000 0.022000 0.020000 700 36 0.900000 0.920000 0.830000 600 42 1.000000 0.051000 0.051000 1.200000 0.023000 0.027000
1517188202964857404	500 39 0.900000 0.022000 0.020000 700 36 0.900000 0.912000 0.823000 600 42 1.000000 0.051000 0.051000 1.200000 0.023000 0.027000
1517188203474551738	500 39 0.900000 0.021000 0.019000 700 36 0.900000 0.911000 0.822000 600 42 1.000000 0.051000 0.051000 1.200000 0.023000 0.027000
1517188203984161363	500 39 0.900000 0.021000 0.019000 700 36 0.900000 0.934000 0.843000 600 42 1.000000 0.051000 0.051000 1.200000 0.023000 0.027000
1517188204493867155	500 39 0.900000 0.021000 0.019000 700 36 0.900000 0.915000 0.826000 600 42 1.000000 0.051000 0.051000 1.200000 0.023000 0.027000
1517188205005201946	500 39 0.900000 0.021000 0.019000 700 36 0.900000 0.918000 0.828000 600 42 1.000000 0.051000 0.051000 1.200000 0.023000 0.027000
1517188205515341571	500 39 0.900000 0.021000 0.019000 700 36 0.900000 0.918000 0.828000 600 42 1.000000 0.051000 0.051000 1.200000 0.023000 0.027000
1517188206024942280	500 39 0.900000 0.021000 0.019000 700 36 0.900000 0.921000 0.831000 600 41 1.000000 0.051000 0.051000 1.200000 0.023000 0.027000
1517188206534477696	500 39 0.900000 0.022000 0.020000 700 36 0.900000 0.908000 0.819000 600 41 1.000000 0.051000 0.051000 1.200000 0.023000 0.027000
1517188207046279197	500 39 0.900000 0.021000 0.019000 700 36 0.900000 0.914000 0.825000 600 41 1.000000 0.051000 0.051000 1.200000 0.023000 0.027000
1517188207555910655	500 39 0.900000 0.022000 0.020000 700 36 0.900000 0.925000 0.835000 600 41 1.000000 0.051000 0.051000 1.200000 0.024000 0.028000
1517188208065499447	500 39 0.900000 0.022000 0.020000 700 36 0.900000 0.934000 0.843000 600 41 1.000000 0.051000 0.051000 1.200000 0.023000 0.027000
1517188208575078697	500 39 0.900000 0.022000 0.020000 700 36 0.900000 0.925000 0.835000 600 41 1.000000 0.051000 0.051000 1.200000 0.023000 0.027000
1517188209084838530	500 39 0.900000 0.022000 0.020000 700 36 0.900000 0.925000 0.835000 600 41 1.000000 0.051000 0.051000 1.200000 0.023000 0.027000
1517188209594457488	500 39 0.900000 0.022000 0.020000 700 36 0.900000 0.926000 0.836000 600 41 1.000000 0.051000 0.051000 1.200000 0.023000 0.027000
1517188210104163489	500 39 0.900000 0.022000 0.020000 700 36 0.900000 0.932000 0.841000 600 41 1.000000 0.051000 0.051000 1.200000 0.023000 0.027000
1517188210613891489	500 39 0.900000 0.021000 0.019000 700 36 0.900000 0.922000 0.832000 600 41 1.000000 0.051000 0.051000 1.200000 0.023000 0.027000
1517188211123577947	500 39 0.900000 0.021000 0.019000 700 36 0.900000 0.923000 0.833000 600 41 1.000000 0.051000 0.051000 1.200000 0.023000 0.027000
1517188211633369322	500 39 0.900000 0.021000 0.019000 700 36 0.900000 0.912000 0.823000 600 41 1.000000 0.051000 0.051000 1.200000 0.023000 0.027000
1517188212142892447	500 39 0.900000 0.021000 0.019000 700 36 0.900000 0.922000 0.832000 600 41 1.000000 0.051000 0.051000 1.200000 0.023000 0.027000
1517188212652624114	500 39 0.900000 0.021000 0.019000 700 36 0.900000 0.923000 0.833000 600 41 1.000000 0.051000 0.051000 1.200000 0.023000 0.027000
1517188213162520489	500 39 0.900000 0.021000 0.019000 700 36 0.900000 0.925000 0.835000 600 41 1.000000 0.051000 0.051000 1.200000 0.023000 0.027000
1517188213672050781	500 39 0.900000 0.022000 0.020000 700 36 0.900000 0.922000 0.832000 600 41 1.000000 0.051000 0.051000 1.200000 0.023000 0.027000
1517188214181628531	500 39 0.900000 0.021000 0.019000 700 36 0.900000 0.926000 0.836000 600 41 1.000000 0.051000 0.051000 1.200000 0.023000 0.027000
1517188214694103031	500 39 0.900000 0.022000 0.020000 700 36 0.900000 0.938000 0.847000 600 41 1.000000 0.051000 0.051000 1.200000 0.023000 0.027000
1517188215203695364	500 39 0.900000 0.023000 0.021000 700 36 0.900000 0.934000 0.843000 600 41 1.000000 0.051000 0.051000 1.200000 0.024000 0.028000
1517188215713403614	500 39 0.900000 0.022000 0.020000 700 36 0.900000 0.934000 0.843000 600 41 1.000000 0.051000 0.051000 1.200000 0.024000 0.028000
1517188216223027906	500 39 0.900000 0.022000 0.020000 700 36 0.900000 0.925000 0.835000 600 41 1.000000 0.051000 0.051000 1.200000 0.023000 0.027000
1517188216732592031	500 39 0.900000 0.022000 0.020000 700 36 0.900000 0.930000 0.839000 600 41 1.000000 0.051000 0.051000 1.200000 0.023000 0.027000
1517188217242377573	500 39 0.900000 0.021000 0.019000 700 36 0.900000 0.926000 0.836000 600 41 1.000000 0.051000 0.051000 1.200000 0.023000 0.027000
1517188217751876823	500 39 0.900000 0.022000 0.020000 700 36 0.900000 0.928000 0.837000 600 41 1.000000 0.051000 0.051000 1.200000 0.023000 0.027000
1517188218261596740	500 39 0.900000 0.021000 0.019000 700 36 0.900000 0.923000 0.833000 600 41 1.000000 0.051000 0.051000 1.200000 0.024000 0.028000
1517188218771260615	500 39 0.900000 0.021000 0.019000 700 36 0.900000 0.920000 0.830000 600 41 1.000000 0.051000 0.051000 1.200000 0.024000 0.028000
1517188219280955573	500 39 0.900000 0.021000 0.019000 700 36 0.900000 0.922000 0.832000 600 41 1.000000 0.051000 0.051000 1.200000 0.023000 0.027000
1517188219790715490	500 39 0.900000 0.021000 0.019000 700 36 0.900000 0.929000 0.838000 600 41 1.000000 0.051000 0.051000 1.200000 0.023000 0.027000
1517188220300329781	500 39 0.900000 0.021000 0.019000 700 36 0.900000 0.904000 0.816000 600 41 1.000000 0.051000 0.051000 1.200000 0.023000 0.027000
1517188220810104323	500 38 0.900000 0.022000 0.020000 700 35 0.900000 0.918000 0.828000 600 41 1.000000 0.051000 0.051000 1.200000 0.023000 0.027000
1517188221319775907	500 39 0.900000 0.021000 0.019000 700 36 0.900000 0.926000 0.836000 600 41 1.000000 0.051000 0.051000 1.200000 0.023000 0.027000
1517188221829364990	500 39 0.900000 0.021000 0.019000 700 36 0.900000 0.930000 0.839000 600 41 1.000000 0.051000 0.051000 1.200000 0.023000 0.027000
1517188222338987657	500 38 0.900000 0.021000 0.019000 700 36 0.900000 0.922000 0.832000 600 41 1.000000 0.051000 0.051000 1.200000 0.024000 0.028000
1517188222848567698	500 39 0.900000 0.022000 0.020000 700 36 0.900000 0.925000 0.835000 600 41 1.000000 0.051000 0.051000 1.200000 0.023000 0.027000
1517188223358265407	500 39 0.900000 0.022000 0.020000 700 36 0.900000 0.912000 0.823000 600 41 1.000000 0.051000 0.051000 1.200000 0.023000 0.027000
1517188223867855532	500 39 0.900000 0.021000 0.019000 700 35 0.900000 0.934000 0.843000 600 41 1.000000 0.052000 0.052000 1.200000 0.023000 0.027000
1517188224377607282	500 38 0.900000 0.022000 0.020000 700 35 0.900000 0.943000 0.851000 600 41 1.000000 0.051000 0.051000 1.200000 0.023000 0.027000
1517188224887208782	500 38 0.900000 0.021000 0.019000 700 35 0.900000 0.940000 0.848000 600 41 1.000000 0.051000 0.051000 1.200000 0.023000 0.027000
1517188225396897324	500 38 0.900000 0.021000 0.019000 700 36 0.900000 0.942000 0.850000 600 41 1.000000 0.051000 0.051000 1.200000 0.025000 0.030000
1517188225906482282	500 38 0.900000 0.021000 0.019000 700 35 0.900000 0.941000 0.849000 600 41 1.000000 0.051000 0.051000 1.200000 0.025000 0.030000
1517188226416107782	500 38 0.900000 0.021000 0.019000 700 35 0.900000 0.925000 0.835000 600 41 1.000000 0.051000 0.051000 1.200000 0.024000 0.028000
1517188226925891074	500 38 0.900000 0.022000 0.020000 700 35 0.900000 0.938000 0.847000 600 41 1.000000 0.051000 0.051000 1.200000 0.024000 0.028000
1517188227435591949	500 38 0.900000 0.022000 0.020000 700 35 0.900000 0.932000 0.841000 600 41 1.000000 0.051000 0.051000 1.200000 0.023000 0.027000
1517188227945224241	500 38 0.900000 0.021000 0.019000 700 35 0.900000 0.942000 0.850000 600 41 1.000000 0.051000 0.051000 1.200000 0.023000 0.027000
1517188228454896241	500 38 0.900000 0.021000 0.019000 700 35 0.900000 0.917000 0.828000 600 41 1.000000 0.051000 0.051000 1.200000 0.023000 0.027000
1517188228964679991	500 38 0.900000 0.021000 0.019000 700 35 0.900000 0.931000 0.840000 600 41 1.000000 0.051000 0.051000 1.200000 0.023000 0.027000
1517188229474354991	500 38 0.900000 0.021000 0.019000 700 35 0.900000 0.920000 0.830000 600 41 1.000000 0.051000 0.051000 1.200000 0.023000 0.027000
1517188229983956241	500 38 0.900000 0.022000 0.020000 700 35 0.900000 0.935000 0.844000 600 41 1.000000 0.051000 0.051000 1.200000 0.024000 0.028000
1517188230493674949	500 38 0.900000 0.022000 0.020000 700 35 0.900000 0.931000 0.840000 600 41 1.000000 0.051000 0.051000 1.200000 0.024000 0.028000
1517188231003271241	500 38 0.900000 0.022000 0.020000 700 35 0.900000 0.934000 0.843000 600 41 1.000000 0.051000 0.051000 1.200000 0.024000 0.028000
1517188231512997283	500 38 0.900000 0.021000 0.019000 700 35 0.900000 0.939000 0.847000 600 41 1.000000 0.051000 0.051000 1.200000 0.024000 0.028000
1517188232022548700	500 38 0.900000 0.021000 0.019000 700 35 0.900000 0.926000 0.836000 600 41 1.000000 0.051000 0.051000 1.200000 0.024000 0.028000
1517188232532820616	500 38 0.900000 0.021000 0.019000 700 35 0.900000 0.939000 0.847000 600 41 1.000000 0.051000 0.051000 1.200000 0.024000 0.028000
1517188233042433450	500 38 0.900000 0.021000 0.019000 700 35 0.900000 0.935000 0.844000 600 41 1.000000 0.051000 0.051000 1.200000 0.024000 0.028000
1517188233552060950	500 38 0.900000 0.022000 0.020000 700 35 0.900000 0.927000 0.837000 600 41 1.000000 0.051000 0.051000 1.200000 0.024000 0.028000
1517188234061720491	500 38 0.900000 0.021000 0.019000 700 35 0.900000 0.938000 0.847000 600 41 1.000000 0.051000 0.051000 1.200000 0.023000 0.027000
1517188234571400783	500 38 0.900000 0.021000 0.019000 700 35 0.900000 0.933000 0.842000 600 41 1.000000 0.051000 0.051000 1.200000 0.023000 0.027000
1517188235081053450	500 38 0.900000 0.021000 0.019000 700 35 0.900000 0.928000 0.837000 600 41 1.000000 0.051000 0.051000 1.200000 0.023000 0.027000
1517188235590589033	500 38 0.900000 0.021000 0.019000 700 35 0.900000 0.919000 0.829000 600 41 1.000000 0.051000 0.051000 1.200000 0.023000 0.027000
1517188236100226492	500 38 0.900000 0.021000 0.019000 700 35 0.900000 0.915000 0.826000 600 41 1.000000 0.051000 0.051000 1.200000 0.023000 0.027000
1517188236610107325	500 38 0.900000 0.021000 0.019000 700 35 0.900000 0.908000 0.819000 600 41 1.000000 0.051000 0.051000 1.200000 0.023000 0.027000
1517188237119781658	500 38 0.900000 0.021000 0.019000 700 35 0.900000 0.925000 0.835000 600 41 1.000000 0.051000 0.051000 1.200000 0.024000 0.028000
1517188237629627700	500 38 0.900000 0.022000 0.020000 700 35 0.900000 0.944000 0.852000 600 41 1.000000 0.051000 0.051000 1.200000 0.024000 0.028000
1517188238139241492	500 38 0.900000 0.022000 0.020000 700 35 0.900000 0.950000 0.857000 600 41 1.000000 0.051000 0.051000 1.200000 0.024000 0.028000
1517188238649107409	500 38 0.900000 0.021000 0.019000 700 35 0.900000 0.928000 0.837000 600 41 1.000000 0.051000 0.051000 1.200000 0.023000 0.027000
1517188239158611075	500 38 0.900000 0.021000 0.019000 700 35 0.900000 0.924000 0.834000 600 41 1.000000 0.051000 0.051000 1.200000 0.023000 0.027000
1517188239667970242	500 38 0.900000 0.021000 0.019000 700 35 0.900000 0.945000 0.853000 600 40 1.000000 0.051000 0.051000 1.200000 0.024000 0.028000
1517188240177722284	500 38 0.900000 0.021000 0.019000 700 35 0.900000 0.925000 0.835000 600 41 1.000000 0.051000 0.051000 1.200000 0.023000 0.027000
1517188240687342034	500 38 0.900000 0.022000 0.020000 700 35 0.900000 0.937000 0.846000 600 40 1.000000 0.051000 0.051000 1.200000 0.023000 0.027000
1517188241196997159	500 38 0.900000 0.021000 0.019000 700 35 0.900000 0.928000 0.837000 600 41 1.000000 0.051000 0.051000 1.200000 0.023000 0.027000
1517188241706392326	500 38 0.900000 0.022000 0.020000 700 35 0.900000 0.926000 0.836000 600 41 1.000000 0.051000 0.051000 1.200000 0.023000 0.027000
1517188242216051326	500 38 0.900000 0.021000 0.019000 700 35 0.900000 0.912000 0.823000 600 41 1.000000 0.051000 0.051000 1.200000 0.023000 0.027000
1517188242725691451	500 38 0.900000 0.021000 0.019000 700 35 0.900000 0.909000 0.820000 600 41 1.000000 0.051000 0.051000 1.200000 0.023000 0.027000
1517188243235230076	500 38 0.900000 0.021000 0.019000 700 35 0.900000 0.913000 0.824000 600 40 1.000000 0.051000 0.051000 1.200000 0.023000 0.027000
1517188243744989451	500 38 0.900000 0.021000 0.019000 700 35 0.900000 0.909000 0.820000 600 40 1.000000 0.051000 0.051000 1.200000 0.023000 0.027000
1517188244254639493	500 38 0.900000 0.021000 0.019000 700 35 0.900000 0.914000 0.825000 600 40 1.000000 0.051000 0.051000 1.200000 0.023000 0.027000
1517188244764464701	500 38 0.900000 0.022000 0.020000 700 35 0.900000 0.945000 0.853000 600 40 1.000000 0.051000 0.051000 1.200000 0.024000 0.028000
1517188245274268493	500 38 0.900000 0.021000 0.019000 700 35 0.900000 0.934000 0.843000 600 40 1.000000 0.051000 0.051000 1.200000 0.024000 0.028000
1517188245783915118	500 38 0.900000 0.022000 0.020000 700 35 0.900000 0.946000 0.856000 600 40 1.000000 0.051000 0.051000 1.200000 0.023000 0.027000
1517188246293744243	500 38 0.900000 0.021000 0.019000 700 35 0.900000 0.928000 0.837000 600 40 1.000000 0.051000 0.051000 1.200000 0.024000 0.028000
1517188246803393326	500 38 0.900000 0.021000 0.019000 700 35 0.900000 0.925000 0.835000 600 40 1.000000 0.051000 0.051000 1.200000 0.023000 0.027000
1517188247313079785	500 38 0.900000 0.022000 0.020000 700 35 0.900000 0.917000 0.828000 600 40 1.000000 0.051000 0.051000 1.200000 0.023000 0.027000
1517188247822694951	500 38 0.900000 0.021000 0.019000 700 35 0.900000 0.941000 0.849000 600 40 1.000000 0.051000 0.051000 1.200000 0.023000 0.027000
1517188248332512035	500 38 0.900000 0.022000 0.020000 700 35 0.900000 0.911000 0.822000 600 40 1.000000 0.051000 0.051000 1.200000 0.023000 0.027000
1517188248842316827	500 38 0.900000 0.021000 0.019000 700 35 0.900000 0.910000 0.821000 600 40 1.000000 0.051000 0.051000 1.200000 0.023000 0.027000
1517188249351963118	500 38 0.900000 0.021000 0.019000 700 35 0.900000 0.920000 0.830000 600 40 1.000000 0.051000 0.051000 1.200000 0.023000 0.027000
1517188249861740702	500 38 0.900000 0.021000 0.019000 700 35 0.900000 0.914000 0.825000 600 40 1.000000 0.051000 0.051000 1.200000 0.023000 0.027000
1517188250371279202	500 38 0.900000 0.021000 0.019000 700 35 0.900000 0.901000 0.813000 600 40 1.000000 0.051000 0.051000 1.200000 0.023000 0.027000
1517188250880963035	500 38 0.900000 0.021000 0.019000 700 35 0.900000 0.911000 0.822000 600 40 1.000000 0.051000 0.051000 1.200000 0.023000 0.027000
1517188251390505452	500 38 0.900000 0.021000 0.019000 700 35 0.900000 0.919000 0.829000 600 40 1.000000 0.051000 0.051000 1.200000 0.023000 0.027000
1517188251900074369	500 38 0.900000 0.022000 0.020000 700 35 0.900000 0.912000 0.823000 600 40 1.000000 0.051000 0.051000 1.200000 0.023000 0.027000
1517188252409845869	500 38 0.900000 0.021000 0.019000 700 35 0.900000 0.936000 0.845000 600 40 1.000000 0.051000 0.051000 1.200000 0.024000 0.028000
1517188252921174327	500 38 0.900000 0.021000 0.019000 700 35 0.900000 0.938000 0.847000 600 40 1.000000 0.051000 0.051000 1.200000 0.023000 0.027000
1517188253431238744	500 38 0.900000 0.021000 0.019000 700 35 0.900000 0.919000 0.829000 600 40 1.000000 0.051000 0.051000 1.200000 0.023000 0.027000
1517188253940999452	500 38 0.900000 0.022000 0.020000 700 35 0.900000 0.925000 0.835000 600 40 1.000000 0.051000 0.051000 1.200000 0.023000 0.027000
1517188254450480327	500 38 0.900000 0.021000 0.019000 700 35 0.900000 0.906000 0.818000 600 40 1.000000 0.051000 0.051000 1.200000 0.023000 0.027000
1517188254960033327	500 38 0.900000 0.022000 0.020000 700 35 0.900000 0.910000 0.821000 600 40 1.000000 0.051000 0.051000 1.200000 0.023000 0.027000
1517188255469600702	500 38 0.900000 0.021000 0.019000 700 35 0.900000 0.919000 0.829000 600 40 1.000000 0.051000 0.051000 1.200000 0.023000 0.027000
1517188255978786952	500 35 0.900000 0.022000 0.020000 700 34 0.900000 0.686000 0.621000 600 40 1.000000 0.051000 0.051000 1.200000 0.024000 0.028000
1517188256487980161	500 34 0.900000 0.020000 0.018000 700 34 0.900000 0.077000 0.070000 600 39 1.000000 0.051000 0.051000 1.200000 0.022000 0.026000
