#Timestamp	CPU(0) Frequency(MHz)	CPU(0) Temperature(C)	A7 Voltage(V)	A7 Current(A)	A7 Power(W)	CPU(4) Frequency(MHz)	CPU(4) Temperature(C)	A15 Voltage(V)	A15 Current(A)	A15 Power(W)	GPU Frequency(MHz)	GPU Temperature(C)	GPU Voltage(V)	GPU Current(A)	GPU Power(W)	RAM Voltage(V)	RAM Current(A)	RAM Power(W)
1553303586712276096	500 40 0.900000 0.064000 0.059000 1800 33 1.200000 0.292000 0.351000 600 37 1.000000 0.051000 0.051000 1.200000 0.045000 0.054000
1553303587227222471	500 43 0.900000 0.025000 0.022000 1800 34 1.200000 1.396000 1.686000 600 45 1.000000 0.051000 0.051000 1.200000 0.042000 0.050000
1553303587742623221	500 48 0.900000 0.087000 0.079000 1800 37 1.200000 4.011000 4.901000 600 54 1.000000 0.051000 0.051000 1.200000 0.036000 0.043000
1553303588263250638	500 51 0.900000 0.093000 0.084000 1800 39 1.200000 4.017000 4.908000 600 58 1.000000 0.051000 0.051000 1.200000 0.044000 0.053000
1553303588779038929	500 53 0.900000 0.087000 0.079000 1800 41 1.200000 4.056000 4.956000 600 61 1.000000 0.051000 0.051000 1.200000 0.036000 0.043000
1553303589294684888	500 54 0.900000 0.087000 0.079000 1800 42 1.200000 4.069000 4.972000 600 63 1.000000 0.051000 0.051000 1.200000 0.037000 0.044000
1553303589809736013	500 43 0.900000 0.088000 0.080000 1800 40 1.200000 0.277000 0.333000 600 49 1.000000 0.052000 0.052000 1.200000 0.026000 0.031000
1553303590332538346	500 40 0.900000 0.087000 0.079000 1800 39 1.200000 0.264000 0.317000 600 45 1.000000 0.052000 0.052000 1.200000 0.025000 0.030000
1553303590848614180	500 39 0.900000 0.094000 0.085000 1800 37 1.200000 0.275000 0.330000 600 43 1.000000 0.051000 0.051000 1.200000 0.033000 0.039000
1553303591364273305	500 38 0.900000 0.105000 0.095000 1800 37 1.200000 0.284000 0.341000 600 42 1.000000 0.051000 0.051000 1.200000 0.035000 0.042000
1553303591879366555	500 37 0.900000 0.086000 0.078000 1800 36 1.200000 0.254000 0.305000 600 41 1.000000 0.051000 0.051000 1.200000 0.026000 0.031000
1553303592394794638	500 36 0.900000 0.088000 0.080000 1800 35 1.200000 0.254000 0.305000 600 40 1.000000 0.051000 0.051000 1.200000 0.027000 0.032000
1553303592909793513	500 36 0.900000 0.088000 0.080000 1800 35 1.200000 0.255000 0.306000 600 40 1.000000 0.051000 0.051000 1.200000 0.030000 0.036000
1553303593425111638	500 36 0.900000 0.112000 0.102000 1800 35 1.200000 0.323000 0.388000 600 39 1.000000 0.051000 0.051000 1.200000 0.035000 0.042000
1553303593940351180	500 35 0.900000 0.088000 0.080000 1800 34 1.200000 0.253000 0.304000 600 39 1.000000 0.051000 0.051000 1.200000 0.026000 0.031000
1553303594455834430	500 35 0.900000 0.088000 0.080000 1800 34 1.200000 0.250000 0.300000 600 39 1.000000 0.051000 0.051000 1.200000 0.024000 0.028000
1553303594978751430	500 35 0.900000 0.088000 0.080000 1800 34 1.200000 0.250000 0.300000 600 38 1.000000 0.051000 0.051000 1.200000 0.025000 0.030000
1553303595494369305	500 35 0.900000 0.125000 0.114000 1800 34 1.200000 0.313000 0.377000 600 39 1.000000 0.051000 0.051000 1.200000 0.047000 0.056000
1553303596009691264	500 35 0.900000 0.088000 0.080000 1800 34 1.200000 0.255000 0.306000 600 38 1.000000 0.051000 0.051000 1.200000 0.025000 0.030000
1553303596525108222	500 35 0.900000 0.086000 0.078000 1800 33 1.200000 0.251000 0.301000 600 38 1.000000 0.051000 0.051000 1.200000 0.025000 0.030000
1553303597040254639	500 35 0.900000 0.086000 0.078000 1800 33 1.200000 0.246000 0.295000 600 38 1.000000 0.051000 0.051000 1.200000 0.025000 0.030000
1553303597555434931	500 35 0.900000 0.126000 0.114000 1800 33 1.200000 0.254000 0.305000 600 38 1.000000 0.051000 0.051000 1.200000 0.050000 0.060000
1553303598070844764	500 34 0.900000 0.098000 0.089000 1800 33 1.200000 0.261000 0.313000 600 38 1.000000 0.051000 0.051000 1.200000 0.025000 0.030000
1553303598586450139	500 34 0.900000 0.088000 0.080000 1800 33 1.200000 0.250000 0.300000 600 38 1.000000 0.051000 0.051000 1.200000 0.025000 0.030000
1553303599101923889	500 34 0.900000 0.088000 0.080000 1800 33 1.200000 0.248000 0.298000 600 38 1.000000 0.051000 0.051000 1.200000 0.025000 0.030000
1553303599618366722	500 34 0.900000 0.087000 0.079000 1800 33 1.200000 0.247000 0.297000 600 38 1.000000 0.050000 0.050000 1.200000 0.035000 0.042000
1553303600133529347	500 34 0.900000 0.107000 0.097000 1800 33 1.200000 0.315000 0.379000 600 38 1.000000 0.050000 0.050000 1.200000 0.025000 0.030000
1553303600648371473	500 34 0.900000 0.086000 0.078000 1800 33 1.200000 0.254000 0.306000 600 38 1.000000 0.051000 0.051000 1.200000 0.027000 0.032000
1553303601163748639	500 34 0.900000 0.086000 0.078000 1800 33 1.200000 0.245000 0.294000 600 37 1.000000 0.051000 0.051000 1.200000 0.027000 0.032000
1553303601679506473	500 43 0.900000 0.041000 0.037000 1800 34 1.200000 0.471000 0.567000 600 39 1.000000 0.051000 0.051000 1.200000 0.026000 0.031000
1553303602194843139	500 45 0.900000 0.055000 0.050000 1800 36 1.200000 1.518000 1.836000 600 40 1.000000 0.051000 0.051000 1.200000 0.044000 0.053000
1553303602709904348	500 45 0.900000 0.022000 0.020000 1800 36 1.200000 1.520000 1.839000 600 41 1.000000 0.051000 0.051000 1.200000 0.044000 0.053000
1553303603225372056	500 46 0.900000 0.023000 0.021000 1800 37 1.200000 1.529000 1.850000 600 42 1.000000 0.051000 0.051000 1.200000 0.032000 0.038000
1553303603740792848	500 47 0.900000 0.023000 0.021000 1800 37 1.200000 1.530000 1.851000 600 42 1.000000 0.051000 0.051000 1.200000 0.032000 0.038000
1553303604256929056	500 47 0.900000 0.032000 0.029000 1800 38 1.200000 1.531000 1.852000 600 43 1.000000 0.051000 0.051000 1.200000 0.036000 0.043000
1553303604772104348	500 47 0.900000 0.048000 0.043000 1800 38 1.200000 1.549000 1.874000 600 43 1.000000 0.051000 0.051000 1.200000 0.048000 0.058000
1553303605286906681	500 47 0.900000 0.023000 0.021000 1800 38 1.200000 1.551000 1.876000 600 43 1.000000 0.051000 0.051000 1.200000 0.032000 0.038000
1553303605802561973	500 38 0.900000 0.024000 0.021000 1800 37 1.200000 1.525000 1.845000 600 42 1.000000 0.051000 0.051000 1.200000 0.031000 0.037000
1553303606317751848	500 37 0.900000 0.033000 0.030000 1800 35 1.200000 0.275000 0.331000 600 40 1.000000 0.051000 0.051000 1.200000 0.038000 0.045000
