#Timestamp	CPU(0) Frequency(MHz)	CPU(0) Temperature(C)	A7 Voltage(V)	A7 Current(A)	A7 Power(W)	CPU(4) Frequency(MHz)	CPU(4) Temperature(C)	A15 Voltage(V)	A15 Current(A)	A15 Power(W)	GPU Frequency(MHz)	GPU Temperature(C)	GPU Voltage(V)	GPU Current(A)	GPU Power(W)	RAM Voltage(V)	RAM Current(A)	RAM Power(W)
1553829278129399298	800 39 1.000000 0.050000 0.053000 1600 35 1.000000 0.720000 0.774000 600 40 1.000000 0.052000 0.052000 1.200000 0.068000 0.082000
1553829278635018673	800 40 1.000000 0.045000 0.046000 1600 36 1.100000 0.885000 1.001000 600 41 1.000000 0.052000 0.052000 1.200000 0.078000 0.094000
1553829279140647298	800 40 1.000000 0.045000 0.046000 1600 36 1.100000 0.910000 1.030000 600 41 1.000000 0.052000 0.052000 1.200000 0.078000 0.094000
1553829279647044673	800 41 1.000000 0.045000 0.046000 1600 37 1.100000 0.909000 1.028000 600 42 1.000000 0.052000 0.052000 1.200000 0.079000 0.095000
1553829280152475840	800 45 1.000000 0.050000 0.051000 1600 37 1.100000 1.053000 1.193000 600 42 1.000000 0.052000 0.052000 1.200000 0.089000 0.107000
1553829280657630548	800 46 1.000000 0.036000 0.036000 1600 38 1.100000 1.334000 1.510000 600 43 1.000000 0.052000 0.052000 1.200000 0.051000 0.061000
1553829281162869673	800 46 1.000000 0.035000 0.035000 1600 38 1.100000 1.339000 1.515000 600 43 1.000000 0.052000 0.052000 1.200000 0.050000 0.060000
1553829281668097173	800 46 1.000000 0.036000 0.036000 1600 38 1.100000 1.444000 1.634000 600 43 1.000000 0.053000 0.053000 1.200000 0.053000 0.064000
1553829282173211340	800 46 1.000000 0.039000 0.040000 1600 39 1.100000 1.337000 1.513000 600 43 1.000000 0.053000 0.053000 1.200000 0.050000 0.060000
1553829282678401715	800 46 1.000000 0.036000 0.036000 1600 39 1.100000 1.351000 1.529000 600 44 1.000000 0.053000 0.053000 1.200000 0.049000 0.059000
1553829283183610590	800 47 1.000000 0.037000 0.037000 1600 39 1.100000 1.342000 1.519000 600 44 1.000000 0.053000 0.053000 1.200000 0.050000 0.060000
1553829283688728257	800 43 1.000000 0.037000 0.037000 1600 39 1.100000 1.577000 1.786000 600 52 1.000000 0.053000 0.053000 1.200000 0.055000 0.066000
1553829284193922923	800 42 1.000000 0.193000 0.197000 1600 39 1.100000 1.430000 1.620000 600 53 1.000000 0.052000 0.052000 1.200000 0.054000 0.065000
1553829284699129007	800 43 1.000000 0.198000 0.201000 1600 39 1.100000 1.560000 1.767000 600 48 1.000000 0.053000 0.053000 1.200000 0.055000 0.066000
1553829285209574132	800 43 1.000000 0.236000 0.240000 1600 39 1.100000 0.991000 1.122000 600 48 1.000000 0.053000 0.053000 1.200000 0.055000 0.066000
1553829285716655132	800 43 1.000000 0.239000 0.242000 1600 39 1.100000 0.887000 1.006000 600 45 1.000000 0.053000 0.053000 1.200000 0.056000 0.067000
1553829286222318007	800 43 1.000000 0.293000 0.296000 1600 39 1.100000 1.097000 1.240000 600 46 1.000000 0.053000 0.053000 1.200000 0.064000 0.077000
1553829286727578090	800 43 1.000000 0.296000 0.299000 1600 39 1.100000 0.878000 0.993000 600 45 1.000000 0.053000 0.053000 1.200000 0.059000 0.071000
1553829287232858132	800 42 1.000000 0.297000 0.300000 1600 39 1.100000 0.943000 1.066000 600 45 1.000000 0.053000 0.053000 1.200000 0.062000 0.074000
1553829287737980299	800 41 1.000000 0.253000 0.256000 1600 39 1.100000 0.864000 0.978000 600 44 1.000000 0.053000 0.053000 1.200000 0.057000 0.068000
1553829288250839257	800 44 1.000000 0.251000 0.254000 1600 39 1.100000 0.912000 1.035000 600 47 1.000000 0.053000 0.053000 1.200000 0.055000 0.066000
1553829288756168257	800 42 1.000000 0.270000 0.273000 1600 39 1.100000 2.106000 2.394000 600 47 1.000000 0.053000 0.053000 1.200000 0.092000 0.111000
1553829289268945382	800 42 1.000000 0.290000 0.293000 1600 39 1.100000 0.774000 0.875000 600 44 1.000000 0.053000 0.053000 1.200000 0.066000 0.079000
1553829289774114966	800 42 1.000000 0.285000 0.288000 1600 39 1.100000 0.651000 0.734000 600 45 1.000000 0.052000 0.052000 1.200000 0.066000 0.079000
1553829290288720299	800 42 1.000000 0.237000 0.240000 1600 39 1.100000 0.888000 1.006000 600 44 1.000000 0.053000 0.053000 1.200000 0.055000 0.066000
1553829290796423341	800 44 1.000000 0.234000 0.237000 1600 39 1.100000 1.166000 1.321000 600 46 1.000000 0.053000 0.053000 1.200000 0.060000 0.072000
1553829291303118091	800 47 1.000000 0.267000 0.270000 1600 40 1.100000 1.545000 1.750000 600 50 1.000000 0.053000 0.053000 1.200000 0.083000 0.100000
1553829291809082174	800 43 1.000000 0.281000 0.284000 1600 40 1.100000 2.383000 2.707000 600 47 1.000000 0.053000 0.053000 1.200000 0.088000 0.106000
1553829292315526174	800 46 1.000000 0.266000 0.269000 1600 40 1.100000 0.835000 0.945000 600 48 1.000000 0.053000 0.053000 1.200000 0.070000 0.084000
1553829292826586008	800 46 1.000000 0.269000 0.272000 1600 41 1.100000 1.610000 1.827000 600 52 1.000000 0.053000 0.053000 1.200000 0.085000 0.102000
1553829293332734049	800 44 1.000000 0.246000 0.249000 1600 41 1.100000 1.749000 1.985000 600 49 1.000000 0.053000 0.053000 1.200000 0.076000 0.092000
1553829293845928841	800 43 1.000000 0.258000 0.261000 1600 40 1.100000 0.531000 0.601000 600 47 1.000000 0.053000 0.053000 1.200000 0.056000 0.067000
1553829294351544758	800 41 1.000000 0.257000 0.260000 1600 39 1.100000 0.643000 0.727000 600 45 1.000000 0.053000 0.053000 1.200000 0.060000 0.072000
1553829294864485591	800 42 1.000000 0.249000 0.252000 1600 39 1.100000 0.685000 0.776000 600 46 1.000000 0.053000 0.053000 1.200000 0.055000 0.066000
1553829295369917091	800 42 1.000000 0.229000 0.232000 1600 39 1.100000 0.921000 1.043000 600 45 1.000000 0.053000 0.053000 1.200000 0.056000 0.067000
1553829295875763675	800 47 1.000000 0.248000 0.251000 1600 41 1.100000 1.891000 2.148000 600 51 1.000000 0.053000 0.053000 1.200000 0.080000 0.096000
1553829296381509675	800 46 1.000000 0.290000 0.293000 1600 41 1.100000 1.749000 1.981000 600 48 1.000000 0.053000 0.053000 1.200000 0.077000 0.093000
1553829296887235967	800 48 1.000000 0.290000 0.293000 1600 41 1.100000 1.263000 1.429000 600 52 1.000000 0.053000 0.053000 1.200000 0.072000 0.087000
1553829297392644008	800 52 1.000000 0.268000 0.271000 1600 42 1.100000 2.982000 3.402000 600 51 1.000000 0.053000 0.053000 1.200000 0.111000 0.134000
1553829297897903508	800 51 1.000000 0.293000 0.296000 1600 43 1.100000 1.847000 2.096000 600 49 1.000000 0.053000 0.053000 1.200000 0.076000 0.092000
1553829298403325508	800 51 1.000000 0.268000 0.271000 1600 43 1.100000 1.268000 1.435000 600 49 1.000000 0.053000 0.053000 1.200000 0.069000 0.083000
1553829298908679717	800 47 1.000000 0.290000 0.293000 1600 42 1.100000 1.106000 1.253000 600 49 1.000000 0.053000 0.053000 1.200000 0.073000 0.088000
1553829299414833092	800 46 1.000000 0.267000 0.270000 1600 42 1.100000 1.359000 1.538000 600 48 1.000000 0.053000 0.053000 1.200000 0.068000 0.082000
1553829299920433134	800 51 1.000000 0.274000 0.277000 1600 42 1.100000 2.110000 2.396000 600 55 1.000000 0.053000 0.053000 1.200000 0.097000 0.117000
1553829300425678925	800 46 1.000000 0.289000 0.292000 1600 42 1.100000 2.556000 2.908000 600 49 1.000000 0.053000 0.053000 1.200000 0.098000 0.118000
1553829300930366050	800 48 1.000000 0.271000 0.274000 1600 42 1.100000 0.915000 1.034000 600 50 1.000000 0.053000 0.053000 1.200000 0.067000 0.081000
1553829301452202259	800 45 1.000000 0.231000 0.234000 1600 42 1.100000 1.890000 2.145000 600 51 1.000000 0.053000 0.053000 1.200000 0.089000 0.107000
1553829301957424925	800 44 1.000000 0.256000 0.259000 1600 41 1.100000 0.828000 0.935000 600 47 1.000000 0.053000 0.053000 1.200000 0.065000 0.078000
1553829302462830967	800 43 1.000000 0.243000 0.246000 1600 40 1.100000 0.657000 0.744000 600 46 1.000000 0.053000 0.053000 1.200000 0.054000 0.065000
1553829302973966801	800 42 1.000000 0.224000 0.227000 1600 40 1.100000 0.640000 0.725000 600 45 1.000000 0.053000 0.053000 1.200000 0.053000 0.064000
1553829303497136301	800 43 1.000000 0.231000 0.234000 1600 40 1.100000 0.548000 0.622000 600 45 1.000000 0.053000 0.053000 1.200000 0.052000 0.062000
1553829304002235384	800 42 1.000000 0.201000 0.205000 1600 40 1.100000 0.623000 0.707000 600 45 1.000000 0.053000 0.053000 1.200000 0.050000 0.060000
1553829304507477176	800 43 1.000000 0.237000 0.240000 1600 39 1.100000 0.729000 0.828000 600 45 1.000000 0.053000 0.053000 1.200000 0.053000 0.064000
1553829305014398592	800 49 1.000000 0.245000 0.248000 1600 41 1.100000 1.682000 1.909000 600 52 1.000000 0.052000 0.052000 1.200000 0.085000 0.103000
1553829305537160009	800 48 1.000000 0.277000 0.280000 1600 41 1.100000 2.271000 2.582000 600 55 1.000000 0.053000 0.053000 1.200000 0.089000 0.107000
1553829306047400009	800 45 1.000000 0.267000 0.270000 1600 41 1.100000 1.626000 1.842000 600 49 1.000000 0.053000 0.053000 1.200000 0.068000 0.082000
1553829306554274843	800 52 1.000000 0.287000 0.290000 1600 43 1.100000 3.018000 3.443000 600 57 1.000000 0.053000 0.053000 1.200000 0.099000 0.119000
1553829307060063718	800 48 1.000000 0.265000 0.268000 1600 43 1.100000 1.962000 2.228000 600 56 1.000000 0.053000 0.053000 1.200000 0.071000 0.085000
1553829307600246301	800 48 1.000000 0.258000 0.261000 1600 42 1.100000 0.924000 1.045000 600 51 1.000000 0.053000 0.053000 1.200000 0.063000 0.076000
1553829308106697426	800 52 1.000000 0.221000 0.224000 1600 43 1.100000 2.947000 3.359000 600 58 1.000000 0.053000 0.053000 1.200000 0.095000 0.115000
1553829308612871885	800 47 1.000000 0.243000 0.246000 1600 42 1.100000 1.610000 1.824000 600 57 1.000000 0.053000 0.053000 1.200000 0.067000 0.081000
1553829309119214843	800 51 1.000000 0.265000 0.268000 1600 43 1.100000 1.013000 1.144000 600 55 1.000000 0.053000 0.053000 1.200000 0.064000 0.077000
1553829309637775426	800 53 1.000000 0.283000 0.286000 1600 44 1.100000 2.366000 2.690000 600 55 1.000000 0.053000 0.053000 1.200000 0.103000 0.124000
1553829310148029760	800 52 1.000000 0.281000 0.284000 1600 44 1.100000 1.833000 2.082000 600 52 1.000000 0.053000 0.053000 1.200000 0.080000 0.096000
1553829310653701843	800 50 1.000000 0.285000 0.288000 1600 44 1.100000 1.906000 2.165000 600 55 1.000000 0.053000 0.053000 1.200000 0.098000 0.118000
1553829311159066135	800 47 1.000000 0.282000 0.285000 1600 43 1.100000 1.791000 2.032000 600 50 1.000000 0.053000 0.053000 1.200000 0.085000 0.102000
1553829311666697177	800 47 1.000000 0.294000 0.297000 1600 43 1.100000 0.804000 0.908000 600 50 1.000000 0.053000 0.053000 1.200000 0.069000 0.083000
1553829312172601760	800 50 1.000000 0.288000 0.291000 1600 44 1.100000 1.819000 2.064000 600 53 1.000000 0.053000 0.053000 1.200000 0.100000 0.121000
1553829312677757552	800 46 1.000000 0.256000 0.259000 1600 43 1.100000 1.420000 1.607000 600 50 1.000000 0.053000 0.053000 1.200000 0.062000 0.075000
1553829313184713177	800 47 1.000000 0.249000 0.252000 1600 43 1.100000 0.954000 1.079000 600 56 1.000000 0.053000 0.053000 1.200000 0.102000 0.123000
1553829313690516594	800 45 1.000000 0.290000 0.293000 1600 42 1.100000 1.751000 1.983000 600 49 1.000000 0.053000 0.053000 1.200000 0.063000 0.076000
1553829314196086927	800 47 1.000000 0.254000 0.257000 1600 42 1.100000 0.860000 0.972000 600 48 1.000000 0.053000 0.053000 1.200000 0.057000 0.068000
1553829314701588844	800 43 1.000000 0.241000 0.244000 1600 41 1.100000 0.561000 0.636000 600 47 1.000000 0.053000 0.053000 1.200000 0.057000 0.068000
1553829315207289385	800 43 1.000000 0.241000 0.244000 1600 41 1.100000 0.721000 0.819000 600 46 1.000000 0.053000 0.053000 1.200000 0.054000 0.065000
1553829315712753427	800 42 1.000000 0.225000 0.228000 1600 40 1.100000 0.717000 0.815000 600 46 1.000000 0.053000 0.053000 1.200000 0.049000 0.059000
1553829316218391052	800 42 1.000000 0.206000 0.209000 1600 40 1.100000 0.988000 1.119000 600 46 1.000000 0.053000 0.053000 1.200000 0.055000 0.066000
1553829316724126344	800 42 1.000000 0.250000 0.253000 1600 40 1.100000 0.687000 0.779000 600 46 1.000000 0.053000 0.053000 1.200000 0.053000 0.064000
1553829317235778719	800 44 1.000000 0.235000 0.238000 1600 40 1.100000 0.772000 0.876000 600 52 1.000000 0.053000 0.053000 1.200000 0.069000 0.083000
1553829317750137927	800 44 1.000000 0.270000 0.273000 1600 41 1.100000 1.628000 1.847000 600 49 1.000000 0.053000 0.053000 1.200000 0.087000 0.105000
1553829318256168511	800 45 1.000000 0.292000 0.295000 1600 41 1.100000 1.263000 1.429000 600 47 1.000000 0.053000 0.053000 1.200000 0.067000 0.081000
1553829318762356177	800 45 1.000000 0.290000 0.293000 1600 41 1.100000 1.464000 1.661000 600 48 1.000000 0.053000 0.053000 1.200000 0.081000 0.098000
1553829319268509844	800 45 1.000000 0.279000 0.282000 1600 41 1.100000 1.907000 2.164000 600 48 1.000000 0.053000 0.053000 1.200000 0.069000 0.083000
1553829319778050303	800 47 1.000000 0.234000 0.237000 1600 41 1.100000 1.087000 1.233000 600 51 1.000000 0.053000 0.053000 1.200000 0.059000 0.071000
1553829320284569761	800 47 1.000000 0.267000 0.270000 1600 42 1.100000 3.044000 3.473000 600 50 1.000000 0.053000 0.053000 1.200000 0.128000 0.155000
1553829320790452469	800 45 1.000000 0.206000 0.209000 1600 41 1.100000 1.063000 1.204000 600 49 1.000000 0.053000 0.053000 1.200000 0.062000 0.075000
1553829321296222761	800 45 1.000000 0.218000 0.221000 1600 41 1.100000 0.632000 0.717000 600 47 1.000000 0.053000 0.053000 1.200000 0.055000 0.066000
1553829321802050761	800 44 1.000000 0.218000 0.221000 1600 41 1.100000 0.831000 0.943000 600 47 1.000000 0.053000 0.053000 1.200000 0.052000 0.062000
1553829322307703845	800 42 1.000000 0.225000 0.228000 1600 40 1.100000 0.711000 0.807000 600 45 1.000000 0.053000 0.053000 1.200000 0.053000 0.064000
1553829322813618220	800 44 1.000000 0.224000 0.228000 1600 40 1.100000 0.605000 0.686000 600 46 1.000000 0.053000 0.053000 1.200000 0.051000 0.061000
1553829323319417386	800 42 1.000000 0.219000 0.222000 1600 40 1.100000 0.846000 0.960000 600 45 1.000000 0.053000 0.053000 1.200000 0.054000 0.065000
1553829323830275511	800 45 1.000000 0.227000 0.230000 1600 40 1.100000 0.922000 1.047000 600 49 1.000000 0.053000 0.053000 1.200000 0.053000 0.064000
1553829324336425928	800 44 1.000000 0.266000 0.269000 1600 41 1.100000 1.804000 2.049000 600 54 1.000000 0.053000 0.053000 1.200000 0.087000 0.105000
1553829324841632678	800 44 1.000000 0.294000 0.297000 1600 41 1.100000 1.151000 1.301000 600 46 1.000000 0.053000 0.053000 1.200000 0.077000 0.093000
1553829325347266637	800 50 1.000000 0.287000 0.290000 1600 41 1.100000 0.800000 0.904000 600 52 1.000000 0.053000 0.053000 1.200000 0.067000 0.081000
1553829325852518303	800 45 1.000000 0.274000 0.277000 1600 41 1.100000 2.110000 2.396000 600 48 1.000000 0.053000 0.053000 1.200000 0.089000 0.107000
1553829326357609428	800 44 1.000000 0.255000 0.258000 1600 41 1.100000 0.909000 1.029000 600 48 1.000000 0.053000 0.053000 1.200000 0.066000 0.079000
1553829326863859012	800 50 1.000000 0.268000 0.271000 1600 42 1.100000 1.664000 1.890000 600 55 1.000000 0.053000 0.053000 1.200000 0.076000 0.092000
1553829327373747095	800 44 1.000000 0.293000 0.296000 1600 41 1.100000 1.056000 1.194000 600 48 1.000000 0.053000 0.053000 1.200000 0.075000 0.090000
1553829327878806387	800 42 1.000000 0.246000 0.249000 1600 41 1.100000 0.732000 0.829000 600 46 1.000000 0.053000 0.053000 1.200000 0.059000 0.071000
1553829328390112887	800 43 1.000000 0.247000 0.250000 1600 40 1.100000 0.515000 0.581000 600 47 1.000000 0.053000 0.053000 1.200000 0.062000 0.075000
1553829328896060637	800 44 1.000000 0.190000 0.193000 1600 40 1.100000 1.086000 1.232000 600 47 1.000000 0.053000 0.053000 1.200000 0.053000 0.064000
1553829329401129970	800 41 1.000000 0.202000 0.206000 1600 40 1.100000 0.814000 0.924000 600 45 1.000000 0.053000 0.053000 1.200000 0.048000 0.057000
1553829329906411179	800 42 1.000000 0.223000 0.226000 1600 40 1.100000 0.887000 1.007000 600 45 1.000000 0.053000 0.053000 1.200000 0.052000 0.062000
1553829330438341846	800 44 1.000000 0.235000 0.238000 1600 40 1.100000 0.698000 0.792000 600 46 1.000000 0.053000 0.053000 1.200000 0.056000 0.067000
1553829330944286262	800 50 1.000000 0.256000 0.259000 1600 42 1.100000 2.581000 2.942000 600 55 1.000000 0.053000 0.053000 1.200000 0.102000 0.123000
1553829331449610471	800 51 1.000000 0.271000 0.274000 1600 43 1.100000 2.301000 2.616000 600 49 1.000000 0.053000 0.053000 1.200000 0.078000 0.094000
1553829331955624887	800 50 1.000000 0.241000 0.243000 1600 42 1.100000 1.069000 1.210000 600 54 1.000000 0.053000 0.053000 1.200000 0.063000 0.076000
1553829332461172596	800 52 1.000000 0.292000 0.295000 1600 43 1.100000 3.035000 3.462000 600 51 1.000000 0.053000 0.053000 1.200000 0.100000 0.121000
1553829332966522929	800 47 1.000000 0.292000 0.295000 1600 43 1.100000 1.863000 2.114000 600 50 1.000000 0.053000 0.053000 1.200000 0.077000 0.093000
1553829333472805013	800 52 1.000000 0.287000 0.290000 1600 43 1.100000 1.935000 2.198000 600 56 1.000000 0.053000 0.053000 1.200000 0.090000 0.108000
1553829333978306429	800 47 1.000000 0.264000 0.267000 1600 43 1.100000 1.969000 2.236000 600 58 1.000000 0.053000 0.053000 1.200000 0.083000 0.100000
1553829334491217888	800 47 1.000000 0.292000 0.295000 1600 43 1.100000 1.761000 1.998000 600 51 1.000000 0.053000 0.053000 1.200000 0.077000 0.093000
1553829334996793054	800 50 1.000000 0.261000 0.264000 1600 44 1.100000 3.014000 3.438000 600 59 1.000000 0.053000 0.053000 1.200000 0.108000 0.130000
1553829335502231013	800 50 1.000000 0.270000 0.273000 1600 44 1.100000 2.184000 2.483000 600 53 1.000000 0.053000 0.053000 1.200000 0.088000 0.106000
1553829336007661180	800 48 1.000000 0.292000 0.295000 1600 44 1.100000 1.557000 1.767000 600 57 1.000000 0.053000 0.053000 1.200000 0.075000 0.090000
1553829336513000721	800 49 1.000000 0.292000 0.294000 1600 44 1.100000 2.139000 2.429000 600 58 1.000000 0.053000 0.053000 1.200000 0.091000 0.110000
1553829337018248888	800 47 1.000000 0.293000 0.296000 1600 43 1.100000 1.086000 1.229000 600 51 1.000000 0.053000 0.053000 1.200000 0.076000 0.091000
1553829337528701138	800 49 1.000000 0.269000 0.272000 1600 44 1.100000 1.615000 1.833000 600 57 1.000000 0.053000 0.053000 1.200000 0.080000 0.096000
1553829338034462596	800 47 1.000000 0.284000 0.287000 1600 43 1.100000 1.138000 1.287000 600 50 1.000000 0.053000 0.053000 1.200000 0.079000 0.095000
1553829338541328346	800 47 1.000000 0.292000 0.295000 1600 42 1.100000 0.902000 1.020000 600 51 1.000000 0.053000 0.053000 1.200000 0.068000 0.082000
1553829339047724138	800 51 1.000000 0.226000 0.229000 1600 43 1.100000 1.530000 1.733000 600 53 1.000000 0.053000 0.053000 1.200000 0.083000 0.100000
1553829339553442972	800 45 1.000000 0.221000 0.224000 1600 43 1.100000 1.157000 1.310000 600 49 1.000000 0.053000 0.053000 1.200000 0.070000 0.084000
1553829340059311805	800 44 1.000000 0.199000 0.202000 1600 42 1.100000 0.707000 0.803000 600 48 1.000000 0.053000 0.053000 1.200000 0.054000 0.065000
1553829340565093513	800 45 1.000000 0.204000 0.207000 1600 42 1.100000 1.060000 1.203000 600 51 1.000000 0.053000 0.053000 1.200000 0.055000 0.066000
1553829341078307263	800 43 1.000000 0.184000 0.187000 1600 41 1.100000 0.620000 0.704000 600 46 1.000000 0.053000 0.053000 1.200000 0.049000 0.059000
1553829341584915639	800 43 1.000000 0.231000 0.234000 1600 41 1.100000 0.880000 0.997000 600 46 1.000000 0.053000 0.053000 1.200000 0.055000 0.066000
1553829342090530847	800 43 1.000000 0.236000 0.239000 1600 40 1.100000 0.868000 0.985000 600 47 1.000000 0.053000 0.053000 1.200000 0.054000 0.065000
1553829342596432139	800 43 1.000000 0.242000 0.245000 1600 40 1.100000 0.825000 0.937000 600 46 1.000000 0.053000 0.053000 1.200000 0.055000 0.066000
1553829343103999389	800 50 1.000000 0.228000 0.231000 1600 42 1.100000 1.993000 2.264000 600 54 1.000000 0.053000 0.053000 1.200000 0.077000 0.093000
1553829343610473430	800 51 1.000000 0.267000 0.270000 1600 43 1.100000 2.235000 2.538000 600 49 1.000000 0.053000 0.053000 1.200000 0.092000 0.111000
1553829344117344389	800 51 1.000000 0.292000 0.295000 1600 43 1.100000 1.454000 1.647000 600 54 1.000000 0.053000 0.053000 1.200000 0.073000 0.088000
1553829344631409931	800 50 1.000000 0.256000 0.259000 1600 43 1.100000 3.009000 3.433000 600 53 1.000000 0.053000 0.053000 1.200000 0.100000 0.121000
1553829345137057889	800 47 1.000000 0.293000 0.295000 1600 43 1.100000 1.650000 1.872000 600 51 1.000000 0.053000 0.053000 1.200000 0.076000 0.091000
1553829345643640097	800 52 1.000000 0.265000 0.268000 1600 44 1.100000 1.839000 2.089000 600 57 1.000000 0.053000 0.053000 1.200000 0.080000 0.096000
1553829346149853389	800 50 1.000000 0.296000 0.299000 1600 44 1.100000 2.381000 2.707000 600 52 1.000000 0.053000 0.053000 1.200000 0.087000 0.105000
1553829346656060014	800 49 1.000000 0.293000 0.296000 1600 44 1.100000 1.794000 2.036000 600 51 1.000000 0.053000 0.053000 1.200000 0.079000 0.095000
1553829347162259389	800 49 1.000000 0.267000 0.270000 1600 44 1.100000 1.639000 1.860000 600 55 1.000000 0.053000 0.053000 1.200000 0.086000 0.104000
1553829347667947639	800 47 1.000000 0.293000 0.295000 1600 43 1.100000 1.172000 1.326000 600 51 1.000000 0.053000 0.053000 1.200000 0.079000 0.095000
1553829348173746889	800 47 1.000000 0.293000 0.296000 1600 43 1.100000 0.845000 0.955000 600 49 1.000000 0.053000 0.053000 1.200000 0.066000 0.079000
1553829348680001931	800 48 1.000000 0.287000 0.290000 1600 43 1.100000 2.636000 2.981000 600 54 1.000000 0.053000 0.053000 1.200000 0.104000 0.126000
1553829349185868973	800 48 1.000000 0.267000 0.270000 1600 43 1.100000 2.019000 2.295000 600 50 1.000000 0.053000 0.053000 1.200000 0.065000 0.078000
1553829349694285723	800 51 1.000000 0.237000 0.240000 1600 43 1.100000 1.034000 1.171000 600 51 1.000000 0.053000 0.053000 1.200000 0.057000 0.068000
1553829350201041056	800 47 1.000000 0.250000 0.253000 1600 43 1.100000 2.588000 2.945000 600 48 1.000000 0.053000 0.053000 1.200000 0.072000 0.087000
1553829350706960306	800 48 1.000000 0.277000 0.280000 1600 42 1.100000 0.814000 0.921000 600 49 1.000000 0.053000 0.053000 1.200000 0.060000 0.072000
1553829351212749681	800 44 1.000000 0.266000 0.269000 1600 42 1.100000 1.125000 1.273000 600 47 1.000000 0.053000 0.053000 1.200000 0.059000 0.071000
1553829351726719140	800 45 1.000000 0.247000 0.250000 1600 41 1.100000 0.732000 0.828000 600 46 1.000000 0.053000 0.053000 1.200000 0.055000 0.066000
1553829352234005098	800 43 1.000000 0.249000 0.252000 1600 41 1.100000 0.865000 0.980000 600 46 1.000000 0.053000 0.053000 1.200000 0.055000 0.066000
1553829352740336890	800 46 1.000000 0.235000 0.238000 1600 41 1.100000 0.712000 0.808000 600 46 1.000000 0.053000 0.053000 1.200000 0.052000 0.062000
1553829353246286515	800 43 1.000000 0.219000 0.222000 1600 41 1.100000 0.765000 0.869000 600 46 1.000000 0.053000 0.053000 1.200000 0.053000 0.064000
1553829353768349557	800 46 1.000000 0.242000 0.245000 1600 41 1.100000 0.752000 0.853000 600 50 1.000000 0.053000 0.053000 1.200000 0.057000 0.068000
1553829354274927557	800 50 1.000000 0.249000 0.252000 1600 42 1.100000 2.961000 3.378000 600 52 1.000000 0.053000 0.053000 1.200000 0.087000 0.105000
1553829354781059640	800 47 1.000000 0.271000 0.274000 1600 42 1.100000 2.515000 2.862000 600 53 1.000000 0.053000 0.053000 1.200000 0.077000 0.093000
1553829355297706848	800 52 1.000000 0.282000 0.285000 1600 44 1.100000 2.060000 2.340000 600 57 1.000000 0.053000 0.053000 1.200000 0.078000 0.094000
1553829355803605557	800 53 1.000000 0.276000 0.279000 1600 45 1.100000 2.949000 3.364000 600 60 1.000000 0.053000 0.053000 1.200000 0.110000 0.133000
1553829356309236765	800 50 1.000000 0.269000 0.272000 1600 44 1.100000 2.888000 3.295000 600 60 1.000000 0.053000 0.053000 1.200000 0.098000 0.118000
1553829356814476224	800 48 1.000000 0.278000 0.281000 1600 44 1.100000 1.910000 2.169000 600 59 1.000000 0.053000 0.053000 1.200000 0.075000 0.090000
1553829357319745932	800 49 1.000000 0.287000 0.290000 1600 44 1.100000 1.918000 2.178000 600 55 1.000000 0.053000 0.053000 1.200000 0.092000 0.111000
1553829357824978890	800 49 1.000000 0.292000 0.295000 1600 44 1.100000 1.398000 1.581000 600 52 1.000000 0.053000 0.053000 1.200000 0.071000 0.085000
1553829358330088057	800 47 1.000000 0.293000 0.296000 1600 44 1.100000 1.036000 1.173000 600 50 1.000000 0.053000 0.053000 1.200000 0.075000 0.090000
1553829358835115974	800 47 1.000000 0.241000 0.244000 1600 43 1.100000 1.106000 1.251000 600 51 1.000000 0.053000 0.053000 1.200000 0.066000 0.079000
1553829359340169932	800 50 1.000000 0.257000 0.260000 1600 44 1.100000 2.304000 2.619000 600 53 1.000000 0.053000 0.053000 1.200000 0.085000 0.103000
1553829359845410182	800 46 1.000000 0.252000 0.255000 1600 43 1.100000 0.795000 0.899000 600 50 1.000000 0.053000 0.053000 1.200000 0.063000 0.076000
1553829360350559182	800 45 1.000000 0.238000 0.241000 1600 42 1.100000 0.644000 0.729000 600 48 1.000000 0.053000 0.053000 1.200000 0.053000 0.064000
1553829360855570224	800 44 1.000000 0.219000 0.222000 1600 42 1.100000 0.656000 0.745000 600 47 1.000000 0.053000 0.053000 1.200000 0.052000 0.062000
1553829361360809058	800 43 1.000000 0.223000 0.226000 1600 41 1.100000 0.788000 0.894000 600 46 1.000000 0.053000 0.053000 1.200000 0.053000 0.064000
1553829361865999183	800 44 1.000000 0.213000 0.216000 1600 41 1.100000 0.790000 0.898000 600 47 1.000000 0.053000 0.053000 1.200000 0.053000 0.064000
1553829362371302974	800 45 1.000000 0.244000 0.247000 1600 41 1.100000 0.823000 0.934000 600 47 1.000000 0.053000 0.053000 1.200000 0.054000 0.065000
1553829362890288891	800 50 1.000000 0.219000 0.222000 1600 42 1.100000 0.942000 1.069000 600 54 1.000000 0.053000 0.053000 1.200000 0.057000 0.068000
1553829363395568099	800 52 1.000000 0.280000 0.283000 1600 43 1.100000 2.979000 3.399000 600 52 1.000000 0.053000 0.053000 1.200000 0.100000 0.121000
1553829363901831433	800 49 1.000000 0.282000 0.285000 1600 43 1.100000 1.864000 2.115000 600 52 1.000000 0.053000 0.053000 1.200000 0.074000 0.089000
1553829364407159350	800 47 1.000000 0.284000 0.287000 1600 43 1.100000 1.962000 2.228000 600 52 1.000000 0.053000 0.053000 1.200000 0.087000 0.105000
1553829364932055641	800 47 1.000000 0.294000 0.297000 1600 43 1.100000 1.050000 1.188000 600 49 1.000000 0.053000 0.053000 1.200000 0.078000 0.094000
1553829365438389225	800 50 1.000000 0.293000 0.296000 1600 43 1.100000 0.922000 1.042000 600 54 1.000000 0.053000 0.053000 1.200000 0.071000 0.085000
1553829365944336558	800 47 1.000000 0.286000 0.289000 1600 43 1.100000 2.455000 2.793000 600 51 1.000000 0.053000 0.053000 1.200000 0.103000 0.124000
1553829366456714100	800 46 1.000000 0.288000 0.291000 1600 42 1.100000 0.833000 0.942000 600 50 1.000000 0.053000 0.053000 1.200000 0.068000 0.082000
1553829366981208142	800 48 1.000000 0.228000 0.231000 1600 43 1.100000 1.588000 1.803000 600 51 1.000000 0.053000 0.053000 1.200000 0.073000 0.088000
1553829367487375767	800 48 1.000000 0.293000 0.296000 1600 43 1.100000 1.332000 1.509000 600 50 1.000000 0.053000 0.053000 1.200000 0.076000 0.091000
1553829367993025725	800 44 1.000000 0.246000 0.249000 1600 42 1.100000 0.816000 0.924000 600 47 1.000000 0.053000 0.053000 1.200000 0.057000 0.068000
1553829368498774225	800 43 1.000000 0.241000 0.244000 1600 41 1.100000 0.758000 0.858000 600 47 1.000000 0.053000 0.053000 1.200000 0.058000 0.070000
1553829369025045725	800 45 1.000000 0.221000 0.224000 1600 41 1.100000 0.951000 1.079000 600 48 1.000000 0.053000 0.053000 1.200000 0.053000 0.064000
1553829369530776059	800 44 1.000000 0.229000 0.232000 1600 41 1.100000 0.807000 0.916000 600 47 1.000000 0.053000 0.053000 1.200000 0.054000 0.065000
1553829370036447184	800 43 1.000000 0.202000 0.206000 1600 41 1.100000 0.804000 0.913000 600 46 1.000000 0.053000 0.053000 1.200000 0.048000 0.057000
1553829370542325892	800 44 1.000000 0.237000 0.240000 1600 41 1.100000 0.738000 0.837000 600 47 1.000000 0.053000 0.053000 1.200000 0.056000 0.067000
1553829371062406184	800 47 1.000000 0.279000 0.282000 1600 41 1.100000 1.786000 2.028000 600 54 1.000000 0.053000 0.053000 1.200000 0.092000 0.111000
1553829371572675934	800 45 1.000000 0.295000 0.298000 1600 41 1.100000 1.136000 1.285000 600 47 1.000000 0.053000 0.053000 1.200000 0.077000 0.093000
1553829372078586475	800 50 1.000000 0.293000 0.296000 1600 42 1.100000 1.140000 1.290000 600 53 1.000000 0.053000 0.053000 1.200000 0.068000 0.082000
1553829372584669559	800 46 1.000000 0.292000 0.295000 1600 42 1.100000 1.773000 2.012000 600 49 1.000000 0.053000 0.053000 1.200000 0.084000 0.101000
1553829373099766184	800 45 1.000000 0.243000 0.246000 1600 42 1.100000 1.070000 1.212000 600 48 1.000000 0.053000 0.053000 1.200000 0.062000 0.075000
1553829373607420517	800 47 1.000000 0.205000 0.208000 1600 42 1.100000 1.916000 2.174000 600 49 1.000000 0.053000 0.053000 1.200000 0.107000 0.129000
1553829374113212767	800 44 1.000000 0.277000 0.280000 1600 42 1.100000 0.807000 0.912000 600 47 1.000000 0.053000 0.053000 1.200000 0.059000 0.071000
1553829374618978351	800 45 1.000000 0.289000 0.292000 1600 41 1.100000 0.905000 1.023000 600 46 1.000000 0.053000 0.053000 1.200000 0.062000 0.075000
1553829375124610226	800 44 1.000000 0.246000 0.249000 1600 41 1.100000 0.964000 1.094000 600 46 1.000000 0.053000 0.053000 1.200000 0.058000 0.070000
1553829375630262226	800 43 1.000000 0.236000 0.238000 1600 41 1.100000 0.686000 0.779000 600 46 1.000000 0.053000 0.053000 1.200000 0.053000 0.064000
1553829376135827684	800 42 1.000000 0.249000 0.252000 1600 40 1.100000 0.600000 0.681000 600 45 1.000000 0.053000 0.053000 1.200000 0.053000 0.064000
1553829376641494601	800 44 1.000000 0.246000 0.249000 1600 40 1.100000 0.723000 0.820000 600 48 1.000000 0.053000 0.053000 1.200000 0.056000 0.067000
1553829377147063476	800 43 1.000000 0.216000 0.219000 1600 40 1.100000 0.831000 0.944000 600 47 1.000000 0.053000 0.053000 1.200000 0.052000 0.062000
1553829377652952018	800 45 1.000000 0.253000 0.256000 1600 41 1.100000 2.182000 2.483000 600 55 1.000000 0.053000 0.053000 1.200000 0.080000 0.096000
1553829378165166643	800 46 1.000000 0.267000 0.270000 1600 41 1.100000 1.691000 1.919000 600 55 1.000000 0.053000 0.053000 1.200000 0.073000 0.088000
1553829378674391685	800 49 1.000000 0.291000 0.294000 1600 42 1.100000 1.590000 1.804000 600 55 1.000000 0.053000 0.053000 1.200000 0.070000 0.084000
1553829379181063560	800 50 1.000000 0.272000 0.275000 1600 43 1.100000 2.266000 2.578000 600 55 1.000000 0.053000 0.053000 1.200000 0.100000 0.121000
1553829379686868060	800 49 1.000000 0.292000 0.295000 1600 43 1.100000 1.924000 2.185000 600 52 1.000000 0.053000 0.053000 1.200000 0.080000 0.096000
1553829380193056893	800 52 1.000000 0.289000 0.292000 1600 44 1.100000 2.549000 2.900000 600 57 1.000000 0.053000 0.053000 1.200000 0.089000 0.107000
1553829380699147560	800 48 1.000000 0.284000 0.287000 1600 43 1.100000 0.749000 0.847000 600 50 1.000000 0.053000 0.053000 1.200000 0.074000 0.089000
1553829381210825435	800 46 1.000000 0.294000 0.297000 1600 43 1.100000 0.915000 1.035000 600 49 1.000000 0.053000 0.053000 1.200000 0.064000 0.077000
1553829381719324018	800 50 1.000000 0.283000 0.286000 1600 43 1.100000 1.781000 2.017000 600 51 1.000000 0.053000 0.053000 1.200000 0.093000 0.112000
1553829382225736768	800 47 1.000000 0.282000 0.285000 1600 43 1.100000 1.019000 1.153000 600 49 1.000000 0.053000 0.053000 1.200000 0.075000 0.090000
1553829382731897977	800 50 1.000000 0.290000 0.293000 1600 43 1.100000 0.983000 1.111000 600 54 1.000000 0.053000 0.053000 1.200000 0.067000 0.081000
1553829383238224977	800 48 1.000000 0.210000 0.213000 1600 43 1.100000 1.561000 1.768000 600 56 1.000000 0.053000 0.053000 1.200000 0.081000 0.098000
1553829383744401394	800 46 1.000000 0.254000 0.257000 1600 42 1.100000 1.035000 1.170000 600 48 1.000000 0.053000 0.053000 1.200000 0.069000 0.083000
1553829384250065727	800 43 1.000000 0.234000 0.237000 1600 42 1.100000 0.654000 0.740000 600 47 1.000000 0.053000 0.053000 1.200000 0.059000 0.071000
1553829384755622977	800 43 1.000000 0.239000 0.242000 1600 41 1.100000 0.715000 0.811000 600 46 1.000000 0.053000 0.053000 1.200000 0.054000 0.065000
1553829385261403769	800 44 1.000000 0.238000 0.241000 1600 41 1.100000 0.607000 0.690000 600 46 1.000000 0.053000 0.053000 1.200000 0.052000 0.062000
1553829385767145894	800 43 1.000000 0.220000 0.223000 1600 41 1.100000 1.005000 1.137000 600 46 1.000000 0.053000 0.053000 1.200000 0.057000 0.068000
1553829386273010894	800 44 1.000000 0.237000 0.240000 1600 40 1.100000 0.767000 0.871000 600 46 1.000000 0.053000 0.053000 1.200000 0.055000 0.066000
1553829386779719352	800 48 1.000000 0.233000 0.236000 1600 41 1.100000 0.857000 0.973000 600 52 1.000000 0.053000 0.053000 1.200000 0.063000 0.076000
1553829387285701686	800 45 1.000000 0.293000 0.295000 1600 42 1.100000 2.956000 3.372000 600 56 1.000000 0.053000 0.053000 1.200000 0.081000 0.098000
1553829387791544936	800 47 1.000000 0.291000 0.294000 1600 42 1.100000 1.737000 1.971000 600 52 1.000000 0.053000 0.053000 1.200000 0.076000 0.092000
1553829388297452144	800 52 1.000000 0.292000 0.295000 1600 43 1.100000 1.897000 2.153000 600 58 1.000000 0.053000 0.053000 1.200000 0.114000 0.138000
1553829388803393811	800 49 1.000000 0.238000 0.241000 1600 44 1.100000 3.037000 3.465000 600 59 1.000000 0.053000 0.053000 1.200000 0.092000 0.111000
1553829389310056686	800 48 1.000000 0.289000 0.292000 1600 43 1.100000 2.079000 2.361000 600 52 1.000000 0.053000 0.053000 1.200000 0.080000 0.096000
1553829389821777769	800 50 1.000000 0.250000 0.253000 1600 44 1.100000 1.241000 1.408000 600 58 1.000000 0.053000 0.053000 1.200000 0.112000 0.135000
1553829390327144603	800 48 1.000000 0.292000 0.295000 1600 44 1.100000 2.557000 2.909000 600 52 1.000000 0.053000 0.053000 1.200000 0.075000 0.090000
1553829390832773936	800 53 1.000000 0.293000 0.296000 1600 44 1.100000 1.736000 1.970000 600 58 1.000000 0.053000 0.053000 1.200000 0.080000 0.096000
1553829391337974644	800 52 1.000000 0.293000 0.296000 1600 45 1.100000 2.951000 3.367000 600 60 1.000000 0.053000 0.053000 1.200000 0.084000 0.101000
1553829391856803395	800 51 1.000000 0.296000 0.299000 1600 45 1.100000 2.212000 2.515000 600 57 1.000000 0.053000 0.053000 1.200000 0.078000 0.094000
1553829392365161020	800 51 1.000000 0.260000 0.263000 1600 45 1.100000 2.416000 2.749000 600 55 1.000000 0.053000 0.053000 1.200000 0.100000 0.121000
1553829392870262020	800 50 1.000000 0.295000 0.298000 1600 44 1.100000 0.785000 0.887000 600 51 1.000000 0.054000 0.054000 1.200000 0.068000 0.082000
1553829393375296520	800 47 1.000000 0.288000 0.291000 1600 44 1.100000 0.827000 0.935000 600 51 1.000000 0.053000 0.053000 1.200000 0.090000 0.108000
1553829393880850311	800 52 1.000000 0.280000 0.283000 1600 44 1.100000 0.852000 0.963000 600 54 1.000000 0.053000 0.053000 1.200000 0.085000 0.103000
1553829394386249353	800 46 1.000000 0.269000 0.272000 1600 43 1.100000 1.765000 2.003000 600 50 1.000000 0.053000 0.053000 1.200000 0.068000 0.082000
1553829394892366728	800 47 1.000000 0.280000 0.283000 1600 44 1.100000 1.990000 2.260000 600 51 1.000000 0.053000 0.053000 1.200000 0.087000 0.105000
1553829395398261103	800 46 1.000000 0.273000 0.276000 1600 43 1.100000 1.070000 1.211000 600 50 1.000000 0.053000 0.053000 1.200000 0.062000 0.075000
1553829395903970728	800 46 1.000000 0.270000 0.273000 1600 42 1.100000 0.834000 0.942000 600 48 1.000000 0.053000 0.053000 1.200000 0.061000 0.073000
1553829396409794020	800 45 1.000000 0.247000 0.250000 1600 42 1.100000 0.749000 0.847000 600 48 1.000000 0.053000 0.053000 1.200000 0.056000 0.067000
1553829396915569478	800 43 1.000000 0.252000 0.255000 1600 42 1.100000 0.651000 0.737000 600 46 1.000000 0.053000 0.053000 1.200000 0.056000 0.067000
1553829397421242520	800 44 1.000000 0.238000 0.241000 1600 41 1.100000 0.666000 0.755000 600 47 1.000000 0.053000 0.053000 1.200000 0.053000 0.064000
1553829397926845145	800 43 1.000000 0.221000 0.224000 1600 41 1.100000 0.668000 0.758000 600 47 1.000000 0.053000 0.053000 1.200000 0.052000 0.062000
1553829398435306270	800 45 1.000000 0.238000 0.241000 1600 41 1.100000 0.787000 0.893000 600 48 1.000000 0.053000 0.053000 1.200000 0.057000 0.068000
1553829398941518520	800 45 1.000000 0.223000 0.226000 1600 42 1.100000 2.572000 2.932000 600 49 1.000000 0.053000 0.053000 1.200000 0.090000 0.108000
1553829399447296979	800 46 1.000000 0.294000 0.297000 1600 42 1.100000 0.971000 1.098000 600 48 1.000000 0.053000 0.053000 1.200000 0.062000 0.075000
1553829399953319187	800 49 1.000000 0.290000 0.293000 1600 42 1.100000 0.943000 1.066000 600 53 1.000000 0.053000 0.053000 1.200000 0.064000 0.077000
1553829400459067021	800 46 1.000000 0.265000 0.268000 1600 42 1.100000 1.306000 1.479000 600 50 1.000000 0.053000 0.053000 1.200000 0.083000 0.100000
1553829400964735854	800 45 1.000000 0.247000 0.250000 1600 41 1.100000 0.864000 0.978000 600 48 1.000000 0.053000 0.053000 1.200000 0.060000 0.072000
1553829401470287437	800 44 1.000000 0.257000 0.260000 1600 41 1.100000 0.708000 0.802000 600 48 1.000000 0.053000 0.053000 1.200000 0.060000 0.072000
1553829401975955104	800 42 1.000000 0.186000 0.189000 1600 40 1.100000 0.474000 0.537000 600 45 1.000000 0.053000 0.053000 1.200000 0.057000 0.068000
1553829402489679646	800 42 1.000000 0.186000 0.189000 1600 40 1.100000 0.466000 0.528000 600 45 1.000000 0.053000 0.053000 1.200000 0.051000 0.061000
1553829402995329479	800 41 1.000000 0.188000 0.191000 1600 40 1.100000 0.660000 0.747000 600 45 1.000000 0.053000 0.053000 1.200000 0.051000 0.061000
1553829403500986146	800 40 1.000000 0.185000 0.188000 1600 39 1.100000 0.412000 0.468000 600 44 1.000000 0.053000 0.053000 1.200000 0.049000 0.059000
1553829404006574021	800 41 1.000000 0.184000 0.187000 1600 39 1.100000 0.465000 0.528000 600 44 1.000000 0.053000 0.053000 1.200000 0.049000 0.059000
1553829404518802313	800 41 1.000000 0.185000 0.188000 1600 39 1.100000 0.476000 0.540000 600 45 1.000000 0.053000 0.053000 1.200000 0.052000 0.062000
1553829405025169271	800 41 1.000000 0.196000 0.199000 1600 39 1.100000 0.794000 0.899000 600 46 1.000000 0.053000 0.053000 1.200000 0.057000 0.068000
1553829405530357479	800 40 1.000000 0.156000 0.159000 1600 38 1.100000 0.253000 0.287000 600 43 1.000000 0.053000 0.053000 1.200000 0.051000 0.061000
1553829406035688105	800 39 1.000000 0.102000 0.104000 1600 38 1.100000 0.228000 0.259000 600 43 1.000000 0.052000 0.052000 1.200000 0.038000 0.045000
1553829406540800188	800 38 1.000000 0.101000 0.103000 1600 38 1.100000 0.232000 0.264000 600 42 1.000000 0.053000 0.053000 1.200000 0.037000 0.044000
1553829407053852730	800 44 1.000000 0.104000 0.106000 1600 38 1.100000 1.412000 1.599000 600 45 1.000000 0.052000 0.052000 1.200000 0.048000 0.058000
1553829407560058230	800 49 1.000000 0.216000 0.219000 1600 41 1.100000 2.347000 2.668000 600 48 1.000000 0.053000 0.053000 1.200000 0.072000 0.087000
1553829408065872396	800 50 1.000000 0.234000 0.237000 1600 42 1.100000 2.310000 2.628000 600 48 1.000000 0.053000 0.053000 1.200000 0.060000 0.072000
1553829408571836271	800 47 1.000000 0.178000 0.181000 1600 41 1.100000 1.315000 1.489000 600 50 1.000000 0.053000 0.053000 1.200000 0.057000 0.068000
1553829409077966480	800 46 1.000000 0.253000 0.256000 1600 42 1.100000 2.046000 2.322000 600 51 1.000000 0.053000 0.053000 1.200000 0.071000 0.085000
1553829409585013897	800 50 1.000000 0.215000 0.217000 1600 42 1.100000 2.078000 2.360000 600 56 1.000000 0.053000 0.053000 1.200000 0.070000 0.084000
1553829410091177772	800 48 1.000000 0.241000 0.244000 1600 43 1.100000 2.744000 3.128000 600 58 1.000000 0.053000 0.053000 1.200000 0.114000 0.138000
1553829410597225688	800 46 1.000000 0.289000 0.292000 1600 43 1.100000 1.806000 2.049000 600 53 1.000000 0.053000 0.053000 1.200000 0.075000 0.090000
1553829411117680647	800 52 1.000000 0.289000 0.292000 1600 44 1.100000 2.863000 3.266000 600 59 1.000000 0.053000 0.053000 1.200000 0.097000 0.117000
1553829411624352564	800 47 1.000000 0.279000 0.282000 1600 44 1.100000 2.281000 2.595000 600 59 1.000000 0.053000 0.053000 1.200000 0.093000 0.112000
1553829412130605272	800 53 1.000000 0.285000 0.288000 1600 44 1.100000 2.099000 2.386000 600 59 1.000000 0.053000 0.053000 1.200000 0.080000 0.096000
1553829412636453480	800 48 1.000000 0.279000 0.282000 1600 44 1.100000 2.127000 2.416000 600 59 1.000000 0.053000 0.053000 1.200000 0.080000 0.096000
1553829413142718647	800 51 1.000000 0.292000 0.295000 1600 44 1.100000 1.820000 2.067000 600 59 1.000000 0.053000 0.053000 1.200000 0.076000 0.092000
1553829413649121689	800 52 1.000000 0.280000 0.283000 1600 45 1.100000 2.948000 3.363000 600 61 1.000000 0.053000 0.053000 1.200000 0.091000 0.110000
1553829414155308439	800 52 1.000000 0.280000 0.283000 1600 45 1.100000 1.631000 1.847000 600 53 1.000000 0.053000 0.053000 1.200000 0.074000 0.089000
1553829414661689939	800 52 1.000000 0.255000 0.258000 1600 45 1.100000 1.725000 1.957000 600 59 1.000000 0.053000 0.053000 1.200000 0.073000 0.088000
1553829415189138189	800 53 1.000000 0.292000 0.295000 1600 46 1.100000 2.842000 3.234000 600 60 1.000000 0.054000 0.054000 1.200000 0.085000 0.102000
1553829415697356439	800 55 1.000000 0.289000 0.292000 1600 46 1.100000 2.262000 2.574000 600 60 1.000000 0.053000 0.053000 1.200000 0.105000 0.127000
1553829416203597272	800 55 1.000000 0.291000 0.294000 1600 47 1.100000 2.982000 3.402000 600 60 1.000000 0.054000 0.054000 1.200000 0.091000 0.110000
1553829416718206314	800 50 1.000000 0.294000 0.297000 1600 46 1.100000 1.876000 2.129000 600 55 1.000000 0.054000 0.054000 1.200000 0.084000 0.101000
1553829417225379398	800 56 1.000000 0.292000 0.295000 1600 47 1.100000 2.898000 3.306000 600 61 1.000000 0.053000 0.053000 1.200000 0.099000 0.119000
1553829417731603439	800 56 1.000000 0.294000 0.297000 1600 47 1.100000 2.992000 3.413000 600 63 1.000000 0.054000 0.054000 1.200000 0.096000 0.116000
1553829418237963314	800 56 1.000000 0.292000 0.295000 1600 47 1.100000 2.222000 2.526000 600 62 1.000000 0.054000 0.054000 1.200000 0.087000 0.105000
1553829418744275689	800 51 1.000000 0.263000 0.266000 1600 46 1.100000 2.142000 2.435000 600 62 1.000000 0.054000 0.054000 1.200000 0.077000 0.093000
1553829419259942523	800 55 1.000000 0.232000 0.235000 1600 46 1.100000 1.838000 2.089000 600 62 1.000000 0.054000 0.054000 1.200000 0.069000 0.083000
1553829419765902106	800 56 1.000000 0.291000 0.294000 1600 47 1.100000 2.176000 2.474000 600 55 1.000000 0.054000 0.054000 1.200000 0.087000 0.105000
1553829420271546023	800 49 1.000000 0.293000 0.296000 1600 46 1.100000 1.256000 1.423000 600 53 1.000000 0.053000 0.053000 1.200000 0.071000 0.085000
1553829420777656023	800 55 1.000000 0.296000 0.299000 1600 46 1.100000 2.768000 3.155000 600 58 1.000000 0.053000 0.053000 1.200000 0.097000 0.117000
1553829421283305940	800 54 1.000000 0.290000 0.293000 1600 46 1.100000 2.270000 2.583000 600 60 1.000000 0.054000 0.054000 1.200000 0.085000 0.102000
1553829421788500273	800 50 1.000000 0.266000 0.269000 1600 46 1.100000 1.498000 1.697000 600 54 1.000000 0.054000 0.054000 1.200000 0.087000 0.105000
1553829422293306690	800 50 1.000000 0.294000 0.297000 1600 45 1.100000 1.655000 1.878000 600 53 1.000000 0.053000 0.053000 1.200000 0.071000 0.085000
1553829422798551357	800 49 1.000000 0.294000 0.297000 1600 45 1.100000 1.048000 1.185000 600 51 1.000000 0.053000 0.053000 1.200000 0.068000 0.082000
1553829423304081648	800 53 1.000000 0.264000 0.267000 1600 45 1.100000 1.297000 1.472000 600 58 1.000000 0.053000 0.053000 1.200000 0.066000 0.079000
1553829423809647607	800 53 1.000000 0.254000 0.257000 1600 46 1.100000 3.086000 3.521000 600 60 1.000000 0.053000 0.053000 1.200000 0.095000 0.115000
1553829424320751065	800 49 1.000000 0.232000 0.235000 1600 45 1.100000 1.980000 2.251000 600 55 1.000000 0.053000 0.053000 1.200000 0.063000 0.076000
1553829424826067815	800 49 1.000000 0.222000 0.225000 1600 45 1.100000 0.959000 1.086000 600 59 1.000000 0.054000 0.054000 1.200000 0.080000 0.096000
1553829425331198273	800 48 1.000000 0.295000 0.298000 1600 44 1.100000 1.906000 2.165000 600 51 1.000000 0.053000 0.053000 1.200000 0.064000 0.077000
1553829425836396774	800 48 1.000000 0.294000 0.297000 1600 44 1.100000 0.895000 1.012000 600 51 1.000000 0.053000 0.053000 1.200000 0.064000 0.077000
1553829426363346065	800 47 1.000000 0.243000 0.246000 1600 44 1.100000 1.384000 1.568000 600 53 1.000000 0.053000 0.053000 1.200000 0.088000 0.106000
1553829426868446190	800 48 1.000000 0.294000 0.297000 1600 44 1.100000 1.209000 1.368000 600 51 1.000000 0.053000 0.053000 1.200000 0.062000 0.075000
1553829427375066774	800 49 1.000000 0.290000 0.293000 1600 43 1.100000 1.111000 1.256000 600 50 1.000000 0.053000 0.053000 1.200000 0.067000 0.081000
1553829427880062524	800 47 1.000000 0.292000 0.295000 1600 44 1.100000 2.267000 2.577000 600 51 1.000000 0.053000 0.053000 1.200000 0.072000 0.087000
1553829428400815524	800 46 1.000000 0.295000 0.298000 1600 43 1.100000 1.121000 1.268000 600 50 1.000000 0.053000 0.053000 1.200000 0.064000 0.077000
1553829428906095399	800 47 1.000000 0.295000 0.298000 1600 43 1.100000 1.023000 1.158000 600 48 1.000000 0.053000 0.053000 1.200000 0.069000 0.083000
1553829429411237607	800 44 1.000000 0.243000 0.246000 1600 42 1.100000 0.843000 0.956000 600 47 1.000000 0.053000 0.053000 1.200000 0.056000 0.067000
1553829429922639941	800 47 1.000000 0.244000 0.247000 1600 42 1.100000 0.686000 0.779000 600 48 1.000000 0.053000 0.053000 1.200000 0.054000 0.065000
1553829430444730982	800 45 1.000000 0.244000 0.247000 1600 42 1.100000 1.019000 1.156000 600 48 1.000000 0.053000 0.053000 1.200000 0.055000 0.066000
1553829430958528899	800 47 1.000000 0.241000 0.244000 1600 42 1.100000 0.910000 1.032000 600 49 1.000000 0.053000 0.053000 1.200000 0.055000 0.066000
1553829431463978983	800 52 1.000000 0.281000 0.284000 1600 43 1.100000 1.710000 1.944000 600 56 1.000000 0.053000 0.053000 1.200000 0.083000 0.100000
1553829431976579108	800 52 1.000000 0.251000 0.254000 1600 44 1.100000 2.605000 2.964000 600 50 1.000000 0.053000 0.053000 1.200000 0.071000 0.085000
1553829432508081691	800 50 1.000000 0.263000 0.266000 1600 43 1.100000 1.762000 1.999000 600 54 1.000000 0.053000 0.053000 1.200000 0.067000 0.081000
1553829433024300149	800 47 1.000000 0.288000 0.291000 1600 44 1.100000 2.568000 2.922000 600 52 1.000000 0.053000 0.053000 1.200000 0.089000 0.107000
1553829433529745399	800 49 1.000000 0.290000 0.293000 1600 44 1.100000 1.421000 1.608000 600 50 1.000000 0.053000 0.053000 1.200000 0.073000 0.088000
1553829434036009275	800 53 1.000000 0.287000 0.290000 1600 44 1.100000 1.431000 1.621000 600 57 1.000000 0.053000 0.053000 1.200000 0.103000 0.124000
1553829434563347900	800 50 1.000000 0.275000 0.278000 1600 44 1.100000 3.048000 3.477000 600 56 1.000000 0.053000 0.053000 1.200000 0.083000 0.100000
1553829435069146400	800 48 1.000000 0.278000 0.281000 1600 44 1.100000 1.619000 1.837000 600 52 1.000000 0.053000 0.053000 1.200000 0.085000 0.102000
1553829435574842483	800 46 1.000000 0.274000 0.277000 1600 43 1.100000 0.737000 0.833000 600 49 1.000000 0.053000 0.053000 1.200000 0.058000 0.070000
1553829436080541733	800 46 1.000000 0.217000 0.220000 1600 43 1.100000 0.804000 0.910000 600 49 1.000000 0.053000 0.053000 1.200000 0.056000 0.067000
1553829436586124525	800 45 1.000000 0.246000 0.249000 1600 42 1.100000 1.080000 1.223000 600 48 1.000000 0.053000 0.053000 1.200000 0.056000 0.067000
1553829437091798025	800 46 1.000000 0.220000 0.223000 1600 42 1.100000 0.803000 0.911000 600 48 1.000000 0.053000 0.053000 1.200000 0.054000 0.065000
1553829437597329358	800 44 1.000000 0.224000 0.227000 1600 41 1.100000 0.581000 0.658000 600 47 1.000000 0.053000 0.053000 1.200000 0.053000 0.064000
1553829438102908692	800 43 1.000000 0.204000 0.207000 1600 41 1.100000 0.798000 0.906000 600 47 1.000000 0.053000 0.053000 1.200000 0.053000 0.064000
1553829438608604650	800 44 1.000000 0.234000 0.237000 1600 41 1.100000 0.580000 0.658000 600 47 1.000000 0.053000 0.053000 1.200000 0.056000 0.067000
1553829439114060400	800 47 1.000000 0.241000 0.244000 1600 42 1.100000 0.925000 1.047000 600 54 1.000000 0.053000 0.053000 1.200000 0.080000 0.096000
1553829439619318900	800 45 1.000000 0.295000 0.298000 1600 42 1.100000 2.118000 2.408000 600 48 1.000000 0.053000 0.053000 1.200000 0.069000 0.083000
1553829440124772734	800 46 1.000000 0.293000 0.296000 1600 42 1.100000 0.926000 1.047000 600 47 1.000000 0.053000 0.053000 1.200000 0.067000 0.081000
1553829440630731734	800 47 1.000000 0.282000 0.285000 1600 43 1.100000 2.081000 2.364000 600 56 1.000000 0.053000 0.053000 1.200000 0.076000 0.092000
1553829441136149734	800 45 1.000000 0.287000 0.290000 1600 42 1.100000 1.249000 1.412000 600 49 1.000000 0.053000 0.053000 1.200000 0.086000 0.104000
1553829441645535317	800 46 1.000000 0.275000 0.278000 1600 42 1.100000 0.776000 0.876000 600 48 1.000000 0.053000 0.053000 1.200000 0.066000 0.079000
1553829442150676317	800 47 1.000000 0.247000 0.250000 1600 43 1.100000 2.572000 2.932000 600 57 1.000000 0.053000 0.053000 1.200000 0.094000 0.113000
1553829442655682234	800 46 1.000000 0.292000 0.295000 1600 43 1.100000 0.861000 0.973000 600 50 1.000000 0.053000 0.053000 1.200000 0.072000 0.087000
1553829443160832901	800 45 1.000000 0.291000 0.294000 1600 42 1.100000 1.379000 1.562000 600 50 1.000000 0.053000 0.053000 1.200000 0.072000 0.087000
1553829443665990859	800 43 1.000000 0.190000 0.193000 1600 41 1.100000 0.840000 0.954000 600 47 1.000000 0.053000 0.053000 1.200000 0.052000 0.062000
1553829444171048109	800 44 1.000000 0.218000 0.221000 1600 41 1.100000 0.529000 0.600000 600 47 1.000000 0.053000 0.053000 1.200000 0.052000 0.062000
1553829444681180817	800 43 1.000000 0.237000 0.240000 1600 41 1.100000 0.705000 0.800000 600 46 1.000000 0.053000 0.053000 1.200000 0.052000 0.062000
1553829445189662068	800 45 1.000000 0.224000 0.227000 1600 41 1.100000 0.957000 1.086000 600 48 1.000000 0.053000 0.053000 1.200000 0.060000 0.072000
1553829445694908068	800 45 1.000000 0.282000 0.285000 1600 42 1.100000 2.280000 2.592000 600 49 1.000000 0.053000 0.053000 1.200000 0.082000 0.099000
1553829446199979526	800 45 1.000000 0.294000 0.297000 1600 42 1.100000 0.862000 0.975000 600 48 1.000000 0.053000 0.053000 1.200000 0.062000 0.075000
1553829446712486151	800 47 1.000000 0.289000 0.292000 1600 42 1.100000 0.817000 0.924000 600 53 1.000000 0.053000 0.053000 1.200000 0.067000 0.081000
1553829447218111026	800 47 1.000000 0.259000 0.262000 1600 42 1.100000 2.137000 2.429000 600 53 1.000000 0.053000 0.053000 1.200000 0.081000 0.098000
1553829447724310901	800 46 1.000000 0.269000 0.272000 1600 42 1.100000 0.911000 1.030000 600 49 1.000000 0.053000 0.053000 1.200000 0.067000 0.081000
1553829448230295860	800 49 1.000000 0.231000 0.234000 1600 42 1.100000 1.152000 1.307000 600 53 1.000000 0.053000 0.053000 1.200000 0.057000 0.068000
1553829448735670151	800 45 1.000000 0.252000 0.256000 1600 42 1.100000 1.825000 2.071000 600 50 1.000000 0.053000 0.053000 1.200000 0.087000 0.105000
1553829449240985526	800 45 1.000000 0.290000 0.293000 1600 42 1.100000 1.006000 1.137000 600 49 1.000000 0.053000 0.053000 1.200000 0.069000 0.083000
1553829449746143193	800 44 1.000000 0.224000 0.227000 1600 41 1.100000 0.911000 1.033000 600 48 1.000000 0.053000 0.053000 1.200000 0.058000 0.070000
1553829450251376735	800 44 1.000000 0.188000 0.191000 1600 41 1.100000 0.756000 0.858000 600 48 1.000000 0.053000 0.053000 1.200000 0.049000 0.059000
1553829450756486693	800 43 1.000000 0.200000 0.203000 1600 41 1.100000 0.702000 0.797000 600 46 1.000000 0.053000 0.053000 1.200000 0.050000 0.060000
1553829451261633402	800 43 1.000000 0.240000 0.243000 1600 41 1.100000 0.940000 1.066000 600 47 1.000000 0.053000 0.053000 1.200000 0.054000 0.065000
1553829451777393943	800 45 1.000000 0.217000 0.220000 1600 41 1.100000 0.756000 0.858000 600 48 1.000000 0.053000 0.053000 1.200000 0.053000 0.064000
1553829452291481943	800 45 1.000000 0.266000 0.269000 1600 42 1.100000 2.412000 2.744000 600 49 1.000000 0.053000 0.053000 1.200000 0.097000 0.117000
1553829452797331443	800 47 1.000000 0.294000 0.297000 1600 41 1.100000 0.912000 1.031000 600 48 1.000000 0.053000 0.053000 1.200000 0.063000 0.076000
1553829453303948152	800 48 1.000000 0.265000 0.268000 1600 42 1.100000 1.206000 1.366000 600 53 1.000000 0.053000 0.053000 1.200000 0.066000 0.079000
1553829453811171444	800 47 1.000000 0.260000 0.263000 1600 42 1.100000 1.898000 2.154000 600 50 1.000000 0.053000 0.053000 1.200000 0.090000 0.108000
1553829454317035360	800 46 1.000000 0.278000 0.281000 1600 42 1.100000 0.855000 0.967000 600 48 1.000000 0.053000 0.053000 1.200000 0.060000 0.072000
1553829454822935944	800 45 1.000000 0.246000 0.249000 1600 42 1.100000 1.688000 1.919000 600 52 1.000000 0.053000 0.053000 1.200000 0.066000 0.079000
1553829455329011527	800 46 1.000000 0.237000 0.240000 1600 42 1.100000 1.059000 1.198000 600 49 1.000000 0.053000 0.053000 1.200000 0.075000 0.090000
1553829455834849277	800 44 1.000000 0.261000 0.264000 1600 42 1.100000 0.869000 0.982000 600 47 1.000000 0.053000 0.053000 1.200000 0.064000 0.077000
1553829456340620527	800 44 1.000000 0.294000 0.297000 1600 41 1.100000 0.845000 0.955000 600 48 1.000000 0.053000 0.053000 1.200000 0.062000 0.075000
1553829456846332777	800 43 1.000000 0.216000 0.219000 1600 41 1.100000 0.637000 0.723000 600 46 1.000000 0.053000 0.053000 1.200000 0.056000 0.067000
1553829457351750361	800 45 1.000000 0.216000 0.219000 1600 41 1.100000 0.828000 0.939000 600 47 1.000000 0.053000 0.053000 1.200000 0.051000 0.061000
1553829457857842444	800 45 1.000000 0.235000 0.238000 1600 41 1.100000 0.812000 0.922000 600 46 1.000000 0.053000 0.053000 1.200000 0.055000 0.066000
1553829458364240111	800 49 1.000000 0.234000 0.237000 1600 41 1.100000 0.946000 1.074000 600 52 1.000000 0.053000 0.053000 1.200000 0.057000 0.068000
1553829458870218319	800 45 1.000000 0.294000 0.297000 1600 41 1.100000 1.406000 1.592000 600 48 1.000000 0.053000 0.053000 1.200000 0.085000 0.102000
1553829459383686861	800 45 1.000000 0.293000 0.296000 1600 41 1.100000 1.051000 1.189000 600 47 1.000000 0.053000 0.053000 1.200000 0.066000 0.079000
1553829459890139236	800 46 1.000000 0.257000 0.259000 1600 42 1.100000 2.188000 2.487000 600 50 1.000000 0.053000 0.053000 1.200000 0.093000 0.112000
1553829460401413903	800 46 1.000000 0.294000 0.297000 1600 42 1.100000 0.811000 0.918000 600 48 1.000000 0.053000 0.053000 1.200000 0.064000 0.077000
1553829460907386153	800 45 1.000000 0.293000 0.296000 1600 41 1.100000 0.828000 0.936000 600 47 1.000000 0.053000 0.053000 1.200000 0.062000 0.075000
1553829461413292444	800 45 1.000000 0.240000 0.243000 1600 42 1.100000 0.825000 0.934000 600 51 1.000000 0.053000 0.053000 1.200000 0.074000 0.089000
1553829461919296153	800 51 1.000000 0.256000 0.259000 1600 43 1.100000 1.927000 2.189000 600 51 1.000000 0.053000 0.053000 1.200000 0.095000 0.115000
1553829462424974320	800 44 1.000000 0.263000 0.266000 1600 42 1.100000 2.281000 2.593000 600 48 1.000000 0.053000 0.053000 1.200000 0.068000 0.082000
1553829462930807111	800 43 1.000000 0.267000 0.270000 1600 41 1.100000 0.687000 0.776000 600 46 1.000000 0.053000 0.053000 1.200000 0.060000 0.072000
1553829463436508778	800 45 1.000000 0.254000 0.257000 1600 41 1.100000 0.640000 0.724000 600 47 1.000000 0.053000 0.053000 1.200000 0.055000 0.066000
1553829463942332736	800 43 1.000000 0.241000 0.244000 1600 41 1.100000 0.659000 0.748000 600 46 1.000000 0.053000 0.053000 1.200000 0.055000 0.066000
1553829464448034736	800 43 1.000000 0.239000 0.242000 1600 40 1.100000 0.679000 0.770000 600 46 1.000000 0.053000 0.053000 1.200000 0.055000 0.066000
1553829464954155153	800 46 1.000000 0.277000 0.280000 1600 42 1.100000 1.400000 1.590000 600 54 1.000000 0.053000 0.053000 1.200000 0.098000 0.118000
1553829465459878945	800 49 1.000000 0.294000 0.297000 1600 43 1.100000 2.382000 2.710000 600 51 1.000000 0.053000 0.053000 1.200000 0.079000 0.095000
1553829465966070945	800 50 1.000000 0.277000 0.280000 1600 42 1.100000 1.163000 1.316000 600 53 1.000000 0.053000 0.053000 1.200000 0.072000 0.087000
1553829466472328487	800 49 1.000000 0.242000 0.245000 1600 44 1.100000 2.758000 3.146000 600 53 1.000000 0.053000 0.053000 1.200000 0.093000 0.112000
1553829466978016153	800 47 1.000000 0.282000 0.285000 1600 43 1.100000 1.581000 1.794000 600 51 1.000000 0.053000 0.053000 1.200000 0.070000 0.084000
1553829467484834195	800 51 1.000000 0.289000 0.292000 1600 43 1.100000 1.099000 1.244000 600 52 1.000000 0.053000 0.053000 1.200000 0.072000 0.087000
1553829467998106320	800 51 1.000000 0.283000 0.286000 1600 44 1.100000 2.924000 3.336000 600 59 1.000000 0.053000 0.053000 1.200000 0.087000 0.105000
1553829468503829737	800 47 1.000000 0.267000 0.270000 1600 44 1.100000 2.073000 2.354000 600 53 1.000000 0.053000 0.053000 1.200000 0.069000 0.083000
1553829469016032237	800 48 1.000000 0.273000 0.276000 1600 43 1.100000 1.352000 1.531000 600 52 1.000000 0.053000 0.053000 1.200000 0.063000 0.076000
1553829469522029445	800 48 1.000000 0.280000 0.283000 1600 43 1.100000 1.684000 1.913000 600 51 1.000000 0.053000 0.053000 1.200000 0.091000 0.110000
1553829470033451612	800 46 1.000000 0.295000 0.298000 1600 43 1.100000 0.993000 1.123000 600 49 1.000000 0.053000 0.053000 1.200000 0.066000 0.079000
1553829470540463446	800 46 1.000000 0.288000 0.291000 1600 43 1.100000 1.174000 1.328000 600 51 1.000000 0.053000 0.053000 1.200000 0.080000 0.096000
1553829471046299737	800 47 1.000000 0.256000 0.259000 1600 44 1.100000 1.731000 1.966000 600 51 1.000000 0.053000 0.053000 1.200000 0.097000 0.117000
1553829471552466446	800 47 1.000000 0.256000 0.259000 1600 43 1.100000 1.006000 1.137000 600 49 1.000000 0.053000 0.053000 1.200000 0.065000 0.078000
1553829472060507987	800 53 1.000000 0.261000 0.264000 1600 44 1.100000 0.837000 0.946000 600 54 1.000000 0.053000 0.053000 1.200000 0.092000 0.111000
1553829472566187987	800 46 1.000000 0.250000 0.253000 1600 43 1.100000 2.707000 3.080000 600 50 1.000000 0.053000 0.053000 1.200000 0.070000 0.084000
1553829473071374279	800 44 1.000000 0.242000 0.245000 1600 42 1.100000 0.655000 0.742000 600 49 1.000000 0.053000 0.053000 1.200000 0.052000 0.062000
1553829473576552071	800 44 1.000000 0.189000 0.192000 1600 42 1.100000 0.835000 0.947000 600 48 1.000000 0.053000 0.053000 1.200000 0.052000 0.062000
1553829474081664904	800 43 1.000000 0.230000 0.233000 1600 41 1.100000 0.668000 0.758000 600 46 1.000000 0.053000 0.053000 1.200000 0.051000 0.061000
1553829474586724863	800 43 1.000000 0.216000 0.219000 1600 41 1.100000 0.950000 1.078000 600 47 1.000000 0.053000 0.053000 1.200000 0.052000 0.062000
1553829475092014613	800 45 1.000000 0.241000 0.244000 1600 41 1.100000 0.797000 0.904000 600 46 1.000000 0.053000 0.053000 1.200000 0.055000 0.066000
1553829475597194196	800 44 1.000000 0.246000 0.249000 1600 41 1.100000 0.669000 0.757000 600 48 1.000000 0.053000 0.053000 1.200000 0.057000 0.068000
1553829476102306863	800 44 1.000000 0.273000 0.276000 1600 42 1.100000 1.830000 2.078000 600 48 1.000000 0.053000 0.053000 1.200000 0.091000 0.110000
1553829476607496863	800 46 1.000000 0.293000 0.296000 1600 42 1.100000 0.757000 0.856000 600 48 1.000000 0.053000 0.053000 1.200000 0.069000 0.083000
1553829477113565321	800 51 1.000000 0.285000 0.288000 1600 43 1.100000 0.926000 1.047000 600 55 1.000000 0.053000 0.053000 1.200000 0.089000 0.107000
1553829477618963613	800 45 1.000000 0.283000 0.286000 1600 42 1.100000 2.097000 2.382000 600 49 1.000000 0.053000 0.053000 1.200000 0.073000 0.088000
1553829478124165280	800 44 1.000000 0.293000 0.296000 1600 42 1.100000 0.731000 0.826000 600 48 1.000000 0.053000 0.053000 1.200000 0.064000 0.077000
1553829478629416780	800 47 1.000000 0.255000 0.258000 1600 43 1.100000 2.103000 2.393000 600 56 1.000000 0.053000 0.053000 1.200000 0.107000 0.129000
1553829479134485030	800 46 1.000000 0.292000 0.295000 1600 42 1.100000 0.887000 1.003000 600 49 1.000000 0.053000 0.053000 1.200000 0.066000 0.079000
1553829479639583905	800 46 1.000000 0.261000 0.264000 1600 42 1.100000 0.694000 0.788000 600 49 1.000000 0.053000 0.053000 1.200000 0.066000 0.079000
1553829480145117572	800 45 1.000000 0.193000 0.197000 1600 41 1.100000 0.719000 0.816000 600 46 1.000000 0.053000 0.053000 1.200000 0.049000 0.059000
1553829480650191030	800 43 1.000000 0.229000 0.232000 1600 41 1.100000 0.644000 0.731000 600 47 1.000000 0.053000 0.053000 1.200000 0.052000 0.062000
1553829481155204405	800 43 1.000000 0.226000 0.229000 1600 41 1.100000 0.792000 0.898000 600 47 1.000000 0.053000 0.053000 1.200000 0.052000 0.062000
1553829481660449489	800 44 1.000000 0.231000 0.234000 1600 41 1.100000 0.688000 0.781000 600 46 1.000000 0.053000 0.053000 1.200000 0.051000 0.061000
1553829482166677655	800 49 1.000000 0.213000 0.216000 1600 41 1.100000 0.821000 0.931000 600 53 1.000000 0.053000 0.053000 1.200000 0.057000 0.068000
1553829482676001197	800 47 1.000000 0.252000 0.255000 1600 42 1.100000 3.051000 3.481000 600 53 1.000000 0.053000 0.053000 1.200000 0.102000 0.123000
1553829483181024530	800 45 1.000000 0.264000 0.267000 1600 42 1.100000 1.674000 1.899000 600 49 1.000000 0.053000 0.053000 1.200000 0.070000 0.084000
1553829483686335572	800 51 1.000000 0.269000 0.272000 1600 43 1.100000 1.406000 1.592000 600 56 1.000000 0.053000 0.053000 1.200000 0.065000 0.078000
1553829484191574489	800 49 1.000000 0.294000 0.297000 1600 43 1.100000 2.421000 2.752000 600 52 1.000000 0.053000 0.053000 1.200000 0.086000 0.104000
1553829484702576239	800 49 1.000000 0.290000 0.293000 1600 44 1.100000 2.062000 2.342000 600 55 1.000000 0.053000 0.053000 1.200000 0.076000 0.092000
1553829485216808031	800 53 1.000000 0.274000 0.277000 1600 44 1.100000 2.030000 2.306000 600 58 1.000000 0.053000 0.053000 1.200000 0.089000 0.107000
1553829485723329406	800 50 1.000000 0.256000 0.259000 1600 44 1.100000 1.174000 1.328000 600 51 1.000000 0.053000 0.053000 1.200000 0.085000 0.102000
1553829486230420239	800 47 1.000000 0.264000 0.267000 1600 43 1.100000 1.062000 1.202000 600 50 1.000000 0.053000 0.053000 1.200000 0.092000 0.111000
1553829486735916239	800 49 1.000000 0.241000 0.244000 1600 44 1.100000 1.871000 2.123000 600 51 1.000000 0.053000 0.053000 1.200000 0.072000 0.087000
1553829487250321864	800 47 1.000000 0.290000 0.293000 1600 44 1.100000 1.739000 1.973000 600 50 1.000000 0.053000 0.053000 1.200000 0.100000 0.121000
1553829487756444031	800 48 1.000000 0.234000 0.237000 1600 43 1.100000 0.805000 0.910000 600 49 1.000000 0.053000 0.053000 1.200000 0.069000 0.083000
1553829488262082073	800 47 1.000000 0.227000 0.231000 1600 43 1.100000 1.988000 2.258000 600 49 1.000000 0.053000 0.053000 1.200000 0.068000 0.082000
1553829488767826364	800 45 1.000000 0.240000 0.243000 1600 42 1.100000 0.804000 0.910000 600 49 1.000000 0.053000 0.053000 1.200000 0.058000 0.070000
1553829489273518864	800 45 1.000000 0.230000 0.233000 1600 42 1.100000 1.096000 1.240000 600 48 1.000000 0.053000 0.053000 1.200000 0.060000 0.072000
1553829489779141823	800 43 1.000000 0.231000 0.234000 1600 41 1.100000 0.490000 0.556000 600 46 1.000000 0.053000 0.053000 1.200000 0.052000 0.062000
1553829490284746990	800 42 1.000000 0.225000 0.228000 1600 41 1.100000 0.666000 0.756000 600 45 1.000000 0.053000 0.053000 1.200000 0.055000 0.066000
1553829490790397323	800 43 1.000000 0.238000 0.241000 1600 41 1.100000 0.552000 0.626000 600 46 1.000000 0.053000 0.053000 1.200000 0.051000 0.061000
1553829491296176448	800 44 1.000000 0.213000 0.216000 1600 41 1.100000 1.066000 1.209000 600 46 1.000000 0.053000 0.053000 1.200000 0.054000 0.065000
1553829491806245198	800 49 1.000000 0.234000 0.237000 1600 42 1.100000 1.636000 1.860000 600 54 1.000000 0.053000 0.053000 1.200000 0.056000 0.067000
1553829492312693240	800 45 1.000000 0.279000 0.282000 1600 42 1.100000 0.954000 1.078000 600 48 1.000000 0.053000 0.053000 1.200000 0.080000 0.096000
1553829492818730948	800 45 1.000000 0.294000 0.297000 1600 41 1.100000 0.873000 0.987000 600 47 1.000000 0.053000 0.053000 1.200000 0.064000 0.077000
1553829493324649115	800 52 1.000000 0.288000 0.291000 1600 43 1.100000 3.026000 3.455000 600 56 1.000000 0.053000 0.053000 1.200000 0.104000 0.126000
1553829493843627865	800 47 1.000000 0.274000 0.277000 1600 42 1.100000 2.051000 2.329000 600 49 1.000000 0.053000 0.053000 1.200000 0.110000 0.133000
1553829494348910115	800 45 1.000000 0.238000 0.241000 1600 42 1.100000 0.949000 1.077000 600 49 1.000000 0.053000 0.053000 1.200000 0.062000 0.075000
1553829494854262240	800 50 1.000000 0.205000 0.209000 1600 42 1.100000 1.587000 1.801000 600 54 1.000000 0.053000 0.053000 1.200000 0.061000 0.073000
1553829495363645532	800 45 1.000000 0.289000 0.292000 1600 42 1.100000 1.080000 1.221000 600 49 1.000000 0.053000 0.053000 1.200000 0.087000 0.105000
1553829495884797990	800 44 1.000000 0.258000 0.261000 1600 42 1.100000 0.791000 0.896000 600 47 1.000000 0.053000 0.053000 1.200000 0.068000 0.082000
1553829496389961074	800 44 1.000000 0.231000 0.234000 1600 41 1.100000 0.591000 0.670000 600 47 1.000000 0.053000 0.053000 1.200000 0.059000 0.071000
1553829496895143365	800 42 1.000000 0.188000 0.191000 1600 41 1.100000 0.568000 0.645000 600 46 1.000000 0.053000 0.053000 1.200000 0.049000 0.059000
1553829497408229282	800 44 1.000000 0.233000 0.236000 1600 40 1.100000 0.579000 0.657000 600 45 1.000000 0.053000 0.053000 1.200000 0.052000 0.062000
1553829497926609615	800 44 1.000000 0.225000 0.228000 1600 40 1.100000 0.754000 0.856000 600 47 1.000000 0.053000 0.053000 1.200000 0.057000 0.068000
1553829498434138616	800 48 1.000000 0.222000 0.225000 1600 41 1.100000 1.594000 1.810000 600 51 1.000000 0.053000 0.053000 1.200000 0.081000 0.098000
1553829498944499824	800 51 1.000000 0.282000 0.285000 1600 43 1.100000 2.478000 2.819000 600 51 1.000000 0.053000 0.053000 1.200000 0.085000 0.102000
1553829499449622782	800 45 1.000000 0.293000 0.296000 1600 42 1.100000 1.563000 1.770000 600 48 1.000000 0.053000 0.053000 1.200000 0.071000 0.085000
1553829499973712907	800 53 1.000000 0.287000 0.289000 1600 44 1.100000 2.040000 2.319000 600 56 1.000000 0.053000 0.053000 1.200000 0.121000 0.146000
1553829500479202199	800 50 1.000000 0.284000 0.287000 1600 44 1.100000 2.230000 2.535000 600 53 1.000000 0.053000 0.053000 1.200000 0.076000 0.091000
1553829500985733574	800 48 1.000000 0.284000 0.287000 1600 43 1.100000 1.368000 1.549000 600 53 1.000000 0.053000 0.053000 1.200000 0.068000 0.082000
1553829501491575199	800 54 1.000000 0.247000 0.250000 1600 45 1.100000 2.845000 3.246000 600 58 1.000000 0.053000 0.053000 1.200000 0.099000 0.119000
1553829502011869241	800 50 1.000000 0.251000 0.254000 1600 44 1.100000 3.003000 3.426000 600 51 1.000000 0.053000 0.053000 1.200000 0.085000 0.102000
1553829502521087158	800 51 1.000000 0.275000 0.278000 1600 44 1.100000 1.284000 1.453000 600 55 1.000000 0.053000 0.053000 1.200000 0.070000 0.084000
1553829503027392866	800 48 1.000000 0.279000 0.282000 1600 44 1.100000 1.785000 2.025000 600 53 1.000000 0.053000 0.053000 1.200000 0.100000 0.121000
1553829503533053783	800 50 1.000000 0.293000 0.296000 1600 44 1.100000 1.839000 2.087000 600 51 1.000000 0.053000 0.053000 1.200000 0.072000 0.087000
1553829504049021950	800 52 1.000000 0.282000 0.285000 1600 44 1.100000 0.886000 1.002000 600 55 1.000000 0.053000 0.053000 1.200000 0.070000 0.084000
1553829504559752283	800 54 1.000000 0.278000 0.281000 1600 45 1.100000 2.411000 2.743000 600 53 1.000000 0.053000 0.053000 1.200000 0.102000 0.123000
1553829505065494241	800 47 1.000000 0.293000 0.296000 1600 44 1.100000 1.907000 2.164000 600 51 1.000000 0.053000 0.053000 1.200000 0.072000 0.087000
1553829505571326200	800 47 1.000000 0.288000 0.291000 1600 43 1.100000 0.711000 0.803000 600 50 1.000000 0.053000 0.053000 1.200000 0.064000 0.077000
1553829506085844450	800 52 1.000000 0.276000 0.279000 1600 44 1.100000 0.831000 0.939000 600 56 1.000000 0.053000 0.053000 1.200000 0.089000 0.107000
1553829506592221325	800 50 1.000000 0.249000 0.252000 1600 45 1.100000 3.140000 3.585000 600 54 1.000000 0.053000 0.053000 1.200000 0.085000 0.102000
1553829507098260825	800 49 1.000000 0.275000 0.278000 1600 44 1.100000 1.790000 2.033000 600 54 1.000000 0.053000 0.053000 1.200000 0.070000 0.084000
1553829507603811992	800 54 1.000000 0.249000 0.252000 1600 45 1.100000 1.870000 2.124000 600 58 1.000000 0.053000 0.053000 1.200000 0.092000 0.111000
1553829508108946033	800 54 1.000000 0.277000 0.280000 1600 45 1.100000 2.159000 2.454000 600 53 1.000000 0.053000 0.053000 1.200000 0.073000 0.088000
1553829508615742783	800 51 1.000000 0.294000 0.297000 1600 45 1.100000 1.889000 2.144000 600 55 1.000000 0.053000 0.053000 1.200000 0.067000 0.081000
1553829509121464367	800 54 1.000000 0.272000 0.274000 1600 46 1.100000 1.755000 1.993000 600 58 1.000000 0.053000 0.053000 1.200000 0.113000 0.136000
1553829509626972575	800 52 1.000000 0.294000 0.297000 1600 45 1.100000 2.604000 2.968000 600 60 1.000000 0.053000 0.053000 1.200000 0.082000 0.099000
1553829510150220867	800 53 1.000000 0.289000 0.292000 1600 46 1.100000 2.033000 2.309000 600 57 1.000000 0.054000 0.054000 1.200000 0.076000 0.091000
1553829510656123659	800 56 1.000000 0.256000 0.259000 1600 47 1.100000 3.015000 3.440000 600 60 1.000000 0.054000 0.054000 1.200000 0.108000 0.130000
1553829511162476284	800 57 1.000000 0.294000 0.297000 1600 47 1.100000 2.171000 2.466000 600 62 1.000000 0.053000 0.053000 1.200000 0.094000 0.113000
1553829511668626950	800 53 1.000000 0.270000 0.273000 1600 47 1.100000 3.037000 3.465000 600 59 1.000000 0.054000 0.054000 1.200000 0.090000 0.108000
1553829512176149617	800 52 1.000000 0.293000 0.296000 1600 47 1.100000 2.178000 2.474000 600 56 1.000000 0.053000 0.053000 1.200000 0.078000 0.094000
1553829512682537742	800 53 1.000000 0.284000 0.287000 1600 47 1.100000 2.842000 3.242000 600 61 1.000000 0.054000 0.054000 1.200000 0.099000 0.119000
1553829513188946326	800 56 1.000000 0.292000 0.295000 1600 47 1.100000 2.539000 2.889000 600 62 1.000000 0.053000 0.053000 1.200000 0.089000 0.107000
1553829513695430409	800 57 1.000000 0.282000 0.285000 1600 48 1.100000 2.239000 2.547000 600 63 1.000000 0.054000 0.054000 1.200000 0.108000 0.130000
1553829514201821242	800 56 1.000000 0.292000 0.294000 1600 48 1.100000 3.033000 3.463000 600 64 1.000000 0.054000 0.054000 1.200000 0.096000 0.116000
1553829514708505076	800 59 1.000000 0.254000 0.257000 1600 49 1.100000 3.284000 3.753000 600 64 1.000000 0.054000 0.054000 1.200000 0.116000 0.140000
1553829515215044909	800 57 1.000000 0.253000 0.256000 1600 49 1.100000 2.667000 3.040000 600 59 1.000000 0.054000 0.054000 1.200000 0.083000 0.100000
1553829515720904993	800 58 1.000000 0.255000 0.258000 1600 49 1.100000 2.367000 2.691000 600 63 1.000000 0.054000 0.054000 1.200000 0.081000 0.098000
1553829516226443951	800 53 1.000000 0.265000 0.268000 1600 48 1.100000 3.013000 3.437000 600 59 1.000000 0.054000 0.054000 1.200000 0.088000 0.106000
1553829516731582409	800 52 1.000000 0.279000 0.282000 1600 47 1.100000 1.843000 2.093000 600 57 1.000000 0.054000 0.054000 1.200000 0.059000 0.071000
1553829517236986409	800 51 1.000000 0.280000 0.283000 1600 47 1.100000 1.645000 1.868000 600 55 1.000000 0.054000 0.054000 1.200000 0.062000 0.074000
1553829517743144993	800 53 1.000000 0.236000 0.240000 1600 46 1.100000 0.765000 0.866000 600 55 1.000000 0.054000 0.054000 1.200000 0.050000 0.060000
1553829518249244910	800 55 1.000000 0.234000 0.237000 1600 46 1.100000 1.957000 2.223000 600 53 1.000000 0.053000 0.053000 1.200000 0.088000 0.106000
1553829518756290660	800 49 1.000000 0.213000 0.216000 1600 45 1.100000 1.146000 1.297000 600 52 1.000000 0.054000 0.054000 1.200000 0.062000 0.074000
1553829519262079035	800 49 1.000000 0.286000 0.289000 1600 45 1.100000 0.982000 1.110000 600 51 1.000000 0.053000 0.053000 1.200000 0.065000 0.078000
1553829519768817076	800 53 1.000000 0.289000 0.292000 1600 45 1.100000 1.302000 1.475000 600 55 1.000000 0.053000 0.053000 1.200000 0.069000 0.083000
1553829520274201285	800 48 1.000000 0.277000 0.280000 1600 45 1.100000 1.511000 1.711000 600 52 1.000000 0.053000 0.053000 1.200000 0.085000 0.102000
1553829520784785160	800 47 1.000000 0.232000 0.235000 1600 44 1.100000 0.851000 0.964000 600 51 1.000000 0.053000 0.053000 1.200000 0.058000 0.070000
1553829521289937785	800 46 1.000000 0.198000 0.201000 1600 43 1.100000 0.754000 0.854000 600 50 1.000000 0.053000 0.053000 1.200000 0.054000 0.065000
1553829521795410618	800 46 1.000000 0.211000 0.214000 1600 43 1.100000 0.716000 0.813000 600 49 1.000000 0.053000 0.053000 1.200000 0.050000 0.060000
1553829522300524327	800 44 1.000000 0.221000 0.224000 1600 42 1.100000 0.711000 0.806000 600 47 1.000000 0.053000 0.053000 1.200000 0.053000 0.064000
1553829522805836368	800 45 1.000000 0.222000 0.225000 1600 42 1.100000 0.527000 0.599000 600 48 1.000000 0.053000 0.053000 1.200000 0.048000 0.058000
1553829523311107660	800 44 1.000000 0.236000 0.239000 1600 42 1.100000 0.978000 1.108000 600 47 1.000000 0.053000 0.053000 1.200000 0.054000 0.065000
1553829523816641494	800 51 1.000000 0.225000 0.228000 1600 43 1.100000 0.806000 0.915000 600 55 1.000000 0.053000 0.053000 1.200000 0.054000 0.065000
1553829524322176160	800 48 1.000000 0.264000 0.267000 1600 43 1.100000 1.655000 1.875000 600 50 1.000000 0.053000 0.053000 1.200000 0.091000 0.110000
1553829524827387785	800 46 1.000000 0.294000 0.297000 1600 43 1.100000 0.933000 1.056000 600 49 1.000000 0.053000 0.053000 1.200000 0.065000 0.078000
1553829525332833202	800 52 1.000000 0.266000 0.269000 1600 44 1.100000 2.105000 2.395000 600 57 1.000000 0.053000 0.053000 1.200000 0.071000 0.085000
1553829525837867952	800 47 1.000000 0.294000 0.297000 1600 43 1.100000 1.078000 1.220000 600 51 1.000000 0.053000 0.053000 1.200000 0.082000 0.099000
1553829526343126536	800 47 1.000000 0.265000 0.268000 1600 43 1.100000 0.821000 0.930000 600 50 1.000000 0.053000 0.053000 1.200000 0.070000 0.084000
1553829526848412827	800 53 1.000000 0.238000 0.241000 1600 44 1.100000 2.836000 3.235000 600 54 1.000000 0.053000 0.053000 1.200000 0.106000 0.128000
1553829527353418911	800 46 1.000000 0.289000 0.292000 1600 43 1.100000 0.916000 1.036000 600 52 1.000000 0.053000 0.053000 1.200000 0.068000 0.082000
1553829527858644827	800 46 1.000000 0.285000 0.288000 1600 43 1.100000 0.827000 0.936000 600 51 1.000000 0.053000 0.053000 1.200000 0.067000 0.081000
1553829528364054119	800 45 1.000000 0.187000 0.190000 1600 42 1.100000 0.763000 0.866000 600 48 1.000000 0.053000 0.053000 1.200000 0.050000 0.060000
1553829528869175869	800 44 1.000000 0.181000 0.184000 1600 42 1.100000 0.862000 0.979000 600 48 1.000000 0.053000 0.053000 1.200000 0.050000 0.060000
1553829529374120328	800 44 1.000000 0.209000 0.212000 1600 42 1.100000 0.851000 0.966000 600 47 1.000000 0.053000 0.053000 1.200000 0.050000 0.060000
1553829529879195411	800 44 1.000000 0.246000 0.249000 1600 41 1.100000 0.793000 0.900000 600 47 1.000000 0.053000 0.053000 1.200000 0.057000 0.068000
1553829530384566036	800 51 1.000000 0.222000 0.225000 1600 43 1.100000 2.187000 2.493000 600 56 1.000000 0.053000 0.053000 1.200000 0.069000 0.083000
1553829530889883536	800 48 1.000000 0.278000 0.281000 1600 42 1.100000 0.969000 1.096000 600 50 1.000000 0.053000 0.053000 1.200000 0.075000 0.090000
1553829531396576536	800 48 1.000000 0.292000 0.295000 1600 42 1.100000 0.858000 0.970000 600 49 1.000000 0.053000 0.053000 1.200000 0.065000 0.078000
1553829531903850036	800 49 1.000000 0.262000 0.265000 1600 44 1.100000 2.818000 3.215000 600 53 1.000000 0.053000 0.053000 1.200000 0.118000 0.143000
1553829532408863370	800 45 1.000000 0.291000 0.294000 1600 43 1.100000 0.913000 1.032000 600 49 1.000000 0.053000 0.053000 1.200000 0.071000 0.085000
1553829532928715286	800 48 1.000000 0.196000 0.199000 1600 42 1.100000 0.999000 1.133000 600 51 1.000000 0.053000 0.053000 1.200000 0.059000 0.071000
1553829533444373995	800 51 1.000000 0.268000 0.271000 1600 43 1.100000 2.026000 2.303000 600 54 1.000000 0.053000 0.053000 1.200000 0.078000 0.094000
1553829533951114036	800 47 1.000000 0.245000 0.248000 1600 43 1.100000 0.891000 1.007000 600 51 1.000000 0.053000 0.053000 1.200000 0.073000 0.088000
1553829534456967370	800 45 1.000000 0.215000 0.218000 1600 42 1.100000 0.849000 0.963000 600 49 1.000000 0.053000 0.053000 1.200000 0.060000 0.072000
1553829534962738703	800 45 1.000000 0.200000 0.204000 1600 42 1.100000 0.893000 1.013000 600 50 1.000000 0.053000 0.053000 1.200000 0.052000 0.062000
1553829535468475787	800 44 1.000000 0.183000 0.186000 1600 42 1.100000 0.746000 0.847000 600 47 1.000000 0.053000 0.053000 1.200000 0.049000 0.059000
1553829535974385162	800 45 1.000000 0.213000 0.216000 1600 42 1.100000 1.022000 1.162000 600 49 1.000000 0.053000 0.053000 1.200000 0.061000 0.073000
1553829536481843703	800 45 1.000000 0.236000 0.240000 1600 42 1.100000 0.951000 1.079000 600 51 1.000000 0.053000 0.053000 1.200000 0.054000 0.065000
1553829536989244078	800 48 1.000000 0.268000 0.271000 1600 43 1.100000 1.847000 2.100000 600 52 1.000000 0.053000 0.053000 1.200000 0.108000 0.130000
1553829537495433787	800 47 1.000000 0.287000 0.290000 1600 43 1.100000 1.706000 1.938000 600 51 1.000000 0.053000 0.053000 1.200000 0.074000 0.089000
1553829538001609662	800 49 1.000000 0.290000 0.293000 1600 44 1.100000 1.366000 1.547000 600 57 1.000000 0.053000 0.053000 1.200000 0.074000 0.089000
1553829538507475579	800 47 1.000000 0.291000 0.294000 1600 43 1.100000 2.227000 2.532000 600 51 1.000000 0.053000 0.053000 1.200000 0.077000 0.093000
1553829539013519745	800 48 1.000000 0.280000 0.283000 1600 43 1.100000 1.237000 1.400000 600 49 1.000000 0.053000 0.053000 1.200000 0.070000 0.084000
1553829539519139579	800 49 1.000000 0.283000 0.286000 1600 44 1.100000 1.008000 1.141000 600 52 1.000000 0.053000 0.053000 1.200000 0.080000 0.096000
1553829540025137412	800 48 1.000000 0.261000 0.264000 1600 43 1.100000 1.306000 1.479000 600 52 1.000000 0.053000 0.053000 1.200000 0.074000 0.089000
1553829540531174121	800 51 1.000000 0.279000 0.282000 1600 44 1.100000 1.168000 1.322000 600 51 1.000000 0.053000 0.053000 1.200000 0.069000 0.083000
1553829541036812996	800 47 1.000000 0.230000 0.233000 1600 43 1.100000 1.755000 1.993000 600 53 1.000000 0.053000 0.053000 1.200000 0.075000 0.090000
1553829541542437871	800 45 1.000000 0.181000 0.184000 1600 42 1.100000 1.764000 2.005000 600 49 1.000000 0.053000 0.053000 1.200000 0.055000 0.066000
1553829542048212371	800 45 1.000000 0.178000 0.181000 1600 42 1.100000 0.727000 0.826000 600 48 1.000000 0.053000 0.053000 1.200000 0.050000 0.060000
1553829542553809037	800 44 1.000000 0.208000 0.211000 1600 42 1.100000 0.862000 0.976000 600 48 1.000000 0.053000 0.053000 1.200000 0.053000 0.064000
1553829543059713121	800 45 1.000000 0.218000 0.221000 1600 41 1.100000 0.680000 0.772000 600 48 1.000000 0.053000 0.053000 1.200000 0.052000 0.062000
1553829543565477621	800 43 1.000000 0.206000 0.209000 1600 41 1.100000 0.629000 0.714000 600 47 1.000000 0.053000 0.053000 1.200000 0.050000 0.060000
1553829544071055496	800 43 1.000000 0.234000 0.237000 1600 41 1.100000 0.838000 0.951000 600 47 1.000000 0.053000 0.053000 1.200000 0.054000 0.065000
1553829544577153371	800 48 1.000000 0.227000 0.230000 1600 41 1.100000 0.846000 0.960000 600 52 1.000000 0.053000 0.053000 1.200000 0.052000 0.062000
1553829545083130829	800 47 1.000000 0.228000 0.231000 1600 42 1.100000 2.969000 3.387000 600 51 1.000000 0.053000 0.053000 1.200000 0.081000 0.098000
1553829545588753163	800 46 1.000000 0.274000 0.277000 1600 42 1.100000 1.625000 1.844000 600 49 1.000000 0.053000 0.053000 1.200000 0.068000 0.082000
1553829546102616788	800 50 1.000000 0.288000 0.291000 1600 43 1.100000 0.746000 0.843000 600 54 1.000000 0.053000 0.053000 1.200000 0.074000 0.089000
1553829546612066705	800 52 1.000000 0.291000 0.294000 1600 44 1.100000 1.470000 1.668000 600 51 1.000000 0.053000 0.053000 1.200000 0.076000 0.091000
1553829547118191621	800 53 1.000000 0.293000 0.296000 1600 44 1.100000 1.824000 2.070000 600 52 1.000000 0.053000 0.053000 1.200000 0.076000 0.092000
1553829547624232663	800 49 1.000000 0.260000 0.263000 1600 44 1.100000 1.531000 1.737000 600 53 1.000000 0.053000 0.053000 1.200000 0.068000 0.082000
1553829548130617455	800 52 1.000000 0.279000 0.282000 1600 44 1.100000 2.444000 2.781000 600 53 1.000000 0.053000 0.053000 1.200000 0.082000 0.099000
1553829548636691538	800 47 1.000000 0.260000 0.263000 1600 44 1.100000 1.736000 1.970000 600 50 1.000000 0.053000 0.053000 1.200000 0.073000 0.088000
1553829549142701413	800 49 1.000000 0.264000 0.267000 1600 44 1.100000 1.578000 1.792000 600 53 1.000000 0.053000 0.053000 1.200000 0.080000 0.096000
1553829549648944455	800 48 1.000000 0.228000 0.231000 1600 44 1.100000 1.875000 2.130000 600 51 1.000000 0.053000 0.053000 1.200000 0.071000 0.085000
1553829550155600913	800 49 1.000000 0.277000 0.280000 1600 43 1.100000 1.133000 1.282000 600 53 1.000000 0.053000 0.053000 1.200000 0.067000 0.081000
1553829550662186247	800 53 1.000000 0.259000 0.262000 1600 45 1.100000 3.083000 3.520000 600 58 1.000000 0.053000 0.053000 1.200000 0.094000 0.113000
1553829551167990497	800 47 1.000000 0.224000 0.228000 1600 44 1.100000 2.042000 2.319000 600 51 1.000000 0.053000 0.053000 1.200000 0.056000 0.067000
1553829551673912455	800 47 1.000000 0.236000 0.239000 1600 43 1.100000 0.888000 1.006000 600 50 1.000000 0.053000 0.053000 1.200000 0.056000 0.067000
1553829552180129414	800 46 1.000000 0.226000 0.229000 1600 43 1.100000 0.817000 0.928000 600 52 1.000000 0.053000 0.053000 1.200000 0.054000 0.065000
1553829552686356497	800 51 1.000000 0.271000 0.274000 1600 43 1.100000 1.839000 2.089000 600 53 1.000000 0.053000 0.053000 1.200000 0.083000 0.100000
1553829553192690580	800 53 1.000000 0.271000 0.274000 1600 44 1.100000 2.215000 2.518000 600 52 1.000000 0.053000 0.053000 1.200000 0.078000 0.094000
1553829553699218705	800 54 1.000000 0.252000 0.255000 1600 45 1.100000 1.861000 2.115000 600 58 1.000000 0.053000 0.053000 1.200000 0.072000 0.087000
1553829554205501414	800 48 1.000000 0.274000 0.277000 1600 44 1.100000 2.697000 3.074000 600 59 1.000000 0.053000 0.053000 1.200000 0.079000 0.095000
1553829554711545581	800 46 1.000000 0.266000 0.269000 1600 44 1.100000 1.525000 1.730000 600 51 1.000000 0.053000 0.053000 1.200000 0.068000 0.082000
1553829555217811872	800 49 1.000000 0.270000 0.273000 1600 44 1.100000 1.400000 1.589000 600 57 1.000000 0.053000 0.053000 1.200000 0.082000 0.099000
1553829555723673997	800 50 1.000000 0.261000 0.264000 1600 45 1.100000 2.702000 3.080000 600 53 1.000000 0.053000 0.053000 1.200000 0.078000 0.094000
1553829556230427206	800 51 1.000000 0.294000 0.297000 1600 44 1.100000 1.194000 1.350000 600 54 1.000000 0.053000 0.053000 1.200000 0.070000 0.084000
1553829556745381039	800 50 1.000000 0.259000 0.262000 1600 45 1.100000 2.274000 2.585000 600 56 1.000000 0.053000 0.053000 1.200000 0.077000 0.093000
1553829557254028498	800 48 1.000000 0.231000 0.234000 1600 45 1.100000 2.151000 2.445000 600 53 1.000000 0.053000 0.053000 1.200000 0.068000 0.082000
1553829557760245789	800 51 1.000000 0.236000 0.240000 1600 45 1.100000 2.162000 2.458000 600 54 1.000000 0.054000 0.054000 1.200000 0.079000 0.095000
1553829558266214664	800 49 1.000000 0.191000 0.194000 1600 45 1.100000 2.204000 2.505000 600 52 1.000000 0.053000 0.053000 1.200000 0.065000 0.078000
1553829558772154914	800 46 1.000000 0.248000 0.250000 1600 44 1.100000 0.606000 0.687000 600 50 1.000000 0.053000 0.053000 1.200000 0.057000 0.068000
1553829559295996081	800 47 1.000000 0.240000 0.243000 1600 43 1.100000 0.848000 0.959000 600 49 1.000000 0.053000 0.053000 1.200000 0.054000 0.065000
1553829559802605873	800 52 1.000000 0.244000 0.247000 1600 44 1.100000 1.953000 2.226000 600 56 1.000000 0.053000 0.053000 1.200000 0.056000 0.067000
1553829560308541248	800 47 1.000000 0.267000 0.270000 1600 44 1.100000 2.686000 3.062000 600 51 1.000000 0.053000 0.053000 1.200000 0.089000 0.107000
1553829560814640748	800 45 1.000000 0.251000 0.254000 1600 43 1.100000 0.787000 0.890000 600 49 1.000000 0.053000 0.053000 1.200000 0.063000 0.076000
1553829561337226540	800 47 1.000000 0.256000 0.259000 1600 43 1.100000 1.782000 2.024000 600 49 1.000000 0.053000 0.053000 1.200000 0.065000 0.078000
1553829561843251998	800 45 1.000000 0.246000 0.249000 1600 43 1.100000 0.859000 0.971000 600 48 1.000000 0.053000 0.053000 1.200000 0.066000 0.079000
1553829562349212415	800 44 1.000000 0.239000 0.242000 1600 42 1.100000 0.786000 0.888000 600 48 1.000000 0.053000 0.053000 1.200000 0.063000 0.076000
1553829562855476040	800 45 1.000000 0.150000 0.153000 1600 42 1.100000 0.608000 0.690000 600 46 1.000000 0.053000 0.053000 1.200000 0.053000 0.064000
1553829563370054665	800 42 1.000000 0.046000 0.047000 1600 41 1.100000 0.992000 1.122000 600 46 1.000000 0.053000 0.053000 1.200000 0.051000 0.061000
1553829563875222957	800 41 1.000000 0.036000 0.036000 1600 40 1.100000 0.214000 0.243000 600 44 1.000000 0.053000 0.053000 1.200000 0.026000 0.031000
