#Timestamp	CPU(0) Frequency(MHz)	CPU(0) Temperature(C)	A7 Voltage(V)	A7 Current(A)	A7 Power(W)	CPU(4) Frequency(MHz)	CPU(4) Temperature(C)	A15 Voltage(V)	A15 Current(A)	A15 Power(W)	GPU Frequency(MHz)	GPU Temperature(C)	GPU Voltage(V)	GPU Current(A)	GPU Power(W)	RAM Voltage(V)	RAM Current(A)	RAM Power(W)
1560168256369009026	300 33 0.900000 0.037000 0.033000 1400 32 1.000000 0.192000 0.206000 600 37 1.000000 0.051000 0.051000 1.200000 0.043000 0.052000
1560168256892512776	300 36 0.900000 0.024000 0.021000 1400 33 1.000000 0.548000 0.586000 600 38 1.000000 0.051000 0.051000 1.200000 0.042000 0.050000
1560168257418272818	300 37 0.900000 0.026000 0.023000 1400 34 1.000000 0.700000 0.746000 600 38 1.000000 0.051000 0.051000 1.200000 0.039000 0.047000
1560168257942710735	300 37 0.900000 0.030000 0.027000 1400 34 1.000000 0.703000 0.752000 600 38 1.000000 0.051000 0.051000 1.200000 0.051000 0.061000
1560168258465905985	300 40 0.900000 0.020000 0.018000 1400 34 1.000000 0.706000 0.754000 600 42 1.000000 0.050000 0.050000 1.200000 0.038000 0.045000
1560168258989499985	300 43 0.900000 0.033000 0.030000 1400 36 1.000000 2.951000 3.181000 600 49 1.000000 0.051000 0.051000 1.200000 0.026000 0.031000
1560168259513064985	300 45 0.900000 0.049000 0.044000 1400 37 1.000000 2.946000 3.175000 600 51 1.000000 0.051000 0.051000 1.200000 0.028000 0.033000
1560168260038337735	300 46 0.900000 0.039000 0.035000 1400 38 1.000000 2.961000 3.197000 600 53 1.000000 0.051000 0.051000 1.200000 0.026000 0.031000
1560168260562047402	300 47 0.900000 0.060000 0.054000 1400 39 1.000000 2.954000 3.184000 600 54 1.000000 0.052000 0.052000 1.200000 0.045000 0.054000
1560168261086153277	300 48 0.900000 0.040000 0.036000 1400 40 1.000000 2.961000 3.191000 600 55 1.000000 0.051000 0.051000 1.200000 0.027000 0.032000
1560168261610057777	300 49 0.900000 0.049000 0.044000 1400 40 1.000000 2.977000 3.215000 600 55 1.000000 0.052000 0.052000 1.200000 0.034000 0.041000
1560168262133444610	300 49 0.900000 0.038000 0.034000 1400 41 1.000000 2.966000 3.203000 600 56 1.000000 0.052000 0.052000 1.200000 0.025000 0.030000
1560168262659202110	300 50 0.900000 0.052000 0.047000 1400 41 1.000000 2.974000 3.205000 600 57 1.000000 0.052000 0.052000 1.200000 0.035000 0.042000
1560168263183235360	300 50 0.900000 0.038000 0.034000 1400 42 1.000000 2.971000 3.208000 600 57 1.000000 0.052000 0.052000 1.200000 0.029000 0.035000
1560168263707174194	300 50 0.900000 0.044000 0.040000 1400 42 1.000000 2.986000 3.224000 600 57 1.000000 0.052000 0.052000 1.200000 0.035000 0.042000
1560168264230462569	300 51 0.900000 0.040000 0.036000 1400 42 1.000000 2.975000 3.213000 600 58 1.000000 0.052000 0.052000 1.200000 0.024000 0.028000
1560168264757572361	300 51 0.900000 0.040000 0.036000 1400 43 1.000000 2.982000 3.220000 600 58 1.000000 0.052000 0.052000 1.200000 0.024000 0.028000
1560168265281213986	300 51 0.900000 0.056000 0.051000 1400 43 1.000000 2.983000 3.221000 600 58 1.000000 0.052000 0.052000 1.200000 0.045000 0.054000
1560168265804687361	300 52 0.900000 0.044000 0.040000 1400 43 1.000000 2.978000 3.216000 600 59 1.000000 0.052000 0.052000 1.200000 0.033000 0.039000
1560168266328673319	300 52 0.900000 0.040000 0.036000 1400 43 1.000000 2.978000 3.216000 600 59 1.000000 0.052000 0.052000 1.200000 0.024000 0.028000
1560168266852397819	300 52 0.900000 0.040000 0.036000 1400 44 1.000000 2.978000 3.216000 600 59 1.000000 0.052000 0.052000 1.200000 0.024000 0.028000
1560168267377477403	300 52 0.900000 0.038000 0.034000 1400 44 1.000000 2.980000 3.218000 600 59 1.000000 0.053000 0.053000 1.200000 0.024000 0.028000
1560168267901629153	300 52 0.900000 0.061000 0.055000 1400 44 1.000000 2.989000 3.228000 600 59 1.000000 0.052000 0.052000 1.200000 0.044000 0.053000
1560168268425276194	300 52 0.900000 0.038000 0.034000 1400 44 1.000000 2.987000 3.225000 600 59 1.000000 0.052000 0.052000 1.200000 0.024000 0.028000
1560168268948859611	300 53 0.900000 0.038000 0.034000 1400 44 1.000000 2.992000 3.231000 600 60 1.000000 0.053000 0.053000 1.200000 0.024000 0.028000
1560168269472463278	300 53 0.900000 0.038000 0.034000 1400 44 1.000000 2.993000 3.232000 600 60 1.000000 0.053000 0.053000 1.200000 0.024000 0.028000
1560168269999685945	300 53 0.900000 0.040000 0.036000 1400 44 1.000000 2.992000 3.231000 600 60 1.000000 0.053000 0.053000 1.200000 0.037000 0.044000
1560168270523668278	300 53 0.900000 0.072000 0.065000 1400 45 1.000000 2.989000 3.228000 600 60 1.000000 0.053000 0.053000 1.200000 0.028000 0.033000
1560168271047357986	300 53 0.900000 0.041000 0.037000 1400 45 1.000000 2.994000 3.233000 600 60 1.000000 0.053000 0.053000 1.200000 0.024000 0.028000
1560168271570441195	300 53 0.900000 0.040000 0.036000 1400 45 1.000000 2.992000 3.231000 600 60 1.000000 0.053000 0.053000 1.200000 0.023000 0.027000
1560168272094240653	300 53 0.900000 0.040000 0.036000 1400 45 1.000000 2.997000 3.236000 600 60 1.000000 0.053000 0.053000 1.200000 0.024000 0.028000
1560168272619827195	300 54 0.900000 0.073000 0.066000 1400 45 1.000000 2.992000 3.231000 600 60 1.000000 0.052000 0.052000 1.200000 0.049000 0.059000
1560168273143511862	300 54 0.900000 0.039000 0.035000 1400 45 1.000000 2.993000 3.232000 600 61 1.000000 0.053000 0.053000 1.200000 0.024000 0.028000
1560168273666998237	300 53 0.900000 0.038000 0.034000 1400 45 1.000000 2.990000 3.229000 600 61 1.000000 0.053000 0.053000 1.200000 0.024000 0.028000
1560168274190411987	300 54 0.900000 0.039000 0.035000 1400 45 1.000000 2.982000 3.220000 600 61 1.000000 0.053000 0.053000 1.200000 0.024000 0.028000
1560168274716033862	300 54 0.900000 0.055000 0.050000 1400 45 1.000000 2.991000 3.230000 600 61 1.000000 0.053000 0.053000 1.200000 0.035000 0.042000
1560168275242042279	300 54 0.900000 0.056000 0.051000 1400 46 1.000000 2.990000 3.229000 600 61 1.000000 0.053000 0.053000 1.200000 0.040000 0.048000
1560168275765956070	300 54 0.900000 0.039000 0.035000 1400 45 1.000000 2.991000 3.230000 600 61 1.000000 0.053000 0.053000 1.200000 0.023000 0.027000
1560168276289683279	300 54 0.900000 0.040000 0.036000 1400 46 1.000000 2.993000 3.232000 600 61 1.000000 0.053000 0.053000 1.200000 0.024000 0.028000
1560168276813556862	300 54 0.900000 0.040000 0.036000 1400 46 1.000000 3.000000 3.240000 600 61 1.000000 0.053000 0.053000 1.200000 0.033000 0.039000
1560168277339200487	300 54 0.900000 0.041000 0.037000 1400 46 1.000000 2.985000 3.223000 600 61 1.000000 0.053000 0.053000 1.200000 0.039000 0.047000
1560168277863679821	300 54 0.900000 0.057000 0.051000 1400 46 1.000000 2.989000 3.228000 600 61 1.000000 0.053000 0.053000 1.200000 0.026000 0.031000
1560168278387444071	300 54 0.900000 0.040000 0.036000 1400 46 1.000000 3.009000 3.249000 600 61 1.000000 0.053000 0.053000 1.200000 0.025000 0.030000
1560168278911182862	300 54 0.900000 0.040000 0.036000 1400 46 1.000000 3.003000 3.243000 600 61 1.000000 0.053000 0.053000 1.200000 0.027000 0.032000
1560168279434375862	300 54 0.900000 0.039000 0.035000 1400 46 1.000000 3.009000 3.249000 600 62 1.000000 0.053000 0.053000 1.200000 0.032000 0.038000
1560168279960751654	300 54 0.900000 0.059000 0.053000 1400 46 1.000000 2.995000 3.234000 600 62 1.000000 0.053000 0.053000 1.200000 0.035000 0.042000
1560168280485065904	300 54 0.900000 0.039000 0.035000 1400 46 1.000000 2.997000 3.236000 600 62 1.000000 0.053000 0.053000 1.200000 0.032000 0.038000
1560168281009714154	300 55 0.900000 0.039000 0.035000 1400 46 1.000000 3.003000 3.243000 600 62 1.000000 0.053000 0.053000 1.200000 0.025000 0.030000
1560168281533506571	300 55 0.900000 0.039000 0.035000 1400 46 1.000000 3.004000 3.244000 600 62 1.000000 0.053000 0.053000 1.200000 0.036000 0.043000
1560168282058777446	300 55 0.900000 0.039000 0.035000 1400 46 1.000000 2.993000 3.232000 600 62 1.000000 0.053000 0.053000 1.200000 0.026000 0.031000
1560168282584866946	300 55 0.900000 0.062000 0.056000 1400 46 1.000000 3.003000 3.243000 600 62 1.000000 0.053000 0.053000 1.200000 0.045000 0.054000
1560168283108902863	300 55 0.900000 0.041000 0.037000 1400 46 1.000000 3.008000 3.248000 600 62 1.000000 0.053000 0.053000 1.200000 0.025000 0.030000
1560168283632348905	300 55 0.900000 0.055000 0.050000 1400 46 1.000000 3.002000 3.242000 600 62 1.000000 0.053000 0.053000 1.200000 0.034000 0.041000
1560168284156145321	300 55 0.900000 0.042000 0.038000 1400 47 1.000000 3.013000 3.254000 600 62 1.000000 0.053000 0.053000 1.200000 0.027000 0.032000
1560168284684763780	300 55 0.900000 0.041000 0.037000 1400 46 1.000000 3.012000 3.252000 600 62 1.000000 0.053000 0.053000 1.200000 0.025000 0.030000
1560168285208968030	300 55 0.900000 0.062000 0.056000 1400 47 1.000000 2.999000 3.238000 600 62 1.000000 0.053000 0.053000 1.200000 0.042000 0.050000
1560168285732549405	300 55 0.900000 0.041000 0.037000 1400 47 1.000000 3.004000 3.244000 600 62 1.000000 0.053000 0.053000 1.200000 0.026000 0.031000
1560168286256522072	300 55 0.900000 0.043000 0.039000 1400 47 1.000000 3.003000 3.243000 600 62 1.000000 0.053000 0.053000 1.200000 0.030000 0.036000
1560168286780490947	300 55 0.900000 0.041000 0.037000 1400 47 1.000000 3.002000 3.242000 600 62 1.000000 0.053000 0.053000 1.200000 0.026000 0.031000
1560168287306025780	300 55 0.900000 0.042000 0.038000 1400 47 1.000000 3.011000 3.251000 600 62 1.000000 0.053000 0.053000 1.200000 0.025000 0.030000
1560168287832671572	300 55 0.900000 0.055000 0.050000 1400 47 1.000000 3.005000 3.245000 600 62 1.000000 0.053000 0.053000 1.200000 0.046000 0.055000
1560168288356386947	300 55 0.900000 0.043000 0.039000 1400 47 1.000000 3.003000 3.243000 600 63 1.000000 0.053000 0.053000 1.200000 0.037000 0.044000
1560168288880122572	300 55 0.900000 0.040000 0.036000 1400 47 1.000000 3.001000 3.241000 600 63 1.000000 0.053000 0.053000 1.200000 0.027000 0.032000
1560168289403659780	300 55 0.900000 0.042000 0.038000 1400 47 1.000000 3.006000 3.246000 600 63 1.000000 0.053000 0.053000 1.200000 0.027000 0.032000
1560168289929014864	300 55 0.900000 0.044000 0.040000 1400 47 1.000000 3.001000 3.241000 600 63 1.000000 0.053000 0.053000 1.200000 0.031000 0.037000
1560168290453077447	300 55 0.900000 0.066000 0.060000 1400 47 1.000000 3.008000 3.248000 600 63 1.000000 0.053000 0.053000 1.200000 0.043000 0.051000
1560168290976795364	300 55 0.900000 0.042000 0.038000 1400 47 1.000000 3.005000 3.245000 600 63 1.000000 0.053000 0.053000 1.200000 0.026000 0.031000
1560168291500408697	300 56 0.900000 0.040000 0.036000 1400 47 1.000000 3.004000 3.244000 600 63 1.000000 0.053000 0.053000 1.200000 0.025000 0.030000
1560168292025821072	300 55 0.900000 0.041000 0.037000 1400 47 1.000000 3.005000 3.245000 600 63 1.000000 0.053000 0.053000 1.200000 0.026000 0.031000
1560168292549896447	300 56 0.900000 0.072000 0.065000 1400 47 1.000000 3.004000 3.244000 600 63 1.000000 0.053000 0.053000 1.200000 0.048000 0.057000
1560168293073748531	300 56 0.900000 0.041000 0.037000 1400 47 1.000000 3.006000 3.246000 600 63 1.000000 0.053000 0.053000 1.200000 0.026000 0.031000
1560168293597191447	300 56 0.900000 0.041000 0.037000 1400 47 1.000000 3.008000 3.248000 600 63 1.000000 0.053000 0.053000 1.200000 0.026000 0.031000
1560168294120743948	300 56 0.900000 0.041000 0.037000 1400 47 1.000000 3.001000 3.241000 600 63 1.000000 0.053000 0.053000 1.200000 0.026000 0.031000
1560168294647993323	300 56 0.900000 0.051000 0.046000 1400 47 1.000000 3.010000 3.250000 600 63 1.000000 0.053000 0.053000 1.200000 0.026000 0.031000
1560168295172226198	300 56 0.900000 0.069000 0.062000 1400 47 1.000000 3.004000 3.244000 600 63 1.000000 0.053000 0.053000 1.200000 0.046000 0.055000
1560168295695652073	300 56 0.900000 0.041000 0.037000 1400 47 1.000000 3.007000 3.247000 600 63 1.000000 0.053000 0.053000 1.200000 0.026000 0.031000
1560168296219655073	300 56 0.900000 0.041000 0.037000 1400 47 1.000000 3.002000 3.242000 600 63 1.000000 0.053000 0.053000 1.200000 0.026000 0.031000
1560168296743137323	300 56 0.900000 0.041000 0.037000 1400 48 1.000000 2.994000 3.233000 600 63 1.000000 0.053000 0.053000 1.200000 0.026000 0.031000
1560168297268704948	300 56 0.900000 0.055000 0.050000 1400 48 1.000000 2.986000 3.224000 600 63 1.000000 0.053000 0.053000 1.200000 0.036000 0.043000
1560168297792437365	300 56 0.900000 0.053000 0.048000 1400 48 1.000000 2.988000 3.221000 600 63 1.000000 0.053000 0.053000 1.200000 0.034000 0.041000
1560168298316395698	300 56 0.900000 0.041000 0.037000 1400 47 1.000000 3.000000 3.240000 600 63 1.000000 0.053000 0.053000 1.200000 0.026000 0.031000
1560168298840728948	300 56 0.900000 0.041000 0.037000 1400 47 1.000000 2.995000 3.234000 600 63 1.000000 0.053000 0.053000 1.200000 0.026000 0.031000
1560168299367901281	300 56 0.900000 0.050000 0.045000 1400 48 1.000000 2.990000 3.229000 600 63 1.000000 0.053000 0.053000 1.200000 0.033000 0.039000
1560168299891692157	300 56 0.900000 0.061000 0.055000 1400 48 1.000000 2.992000 3.231000 600 63 1.000000 0.053000 0.053000 1.200000 0.045000 0.054000
1560168300415445157	300 56 0.900000 0.039000 0.035000 1400 48 1.000000 2.989000 3.228000 600 63 1.000000 0.053000 0.053000 1.200000 0.025000 0.030000
1560168300939994407	300 56 0.900000 0.040000 0.036000 1400 48 1.000000 2.997000 3.236000 600 63 1.000000 0.053000 0.053000 1.200000 0.027000 0.032000
1560168301463972657	300 56 0.900000 0.047000 0.042000 1400 48 1.000000 2.995000 3.234000 600 63 1.000000 0.053000 0.053000 1.200000 0.036000 0.043000
1560168301989499448	300 56 0.900000 0.042000 0.038000 1400 48 1.000000 3.000000 3.240000 600 63 1.000000 0.053000 0.053000 1.200000 0.026000 0.031000
1560168302517599907	300 56 0.900000 0.062000 0.056000 1400 48 1.000000 2.998000 3.237000 600 63 1.000000 0.053000 0.053000 1.200000 0.046000 0.055000
1560168303041341074	300 56 0.900000 0.043000 0.039000 1400 48 1.000000 2.998000 3.237000 600 63 1.000000 0.053000 0.053000 1.200000 0.026000 0.031000
1560168303564893865	300 56 0.900000 0.046000 0.041000 1400 48 1.000000 3.001000 3.241000 600 63 1.000000 0.053000 0.053000 1.200000 0.034000 0.041000
1560168304088757657	300 56 0.900000 0.043000 0.039000 1400 48 1.000000 2.998000 3.237000 600 63 1.000000 0.053000 0.053000 1.200000 0.025000 0.030000
1560168304614776074	300 56 0.900000 0.048000 0.043000 1400 48 1.000000 2.993000 3.232000 600 63 1.000000 0.053000 0.053000 1.200000 0.034000 0.041000
1560168305138477532	300 56 0.900000 0.050000 0.045000 1400 48 1.000000 2.995000 3.234000 600 64 1.000000 0.053000 0.053000 1.200000 0.031000 0.037000
1560168305662409574	300 56 0.900000 0.045000 0.041000 1400 48 1.000000 3.000000 3.240000 600 64 1.000000 0.053000 0.053000 1.200000 0.029000 0.035000
1560168306185985282	300 56 0.900000 0.040000 0.036000 1400 48 1.000000 2.998000 3.237000 600 64 1.000000 0.053000 0.053000 1.200000 0.025000 0.030000
1560168306712634157	300 56 0.900000 0.039000 0.035000 1400 48 1.000000 2.990000 3.229000 600 64 1.000000 0.053000 0.053000 1.200000 0.024000 0.028000
1560168307236475741	300 56 0.900000 0.061000 0.055000 1400 48 1.000000 2.996000 3.235000 600 64 1.000000 0.053000 0.053000 1.200000 0.045000 0.054000
1560168307761589199	300 56 0.900000 0.050000 0.045000 1400 48 1.000000 2.995000 3.234000 600 64 1.000000 0.053000 0.053000 1.200000 0.024000 0.028000
1560168308285465199	300 56 0.900000 0.053000 0.048000 1400 48 1.000000 2.988000 3.227000 600 64 1.000000 0.053000 0.053000 1.200000 0.024000 0.028000
1560168308809593783	300 56 0.900000 0.042000 0.038000 1400 48 1.000000 2.993000 3.232000 600 64 1.000000 0.053000 0.053000 1.200000 0.024000 0.028000
1560168309341202033	300 57 0.900000 0.041000 0.037000 1400 48 1.000000 2.996000 3.235000 600 64 1.000000 0.053000 0.053000 1.200000 0.024000 0.028000
1560168309868962158	300 57 0.900000 0.062000 0.056000 1400 48 1.000000 3.001000 3.241000 600 64 1.000000 0.053000 0.053000 1.200000 0.042000 0.050000
1560168310392875158	300 56 0.900000 0.054000 0.049000 1400 48 1.000000 3.000000 3.240000 600 64 1.000000 0.053000 0.053000 1.200000 0.026000 0.031000
1560168310916232783	300 56 0.900000 0.041000 0.037000 1400 48 1.000000 3.006000 3.246000 600 64 1.000000 0.053000 0.053000 1.200000 0.024000 0.028000
1560168311439976450	300 57 0.900000 0.040000 0.036000 1400 48 1.000000 2.997000 3.236000 600 64 1.000000 0.053000 0.053000 1.200000 0.024000 0.028000
1560168311965417950	300 57 0.900000 0.049000 0.044000 1400 48 1.000000 3.003000 3.243000 600 64 1.000000 0.053000 0.053000 1.200000 0.037000 0.044000
1560168312491809575	300 57 0.900000 0.059000 0.053000 1400 48 1.000000 3.007000 3.247000 600 64 1.000000 0.053000 0.053000 1.200000 0.034000 0.041000
1560168313015910741	300 57 0.900000 0.040000 0.036000 1400 48 1.000000 2.989000 3.228000 600 64 1.000000 0.053000 0.053000 1.200000 0.024000 0.028000
1560168313539873408	300 57 0.900000 0.040000 0.036000 1400 48 1.000000 2.996000 3.235000 600 64 1.000000 0.053000 0.053000 1.200000 0.024000 0.028000
1560168314063450075	300 57 0.900000 0.041000 0.037000 1400 48 1.000000 2.997000 3.236000 600 64 1.000000 0.053000 0.053000 1.200000 0.025000 0.030000
1560168314590138617	300 57 0.900000 0.052000 0.047000 1400 49 1.000000 2.995000 3.234000 600 64 1.000000 0.053000 0.053000 1.200000 0.051000 0.061000
1560168315113974783	300 57 0.900000 0.048000 0.043000 1400 48 1.000000 2.999000 3.238000 600 64 1.000000 0.053000 0.053000 1.200000 0.024000 0.028000
1560168315637274158	300 57 0.900000 0.043000 0.039000 1400 48 1.000000 2.994000 3.233000 600 64 1.000000 0.053000 0.053000 1.200000 0.025000 0.030000
1560168316161191242	300 57 0.900000 0.042000 0.038000 1400 48 1.000000 3.003000 3.243000 600 64 1.000000 0.053000 0.053000 1.200000 0.025000 0.030000
1560168316692031284	300 57 0.900000 0.041000 0.037000 1400 49 1.000000 2.999000 3.238000 600 64 1.000000 0.053000 0.053000 1.200000 0.031000 0.037000
1560168317216070325	300 57 0.900000 0.061000 0.055000 1400 49 1.000000 3.004000 3.244000 600 64 1.000000 0.053000 0.053000 1.200000 0.042000 0.050000
1560168317740018242	300 57 0.900000 0.040000 0.036000 1400 49 1.000000 2.998000 3.237000 600 64 1.000000 0.053000 0.053000 1.200000 0.024000 0.028000
1560168318263570325	300 57 0.900000 0.039000 0.035000 1400 49 1.000000 3.000000 3.240000 600 64 1.000000 0.053000 0.053000 1.200000 0.026000 0.031000
1560168318788777367	300 57 0.900000 0.040000 0.036000 1400 49 1.000000 3.005000 3.245000 600 64 1.000000 0.053000 0.053000 1.200000 0.026000 0.031000
1560168319314623701	300 57 0.900000 0.048000 0.043000 1400 49 1.000000 3.013000 3.254000 600 64 1.000000 0.053000 0.053000 1.200000 0.034000 0.041000
1560168319838951201	300 57 0.900000 0.046000 0.041000 1400 49 1.000000 3.011000 3.251000 600 64 1.000000 0.053000 0.053000 1.200000 0.046000 0.055000
1560168320362763784	300 57 0.900000 0.041000 0.037000 1400 49 1.000000 2.995000 3.234000 600 64 1.000000 0.053000 0.053000 1.200000 0.026000 0.031000
1560168320886773242	300 57 0.900000 0.042000 0.038000 1400 49 1.000000 3.001000 3.241000 600 64 1.000000 0.053000 0.053000 1.200000 0.025000 0.030000
1560168321413229242	300 57 0.900000 0.057000 0.051000 1400 49 1.000000 3.004000 3.244000 600 64 1.000000 0.053000 0.053000 1.200000 0.037000 0.044000
1560168321939293367	300 57 0.900000 0.052000 0.047000 1400 49 1.000000 2.997000 3.236000 600 64 1.000000 0.053000 0.053000 1.200000 0.034000 0.041000
1560168322463707159	300 57 0.900000 0.044000 0.040000 1400 49 1.000000 2.997000 3.236000 600 64 1.000000 0.053000 0.053000 1.200000 0.033000 0.039000
1560168322987848493	300 57 0.900000 0.040000 0.036000 1400 49 1.000000 3.002000 3.242000 600 64 1.000000 0.053000 0.053000 1.200000 0.026000 0.031000
1560168323511443909	300 57 0.900000 0.055000 0.050000 1400 49 1.000000 3.007000 3.247000 600 64 1.000000 0.053000 0.053000 1.200000 0.033000 0.039000
1560168324036984826	300 57 0.900000 0.040000 0.036000 1400 49 1.000000 3.006000 3.246000 600 64 1.000000 0.053000 0.053000 1.200000 0.026000 0.031000
1560168324561110701	300 57 0.900000 0.061000 0.055000 1400 49 1.000000 3.004000 3.244000 600 64 1.000000 0.053000 0.053000 1.200000 0.046000 0.055000
1560168325084875076	300 57 0.900000 0.040000 0.036000 1400 49 1.000000 3.001000 3.241000 600 64 1.000000 0.053000 0.053000 1.200000 0.026000 0.031000
1560168325608702743	300 57 0.900000 0.056000 0.051000 1400 49 1.000000 3.002000 3.242000 600 64 1.000000 0.053000 0.053000 1.200000 0.028000 0.033000
1560168326132339785	300 57 0.900000 0.040000 0.036000 1400 49 1.000000 3.010000 3.250000 600 65 1.000000 0.053000 0.053000 1.200000 0.024000 0.028000
1560168326658196076	300 57 0.900000 0.042000 0.038000 1400 49 1.000000 3.012000 3.252000 600 64 1.000000 0.053000 0.053000 1.200000 0.024000 0.028000
1560168327182780160	300 57 0.900000 0.062000 0.056000 1400 49 1.000000 3.001000 3.241000 600 65 1.000000 0.053000 0.053000 1.200000 0.045000 0.054000
1560168327707543702	300 57 0.900000 0.041000 0.037000 1400 49 1.000000 3.004000 3.244000 600 64 1.000000 0.053000 0.053000 1.200000 0.024000 0.028000
1560168328231759452	300 57 0.900000 0.040000 0.036000 1400 49 1.000000 2.998000 3.237000 600 65 1.000000 0.053000 0.053000 1.200000 0.024000 0.028000
1560168328755101368	300 57 0.900000 0.040000 0.036000 1400 49 1.000000 3.000000 3.240000 600 65 1.000000 0.053000 0.053000 1.200000 0.024000 0.028000
1560168329280777993	300 57 0.900000 0.053000 0.048000 1400 49 1.000000 3.000000 3.240000 600 65 1.000000 0.053000 0.053000 1.200000 0.033000 0.039000
1560168329805168493	300 57 0.900000 0.043000 0.039000 1400 49 1.000000 3.001000 3.241000 600 65 1.000000 0.053000 0.053000 1.200000 0.031000 0.037000
1560168330329861785	300 57 0.900000 0.040000 0.036000 1400 49 1.000000 3.003000 3.243000 600 65 1.000000 0.053000 0.053000 1.200000 0.028000 0.033000
1560168330854264285	300 57 0.900000 0.042000 0.038000 1400 49 1.000000 3.003000 3.243000 600 65 1.000000 0.053000 0.053000 1.200000 0.026000 0.031000
1560168331377915577	300 57 0.900000 0.041000 0.037000 1400 49 1.000000 3.003000 3.243000 600 65 1.000000 0.053000 0.053000 1.200000 0.026000 0.031000
1560168331901693202	300 57 0.900000 0.055000 0.050000 1400 49 1.000000 3.007000 3.247000 600 65 1.000000 0.053000 0.053000 1.200000 0.029000 0.035000
1560168332425501285	300 57 0.900000 0.059000 0.053000 1400 49 1.000000 3.004000 3.244000 600 65 1.000000 0.053000 0.053000 1.200000 0.042000 0.050000
1560168332949240410	300 57 0.900000 0.040000 0.036000 1400 49 1.000000 2.995000 3.234000 600 65 1.000000 0.053000 0.053000 1.200000 0.026000 0.031000
1560168333473542119	300 57 0.900000 0.042000 0.038000 1400 49 1.000000 3.003000 3.243000 600 65 1.000000 0.053000 0.053000 1.200000 0.026000 0.031000
1560168334001277786	300 57 0.900000 0.041000 0.037000 1400 49 1.000000 3.004000 3.244000 600 65 1.000000 0.053000 0.053000 1.200000 0.026000 0.031000
1560168334524919327	300 57 0.900000 0.056000 0.051000 1400 49 1.000000 3.009000 3.249000 600 65 1.000000 0.053000 0.053000 1.200000 0.044000 0.053000
1560168335048344536	300 57 0.900000 0.047000 0.042000 1400 49 1.000000 2.995000 3.234000 600 65 1.000000 0.053000 0.053000 1.200000 0.027000 0.032000
1560168335571757411	300 57 0.900000 0.042000 0.038000 1400 49 1.000000 3.001000 3.241000 600 65 1.000000 0.053000 0.053000 1.200000 0.026000 0.031000
1560168336095247578	300 57 0.900000 0.042000 0.038000 1400 49 1.000000 3.007000 3.247000 600 65 1.000000 0.053000 0.053000 1.200000 0.026000 0.031000
1560168336622305536	300 58 0.900000 0.042000 0.038000 1400 49 1.000000 2.997000 3.236000 600 65 1.000000 0.053000 0.053000 1.200000 0.026000 0.031000
1560168337146058328	300 57 0.900000 0.068000 0.061000 1400 49 1.000000 3.004000 3.244000 600 65 1.000000 0.053000 0.053000 1.200000 0.049000 0.059000
1560168337669863036	300 57 0.900000 0.043000 0.039000 1400 49 1.000000 3.007000 3.247000 600 65 1.000000 0.053000 0.053000 1.200000 0.026000 0.031000
1560168338193442619	300 57 0.900000 0.041000 0.037000 1400 49 1.000000 3.012000 3.252000 600 65 1.000000 0.053000 0.053000 1.200000 0.026000 0.031000
1560168338721510119	300 58 0.900000 0.041000 0.037000 1400 49 1.000000 3.003000 3.243000 600 65 1.000000 0.053000 0.053000 1.200000 0.027000 0.032000
1560168339247158245	300 58 0.900000 0.051000 0.046000 1400 49 1.000000 3.003000 3.243000 600 65 1.000000 0.053000 0.053000 1.200000 0.042000 0.050000
1560168339771766078	300 58 0.900000 0.063000 0.057000 1400 49 1.000000 2.991000 3.230000 600 65 1.000000 0.053000 0.053000 1.200000 0.038000 0.045000
1560168340295218536	300 58 0.900000 0.041000 0.037000 1400 49 1.000000 2.996000 3.235000 600 65 1.000000 0.053000 0.053000 1.200000 0.026000 0.031000
1560168340818996078	300 58 0.900000 0.043000 0.039000 1400 49 1.000000 3.000000 3.240000 600 65 1.000000 0.053000 0.053000 1.200000 0.027000 0.032000
1560168341347103245	300 58 0.900000 0.050000 0.045000 1400 49 1.000000 2.999000 3.238000 600 65 1.000000 0.053000 0.053000 1.200000 0.036000 0.043000
1560168341871199370	300 58 0.900000 0.056000 0.051000 1400 49 1.000000 2.996000 3.235000 600 65 1.000000 0.054000 0.054000 1.200000 0.045000 0.054000
1560168342394896120	300 58 0.900000 0.043000 0.039000 1400 49 1.000000 3.000000 3.240000 600 65 1.000000 0.053000 0.053000 1.200000 0.027000 0.032000
1560168342918410245	300 58 0.900000 0.043000 0.039000 1400 49 1.000000 2.996000 3.235000 600 65 1.000000 0.053000 0.053000 1.200000 0.027000 0.032000
1560168343441884078	300 58 0.900000 0.050000 0.045000 1400 49 1.000000 2.996000 3.235000 600 65 1.000000 0.053000 0.053000 1.200000 0.034000 0.041000
1560168343967691453	300 58 0.900000 0.043000 0.039000 1400 49 1.000000 3.006000 3.246000 600 65 1.000000 0.053000 0.053000 1.200000 0.027000 0.032000
1560168344491889287	300 58 0.900000 0.061000 0.055000 1400 49 1.000000 3.007000 3.247000 600 65 1.000000 0.053000 0.053000 1.200000 0.045000 0.054000
1560168345015551745	300 58 0.900000 0.041000 0.037000 1400 49 1.000000 3.000000 3.240000 600 65 1.000000 0.053000 0.053000 1.200000 0.027000 0.032000
1560168345539452079	300 58 0.900000 0.042000 0.038000 1400 50 1.000000 3.002000 3.242000 600 65 1.000000 0.053000 0.053000 1.200000 0.028000 0.033000
1560168346063541037	300 58 0.900000 0.050000 0.045000 1400 49 1.000000 3.007000 3.247000 600 65 1.000000 0.053000 0.053000 1.200000 0.025000 0.030000
1560168346590900287	300 58 0.900000 0.043000 0.039000 1400 49 1.000000 2.996000 3.235000 600 65 1.000000 0.053000 0.053000 1.200000 0.033000 0.039000
1560168347116700787	300 58 0.900000 0.061000 0.055000 1400 49 1.000000 3.007000 3.247000 600 65 1.000000 0.053000 0.053000 1.200000 0.034000 0.041000
1560168347640635204	300 58 0.900000 0.042000 0.038000 1400 50 1.000000 3.003000 3.243000 600 65 1.000000 0.054000 0.054000 1.200000 0.024000 0.028000
1560168348164752704	300 58 0.900000 0.050000 0.045000 1400 49 1.000000 3.006000 3.246000 600 65 1.000000 0.053000 0.053000 1.200000 0.025000 0.030000
1560168348688300287	300 58 0.900000 0.042000 0.038000 1400 49 1.000000 3.009000 3.249000 600 65 1.000000 0.053000 0.053000 1.200000 0.024000 0.028000
1560168349211865412	300 58 0.900000 0.058000 0.052000 1400 49 1.000000 2.994000 3.233000 600 65 1.000000 0.053000 0.053000 1.200000 0.045000 0.054000
1560168349735968037	300 58 0.900000 0.041000 0.037000 1400 50 1.000000 3.004000 3.244000 600 65 1.000000 0.053000 0.053000 1.200000 0.024000 0.028000
1560168350259805371	300 58 0.900000 0.050000 0.045000 1400 50 1.000000 3.005000 3.245000 600 65 1.000000 0.053000 0.053000 1.200000 0.028000 0.033000
1560168350783715704	300 58 0.900000 0.040000 0.036000 1400 50 1.000000 3.004000 3.244000 600 65 1.000000 0.053000 0.053000 1.200000 0.024000 0.028000
1560168351311486038	300 58 0.900000 0.040000 0.036000 1400 50 1.000000 3.003000 3.243000 600 65 1.000000 0.053000 0.053000 1.200000 0.025000 0.030000
1560168351835664704	300 58 0.900000 0.059000 0.053000 1400 50 1.000000 2.999000 3.238000 600 65 1.000000 0.053000 0.053000 1.200000 0.045000 0.054000
1560168352359635454	300 58 0.900000 0.048000 0.043000 1400 50 1.000000 2.998000 3.240000 600 65 1.000000 0.053000 0.053000 1.200000 0.033000 0.039000
1560168352884220538	300 58 0.900000 0.042000 0.038000 1400 50 1.000000 3.003000 3.243000 600 65 1.000000 0.053000 0.053000 1.200000 0.024000 0.028000
1560168353407702913	300 58 0.900000 0.042000 0.038000 1400 50 1.000000 3.001000 3.241000 600 65 1.000000 0.053000 0.053000 1.200000 0.024000 0.028000
1560168353936147621	300 58 0.900000 0.041000 0.037000 1400 50 1.000000 2.998000 3.237000 600 65 1.000000 0.053000 0.053000 1.200000 0.033000 0.039000
1560168354460571580	300 58 0.900000 0.066000 0.060000 1400 50 1.000000 3.002000 3.242000 600 65 1.000000 0.053000 0.053000 1.200000 0.041000 0.049000
1560168354984224746	300 58 0.900000 0.042000 0.038000 1400 50 1.000000 3.000000 3.240000 600 65 1.000000 0.053000 0.053000 1.200000 0.024000 0.028000
1560168355508067371	300 58 0.900000 0.040000 0.036000 1400 50 1.000000 3.009000 3.249000 600 65 1.000000 0.053000 0.053000 1.200000 0.024000 0.028000
1560168356031995580	300 58 0.900000 0.040000 0.036000 1400 50 1.000000 2.995000 3.234000 600 65 1.000000 0.053000 0.053000 1.200000 0.024000 0.028000
1560168356557902872	300 58 0.900000 0.063000 0.057000 1400 50 1.000000 2.999000 3.238000 600 65 1.000000 0.053000 0.053000 1.200000 0.048000 0.057000
1560168357084580872	300 58 0.900000 0.040000 0.036000 1400 50 1.000000 3.004000 3.244000 600 65 1.000000 0.053000 0.053000 1.200000 0.042000 0.050000
1560168357608580663	300 58 0.900000 0.040000 0.036000 1400 50 1.000000 3.007000 3.247000 600 65 1.000000 0.053000 0.053000 1.200000 0.026000 0.031000
1560168358132463122	300 58 0.900000 0.042000 0.038000 1400 50 1.000000 3.001000 3.241000 600 65 1.000000 0.053000 0.053000 1.200000 0.026000 0.031000
1560168358661184622	300 58 0.900000 0.042000 0.038000 1400 50 1.000000 2.997000 3.236000 600 65 1.000000 0.053000 0.053000 1.200000 0.025000 0.030000
1560168359185277497	300 58 0.900000 0.073000 0.066000 1400 50 1.000000 3.004000 3.244000 600 65 1.000000 0.053000 0.053000 1.200000 0.048000 0.057000
1560168359709440205	300 58 0.900000 0.041000 0.037000 1400 50 1.000000 3.006000 3.246000 600 65 1.000000 0.054000 0.054000 1.200000 0.027000 0.032000
1560168360233143789	300 58 0.900000 0.042000 0.038000 1400 50 1.000000 3.008000 3.248000 600 65 1.000000 0.054000 0.054000 1.200000 0.026000 0.031000
1560168360756925164	300 58 0.900000 0.042000 0.038000 1400 50 1.000000 3.003000 3.243000 600 65 1.000000 0.053000 0.053000 1.200000 0.027000 0.032000
1560168361285708664	300 58 0.900000 0.056000 0.051000 1400 50 1.000000 3.003000 3.243000 600 65 1.000000 0.053000 0.053000 1.200000 0.035000 0.042000
1560168361809461914	300 58 0.900000 0.058000 0.052000 1400 50 1.000000 3.002000 3.242000 600 65 1.000000 0.054000 0.054000 1.200000 0.045000 0.054000
1560168362333209122	300 58 0.900000 0.040000 0.036000 1400 50 1.000000 3.001000 3.241000 600 65 1.000000 0.053000 0.053000 1.200000 0.026000 0.031000
1560168362856338414	300 58 0.900000 0.040000 0.036000 1400 50 1.000000 3.001000 3.241000 600 65 1.000000 0.053000 0.053000 1.200000 0.026000 0.031000
1560168363380014372	300 58 0.900000 0.056000 0.051000 1400 50 1.000000 3.005000 3.245000 600 65 1.000000 0.053000 0.053000 1.200000 0.031000 0.037000
1560168363905704539	300 58 0.900000 0.059000 0.053000 1400 50 1.000000 3.008000 3.248000 600 65 1.000000 0.053000 0.053000 1.200000 0.029000 0.035000
1560168364430122623	300 58 0.900000 0.059000 0.053000 1400 50 1.000000 3.006000 3.246000 600 65 1.000000 0.053000 0.053000 1.200000 0.038000 0.045000
1560168364953873748	300 58 0.900000 0.043000 0.039000 1400 50 1.000000 2.999000 3.238000 600 65 1.000000 0.053000 0.053000 1.200000 0.026000 0.031000
1560168365477762289	300 58 0.900000 0.041000 0.037000 1400 50 1.000000 3.007000 3.247000 600 65 1.000000 0.054000 0.054000 1.200000 0.026000 0.031000
1560168366001343289	300 58 0.900000 0.042000 0.038000 1400 50 1.000000 2.997000 3.236000 600 65 1.000000 0.053000 0.053000 1.200000 0.026000 0.031000
1560168366524725956	300 58 0.900000 0.060000 0.054000 1400 50 1.000000 3.010000 3.250000 600 65 1.000000 0.053000 0.053000 1.200000 0.043000 0.051000
1560168367048671331	300 58 0.900000 0.040000 0.036000 1400 50 1.000000 3.007000 3.247000 600 65 1.000000 0.053000 0.053000 1.200000 0.025000 0.030000
1560168367572796123	300 58 0.900000 0.040000 0.036000 1400 50 1.000000 3.006000 3.246000 600 65 1.000000 0.053000 0.053000 1.200000 0.025000 0.030000
1560168368096995706	300 58 0.900000 0.040000 0.036000 1400 50 1.000000 3.002000 3.242000 600 65 1.000000 0.053000 0.053000 1.200000 0.026000 0.031000
1560168368622819248	300 58 0.900000 0.040000 0.036000 1400 50 1.000000 2.995000 3.234000 600 65 1.000000 0.053000 0.053000 1.200000 0.024000 0.028000
1560168369148378040	300 58 0.900000 0.055000 0.050000 1400 50 1.000000 2.995000 3.234000 600 65 1.000000 0.054000 0.054000 1.200000 0.045000 0.054000
1560168369672326998	300 58 0.900000 0.040000 0.036000 1400 50 1.000000 3.003000 3.243000 600 65 1.000000 0.053000 0.053000 1.200000 0.024000 0.028000
1560168370196417082	300 58 0.900000 0.040000 0.036000 1400 50 1.000000 3.005000 3.245000 600 65 1.000000 0.053000 0.053000 1.200000 0.030000 0.036000
1560168370720241998	300 58 0.900000 0.042000 0.038000 1400 50 1.000000 3.007000 3.247000 600 65 1.000000 0.054000 0.054000 1.200000 0.024000 0.028000
1560168371245447082	300 58 0.900000 0.042000 0.038000 1400 50 1.000000 3.009000 3.249000 600 66 1.000000 0.053000 0.053000 1.200000 0.030000 0.036000
1560168371769274332	300 58 0.900000 0.056000 0.051000 1400 50 1.000000 3.003000 3.243000 600 65 1.000000 0.054000 0.054000 1.200000 0.035000 0.042000
1560168372293048165	300 58 0.900000 0.055000 0.050000 1400 50 1.000000 3.007000 3.247000 600 65 1.000000 0.053000 0.053000 1.200000 0.034000 0.041000
1560168372816649624	300 58 0.900000 0.040000 0.036000 1400 50 1.000000 3.006000 3.246000 600 66 1.000000 0.053000 0.053000 1.200000 0.024000 0.028000
1560168373339998624	300 58 0.900000 0.040000 0.036000 1400 50 1.000000 3.004000 3.244000 600 66 1.000000 0.053000 0.053000 1.200000 0.024000 0.028000
1560168373870387165	300 58 0.900000 0.061000 0.055000 1400 50 1.000000 3.010000 3.250000 600 65 1.000000 0.053000 0.053000 1.200000 0.044000 0.053000
1560168374395005624	300 58 0.900000 0.056000 0.051000 1400 50 1.000000 3.004000 3.244000 600 66 1.000000 0.053000 0.053000 1.200000 0.034000 0.041000
1560168374918423207	300 58 0.900000 0.040000 0.036000 1400 50 1.000000 3.008000 3.248000 600 66 1.000000 0.054000 0.054000 1.200000 0.024000 0.028000
1560168375442239207	300 58 0.900000 0.041000 0.037000 1400 50 1.000000 3.001000 3.241000 600 66 1.000000 0.053000 0.053000 1.200000 0.026000 0.031000
1560168375969393874	300 58 0.900000 0.043000 0.039000 1400 50 1.000000 3.001000 3.241000 600 66 1.000000 0.053000 0.053000 1.200000 0.026000 0.031000
1560168376495806582	300 58 0.900000 0.062000 0.056000 1400 50 1.000000 3.011000 3.251000 600 66 1.000000 0.053000 0.053000 1.200000 0.039000 0.047000
1560168377019508957	300 58 0.900000 0.069000 0.062000 1400 50 1.000000 3.008000 3.248000 600 65 1.000000 0.053000 0.053000 1.200000 0.033000 0.039000
1560168377543197541	300 58 0.900000 0.041000 0.037000 1400 50 1.000000 3.011000 3.251000 600 66 1.000000 0.054000 0.054000 1.200000 0.026000 0.031000
1560168378067242333	300 58 0.900000 0.042000 0.038000 1400 50 1.000000 3.005000 3.245000 600 66 1.000000 0.053000 0.053000 1.200000 0.026000 0.031000
1560168378597159333	300 58 0.900000 0.042000 0.038000 1400 50 1.000000 3.006000 3.246000 600 66 1.000000 0.053000 0.053000 1.200000 0.026000 0.031000
1560168379121036999	300 58 0.900000 0.076000 0.069000 1400 50 1.000000 3.005000 3.245000 600 66 1.000000 0.053000 0.053000 1.200000 0.051000 0.061000
1560168379644880208	300 58 0.900000 0.041000 0.037000 1400 50 1.000000 3.005000 3.245000 600 66 1.000000 0.054000 0.054000 1.200000 0.026000 0.031000
1560168380168460458	300 58 0.900000 0.042000 0.038000 1400 50 1.000000 3.007000 3.247000 600 66 1.000000 0.053000 0.053000 1.200000 0.026000 0.031000
1560168380692412583	300 58 0.900000 0.041000 0.037000 1400 50 1.000000 3.003000 3.243000 600 66 1.000000 0.053000 0.053000 1.200000 0.026000 0.031000
1560168381217861791	300 58 0.900000 0.056000 0.051000 1400 50 1.000000 3.014000 3.255000 600 66 1.000000 0.054000 0.054000 1.200000 0.036000 0.043000
1560168381741544625	300 58 0.900000 0.055000 0.050000 1400 50 1.000000 3.008000 3.248000 600 66 1.000000 0.053000 0.053000 1.200000 0.042000 0.050000
1560168382265142250	300 58 0.900000 0.042000 0.038000 1400 50 1.000000 3.002000 3.242000 600 66 1.000000 0.053000 0.053000 1.200000 0.025000 0.030000
1560168382788936166	300 58 0.900000 0.042000 0.038000 1400 50 1.000000 2.994000 3.233000 600 66 1.000000 0.053000 0.053000 1.200000 0.026000 0.031000
1560168383312418458	300 58 0.900000 0.041000 0.037000 1400 50 1.000000 3.003000 3.243000 600 66 1.000000 0.053000 0.053000 1.200000 0.029000 0.035000
1560168383836070708	300 58 0.900000 0.049000 0.044000 1400 50 1.000000 3.012000 3.252000 600 66 1.000000 0.053000 0.053000 1.200000 0.041000 0.049000
1560168384360140292	300 58 0.900000 0.054000 0.049000 1400 50 1.000000 3.005000 3.245000 600 66 1.000000 0.053000 0.053000 1.200000 0.028000 0.033000
1560168384883674750	300 58 0.900000 0.043000 0.039000 1400 50 1.000000 3.003000 3.243000 600 66 1.000000 0.053000 0.053000 1.200000 0.026000 0.031000
1560168385407150750	300 58 0.900000 0.041000 0.037000 1400 50 1.000000 3.000000 3.240000 600 66 1.000000 0.053000 0.053000 1.200000 0.027000 0.032000
1560168385932614875	300 58 0.900000 0.048000 0.043000 1400 50 1.000000 3.002000 3.242000 600 66 1.000000 0.054000 0.054000 1.200000 0.025000 0.030000
1560168386456322167	300 58 0.900000 0.063000 0.057000 1400 50 1.000000 3.009000 3.249000 600 66 1.000000 0.054000 0.054000 1.200000 0.047000 0.056000
1560168386979861917	300 58 0.900000 0.042000 0.038000 1400 50 1.000000 3.003000 3.243000 600 66 1.000000 0.053000 0.053000 1.200000 0.026000 0.031000
1560168387503823417	300 58 0.900000 0.042000 0.038000 1400 50 1.000000 3.004000 3.244000 600 66 1.000000 0.053000 0.053000 1.200000 0.025000 0.030000
1560168388027663417	300 59 0.900000 0.048000 0.043000 1400 50 1.000000 3.007000 3.247000 600 66 1.000000 0.053000 0.053000 1.200000 0.028000 0.033000
1560168388553597875	300 58 0.900000 0.044000 0.040000 1400 50 1.000000 3.001000 3.241000 600 66 1.000000 0.053000 0.053000 1.200000 0.027000 0.032000
1560168389077927917	300 58 0.900000 0.052000 0.047000 1400 50 1.000000 3.013000 3.254000 600 66 1.000000 0.054000 0.054000 1.200000 0.038000 0.045000
1560168389601750084	300 58 0.900000 0.043000 0.039000 1400 50 1.000000 3.008000 3.248000 600 66 1.000000 0.054000 0.054000 1.200000 0.024000 0.028000
1560168390125411167	300 58 0.900000 0.053000 0.048000 1400 50 1.000000 3.003000 3.243000 600 66 1.000000 0.053000 0.053000 1.200000 0.031000 0.037000
1560168390649354126	300 58 0.900000 0.043000 0.039000 1400 50 1.000000 2.998000 3.237000 600 66 1.000000 0.053000 0.053000 1.200000 0.024000 0.028000
1560168391177057376	300 58 0.900000 0.046000 0.041000 1400 50 1.000000 3.012000 3.252000 600 66 1.000000 0.054000 0.054000 1.200000 0.042000 0.050000
1560168391701621584	300 58 0.900000 0.053000 0.048000 1400 50 1.000000 3.004000 3.244000 600 66 1.000000 0.053000 0.053000 1.200000 0.025000 0.030000
1560168392224920626	300 58 0.900000 0.051000 0.046000 1400 50 1.000000 3.007000 3.247000 600 66 1.000000 0.054000 0.054000 1.200000 0.035000 0.042000
1560168392748813459	300 58 0.900000 0.043000 0.039000 1400 50 1.000000 3.006000 3.246000 600 66 1.000000 0.054000 0.054000 1.200000 0.025000 0.030000
1560168393276059834	300 58 0.900000 0.043000 0.039000 1400 50 1.000000 3.004000 3.244000 600 66 1.000000 0.054000 0.054000 1.200000 0.025000 0.030000
1560168393799893168	300 59 0.900000 0.063000 0.057000 1400 50 1.000000 3.010000 3.250000 600 66 1.000000 0.053000 0.053000 1.200000 0.046000 0.055000
1560168394323929126	300 59 0.900000 0.050000 0.045000 1400 50 1.000000 3.012000 3.252000 600 66 1.000000 0.053000 0.053000 1.200000 0.034000 0.041000
1560168394847690918	300 58 0.900000 0.041000 0.037000 1400 50 1.000000 2.999000 3.238000 600 66 1.000000 0.054000 0.054000 1.200000 0.025000 0.030000
1560168395371586126	300 58 0.900000 0.042000 0.038000 1400 50 1.000000 3.000000 3.240000 600 66 1.000000 0.054000 0.054000 1.200000 0.025000 0.030000
1560168395897547460	300 59 0.900000 0.042000 0.038000 1400 50 1.000000 3.004000 3.244000 600 66 1.000000 0.053000 0.053000 1.200000 0.026000 0.031000
1560168396421336626	300 59 0.900000 0.063000 0.057000 1400 50 1.000000 3.015000 3.256000 600 66 1.000000 0.053000 0.053000 1.200000 0.047000 0.056000
1560168396945266543	300 59 0.900000 0.049000 0.044000 1400 50 1.000000 3.000000 3.240000 600 66 1.000000 0.054000 0.054000 1.200000 0.032000 0.038000
1560168397468933043	300 58 0.900000 0.043000 0.039000 1400 50 1.000000 2.996000 3.235000 600 66 1.000000 0.054000 0.054000 1.200000 0.027000 0.032000
1560168397992496835	300 59 0.900000 0.042000 0.038000 1400 50 1.000000 3.001000 3.241000 600 66 1.000000 0.054000 0.054000 1.200000 0.027000 0.032000
1560168398519263877	300 59 0.900000 0.049000 0.044000 1400 50 1.000000 3.007000 3.247000 600 66 1.000000 0.053000 0.053000 1.200000 0.027000 0.032000
1560168399043956960	300 59 0.900000 0.058000 0.052000 1400 50 1.000000 3.000000 3.240000 600 66 1.000000 0.053000 0.053000 1.200000 0.049000 0.059000
1560168399567909668	300 59 0.900000 0.040000 0.036000 1400 50 1.000000 3.003000 3.243000 600 66 1.000000 0.054000 0.054000 1.200000 0.027000 0.032000
1560168400091210668	300 58 0.900000 0.040000 0.036000 1400 50 1.000000 3.006000 3.246000 600 66 1.000000 0.053000 0.053000 1.200000 0.027000 0.032000
1560168400614752752	300 59 0.900000 0.041000 0.037000 1400 50 1.000000 3.004000 3.244000 600 66 1.000000 0.054000 0.054000 1.200000 0.027000 0.032000
1560168401138170002	300 59 0.900000 0.071000 0.064000 1400 50 1.000000 3.014000 3.255000 600 66 1.000000 0.054000 0.054000 1.200000 0.042000 0.050000
1560168401661803127	300 59 0.900000 0.041000 0.037000 1400 50 1.000000 3.024000 3.265000 600 66 1.000000 0.054000 0.054000 1.200000 0.031000 0.037000
1560168402185696544	300 59 0.900000 0.043000 0.039000 1400 50 1.000000 3.015000 3.256000 600 66 1.000000 0.054000 0.054000 1.200000 0.026000 0.031000
1560168402709717210	300 59 0.900000 0.042000 0.038000 1400 50 1.000000 3.022000 3.263000 600 66 1.000000 0.053000 0.053000 1.200000 0.027000 0.032000
1560168403237743252	300 59 0.900000 0.046000 0.041000 1400 50 1.000000 3.027000 3.269000 600 66 1.000000 0.054000 0.054000 1.200000 0.028000 0.033000
1560168403762055711	300 59 0.900000 0.063000 0.057000 1400 50 1.000000 3.012000 3.252000 600 66 1.000000 0.053000 0.053000 1.200000 0.046000 0.055000
1560168404285675544	300 59 0.900000 0.042000 0.038000 1400 50 1.000000 3.014000 3.255000 600 66 1.000000 0.054000 0.054000 1.200000 0.026000 0.031000
1560168404809281919	300 59 0.900000 0.040000 0.036000 1400 50 1.000000 3.021000 3.262000 600 66 1.000000 0.054000 0.054000 1.200000 0.026000 0.031000
1560168405333213794	300 59 0.900000 0.043000 0.039000 1400 50 1.000000 3.034000 3.276000 600 66 1.000000 0.053000 0.053000 1.200000 0.026000 0.031000
1560168405861157919	300 59 0.900000 0.047000 0.042000 1400 50 1.000000 3.028000 3.270000 600 66 1.000000 0.054000 0.054000 1.200000 0.026000 0.031000
1560168406385635211	300 59 0.900000 0.048000 0.043000 1400 51 1.000000 3.010000 3.250000 600 66 1.000000 0.054000 0.054000 1.200000 0.042000 0.050000
1560168406909439294	300 59 0.900000 0.040000 0.036000 1400 50 1.000000 3.006000 3.246000 600 66 1.000000 0.054000 0.054000 1.200000 0.027000 0.032000
1560168407433586294	300 59 0.900000 0.043000 0.039000 1400 50 1.000000 3.010000 3.250000 600 66 1.000000 0.054000 0.054000 1.200000 0.026000 0.031000
1560168407957602669	300 59 0.900000 0.040000 0.036000 1400 50 1.000000 3.009000 3.249000 600 66 1.000000 0.053000 0.053000 1.200000 0.028000 0.033000
1560168408483407628	300 59 0.900000 0.050000 0.045000 1400 50 1.000000 3.009000 3.249000 600 66 1.000000 0.053000 0.053000 1.200000 0.038000 0.045000
1560168409011226045	300 59 0.900000 0.049000 0.044000 1400 50 1.000000 3.010000 3.250000 600 66 1.000000 0.054000 0.054000 1.200000 0.026000 0.031000
1560168409535432295	300 59 0.900000 0.042000 0.038000 1400 50 1.000000 3.010000 3.250000 600 66 1.000000 0.054000 0.054000 1.200000 0.024000 0.028000
1560168410059385295	300 59 0.900000 0.056000 0.051000 1400 50 1.000000 3.009000 3.249000 600 66 1.000000 0.053000 0.053000 1.200000 0.031000 0.037000
1560168410586934253	300 59 0.900000 0.041000 0.037000 1400 50 1.000000 3.016000 3.257000 600 66 1.000000 0.054000 0.054000 1.200000 0.024000 0.028000
1560168411110916503	300 59 0.900000 0.061000 0.055000 1400 50 1.000000 3.005000 3.245000 600 66 1.000000 0.054000 0.054000 1.200000 0.045000 0.054000
1560168411634275587	300 59 0.900000 0.040000 0.036000 1400 50 1.000000 3.010000 3.250000 600 66 1.000000 0.054000 0.054000 1.200000 0.025000 0.030000
1560168412157961003	300 59 0.900000 0.055000 0.050000 1400 50 1.000000 3.020000 3.261000 600 66 1.000000 0.053000 0.053000 1.200000 0.035000 0.042000
1560168412681927087	300 59 0.900000 0.040000 0.036000 1400 50 1.000000 3.004000 3.244000 600 66 1.000000 0.053000 0.053000 1.200000 0.024000 0.028000
1560168413208004587	300 59 0.900000 0.049000 0.044000 1400 50 1.000000 3.008000 3.248000 600 66 1.000000 0.053000 0.053000 1.200000 0.025000 0.030000
1560168413736403503	300 59 0.900000 0.046000 0.041000 1400 51 1.000000 3.005000 3.245000 600 66 1.000000 0.054000 0.054000 1.200000 0.039000 0.047000
1560168414260191337	300 59 0.900000 0.055000 0.050000 1400 51 1.000000 3.005000 3.245000 600 66 1.000000 0.053000 0.053000 1.200000 0.033000 0.039000
1560168414783856962	300 59 0.900000 0.043000 0.039000 1400 50 1.000000 3.004000 3.244000 600 66 1.000000 0.054000 0.054000 1.200000 0.024000 0.028000
1560168415307580337	300 59 0.900000 0.041000 0.037000 1400 50 1.000000 3.003000 3.243000 600 66 1.000000 0.053000 0.053000 1.200000 0.023000 0.027000
1560168415836238129	300 59 0.900000 0.050000 0.045000 1400 51 1.000000 3.005000 3.245000 600 66 1.000000 0.053000 0.053000 1.200000 0.040000 0.048000
1560168416359881962	300 59 0.900000 0.048000 0.043000 1400 51 1.000000 3.008000 3.248000 600 66 1.000000 0.053000 0.053000 1.200000 0.029000 0.035000
1560168416884228295	300 59 0.900000 0.040000 0.036000 1400 50 1.000000 3.010000 3.250000 600 66 1.000000 0.053000 0.053000 1.200000 0.024000 0.028000
1560168417408491504	300 59 0.900000 0.040000 0.036000 1400 50 1.000000 3.009000 3.249000 600 66 1.000000 0.053000 0.053000 1.200000 0.024000 0.028000
1560168417933449462	300 59 0.900000 0.040000 0.036000 1400 51 1.000000 3.007000 3.247000 600 66 1.000000 0.053000 0.053000 1.200000 0.024000 0.028000
1560168418458754421	300 59 0.900000 0.063000 0.057000 1400 51 1.000000 3.007000 3.247000 600 66 1.000000 0.053000 0.053000 1.200000 0.045000 0.054000
1560168418982928879	300 59 0.900000 0.040000 0.036000 1400 51 1.000000 3.005000 3.245000 600 66 1.000000 0.053000 0.053000 1.200000 0.024000 0.028000
1560168419506688254	300 59 0.900000 0.040000 0.036000 1400 50 1.000000 3.004000 3.244000 600 66 1.000000 0.054000 0.054000 1.200000 0.024000 0.028000
1560168420030273213	300 59 0.900000 0.042000 0.038000 1400 50 1.000000 3.006000 3.246000 600 66 1.000000 0.054000 0.054000 1.200000 0.024000 0.028000
1560168420557662879	300 59 0.900000 0.042000 0.038000 1400 50 1.000000 3.009000 3.249000 600 66 1.000000 0.054000 0.054000 1.200000 0.026000 0.031000
1560168421082306629	300 59 0.900000 0.050000 0.045000 1400 51 1.000000 3.009000 3.249000 600 66 1.000000 0.053000 0.053000 1.200000 0.049000 0.059000
1560168421606208213	300 59 0.900000 0.046000 0.041000 1400 51 1.000000 3.006000 3.246000 600 66 1.000000 0.053000 0.053000 1.200000 0.027000 0.032000
1560168422129890838	300 59 0.900000 0.043000 0.039000 1400 50 1.000000 3.011000 3.251000 600 66 1.000000 0.053000 0.053000 1.200000 0.026000 0.031000
1560168422653854880	300 59 0.900000 0.041000 0.037000 1400 50 1.000000 3.006000 3.246000 600 66 1.000000 0.053000 0.053000 1.200000 0.026000 0.031000
1560168423181906338	300 59 0.900000 0.041000 0.037000 1400 51 1.000000 3.004000 3.244000 600 66 1.000000 0.053000 0.053000 1.200000 0.029000 0.035000
1560168423709048463	300 59 0.900000 0.063000 0.057000 1400 51 1.000000 3.008000 3.248000 600 66 1.000000 0.053000 0.053000 1.200000 0.044000 0.053000
1560168424233045213	300 54 0.900000 0.042000 0.038000 1400 50 1.000000 3.005000 3.245000 600 62 1.000000 0.054000 0.054000 1.200000 0.026000 0.031000
1560168424757396005	300 49 0.900000 0.032000 0.029000 1400 48 1.000000 1.241000 1.336000 600 55 1.000000 0.053000 0.053000 1.200000 0.029000 0.035000
1560168425281138921	300 47 0.900000 0.020000 0.018000 1400 46 1.000000 0.193000 0.207000 600 52 1.000000 0.053000 0.053000 1.200000 0.024000 0.028000
