#Timestamp	CPU(0) Frequency(MHz)	CPU(0) Temperature(C)	A7 Voltage(V)	A7 Current(A)	A7 Power(W)	CPU(4) Frequency(MHz)	CPU(4) Temperature(C)	A15 Voltage(V)	A15 Current(A)	A15 Power(W)	GPU Frequency(MHz)	GPU Temperature(C)	GPU Voltage(V)	GPU Current(A)	GPU Power(W)	RAM Voltage(V)	RAM Current(A)	RAM Power(W)
1517156124529560080	700 52 0.900000 0.111000 0.109000 2000 36 1.300000 3.232000 4.305000 600 45 1.000000 0.051000 0.051000 1.200000 0.024000 0.028000
1517156125034313622	700 58 0.900000 0.112000 0.110000 2000 40 1.300000 4.070000 5.437000 600 50 1.000000 0.051000 0.051000 1.200000 0.023000 0.027000
1517156125538850830	700 61 0.900000 0.114000 0.112000 2000 42 1.300000 4.247000 5.678000 600 53 1.000000 0.051000 0.051000 1.200000 0.024000 0.028000
1517156126043340497	700 63 0.900000 0.114000 0.112000 2000 44 1.300000 4.234000 5.660000 600 55 1.000000 0.052000 0.052000 1.200000 0.023000 0.027000
1517156126547804997	700 65 0.900000 0.116000 0.114000 2000 46 1.300000 4.252000 5.684000 600 57 1.000000 0.052000 0.052000 1.200000 0.023000 0.027000
1517156127052646747	700 66 0.900000 0.116000 0.114000 2000 47 1.300000 4.276000 5.717000 600 59 1.000000 0.053000 0.053000 1.200000 0.024000 0.028000
1517156127557394622	700 67 0.900000 0.117000 0.115000 2000 48 1.300000 4.531000 6.062000 600 60 1.000000 0.053000 0.053000 1.200000 0.029000 0.035000
1517156128061952331	700 69 0.900000 0.116000 0.114000 2000 49 1.300000 4.296000 5.743000 600 61 1.000000 0.053000 0.053000 1.200000 0.023000 0.027000
1517156128566468164	700 69 0.900000 0.117000 0.115000 2000 50 1.300000 4.298000 5.746000 600 62 1.000000 0.053000 0.053000 1.200000 0.023000 0.027000
1517156129070946914	700 70 0.900000 0.117000 0.115000 2000 51 1.300000 4.403000 5.886000 600 63 1.000000 0.053000 0.053000 1.200000 0.023000 0.027000
1517156129575419539	700 71 0.900000 0.117000 0.115000 2000 52 1.300000 4.340000 5.802000 600 64 1.000000 0.053000 0.053000 1.200000 0.023000 0.027000
1517156130079891831	700 72 0.900000 0.118000 0.116000 2000 52 1.300000 4.381000 5.857000 600 64 1.000000 0.053000 0.053000 1.200000 0.023000 0.027000
1517156130584635831	700 73 0.900000 0.119000 0.117000 2000 53 1.300000 4.638000 6.214000 600 65 1.000000 0.053000 0.053000 1.200000 0.027000 0.032000
1517156131089284039	700 73 0.900000 0.119000 0.117000 2000 54 1.300000 4.437000 5.936000 600 65 1.000000 0.054000 0.054000 1.200000 0.023000 0.027000
1517156131593819373	700 74 0.900000 0.119000 0.117000 2000 54 1.300000 4.400000 5.887000 600 66 1.000000 0.054000 0.054000 1.200000 0.023000 0.027000
1517156132098305206	700 74 0.900000 0.119000 0.117000 2000 54 1.300000 4.407000 5.896000 600 66 1.000000 0.054000 0.054000 1.200000 0.023000 0.027000
1517156132602684581	700 74 0.900000 0.118000 0.116000 2000 55 1.300000 4.385000 5.867000 600 67 1.000000 0.054000 0.054000 1.200000 0.023000 0.027000
1517156133107117248	700 75 0.900000 0.120000 0.118000 2000 55 1.300000 4.443000 5.944000 600 67 1.000000 0.054000 0.054000 1.200000 0.023000 0.027000
1517156133611729831	700 75 0.900000 0.119000 0.117000 2000 55 1.300000 4.468000 5.978000 600 68 1.000000 0.055000 0.055000 1.200000 0.027000 0.032000
1517156134116404831	700 76 0.900000 0.119000 0.117000 2000 56 1.300000 4.412000 5.903000 600 68 1.000000 0.055000 0.055000 1.200000 0.023000 0.027000
1517156134620928748	700 76 0.900000 0.120000 0.118000 2000 56 1.300000 4.455000 5.960000 600 68 1.000000 0.055000 0.055000 1.200000 0.023000 0.027000
1517156135125609082	700 76 0.900000 0.120000 0.118000 2000 56 1.300000 4.491000 6.008000 600 69 1.000000 0.055000 0.055000 1.200000 0.023000 0.027000
1517156135630175373	700 77 0.900000 0.120000 0.118000 2000 57 1.300000 4.444000 5.946000 600 69 1.000000 0.055000 0.055000 1.200000 0.023000 0.027000
1517156136134589373	700 77 0.900000 0.121000 0.119000 2000 57 1.300000 4.469000 5.979000 600 69 1.000000 0.055000 0.055000 1.200000 0.023000 0.027000
1517156136639177082	700 77 0.900000 0.121000 0.119000 2000 57 1.300000 4.454000 5.959000 600 70 1.000000 0.055000 0.055000 1.200000 0.023000 0.027000
1517156137143720665	700 77 0.900000 0.121000 0.119000 2000 57 1.300000 4.451000 5.950000 600 70 1.000000 0.055000 0.055000 1.200000 0.024000 0.028000
1517156137648443749	700 77 0.900000 0.121000 0.119000 2000 58 1.300000 4.507000 6.030000 600 70 1.000000 0.055000 0.055000 1.200000 0.023000 0.027000
1517156138152929124	700 78 0.900000 0.121000 0.119000 2000 58 1.300000 4.471000 5.982000 600 70 1.000000 0.055000 0.055000 1.200000 0.023000 0.027000
1517156138657438165	700 78 0.900000 0.121000 0.119000 2000 58 1.300000 4.502000 6.023000 600 70 1.000000 0.055000 0.055000 1.200000 0.023000 0.027000
1517156139162010874	700 68 0.900000 0.122000 0.120000 2000 58 1.300000 4.510000 6.034000 600 70 1.000000 0.055000 0.055000 1.200000 0.023000 0.027000
1517156139666493832	700 57 0.900000 0.064000 0.063000 2000 53 1.300000 0.544000 0.716000 600 63 1.000000 0.055000 0.055000 1.200000 0.028000 0.033000
