#Timestamp	CPU(0) Frequency(MHz)	CPU(0) Temperature(C)	A7 Voltage(V)	A7 Current(A)	A7 Power(W)	CPU(4) Frequency(MHz)	CPU(4) Temperature(C)	A15 Voltage(V)	A15 Current(A)	A15 Power(W)	GPU Frequency(MHz)	GPU Temperature(C)	GPU Voltage(V)	GPU Current(A)	GPU Power(W)	RAM Voltage(V)	RAM Current(A)	RAM Power(W)
1559843165549671939	1000 38 1.000000 0.087000 0.090000 1000 35 0.900000 0.176000 0.169000 600 40 1.000000 0.051000 0.051000 1.200000 0.040000 0.048000
1559843166057825189	1000 39 1.100000 0.048000 0.052000 1000 36 0.900000 0.526000 0.508000 600 40 1.000000 0.051000 0.051000 1.200000 0.032000 0.038000
1559843166565638606	1000 39 1.100000 0.084000 0.092000 1000 36 0.900000 0.604000 0.583000 600 40 1.000000 0.051000 0.051000 1.200000 0.046000 0.055000
1559843167073526397	1000 39 1.100000 0.047000 0.051000 1000 36 0.900000 0.523000 0.504000 600 40 1.000000 0.051000 0.051000 1.200000 0.032000 0.038000
1559843167581216564	1000 39 1.100000 0.046000 0.050000 1000 36 0.900000 0.523000 0.504000 600 40 1.000000 0.051000 0.051000 1.200000 0.031000 0.037000
1559843168089480856	1000 39 1.100000 0.046000 0.050000 1000 36 0.900000 0.523000 0.504000 600 40 1.000000 0.051000 0.051000 1.200000 0.031000 0.037000
1559843168598895939	1000 39 1.100000 0.074000 0.081000 1000 36 0.900000 0.547000 0.528000 600 41 1.000000 0.051000 0.051000 1.200000 0.047000 0.056000
1559843169107302273	1000 40 1.000000 0.147000 0.161000 1000 37 0.900000 1.263000 1.222000 600 44 1.000000 0.051000 0.051000 1.200000 0.038000 0.045000
1559843169616185189	1000 41 1.000000 0.148000 0.162000 1000 37 0.900000 1.267000 1.226000 600 45 1.000000 0.051000 0.051000 1.200000 0.040000 0.048000
1559843170124479398	1000 41 1.000000 0.146000 0.160000 1000 37 0.900000 1.274000 1.233000 600 46 1.000000 0.051000 0.051000 1.200000 0.038000 0.045000
1559843170632908439	1000 42 1.000000 0.149000 0.163000 1000 38 0.900000 1.280000 1.239000 600 46 1.000000 0.051000 0.051000 1.200000 0.045000 0.054000
1559843171141348148	1000 42 1.000000 0.175000 0.191000 1000 38 0.900000 1.317000 1.274000 600 46 1.000000 0.051000 0.051000 1.200000 0.041000 0.049000
1559843171649733565	1000 42 1.000000 0.149000 0.163000 1000 38 0.900000 1.280000 1.239000 600 46 1.000000 0.051000 0.051000 1.200000 0.036000 0.043000
1559843172157932565	1000 42 1.000000 0.147000 0.161000 1000 38 0.900000 1.273000 1.232000 600 47 1.000000 0.051000 0.051000 1.200000 0.038000 0.045000
1559843172666166190	1000 42 1.000000 0.163000 0.178000 1000 38 0.900000 1.277000 1.236000 600 47 1.000000 0.051000 0.051000 1.200000 0.043000 0.051000
1559843173174356856	1000 42 1.000000 0.174000 0.190000 1000 39 0.900000 1.335000 1.292000 600 47 1.000000 0.051000 0.051000 1.200000 0.046000 0.055000
1559843173682544356	1000 42 1.000000 0.145000 0.159000 1000 39 0.900000 1.255000 1.214000 600 47 1.000000 0.051000 0.051000 1.200000 0.037000 0.044000
1559843174191079065	1000 42 1.000000 0.148000 0.162000 1000 39 0.900000 1.267000 1.226000 600 47 1.000000 0.051000 0.051000 1.200000 0.039000 0.047000
1559843174701179190	1000 42 1.000000 0.165000 0.181000 1000 39 0.900000 1.272000 1.231000 600 47 1.000000 0.051000 0.051000 1.200000 0.046000 0.055000
1559843175210668648	1000 43 1.000000 0.180000 0.197000 1000 39 0.900000 1.323000 1.283000 600 47 1.000000 0.052000 0.052000 1.200000 0.041000 0.049000
1559843175719500607	1000 43 1.000000 0.147000 0.161000 1000 39 0.900000 1.265000 1.224000 600 47 1.000000 0.051000 0.051000 1.200000 0.037000 0.044000
1559843176228647648	1000 43 1.000000 0.149000 0.163000 1000 39 0.900000 1.268000 1.227000 600 47 1.000000 0.051000 0.051000 1.200000 0.038000 0.045000
1559843176737701815	1000 43 1.000000 0.166000 0.181000 1000 39 0.900000 1.272000 1.233000 600 47 1.000000 0.051000 0.051000 1.200000 0.038000 0.045000
1559843177247249774	1000 43 1.000000 0.147000 0.161000 1000 39 0.900000 1.281000 1.240000 600 48 1.000000 0.051000 0.051000 1.200000 0.037000 0.044000
1559843177755864940	1000 43 1.000000 0.181000 0.198000 1000 39 0.900000 1.286000 1.244000 600 48 1.000000 0.052000 0.052000 1.200000 0.057000 0.068000
1559843178264084399	1000 43 1.000000 0.150000 0.164000 1000 39 0.900000 1.267000 1.226000 600 48 1.000000 0.051000 0.051000 1.200000 0.035000 0.042000
1559843178772423982	1000 43 1.000000 0.147000 0.161000 1000 39 0.900000 1.292000 1.250000 600 48 1.000000 0.051000 0.051000 1.200000 0.037000 0.044000
1559843179282276149	1000 43 1.000000 0.145000 0.159000 1000 39 0.900000 1.273000 1.232000 600 48 1.000000 0.051000 0.051000 1.200000 0.037000 0.044000
1559843179790910816	1000 43 1.000000 0.178000 0.195000 1000 39 0.900000 1.304000 1.262000 600 48 1.000000 0.051000 0.051000 1.200000 0.057000 0.068000
1559843180300109316	1000 43 1.000000 0.149000 0.163000 1000 39 0.900000 1.266000 1.225000 600 48 1.000000 0.051000 0.051000 1.200000 0.037000 0.044000
1559843180808338982	1000 43 1.000000 0.160000 0.175000 1000 39 0.900000 1.296000 1.254000 600 48 1.000000 0.051000 0.051000 1.200000 0.039000 0.047000
1559843181316492566	1000 43 1.000000 0.147000 0.161000 1000 39 0.900000 1.267000 1.226000 600 48 1.000000 0.051000 0.051000 1.200000 0.038000 0.045000
1559843181824652024	1000 43 1.000000 0.180000 0.197000 1000 39 0.900000 1.322000 1.279000 600 48 1.000000 0.051000 0.051000 1.200000 0.047000 0.056000
1559843182332809774	1000 43 1.000000 0.147000 0.161000 1000 39 0.900000 1.271000 1.230000 600 48 1.000000 0.051000 0.051000 1.200000 0.039000 0.047000
1559843182840956899	1000 43 1.000000 0.165000 0.181000 1000 39 0.900000 1.273000 1.232000 600 48 1.000000 0.052000 0.052000 1.200000 0.038000 0.045000
1559843183349873649	1000 43 1.000000 0.149000 0.163000 1000 39 0.900000 1.271000 1.230000 600 48 1.000000 0.051000 0.051000 1.200000 0.036000 0.043000
1559843183858049358	1000 43 1.000000 0.149000 0.163000 1000 40 0.900000 1.273000 1.232000 600 48 1.000000 0.051000 0.051000 1.200000 0.037000 0.044000
1559843184366350191	1000 43 1.000000 0.178000 0.195000 1000 39 0.900000 1.284000 1.242000 600 48 1.000000 0.051000 0.051000 1.200000 0.052000 0.062000
1559843184874470274	1000 43 1.000000 0.144000 0.158000 1000 40 0.900000 1.268000 1.227000 600 48 1.000000 0.052000 0.052000 1.200000 0.037000 0.044000
1559843185382661941	1000 43 1.000000 0.148000 0.162000 1000 39 0.900000 1.270000 1.229000 600 48 1.000000 0.051000 0.051000 1.200000 0.038000 0.045000
1559843185890971483	1000 43 1.000000 0.148000 0.162000 1000 40 0.900000 1.267000 1.226000 600 48 1.000000 0.052000 0.052000 1.200000 0.038000 0.045000
1559843186399304483	1000 43 1.000000 0.174000 0.190000 1000 40 0.900000 1.279000 1.238000 600 48 1.000000 0.051000 0.051000 1.200000 0.059000 0.071000
1559843186907425316	1000 43 1.000000 0.148000 0.162000 1000 40 0.900000 1.273000 1.232000 600 48 1.000000 0.051000 0.051000 1.200000 0.040000 0.048000
1559843187415629233	1000 43 1.000000 0.147000 0.161000 1000 40 0.900000 1.272000 1.231000 600 48 1.000000 0.052000 0.052000 1.200000 0.037000 0.044000
1559843187923923566	1000 43 1.000000 0.147000 0.161000 1000 40 0.900000 1.270000 1.229000 600 48 1.000000 0.052000 0.052000 1.200000 0.038000 0.045000
1559843188432073150	1000 43 1.000000 0.171000 0.187000 1000 40 0.900000 1.296000 1.254000 600 48 1.000000 0.052000 0.052000 1.200000 0.058000 0.070000
1559843188942803067	1000 43 1.000000 0.160000 0.175000 1000 40 0.900000 1.273000 1.232000 600 48 1.000000 0.051000 0.051000 1.200000 0.038000 0.045000
1559843189450994442	1000 44 1.000000 0.153000 0.167000 1000 40 0.900000 1.284000 1.242000 600 48 1.000000 0.052000 0.052000 1.200000 0.036000 0.043000
1559843189962068525	1000 43 1.000000 0.148000 0.162000 1000 40 0.900000 1.277000 1.236000 600 48 1.000000 0.051000 0.051000 1.200000 0.036000 0.043000
1559843190471970483	1000 43 1.000000 0.157000 0.172000 1000 40 0.900000 1.283000 1.241000 600 48 1.000000 0.052000 0.052000 1.200000 0.052000 0.062000
1559843190982092150	1000 43 1.000000 0.169000 0.185000 1000 40 0.900000 1.319000 1.279000 600 48 1.000000 0.051000 0.051000 1.200000 0.043000 0.052000
1559843191490860317	1000 43 1.000000 0.168000 0.184000 1000 40 0.900000 1.278000 1.237000 600 48 1.000000 0.051000 0.051000 1.200000 0.046000 0.055000
1559843191999000192	1000 44 1.000000 0.150000 0.164000 1000 40 0.900000 1.271000 1.232000 600 48 1.000000 0.051000 0.051000 1.200000 0.038000 0.045000
1559843192507378775	1000 44 1.000000 0.150000 0.164000 1000 40 0.900000 1.277000 1.236000 600 48 1.000000 0.052000 0.052000 1.200000 0.039000 0.047000
1559843193015534150	1000 44 1.000000 0.165000 0.181000 1000 40 0.900000 1.328000 1.288000 600 48 1.000000 0.052000 0.052000 1.200000 0.051000 0.061000
1559843193523808359	1000 43 1.000000 0.159000 0.174000 1000 40 0.900000 1.279000 1.240000 600 48 1.000000 0.052000 0.052000 1.200000 0.044000 0.053000
1559843194032007401	1000 44 1.000000 0.148000 0.162000 1000 40 0.900000 1.285000 1.243000 600 48 1.000000 0.051000 0.051000 1.200000 0.037000 0.044000
1559843194540366984	1000 44 1.000000 0.148000 0.162000 1000 40 0.900000 1.289000 1.250000 600 48 1.000000 0.052000 0.052000 1.200000 0.037000 0.044000
1559843195048519609	1000 44 1.000000 0.160000 0.175000 1000 40 0.900000 1.359000 1.318000 600 48 1.000000 0.052000 0.052000 1.200000 0.053000 0.064000
1559843195556784401	1000 44 1.000000 0.150000 0.164000 1000 40 0.900000 1.317000 1.277000 600 49 1.000000 0.052000 0.052000 1.200000 0.040000 0.048000
1559843196065059401	1000 44 1.000000 0.152000 0.166000 1000 40 0.900000 1.306000 1.266000 600 49 1.000000 0.051000 0.051000 1.200000 0.036000 0.043000
1559843196573170484	1000 44 1.000000 0.152000 0.166000 1000 40 0.900000 1.312000 1.272000 600 48 1.000000 0.052000 0.052000 1.200000 0.038000 0.045000
1559843197081451234	1000 44 1.000000 0.170000 0.186000 1000 40 0.900000 1.341000 1.298000 600 49 1.000000 0.051000 0.051000 1.200000 0.054000 0.065000
1559843197589584359	1000 44 1.000000 0.167000 0.183000 1000 40 0.900000 1.308000 1.268000 600 49 1.000000 0.052000 0.052000 1.200000 0.037000 0.044000
1559843198097892776	1000 44 1.000000 0.152000 0.166000 1000 40 0.900000 1.316000 1.273000 600 49 1.000000 0.052000 0.052000 1.200000 0.039000 0.047000
1559843198606091151	1000 44 1.000000 0.151000 0.165000 1000 40 0.900000 1.305000 1.265000 600 49 1.000000 0.051000 0.051000 1.200000 0.037000 0.044000
1559843199114724693	1000 44 1.000000 0.151000 0.165000 1000 40 0.900000 1.315000 1.272000 600 49 1.000000 0.052000 0.052000 1.200000 0.038000 0.045000
1559843199626082276	1000 44 1.000000 0.175000 0.191000 1000 40 0.900000 1.338000 1.295000 600 49 1.000000 0.051000 0.051000 1.200000 0.047000 0.056000
1559843200135601985	1000 44 1.000000 0.151000 0.165000 1000 40 0.900000 1.307000 1.265000 600 49 1.000000 0.052000 0.052000 1.200000 0.039000 0.047000
1559843200644847735	1000 44 1.000000 0.146000 0.160000 1000 40 0.900000 1.310000 1.270000 600 49 1.000000 0.052000 0.052000 1.200000 0.037000 0.044000
1559843201153629735	1000 44 1.000000 0.151000 0.165000 1000 40 0.900000 1.311000 1.271000 600 49 1.000000 0.051000 0.051000 1.200000 0.038000 0.045000
1559843201662044485	1000 44 1.000000 0.163000 0.178000 1000 40 0.900000 1.398000 1.356000 600 49 1.000000 0.052000 0.052000 1.200000 0.050000 0.060000
1559843202170250568	1000 44 1.000000 0.151000 0.165000 1000 40 0.900000 1.311000 1.269000 600 49 1.000000 0.051000 0.051000 1.200000 0.036000 0.043000
1559843202678474818	1000 44 1.000000 0.151000 0.165000 1000 40 0.900000 1.311000 1.269000 600 49 1.000000 0.052000 0.052000 1.200000 0.037000 0.044000
1559843203186726193	1000 44 1.000000 0.152000 0.166000 1000 40 0.900000 1.303000 1.261000 600 49 1.000000 0.051000 0.051000 1.200000 0.037000 0.044000
1559843203695999318	1000 44 1.000000 0.191000 0.209000 1000 40 0.900000 1.379000 1.337000 600 49 1.000000 0.052000 0.052000 1.200000 0.056000 0.067000
1559843204204437027	1000 44 1.000000 0.151000 0.165000 1000 40 0.900000 1.300000 1.258000 600 49 1.000000 0.051000 0.051000 1.200000 0.037000 0.044000
1559843204712599568	1000 44 1.000000 0.151000 0.165000 1000 40 0.900000 1.302000 1.260000 600 49 1.000000 0.052000 0.052000 1.200000 0.038000 0.045000
1559843205220854610	1000 44 1.000000 0.150000 0.164000 1000 40 0.900000 1.309000 1.267000 600 49 1.000000 0.052000 0.052000 1.200000 0.039000 0.047000
1559843205729125319	1000 44 1.000000 0.149000 0.163000 1000 40 0.900000 1.303000 1.261000 600 49 1.000000 0.051000 0.051000 1.200000 0.041000 0.049000
1559843206237393985	1000 44 1.000000 0.147000 0.161000 1000 40 0.900000 1.320000 1.277000 600 49 1.000000 0.051000 0.051000 1.200000 0.037000 0.044000
1559843206745678235	1000 44 1.000000 0.152000 0.166000 1000 40 0.900000 1.302000 1.260000 600 49 1.000000 0.052000 0.052000 1.200000 0.037000 0.044000
1559843207253890944	1000 44 1.000000 0.151000 0.165000 1000 40 0.900000 1.307000 1.265000 600 49 1.000000 0.052000 0.052000 1.200000 0.037000 0.044000
1559843207763849861	1000 44 1.000000 0.169000 0.185000 1000 40 0.900000 1.306000 1.264000 600 48 1.000000 0.052000 0.052000 1.200000 0.041000 0.049000
1559843208275129402	1000 44 1.000000 0.184000 0.201000 1000 40 0.900000 1.326000 1.283000 600 49 1.000000 0.051000 0.051000 1.200000 0.036000 0.043000
1559843208784640694	1000 44 1.000000 0.151000 0.165000 1000 40 0.900000 1.303000 1.261000 600 49 1.000000 0.052000 0.052000 1.200000 0.038000 0.045000
1559843209293833736	1000 44 1.000000 0.151000 0.165000 1000 40 0.900000 1.292000 1.250000 600 49 1.000000 0.052000 0.052000 1.200000 0.036000 0.043000
1559843209802161611	1000 44 1.000000 0.152000 0.166000 1000 40 0.900000 1.300000 1.258000 600 49 1.000000 0.052000 0.052000 1.200000 0.043000 0.051000
1559843210310311527	1000 44 1.000000 0.179000 0.196000 1000 40 0.900000 1.325000 1.282000 600 49 1.000000 0.051000 0.051000 1.200000 0.044000 0.053000
1559843210818569028	1000 44 1.000000 0.149000 0.163000 1000 40 0.900000 1.293000 1.251000 600 49 1.000000 0.052000 0.052000 1.200000 0.036000 0.043000
1559843211326754819	1000 44 1.000000 0.147000 0.161000 1000 40 0.900000 1.290000 1.248000 600 49 1.000000 0.052000 0.052000 1.200000 0.038000 0.045000
1559843211835991819	1000 44 1.000000 0.169000 0.185000 1000 40 0.900000 1.303000 1.261000 600 49 1.000000 0.052000 0.052000 1.200000 0.042000 0.050000
1559843212344459153	1000 44 1.000000 0.152000 0.166000 1000 40 0.900000 1.296000 1.254000 600 49 1.000000 0.052000 0.052000 1.200000 0.045000 0.054000
1559843212852633153	1000 44 1.000000 0.149000 0.163000 1000 40 0.900000 1.285000 1.243000 600 49 1.000000 0.051000 0.051000 1.200000 0.052000 0.062000
1559843213360714695	1000 44 1.000000 0.149000 0.163000 1000 40 0.900000 1.297000 1.255000 600 49 1.000000 0.052000 0.052000 1.200000 0.037000 0.044000
1559843213868822986	1000 44 1.000000 0.149000 0.163000 1000 40 0.900000 1.284000 1.242000 600 49 1.000000 0.051000 0.051000 1.200000 0.038000 0.045000
1559843214378466945	1000 44 1.000000 0.149000 0.163000 1000 40 0.900000 1.295000 1.253000 600 49 1.000000 0.052000 0.052000 1.200000 0.044000 0.053000
1559843214888195445	1000 44 1.000000 0.180000 0.197000 1000 40 0.900000 1.291000 1.249000 600 49 1.000000 0.051000 0.051000 1.200000 0.055000 0.066000
1559843215396562986	1000 44 1.000000 0.152000 0.166000 1000 40 0.900000 1.292000 1.250000 600 49 1.000000 0.051000 0.051000 1.200000 0.038000 0.045000
1559843215904670278	1000 44 1.000000 0.149000 0.163000 1000 40 0.900000 1.281000 1.240000 600 49 1.000000 0.051000 0.051000 1.200000 0.038000 0.045000
1559843216414265320	1000 44 1.000000 0.152000 0.166000 1000 40 0.900000 1.285000 1.243000 600 49 1.000000 0.052000 0.052000 1.200000 0.042000 0.050000
1559843216925522445	1000 44 1.000000 0.176000 0.192000 1000 40 0.900000 1.304000 1.262000 600 49 1.000000 0.052000 0.052000 1.200000 0.057000 0.068000
1559843217434958278	1000 44 1.000000 0.148000 0.162000 1000 40 0.900000 1.280000 1.239000 600 49 1.000000 0.051000 0.051000 1.200000 0.037000 0.044000
1559843217943365778	1000 44 1.000000 0.149000 0.163000 1000 41 0.900000 1.290000 1.248000 600 49 1.000000 0.051000 0.051000 1.200000 0.038000 0.045000
1559843218451838278	1000 44 1.000000 0.151000 0.165000 1000 40 0.900000 1.290000 1.248000 600 49 1.000000 0.051000 0.051000 1.200000 0.037000 0.044000
1559843218959943612	1000 44 1.000000 0.176000 0.192000 1000 40 0.900000 1.320000 1.277000 600 49 1.000000 0.052000 0.052000 1.200000 0.056000 0.067000
1559843219468131279	1000 44 1.000000 0.149000 0.163000 1000 40 0.900000 1.291000 1.249000 600 49 1.000000 0.051000 0.051000 1.200000 0.041000 0.049000
1559843219976250070	1000 44 1.000000 0.150000 0.164000 1000 40 0.900000 1.292000 1.250000 600 49 1.000000 0.052000 0.052000 1.200000 0.037000 0.044000
1559843220484471987	1000 44 1.000000 0.160000 0.175000 1000 40 0.900000 1.302000 1.260000 600 49 1.000000 0.052000 0.052000 1.200000 0.045000 0.054000
1559843220992518862	1000 44 1.000000 0.150000 0.164000 1000 41 0.900000 1.271000 1.230000 600 49 1.000000 0.052000 0.052000 1.200000 0.036000 0.043000
1559843221500744779	1000 44 1.000000 0.175000 0.191000 1000 40 0.900000 1.285000 1.243000 600 49 1.000000 0.051000 0.051000 1.200000 0.047000 0.056000
1559843222010993571	1000 44 1.000000 0.148000 0.162000 1000 40 0.900000 1.276000 1.235000 600 49 1.000000 0.052000 0.052000 1.200000 0.039000 0.047000
1559843222519495737	1000 44 1.000000 0.162000 0.177000 1000 40 0.900000 1.275000 1.234000 600 49 1.000000 0.051000 0.051000 1.200000 0.043000 0.052000
1559843223027935946	1000 44 1.000000 0.149000 0.163000 1000 40 0.900000 1.283000 1.241000 600 49 1.000000 0.052000 0.052000 1.200000 0.038000 0.045000
1559843223536230154	1000 44 1.000000 0.170000 0.186000 1000 41 0.900000 1.268000 1.227000 600 49 1.000000 0.052000 0.052000 1.200000 0.053000 0.064000
1559843224044422862	1000 44 1.000000 0.149000 0.163000 1000 40 0.900000 1.282000 1.240000 600 49 1.000000 0.052000 0.052000 1.200000 0.039000 0.047000
1559843224552544154	1000 44 1.000000 0.165000 0.181000 1000 40 0.900000 1.283000 1.241000 600 49 1.000000 0.051000 0.051000 1.200000 0.043000 0.052000
1559843225060810946	1000 44 1.000000 0.149000 0.163000 1000 40 0.900000 1.281000 1.240000 600 49 1.000000 0.052000 0.052000 1.200000 0.038000 0.045000
1559843225570206946	1000 44 1.000000 0.167000 0.183000 1000 40 0.900000 1.293000 1.251000 600 49 1.000000 0.052000 0.052000 1.200000 0.058000 0.070000
1559843226079796946	1000 44 1.000000 0.150000 0.164000 1000 41 0.900000 1.279000 1.238000 600 49 1.000000 0.052000 0.052000 1.200000 0.037000 0.044000
1559843226588127363	1000 44 1.000000 0.165000 0.181000 1000 40 0.900000 1.271000 1.230000 600 49 1.000000 0.052000 0.052000 1.200000 0.038000 0.045000
1559843227096415446	1000 44 1.000000 0.150000 0.164000 1000 40 0.900000 1.283000 1.241000 600 49 1.000000 0.052000 0.052000 1.200000 0.038000 0.045000
1559843227604574446	1000 44 1.000000 0.147000 0.161000 1000 41 0.900000 1.287000 1.245000 600 49 1.000000 0.052000 0.052000 1.200000 0.038000 0.045000
1559843228112883696	1000 44 1.000000 0.161000 0.176000 1000 40 0.900000 1.312000 1.272000 600 49 1.000000 0.052000 0.052000 1.200000 0.040000 0.048000
1559843228621231196	1000 44 1.000000 0.145000 0.159000 1000 40 0.900000 1.280000 1.239000 600 49 1.000000 0.051000 0.051000 1.200000 0.040000 0.048000
1559843229129616655	1000 44 1.000000 0.149000 0.163000 1000 40 0.900000 1.283000 1.244000 600 49 1.000000 0.052000 0.052000 1.200000 0.038000 0.045000
1559843229638062863	1000 44 1.000000 0.147000 0.161000 1000 40 0.900000 1.271000 1.230000 600 49 1.000000 0.052000 0.052000 1.200000 0.036000 0.043000
1559843230146316863	1000 44 1.000000 0.158000 0.173000 1000 41 0.900000 1.319000 1.279000 600 49 1.000000 0.052000 0.052000 1.200000 0.045000 0.054000
1559843230654586863	1000 44 1.000000 0.158000 0.173000 1000 41 0.900000 1.285000 1.243000 600 49 1.000000 0.052000 0.052000 1.200000 0.041000 0.049000
1559843231162785530	1000 44 1.000000 0.148000 0.162000 1000 40 0.900000 1.296000 1.254000 600 49 1.000000 0.052000 0.052000 1.200000 0.037000 0.044000
1559843231672080572	1000 44 1.000000 0.149000 0.163000 1000 40 0.900000 1.281000 1.240000 600 49 1.000000 0.051000 0.051000 1.200000 0.037000 0.044000
1559843232180613488	1000 44 1.000000 0.155000 0.170000 1000 40 0.900000 1.324000 1.281000 600 49 1.000000 0.052000 0.052000 1.200000 0.050000 0.060000
1559843232688795072	1000 44 1.000000 0.155000 0.170000 1000 40 0.900000 1.318000 1.275000 600 49 1.000000 0.051000 0.051000 1.200000 0.041000 0.049000
1559843233198001322	1000 44 1.000000 0.145000 0.159000 1000 40 0.900000 1.286000 1.244000 600 49 1.000000 0.051000 0.051000 1.200000 0.038000 0.045000
1559843233707976655	1000 44 1.000000 0.144000 0.158000 1000 40 0.900000 1.271000 1.232000 600 49 1.000000 0.052000 0.052000 1.200000 0.037000 0.044000
1559843234217451405	1000 44 1.000000 0.150000 0.164000 1000 41 0.900000 1.280000 1.239000 600 49 1.000000 0.052000 0.052000 1.200000 0.039000 0.047000
1559843234726935239	1000 44 1.000000 0.155000 0.170000 1000 40 0.900000 1.284000 1.242000 600 49 1.000000 0.052000 0.052000 1.200000 0.037000 0.044000
1559843235235283655	1000 44 1.000000 0.149000 0.163000 1000 40 0.900000 1.287000 1.248000 600 49 1.000000 0.052000 0.052000 1.200000 0.037000 0.044000
1559843235743626781	1000 44 1.000000 0.145000 0.159000 1000 40 0.900000 1.272000 1.231000 600 49 1.000000 0.052000 0.052000 1.200000 0.038000 0.045000
1559843236251546781	1000 44 1.000000 0.148000 0.162000 1000 41 0.900000 1.280000 1.239000 600 49 1.000000 0.052000 0.052000 1.200000 0.038000 0.045000
1559843236759774906	1000 44 1.000000 0.152000 0.166000 1000 41 0.900000 1.323000 1.280000 600 49 1.000000 0.052000 0.052000 1.200000 0.040000 0.048000
1559843237268029072	1000 44 1.000000 0.146000 0.160000 1000 40 0.900000 1.265000 1.224000 600 49 1.000000 0.051000 0.051000 1.200000 0.036000 0.043000
1559843237776296447	1000 44 1.000000 0.145000 0.159000 1000 40 0.900000 1.276000 1.235000 600 49 1.000000 0.051000 0.051000 1.200000 0.038000 0.045000
1559843238285141156	1000 44 1.000000 0.143000 0.157000 1000 40 0.900000 1.273000 1.232000 600 49 1.000000 0.051000 0.051000 1.200000 0.035000 0.042000
1559843238793484614	1000 44 1.000000 0.155000 0.170000 1000 40 0.900000 1.303000 1.261000 600 49 1.000000 0.052000 0.052000 1.200000 0.048000 0.058000
1559843239301713073	1000 44 1.000000 0.146000 0.160000 1000 40 0.900000 1.263000 1.222000 600 49 1.000000 0.052000 0.052000 1.200000 0.038000 0.045000
1559843239809990948	1000 44 1.000000 0.146000 0.160000 1000 40 0.900000 1.265000 1.224000 600 49 1.000000 0.052000 0.052000 1.200000 0.037000 0.044000
1559843240318260698	1000 44 1.000000 0.146000 0.160000 1000 40 0.900000 1.283000 1.241000 600 49 1.000000 0.051000 0.051000 1.200000 0.039000 0.047000
1559843240826487864	1000 44 1.000000 0.146000 0.160000 1000 40 0.900000 1.273000 1.232000 600 49 1.000000 0.052000 0.052000 1.200000 0.046000 0.055000
1559843241334673531	1000 44 1.000000 0.154000 0.168000 1000 40 0.900000 1.297000 1.255000 600 49 1.000000 0.052000 0.052000 1.200000 0.038000 0.045000
1559843241843015323	1000 44 1.000000 0.146000 0.160000 1000 40 0.900000 1.274000 1.233000 600 48 1.000000 0.051000 0.051000 1.200000 0.038000 0.045000
1559843242353515781	1000 44 1.000000 0.149000 0.163000 1000 40 0.900000 1.285000 1.243000 600 49 1.000000 0.052000 0.052000 1.200000 0.039000 0.047000
1559843242862246281	1000 44 1.000000 0.145000 0.159000 1000 41 0.900000 1.266000 1.225000 600 49 1.000000 0.052000 0.052000 1.200000 0.038000 0.045000
1559843243371209031	1000 44 1.000000 0.146000 0.160000 1000 40 0.900000 1.278000 1.237000 600 49 1.000000 0.052000 0.052000 1.200000 0.036000 0.043000
1559843243879699781	1000 44 1.000000 0.144000 0.158000 1000 40 0.900000 1.271000 1.230000 600 49 1.000000 0.051000 0.051000 1.200000 0.038000 0.045000
1559843244388044782	1000 44 1.000000 0.145000 0.159000 1000 40 0.900000 1.264000 1.223000 600 49 1.000000 0.052000 0.052000 1.200000 0.036000 0.043000
1559843244897414198	1000 44 1.000000 0.145000 0.159000 1000 41 0.900000 1.266000 1.225000 600 49 1.000000 0.052000 0.052000 1.200000 0.038000 0.045000
1559843245405959240	1000 44 1.000000 0.146000 0.160000 1000 40 0.900000 1.282000 1.240000 600 49 1.000000 0.051000 0.051000 1.200000 0.038000 0.045000
1559843245914213073	1000 44 1.000000 0.146000 0.160000 1000 40 0.900000 1.262000 1.221000 600 49 1.000000 0.051000 0.051000 1.200000 0.036000 0.043000
1559843246422410990	1000 44 1.000000 0.146000 0.160000 1000 40 0.900000 1.262000 1.221000 600 49 1.000000 0.051000 0.051000 1.200000 0.038000 0.045000
1559843246930737282	1000 44 1.000000 0.146000 0.160000 1000 40 0.900000 1.264000 1.223000 600 49 1.000000 0.052000 0.052000 1.200000 0.038000 0.045000
1559843247439053574	1000 44 1.000000 0.158000 0.173000 1000 40 0.900000 1.324000 1.281000 600 49 1.000000 0.052000 0.052000 1.200000 0.056000 0.067000
1559843247947368282	1000 44 1.000000 0.146000 0.160000 1000 40 0.900000 1.272000 1.231000 600 49 1.000000 0.052000 0.052000 1.200000 0.038000 0.045000
1559843248455643574	1000 44 1.000000 0.146000 0.160000 1000 40 0.900000 1.268000 1.229000 600 49 1.000000 0.052000 0.052000 1.200000 0.037000 0.044000
1559843248963917449	1000 44 1.000000 0.146000 0.160000 1000 40 0.900000 1.273000 1.232000 600 49 1.000000 0.052000 0.052000 1.200000 0.038000 0.045000
1559843249472216615	1000 44 1.000000 0.157000 0.172000 1000 40 0.900000 1.323000 1.280000 600 49 1.000000 0.052000 0.052000 1.200000 0.045000 0.054000
1559843249980585699	1000 44 1.000000 0.149000 0.163000 1000 40 0.900000 1.291000 1.249000 600 49 1.000000 0.052000 0.052000 1.200000 0.037000 0.044000
1559843250488851699	1000 44 1.000000 0.145000 0.159000 1000 40 0.900000 1.272000 1.231000 600 49 1.000000 0.051000 0.051000 1.200000 0.036000 0.043000
1559843250999752616	1000 44 1.000000 0.145000 0.159000 1000 40 0.900000 1.263000 1.222000 600 49 1.000000 0.052000 0.052000 1.200000 0.037000 0.044000
1559843251510556282	1000 44 1.000000 0.146000 0.160000 1000 41 0.900000 1.268000 1.227000 600 49 1.000000 0.051000 0.051000 1.200000 0.040000 0.048000
1559843252019608782	1000 44 1.000000 0.145000 0.159000 1000 40 0.900000 1.267000 1.226000 600 49 1.000000 0.051000 0.051000 1.200000 0.036000 0.043000
1559843252528084824	1000 44 1.000000 0.146000 0.160000 1000 40 0.900000 1.261000 1.220000 600 49 1.000000 0.052000 0.052000 1.200000 0.037000 0.044000
1559843253036312158	1000 44 1.000000 0.145000 0.159000 1000 40 0.900000 1.265000 1.224000 600 49 1.000000 0.052000 0.052000 1.200000 0.039000 0.047000
1559843253544769116	1000 44 1.000000 0.154000 0.168000 1000 40 0.900000 1.261000 1.220000 600 49 1.000000 0.052000 0.052000 1.200000 0.041000 0.049000
1559843254053000199	1000 44 1.000000 0.173000 0.189000 1000 40 0.900000 1.269000 1.228000 600 49 1.000000 0.052000 0.052000 1.200000 0.057000 0.068000
1559843254561325783	1000 44 1.000000 0.146000 0.160000 1000 40 0.900000 1.279000 1.238000 600 49 1.000000 0.052000 0.052000 1.200000 0.038000 0.045000
1559843255069679116	1000 44 1.000000 0.143000 0.156000 1000 40 0.900000 1.263000 1.222000 600 49 1.000000 0.052000 0.052000 1.200000 0.036000 0.043000
1559843255577918075	1000 44 1.000000 0.157000 0.172000 1000 40 0.900000 1.296000 1.254000 600 49 1.000000 0.051000 0.051000 1.200000 0.039000 0.047000
1559843256086007200	1000 44 1.000000 0.151000 0.165000 1000 40 0.900000 1.296000 1.257000 600 49 1.000000 0.051000 0.051000 1.200000 0.036000 0.043000
1559843256594278616	1000 44 1.000000 0.146000 0.160000 1000 40 0.900000 1.262000 1.221000 600 49 1.000000 0.051000 0.051000 1.200000 0.038000 0.045000
1559843257102511616	1000 44 1.000000 0.146000 0.160000 1000 40 0.900000 1.265000 1.224000 600 49 1.000000 0.052000 0.052000 1.200000 0.038000 0.045000
1559843257610826575	1000 44 1.000000 0.158000 0.173000 1000 40 0.900000 1.291000 1.252000 600 49 1.000000 0.052000 0.052000 1.200000 0.040000 0.048000
1559843258118799492	1000 44 1.000000 0.154000 0.168000 1000 41 0.900000 1.274000 1.233000 600 49 1.000000 0.052000 0.052000 1.200000 0.038000 0.045000
1559843258626906950	1000 44 1.000000 0.146000 0.160000 1000 40 0.900000 1.262000 1.221000 600 49 1.000000 0.051000 0.051000 1.200000 0.042000 0.050000
1559843259135165950	1000 44 1.000000 0.145000 0.159000 1000 40 0.900000 1.277000 1.238000 600 49 1.000000 0.052000 0.052000 1.200000 0.039000 0.047000
1559843259646107575	1000 44 1.000000 0.155000 0.170000 1000 41 0.900000 1.301000 1.261000 600 49 1.000000 0.051000 0.051000 1.200000 0.043000 0.051000
1559843260156707992	1000 44 1.000000 0.145000 0.159000 1000 41 0.900000 1.266000 1.225000 600 49 1.000000 0.051000 0.051000 1.200000 0.039000 0.047000
1559843260665830617	1000 44 1.000000 0.162000 0.177000 1000 40 0.900000 1.278000 1.237000 600 49 1.000000 0.052000 0.052000 1.200000 0.049000 0.059000
1559843261174333659	1000 44 1.000000 0.145000 0.159000 1000 40 0.900000 1.262000 1.221000 600 49 1.000000 0.051000 0.051000 1.200000 0.037000 0.044000
1559843261682510742	1000 44 1.000000 0.146000 0.160000 1000 40 0.900000 1.305000 1.265000 600 49 1.000000 0.051000 0.051000 1.200000 0.040000 0.048000
1559843262190802617	1000 44 1.000000 0.146000 0.160000 1000 40 0.900000 1.266000 1.225000 600 49 1.000000 0.052000 0.052000 1.200000 0.037000 0.044000
1559843262699086242	1000 44 1.000000 0.161000 0.176000 1000 40 0.900000 1.315000 1.275000 600 49 1.000000 0.051000 0.051000 1.200000 0.040000 0.048000
1559843263207312534	1000 44 1.000000 0.145000 0.159000 1000 41 0.900000 1.266000 1.225000 600 49 1.000000 0.052000 0.052000 1.200000 0.038000 0.045000
1559843263716123826	1000 44 1.000000 0.155000 0.170000 1000 40 0.900000 1.300000 1.258000 600 49 1.000000 0.051000 0.051000 1.200000 0.038000 0.045000
1559843264224615117	1000 44 1.000000 0.145000 0.159000 1000 40 0.900000 1.265000 1.224000 600 49 1.000000 0.051000 0.051000 1.200000 0.039000 0.047000
1559843264732709576	1000 44 1.000000 0.161000 0.176000 1000 40 0.900000 1.264000 1.223000 600 49 1.000000 0.051000 0.051000 1.200000 0.038000 0.045000
1559843265240934076	1000 44 1.000000 0.159000 0.174000 1000 40 0.900000 1.294000 1.252000 600 49 1.000000 0.052000 0.052000 1.200000 0.039000 0.047000
1559843265749234117	1000 44 1.000000 0.145000 0.159000 1000 40 0.900000 1.271000 1.230000 600 49 1.000000 0.052000 0.052000 1.200000 0.037000 0.044000
1559843266257473534	1000 44 1.000000 0.145000 0.159000 1000 40 0.900000 1.269000 1.228000 600 49 1.000000 0.052000 0.052000 1.200000 0.038000 0.045000
1559843266765907868	1000 44 1.000000 0.145000 0.159000 1000 40 0.900000 1.277000 1.236000 600 49 1.000000 0.052000 0.052000 1.200000 0.036000 0.043000
1559843267274304951	1000 44 1.000000 0.156000 0.171000 1000 40 0.900000 1.302000 1.260000 600 49 1.000000 0.051000 0.051000 1.200000 0.041000 0.049000
1559843267782925451	1000 44 1.000000 0.153000 0.167000 1000 40 0.900000 1.271000 1.230000 600 49 1.000000 0.052000 0.052000 1.200000 0.041000 0.049000
1559843268293818826	1000 44 1.000000 0.146000 0.160000 1000 40 0.900000 1.298000 1.256000 600 49 1.000000 0.052000 0.052000 1.200000 0.038000 0.045000
1559843268803211326	1000 44 1.000000 0.147000 0.161000 1000 40 0.900000 1.269000 1.228000 600 49 1.000000 0.051000 0.051000 1.200000 0.038000 0.045000
1559843269311674993	1000 44 1.000000 0.170000 0.186000 1000 40 0.900000 1.270000 1.229000 600 49 1.000000 0.052000 0.052000 1.200000 0.044000 0.053000
1559843269819872701	1000 44 1.000000 0.147000 0.161000 1000 40 0.900000 1.269000 1.228000 600 49 1.000000 0.052000 0.052000 1.200000 0.038000 0.045000
1559843270328182660	1000 44 1.000000 0.145000 0.159000 1000 40 0.900000 1.271000 1.230000 600 49 1.000000 0.052000 0.052000 1.200000 0.038000 0.045000
1559843270836266410	1000 44 1.000000 0.144000 0.158000 1000 40 0.900000 1.277000 1.236000 600 49 1.000000 0.052000 0.052000 1.200000 0.037000 0.044000
1559843271344279618	1000 44 1.000000 0.142000 0.155000 1000 41 0.900000 1.269000 1.228000 600 49 1.000000 0.052000 0.052000 1.200000 0.041000 0.049000
1559843271852141785	1000 44 1.000000 0.149000 0.163000 1000 40 0.900000 1.270000 1.229000 600 49 1.000000 0.051000 0.051000 1.200000 0.037000 0.044000
1559843272360284410	1000 44 1.000000 0.146000 0.160000 1000 40 0.900000 1.274000 1.233000 600 49 1.000000 0.052000 0.052000 1.200000 0.038000 0.045000
1559843272868520743	1000 44 1.000000 0.146000 0.160000 1000 40 0.900000 1.264000 1.223000 600 49 1.000000 0.051000 0.051000 1.200000 0.037000 0.044000
1559843273376448243	1000 42 1.000000 0.146000 0.160000 1000 40 0.900000 1.280000 1.239000 600 47 1.000000 0.052000 0.052000 1.200000 0.037000 0.044000
1559843273884133660	1000 40 1.100000 0.048000 0.052000 1000 39 0.900000 0.141000 0.137000 600 44 1.000000 0.051000 0.051000 1.200000 0.023000 0.027000
