#Timestamp	CPU(0) Frequency(MHz)	CPU(0) Temperature(C)	A7 Voltage(V)	A7 Current(A)	A7 Power(W)	CPU(4) Frequency(MHz)	CPU(4) Temperature(C)	A15 Voltage(V)	A15 Current(A)	A15 Power(W)	GPU Frequency(MHz)	GPU Temperature(C)	GPU Voltage(V)	GPU Current(A)	GPU Power(W)	RAM Voltage(V)	RAM Current(A)	RAM Power(W)
1553303250870313514	1000 43 1.100000 0.062000 0.071000 1600 36 1.100000 0.820000 0.912000 600 42 1.000000 0.051000 0.051000 1.200000 0.044000 0.053000
1553303251375660181	1000 45 1.100000 0.050000 0.055000 1600 38 1.100000 1.259000 1.426000 600 43 1.000000 0.051000 0.051000 1.200000 0.042000 0.050000
1553303251880824723	1000 47 1.000000 0.282000 0.306000 1600 39 1.100000 1.809000 2.055000 600 44 1.000000 0.051000 0.051000 1.200000 0.033000 0.039000
1553303252385976306	1000 48 1.000000 0.283000 0.307000 1600 40 1.100000 1.830000 2.077000 600 45 1.000000 0.051000 0.051000 1.200000 0.034000 0.041000
1553303252892532139	1000 48 1.000000 0.283000 0.307000 1600 40 1.100000 1.819000 2.064000 600 46 1.000000 0.051000 0.051000 1.200000 0.034000 0.041000
1553303253397683514	1000 49 1.000000 0.283000 0.307000 1600 41 1.100000 1.909000 2.168000 600 46 1.000000 0.051000 0.051000 1.200000 0.034000 0.041000
1553303253902829265	1000 49 1.000000 0.283000 0.307000 1600 41 1.100000 1.823000 2.069000 600 46 1.000000 0.052000 0.052000 1.200000 0.035000 0.042000
1553303254407807931	1000 42 1.000000 0.284000 0.308000 1600 40 1.100000 1.827000 2.073000 600 45 1.000000 0.052000 0.052000 1.200000 0.035000 0.042000
1553303254913846223	1000 40 1.000000 0.283000 0.307000 1600 39 1.100000 0.242000 0.275000 600 43 1.000000 0.052000 0.052000 1.200000 0.029000 0.035000
1553303255418756431	1000 39 1.000000 0.287000 0.311000 1600 38 1.100000 0.595000 0.675000 600 42 1.000000 0.051000 0.051000 1.200000 0.036000 0.043000
1553303255923327140	1000 39 1.000000 0.283000 0.307000 1600 38 1.100000 0.242000 0.275000 600 42 1.000000 0.051000 0.051000 1.200000 0.029000 0.035000
1553303256427966890	1000 38 1.000000 0.282000 0.306000 1600 37 1.100000 0.216000 0.245000 600 41 1.000000 0.051000 0.051000 1.200000 0.029000 0.035000
1553303256932403557	1000 38 1.000000 0.283000 0.307000 1600 37 1.100000 0.217000 0.246000 600 41 1.000000 0.051000 0.051000 1.200000 0.029000 0.035000
1553303257437070015	1000 38 1.000000 0.298000 0.323000 1600 37 1.100000 0.527000 0.598000 600 41 1.000000 0.051000 0.051000 1.200000 0.036000 0.043000
1553303257941689890	1000 38 1.000000 0.282000 0.306000 1600 37 1.100000 0.210000 0.238000 600 40 1.000000 0.051000 0.051000 1.200000 0.029000 0.035000
1553303258446121223	1000 37 1.000000 0.282000 0.306000 1600 36 1.100000 0.210000 0.238000 600 40 1.000000 0.051000 0.051000 1.200000 0.028000 0.033000
1553303258950663765	1000 37 1.000000 0.282000 0.306000 1600 36 1.100000 0.206000 0.234000 600 40 1.000000 0.051000 0.051000 1.200000 0.029000 0.035000
1553303259455389974	1000 37 1.000000 0.298000 0.323000 1600 36 1.100000 0.507000 0.575000 600 40 1.000000 0.051000 0.051000 1.200000 0.033000 0.039000
1553303259962209099	1000 44 1.100000 0.046000 0.050000 1600 37 1.100000 1.242000 1.405000 600 41 1.000000 0.051000 0.051000 1.200000 0.029000 0.035000
1553303260468377015	1000 44 1.100000 0.047000 0.051000 1600 37 1.100000 1.245000 1.409000 600 42 1.000000 0.051000 0.051000 1.200000 0.032000 0.038000
1553303260974212724	1000 45 1.100000 0.046000 0.050000 1600 38 1.100000 1.272000 1.439000 600 42 1.000000 0.051000 0.051000 1.200000 0.030000 0.036000
1553303261480049057	1000 45 1.100000 0.055000 0.060000 1600 38 1.100000 1.252000 1.418000 600 43 1.000000 0.051000 0.051000 1.200000 0.042000 0.050000
1553303261985908099	1000 46 1.100000 0.047000 0.051000 1600 38 1.100000 1.276000 1.444000 600 43 1.000000 0.051000 0.051000 1.200000 0.030000 0.036000
1553303262491187182	1000 46 1.100000 0.048000 0.052000 1600 38 1.100000 1.254000 1.419000 600 43 1.000000 0.051000 0.051000 1.200000 0.030000 0.036000
1553303262996458557	1000 46 1.100000 0.047000 0.051000 1600 39 1.100000 1.281000 1.450000 600 43 1.000000 0.051000 0.051000 1.200000 0.029000 0.035000
1553303263501721307	1000 46 1.100000 0.047000 0.051000 1600 39 1.100000 1.348000 1.527000 600 44 1.000000 0.051000 0.051000 1.200000 0.042000 0.050000
1553303264007277349	1000 46 1.100000 0.048000 0.052000 1600 39 1.100000 1.326000 1.501000 600 44 1.000000 0.051000 0.051000 1.200000 0.037000 0.044000
1553303264512751391	1000 38 1.100000 0.049000 0.053000 1600 37 1.100000 0.264000 0.300000 600 42 1.000000 0.051000 0.051000 1.200000 0.023000 0.027000
1553303265017916891	1000 37 1.100000 0.046000 0.050000 1600 36 1.100000 0.209000 0.237000 600 41 1.000000 0.051000 0.051000 1.200000 0.023000 0.027000
