#Timestamp	CPU(0) Frequency(MHz)	CPU(0) Temperature(C)	A7 Voltage(V)	A7 Current(A)	A7 Power(W)	CPU(4) Frequency(MHz)	CPU(4) Temperature(C)	A15 Voltage(V)	A15 Current(A)	A15 Power(W)	GPU Frequency(MHz)	GPU Temperature(C)	GPU Voltage(V)	GPU Current(A)	GPU Power(W)	RAM Voltage(V)	RAM Current(A)	RAM Power(W)
1517608727917779910	800 36 1.000000 0.104000 0.106000 900 32 0.900000 1.038000 0.980000 600 38 1.000000 0.050000 0.050000 1.200000 0.049000 0.059000
1517608728429807243	800 37 1.000000 0.138000 0.141000 900 33 0.900000 1.339000 1.265000 600 41 1.000000 0.051000 0.051000 1.200000 0.042000 0.050000
1517608728942407160	800 37 1.000000 0.133000 0.136000 900 34 0.900000 1.324000 1.248000 600 41 1.000000 0.051000 0.051000 1.200000 0.035000 0.042000
1517608729455469077	800 38 1.000000 0.149000 0.152000 900 34 0.900000 1.420000 1.341000 600 42 1.000000 0.051000 0.051000 1.200000 0.048000 0.058000
1517608729967462410	800 38 1.000000 0.144000 0.147000 900 34 0.900000 1.133000 1.068000 600 42 1.000000 0.051000 0.051000 1.200000 0.050000 0.060000
1517608730479456493	800 38 1.000000 0.134000 0.136000 900 35 0.900000 1.431000 1.352000 600 42 1.000000 0.051000 0.051000 1.200000 0.035000 0.042000
1517608730991686869	800 39 1.000000 0.110000 0.112000 900 35 0.900000 1.396000 1.319000 600 42 1.000000 0.051000 0.051000 1.200000 0.045000 0.054000
1517608731503699244	800 39 1.000000 0.142000 0.145000 900 35 0.900000 1.175000 1.106000 600 43 1.000000 0.051000 0.051000 1.200000 0.043000 0.051000
1517608732014845535	800 38 1.000000 0.136000 0.138000 900 35 0.900000 1.409000 1.331000 600 41 1.000000 0.051000 0.051000 1.200000 0.040000 0.048000
1517608732526805494	800 39 1.000000 0.119000 0.121000 900 35 0.900000 1.394000 1.317000 600 43 1.000000 0.051000 0.051000 1.200000 0.042000 0.050000
1517608733038691994	800 39 1.000000 0.123000 0.125000 900 35 0.900000 1.174000 1.105000 600 42 1.000000 0.051000 0.051000 1.200000 0.034000 0.041000
1517608733550037994	800 40 1.000000 0.155000 0.158000 900 36 0.900000 1.397000 1.320000 600 44 1.000000 0.051000 0.051000 1.200000 0.045000 0.054000
1517608734074625119	800 40 1.000000 0.127000 0.129000 900 36 0.900000 1.102000 1.038000 600 44 1.000000 0.051000 0.051000 1.200000 0.047000 0.056000
1517608734586859286	800 39 1.000000 0.113000 0.115000 900 36 0.900000 1.399000 1.322000 600 43 1.000000 0.051000 0.051000 1.200000 0.043000 0.051000
1517608735098822452	800 40 1.000000 0.134000 0.136000 900 36 0.900000 1.468000 1.387000 600 44 1.000000 0.051000 0.051000 1.200000 0.033000 0.039000
1517608735610837494	800 40 1.000000 0.150000 0.153000 900 36 0.900000 1.157000 1.089000 600 44 1.000000 0.051000 0.051000 1.200000 0.047000 0.056000
1517608736122612786	800 40 1.000000 0.099000 0.101000 900 36 0.900000 1.401000 1.323000 600 43 1.000000 0.051000 0.051000 1.200000 0.034000 0.041000
1517608736633932411	800 40 1.000000 0.178000 0.181000 900 36 0.900000 1.473000 1.391000 600 44 1.000000 0.051000 0.051000 1.200000 0.056000 0.067000
1517608737146239661	800 40 1.000000 0.139000 0.142000 900 36 0.900000 1.410000 1.332000 600 44 1.000000 0.051000 0.051000 1.200000 0.034000 0.041000
1517608737657435119	800 39 1.000000 0.136000 0.138000 900 36 0.900000 1.423000 1.344000 600 42 1.000000 0.051000 0.051000 1.200000 0.037000 0.044000
1517608738169372703	800 40 1.000000 0.109000 0.111000 900 36 0.900000 1.102000 1.038000 600 44 1.000000 0.051000 0.051000 1.200000 0.042000 0.050000
1517608738680783536	800 40 1.000000 0.140000 0.143000 900 36 0.900000 1.428000 1.349000 600 44 1.000000 0.051000 0.051000 1.200000 0.034000 0.041000
1517608739192210120	800 40 1.000000 0.140000 0.143000 900 36 0.900000 1.474000 1.389000 600 44 1.000000 0.051000 0.051000 1.200000 0.037000 0.044000
1517608739704090536	800 40 1.000000 0.101000 0.103000 900 36 0.900000 1.064000 1.002000 600 44 1.000000 0.051000 0.051000 1.200000 0.046000 0.055000
1517608740216045995	800 40 1.000000 0.136000 0.138000 900 36 0.900000 1.402000 1.322000 600 44 1.000000 0.051000 0.051000 1.200000 0.036000 0.043000
1517608740730164703	800 40 1.000000 0.137000 0.140000 900 37 0.900000 1.451000 1.368000 600 44 1.000000 0.051000 0.051000 1.200000 0.039000 0.047000
1517608741242620661	800 40 1.000000 0.108000 0.110000 900 36 0.900000 1.189000 1.121000 600 44 1.000000 0.051000 0.051000 1.200000 0.058000 0.070000
1517608741754009787	800 40 1.000000 0.150000 0.153000 900 36 0.900000 1.406000 1.328000 600 43 1.000000 0.051000 0.051000 1.200000 0.038000 0.045000
1517608742265933453	800 40 1.000000 0.134000 0.136000 900 37 0.900000 1.332000 1.256000 600 45 1.000000 0.051000 0.051000 1.200000 0.038000 0.045000
1517608742777733995	800 40 1.000000 0.139000 0.142000 900 37 0.900000 1.281000 1.207000 600 44 1.000000 0.051000 0.051000 1.200000 0.042000 0.050000
1517608743288907703	800 40 1.000000 0.158000 0.161000 900 36 0.900000 1.418000 1.337000 600 43 1.000000 0.051000 0.051000 1.200000 0.061000 0.073000
1517608743800991453	800 40 1.000000 0.100000 0.102000 900 37 0.900000 1.152000 1.086000 600 44 1.000000 0.051000 0.051000 1.200000 0.043000 0.051000
1517608744312262328	800 40 1.000000 0.128000 0.130000 900 37 0.900000 1.276000 1.203000 600 44 1.000000 0.051000 0.051000 1.200000 0.043000 0.052000
1517608744823280745	800 40 1.000000 0.134000 0.136000 900 37 0.900000 1.419000 1.340000 600 44 1.000000 0.051000 0.051000 1.200000 0.032000 0.038000
1517608745334944745	800 40 1.000000 0.144000 0.147000 900 37 0.900000 1.344000 1.267000 600 45 1.000000 0.051000 0.051000 1.200000 0.054000 0.065000
1517608745847283245	800 40 1.000000 0.163000 0.166000 900 37 0.900000 1.411000 1.330000 600 44 1.000000 0.051000 0.051000 1.200000 0.045000 0.054000
1517608746359511245	800 41 1.000000 0.144000 0.147000 900 37 0.900000 1.421000 1.340000 600 45 1.000000 0.051000 0.051000 1.200000 0.039000 0.047000
1517608746871357287	800 40 1.000000 0.101000 0.103000 900 37 0.900000 1.118000 1.053000 600 45 1.000000 0.051000 0.051000 1.200000 0.045000 0.054000
1517608747386836287	800 40 1.000000 0.137000 0.140000 900 37 0.900000 1.446000 1.363000 600 44 1.000000 0.051000 0.051000 1.200000 0.034000 0.041000
1517608747898994037	800 41 1.000000 0.165000 0.168000 900 37 0.900000 1.502000 1.416000 600 45 1.000000 0.051000 0.051000 1.200000 0.059000 0.071000
1517608748411082121	800 40 1.000000 0.098000 0.100000 900 37 0.900000 1.101000 1.037000 600 44 1.000000 0.051000 0.051000 1.200000 0.043000 0.052000
1517608748922577204	800 40 1.000000 0.134000 0.136000 900 37 0.900000 1.397000 1.317000 600 44 1.000000 0.051000 0.051000 1.200000 0.034000 0.041000
1517608749433880829	800 41 1.000000 0.108000 0.110000 900 37 0.900000 1.387000 1.307000 600 45 1.000000 0.051000 0.051000 1.200000 0.035000 0.042000
1517608749945681537	800 41 1.000000 0.138000 0.141000 900 37 0.900000 1.120000 1.055000 600 45 1.000000 0.051000 0.051000 1.200000 0.058000 0.070000
1517608750457251621	800 40 1.000000 0.145000 0.148000 900 37 0.900000 1.431000 1.349000 600 43 1.000000 0.051000 0.051000 1.200000 0.034000 0.041000
1517608750969130829	800 41 1.000000 0.116000 0.118000 900 37 0.900000 1.317000 1.244000 600 45 1.000000 0.051000 0.051000 1.200000 0.036000 0.043000
1517608751481161246	800 41 1.000000 0.123000 0.125000 900 37 0.900000 1.161000 1.093000 600 44 1.000000 0.051000 0.051000 1.200000 0.040000 0.048000
1517608751993979954	800 41 1.000000 0.137000 0.140000 900 37 0.900000 1.411000 1.330000 600 45 1.000000 0.051000 0.051000 1.200000 0.044000 0.053000
1517608752506019079	800 41 1.000000 0.132000 0.135000 900 37 0.900000 1.287000 1.213000 600 45 1.000000 0.051000 0.051000 1.200000 0.038000 0.045000
1517608753018149330	800 41 1.000000 0.108000 0.110000 900 37 0.900000 1.266000 1.193000 600 45 1.000000 0.051000 0.051000 1.200000 0.040000 0.048000
1517608753530094205	800 41 1.000000 0.134000 0.136000 900 37 0.900000 1.398000 1.321000 600 45 1.000000 0.051000 0.051000 1.200000 0.032000 0.038000
1517608754043016288	800 41 1.000000 0.146000 0.149000 900 37 0.900000 1.260000 1.186000 600 44 1.000000 0.051000 0.051000 1.200000 0.038000 0.045000
1517608754555587121	800 40 1.000000 0.196000 0.200000 900 37 0.900000 1.400000 1.323000 600 44 1.000000 0.051000 0.051000 1.200000 0.066000 0.079000
1517608755067563080	800 41 1.000000 0.143000 0.146000 900 37 0.900000 1.061000 1.000000 600 45 1.000000 0.051000 0.051000 1.200000 0.042000 0.050000
1517608755579608871	800 41 1.000000 0.139000 0.142000 900 37 0.900000 1.384000 1.307000 600 45 1.000000 0.051000 0.051000 1.200000 0.041000 0.049000
1517608756090933955	800 40 1.000000 0.135000 0.137000 900 37 0.900000 1.420000 1.341000 600 44 1.000000 0.051000 0.051000 1.200000 0.036000 0.043000
1517608756602170705	800 41 1.000000 0.103000 0.105000 900 37 0.900000 0.990000 0.933000 600 45 1.000000 0.051000 0.051000 1.200000 0.062000 0.075000
1517608757114203830	800 41 1.000000 0.142000 0.145000 900 37 0.900000 1.440000 1.360000 600 45 1.000000 0.051000 0.051000 1.200000 0.034000 0.041000
1517608757626389413	800 41 1.000000 0.137000 0.140000 900 37 0.900000 1.440000 1.357000 600 45 1.000000 0.051000 0.051000 1.200000 0.033000 0.039000
1517608758138421330	800 41 1.000000 0.098000 0.100000 900 37 0.900000 1.174000 1.105000 600 45 1.000000 0.051000 0.051000 1.200000 0.042000 0.050000
1517608758652229705	800 41 1.000000 0.155000 0.158000 900 37 0.900000 1.438000 1.356000 600 45 1.000000 0.051000 0.051000 1.200000 0.042000 0.050000
1517608759164688164	800 41 1.000000 0.147000 0.150000 900 37 0.900000 1.404000 1.323000 600 45 1.000000 0.051000 0.051000 1.200000 0.035000 0.042000
1517608759676838997	800 41 1.000000 0.100000 0.102000 900 37 0.900000 1.069000 1.006000 600 45 1.000000 0.051000 0.051000 1.200000 0.044000 0.053000
1517608760188373580	800 40 1.000000 0.135000 0.138000 900 37 0.900000 1.428000 1.346000 600 43 1.000000 0.051000 0.051000 1.200000 0.036000 0.043000
1517608760700535330	800 41 1.000000 0.153000 0.156000 900 37 0.900000 1.420000 1.341000 600 45 1.000000 0.051000 0.051000 1.200000 0.044000 0.053000
1517608761212720080	800 41 1.000000 0.122000 0.124000 900 37 0.900000 1.070000 1.007000 600 45 1.000000 0.052000 0.052000 1.200000 0.055000 0.066000
1517608761724032372	800 41 1.000000 0.138000 0.141000 900 37 0.900000 1.430000 1.348000 600 44 1.000000 0.051000 0.051000 1.200000 0.038000 0.045000
1517608762235544372	800 41 1.000000 0.104000 0.106000 900 37 0.900000 1.405000 1.324000 600 45 1.000000 0.051000 0.051000 1.200000 0.044000 0.053000
1517608762747417456	800 41 1.000000 0.142000 0.145000 900 37 0.900000 1.019000 0.959000 600 45 1.000000 0.051000 0.051000 1.200000 0.036000 0.043000
1517608763259630581	800 41 1.000000 0.123000 0.125000 900 37 0.900000 1.436000 1.354000 600 45 1.000000 0.051000 0.051000 1.200000 0.048000 0.057000
1517608763771636956	800 41 1.000000 0.148000 0.151000 900 37 0.900000 1.026000 0.966000 600 45 1.000000 0.051000 0.051000 1.200000 0.057000 0.068000
1517608764283594706	800 41 1.000000 0.134000 0.136000 900 37 0.900000 1.398000 1.318000 600 45 1.000000 0.051000 0.051000 1.200000 0.036000 0.043000
1517608764795652164	800 41 1.000000 0.132000 0.135000 900 37 0.900000 1.400000 1.320000 600 45 1.000000 0.051000 0.051000 1.200000 0.046000 0.055000
1517608765309579206	800 41 1.000000 0.109000 0.111000 900 37 0.900000 0.995000 0.938000 600 45 1.000000 0.051000 0.051000 1.200000 0.035000 0.042000
1517608765821382706	800 40 1.000000 0.165000 0.168000 900 37 0.900000 1.398000 1.321000 600 43 1.000000 0.051000 0.051000 1.200000 0.058000 0.070000
1517608766333283414	800 41 1.000000 0.141000 0.144000 900 37 0.900000 1.538000 1.450000 600 45 1.000000 0.051000 0.051000 1.200000 0.046000 0.055000
1517608766845501456	800 41 1.000000 0.102000 0.104000 900 37 0.900000 1.099000 1.035000 600 45 1.000000 0.051000 0.051000 1.200000 0.035000 0.042000
1517608767357031456	800 41 1.000000 0.135000 0.137000 900 37 0.900000 1.431000 1.352000 600 44 1.000000 0.051000 0.051000 1.200000 0.035000 0.042000
1517608767868709873	800 41 1.000000 0.175000 0.179000 900 37 0.900000 1.400000 1.323000 600 45 1.000000 0.051000 0.051000 1.200000 0.052000 0.062000
1517608768380820831	800 41 1.000000 0.130000 0.132000 900 37 0.900000 1.099000 1.035000 600 45 1.000000 0.051000 0.051000 1.200000 0.035000 0.042000
1517608768892899706	800 41 1.000000 0.136000 0.138000 900 37 0.900000 1.444000 1.364000 600 45 1.000000 0.051000 0.051000 1.200000 0.035000 0.042000
1517608769405093831	800 41 1.000000 0.103000 0.105000 900 37 0.900000 1.468000 1.387000 600 45 1.000000 0.051000 0.051000 1.200000 0.043000 0.052000
1517608769917041915	800 41 1.000000 0.137000 0.140000 900 37 0.900000 1.052000 0.990000 600 45 1.000000 0.051000 0.051000 1.200000 0.035000 0.042000
1517608770429030540	800 41 1.000000 0.135000 0.137000 900 37 0.900000 1.404000 1.323000 600 45 1.000000 0.051000 0.051000 1.200000 0.035000 0.042000
1517608770940320623	800 41 1.000000 0.098000 0.100000 900 37 0.900000 1.354000 1.279000 600 45 1.000000 0.051000 0.051000 1.200000 0.044000 0.053000
1517608771451709665	800 41 1.000000 0.132000 0.134000 900 37 0.900000 1.059000 1.000000 600 44 1.000000 0.051000 0.051000 1.200000 0.033000 0.039000
1517608771966481248	800 41 1.000000 0.107000 0.109000 900 38 0.900000 1.529000 1.440000 600 45 1.000000 0.051000 0.051000 1.200000 0.045000 0.054000
1517608772478870290	800 41 1.000000 0.162000 0.165000 900 37 0.900000 1.441000 1.361000 600 45 1.000000 0.051000 0.051000 1.200000 0.051000 0.061000
1517608772991128790	800 40 1.000000 0.138000 0.141000 900 37 0.900000 1.420000 1.341000 600 43 1.000000 0.051000 0.051000 1.200000 0.036000 0.043000
1517608773502999165	800 41 1.000000 0.138000 0.141000 900 38 0.900000 0.992000 0.934000 600 45 1.000000 0.051000 0.051000 1.200000 0.051000 0.061000
1517608774015065290	800 41 1.000000 0.104000 0.106000 900 38 0.900000 1.387000 1.310000 600 45 1.000000 0.051000 0.051000 1.200000 0.034000 0.041000
1517608774526411374	800 41 1.000000 0.142000 0.145000 900 38 0.900000 1.433000 1.354000 600 44 1.000000 0.051000 0.051000 1.200000 0.040000 0.048000
1517608775038956332	800 41 1.000000 0.110000 0.112000 900 37 0.900000 1.200000 1.130000 600 45 1.000000 0.051000 0.051000 1.200000 0.043000 0.052000
1517608775551035166	800 41 1.000000 0.156000 0.159000 900 37 0.900000 1.422000 1.343000 600 45 1.000000 0.051000 0.051000 1.200000 0.042000 0.050000
1517608776062393791	800 41 1.000000 0.137000 0.140000 900 37 0.900000 1.431000 1.349000 600 44 1.000000 0.051000 0.051000 1.200000 0.034000 0.041000
1517608776575157874	800 41 1.000000 0.101000 0.103000 900 38 0.900000 1.206000 1.136000 600 45 1.000000 0.051000 0.051000 1.200000 0.043000 0.052000
1517608777087810874	800 41 1.000000 0.134000 0.137000 900 37 0.900000 1.402000 1.324000 600 45 1.000000 0.051000 0.051000 1.200000 0.042000 0.050000
1517608777599402041	800 41 1.000000 0.145000 0.148000 900 37 0.900000 1.417000 1.339000 600 44 1.000000 0.051000 0.051000 1.200000 0.041000 0.049000
1517608778111135166	800 41 1.000000 0.135000 0.138000 900 37 0.900000 1.084000 1.021000 600 45 1.000000 0.051000 0.051000 1.200000 0.042000 0.050000
1517608778626315458	800 41 1.000000 0.105000 0.107000 900 37 0.900000 1.281000 1.207000 600 45 1.000000 0.052000 0.052000 1.200000 0.042000 0.050000
1517608779137882749	800 41 1.000000 0.150000 0.153000 900 38 0.900000 1.397000 1.317000 600 44 1.000000 0.051000 0.051000 1.200000 0.053000 0.064000
1517608779649830041	800 41 1.000000 0.138000 0.141000 900 38 0.900000 1.306000 1.234000 600 45 1.000000 0.051000 0.051000 1.200000 0.042000 0.050000
1517608780161976708	800 41 1.000000 0.111000 0.113000 900 38 0.900000 1.069000 1.006000 600 45 1.000000 0.051000 0.051000 1.200000 0.043000 0.051000
1517608780673252458	800 40 1.000000 0.111000 0.113000 900 37 0.900000 1.520000 1.433000 600 44 1.000000 0.051000 0.051000 1.200000 0.036000 0.043000
1517608781185171291	800 41 1.000000 0.100000 0.102000 900 38 0.900000 1.083000 1.020000 600 45 1.000000 0.051000 0.051000 1.200000 0.043000 0.051000
1517608781697184750	800 41 1.000000 0.160000 0.163000 900 38 0.900000 1.399000 1.319000 600 45 1.000000 0.051000 0.051000 1.200000 0.043000 0.051000
1517608782208769833	800 41 1.000000 0.144000 0.147000 900 38 0.900000 1.416000 1.335000 600 45 1.000000 0.051000 0.051000 1.200000 0.036000 0.043000
1517608782720039125	800 41 1.000000 0.107000 0.109000 900 38 0.900000 1.032000 0.973000 600 46 1.000000 0.051000 0.051000 1.200000 0.044000 0.053000
1517608783235558708	800 41 1.000000 0.139000 0.142000 900 38 0.900000 1.397000 1.320000 600 45 1.000000 0.051000 0.051000 1.200000 0.034000 0.041000
1517608783748069042	800 41 1.000000 0.181000 0.184000 900 38 0.900000 1.418000 1.340000 600 46 1.000000 0.051000 0.051000 1.200000 0.058000 0.070000
1517608784260018958	800 41 1.000000 0.097000 0.099000 900 38 0.900000 1.051000 0.990000 600 45 1.000000 0.051000 0.051000 1.200000 0.047000 0.056000
1517608784771559167	800 41 1.000000 0.138000 0.141000 900 37 0.900000 1.426000 1.347000 600 45 1.000000 0.051000 0.051000 1.200000 0.033000 0.039000
1517608785283451583	800 41 1.000000 0.134000 0.136000 900 38 0.900000 1.414000 1.336000 600 46 1.000000 0.052000 0.052000 1.200000 0.038000 0.045000
1517608785795655500	800 41 1.000000 0.147000 0.150000 900 38 0.900000 1.229000 1.158000 600 45 1.000000 0.051000 0.051000 1.200000 0.069000 0.083000
1517608786306962458	800 41 1.000000 0.136000 0.138000 900 38 0.900000 1.410000 1.329000 600 45 1.000000 0.051000 0.051000 1.200000 0.033000 0.039000
1517608786818656584	800 41 1.000000 0.106000 0.108000 900 38 0.900000 1.107000 1.043000 600 46 1.000000 0.051000 0.051000 1.200000 0.042000 0.050000
1517608787330752209	800 41 1.000000 0.141000 0.144000 900 38 0.900000 1.434000 1.352000 600 45 1.000000 0.051000 0.051000 1.200000 0.037000 0.044000
1517608787842737084	800 41 1.000000 0.139000 0.142000 900 38 0.900000 1.393000 1.316000 600 46 1.000000 0.051000 0.051000 1.200000 0.056000 0.067000
1517608788354768750	800 41 1.000000 0.099000 0.101000 900 38 0.900000 1.192000 1.122000 600 46 1.000000 0.051000 0.051000 1.200000 0.045000 0.054000
1517608788866379417	800 40 1.000000 0.138000 0.141000 900 38 0.900000 1.396000 1.319000 600 44 1.000000 0.051000 0.051000 1.200000 0.035000 0.042000
1517608789378360626	800 41 1.000000 0.110000 0.112000 900 38 0.900000 1.028000 0.969000 600 46 1.000000 0.051000 0.051000 1.200000 0.045000 0.054000
1517608789891588417	800 41 1.000000 0.135000 0.137000 900 38 0.900000 1.432000 1.353000 600 45 1.000000 0.051000 0.051000 1.200000 0.035000 0.042000
1517608790403597209	800 42 1.000000 0.184000 0.188000 900 38 0.900000 1.408000 1.327000 600 46 1.000000 0.051000 0.051000 1.200000 0.060000 0.072000
1517608790915714542	800 41 1.000000 0.111000 0.113000 900 38 0.900000 1.103000 1.039000 600 46 1.000000 0.051000 0.051000 1.200000 0.045000 0.054000
1517608791427700959	800 41 1.000000 0.139000 0.142000 900 38 0.900000 1.426000 1.347000 600 45 1.000000 0.051000 0.051000 1.200000 0.037000 0.044000
1517608791940075292	800 41 1.000000 0.134000 0.137000 900 38 0.900000 1.505000 1.422000 600 45 1.000000 0.051000 0.051000 1.200000 0.036000 0.043000
1517608792452174293	800 41 1.000000 0.143000 0.146000 900 38 0.900000 1.052000 0.990000 600 46 1.000000 0.051000 0.051000 1.200000 0.058000 0.070000
1517608792963307126	800 41 1.000000 0.138000 0.141000 900 38 0.900000 1.411000 1.333000 600 44 1.000000 0.051000 0.051000 1.200000 0.035000 0.042000
1517608793476349001	800 41 1.000000 0.110000 0.112000 900 38 0.900000 1.414000 1.333000 600 46 1.000000 0.051000 0.051000 1.200000 0.037000 0.044000
1517608793987530251	800 41 1.000000 0.134000 0.136000 900 38 0.900000 1.202000 1.132000 600 46 1.000000 0.051000 0.051000 1.200000 0.038000 0.045000
1517608794500525043	800 42 1.000000 0.152000 0.155000 900 38 0.900000 1.448000 1.365000 600 46 1.000000 0.051000 0.051000 1.200000 0.045000 0.054000
1517608795012806418	800 41 1.000000 0.120000 0.123000 900 38 0.900000 1.104000 1.041000 600 46 1.000000 0.051000 0.051000 1.200000 0.043000 0.051000
1517608795525030960	800 41 1.000000 0.137000 0.140000 900 38 0.900000 1.427000 1.345000 600 45 1.000000 0.051000 0.051000 1.200000 0.038000 0.045000
1517608796036714710	800 41 1.000000 0.134000 0.137000 900 38 0.900000 1.397000 1.320000 600 46 1.000000 0.051000 0.051000 1.200000 0.033000 0.039000
1517608796550528585	800 41 1.000000 0.107000 0.109000 900 38 0.900000 1.196000 1.126000 600 46 1.000000 0.051000 0.051000 1.200000 0.044000 0.053000
1517608797062096751	800 41 1.000000 0.156000 0.159000 900 38 0.900000 1.454000 1.371000 600 44 1.000000 0.051000 0.051000 1.200000 0.037000 0.044000
1517608797573946001	800 41 1.000000 0.137000 0.140000 900 38 0.900000 1.430000 1.351000 600 46 1.000000 0.051000 0.051000 1.200000 0.036000 0.043000
1517608798086312752	800 41 1.000000 0.139000 0.142000 900 38 0.900000 1.460000 1.376000 600 46 1.000000 0.051000 0.051000 1.200000 0.038000 0.045000
1517608798598259543	800 42 1.000000 0.151000 0.154000 900 38 0.900000 1.398000 1.318000 600 46 1.000000 0.051000 0.051000 1.200000 0.042000 0.050000
1517608799110332543	800 41 1.000000 0.124000 0.126000 900 38 0.900000 1.173000 1.104000 600 46 1.000000 0.051000 0.051000 1.200000 0.058000 0.070000
1517608799622432418	800 41 1.000000 0.157000 0.160000 900 38 0.900000 1.447000 1.364000 600 45 1.000000 0.051000 0.051000 1.200000 0.035000 0.042000
1517608800133853960	800 41 1.000000 0.110000 0.112000 900 38 0.900000 1.480000 1.398000 600 46 1.000000 0.051000 0.051000 1.200000 0.035000 0.042000
1517608800645952210	800 41 1.000000 0.151000 0.154000 900 38 0.900000 1.117000 1.052000 600 46 1.000000 0.051000 0.051000 1.200000 0.050000 0.060000
1517608801159126294	800 41 1.000000 0.139000 0.142000 900 38 0.900000 1.409000 1.331000 600 44 1.000000 0.051000 0.051000 1.200000 0.036000 0.043000
1517608801672613044	800 41 1.000000 0.130000 0.132000 900 38 0.900000 1.484000 1.399000 600 46 1.000000 0.052000 0.052000 1.200000 0.068000 0.082000
1517608802184766169	800 41 1.000000 0.130000 0.132000 900 38 0.900000 1.008000 0.949000 600 45 1.000000 0.051000 0.051000 1.200000 0.037000 0.044000
1517608802696151169	800 41 1.000000 0.154000 0.157000 900 38 0.900000 1.429000 1.347000 600 44 1.000000 0.051000 0.051000 1.200000 0.042000 0.050000
1517608803207772335	800 41 1.000000 0.130000 0.132000 900 38 0.900000 1.441000 1.361000 600 46 1.000000 0.051000 0.051000 1.200000 0.047000 0.056000
1517608803720012586	800 41 1.000000 0.130000 0.132000 900 38 0.900000 1.017000 0.959000 600 45 1.000000 0.051000 0.051000 1.200000 0.054000 0.065000
1517608804231527586	800 41 1.000000 0.137000 0.140000 900 38 0.900000 1.427000 1.348000 600 44 1.000000 0.051000 0.051000 1.200000 0.037000 0.044000
1517608804743237627	800 42 1.000000 0.147000 0.150000 900 38 0.900000 1.362000 1.284000 600 46 1.000000 0.051000 0.051000 1.200000 0.051000 0.061000
1517608805255143627	800 42 1.000000 0.124000 0.126000 900 38 0.900000 1.352000 1.274000 600 46 1.000000 0.051000 0.051000 1.200000 0.044000 0.053000
1517608805767213794	800 41 1.000000 0.147000 0.150000 900 38 0.900000 1.090000 1.026000 600 45 1.000000 0.051000 0.051000 1.200000 0.040000 0.048000
1517608806279389503	800 42 1.000000 0.134000 0.136000 900 38 0.900000 1.383000 1.306000 600 46 1.000000 0.051000 0.051000 1.200000 0.036000 0.043000
1517608806791754336	800 42 1.000000 0.137000 0.140000 900 38 0.900000 1.205000 1.135000 600 46 1.000000 0.051000 0.051000 1.200000 0.037000 0.044000
1517608807303722378	800 41 1.000000 0.142000 0.145000 900 38 0.900000 1.425000 1.346000 600 45 1.000000 0.051000 0.051000 1.200000 0.037000 0.044000
1517608807818317461	800 42 1.000000 0.111000 0.113000 900 38 0.900000 1.477000 1.395000 600 46 1.000000 0.051000 0.051000 1.200000 0.046000 0.055000
1517608808330349378	800 42 1.000000 0.156000 0.159000 900 38 0.900000 1.185000 1.116000 600 46 1.000000 0.051000 0.051000 1.200000 0.061000 0.073000
1517608808841914961	800 42 1.000000 0.136000 0.138000 900 38 0.900000 1.442000 1.362000 600 45 1.000000 0.051000 0.051000 1.200000 0.035000 0.042000
1517608809353906336	800 42 1.000000 0.140000 0.143000 900 38 0.900000 1.414000 1.336000 600 46 1.000000 0.051000 0.051000 1.200000 0.045000 0.054000
1517608809865934753	800 41 1.000000 0.103000 0.105000 900 38 0.900000 1.112000 1.048000 600 46 1.000000 0.051000 0.051000 1.200000 0.036000 0.043000
1517608810377260586	800 41 1.000000 0.177000 0.180000 900 38 0.900000 1.415000 1.337000 600 44 1.000000 0.051000 0.051000 1.200000 0.049000 0.059000
1517608810889276503	800 42 1.000000 0.160000 0.163000 900 38 0.900000 1.121000 1.055000 600 45 1.000000 0.051000 0.051000 1.200000 0.045000 0.054000
1517608811401504045	800 41 1.000000 0.104000 0.106000 900 38 0.900000 1.446000 1.363000 600 46 1.000000 0.052000 0.052000 1.200000 0.033000 0.039000
1517608811913867462	800 42 1.000000 0.134000 0.136000 900 38 0.900000 1.489000 1.407000 600 46 1.000000 0.051000 0.051000 1.200000 0.034000 0.041000
1517608812425723337	800 42 1.000000 0.103000 0.105000 900 38 0.900000 1.051000 0.991000 600 46 1.000000 0.051000 0.051000 1.200000 0.044000 0.053000
1517608812937513712	800 41 1.000000 0.145000 0.148000 900 38 0.900000 1.428000 1.349000 600 45 1.000000 0.051000 0.051000 1.200000 0.036000 0.043000
1517608813448809712	800 42 1.000000 0.134000 0.136000 900 38 0.900000 1.423000 1.344000 600 46 1.000000 0.051000 0.051000 1.200000 0.037000 0.044000
1517608813960594420	800 42 1.000000 0.101000 0.103000 900 38 0.900000 1.060000 0.998000 600 46 1.000000 0.051000 0.051000 1.200000 0.045000 0.054000
1517608814473798545	800 41 1.000000 0.136000 0.139000 900 38 0.900000 1.422000 1.343000 600 44 1.000000 0.051000 0.051000 1.200000 0.035000 0.042000
1517608814985799670	800 42 1.000000 0.157000 0.160000 900 38 0.900000 1.429000 1.350000 600 46 1.000000 0.051000 0.051000 1.200000 0.047000 0.056000
1517608815497928837	800 42 1.000000 0.146000 0.149000 900 38 0.900000 1.445000 1.365000 600 45 1.000000 0.051000 0.051000 1.200000 0.041000 0.049000
1517608816009372545	800 42 1.000000 0.137000 0.140000 900 38 0.900000 1.363000 1.288000 600 46 1.000000 0.052000 0.052000 1.200000 0.039000 0.047000
1517608816521434212	800 42 1.000000 0.101000 0.103000 900 38 0.900000 1.180000 1.112000 600 46 1.000000 0.051000 0.051000 1.200000 0.042000 0.050000
1517608817033549712	800 42 1.000000 0.158000 0.161000 900 38 0.900000 1.417000 1.339000 600 45 1.000000 0.051000 0.051000 1.200000 0.041000 0.049000
1517608817545674504	800 42 1.000000 0.134000 0.137000 900 38 0.900000 1.300000 1.225000 600 46 1.000000 0.051000 0.051000 1.200000 0.045000 0.054000
1517608818057533837	800 42 1.000000 0.108000 0.110000 900 38 0.900000 1.333000 1.257000 600 46 1.000000 0.051000 0.051000 1.200000 0.042000 0.050000
1517608818568919337	800 41 1.000000 0.139000 0.142000 900 38 0.900000 1.440000 1.360000 600 44 1.000000 0.051000 0.051000 1.200000 0.036000 0.043000
1517608819081585337	800 42 1.000000 0.104000 0.106000 900 38 0.900000 1.195000 1.125000 600 46 1.000000 0.051000 0.051000 1.200000 0.044000 0.053000
1517608819593175921	800 42 1.000000 0.183000 0.187000 900 38 0.900000 1.436000 1.357000 600 46 1.000000 0.051000 0.051000 1.200000 0.045000 0.054000
1517608820105087921	800 42 1.000000 0.135000 0.137000 900 38 0.900000 1.444000 1.364000 600 46 1.000000 0.052000 0.052000 1.200000 0.036000 0.043000
1517608820617316963	800 42 1.000000 0.110000 0.112000 900 38 0.900000 1.015000 0.957000 600 46 1.000000 0.052000 0.052000 1.200000 0.044000 0.053000
1517608821141749129	800 41 1.000000 0.135000 0.137000 900 38 0.900000 1.423000 1.344000 600 45 1.000000 0.052000 0.052000 1.200000 0.036000 0.043000
1517608821653886296	800 42 1.000000 0.174000 0.177000 900 38 0.900000 1.389000 1.312000 600 45 1.000000 0.051000 0.051000 1.200000 0.062000 0.075000
1517608822165942588	800 42 1.000000 0.099000 0.101000 900 38 0.900000 1.025000 0.966000 600 46 1.000000 0.051000 0.051000 1.200000 0.046000 0.055000
1517608822677329588	800 41 1.000000 0.137000 0.140000 900 38 0.900000 1.451000 1.371000 600 44 1.000000 0.051000 0.051000 1.200000 0.035000 0.042000
1517608823189343588	800 42 1.000000 0.135000 0.138000 900 38 0.900000 1.519000 1.435000 600 46 1.000000 0.051000 0.051000 1.200000 0.035000 0.042000
1517608823701752838	800 42 1.000000 0.148000 0.151000 900 38 0.900000 1.073000 1.010000 600 46 1.000000 0.051000 0.051000 1.200000 0.060000 0.072000
1517608824214073296	800 42 1.000000 0.137000 0.140000 900 38 0.900000 1.416000 1.335000 600 46 1.000000 0.051000 0.051000 1.200000 0.042000 0.050000
1517608824726068588	800 42 1.000000 0.110000 0.112000 900 38 0.900000 1.201000 1.132000 600 46 1.000000 0.051000 0.051000 1.200000 0.043000 0.051000
1517608825237799671	800 41 1.000000 0.139000 0.142000 900 38 0.900000 1.442000 1.359000 600 45 1.000000 0.052000 0.052000 1.200000 0.036000 0.043000
1517608825753391755	800 42 1.000000 0.107000 0.109000 900 38 0.900000 1.258000 1.186000 600 46 1.000000 0.051000 0.051000 1.200000 0.050000 0.060000
1517608826265468213	800 42 1.000000 0.181000 0.184000 900 38 0.900000 1.464000 1.383000 600 46 1.000000 0.051000 0.051000 1.200000 0.057000 0.068000
1517608826776883630	800 41 1.000000 0.135000 0.137000 900 38 0.900000 1.433000 1.354000 600 45 1.000000 0.051000 0.051000 1.200000 0.036000 0.043000
1517608827288195838	800 42 1.000000 0.106000 0.108000 900 38 0.900000 1.137000 1.071000 600 46 1.000000 0.052000 0.052000 1.200000 0.045000 0.054000
1517608827800056088	800 42 1.000000 0.150000 0.153000 900 38 0.900000 1.454000 1.374000 600 46 1.000000 0.051000 0.051000 1.200000 0.044000 0.053000
1517608828312112338	800 42 1.000000 0.171000 0.174000 900 38 0.900000 1.437000 1.357000 600 46 1.000000 0.051000 0.051000 1.200000 0.064000 0.077000
1517608828824168964	800 42 1.000000 0.104000 0.106000 900 38 0.900000 1.055000 0.994000 600 46 1.000000 0.051000 0.051000 1.200000 0.045000 0.054000
1517608829336090630	800 42 1.000000 0.129000 0.131000 900 38 0.900000 1.427000 1.348000 600 45 1.000000 0.051000 0.051000 1.200000 0.035000 0.042000
1517608829848521214	800 42 1.000000 0.155000 0.158000 900 38 0.900000 1.478000 1.396000 600 46 1.000000 0.051000 0.051000 1.200000 0.044000 0.053000
1517608830360310589	800 42 1.000000 0.159000 0.162000 900 38 0.900000 1.183000 1.114000 600 46 1.000000 0.051000 0.051000 1.200000 0.059000 0.071000
1517608830872344505	800 42 1.000000 0.095000 0.097000 900 38 0.900000 1.290000 1.216000 600 46 1.000000 0.051000 0.051000 1.200000 0.037000 0.044000
1517608831383511756	800 42 1.000000 0.138000 0.141000 900 38 0.900000 1.444000 1.364000 600 46 1.000000 0.051000 0.051000 1.200000 0.035000 0.042000
1517608831895310756	800 42 1.000000 0.111000 0.113000 900 38 0.900000 1.425000 1.346000 600 46 1.000000 0.051000 0.051000 1.200000 0.046000 0.055000
1517608832409234506	800 42 1.000000 0.111000 0.113000 900 38 0.900000 1.017000 0.959000 600 45 1.000000 0.051000 0.051000 1.200000 0.045000 0.054000
1517608832920926714	800 41 1.000000 0.146000 0.149000 900 38 0.900000 1.423000 1.344000 600 44 1.000000 0.051000 0.051000 1.200000 0.062000 0.075000
1517608833432716589	800 42 1.000000 0.106000 0.108000 900 38 0.900000 1.117000 1.052000 600 46 1.000000 0.051000 0.051000 1.200000 0.047000 0.056000
1517608833944854714	800 42 1.000000 0.141000 0.144000 900 38 0.900000 1.239000 1.168000 600 46 1.000000 0.052000 0.052000 1.200000 0.037000 0.044000
1517608834456274173	800 41 1.000000 0.129000 0.131000 900 38 0.900000 1.475000 1.393000 600 45 1.000000 0.051000 0.051000 1.200000 0.037000 0.044000
1517608834968372298	800 42 1.000000 0.159000 0.162000 900 38 0.900000 1.383000 1.306000 600 46 1.000000 0.051000 0.051000 1.200000 0.057000 0.068000
1517608835480582923	800 42 1.000000 0.100000 0.102000 900 38 0.900000 0.976000 0.920000 600 46 1.000000 0.051000 0.051000 1.200000 0.044000 0.053000
1517608835992633964	800 42 1.000000 0.138000 0.141000 900 38 0.900000 1.438000 1.358000 600 45 1.000000 0.051000 0.051000 1.200000 0.036000 0.043000
1517608836504706131	800 42 1.000000 0.132000 0.134000 900 38 0.900000 1.443000 1.363000 600 46 1.000000 0.051000 0.051000 1.200000 0.036000 0.043000
1517608837017519340	800 42 1.000000 0.117000 0.119000 900 38 0.900000 1.140000 1.073000 600 46 1.000000 0.052000 0.052000 1.200000 0.051000 0.061000
1517608837529779673	800 42 1.000000 0.164000 0.167000 900 38 0.900000 1.400000 1.323000 600 45 1.000000 0.051000 0.051000 1.200000 0.035000 0.042000
1517608838041875548	800 42 1.000000 0.114000 0.116000 900 38 0.900000 1.419000 1.340000 600 46 1.000000 0.051000 0.051000 1.200000 0.038000 0.045000
1517608838553178090	800 42 1.000000 0.108000 0.110000 900 38 0.900000 1.090000 1.026000 600 46 1.000000 0.051000 0.051000 1.200000 0.042000 0.050000
1517608839066804881	800 41 1.000000 0.138000 0.141000 900 38 0.900000 1.450000 1.370000 600 45 1.000000 0.051000 0.051000 1.200000 0.035000 0.042000
1517608839579227923	800 42 1.000000 0.176000 0.179000 900 38 0.900000 1.428000 1.349000 600 46 1.000000 0.051000 0.051000 1.200000 0.038000 0.045000
1517608840091215382	800 42 1.000000 0.097000 0.099000 900 38 0.900000 1.002000 0.944000 600 46 1.000000 0.051000 0.051000 1.200000 0.051000 0.061000
1517608840602638923	800 42 1.000000 0.134000 0.137000 900 38 0.900000 1.445000 1.365000 600 45 1.000000 0.051000 0.051000 1.200000 0.034000 0.041000
1517608841114474465	800 42 1.000000 0.143000 0.146000 900 38 0.900000 1.412000 1.334000 600 46 1.000000 0.051000 0.051000 1.200000 0.034000 0.041000
1517608841626710965	800 42 1.000000 0.135000 0.138000 900 38 0.900000 1.422000 1.343000 600 46 1.000000 0.051000 0.051000 1.200000 0.034000 0.041000
1517608842139739923	800 42 1.000000 0.146000 0.149000 900 38 0.900000 1.461000 1.380000 600 46 1.000000 0.051000 0.051000 1.200000 0.057000 0.068000
1517608842652164799	800 42 1.000000 0.118000 0.120000 900 38 0.900000 0.987000 0.930000 600 46 1.000000 0.051000 0.051000 1.200000 0.043000 0.051000
1517608843163712174	800 41 1.000000 0.139000 0.142000 900 38 0.900000 1.406000 1.328000 600 45 1.000000 0.051000 0.051000 1.200000 0.039000 0.047000
1517608843677582382	800 42 1.000000 0.134000 0.137000 900 38 0.900000 1.443000 1.363000 600 46 1.000000 0.051000 0.051000 1.200000 0.043000 0.051000
1517608844192107257	800 42 1.000000 0.182000 0.186000 900 38 0.900000 1.093000 1.029000 600 46 1.000000 0.051000 0.051000 1.200000 0.062000 0.075000
1517608844703313674	800 41 1.000000 0.153000 0.156000 900 38 0.900000 1.410000 1.332000 600 45 1.000000 0.052000 0.052000 1.200000 0.045000 0.054000
1517608845214893507	800 42 1.000000 0.100000 0.102000 900 38 0.900000 1.448000 1.368000 600 46 1.000000 0.052000 0.052000 1.200000 0.042000 0.050000
1517608845726567924	800 42 1.000000 0.141000 0.144000 900 38 0.900000 1.136000 1.071000 600 46 1.000000 0.051000 0.051000 1.200000 0.039000 0.047000
1517608846240294507	800 42 1.000000 0.168000 0.171000 900 38 0.900000 1.401000 1.323000 600 46 1.000000 0.051000 0.051000 1.200000 0.056000 0.067000
1517608846752348341	800 42 1.000000 0.126000 0.128000 900 38 0.900000 1.296000 1.222000 600 46 1.000000 0.051000 0.051000 1.200000 0.043000 0.051000
1517608847263826841	800 41 1.000000 0.135000 0.137000 900 38 0.900000 1.337000 1.263000 600 45 1.000000 0.051000 0.051000 1.200000 0.036000 0.043000
1517608847775726841	800 42 1.000000 0.134000 0.136000 900 38 0.900000 1.405000 1.324000 600 46 1.000000 0.052000 0.052000 1.200000 0.044000 0.053000
1517608848287685716	800 42 1.000000 0.130000 0.132000 900 38 0.900000 1.406000 1.328000 600 46 1.000000 0.051000 0.051000 1.200000 0.040000 0.048000
1517608848799059133	800 42 1.000000 0.136000 0.138000 900 38 0.900000 1.440000 1.360000 600 45 1.000000 0.051000 0.051000 1.200000 0.044000 0.053000
1517608849310101924	800 42 1.000000 0.137000 0.140000 900 38 0.900000 1.126000 1.061000 600 46 1.000000 0.051000 0.051000 1.200000 0.047000 0.056000
1517608849822063716	800 42 1.000000 0.103000 0.105000 900 38 0.900000 1.403000 1.325000 600 46 1.000000 0.052000 0.052000 1.200000 0.035000 0.042000
1517608850338214341	800 42 1.000000 0.103000 0.105000 900 38 0.900000 1.136000 1.070000 600 46 1.000000 0.051000 0.051000 1.200000 0.045000 0.054000
1517608850850352341	800 42 1.000000 0.165000 0.168000 900 38 0.900000 1.416000 1.338000 600 46 1.000000 0.051000 0.051000 1.200000 0.058000 0.070000
1517608851361840341	800 42 1.000000 0.136000 0.138000 900 38 0.900000 1.403000 1.325000 600 45 1.000000 0.052000 0.052000 1.200000 0.040000 0.048000
1517608851873749258	800 42 1.000000 0.103000 0.105000 900 38 0.900000 1.164000 1.097000 600 46 1.000000 0.051000 0.051000 1.200000 0.044000 0.053000
1517608852385924341	800 42 1.000000 0.142000 0.145000 900 38 0.900000 1.401000 1.323000 600 46 1.000000 0.051000 0.051000 1.200000 0.039000 0.047000
1517608852897207925	800 42 1.000000 0.165000 0.168000 900 38 0.900000 1.419000 1.340000 600 45 1.000000 0.051000 0.051000 1.200000 0.047000 0.056000
1517608853408338300	800 42 1.000000 0.103000 0.105000 900 38 0.900000 1.175000 1.106000 600 46 1.000000 0.052000 0.052000 1.200000 0.045000 0.054000
1517608853920553425	800 42 1.000000 0.137000 0.140000 900 38 0.900000 1.409000 1.331000 600 46 1.000000 0.051000 0.051000 1.200000 0.037000 0.044000
1517608854432824925	800 42 1.000000 0.136000 0.138000 900 38 0.900000 1.435000 1.356000 600 46 1.000000 0.052000 0.052000 1.200000 0.038000 0.045000
1517608854944924342	800 42 1.000000 0.130000 0.132000 900 38 0.900000 1.091000 1.027000 600 46 1.000000 0.051000 0.051000 1.200000 0.044000 0.053000
1517608855456322758	800 42 1.000000 0.133000 0.136000 900 38 0.900000 1.439000 1.359000 600 45 1.000000 0.051000 0.051000 1.200000 0.038000 0.045000
1517608855968201175	800 42 1.000000 0.130000 0.132000 900 38 0.900000 1.377000 1.301000 600 46 1.000000 0.052000 0.052000 1.200000 0.039000 0.047000
1517608856480190925	800 42 1.000000 0.133000 0.136000 900 38 0.900000 1.086000 1.023000 600 46 1.000000 0.051000 0.051000 1.200000 0.046000 0.055000
1517608856995149092	800 41 1.000000 0.139000 0.142000 900 38 0.900000 1.465000 1.384000 600 44 1.000000 0.051000 0.051000 1.200000 0.034000 0.041000
1517608857507453634	800 42 1.000000 0.157000 0.160000 900 38 0.900000 1.511000 1.427000 600 46 1.000000 0.051000 0.051000 1.200000 0.052000 0.062000
1517608858019543509	800 42 1.000000 0.103000 0.105000 900 38 0.900000 1.050000 0.990000 600 46 1.000000 0.051000 0.051000 1.200000 0.042000 0.050000
1517608858530711675	800 41 1.000000 0.134000 0.137000 900 38 0.900000 1.451000 1.371000 600 44 1.000000 0.051000 0.051000 1.200000 0.037000 0.044000
1517608859042724425	800 42 1.000000 0.099000 0.101000 900 38 0.900000 1.119000 1.054000 600 46 1.000000 0.051000 0.051000 1.200000 0.044000 0.053000
1517608859554733009	800 42 1.000000 0.155000 0.158000 900 38 0.900000 1.404000 1.326000 600 46 1.000000 0.052000 0.052000 1.200000 0.041000 0.049000
1517608860066306176	800 41 1.000000 0.142000 0.145000 900 38 0.900000 1.451000 1.371000 600 44 1.000000 0.051000 0.051000 1.200000 0.037000 0.044000
1517608860578040426	800 42 1.000000 0.109000 0.111000 900 38 0.900000 1.185000 1.116000 600 46 1.000000 0.051000 0.051000 1.200000 0.046000 0.055000
1517608861089870134	800 42 1.000000 0.100000 0.102000 900 38 0.900000 1.447000 1.367000 600 46 1.000000 0.052000 0.052000 1.200000 0.039000 0.047000
1517608861602072134	800 42 1.000000 0.141000 0.144000 900 38 0.900000 1.412000 1.334000 600 45 1.000000 0.051000 0.051000 1.200000 0.039000 0.047000
1517608862114041426	800 42 1.000000 0.137000 0.140000 900 38 0.900000 1.330000 1.254000 600 46 1.000000 0.052000 0.052000 1.200000 0.048000 0.057000
1517608862626217384	800 42 1.000000 0.108000 0.110000 900 38 0.900000 1.076000 1.013000 600 46 1.000000 0.051000 0.051000 1.200000 0.044000 0.053000
1517608863139848676	800 42 1.000000 0.139000 0.142000 900 38 0.900000 1.373000 1.297000 600 46 1.000000 0.051000 0.051000 1.200000 0.037000 0.044000
1517608863653625009	800 42 1.000000 0.160000 0.163000 900 38 0.900000 1.435000 1.356000 600 46 1.000000 0.051000 0.051000 1.200000 0.038000 0.045000
1517608864165704051	800 42 1.000000 0.139000 0.142000 900 38 0.900000 1.064000 1.003000 600 46 1.000000 0.051000 0.051000 1.200000 0.060000 0.072000
1517608864677833593	800 42 1.000000 0.137000 0.140000 900 38 0.900000 1.455000 1.374000 600 46 1.000000 0.051000 0.051000 1.200000 0.036000 0.043000
1517608865190629218	800 42 1.000000 0.136000 0.138000 900 38 0.900000 1.434000 1.355000 600 46 1.000000 0.051000 0.051000 1.200000 0.036000 0.043000
1517608865702852426	800 42 1.000000 0.110000 0.112000 900 38 0.900000 1.211000 1.140000 600 46 1.000000 0.051000 0.051000 1.200000 0.045000 0.054000
1517608866214874093	800 42 1.000000 0.165000 0.168000 900 38 0.900000 1.403000 1.325000 600 46 1.000000 0.051000 0.051000 1.200000 0.059000 0.071000
1517608866726703301	800 42 1.000000 0.132000 0.135000 900 38 0.900000 1.454000 1.374000 600 46 1.000000 0.052000 0.052000 1.200000 0.036000 0.043000
1517608867239266176	800 42 1.000000 0.112000 0.114000 900 38 0.900000 1.030000 0.971000 600 46 1.000000 0.052000 0.052000 1.200000 0.043000 0.052000
1517608867750758593	800 41 1.000000 0.157000 0.160000 900 38 0.900000 1.441000 1.361000 600 44 1.000000 0.051000 0.051000 1.200000 0.035000 0.042000
1517608868264878093	800 42 1.000000 0.119000 0.121000 900 38 0.900000 1.185000 1.116000 600 46 1.000000 0.052000 0.052000 1.200000 0.047000 0.056000
1517608868778467385	800 42 1.000000 0.141000 0.144000 900 38 0.900000 1.435000 1.356000 600 46 1.000000 0.051000 0.051000 1.200000 0.053000 0.064000
1517608869290575510	800 42 1.000000 0.112000 0.114000 900 38 0.900000 1.432000 1.353000 600 46 1.000000 0.052000 0.052000 1.200000 0.036000 0.043000
1517608869802752427	800 42 1.000000 0.134000 0.137000 900 38 0.900000 1.001000 0.943000 600 46 1.000000 0.051000 0.051000 1.200000 0.048000 0.058000
1517608870316150218	800 42 1.000000 0.137000 0.140000 900 38 0.900000 1.445000 1.365000 600 46 1.000000 0.051000 0.051000 1.200000 0.037000 0.044000
1517608870828625677	800 42 1.000000 0.130000 0.132000 900 38 0.900000 1.494000 1.411000 600 46 1.000000 0.051000 0.051000 1.200000 0.066000 0.079000
1517608871340702969	800 42 1.000000 0.129000 0.131000 900 38 0.900000 1.065000 1.003000 600 46 1.000000 0.051000 0.051000 1.200000 0.039000 0.047000
1517608871851998260	800 41 1.000000 0.158000 0.161000 900 38 0.900000 1.455000 1.374000 600 45 1.000000 0.051000 0.051000 1.200000 0.043000 0.051000
1517608872364191885	800 42 1.000000 0.121000 0.123000 900 38 0.900000 1.355000 1.277000 600 46 1.000000 0.051000 0.051000 1.200000 0.042000 0.050000
1517608872876323135	800 42 1.000000 0.145000 0.148000 900 38 0.900000 1.282000 1.208000 600 46 1.000000 0.051000 0.051000 1.200000 0.052000 0.062000
1517608873388402386	800 42 1.000000 0.135000 0.137000 900 38 0.900000 1.443000 1.363000 600 46 1.000000 0.051000 0.051000 1.200000 0.036000 0.043000
1517608873900550261	800 42 1.000000 0.130000 0.132000 900 38 0.900000 1.268000 1.195000 600 46 1.000000 0.051000 0.051000 1.200000 0.048000 0.058000
1517608874412265094	800 42 1.000000 0.120000 0.122000 900 38 0.900000 1.402000 1.324000 600 45 1.000000 0.052000 0.052000 1.200000 0.037000 0.044000
1517608874927515302	800 42 1.000000 0.151000 0.154000 900 38 0.900000 1.461000 1.380000 600 46 1.000000 0.051000 0.051000 1.200000 0.041000 0.049000
1517608875440554261	800 42 1.000000 0.146000 0.149000 900 38 0.900000 1.059000 0.998000 600 46 1.000000 0.051000 0.051000 1.200000 0.044000 0.053000
1517608875952038552	800 42 1.000000 0.155000 0.158000 900 38 0.900000 1.441000 1.361000 600 45 1.000000 0.051000 0.051000 1.200000 0.042000 0.050000
1517608876463779219	800 42 1.000000 0.134000 0.137000 900 38 0.900000 1.448000 1.368000 600 46 1.000000 0.051000 0.051000 1.200000 0.036000 0.043000
1517608876976093886	800 42 1.000000 0.138000 0.141000 900 38 0.900000 1.400000 1.323000 600 46 1.000000 0.051000 0.051000 1.200000 0.036000 0.043000
1517608877488049261	800 42 1.000000 0.145000 0.148000 900 38 0.900000 1.428000 1.349000 600 46 1.000000 0.051000 0.051000 1.200000 0.061000 0.073000
1517608878000049219	800 42 1.000000 0.109000 0.111000 900 38 0.900000 1.147000 1.080000 600 46 1.000000 0.051000 0.051000 1.200000 0.048000 0.058000
1517608878511863844	800 42 1.000000 0.141000 0.144000 900 38 0.900000 1.397000 1.320000 600 45 1.000000 0.052000 0.052000 1.200000 0.036000 0.043000
1517608879023794803	800 42 1.000000 0.133000 0.135000 900 38 0.900000 1.454000 1.374000 600 46 1.000000 0.051000 0.051000 1.200000 0.038000 0.045000
1517608879535720470	800 42 1.000000 0.107000 0.109000 900 38 0.900000 1.080000 1.018000 600 46 1.000000 0.052000 0.052000 1.200000 0.052000 0.062000
1517608880047148886	800 42 1.000000 0.143000 0.146000 900 38 0.900000 1.465000 1.384000 600 45 1.000000 0.051000 0.051000 1.200000 0.045000 0.054000
1517608880558439095	800 42 1.000000 0.131000 0.133000 900 38 0.900000 1.403000 1.327000 600 46 1.000000 0.051000 0.051000 1.200000 0.039000 0.047000
1517608881070335928	800 42 1.000000 0.100000 0.102000 900 38 0.900000 1.147000 1.081000 600 46 1.000000 0.052000 0.052000 1.200000 0.040000 0.048000
1517608881583141553	800 42 1.000000 0.147000 0.150000 900 38 0.900000 1.401000 1.323000 600 46 1.000000 0.051000 0.051000 1.200000 0.034000 0.041000
1517608882095842803	800 42 1.000000 0.142000 0.145000 900 38 0.900000 1.220000 1.152000 600 46 1.000000 0.052000 0.052000 1.200000 0.064000 0.077000
1517608882607528637	800 42 1.000000 0.136000 0.138000 900 38 0.900000 1.314000 1.239000 600 45 1.000000 0.051000 0.051000 1.200000 0.037000 0.044000
1517608883119471512	800 42 1.000000 0.145000 0.148000 900 38 0.900000 1.440000 1.360000 600 46 1.000000 0.051000 0.051000 1.200000 0.044000 0.053000
1517608883631444928	800 42 1.000000 0.104000 0.106000 900 38 0.900000 1.240000 1.169000 600 46 1.000000 0.051000 0.051000 1.200000 0.036000 0.043000
1517608884142737470	800 41 1.000000 0.170000 0.173000 900 38 0.900000 1.357000 1.282000 600 44 1.000000 0.051000 0.051000 1.200000 0.051000 0.061000
1517608884654487220	800 42 1.000000 0.136000 0.138000 900 38 0.900000 1.445000 1.365000 600 46 1.000000 0.051000 0.051000 1.200000 0.046000 0.055000
1517608885166527887	800 42 1.000000 0.108000 0.110000 900 38 0.900000 1.132000 1.069000 600 46 1.000000 0.052000 0.052000 1.200000 0.040000 0.048000
1517608885677908929	800 41 1.000000 0.137000 0.140000 900 38 0.900000 1.419000 1.340000 600 45 1.000000 0.052000 0.052000 1.200000 0.045000 0.054000
1517608886191166220	800 42 1.000000 0.103000 0.105000 900 38 0.900000 1.394000 1.314000 600 46 1.000000 0.051000 0.051000 1.200000 0.038000 0.045000
1517608886704115887	800 42 1.000000 0.135000 0.137000 900 38 0.900000 1.430000 1.351000 600 46 1.000000 0.051000 0.051000 1.200000 0.068000 0.082000
1517608887215587596	800 41 1.000000 0.137000 0.140000 900 38 0.900000 1.539000 1.454000 600 44 1.000000 0.051000 0.051000 1.200000 0.041000 0.049000
1517608887727739721	800 42 1.000000 0.138000 0.141000 900 38 0.900000 1.062000 1.000000 600 46 1.000000 0.051000 0.051000 1.200000 0.044000 0.053000
1517608888240396429	800 42 1.000000 0.135000 0.137000 900 38 0.900000 1.421000 1.342000 600 46 1.000000 0.052000 0.052000 1.200000 0.036000 0.043000
1517608888753013554	800 42 1.000000 0.172000 0.175000 900 38 0.900000 1.428000 1.349000 600 46 1.000000 0.051000 0.051000 1.200000 0.060000 0.072000
1517608889265168179	800 42 1.000000 0.125000 0.127000 900 38 0.900000 1.192000 1.124000 600 46 1.000000 0.052000 0.052000 1.200000 0.046000 0.055000
1517608889776302596	800 42 1.000000 0.100000 0.102000 900 38 0.900000 1.039000 0.978000 600 46 1.000000 0.051000 0.051000 1.200000 0.045000 0.054000
1517608890288355346	800 42 1.000000 0.135000 0.137000 900 38 0.900000 1.446000 1.366000 600 46 1.000000 0.051000 0.051000 1.200000 0.036000 0.043000
1517608890799582221	800 41 1.000000 0.174000 0.177000 900 38 0.900000 1.428000 1.349000 600 44 1.000000 0.052000 0.052000 1.200000 0.048000 0.058000
1517608891311636346	800 42 1.000000 0.131000 0.133000 900 38 0.900000 1.040000 0.980000 600 46 1.000000 0.051000 0.051000 1.200000 0.046000 0.055000
1517608891823690554	800 42 1.000000 0.108000 0.110000 900 38 0.900000 1.109000 1.044000 600 46 1.000000 0.051000 0.051000 1.200000 0.043000 0.051000
1517608892335747721	800 42 1.000000 0.111000 0.113000 900 38 0.900000 1.394000 1.317000 600 46 1.000000 0.051000 0.051000 1.200000 0.036000 0.043000
1517608892849985555	800 42 1.000000 0.153000 0.156000 900 38 0.900000 1.405000 1.327000 600 46 1.000000 0.051000 0.051000 1.200000 0.042000 0.050000
1517608893362591388	800 42 1.000000 0.137000 0.140000 900 38 0.900000 1.007000 0.949000 600 46 1.000000 0.051000 0.051000 1.200000 0.050000 0.060000
1517608893874078305	800 42 1.000000 0.104000 0.106000 900 38 0.900000 1.302000 1.227000 600 46 1.000000 0.051000 0.051000 1.200000 0.033000 0.039000
1517608894385281096	800 41 1.000000 0.104000 0.106000 900 38 0.900000 1.319000 1.243000 600 45 1.000000 0.051000 0.051000 1.200000 0.043000 0.052000
1517608894897211596	800 42 1.000000 0.116000 0.118000 900 38 0.900000 1.114000 1.049000 600 46 1.000000 0.052000 0.052000 1.200000 0.043000 0.051000
1517608895409432888	800 42 1.000000 0.146000 0.149000 900 38 0.900000 1.425000 1.346000 600 46 1.000000 0.051000 0.051000 1.200000 0.044000 0.053000
1517608895920999680	800 42 1.000000 0.137000 0.140000 900 38 0.900000 1.398000 1.321000 600 45 1.000000 0.051000 0.051000 1.200000 0.038000 0.045000
1517608896432888472	800 42 1.000000 0.108000 0.110000 900 38 0.900000 1.197000 1.127000 600 46 1.000000 0.051000 0.051000 1.200000 0.044000 0.053000
1517608896944383472	800 42 1.000000 0.143000 0.146000 900 38 0.900000 1.467000 1.386000 600 46 1.000000 0.051000 0.051000 1.200000 0.037000 0.044000
1517608897455549305	800 42 1.000000 0.138000 0.141000 900 38 0.900000 1.450000 1.370000 600 46 1.000000 0.051000 0.051000 1.200000 0.034000 0.041000
1517608897967485513	800 42 1.000000 0.105000 0.107000 900 38 0.900000 1.196000 1.126000 600 46 1.000000 0.051000 0.051000 1.200000 0.045000 0.054000
1517608898479447389	800 42 1.000000 0.127000 0.129000 900 38 0.900000 1.399000 1.322000 600 46 1.000000 0.051000 0.051000 1.200000 0.036000 0.043000
1517608898991712139	800 42 1.000000 0.153000 0.156000 900 38 0.900000 1.439000 1.359000 600 46 1.000000 0.051000 0.051000 1.200000 0.041000 0.049000
1517608899506001180	800 42 1.000000 0.106000 0.108000 900 38 0.900000 1.178000 1.109000 600 46 1.000000 0.051000 0.051000 1.200000 0.048000 0.058000
1517608900017707097	800 42 1.000000 0.119000 0.121000 900 38 0.900000 1.393000 1.316000 600 45 1.000000 0.051000 0.051000 1.200000 0.048000 0.058000
1517608900528838889	800 42 1.000000 0.116000 0.118000 900 38 0.900000 1.426000 1.347000 600 46 1.000000 0.051000 0.051000 1.200000 0.035000 0.042000
1517608901040658347	800 42 1.000000 0.106000 0.108000 900 38 0.900000 1.034000 0.975000 600 46 1.000000 0.051000 0.051000 1.200000 0.049000 0.059000
1517608901552411764	800 41 1.000000 0.138000 0.141000 900 38 0.900000 1.463000 1.382000 600 45 1.000000 0.051000 0.051000 1.200000 0.034000 0.041000
1517608902064460722	800 42 1.000000 0.165000 0.168000 900 38 0.900000 1.393000 1.316000 600 46 1.000000 0.051000 0.051000 1.200000 0.062000 0.075000
1517608902576659681	800 42 1.000000 0.144000 0.147000 900 38 0.900000 1.440000 1.360000 600 46 1.000000 0.051000 0.051000 1.200000 0.037000 0.044000
1517608903087819139	800 42 1.000000 0.135000 0.137000 900 38 0.900000 1.442000 1.362000 600 45 1.000000 0.052000 0.052000 1.200000 0.036000 0.043000
1517608903599749514	800 42 1.000000 0.105000 0.107000 900 38 0.900000 1.062000 1.001000 600 46 1.000000 0.051000 0.051000 1.200000 0.043000 0.052000
1517608904111607389	800 42 1.000000 0.135000 0.137000 900 38 0.900000 1.398000 1.321000 600 46 1.000000 0.051000 0.051000 1.200000 0.035000 0.042000
1517608904623851598	800 42 1.000000 0.146000 0.149000 900 38 0.900000 1.401000 1.323000 600 46 1.000000 0.051000 0.051000 1.200000 0.045000 0.054000
1517608905136154306	800 42 1.000000 0.109000 0.111000 900 38 0.900000 1.024000 0.965000 600 46 1.000000 0.051000 0.051000 1.200000 0.044000 0.053000
1517608905648401223	800 42 1.000000 0.135000 0.138000 900 38 0.900000 1.406000 1.328000 600 46 1.000000 0.051000 0.051000 1.200000 0.034000 0.041000
1517608906162549681	800 42 1.000000 0.136000 0.139000 900 38 0.900000 1.480000 1.398000 600 46 1.000000 0.051000 0.051000 1.200000 0.038000 0.045000
1517608906676011223	800 42 1.000000 0.124000 0.126000 900 38 0.900000 1.041000 0.981000 600 46 1.000000 0.051000 0.051000 1.200000 0.062000 0.075000
1517608907187378640	800 42 1.000000 0.137000 0.140000 900 38 0.900000 1.421000 1.342000 600 45 1.000000 0.051000 0.051000 1.200000 0.033000 0.039000
1517608907699545098	800 42 1.000000 0.112000 0.114000 900 38 0.900000 1.475000 1.393000 600 46 1.000000 0.051000 0.051000 1.200000 0.035000 0.042000
1517608908211436640	800 42 1.000000 0.132000 0.135000 900 38 0.900000 0.996000 0.939000 600 46 1.000000 0.051000 0.051000 1.200000 0.042000 0.050000
1517608908722975015	800 42 1.000000 0.164000 0.167000 900 38 0.900000 1.427000 1.348000 600 45 1.000000 0.051000 0.051000 1.200000 0.060000 0.072000
1517608909234064931	800 42 1.000000 0.108000 0.110000 900 38 0.900000 1.393000 1.316000 600 46 1.000000 0.051000 0.051000 1.200000 0.040000 0.048000
1517608909745886848	800 42 1.000000 0.113000 0.115000 900 38 0.900000 1.053000 0.992000 600 46 1.000000 0.051000 0.051000 1.200000 0.041000 0.049000
1517608910258012848	800 42 1.000000 0.137000 0.140000 900 38 0.900000 1.450000 1.370000 600 46 1.000000 0.051000 0.051000 1.200000 0.034000 0.041000
1517608910771028098	800 42 1.000000 0.144000 0.147000 900 39 0.900000 1.553000 1.467000 600 46 1.000000 0.052000 0.052000 1.200000 0.050000 0.060000
1517608911284435473	800 42 1.000000 0.158000 0.161000 900 38 0.900000 1.392000 1.315000 600 46 1.000000 0.051000 0.051000 1.200000 0.048000 0.058000
1517608911796394307	800 42 1.000000 0.148000 0.151000 900 38 0.900000 1.368000 1.294000 600 46 1.000000 0.052000 0.052000 1.200000 0.045000 0.054000
1517608912307797557	800 42 1.000000 0.102000 0.104000 900 38 0.900000 1.111000 1.046000 600 46 1.000000 0.052000 0.052000 1.200000 0.039000 0.047000
1517608912819826557	800 42 1.000000 0.137000 0.140000 900 38 0.900000 1.426000 1.347000 600 45 1.000000 0.051000 0.051000 1.200000 0.034000 0.041000
1517608913332516390	800 42 1.000000 0.110000 0.112000 900 38 0.900000 1.512000 1.425000 600 46 1.000000 0.051000 0.051000 1.200000 0.065000 0.078000
1517608913844638099	800 42 1.000000 0.155000 0.158000 900 38 0.900000 1.080000 1.017000 600 46 1.000000 0.051000 0.051000 1.200000 0.049000 0.059000
1517608914356157140	800 42 1.000000 0.142000 0.145000 900 38 0.900000 1.417000 1.339000 600 45 1.000000 0.051000 0.051000 1.200000 0.033000 0.039000
1517608914867715724	800 42 1.000000 0.100000 0.102000 900 38 0.900000 1.432000 1.353000 600 46 1.000000 0.052000 0.052000 1.200000 0.038000 0.045000
1517608915379525641	800 42 1.000000 0.114000 0.116000 900 38 0.900000 1.102000 1.039000 600 46 1.000000 0.051000 0.051000 1.200000 0.057000 0.069000
1517608915891025432	800 42 1.000000 0.152000 0.155000 900 38 0.900000 1.416000 1.338000 600 45 1.000000 0.051000 0.051000 1.200000 0.037000 0.044000
1517608916402935141	800 42 1.000000 0.140000 0.143000 900 38 0.900000 1.486000 1.404000 600 46 1.000000 0.051000 0.051000 1.200000 0.036000 0.043000
1517608916914927307	800 42 1.000000 0.109000 0.111000 900 38 0.900000 1.063000 1.002000 600 46 1.000000 0.052000 0.052000 1.200000 0.046000 0.055000
1517608917430622974	800 42 1.000000 0.114000 0.116000 900 38 0.900000 1.095000 1.032000 600 46 1.000000 0.051000 0.051000 1.200000 0.044000 0.053000
1517608917942260516	800 42 1.000000 0.147000 0.150000 900 38 0.900000 1.380000 1.304000 600 45 1.000000 0.051000 0.051000 1.200000 0.036000 0.043000
1517608918453955349	800 42 1.000000 0.139000 0.142000 900 38 0.900000 1.477000 1.395000 600 46 1.000000 0.051000 0.051000 1.200000 0.036000 0.043000
1517608918965997516	800 42 1.000000 0.112000 0.114000 900 38 0.900000 1.199000 1.129000 600 46 1.000000 0.051000 0.051000 1.200000 0.043000 0.052000
1517608919477578808	800 42 1.000000 0.137000 0.140000 900 38 0.900000 1.152000 1.086000 600 45 1.000000 0.051000 0.051000 1.200000 0.036000 0.043000
1517608919989441183	800 42 1.000000 0.100000 0.102000 900 38 0.900000 1.434000 1.352000 600 46 1.000000 0.051000 0.051000 1.200000 0.069000 0.083000
1517608920501651266	800 42 1.000000 0.147000 0.150000 900 38 0.900000 1.074000 1.011000 600 46 1.000000 0.051000 0.051000 1.200000 0.044000 0.053000
1517608921013807350	800 42 1.000000 0.143000 0.146000 900 38 0.900000 1.437000 1.357000 600 46 1.000000 0.051000 0.051000 1.200000 0.037000 0.044000
1517608921525277183	800 42 1.000000 0.122000 0.124000 900 38 0.900000 1.476000 1.394000 600 46 1.000000 0.051000 0.051000 1.200000 0.035000 0.042000
1517608922036130266	800 42 1.000000 0.106000 0.108000 900 38 0.900000 1.277000 1.204000 600 46 1.000000 0.051000 0.051000 1.200000 0.056000 0.067000
1517608922547351225	800 42 1.000000 0.148000 0.151000 900 38 0.900000 1.160000 1.093000 600 46 1.000000 0.052000 0.052000 1.200000 0.037000 0.044000
1517608923058475433	800 42 1.000000 0.142000 0.145000 900 38 0.900000 1.445000 1.365000 600 45 1.000000 0.051000 0.051000 1.200000 0.044000 0.053000
1517608923569952767	800 42 1.000000 0.109000 0.111000 900 38 0.900000 1.417000 1.334000 600 46 1.000000 0.051000 0.051000 1.200000 0.042000 0.050000
1517608924085174725	800 42 1.000000 0.129000 0.131000 900 38 0.900000 1.416000 1.338000 600 46 1.000000 0.051000 0.051000 1.200000 0.036000 0.043000
1517608924597410392	800 42 1.000000 0.150000 0.153000 900 38 0.900000 1.396000 1.319000 600 46 1.000000 0.051000 0.051000 1.200000 0.063000 0.076000
1517608925109431683	800 42 1.000000 0.138000 0.141000 900 38 0.900000 1.009000 0.951000 600 46 1.000000 0.051000 0.051000 1.200000 0.045000 0.054000
1517608925621540142	800 42 1.000000 0.099000 0.101000 900 38 0.900000 1.420000 1.341000 600 46 1.000000 0.052000 0.052000 1.200000 0.034000 0.041000
1517608926133652600	800 42 1.000000 0.135000 0.137000 900 38 0.900000 1.524000 1.440000 600 46 1.000000 0.051000 0.051000 1.200000 0.040000 0.048000
1517608926645623975	800 42 1.000000 0.119000 0.121000 900 39 0.900000 1.011000 0.953000 600 46 1.000000 0.051000 0.051000 1.200000 0.052000 0.062000
1517608927157745017	800 42 1.000000 0.139000 0.142000 900 38 0.900000 1.397000 1.320000 600 46 1.000000 0.051000 0.051000 1.200000 0.037000 0.044000
1517608927669842517	800 42 1.000000 0.140000 0.143000 900 38 0.900000 1.462000 1.381000 600 46 1.000000 0.051000 0.051000 1.200000 0.038000 0.045000
1517608928181868767	800 42 1.000000 0.097000 0.099000 900 38 0.900000 1.095000 1.031000 600 46 1.000000 0.051000 0.051000 1.200000 0.045000 0.054000
1517608928694190725	800 42 1.000000 0.153000 0.156000 900 38 0.900000 1.420000 1.341000 600 45 1.000000 0.052000 0.052000 1.200000 0.043000 0.051000
1517608929205841309	800 42 1.000000 0.135000 0.138000 900 38 0.900000 1.037000 0.976000 600 46 1.000000 0.051000 0.051000 1.200000 0.068000 0.082000
1517608929717792059	800 42 1.000000 0.127000 0.129000 900 38 0.900000 1.431000 1.352000 600 46 1.000000 0.051000 0.051000 1.200000 0.035000 0.042000
1517608930229319976	800 42 1.000000 0.137000 0.140000 900 38 0.900000 1.437000 1.357000 600 45 1.000000 0.052000 0.052000 1.200000 0.038000 0.045000
1517608930742987517	800 42 1.000000 0.131000 0.133000 900 38 0.900000 1.159000 1.091000 600 46 1.000000 0.051000 0.051000 1.200000 0.049000 0.059000
1517608931255426892	800 42 1.000000 0.130000 0.132000 900 38 0.900000 1.436000 1.357000 600 46 1.000000 0.051000 0.051000 1.200000 0.053000 0.064000
1517608931766946601	800 41 1.000000 0.134000 0.137000 900 38 0.900000 1.406000 1.328000 600 44 1.000000 0.051000 0.051000 1.200000 0.037000 0.044000
1517608932280044809	800 42 1.000000 0.101000 0.103000 900 38 0.900000 1.109000 1.044000 600 46 1.000000 0.051000 0.051000 1.200000 0.044000 0.053000
1517608932792405893	800 42 1.000000 0.155000 0.158000 900 38 0.900000 1.409000 1.331000 600 46 1.000000 0.051000 0.051000 1.200000 0.043000 0.051000
1517608933303778309	800 42 1.000000 0.140000 0.143000 900 38 0.900000 1.403000 1.325000 600 46 1.000000 0.051000 0.051000 1.200000 0.043000 0.051000
1517608933815718643	800 42 1.000000 0.106000 0.108000 900 38 0.900000 1.128000 1.062000 600 46 1.000000 0.052000 0.052000 1.200000 0.044000 0.053000
1517608934328237893	800 42 1.000000 0.137000 0.140000 900 38 0.900000 1.413000 1.335000 600 46 1.000000 0.052000 0.052000 1.200000 0.036000 0.043000
1517608934840451935	800 42 1.000000 0.144000 0.147000 900 38 0.900000 1.453000 1.370000 600 46 1.000000 0.051000 0.051000 1.200000 0.039000 0.047000
1517608935354984518	800 38 1.000000 0.040000 0.041000 900 37 0.900000 0.497000 0.470000 600 42 1.000000 0.051000 0.051000 1.200000 0.033000 0.039000
1517608935866140476	800 37 1.000000 0.035000 0.035000 900 36 0.900000 0.102000 0.096000 600 41 1.000000 0.051000 0.051000 1.200000 0.025000 0.030000
