#Timestamp	CPU(0) Frequency(MHz)	CPU(0) Temperature(C)	A7 Voltage(V)	A7 Current(A)	A7 Power(W)	CPU(4) Frequency(MHz)	CPU(4) Temperature(C)	A15 Voltage(V)	A15 Current(A)	A15 Power(W)	GPU Frequency(MHz)	GPU Temperature(C)	GPU Voltage(V)	GPU Current(A)	GPU Power(W)	RAM Voltage(V)	RAM Current(A)	RAM Power(W)
1559775532464272573	400 41 0.900000 0.020000 0.018000 1600 35 1.100000 0.949000 1.058000 600 43 1.000000 0.051000 0.051000 1.200000 0.047000 0.056000
1559775532971392448	400 42 0.900000 0.018000 0.016000 1600 36 1.100000 1.181000 1.338000 600 41 1.000000 0.051000 0.051000 1.200000 0.057000 0.068000
1559775533478009990	400 44 0.900000 0.018000 0.016000 1600 37 1.100000 1.066000 1.206000 600 41 1.000000 0.051000 0.051000 1.200000 0.040000 0.048000
1559775533984506865	400 45 0.900000 0.023000 0.021000 1600 37 1.100000 1.323000 1.498000 600 42 1.000000 0.051000 0.051000 1.200000 0.040000 0.048000
1559775534491056365	400 45 0.900000 0.018000 0.016000 1600 38 1.100000 1.049000 1.187000 600 43 1.000000 0.051000 0.051000 1.200000 0.029000 0.035000
1559775534997557365	400 45 0.900000 0.018000 0.016000 1600 38 1.100000 1.059000 1.198000 600 42 1.000000 0.051000 0.051000 1.200000 0.030000 0.036000
1559775535508401532	400 45 0.900000 0.018000 0.016000 1600 38 1.100000 1.056000 1.195000 600 42 1.000000 0.051000 0.051000 1.200000 0.029000 0.035000
1559775536015012782	400 46 0.900000 0.018000 0.016000 1600 38 1.100000 1.063000 1.203000 600 43 1.000000 0.051000 0.051000 1.200000 0.030000 0.036000
1559775536521514240	400 46 0.900000 0.020000 0.018000 1600 38 1.100000 1.073000 1.214000 600 43 1.000000 0.051000 0.051000 1.200000 0.031000 0.037000
1559775537028083782	400 46 0.900000 0.019000 0.017000 1600 39 1.100000 1.170000 1.325000 600 43 1.000000 0.051000 0.051000 1.200000 0.033000 0.039000
1559775537534783699	400 46 0.900000 0.018000 0.016000 1600 39 1.100000 1.072000 1.213000 600 43 1.000000 0.051000 0.051000 1.200000 0.031000 0.037000
1559775538041242866	400 46 0.900000 0.018000 0.016000 1600 39 1.100000 1.066000 1.206000 600 44 1.000000 0.051000 0.051000 1.200000 0.029000 0.035000
1559775538548127991	400 46 0.900000 0.018000 0.016000 1600 39 1.100000 1.080000 1.222000 600 43 1.000000 0.052000 0.052000 1.200000 0.031000 0.037000
1559775539055020866	400 46 0.900000 0.018000 0.016000 1600 39 1.100000 1.169000 1.324000 600 43 1.000000 0.052000 0.052000 1.200000 0.033000 0.039000
1559775539561569282	400 46 0.900000 0.018000 0.016000 1600 39 1.100000 1.053000 1.191000 600 43 1.000000 0.052000 0.052000 1.200000 0.029000 0.035000
1559775540068661991	400 46 0.900000 0.018000 0.016000 1600 39 1.100000 1.058000 1.197000 600 45 1.000000 0.052000 0.052000 1.200000 0.028000 0.033000
1559775540575610324	400 46 0.900000 0.018000 0.016000 1600 39 1.100000 1.062000 1.202000 600 43 1.000000 0.051000 0.051000 1.200000 0.031000 0.037000
1559775541082110241	400 47 0.900000 0.018000 0.016000 1600 39 1.100000 1.057000 1.196000 600 43 1.000000 0.052000 0.052000 1.200000 0.029000 0.035000
1559775541588668908	400 47 0.900000 0.018000 0.016000 1600 39 1.100000 1.053000 1.191000 600 43 1.000000 0.052000 0.052000 1.200000 0.030000 0.036000
1559775542095063366	400 47 0.900000 0.018000 0.016000 1600 39 1.100000 1.054000 1.193000 600 43 1.000000 0.052000 0.052000 1.200000 0.030000 0.036000
1559775542601711199	400 47 0.900000 0.018000 0.016000 1600 39 1.100000 1.285000 1.455000 600 44 1.000000 0.052000 0.052000 1.200000 0.035000 0.042000
1559775543108234866	400 47 0.900000 0.020000 0.018000 1600 40 1.100000 1.154000 1.307000 600 44 1.000000 0.051000 0.051000 1.200000 0.034000 0.041000
1559775543614798825	400 47 0.900000 0.018000 0.016000 1600 39 1.100000 1.087000 1.230000 600 43 1.000000 0.052000 0.052000 1.200000 0.029000 0.035000
1559775544121258116	400 47 0.900000 0.018000 0.016000 1600 40 1.100000 1.057000 1.196000 600 43 1.000000 0.052000 0.052000 1.200000 0.031000 0.037000
1559775544627764616	400 47 0.900000 0.021000 0.019000 1600 40 1.100000 1.249000 1.415000 600 44 1.000000 0.052000 0.052000 1.200000 0.034000 0.041000
1559775545134217491	400 47 0.900000 0.018000 0.016000 1600 40 1.100000 1.158000 1.312000 600 44 1.000000 0.052000 0.052000 1.200000 0.032000 0.038000
1559775545640996491	400 47 0.900000 0.018000 0.016000 1600 40 1.100000 1.060000 1.199000 600 43 1.000000 0.051000 0.051000 1.200000 0.029000 0.035000
1559775546147522325	400 47 0.900000 0.018000 0.016000 1600 40 1.100000 1.056000 1.196000 600 44 1.000000 0.052000 0.052000 1.200000 0.028000 0.033000
1559775546653855533	400 47 0.900000 0.025000 0.022000 1600 40 1.100000 1.179000 1.335000 600 44 1.000000 0.052000 0.052000 1.200000 0.030000 0.036000
1559775547160577492	400 47 0.900000 0.018000 0.016000 1600 40 1.100000 1.059000 1.198000 600 44 1.000000 0.052000 0.052000 1.200000 0.031000 0.037000
1559775547667162242	400 47 0.900000 0.018000 0.016000 1600 40 1.100000 1.059000 1.198000 600 44 1.000000 0.051000 0.051000 1.200000 0.028000 0.033000
1559775548173653325	400 47 0.900000 0.018000 0.016000 1600 40 1.100000 1.060000 1.199000 600 44 1.000000 0.052000 0.052000 1.200000 0.031000 0.037000
1559775548680963658	400 47 0.900000 0.018000 0.016000 1600 40 1.100000 1.086000 1.229000 600 45 1.000000 0.051000 0.051000 1.200000 0.030000 0.036000
1559775549187684325	400 47 0.900000 0.027000 0.024000 1600 40 1.100000 1.334000 1.514000 600 44 1.000000 0.052000 0.052000 1.200000 0.042000 0.050000
1559775549694317700	400 47 0.900000 0.018000 0.016000 1600 40 1.100000 1.086000 1.229000 600 44 1.000000 0.051000 0.051000 1.200000 0.029000 0.035000
1559775550200955117	400 47 0.900000 0.018000 0.016000 1600 40 1.100000 1.070000 1.211000 600 44 1.000000 0.051000 0.051000 1.200000 0.029000 0.035000
1559775550707566325	400 47 0.900000 0.018000 0.016000 1600 40 1.100000 1.062000 1.202000 600 44 1.000000 0.052000 0.052000 1.200000 0.030000 0.036000
1559775551214067242	400 47 0.900000 0.028000 0.025000 1600 40 1.100000 1.380000 1.566000 600 44 1.000000 0.052000 0.052000 1.200000 0.041000 0.049000
1559775551720729075	400 47 0.900000 0.018000 0.016000 1600 40 1.100000 1.058000 1.197000 600 44 1.000000 0.052000 0.052000 1.200000 0.028000 0.033000
1559775552227544617	400 47 0.900000 0.019000 0.017000 1600 40 1.100000 1.062000 1.202000 600 44 1.000000 0.052000 0.052000 1.200000 0.029000 0.035000
1559775552734084909	400 47 0.900000 0.018000 0.016000 1600 40 1.100000 1.066000 1.206000 600 44 1.000000 0.052000 0.052000 1.200000 0.030000 0.036000
1559775553240606534	400 47 0.900000 0.028000 0.025000 1600 40 1.100000 1.323000 1.498000 600 45 1.000000 0.052000 0.052000 1.200000 0.043000 0.052000
1559775553747283534	400 47 0.900000 0.018000 0.016000 1600 40 1.100000 1.057000 1.196000 600 44 1.000000 0.052000 0.052000 1.200000 0.027000 0.032000
1559775554253813784	400 47 0.900000 0.018000 0.016000 1600 40 1.100000 1.060000 1.199000 600 44 1.000000 0.051000 0.051000 1.200000 0.027000 0.032000
1559775554760363784	400 47 0.900000 0.018000 0.016000 1600 40 1.100000 1.080000 1.223000 600 44 1.000000 0.051000 0.051000 1.200000 0.030000 0.036000
1559775555266988118	400 48 0.900000 0.018000 0.016000 1600 40 1.100000 1.184000 1.341000 600 45 1.000000 0.052000 0.052000 1.200000 0.033000 0.039000
1559775555773397409	400 47 0.900000 0.026000 0.023000 1600 40 1.100000 1.069000 1.210000 600 44 1.000000 0.052000 0.052000 1.200000 0.029000 0.035000
1559775556279956909	400 47 0.900000 0.019000 0.017000 1600 40 1.100000 1.069000 1.210000 600 44 1.000000 0.052000 0.052000 1.200000 0.030000 0.036000
1559775556786492243	400 47 0.900000 0.019000 0.017000 1600 40 1.100000 1.071000 1.213000 600 44 1.000000 0.052000 0.052000 1.200000 0.029000 0.035000
1559775557293762034	400 47 0.900000 0.018000 0.016000 1600 40 1.100000 1.178000 1.334000 600 46 1.000000 0.051000 0.051000 1.200000 0.033000 0.039000
1559775557800273660	400 47 0.900000 0.022000 0.020000 1600 40 1.100000 1.065000 1.208000 600 44 1.000000 0.052000 0.052000 1.200000 0.030000 0.036000
1559775558306799576	400 47 0.900000 0.018000 0.016000 1600 40 1.100000 1.088000 1.232000 600 44 1.000000 0.052000 0.052000 1.200000 0.028000 0.033000
1559775558813283326	400 48 0.900000 0.018000 0.016000 1600 40 1.100000 1.078000 1.221000 600 44 1.000000 0.052000 0.052000 1.200000 0.031000 0.037000
1559775559319877743	400 48 0.900000 0.020000 0.018000 1600 40 1.100000 1.145000 1.297000 600 44 1.000000 0.052000 0.052000 1.200000 0.032000 0.038000
1559775559826405285	400 48 0.900000 0.019000 0.017000 1600 40 1.100000 1.345000 1.523000 600 44 1.000000 0.052000 0.052000 1.200000 0.029000 0.035000
1559775560332908535	400 48 0.900000 0.018000 0.016000 1600 40 1.100000 1.084000 1.228000 600 44 1.000000 0.052000 0.052000 1.200000 0.028000 0.033000
1559775560839477118	400 48 0.900000 0.019000 0.017000 1600 40 1.100000 1.081000 1.224000 600 44 1.000000 0.052000 0.052000 1.200000 0.028000 0.033000
1559775561345992785	400 48 0.900000 0.018000 0.016000 1600 40 1.100000 1.089000 1.233000 600 44 1.000000 0.052000 0.052000 1.200000 0.034000 0.041000
1559775561852630660	400 48 0.900000 0.019000 0.017000 1600 41 1.100000 1.076000 1.218000 600 45 1.000000 0.052000 0.052000 1.200000 0.039000 0.047000
1559775562359320577	400 48 0.900000 0.018000 0.016000 1600 40 1.100000 1.086000 1.229000 600 44 1.000000 0.052000 0.052000 1.200000 0.030000 0.036000
1559775562867214702	400 45 0.900000 0.019000 0.017000 1600 40 1.100000 1.070000 1.211000 600 44 1.000000 0.052000 0.052000 1.200000 0.029000 0.035000
1559775563374428869	400 47 0.900000 0.021000 0.019000 1600 40 1.100000 1.040000 1.177000 600 45 1.000000 0.052000 0.052000 1.200000 0.097000 0.117000
1559775563881481910	400 48 0.900000 0.047000 0.043000 1600 41 1.100000 1.270000 1.438000 600 46 1.000000 0.052000 0.052000 1.200000 0.069000 0.083000
1559775564388597410	400 48 0.900000 0.047000 0.043000 1600 41 1.100000 1.349000 1.528000 600 46 1.000000 0.052000 0.052000 1.200000 0.064000 0.077000
1559775564895778619	400 48 0.900000 0.047000 0.043000 1600 41 1.100000 1.269000 1.437000 600 46 1.000000 0.052000 0.052000 1.200000 0.064000 0.077000
1559775565402849535	400 48 0.900000 0.047000 0.043000 1600 41 1.100000 1.291000 1.462000 600 46 1.000000 0.052000 0.052000 1.200000 0.064000 0.077000
1559775565910908702	400 48 0.900000 0.047000 0.043000 1600 41 1.100000 1.282000 1.452000 600 47 1.000000 0.052000 0.052000 1.200000 0.065000 0.078000
1559775566418064619	400 49 0.900000 0.048000 0.043000 1600 41 1.100000 1.397000 1.582000 600 46 1.000000 0.052000 0.052000 1.200000 0.072000 0.087000
1559775566925285869	400 49 0.900000 0.048000 0.043000 1600 41 1.100000 1.273000 1.442000 600 46 1.000000 0.052000 0.052000 1.200000 0.064000 0.077000
1559775567432394119	400 49 0.900000 0.048000 0.043000 1600 42 1.100000 1.281000 1.451000 600 46 1.000000 0.052000 0.052000 1.200000 0.064000 0.077000
1559775567939521952	400 49 0.900000 0.048000 0.043000 1600 41 1.100000 1.290000 1.461000 600 46 1.000000 0.052000 0.052000 1.200000 0.065000 0.078000
1559775568446414286	400 49 0.900000 0.049000 0.044000 1600 42 1.100000 1.347000 1.526000 600 46 1.000000 0.052000 0.052000 1.200000 0.064000 0.077000
1559775568953529619	400 49 0.900000 0.048000 0.043000 1600 42 1.100000 1.293000 1.464000 600 46 1.000000 0.052000 0.052000 1.200000 0.065000 0.078000
1559775569460603161	400 49 0.900000 0.048000 0.043000 1600 42 1.100000 1.277000 1.446000 600 46 1.000000 0.052000 0.052000 1.200000 0.064000 0.077000
1559775569967713203	400 49 0.900000 0.048000 0.043000 1600 42 1.100000 1.298000 1.470000 600 46 1.000000 0.052000 0.052000 1.200000 0.064000 0.077000
1559775570474853953	400 49 0.900000 0.051000 0.046000 1600 42 1.100000 1.284000 1.454000 600 47 1.000000 0.052000 0.052000 1.200000 0.064000 0.077000
1559775570981906328	400 49 0.900000 0.048000 0.043000 1600 42 1.100000 1.297000 1.469000 600 46 1.000000 0.052000 0.052000 1.200000 0.065000 0.078000
1559775571489174828	400 49 0.900000 0.048000 0.043000 1600 42 1.100000 1.279000 1.449000 600 47 1.000000 0.052000 0.052000 1.200000 0.064000 0.077000
1559775571996296578	400 49 0.900000 0.048000 0.043000 1600 42 1.100000 1.293000 1.464000 600 46 1.000000 0.052000 0.052000 1.200000 0.064000 0.077000
1559775572503444911	400 49 0.900000 0.053000 0.048000 1600 42 1.100000 1.271000 1.440000 600 48 1.000000 0.052000 0.052000 1.200000 0.064000 0.077000
1559775573010434578	400 49 0.900000 0.048000 0.043000 1600 42 1.100000 1.271000 1.440000 600 47 1.000000 0.052000 0.052000 1.200000 0.064000 0.077000
1559775573517567703	400 49 0.900000 0.048000 0.043000 1600 42 1.100000 1.367000 1.548000 600 47 1.000000 0.052000 0.052000 1.200000 0.064000 0.077000
1559775574024727245	400 49 0.900000 0.048000 0.043000 1600 42 1.100000 1.287000 1.458000 600 46 1.000000 0.052000 0.052000 1.200000 0.065000 0.078000
1559775574532449787	400 49 0.900000 0.048000 0.043000 1600 42 1.100000 1.290000 1.461000 600 48 1.000000 0.052000 0.052000 1.200000 0.065000 0.078000
1559775575039654120	400 49 0.900000 0.055000 0.050000 1600 42 1.100000 1.503000 1.705000 600 47 1.000000 0.052000 0.052000 1.200000 0.072000 0.087000
1559775575546777203	400 49 0.900000 0.048000 0.043000 1600 42 1.100000 1.296000 1.468000 600 47 1.000000 0.052000 0.052000 1.200000 0.064000 0.077000
1559775576053878203	400 49 0.900000 0.048000 0.043000 1600 42 1.100000 1.274000 1.443000 600 47 1.000000 0.052000 0.052000 1.200000 0.064000 0.077000
1559775576560990995	400 49 0.900000 0.048000 0.043000 1600 42 1.100000 1.301000 1.474000 600 47 1.000000 0.052000 0.052000 1.200000 0.064000 0.077000
1559775577068077370	400 49 0.900000 0.055000 0.050000 1600 42 1.100000 1.453000 1.649000 600 47 1.000000 0.052000 0.052000 1.200000 0.069000 0.083000
1559775577575232329	400 49 0.900000 0.048000 0.043000 1600 42 1.100000 1.291000 1.462000 600 47 1.000000 0.052000 0.052000 1.200000 0.064000 0.077000
1559775578082408370	400 49 0.900000 0.048000 0.043000 1600 42 1.100000 1.274000 1.443000 600 47 1.000000 0.052000 0.052000 1.200000 0.065000 0.078000
1559775578589607120	400 49 0.900000 0.048000 0.043000 1600 42 1.100000 1.274000 1.443000 600 47 1.000000 0.052000 0.052000 1.200000 0.064000 0.077000
1559775579096697370	400 50 0.900000 0.055000 0.050000 1600 42 1.100000 1.402000 1.591000 600 47 1.000000 0.052000 0.052000 1.200000 0.067000 0.081000
1559775579603913537	400 49 0.900000 0.048000 0.043000 1600 42 1.100000 1.328000 1.504000 600 47 1.000000 0.052000 0.052000 1.200000 0.064000 0.077000
1559775580111117621	400 49 0.900000 0.048000 0.043000 1600 42 1.100000 1.271000 1.440000 600 47 1.000000 0.052000 0.052000 1.200000 0.064000 0.077000
1559775580618278537	400 49 0.900000 0.048000 0.043000 1600 42 1.100000 1.280000 1.450000 600 47 1.000000 0.052000 0.052000 1.200000 0.064000 0.077000
1559775581125932579	400 50 0.900000 0.048000 0.043000 1600 42 1.100000 1.294000 1.466000 600 49 1.000000 0.052000 0.052000 1.200000 0.064000 0.077000
1559775581633204287	400 50 0.900000 0.055000 0.050000 1600 42 1.100000 1.440000 1.634000 600 47 1.000000 0.052000 0.052000 1.200000 0.073000 0.088000
1559775582140271121	400 50 0.900000 0.048000 0.043000 1600 42 1.100000 1.297000 1.469000 600 47 1.000000 0.052000 0.052000 1.200000 0.064000 0.077000
1559775582647474454	400 49 0.900000 0.047000 0.043000 1600 42 1.100000 1.273000 1.442000 600 47 1.000000 0.052000 0.052000 1.200000 0.065000 0.078000
1559775583154799788	400 49 0.900000 0.048000 0.043000 1600 42 1.100000 1.297000 1.469000 600 47 1.000000 0.052000 0.052000 1.200000 0.064000 0.077000
1559775583661960288	400 50 0.900000 0.056000 0.051000 1600 42 1.100000 1.494000 1.695000 600 48 1.000000 0.052000 0.052000 1.200000 0.074000 0.089000
1559775584169074454	400 50 0.900000 0.048000 0.043000 1600 42 1.100000 1.273000 1.442000 600 47 1.000000 0.052000 0.052000 1.200000 0.064000 0.077000
1559775584676083954	400 50 0.900000 0.048000 0.043000 1600 42 1.100000 1.269000 1.437000 600 47 1.000000 0.052000 0.052000 1.200000 0.064000 0.077000
1559775585183187621	400 49 0.900000 0.048000 0.043000 1600 42 1.100000 1.274000 1.443000 600 47 1.000000 0.052000 0.052000 1.200000 0.064000 0.077000
1559775585690379996	400 50 0.900000 0.049000 0.044000 1600 42 1.100000 1.496000 1.697000 600 48 1.000000 0.052000 0.052000 1.200000 0.074000 0.089000
1559775586197489121	400 50 0.900000 0.048000 0.043000 1600 42 1.100000 1.273000 1.442000 600 47 1.000000 0.052000 0.052000 1.200000 0.064000 0.077000
1559775586704640955	400 50 0.900000 0.048000 0.043000 1600 42 1.100000 1.271000 1.440000 600 47 1.000000 0.052000 0.052000 1.200000 0.064000 0.077000
1559775587211724871	400 50 0.900000 0.048000 0.043000 1600 42 1.100000 1.276000 1.445000 600 47 1.000000 0.052000 0.052000 1.200000 0.065000 0.078000
1559775587718918288	400 50 0.900000 0.048000 0.043000 1600 42 1.100000 1.296000 1.468000 600 48 1.000000 0.052000 0.052000 1.200000 0.064000 0.077000
1559775588225848121	400 50 0.900000 0.052000 0.047000 1600 42 1.100000 1.279000 1.449000 600 47 1.000000 0.052000 0.052000 1.200000 0.069000 0.083000
1559775588733010622	400 50 0.900000 0.048000 0.043000 1600 42 1.100000 1.299000 1.471000 600 47 1.000000 0.052000 0.052000 1.200000 0.064000 0.077000
1559775589240003997	400 50 0.900000 0.048000 0.043000 1600 42 1.100000 1.272000 1.441000 600 47 1.000000 0.052000 0.052000 1.200000 0.065000 0.078000
1559775589747710955	400 49 0.900000 0.048000 0.043000 1600 43 1.100000 1.271000 1.440000 600 49 1.000000 0.052000 0.052000 1.200000 0.064000 0.077000
1559775590254902163	400 50 0.900000 0.051000 0.046000 1600 42 1.100000 1.315000 1.489000 600 47 1.000000 0.052000 0.052000 1.200000 0.069000 0.083000
1559775590761901705	400 50 0.900000 0.048000 0.043000 1600 42 1.100000 1.275000 1.444000 600 47 1.000000 0.052000 0.052000 1.200000 0.064000 0.077000
1559775591269014914	400 50 0.900000 0.048000 0.043000 1600 42 1.100000 1.273000 1.442000 600 47 1.000000 0.052000 0.052000 1.200000 0.064000 0.077000
1559775591776073955	400 50 0.900000 0.048000 0.043000 1600 42 1.100000 1.274000 1.443000 600 49 1.000000 0.052000 0.052000 1.200000 0.064000 0.077000
1559775592283163955	400 50 0.900000 0.055000 0.050000 1600 43 1.100000 1.378000 1.564000 600 48 1.000000 0.052000 0.052000 1.200000 0.071000 0.085000
1559775592790220330	400 50 0.900000 0.048000 0.043000 1600 43 1.100000 1.276000 1.445000 600 47 1.000000 0.052000 0.052000 1.200000 0.063000 0.076000
1559775593297435080	400 50 0.900000 0.048000 0.043000 1600 42 1.100000 1.275000 1.444000 600 47 1.000000 0.052000 0.052000 1.200000 0.064000 0.077000
1559775593805173705	400 50 0.900000 0.048000 0.043000 1600 43 1.100000 1.280000 1.450000 600 49 1.000000 0.052000 0.052000 1.200000 0.064000 0.077000
1559775594312671289	400 50 0.900000 0.049000 0.044000 1600 43 1.100000 1.388000 1.575000 600 48 1.000000 0.052000 0.052000 1.200000 0.067000 0.081000
1559775594819851331	400 50 0.900000 0.049000 0.044000 1600 43 1.100000 1.276000 1.445000 600 47 1.000000 0.052000 0.052000 1.200000 0.064000 0.077000
1559775595327135331	400 50 0.900000 0.048000 0.043000 1600 42 1.100000 1.283000 1.453000 600 47 1.000000 0.052000 0.052000 1.200000 0.065000 0.078000
1559775595834797914	400 50 0.900000 0.047000 0.043000 1600 42 1.100000 1.282000 1.452000 600 49 1.000000 0.052000 0.052000 1.200000 0.064000 0.077000
1559775596342313622	400 50 0.900000 0.048000 0.043000 1600 43 1.100000 1.383000 1.569000 600 49 1.000000 0.052000 0.052000 1.200000 0.064000 0.077000
1559775596849725456	400 50 0.900000 0.047000 0.043000 1600 43 1.100000 1.529000 1.735000 600 47 1.000000 0.052000 0.052000 1.200000 0.064000 0.077000
1559775597356877956	400 50 0.900000 0.048000 0.043000 1600 43 1.100000 1.288000 1.459000 600 47 1.000000 0.052000 0.052000 1.200000 0.064000 0.077000
1559775597864713748	400 50 0.900000 0.048000 0.043000 1600 43 1.100000 1.296000 1.468000 600 47 1.000000 0.052000 0.052000 1.200000 0.064000 0.077000
1559775598372698206	400 50 0.900000 0.049000 0.044000 1600 43 1.100000 1.373000 1.558000 600 48 1.000000 0.052000 0.052000 1.200000 0.064000 0.077000
1559775598880221081	400 50 0.900000 0.056000 0.051000 1600 43 1.100000 1.539000 1.746000 600 47 1.000000 0.052000 0.052000 1.200000 0.064000 0.077000
1559775599387196581	400 50 0.900000 0.048000 0.043000 1600 43 1.100000 1.280000 1.450000 600 47 1.000000 0.052000 0.052000 1.200000 0.063000 0.076000
1559775599894258956	400 50 0.900000 0.048000 0.043000 1600 43 1.100000 1.300000 1.472000 600 47 1.000000 0.052000 0.052000 1.200000 0.064000 0.077000
1559775600401410373	400 50 0.900000 0.049000 0.044000 1600 43 1.100000 1.285000 1.455000 600 47 1.000000 0.052000 0.052000 1.200000 0.067000 0.081000
1559775600908610331	400 50 0.900000 0.048000 0.043000 1600 43 1.100000 1.291000 1.462000 600 48 1.000000 0.052000 0.052000 1.200000 0.071000 0.085000
1559775601415915706	400 50 0.900000 0.048000 0.043000 1600 43 1.100000 1.288000 1.459000 600 47 1.000000 0.052000 0.052000 1.200000 0.064000 0.077000
1559775601923024123	400 50 0.900000 0.048000 0.043000 1600 43 1.100000 1.288000 1.459000 600 47 1.000000 0.053000 0.053000 1.200000 0.064000 0.077000
1559775602430036332	400 50 0.900000 0.049000 0.044000 1600 43 1.100000 1.380000 1.563000 600 47 1.000000 0.052000 0.052000 1.200000 0.065000 0.078000
1559775602937284332	400 50 0.900000 0.048000 0.043000 1600 43 1.100000 1.283000 1.453000 600 48 1.000000 0.052000 0.052000 1.200000 0.068000 0.082000
1559775603444435207	400 50 0.900000 0.048000 0.043000 1600 43 1.100000 1.340000 1.518000 600 47 1.000000 0.052000 0.052000 1.200000 0.064000 0.077000
1559775603951542165	400 50 0.900000 0.048000 0.043000 1600 43 1.100000 1.277000 1.446000 600 47 1.000000 0.052000 0.052000 1.200000 0.064000 0.077000
1559775604458732665	400 50 0.900000 0.048000 0.043000 1600 43 1.100000 1.389000 1.573000 600 47 1.000000 0.052000 0.052000 1.200000 0.064000 0.077000
1559775604966720832	400 50 0.900000 0.048000 0.043000 1600 43 1.100000 1.278000 1.447000 600 49 1.000000 0.052000 0.052000 1.200000 0.066000 0.079000
1559775605474076915	400 50 0.900000 0.053000 0.048000 1600 43 1.100000 1.406000 1.592000 600 48 1.000000 0.053000 0.053000 1.200000 0.072000 0.087000
1559775605981305457	400 50 0.900000 0.048000 0.043000 1600 43 1.100000 1.275000 1.444000 600 47 1.000000 0.052000 0.052000 1.200000 0.064000 0.077000
1559775606488606957	400 50 0.900000 0.048000 0.043000 1600 43 1.100000 1.371000 1.553000 600 47 1.000000 0.052000 0.052000 1.200000 0.068000 0.082000
1559775606995826832	400 50 0.900000 0.048000 0.043000 1600 43 1.100000 1.292000 1.463000 600 47 1.000000 0.052000 0.052000 1.200000 0.064000 0.077000
1559775607503014082	400 50 0.900000 0.052000 0.047000 1600 43 1.100000 1.359000 1.539000 600 48 1.000000 0.052000 0.052000 1.200000 0.064000 0.077000
1559775608010068291	400 50 0.900000 0.048000 0.043000 1600 43 1.100000 1.291000 1.462000 600 47 1.000000 0.052000 0.052000 1.200000 0.065000 0.078000
1559775608517236749	400 50 0.900000 0.048000 0.043000 1600 43 1.100000 1.368000 1.552000 600 47 1.000000 0.052000 0.052000 1.200000 0.064000 0.077000
1559775609024369666	400 50 0.900000 0.048000 0.043000 1600 43 1.100000 1.302000 1.475000 600 47 1.000000 0.053000 0.053000 1.200000 0.065000 0.078000
1559775609531655416	400 50 0.900000 0.053000 0.048000 1600 43 1.100000 1.294000 1.466000 600 48 1.000000 0.052000 0.052000 1.200000 0.064000 0.077000
1559775610038782541	400 50 0.900000 0.048000 0.043000 1600 43 1.100000 1.302000 1.475000 600 48 1.000000 0.052000 0.052000 1.200000 0.064000 0.077000
1559775610545876666	400 50 0.900000 0.048000 0.043000 1600 43 1.100000 1.363000 1.547000 600 48 1.000000 0.052000 0.052000 1.200000 0.067000 0.081000
1559775611053076624	400 50 0.900000 0.048000 0.043000 1600 43 1.100000 1.302000 1.475000 600 48 1.000000 0.052000 0.052000 1.200000 0.064000 0.077000
1559775611560167583	400 50 0.900000 0.048000 0.043000 1600 43 1.100000 1.279000 1.449000 600 49 1.000000 0.052000 0.052000 1.200000 0.064000 0.077000
1559775612067179291	400 50 0.900000 0.049000 0.044000 1600 43 1.100000 1.278000 1.447000 600 48 1.000000 0.052000 0.052000 1.200000 0.065000 0.078000
1559775612574429416	400 50 0.900000 0.049000 0.044000 1600 43 1.100000 1.369000 1.553000 600 48 1.000000 0.052000 0.052000 1.200000 0.068000 0.082000
1559775613081508249	400 50 0.900000 0.048000 0.043000 1600 43 1.100000 1.275000 1.444000 600 48 1.000000 0.052000 0.052000 1.200000 0.063000 0.076000
1559775613589219666	400 50 0.900000 0.048000 0.043000 1600 43 1.100000 1.290000 1.461000 600 48 1.000000 0.052000 0.052000 1.200000 0.065000 0.078000
1559775614096387625	400 50 0.900000 0.056000 0.051000 1600 43 1.100000 1.488000 1.688000 600 48 1.000000 0.052000 0.052000 1.200000 0.070000 0.084000
1559775614603555916	400 50 0.900000 0.049000 0.044000 1600 43 1.100000 1.320000 1.495000 600 48 1.000000 0.052000 0.052000 1.200000 0.065000 0.078000
1559775615110754333	400 50 0.900000 0.048000 0.043000 1600 43 1.100000 1.279000 1.449000 600 48 1.000000 0.052000 0.052000 1.200000 0.064000 0.077000
1559775615617691166	400 50 0.900000 0.048000 0.043000 1600 43 1.100000 1.301000 1.474000 600 47 1.000000 0.052000 0.052000 1.200000 0.064000 0.077000
1559775616124866916	400 50 0.900000 0.056000 0.051000 1600 43 1.100000 1.460000 1.657000 600 48 1.000000 0.052000 0.052000 1.200000 0.068000 0.082000
1559775616631995292	400 50 0.900000 0.048000 0.043000 1600 43 1.100000 1.394000 1.582000 600 48 1.000000 0.052000 0.052000 1.200000 0.065000 0.078000
1559775617139142958	400 50 0.900000 0.048000 0.043000 1600 43 1.100000 1.277000 1.446000 600 47 1.000000 0.052000 0.052000 1.200000 0.065000 0.078000
1559775617646209750	400 50 0.900000 0.048000 0.043000 1600 43 1.100000 1.273000 1.442000 600 47 1.000000 0.052000 0.052000 1.200000 0.064000 0.077000
1559775618153322625	400 50 0.900000 0.048000 0.043000 1600 43 1.100000 1.403000 1.592000 600 48 1.000000 0.052000 0.052000 1.200000 0.067000 0.081000
1559775618660331667	400 50 0.900000 0.049000 0.044000 1600 43 1.100000 1.375000 1.557000 600 48 1.000000 0.052000 0.052000 1.200000 0.067000 0.081000
1559775619167478792	400 50 0.900000 0.048000 0.043000 1600 43 1.100000 1.275000 1.444000 600 48 1.000000 0.052000 0.052000 1.200000 0.064000 0.077000
1559775619674521292	400 50 0.900000 0.048000 0.043000 1600 43 1.100000 1.274000 1.443000 600 48 1.000000 0.052000 0.052000 1.200000 0.064000 0.077000
1559775620182186959	400 50 0.900000 0.048000 0.043000 1600 43 1.100000 1.288000 1.459000 600 49 1.000000 0.052000 0.052000 1.200000 0.064000 0.077000
1559775620689578250	400 50 0.900000 0.056000 0.051000 1600 43 1.100000 1.455000 1.651000 600 48 1.000000 0.052000 0.052000 1.200000 0.074000 0.089000
1559775621196785875	400 50 0.900000 0.048000 0.043000 1600 43 1.100000 1.299000 1.471000 600 48 1.000000 0.052000 0.052000 1.200000 0.064000 0.077000
1559775621703986584	400 50 0.900000 0.048000 0.043000 1600 43 1.100000 1.277000 1.446000 600 47 1.000000 0.052000 0.052000 1.200000 0.065000 0.078000
1559775622211055126	400 50 0.900000 0.048000 0.043000 1600 43 1.100000 1.299000 1.471000 600 48 1.000000 0.052000 0.052000 1.200000 0.064000 0.077000
1559775622718081626	400 50 0.900000 0.055000 0.050000 1600 43 1.100000 1.574000 1.786000 600 48 1.000000 0.052000 0.052000 1.200000 0.074000 0.089000
1559775623225245751	400 50 0.900000 0.048000 0.043000 1600 43 1.100000 1.278000 1.447000 600 48 1.000000 0.052000 0.052000 1.200000 0.064000 0.077000
1559775623732311417	400 50 0.900000 0.048000 0.043000 1600 43 1.100000 1.275000 1.444000 600 48 1.000000 0.053000 0.053000 1.200000 0.065000 0.078000
1559775624239442001	400 50 0.900000 0.048000 0.043000 1600 43 1.100000 1.276000 1.445000 600 48 1.000000 0.052000 0.052000 1.200000 0.064000 0.077000
1559775624746491626	400 50 0.900000 0.051000 0.046000 1600 43 1.100000 1.599000 1.814000 600 48 1.000000 0.052000 0.052000 1.200000 0.074000 0.089000
1559775625253558543	400 50 0.900000 0.048000 0.043000 1600 43 1.100000 1.276000 1.448000 600 48 1.000000 0.052000 0.052000 1.200000 0.064000 0.077000
1559775625760737501	400 50 0.900000 0.048000 0.043000 1600 43 1.100000 1.283000 1.453000 600 48 1.000000 0.052000 0.052000 1.200000 0.064000 0.077000
1559775626268006876	400 50 0.900000 0.048000 0.043000 1600 43 1.100000 1.289000 1.460000 600 48 1.000000 0.052000 0.052000 1.200000 0.065000 0.078000
1559775626775104168	400 50 0.900000 0.048000 0.043000 1600 43 1.100000 1.290000 1.461000 600 49 1.000000 0.052000 0.052000 1.200000 0.064000 0.077000
1559775627282231334	400 50 0.900000 0.051000 0.046000 1600 43 1.100000 1.285000 1.455000 600 48 1.000000 0.052000 0.052000 1.200000 0.069000 0.083000
1559775627789476668	400 50 0.900000 0.048000 0.043000 1600 43 1.100000 1.298000 1.473000 600 48 1.000000 0.052000 0.052000 1.200000 0.064000 0.077000
1559775628296558960	400 50 0.900000 0.048000 0.043000 1600 43 1.100000 1.279000 1.449000 600 48 1.000000 0.052000 0.052000 1.200000 0.065000 0.078000
1559775628804383085	400 50 0.900000 0.048000 0.043000 1600 43 1.100000 1.308000 1.481000 600 49 1.000000 0.052000 0.052000 1.200000 0.064000 0.077000
1559775629311708668	400 50 0.900000 0.050000 0.045000 1600 43 1.100000 1.321000 1.496000 600 48 1.000000 0.052000 0.052000 1.200000 0.071000 0.085000
1559775629818869085	400 50 0.900000 0.048000 0.043000 1600 43 1.100000 1.272000 1.441000 600 48 1.000000 0.052000 0.052000 1.200000 0.064000 0.077000
1559775630325983002	400 50 0.900000 0.048000 0.043000 1600 43 1.100000 1.278000 1.447000 600 48 1.000000 0.052000 0.052000 1.200000 0.064000 0.077000
1559775630833182252	400 50 0.900000 0.048000 0.043000 1600 43 1.100000 1.362000 1.545000 600 48 1.000000 0.052000 0.052000 1.200000 0.065000 0.078000
1559775631340273835	400 50 0.900000 0.056000 0.051000 1600 43 1.100000 1.397000 1.585000 600 48 1.000000 0.052000 0.052000 1.200000 0.073000 0.088000
1559775631847422918	400 50 0.900000 0.048000 0.043000 1600 43 1.100000 1.273000 1.442000 600 48 1.000000 0.052000 0.052000 1.200000 0.063000 0.076000
1559775632354495252	400 50 0.900000 0.048000 0.043000 1600 43 1.100000 1.277000 1.446000 600 48 1.000000 0.052000 0.052000 1.200000 0.064000 0.077000
1559775632861858543	400 50 0.900000 0.048000 0.043000 1600 43 1.100000 1.286000 1.457000 600 48 1.000000 0.052000 0.052000 1.200000 0.064000 0.077000
1559775633369088919	400 50 0.900000 0.048000 0.043000 1600 43 1.100000 1.370000 1.552000 600 48 1.000000 0.052000 0.052000 1.200000 0.064000 0.077000
1559775633876211460	400 50 0.900000 0.048000 0.043000 1600 43 1.100000 1.437000 1.630000 600 48 1.000000 0.052000 0.052000 1.200000 0.064000 0.077000
1559775634383370085	400 50 0.900000 0.048000 0.043000 1600 43 1.100000 1.299000 1.471000 600 48 1.000000 0.052000 0.052000 1.200000 0.064000 0.077000
1559775634890564460	400 50 0.900000 0.048000 0.043000 1600 43 1.100000 1.278000 1.447000 600 48 1.000000 0.052000 0.052000 1.200000 0.064000 0.077000
1559775635402006002	400 50 0.900000 0.048000 0.043000 1600 43 1.100000 1.398000 1.583000 600 49 1.000000 0.052000 0.052000 1.200000 0.064000 0.077000
1559775635910775336	400 50 0.900000 0.048000 0.043000 1600 43 1.100000 1.489000 1.690000 600 48 1.000000 0.052000 0.052000 1.200000 0.064000 0.077000
1559775636418001627	400 50 0.900000 0.048000 0.043000 1600 43 1.100000 1.279000 1.449000 600 48 1.000000 0.052000 0.052000 1.200000 0.064000 0.077000
1559775636925108127	400 50 0.900000 0.048000 0.043000 1600 43 1.100000 1.303000 1.476000 600 48 1.000000 0.053000 0.053000 1.200000 0.064000 0.077000
1559775637432788586	400 50 0.900000 0.048000 0.043000 1600 43 1.100000 1.283000 1.453000 600 48 1.000000 0.052000 0.052000 1.200000 0.064000 0.077000
1559775637940034919	400 50 0.900000 0.056000 0.051000 1600 43 1.100000 1.550000 1.759000 600 48 1.000000 0.052000 0.052000 1.200000 0.066000 0.079000
1559775638447123211	400 50 0.900000 0.048000 0.043000 1600 43 1.100000 1.286000 1.457000 600 48 1.000000 0.052000 0.052000 1.200000 0.064000 0.077000
1559775638954315419	400 50 0.900000 0.048000 0.043000 1600 43 1.100000 1.292000 1.463000 600 48 1.000000 0.052000 0.052000 1.200000 0.067000 0.081000
1559775639460795544	400 42 0.900000 0.047000 0.043000 1600 41 1.100000 1.382000 1.568000 600 46 1.000000 0.052000 0.052000 1.200000 0.050000 0.060000
1559775639966954128	400 41 0.900000 0.020000 0.018000 1600 40 1.100000 0.237000 0.270000 600 45 1.000000 0.052000 0.052000 1.200000 0.031000 0.037000
