#Timestamp	CPU(0) Frequency(MHz)	CPU(0) Temperature(C)	A7 Voltage(V)	A7 Current(A)	A7 Power(W)	CPU(4) Frequency(MHz)	CPU(4) Temperature(C)	A15 Voltage(V)	A15 Current(A)	A15 Power(W)	GPU Frequency(MHz)	GPU Temperature(C)	GPU Voltage(V)	GPU Current(A)	GPU Power(W)	RAM Voltage(V)	RAM Current(A)	RAM Power(W)
1559791042043478517	400 32 0.900000 0.018000 0.016000 1100 28 0.900000 0.696000 0.690000 600 33 1.000000 0.050000 0.050000 1.200000 0.044000 0.053000
1559791042551795600	400 33 0.900000 0.017000 0.015000 1100 29 0.900000 0.639000 0.633000 600 33 1.000000 0.050000 0.050000 1.200000 0.049000 0.059000
1559791043059454434	400 34 0.900000 0.019000 0.017000 1100 29 0.900000 0.823000 0.816000 600 34 1.000000 0.050000 0.050000 1.200000 0.050000 0.060000
1559791043567109225	400 34 0.900000 0.019000 0.017000 1100 29 0.900000 0.627000 0.621000 600 34 1.000000 0.050000 0.050000 1.200000 0.050000 0.060000
1559791044074801684	400 34 0.900000 0.017000 0.015000 1100 30 0.900000 0.621000 0.615000 600 34 1.000000 0.050000 0.050000 1.200000 0.029000 0.035000
1559791044582514476	400 34 0.900000 0.017000 0.015000 1100 30 0.900000 0.631000 0.625000 600 34 1.000000 0.050000 0.050000 1.200000 0.032000 0.038000
1559791045100292101	400 34 0.900000 0.017000 0.015000 1100 30 0.900000 0.612000 0.606000 600 34 1.000000 0.050000 0.050000 1.200000 0.027000 0.032000
1559791045609213351	400 34 0.900000 0.018000 0.016000 1100 30 0.900000 0.658000 0.652000 600 34 1.000000 0.050000 0.050000 1.200000 0.034000 0.041000
1559791046116931517	400 34 0.900000 0.017000 0.015000 1100 30 0.900000 0.614000 0.608000 600 34 1.000000 0.050000 0.050000 1.200000 0.028000 0.033000
1559791046624890601	400 34 0.900000 0.017000 0.015000 1100 30 0.900000 0.613000 0.607000 600 34 1.000000 0.050000 0.050000 1.200000 0.029000 0.035000
1559791047132764809	400 34 0.900000 0.017000 0.015000 1100 30 0.900000 0.612000 0.606000 600 34 1.000000 0.050000 0.050000 1.200000 0.027000 0.032000
1559791047640558768	400 34 0.900000 0.022000 0.020000 1100 30 0.900000 0.675000 0.668000 600 34 1.000000 0.050000 0.050000 1.200000 0.034000 0.041000
1559791048148260976	400 35 0.900000 0.017000 0.015000 1100 30 0.900000 0.658000 0.652000 600 34 1.000000 0.050000 0.050000 1.200000 0.028000 0.033000
1559791048655992976	400 34 0.900000 0.017000 0.015000 1100 30 0.900000 0.610000 0.604000 600 34 1.000000 0.051000 0.051000 1.200000 0.029000 0.035000
1559791049163755018	400 34 0.900000 0.017000 0.015000 1100 30 0.900000 0.609000 0.603000 600 34 1.000000 0.050000 0.050000 1.200000 0.029000 0.035000
1559791049671567809	400 34 0.900000 0.020000 0.018000 1100 30 0.900000 0.717000 0.710000 600 35 1.000000 0.050000 0.050000 1.200000 0.033000 0.039000
1559791050179258601	400 35 0.900000 0.017000 0.015000 1100 30 0.900000 0.686000 0.679000 600 35 1.000000 0.050000 0.050000 1.200000 0.027000 0.032000
1559791050687002976	400 35 0.900000 0.018000 0.016000 1100 31 0.900000 0.618000 0.612000 600 35 1.000000 0.050000 0.050000 1.200000 0.032000 0.038000
1559791051194697685	400 34 0.900000 0.017000 0.015000 1100 30 0.900000 0.611000 0.605000 600 34 1.000000 0.050000 0.050000 1.200000 0.028000 0.033000
1559791051702394226	400 35 0.900000 0.017000 0.015000 1100 31 0.900000 0.678000 0.671000 600 35 1.000000 0.050000 0.050000 1.200000 0.028000 0.033000
1559791052209983226	400 35 0.900000 0.018000 0.016000 1100 31 0.900000 0.749000 0.742000 600 35 1.000000 0.050000 0.050000 1.200000 0.029000 0.035000
1559791052717872226	400 35 0.900000 0.017000 0.015000 1100 31 0.900000 0.712000 0.705000 600 35 1.000000 0.050000 0.050000 1.200000 0.031000 0.037000
1559791053225663560	400 35 0.900000 0.017000 0.015000 1100 30 0.900000 0.615000 0.609000 600 35 1.000000 0.050000 0.050000 1.200000 0.028000 0.033000
1559791053740891352	400 34 0.900000 0.017000 0.015000 1100 31 0.900000 0.624000 0.618000 600 35 1.000000 0.050000 0.050000 1.200000 0.029000 0.035000
1559791054248425352	400 35 0.900000 0.020000 0.018000 1100 30 0.900000 0.794000 0.787000 600 35 1.000000 0.050000 0.050000 1.200000 0.029000 0.035000
1559791054756208810	400 35 0.900000 0.017000 0.015000 1100 31 0.900000 0.713000 0.706000 600 35 1.000000 0.050000 0.050000 1.200000 0.028000 0.033000
1559791055264090935	400 35 0.900000 0.017000 0.015000 1100 31 0.900000 0.613000 0.607000 600 35 1.000000 0.050000 0.050000 1.200000 0.029000 0.035000
1559791055779945019	400 34 0.900000 0.017000 0.015000 1100 30 0.900000 0.632000 0.626000 600 35 1.000000 0.050000 0.050000 1.200000 0.026000 0.031000
1559791056289824102	400 35 0.900000 0.019000 0.017000 1100 31 0.900000 0.828000 0.821000 600 35 1.000000 0.050000 0.050000 1.200000 0.030000 0.036000
1559791056797725935	400 35 0.900000 0.017000 0.015000 1100 31 0.900000 0.632000 0.626000 600 35 1.000000 0.050000 0.050000 1.200000 0.026000 0.031000
1559791057305562519	400 35 0.900000 0.017000 0.015000 1100 31 0.900000 0.612000 0.606000 600 35 1.000000 0.051000 0.051000 1.200000 0.028000 0.033000
1559791057813341935	400 35 0.900000 0.017000 0.015000 1100 31 0.900000 0.629000 0.623000 600 35 1.000000 0.050000 0.050000 1.200000 0.029000 0.035000
1559791058332839519	400 35 0.900000 0.021000 0.019000 1100 31 0.900000 0.613000 0.607000 600 35 1.000000 0.050000 0.050000 1.200000 0.031000 0.037000
1559791058840655436	400 35 0.900000 0.017000 0.015000 1100 31 0.900000 0.708000 0.702000 600 35 1.000000 0.050000 0.050000 1.200000 0.033000 0.039000
1559791059348526936	400 35 0.900000 0.017000 0.015000 1100 31 0.900000 0.612000 0.606000 600 35 1.000000 0.051000 0.051000 1.200000 0.028000 0.033000
1559791059856271352	400 35 0.900000 0.017000 0.015000 1100 31 0.900000 0.627000 0.621000 600 35 1.000000 0.050000 0.050000 1.200000 0.030000 0.036000
1559791060386141144	400 35 0.900000 0.017000 0.015000 1100 31 0.900000 0.615000 0.609000 600 35 1.000000 0.050000 0.050000 1.200000 0.031000 0.037000
1559791060895525227	400 35 0.900000 0.017000 0.015000 1100 31 0.900000 0.704000 0.698000 600 35 1.000000 0.051000 0.051000 1.200000 0.033000 0.039000
1559791061403342311	400 35 0.900000 0.017000 0.015000 1100 31 0.900000 0.623000 0.617000 600 35 1.000000 0.050000 0.050000 1.200000 0.029000 0.035000
1559791061911159811	400 35 0.900000 0.017000 0.015000 1100 31 0.900000 0.624000 0.618000 600 35 1.000000 0.050000 0.050000 1.200000 0.028000 0.033000
1559791062432273228	400 35 0.900000 0.017000 0.015000 1100 31 0.900000 0.620000 0.614000 600 35 1.000000 0.050000 0.050000 1.200000 0.029000 0.035000
1559791062948896603	400 35 0.900000 0.017000 0.015000 1100 31 0.900000 0.712000 0.706000 600 35 1.000000 0.050000 0.050000 1.200000 0.027000 0.032000
1559791063456717144	400 35 0.900000 0.017000 0.015000 1100 31 0.900000 0.632000 0.626000 600 35 1.000000 0.050000 0.050000 1.200000 0.028000 0.033000
1559791063964642103	400 35 0.900000 0.017000 0.015000 1100 31 0.900000 0.613000 0.607000 600 35 1.000000 0.051000 0.051000 1.200000 0.027000 0.032000
1559791064495922645	400 35 0.900000 0.017000 0.015000 1100 31 0.900000 0.610000 0.605000 600 35 1.000000 0.050000 0.050000 1.200000 0.029000 0.035000
1559791065006662020	400 35 0.900000 0.017000 0.015000 1100 31 0.900000 0.682000 0.676000 600 35 1.000000 0.050000 0.050000 1.200000 0.028000 0.033000
1559791065514287645	400 35 0.900000 0.017000 0.015000 1100 31 0.900000 0.609000 0.603000 600 35 1.000000 0.050000 0.050000 1.200000 0.029000 0.035000
1559791066022086103	400 35 0.900000 0.017000 0.015000 1100 31 0.900000 0.612000 0.606000 600 35 1.000000 0.050000 0.050000 1.200000 0.027000 0.032000
1559791066530158020	400 35 0.900000 0.017000 0.015000 1100 31 0.900000 0.631000 0.625000 600 35 1.000000 0.050000 0.050000 1.200000 0.028000 0.033000
1559791067037993270	400 35 0.900000 0.017000 0.015000 1100 31 0.900000 0.735000 0.729000 600 35 1.000000 0.050000 0.050000 1.200000 0.037000 0.044000
1559791067545894603	400 35 0.900000 0.017000 0.015000 1100 31 0.900000 0.618000 0.613000 600 35 1.000000 0.051000 0.051000 1.200000 0.028000 0.033000
1559791068053669937	400 35 0.900000 0.017000 0.015000 1100 31 0.900000 0.627000 0.621000 600 35 1.000000 0.050000 0.050000 1.200000 0.028000 0.033000
1559791068561558728	400 35 0.900000 0.017000 0.015000 1100 31 0.900000 0.613000 0.608000 600 35 1.000000 0.051000 0.051000 1.200000 0.028000 0.033000
1559791069069289728	400 35 0.900000 0.018000 0.016000 1100 31 0.900000 0.721000 0.715000 600 35 1.000000 0.050000 0.050000 1.200000 0.033000 0.039000
1559791069577061937	400 35 0.900000 0.017000 0.015000 1100 31 0.900000 0.617000 0.611000 600 35 1.000000 0.051000 0.051000 1.200000 0.028000 0.033000
1559791070084975312	400 35 0.900000 0.017000 0.015000 1100 31 0.900000 0.619000 0.613000 600 35 1.000000 0.051000 0.051000 1.200000 0.027000 0.032000
1559791070592713479	400 35 0.900000 0.017000 0.015000 1100 31 0.900000 0.626000 0.620000 600 35 1.000000 0.050000 0.050000 1.200000 0.027000 0.032000
1559791071100353437	400 35 0.900000 0.019000 0.017000 1100 31 0.900000 0.698000 0.692000 600 35 1.000000 0.050000 0.050000 1.200000 0.033000 0.039000
1559791071608191770	400 35 0.900000 0.017000 0.015000 1100 31 0.900000 0.612000 0.606000 600 35 1.000000 0.050000 0.050000 1.200000 0.028000 0.033000
1559791072115937270	400 35 0.900000 0.017000 0.015000 1100 31 0.900000 0.609000 0.603000 600 35 1.000000 0.050000 0.050000 1.200000 0.028000 0.033000
1559791072623719229	400 35 0.900000 0.017000 0.015000 1100 31 0.900000 0.609000 0.603000 600 35 1.000000 0.050000 0.050000 1.200000 0.028000 0.033000
1559791073143578729	400 35 0.900000 0.017000 0.015000 1100 31 0.900000 0.623000 0.618000 600 35 1.000000 0.050000 0.050000 1.200000 0.032000 0.038000
1559791073652697646	400 35 0.900000 0.020000 0.018000 1100 31 0.900000 0.832000 0.825000 600 35 1.000000 0.050000 0.050000 1.200000 0.032000 0.038000
1559791074160665854	400 35 0.900000 0.017000 0.015000 1100 31 0.900000 0.625000 0.620000 600 35 1.000000 0.050000 0.050000 1.200000 0.029000 0.035000
1559791074668519104	400 35 0.900000 0.017000 0.015000 1100 31 0.900000 0.616000 0.610000 600 35 1.000000 0.050000 0.050000 1.200000 0.029000 0.035000
1559791075176328104	400 35 0.900000 0.017000 0.015000 1100 31 0.900000 0.717000 0.711000 600 35 1.000000 0.050000 0.050000 1.200000 0.032000 0.038000
1559791075684278521	400 35 0.900000 0.021000 0.019000 1100 31 0.900000 0.817000 0.810000 600 35 1.000000 0.050000 0.050000 1.200000 0.033000 0.039000
1559791076192089896	400 35 0.900000 0.017000 0.015000 1100 31 0.900000 0.629000 0.623000 600 35 1.000000 0.051000 0.051000 1.200000 0.027000 0.032000
1559791076699816854	400 35 0.900000 0.017000 0.015000 1100 31 0.900000 0.621000 0.615000 600 35 1.000000 0.050000 0.050000 1.200000 0.027000 0.032000
1559791077207528938	400 35 0.900000 0.017000 0.015000 1100 31 0.900000 0.699000 0.692000 600 35 1.000000 0.050000 0.050000 1.200000 0.031000 0.037000
1559791077715302021	400 35 0.900000 0.022000 0.020000 1100 31 0.900000 0.810000 0.803000 600 35 1.000000 0.050000 0.050000 1.200000 0.033000 0.039000
1559791078223075188	400 35 0.900000 0.017000 0.015000 1100 31 0.900000 0.611000 0.605000 600 35 1.000000 0.051000 0.051000 1.200000 0.028000 0.033000
1559791078730910396	400 35 0.900000 0.017000 0.015000 1100 31 0.900000 0.614000 0.608000 600 35 1.000000 0.050000 0.050000 1.200000 0.028000 0.033000
1559791079238797480	400 35 0.900000 0.017000 0.015000 1100 31 0.900000 0.692000 0.685000 600 35 1.000000 0.050000 0.050000 1.200000 0.031000 0.037000
1559791079746356771	400 35 0.900000 0.017000 0.015000 1100 31 0.900000 0.790000 0.783000 600 35 1.000000 0.050000 0.050000 1.200000 0.033000 0.039000
1559791080254146730	400 35 0.900000 0.021000 0.019000 1100 31 0.900000 0.648000 0.642000 600 35 1.000000 0.051000 0.051000 1.200000 0.027000 0.032000
1559791080761929355	400 35 0.900000 0.017000 0.015000 1100 31 0.900000 0.614000 0.608000 600 35 1.000000 0.051000 0.051000 1.200000 0.029000 0.035000
1559791081269679480	400 35 0.900000 0.017000 0.015000 1100 31 0.900000 0.634000 0.628000 600 35 1.000000 0.050000 0.050000 1.200000 0.028000 0.033000
1559791081786700772	400 35 0.900000 0.017000 0.015000 1100 31 0.900000 0.615000 0.609000 600 35 1.000000 0.050000 0.050000 1.200000 0.028000 0.033000
1559791082298360688	400 35 0.900000 0.020000 0.018000 1100 31 0.900000 0.678000 0.671000 600 35 1.000000 0.050000 0.050000 1.200000 0.034000 0.041000
1559791082806115563	400 35 0.900000 0.017000 0.015000 1100 31 0.900000 0.615000 0.609000 600 35 1.000000 0.050000 0.050000 1.200000 0.028000 0.033000
1559791083314058272	400 35 0.900000 0.018000 0.016000 1100 31 0.900000 0.702000 0.695000 600 35 1.000000 0.050000 0.050000 1.200000 0.029000 0.035000
1559791083832295605	400 35 0.900000 0.017000 0.015000 1100 31 0.900000 0.612000 0.606000 600 35 1.000000 0.050000 0.050000 1.200000 0.027000 0.032000
1559791084340223272	400 35 0.900000 0.018000 0.016000 1100 31 0.900000 0.726000 0.720000 600 35 1.000000 0.051000 0.051000 1.200000 0.034000 0.041000
1559791084847961814	400 35 0.900000 0.017000 0.015000 1100 31 0.900000 0.607000 0.601000 600 35 1.000000 0.050000 0.050000 1.200000 0.028000 0.033000
1559791085355762772	400 35 0.900000 0.017000 0.015000 1100 31 0.900000 0.700000 0.693000 600 35 1.000000 0.050000 0.050000 1.200000 0.029000 0.035000
1559791085864882064	400 34 0.900000 0.017000 0.015000 1100 31 0.900000 0.613000 0.607000 600 35 1.000000 0.051000 0.051000 1.200000 0.028000 0.033000
1559791086374428689	400 35 0.900000 0.023000 0.021000 1100 31 0.900000 0.745000 0.739000 600 38 1.000000 0.050000 0.050000 1.200000 0.087000 0.105000
1559791086883889689	400 37 0.900000 0.130000 0.118000 1100 32 0.900000 1.623000 1.616000 600 41 1.000000 0.050000 0.050000 1.200000 0.092000 0.111000
1559791087393160481	400 38 0.900000 0.129000 0.117000 1100 33 0.900000 1.693000 1.686000 600 42 1.000000 0.050000 0.050000 1.200000 0.091000 0.110000
1559791087903410689	400 38 0.900000 0.129000 0.117000 1100 33 0.900000 1.626000 1.619000 600 43 1.000000 0.050000 0.050000 1.200000 0.093000 0.112000
1559791088412743814	400 39 0.900000 0.130000 0.118000 1100 34 0.900000 1.635000 1.628000 600 43 1.000000 0.051000 0.051000 1.200000 0.091000 0.110000
1559791088922291647	400 39 0.900000 0.129000 0.117000 1100 34 0.900000 1.639000 1.632000 600 44 1.000000 0.050000 0.050000 1.200000 0.097000 0.117000
1559791089431898439	400 39 0.900000 0.131000 0.119000 1100 34 0.900000 1.636000 1.629000 600 44 1.000000 0.051000 0.051000 1.200000 0.091000 0.110000
1559791089941595981	400 39 0.900000 0.131000 0.119000 1100 34 0.900000 1.627000 1.620000 600 44 1.000000 0.051000 0.051000 1.200000 0.091000 0.110000
1559791090464088648	400 40 0.900000 0.131000 0.119000 1100 35 0.900000 1.626000 1.619000 600 44 1.000000 0.051000 0.051000 1.200000 0.091000 0.110000
1559791090975323689	400 40 0.900000 0.130000 0.118000 1100 35 0.900000 1.648000 1.641000 600 45 1.000000 0.051000 0.051000 1.200000 0.098000 0.118000
1559791091484779106	400 40 0.900000 0.131000 0.119000 1100 35 0.900000 1.697000 1.690000 600 45 1.000000 0.051000 0.051000 1.200000 0.091000 0.110000
1559791091994383565	400 40 0.900000 0.130000 0.118000 1100 35 0.900000 1.644000 1.637000 600 45 1.000000 0.051000 0.051000 1.200000 0.091000 0.110000
1559791092503895648	400 40 0.900000 0.130000 0.118000 1100 35 0.900000 1.633000 1.626000 600 45 1.000000 0.051000 0.051000 1.200000 0.091000 0.110000
1559791093013476315	400 41 0.900000 0.127000 0.115000 1100 35 0.900000 1.724000 1.718000 600 45 1.000000 0.051000 0.051000 1.200000 0.097000 0.117000
1559791093522951356	400 41 0.900000 0.130000 0.118000 1100 35 0.900000 1.647000 1.640000 600 45 1.000000 0.051000 0.051000 1.200000 0.091000 0.110000
1559791094032471731	400 41 0.900000 0.130000 0.118000 1100 36 0.900000 1.639000 1.632000 600 45 1.000000 0.051000 0.051000 1.200000 0.091000 0.110000
1559791094542216273	400 41 0.900000 0.131000 0.119000 1100 36 0.900000 1.635000 1.628000 600 45 1.000000 0.051000 0.051000 1.200000 0.090000 0.109000
1559791095051573773	400 41 0.900000 0.127000 0.115000 1100 36 0.900000 1.674000 1.667000 600 46 1.000000 0.051000 0.051000 1.200000 0.094000 0.113000
1559791095561108023	400 41 0.900000 0.131000 0.119000 1100 36 0.900000 1.641000 1.634000 600 46 1.000000 0.051000 0.051000 1.200000 0.090000 0.109000
1559791096070655023	400 41 0.900000 0.130000 0.118000 1100 36 0.900000 1.702000 1.696000 600 46 1.000000 0.051000 0.051000 1.200000 0.094000 0.113000
1559791096580166523	400 41 0.900000 0.130000 0.118000 1100 36 0.900000 1.643000 1.636000 600 46 1.000000 0.051000 0.051000 1.200000 0.091000 0.110000
1559791097101369690	400 41 0.900000 0.131000 0.119000 1100 36 0.900000 1.642000 1.635000 600 46 1.000000 0.051000 0.051000 1.200000 0.091000 0.110000
1559791097612306190	400 41 0.900000 0.127000 0.115000 1100 36 0.900000 1.807000 1.801000 600 46 1.000000 0.051000 0.051000 1.200000 0.097000 0.117000
1559791098121673690	400 41 0.900000 0.130000 0.118000 1100 36 0.900000 1.719000 1.712000 600 46 1.000000 0.051000 0.051000 1.200000 0.092000 0.111000
1559791098631208024	400 41 0.900000 0.130000 0.118000 1100 36 0.900000 1.640000 1.633000 600 46 1.000000 0.051000 0.051000 1.200000 0.091000 0.110000
1559791099152974482	400 41 0.900000 0.131000 0.119000 1100 36 0.900000 1.636000 1.629000 600 46 1.000000 0.051000 0.051000 1.200000 0.091000 0.110000
1559791099663669274	400 41 0.900000 0.126000 0.114000 1100 36 0.900000 1.778000 1.772000 600 46 1.000000 0.051000 0.051000 1.200000 0.098000 0.118000
1559791100173323607	400 42 0.900000 0.131000 0.119000 1100 36 0.900000 1.666000 1.661000 600 46 1.000000 0.051000 0.051000 1.200000 0.091000 0.110000
1559791100682932982	400 41 0.900000 0.130000 0.118000 1100 36 0.900000 1.641000 1.634000 600 46 1.000000 0.051000 0.051000 1.200000 0.091000 0.110000
1559791101192450649	400 42 0.900000 0.131000 0.119000 1100 37 0.900000 1.647000 1.640000 600 46 1.000000 0.051000 0.051000 1.200000 0.091000 0.110000
1559791101701902316	400 42 0.900000 0.127000 0.115000 1100 37 0.900000 1.713000 1.707000 600 47 1.000000 0.051000 0.051000 1.200000 0.096000 0.116000
1559791102211364899	400 42 0.900000 0.132000 0.120000 1100 37 0.900000 1.639000 1.632000 600 46 1.000000 0.051000 0.051000 1.200000 0.091000 0.110000
1559791102720882107	400 42 0.900000 0.131000 0.119000 1100 37 0.900000 1.632000 1.625000 600 46 1.000000 0.051000 0.051000 1.200000 0.090000 0.109000
1559791103230400108	400 42 0.900000 0.132000 0.120000 1100 37 0.900000 1.635000 1.628000 600 46 1.000000 0.051000 0.051000 1.200000 0.090000 0.109000
1559791103760407941	400 42 0.900000 0.131000 0.119000 1100 37 0.900000 1.647000 1.640000 600 47 1.000000 0.051000 0.051000 1.200000 0.094000 0.113000
1559791104271374024	400 42 0.900000 0.130000 0.118000 1100 37 0.900000 1.633000 1.626000 600 46 1.000000 0.051000 0.051000 1.200000 0.090000 0.109000
1559791104781034316	400 42 0.900000 0.131000 0.119000 1100 37 0.900000 1.645000 1.638000 600 46 1.000000 0.051000 0.051000 1.200000 0.091000 0.110000
1559791105290826524	400 42 0.900000 0.132000 0.120000 1100 37 0.900000 1.642000 1.635000 600 47 1.000000 0.051000 0.051000 1.200000 0.091000 0.110000
1559791105816793983	400 42 0.900000 0.131000 0.119000 1100 37 0.900000 1.636000 1.629000 600 47 1.000000 0.051000 0.051000 1.200000 0.091000 0.110000
1559791106338775233	400 42 0.900000 0.129000 0.117000 1100 37 0.900000 1.787000 1.781000 600 47 1.000000 0.051000 0.051000 1.200000 0.099000 0.119000
1559791106848304358	400 42 0.900000 0.131000 0.119000 1100 37 0.900000 1.637000 1.630000 600 47 1.000000 0.051000 0.051000 1.200000 0.091000 0.110000
1559791107358043191	400 42 0.900000 0.131000 0.119000 1100 37 0.900000 1.639000 1.632000 600 47 1.000000 0.051000 0.051000 1.200000 0.091000 0.110000
1559791107867624233	400 42 0.900000 0.131000 0.119000 1100 37 0.900000 1.648000 1.641000 600 47 1.000000 0.051000 0.051000 1.200000 0.091000 0.110000
1559791108377004358	400 42 0.900000 0.128000 0.116000 1100 37 0.900000 1.725000 1.719000 600 47 1.000000 0.051000 0.051000 1.200000 0.096000 0.116000
1559791108886588900	400 42 0.900000 0.132000 0.120000 1100 37 0.900000 1.639000 1.632000 600 47 1.000000 0.051000 0.051000 1.200000 0.091000 0.110000
1559791109396125400	400 42 0.900000 0.132000 0.120000 1100 37 0.900000 1.645000 1.638000 600 47 1.000000 0.051000 0.051000 1.200000 0.091000 0.110000
1559791109905692150	400 42 0.900000 0.132000 0.120000 1100 37 0.900000 1.643000 1.636000 600 47 1.000000 0.051000 0.051000 1.200000 0.090000 0.109000
1559791110424448775	400 42 0.900000 0.131000 0.119000 1100 37 0.900000 1.704000 1.697000 600 47 1.000000 0.051000 0.051000 1.200000 0.092000 0.111000
1559791110935827317	400 42 0.900000 0.129000 0.117000 1100 37 0.900000 1.635000 1.628000 600 47 1.000000 0.051000 0.051000 1.200000 0.090000 0.109000
1559791111445311483	400 42 0.900000 0.132000 0.120000 1100 37 0.900000 1.632000 1.625000 600 47 1.000000 0.051000 0.051000 1.200000 0.090000 0.109000
1559791111954800150	400 42 0.900000 0.132000 0.120000 1100 37 0.900000 1.631000 1.624000 600 47 1.000000 0.051000 0.051000 1.200000 0.090000 0.109000
1559791112473078984	400 42 0.900000 0.131000 0.119000 1100 37 0.900000 1.661000 1.656000 600 47 1.000000 0.052000 0.052000 1.200000 0.091000 0.110000
1559791112986670275	400 42 0.900000 0.129000 0.117000 1100 37 0.900000 1.680000 1.674000 600 47 1.000000 0.051000 0.051000 1.200000 0.090000 0.109000
1559791113496585734	400 42 0.900000 0.131000 0.119000 1100 37 0.900000 1.649000 1.644000 600 47 1.000000 0.051000 0.051000 1.200000 0.091000 0.110000
1559791114006208150	400 42 0.900000 0.132000 0.120000 1100 37 0.900000 1.640000 1.633000 600 47 1.000000 0.051000 0.051000 1.200000 0.091000 0.110000
1559791114515769692	400 42 0.900000 0.130000 0.118000 1100 37 0.900000 1.705000 1.699000 600 47 1.000000 0.051000 0.051000 1.200000 0.094000 0.113000
1559791115025402192	400 42 0.900000 0.129000 0.117000 1100 37 0.900000 1.709000 1.703000 600 47 1.000000 0.051000 0.051000 1.200000 0.096000 0.116000
1559791115535049026	400 42 0.900000 0.132000 0.120000 1100 37 0.900000 1.645000 1.638000 600 47 1.000000 0.051000 0.051000 1.200000 0.091000 0.110000
1559791116044659234	400 42 0.900000 0.132000 0.120000 1100 37 0.900000 1.635000 1.628000 600 47 1.000000 0.051000 0.051000 1.200000 0.091000 0.110000
1559791116554169484	400 43 0.900000 0.132000 0.120000 1100 37 0.900000 1.711000 1.704000 600 47 1.000000 0.051000 0.051000 1.200000 0.094000 0.114000
1559791117063453151	400 43 0.900000 0.131000 0.119000 1100 37 0.900000 1.639000 1.632000 600 47 1.000000 0.051000 0.051000 1.200000 0.093000 0.112000
1559791117573197526	400 43 0.900000 0.130000 0.118000 1100 38 0.900000 1.636000 1.629000 600 47 1.000000 0.051000 0.051000 1.200000 0.091000 0.110000
1559791118082859818	400 42 0.900000 0.131000 0.119000 1100 38 0.900000 1.633000 1.626000 600 47 1.000000 0.051000 0.051000 1.200000 0.090000 0.109000
1559791118592210818	400 43 0.900000 0.132000 0.120000 1100 38 0.900000 1.701000 1.694000 600 47 1.000000 0.052000 0.052000 1.200000 0.093000 0.112000
1559791119112528151	400 42 0.900000 0.132000 0.120000 1100 37 0.900000 1.634000 1.627000 600 47 1.000000 0.051000 0.051000 1.200000 0.091000 0.110000
1559791119625881401	400 43 0.900000 0.130000 0.118000 1100 38 0.900000 1.634000 1.629000 600 47 1.000000 0.051000 0.051000 1.200000 0.091000 0.110000
1559791120135462776	400 43 0.900000 0.131000 0.119000 1100 38 0.900000 1.633000 1.628000 600 47 1.000000 0.051000 0.051000 1.200000 0.091000 0.110000
1559791120645015943	400 43 0.900000 0.132000 0.120000 1100 38 0.900000 1.690000 1.683000 600 47 1.000000 0.051000 0.051000 1.200000 0.091000 0.110000
1559791121154640818	400 43 0.900000 0.132000 0.120000 1100 38 0.900000 1.633000 1.626000 600 47 1.000000 0.051000 0.051000 1.200000 0.091000 0.110000
1559791121664092318	400 43 0.900000 0.128000 0.116000 1100 38 0.900000 1.765000 1.759000 600 47 1.000000 0.052000 0.052000 1.200000 0.098000 0.118000
1559791122173818735	400 43 0.900000 0.132000 0.120000 1100 38 0.900000 1.639000 1.632000 600 47 1.000000 0.051000 0.051000 1.200000 0.091000 0.110000
1559791122683491610	400 43 0.900000 0.131000 0.119000 1100 38 0.900000 1.707000 1.701000 600 47 1.000000 0.051000 0.051000 1.200000 0.094000 0.113000
1559791123193052735	400 43 0.900000 0.131000 0.119000 1100 38 0.900000 1.649000 1.642000 600 47 1.000000 0.051000 0.051000 1.200000 0.092000 0.111000
1559791123702563110	400 43 0.900000 0.132000 0.120000 1100 38 0.900000 1.691000 1.684000 600 48 1.000000 0.051000 0.051000 1.200000 0.092000 0.111000
1559791124212073943	400 43 0.900000 0.130000 0.118000 1100 38 0.900000 1.633000 1.626000 600 48 1.000000 0.051000 0.051000 1.200000 0.094000 0.113000
1559791124721678485	400 43 0.900000 0.132000 0.120000 1100 38 0.900000 1.703000 1.696000 600 48 1.000000 0.051000 0.051000 1.200000 0.092000 0.111000
1559791125229521735	400 38 0.900000 0.101000 0.092000 1100 36 1.000000 0.424000 0.424000 600 42 1.000000 0.051000 0.051000 1.200000 0.088000 0.106000
1559791125743217235	400 36 0.900000 0.018000 0.016000 1100 35 1.000000 0.121000 0.121000 600 41 1.000000 0.051000 0.051000 1.200000 0.023000 0.027000
