#Timestamp	CPU(0) Frequency(MHz)	CPU(0) Temperature(C)	A7 Voltage(V)	A7 Current(A)	A7 Power(W)	CPU(4) Frequency(MHz)	CPU(4) Temperature(C)	A15 Voltage(V)	A15 Current(A)	A15 Power(W)	GPU Frequency(MHz)	GPU Temperature(C)	GPU Voltage(V)	GPU Current(A)	GPU Power(W)	RAM Voltage(V)	RAM Current(A)	RAM Power(W)
1517411143559554106	300 34 0.900000 0.038000 0.034000 1400 33 1.000000 0.199000 0.214000 600 37 1.000000 0.051000 0.051000 1.200000 0.045000 0.054000
1517411144083597981	300 41 0.900000 0.034000 0.031000 1400 35 1.000000 1.481000 1.592000 600 46 1.000000 0.050000 0.050000 1.200000 0.042000 0.050000
1517411144606639398	300 43 0.900000 0.035000 0.032000 1400 36 1.000000 2.635000 2.837000 600 49 1.000000 0.051000 0.051000 1.200000 0.025000 0.030000
1517411145137969939	300 44 0.900000 0.039000 0.035000 1400 37 1.000000 2.640000 2.843000 600 50 1.000000 0.051000 0.051000 1.200000 0.025000 0.030000
1517411145662216731	300 45 0.900000 0.068000 0.062000 1400 38 1.000000 2.634000 2.836000 600 51 1.000000 0.051000 0.051000 1.200000 0.051000 0.061000
1517411146185770856	300 46 0.900000 0.036000 0.032000 1400 39 1.000000 2.651000 2.855000 600 52 1.000000 0.051000 0.051000 1.200000 0.026000 0.031000
1517411146708984648	300 46 0.900000 0.036000 0.032000 1400 39 1.000000 2.654000 2.858000 600 53 1.000000 0.051000 0.051000 1.200000 0.026000 0.031000
1517411147233756940	300 47 0.900000 0.037000 0.033000 1400 40 1.000000 2.654000 2.858000 600 54 1.000000 0.052000 0.052000 1.200000 0.025000 0.030000
1517411147759558231	300 47 0.900000 0.049000 0.044000 1400 40 1.000000 2.655000 2.859000 600 54 1.000000 0.052000 0.052000 1.200000 0.039000 0.047000
1517411148283417190	300 48 0.900000 0.050000 0.045000 1400 41 1.000000 2.637000 2.840000 600 54 1.000000 0.052000 0.052000 1.200000 0.036000 0.043000
1517411148807399940	300 48 0.900000 0.036000 0.032000 1400 41 1.000000 2.659000 2.863000 600 55 1.000000 0.052000 0.052000 1.200000 0.025000 0.030000
1517411149330804232	300 48 0.900000 0.038000 0.034000 1400 41 1.000000 2.659000 2.863000 600 55 1.000000 0.052000 0.052000 1.200000 0.026000 0.031000
1517411149858795148	300 49 0.900000 0.045000 0.041000 1400 42 1.000000 2.659000 2.863000 600 55 1.000000 0.052000 0.052000 1.200000 0.030000 0.036000
1517411150382725315	300 49 0.900000 0.058000 0.052000 1400 42 1.000000 2.651000 2.855000 600 56 1.000000 0.052000 0.052000 1.200000 0.046000 0.055000
1517411150906152857	300 49 0.900000 0.036000 0.032000 1400 42 1.000000 2.656000 2.860000 600 56 1.000000 0.052000 0.052000 1.200000 0.025000 0.030000
1517411151429631774	300 49 0.900000 0.035000 0.032000 1400 42 1.000000 2.664000 2.869000 600 56 1.000000 0.052000 0.052000 1.200000 0.025000 0.030000
1517411151953337107	300 49 0.900000 0.036000 0.032000 1400 42 1.000000 2.663000 2.868000 600 56 1.000000 0.052000 0.052000 1.200000 0.025000 0.030000
1517411152479035899	300 50 0.900000 0.046000 0.041000 1400 42 1.000000 2.663000 2.868000 600 56 1.000000 0.052000 0.052000 1.200000 0.025000 0.030000
1517411153006371732	300 50 0.900000 0.058000 0.052000 1400 43 1.000000 2.643000 2.846000 600 57 1.000000 0.052000 0.052000 1.200000 0.046000 0.055000
1517411153530249274	300 50 0.900000 0.039000 0.035000 1400 43 1.000000 2.666000 2.871000 600 57 1.000000 0.052000 0.052000 1.200000 0.027000 0.032000
1517411154054529482	300 50 0.900000 0.037000 0.033000 1400 43 1.000000 2.665000 2.870000 600 57 1.000000 0.052000 0.052000 1.200000 0.025000 0.030000
1517411154578288607	300 50 0.900000 0.047000 0.043000 1400 43 1.000000 2.664000 2.869000 600 57 1.000000 0.052000 0.052000 1.200000 0.028000 0.033000
1517411155104560357	300 50 0.900000 0.042000 0.038000 1400 43 1.000000 2.665000 2.870000 600 57 1.000000 0.052000 0.052000 1.200000 0.034000 0.041000
1517411155628519774	300 50 0.900000 0.047000 0.042000 1400 43 1.000000 2.650000 2.854000 600 57 1.000000 0.052000 0.052000 1.200000 0.033000 0.039000
1517411156152901941	300 50 0.900000 0.037000 0.033000 1400 43 1.000000 2.665000 2.870000 600 57 1.000000 0.052000 0.052000 1.200000 0.025000 0.030000
1517411156676655233	300 50 0.900000 0.047000 0.042000 1400 43 1.000000 2.662000 2.866000 600 57 1.000000 0.053000 0.053000 1.200000 0.032000 0.038000
1517411157204878816	300 50 0.900000 0.035000 0.032000 1400 43 1.000000 2.666000 2.871000 600 57 1.000000 0.052000 0.052000 1.200000 0.024000 0.028000
1517411157731315108	300 51 0.900000 0.057000 0.052000 1400 43 1.000000 2.653000 2.857000 600 57 1.000000 0.053000 0.053000 1.200000 0.046000 0.055000
1517411158254687108	300 51 0.900000 0.046000 0.042000 1400 43 1.000000 2.664000 2.869000 600 57 1.000000 0.052000 0.052000 1.200000 0.023000 0.027000
1517411158778133983	300 51 0.900000 0.043000 0.039000 1400 43 1.000000 2.664000 2.869000 600 58 1.000000 0.053000 0.053000 1.200000 0.035000 0.042000
1517411159301750650	300 51 0.900000 0.037000 0.033000 1400 44 1.000000 2.667000 2.872000 600 58 1.000000 0.053000 0.053000 1.200000 0.023000 0.027000
1517411159828062483	300 51 0.900000 0.038000 0.034000 1400 44 1.000000 2.667000 2.872000 600 58 1.000000 0.052000 0.052000 1.200000 0.023000 0.027000
1517411160351617191	300 51 0.900000 0.058000 0.052000 1400 44 1.000000 2.647000 2.850000 600 58 1.000000 0.052000 0.052000 1.200000 0.044000 0.053000
1517411160875265858	300 51 0.900000 0.041000 0.037000 1400 44 1.000000 2.666000 2.871000 600 58 1.000000 0.052000 0.052000 1.200000 0.032000 0.038000
1517411161398397025	300 51 0.900000 0.038000 0.034000 1400 44 1.000000 2.666000 2.871000 600 58 1.000000 0.053000 0.053000 1.200000 0.023000 0.027000
1517411161922126525	300 51 0.900000 0.037000 0.033000 1400 44 1.000000 2.668000 2.873000 600 58 1.000000 0.052000 0.052000 1.200000 0.023000 0.027000
1517411162450158775	300 51 0.900000 0.044000 0.040000 1400 44 1.000000 2.664000 2.869000 600 58 1.000000 0.053000 0.053000 1.200000 0.035000 0.042000
1517411162974869858	300 51 0.900000 0.047000 0.042000 1400 44 1.000000 2.655000 2.859000 600 58 1.000000 0.052000 0.052000 1.200000 0.033000 0.039000
1517411163498236733	300 51 0.900000 0.035000 0.032000 1400 44 1.000000 2.664000 2.869000 600 58 1.000000 0.052000 0.052000 1.200000 0.023000 0.027000
1517411164022082233	300 51 0.900000 0.036000 0.032000 1400 44 1.000000 2.669000 2.874000 600 58 1.000000 0.053000 0.053000 1.200000 0.023000 0.027000
1517411164545638317	300 51 0.900000 0.038000 0.034000 1400 44 1.000000 2.661000 2.865000 600 58 1.000000 0.053000 0.053000 1.200000 0.023000 0.027000
1517411165070310650	300 51 0.900000 0.045000 0.041000 1400 44 1.000000 2.653000 2.857000 600 58 1.000000 0.053000 0.053000 1.200000 0.045000 0.054000
1517411165594061692	300 51 0.900000 0.059000 0.053000 1400 44 1.000000 2.657000 2.861000 600 58 1.000000 0.053000 0.053000 1.200000 0.023000 0.027000
1517411166117630900	300 51 0.900000 0.037000 0.033000 1400 44 1.000000 2.672000 2.877000 600 58 1.000000 0.053000 0.053000 1.200000 0.023000 0.027000
1517411166641358400	300 51 0.900000 0.037000 0.033000 1400 44 1.000000 2.657000 2.861000 600 58 1.000000 0.053000 0.053000 1.200000 0.023000 0.027000
1517411167170368400	300 51 0.900000 0.037000 0.033000 1400 44 1.000000 2.672000 2.877000 600 58 1.000000 0.053000 0.053000 1.200000 0.023000 0.027000
1517411167694030692	300 51 0.900000 0.074000 0.067000 1400 44 1.000000 2.636000 2.838000 600 58 1.000000 0.053000 0.053000 1.200000 0.046000 0.055000
1517411168217525067	300 52 0.900000 0.035000 0.032000 1400 44 1.000000 2.669000 2.874000 600 58 1.000000 0.052000 0.052000 1.200000 0.023000 0.027000
1517411168741352109	300 51 0.900000 0.035000 0.032000 1400 44 1.000000 2.665000 2.870000 600 58 1.000000 0.052000 0.052000 1.200000 0.025000 0.030000
1517411169265061401	300 51 0.900000 0.035000 0.032000 1400 44 1.000000 2.666000 2.871000 600 58 1.000000 0.053000 0.053000 1.200000 0.025000 0.030000
1517411169791151692	300 51 0.900000 0.061000 0.055000 1400 44 1.000000 2.667000 2.872000 600 58 1.000000 0.053000 0.053000 1.200000 0.025000 0.030000
1517411170314550192	300 52 0.900000 0.042000 0.038000 1400 44 1.000000 2.649000 2.852000 600 58 1.000000 0.053000 0.053000 1.200000 0.046000 0.055000
1517411170837905068	300 52 0.900000 0.038000 0.034000 1400 44 1.000000 2.675000 2.880000 600 59 1.000000 0.053000 0.053000 1.200000 0.025000 0.030000
1517411171361623318	300 52 0.900000 0.038000 0.034000 1400 44 1.000000 2.659000 2.863000 600 58 1.000000 0.053000 0.053000 1.200000 0.025000 0.030000
1517411171885450943	300 52 0.900000 0.037000 0.033000 1400 45 1.000000 2.671000 2.876000 600 59 1.000000 0.052000 0.052000 1.200000 0.025000 0.030000
1517411172410660734	300 52 0.900000 0.049000 0.044000 1400 45 1.000000 2.644000 2.847000 600 59 1.000000 0.053000 0.053000 1.200000 0.036000 0.043000
1517411172937028026	300 52 0.900000 0.042000 0.038000 1400 44 1.000000 2.669000 2.874000 600 59 1.000000 0.052000 0.052000 1.200000 0.034000 0.041000
1517411173460640068	300 52 0.900000 0.036000 0.032000 1400 44 1.000000 2.672000 2.877000 600 59 1.000000 0.053000 0.053000 1.200000 0.025000 0.030000
1517411173984796568	300 52 0.900000 0.035000 0.031000 1400 45 1.000000 2.666000 2.871000 600 59 1.000000 0.053000 0.053000 1.200000 0.026000 0.031000
1517411174512996318	300 52 0.900000 0.038000 0.034000 1400 45 1.000000 2.673000 2.878000 600 59 1.000000 0.053000 0.053000 1.200000 0.031000 0.037000
1517411175037079026	300 52 0.900000 0.057000 0.052000 1400 45 1.000000 2.638000 2.841000 600 59 1.000000 0.053000 0.053000 1.200000 0.046000 0.055000
1517411175560479610	300 52 0.900000 0.035000 0.032000 1400 45 1.000000 2.673000 2.878000 600 59 1.000000 0.052000 0.052000 1.200000 0.026000 0.031000
1517411176084766943	300 52 0.900000 0.036000 0.032000 1400 45 1.000000 2.665000 2.870000 600 59 1.000000 0.053000 0.053000 1.200000 0.025000 0.030000
1517411176609124777	300 52 0.900000 0.038000 0.034000 1400 45 1.000000 2.667000 2.872000 600 59 1.000000 0.053000 0.053000 1.200000 0.037000 0.044000
1517411177134589902	300 52 0.900000 0.037000 0.033000 1400 45 1.000000 2.666000 2.871000 600 59 1.000000 0.053000 0.053000 1.200000 0.025000 0.030000
1517411177658884027	300 52 0.900000 0.059000 0.053000 1400 45 1.000000 2.658000 2.862000 600 59 1.000000 0.053000 0.053000 1.200000 0.046000 0.055000
1517411178182310235	300 52 0.900000 0.037000 0.033000 1400 45 1.000000 2.676000 2.882000 600 59 1.000000 0.053000 0.053000 1.200000 0.024000 0.028000
1517411178705815818	300 52 0.900000 0.049000 0.044000 1400 45 1.000000 2.660000 2.864000 600 59 1.000000 0.053000 0.053000 1.200000 0.033000 0.039000
1517411179229593569	300 52 0.900000 0.035000 0.032000 1400 45 1.000000 2.674000 2.879000 600 59 1.000000 0.053000 0.053000 1.200000 0.023000 0.027000
1517411179757353527	300 52 0.900000 0.049000 0.044000 1400 45 1.000000 2.646000 2.849000 600 59 1.000000 0.053000 0.053000 1.200000 0.034000 0.041000
1517411180281532402	300 52 0.900000 0.038000 0.034000 1400 45 1.000000 2.670000 2.875000 600 59 1.000000 0.053000 0.053000 1.200000 0.030000 0.036000
1517411180805032777	300 52 0.900000 0.048000 0.043000 1400 45 1.000000 2.670000 2.872000 600 59 1.000000 0.053000 0.053000 1.200000 0.027000 0.032000
1517411181328379235	300 52 0.900000 0.036000 0.032000 1400 45 1.000000 2.664000 2.869000 600 59 1.000000 0.053000 0.053000 1.200000 0.023000 0.027000
1517411181852480861	300 52 0.900000 0.035000 0.032000 1400 45 1.000000 2.672000 2.875000 600 59 1.000000 0.053000 0.053000 1.200000 0.023000 0.027000
1517411182379780736	300 52 0.900000 0.058000 0.052000 1400 45 1.000000 2.646000 2.849000 600 59 1.000000 0.052000 0.052000 1.200000 0.046000 0.055000
1517411182903869152	300 52 0.900000 0.048000 0.043000 1400 45 1.000000 2.669000 2.874000 600 59 1.000000 0.053000 0.053000 1.200000 0.023000 0.027000
1517411183427515652	300 52 0.900000 0.043000 0.039000 1400 45 1.000000 2.670000 2.875000 600 59 1.000000 0.053000 0.053000 1.200000 0.023000 0.027000
1517411183951538277	300 52 0.900000 0.038000 0.034000 1400 45 1.000000 2.663000 2.868000 600 59 1.000000 0.053000 0.053000 1.200000 0.023000 0.027000
1517411184479331611	300 52 0.900000 0.036000 0.032000 1400 45 1.000000 2.669000 2.874000 600 59 1.000000 0.053000 0.053000 1.200000 0.023000 0.027000
1517411185005706861	300 52 0.900000 0.057000 0.052000 1400 45 1.000000 2.648000 2.851000 600 59 1.000000 0.053000 0.053000 1.200000 0.042000 0.050000
1517411185529741361	300 52 0.900000 0.048000 0.043000 1400 45 1.000000 2.662000 2.866000 600 59 1.000000 0.053000 0.053000 1.200000 0.026000 0.031000
1517411186053149528	300 52 0.900000 0.038000 0.034000 1400 45 1.000000 2.673000 2.878000 600 59 1.000000 0.053000 0.053000 1.200000 0.026000 0.031000
1517411186577063778	300 52 0.900000 0.038000 0.034000 1400 45 1.000000 2.673000 2.878000 600 59 1.000000 0.053000 0.053000 1.200000 0.025000 0.030000
1517411187105702153	300 52 0.900000 0.037000 0.033000 1400 45 1.000000 2.668000 2.873000 600 59 1.000000 0.053000 0.053000 1.200000 0.025000 0.030000
1517411187629884778	300 52 0.900000 0.066000 0.060000 1400 45 1.000000 2.650000 2.854000 600 59 1.000000 0.053000 0.053000 1.200000 0.048000 0.057000
1517411188153650486	300 52 0.900000 0.038000 0.034000 1400 45 1.000000 2.666000 2.873000 600 59 1.000000 0.053000 0.053000 1.200000 0.025000 0.030000
1517411188677710820	300 52 0.900000 0.037000 0.033000 1400 45 1.000000 2.673000 2.878000 600 59 1.000000 0.053000 0.053000 1.200000 0.025000 0.030000
1517411189201670903	300 52 0.900000 0.038000 0.034000 1400 45 1.000000 2.671000 2.876000 600 59 1.000000 0.053000 0.053000 1.200000 0.025000 0.030000
1517411189727227070	300 52 0.900000 0.036000 0.032000 1400 45 1.000000 2.669000 2.874000 600 59 1.000000 0.053000 0.053000 1.200000 0.032000 0.038000
1517411190251162778	300 52 0.900000 0.068000 0.062000 1400 45 1.000000 2.653000 2.857000 600 59 1.000000 0.053000 0.053000 1.200000 0.036000 0.043000
1517411190774839903	300 52 0.900000 0.038000 0.034000 1400 45 1.000000 2.666000 2.871000 600 59 1.000000 0.053000 0.053000 1.200000 0.024000 0.028000
1517411191298411153	300 52 0.900000 0.037000 0.033000 1400 45 1.000000 2.673000 2.878000 600 59 1.000000 0.053000 0.053000 1.200000 0.026000 0.031000
1517411191828617112	300 52 0.900000 0.038000 0.034000 1400 45 1.000000 2.671000 2.876000 600 59 1.000000 0.053000 0.053000 1.200000 0.025000 0.030000
1517411192352896153	300 52 0.900000 0.065000 0.059000 1400 45 1.000000 2.652000 2.856000 600 59 1.000000 0.053000 0.053000 1.200000 0.048000 0.057000
1517411192876789654	300 52 0.900000 0.038000 0.034000 1400 45 1.000000 2.670000 2.875000 600 59 1.000000 0.053000 0.053000 1.200000 0.026000 0.031000
1517411193400414029	300 52 0.900000 0.037000 0.033000 1400 45 1.000000 2.666000 2.871000 600 59 1.000000 0.053000 0.053000 1.200000 0.025000 0.030000
1517411193924655779	300 52 0.900000 0.038000 0.034000 1400 45 1.000000 2.673000 2.878000 600 59 1.000000 0.053000 0.053000 1.200000 0.025000 0.030000
1517411194450016820	300 52 0.900000 0.052000 0.047000 1400 45 1.000000 2.667000 2.872000 600 59 1.000000 0.053000 0.053000 1.200000 0.037000 0.044000
1517411194974333029	300 52 0.900000 0.058000 0.052000 1400 45 1.000000 2.647000 2.850000 600 59 1.000000 0.053000 0.053000 1.200000 0.046000 0.055000
1517411195497798112	300 52 0.900000 0.036000 0.032000 1400 45 1.000000 2.674000 2.879000 600 59 1.000000 0.053000 0.053000 1.200000 0.026000 0.031000
1517411196021224029	300 52 0.900000 0.038000 0.034000 1400 45 1.000000 2.666000 2.871000 600 59 1.000000 0.053000 0.053000 1.200000 0.025000 0.030000
1517411196545081404	300 52 0.900000 0.038000 0.034000 1400 45 1.000000 2.673000 2.878000 600 59 1.000000 0.053000 0.053000 1.200000 0.036000 0.043000
1517411197073110529	300 52 0.900000 0.038000 0.034000 1400 45 1.000000 2.669000 2.874000 600 59 1.000000 0.053000 0.053000 1.200000 0.034000 0.041000
1517411197596831529	300 52 0.900000 0.057000 0.052000 1400 45 1.000000 2.652000 2.856000 600 59 1.000000 0.053000 0.053000 1.200000 0.033000 0.039000
1517411198120638821	300 52 0.900000 0.038000 0.034000 1400 45 1.000000 2.674000 2.879000 600 59 1.000000 0.053000 0.053000 1.200000 0.026000 0.031000
1517411198643867488	300 52 0.900000 0.038000 0.034000 1400 45 1.000000 2.667000 2.872000 600 59 1.000000 0.053000 0.053000 1.200000 0.031000 0.037000
1517411199168961779	300 52 0.900000 0.037000 0.033000 1400 45 1.000000 2.673000 2.878000 600 59 1.000000 0.053000 0.053000 1.200000 0.024000 0.028000
1517411199693070321	300 52 0.900000 0.056000 0.051000 1400 45 1.000000 2.655000 2.859000 600 59 1.000000 0.053000 0.053000 1.200000 0.046000 0.055000
1517411200216849904	300 52 0.900000 0.038000 0.034000 1400 45 1.000000 2.667000 2.872000 600 59 1.000000 0.053000 0.053000 1.200000 0.023000 0.027000
1517411200740629196	300 53 0.900000 0.037000 0.033000 1400 45 1.000000 2.675000 2.880000 600 59 1.000000 0.053000 0.053000 1.200000 0.024000 0.028000
1517411201264087530	300 52 0.900000 0.036000 0.032000 1400 45 1.000000 2.666000 2.871000 600 59 1.000000 0.053000 0.053000 1.200000 0.023000 0.027000
1517411201789313113	300 52 0.900000 0.036000 0.032000 1400 45 1.000000 2.675000 2.880000 600 59 1.000000 0.053000 0.053000 1.200000 0.023000 0.027000
1517411202312756738	300 52 0.900000 0.057000 0.052000 1400 45 1.000000 2.649000 2.852000 600 59 1.000000 0.053000 0.053000 1.200000 0.044000 0.053000
1517411202836938738	300 52 0.900000 0.038000 0.034000 1400 45 1.000000 2.668000 2.873000 600 59 1.000000 0.053000 0.053000 1.200000 0.023000 0.027000
1517411203361136613	300 53 0.900000 0.054000 0.049000 1400 45 1.000000 2.673000 2.878000 600 59 1.000000 0.053000 0.053000 1.200000 0.025000 0.030000
1517411203885155696	300 52 0.900000 0.038000 0.034000 1400 45 1.000000 2.668000 2.873000 600 60 1.000000 0.053000 0.053000 1.200000 0.023000 0.027000
1517411204416323113	300 53 0.900000 0.038000 0.034000 1400 45 1.000000 2.669000 2.874000 600 59 1.000000 0.053000 0.053000 1.200000 0.034000 0.041000
1517411204941207197	300 53 0.900000 0.054000 0.049000 1400 45 1.000000 2.659000 2.863000 600 59 1.000000 0.053000 0.053000 1.200000 0.029000 0.035000
1517411205465161988	300 52 0.900000 0.055000 0.050000 1400 45 1.000000 2.664000 2.869000 600 59 1.000000 0.053000 0.053000 1.200000 0.030000 0.036000
1517411205988564530	300 52 0.900000 0.038000 0.034000 1400 45 1.000000 2.675000 2.880000 600 60 1.000000 0.053000 0.053000 1.200000 0.023000 0.027000
1517411206512025947	300 53 0.900000 0.036000 0.032000 1400 45 1.000000 2.669000 2.874000 600 59 1.000000 0.053000 0.053000 1.200000 0.023000 0.027000
1517411207035422114	300 53 0.900000 0.057000 0.052000 1400 45 1.000000 2.654000 2.858000 600 59 1.000000 0.053000 0.053000 1.200000 0.045000 0.054000
1517411207559148989	300 53 0.900000 0.053000 0.048000 1400 45 1.000000 2.668000 2.873000 600 59 1.000000 0.053000 0.053000 1.200000 0.035000 0.042000
1517411208082596489	300 53 0.900000 0.035000 0.032000 1400 45 1.000000 2.670000 2.875000 600 59 1.000000 0.053000 0.053000 1.200000 0.026000 0.031000
1517411208606185989	300 53 0.900000 0.038000 0.034000 1400 45 1.000000 2.678000 2.884000 600 59 1.000000 0.053000 0.053000 1.200000 0.025000 0.030000
1517411209132075989	300 53 0.900000 0.037000 0.033000 1400 45 1.000000 2.671000 2.876000 600 59 1.000000 0.053000 0.053000 1.200000 0.025000 0.030000
1517411209656131031	300 53 0.900000 0.060000 0.054000 1400 46 1.000000 2.650000 2.854000 600 59 1.000000 0.053000 0.053000 1.200000 0.045000 0.054000
1517411210179373239	300 53 0.900000 0.037000 0.033000 1400 45 1.000000 2.676000 2.882000 600 60 1.000000 0.053000 0.053000 1.200000 0.028000 0.033000
1517411210702884406	300 52 0.900000 0.038000 0.034000 1400 45 1.000000 2.670000 2.875000 600 60 1.000000 0.053000 0.053000 1.200000 0.026000 0.031000
1517411211226497281	300 53 0.900000 0.038000 0.034000 1400 45 1.000000 2.678000 2.884000 600 60 1.000000 0.053000 0.053000 1.200000 0.024000 0.028000
1517411211759402697	300 53 0.900000 0.038000 0.034000 1400 46 1.000000 2.664000 2.869000 600 59 1.000000 0.053000 0.053000 1.200000 0.026000 0.031000
1517411212283561614	300 53 0.900000 0.055000 0.050000 1400 46 1.000000 2.662000 2.866000 600 59 1.000000 0.053000 0.053000 1.200000 0.050000 0.060000
1517411212807264864	300 53 0.900000 0.036000 0.032000 1400 46 1.000000 2.677000 2.883000 600 60 1.000000 0.053000 0.053000 1.200000 0.025000 0.030000
1517411213330857031	300 53 0.900000 0.035000 0.032000 1400 45 1.000000 2.669000 2.874000 600 60 1.000000 0.053000 0.053000 1.200000 0.025000 0.030000
1517411213857646156	300 53 0.900000 0.036000 0.032000 1400 45 1.000000 2.678000 2.884000 600 60 1.000000 0.053000 0.053000 1.200000 0.025000 0.030000
1517411214387123448	300 53 0.900000 0.064000 0.058000 1400 46 1.000000 2.650000 2.854000 600 59 1.000000 0.053000 0.053000 1.200000 0.040000 0.048000
1517411214911112781	300 53 0.900000 0.053000 0.048000 1400 46 1.000000 2.674000 2.879000 600 60 1.000000 0.053000 0.053000 1.200000 0.036000 0.043000
1517411215434623323	300 53 0.900000 0.038000 0.034000 1400 46 1.000000 2.677000 2.883000 600 60 1.000000 0.053000 0.053000 1.200000 0.026000 0.031000
1517411215958344823	300 53 0.900000 0.038000 0.034000 1400 46 1.000000 2.670000 2.875000 600 60 1.000000 0.053000 0.053000 1.200000 0.025000 0.030000
1517411216483153115	300 53 0.900000 0.045000 0.041000 1400 45 1.000000 2.673000 2.878000 600 60 1.000000 0.053000 0.053000 1.200000 0.031000 0.037000
1517411217007105115	300 53 0.900000 0.060000 0.054000 1400 46 1.000000 2.648000 2.851000 600 60 1.000000 0.053000 0.053000 1.200000 0.045000 0.054000
1517411217531036740	300 53 0.900000 0.036000 0.032000 1400 46 1.000000 2.675000 2.880000 600 60 1.000000 0.053000 0.053000 1.200000 0.025000 0.030000
1517411218054489240	300 53 0.900000 0.036000 0.032000 1400 46 1.000000 2.678000 2.884000 600 60 1.000000 0.053000 0.053000 1.200000 0.025000 0.030000
1517411218578489365	300 53 0.900000 0.044000 0.040000 1400 46 1.000000 2.667000 2.872000 600 60 1.000000 0.053000 0.053000 1.200000 0.025000 0.030000
1517411219103820823	300 53 0.900000 0.038000 0.034000 1400 46 1.000000 2.670000 2.875000 600 60 1.000000 0.053000 0.053000 1.200000 0.026000 0.031000
1517411219630424615	300 53 0.900000 0.050000 0.045000 1400 46 1.000000 2.661000 2.865000 600 60 1.000000 0.053000 0.053000 1.200000 0.046000 0.055000
1517411220154285782	300 53 0.900000 0.036000 0.032000 1400 46 1.000000 2.667000 2.872000 600 60 1.000000 0.053000 0.053000 1.200000 0.024000 0.028000
1517411220678063323	300 53 0.900000 0.043000 0.039000 1400 46 1.000000 2.675000 2.880000 600 60 1.000000 0.053000 0.053000 1.200000 0.024000 0.028000
1517411221202016157	300 53 0.900000 0.048000 0.043000 1400 46 1.000000 2.667000 2.872000 600 60 1.000000 0.053000 0.053000 1.200000 0.025000 0.030000
1517411221727402240	300 53 0.900000 0.040000 0.036000 1400 46 1.000000 2.671000 2.876000 600 60 1.000000 0.053000 0.053000 1.200000 0.032000 0.038000
1517411222252100574	300 53 0.900000 0.050000 0.045000 1400 46 1.000000 2.660000 2.864000 600 60 1.000000 0.053000 0.053000 1.200000 0.032000 0.038000
1517411222776335532	300 53 0.900000 0.038000 0.034000 1400 46 1.000000 2.668000 2.873000 600 60 1.000000 0.053000 0.053000 1.200000 0.023000 0.027000
1517411223300332032	300 53 0.900000 0.047000 0.043000 1400 46 1.000000 2.671000 2.876000 600 60 1.000000 0.053000 0.053000 1.200000 0.029000 0.035000
1517411223824071157	300 53 0.900000 0.036000 0.032000 1400 46 1.000000 2.669000 2.874000 600 60 1.000000 0.053000 0.053000 1.200000 0.023000 0.027000
1517411224347738366	300 53 0.900000 0.058000 0.052000 1400 46 1.000000 2.656000 2.860000 600 60 1.000000 0.053000 0.053000 1.200000 0.045000 0.054000
1517411224871661574	300 53 0.900000 0.036000 0.032000 1400 46 1.000000 2.672000 2.877000 600 60 1.000000 0.053000 0.053000 1.200000 0.023000 0.027000
1517411225395579241	300 53 0.900000 0.047000 0.043000 1400 46 1.000000 2.668000 2.873000 600 60 1.000000 0.053000 0.053000 1.200000 0.035000 0.042000
1517411225919383532	300 53 0.900000 0.036000 0.032000 1400 46 1.000000 2.676000 2.882000 600 60 1.000000 0.053000 0.053000 1.200000 0.023000 0.027000
1517411226444664033	300 53 0.900000 0.040000 0.036000 1400 46 1.000000 2.669000 2.874000 600 60 1.000000 0.053000 0.053000 1.200000 0.023000 0.027000
1517411226968691366	300 53 0.900000 0.047000 0.043000 1400 46 1.000000 2.656000 2.860000 600 60 1.000000 0.053000 0.053000 1.200000 0.044000 0.053000
1517411227492848199	300 53 0.900000 0.042000 0.038000 1400 46 1.000000 2.669000 2.874000 600 60 1.000000 0.053000 0.053000 1.200000 0.033000 0.039000
1517411228016663283	300 53 0.900000 0.038000 0.034000 1400 46 1.000000 2.675000 2.880000 600 60 1.000000 0.053000 0.053000 1.200000 0.023000 0.027000
1517411228540162991	300 53 0.900000 0.036000 0.032000 1400 46 1.000000 2.677000 2.883000 600 60 1.000000 0.053000 0.053000 1.200000 0.023000 0.027000
1517411229065609574	300 53 0.900000 0.041000 0.037000 1400 46 1.000000 2.666000 2.871000 600 60 1.000000 0.053000 0.053000 1.200000 0.035000 0.042000
1517411229589969200	300 53 0.900000 0.059000 0.053000 1400 46 1.000000 2.663000 2.868000 600 60 1.000000 0.053000 0.053000 1.200000 0.036000 0.043000
1517411230113656491	300 53 0.900000 0.050000 0.045000 1400 46 1.000000 2.670000 2.875000 600 60 1.000000 0.053000 0.053000 1.200000 0.031000 0.037000
1517411230637640450	300 53 0.900000 0.038000 0.034000 1400 46 1.000000 2.671000 2.876000 600 60 1.000000 0.053000 0.053000 1.200000 0.025000 0.030000
1517411231161222741	300 53 0.900000 0.037000 0.033000 1400 46 1.000000 2.675000 2.880000 600 60 1.000000 0.053000 0.053000 1.200000 0.025000 0.030000
1517411231688947533	300 53 0.900000 0.045000 0.041000 1400 46 1.000000 2.670000 2.875000 600 60 1.000000 0.053000 0.053000 1.200000 0.030000 0.036000
1517411232213107742	300 53 0.900000 0.060000 0.054000 1400 46 1.000000 2.655000 2.859000 600 60 1.000000 0.053000 0.053000 1.200000 0.044000 0.053000
1517411232737162825	300 53 0.900000 0.038000 0.034000 1400 46 1.000000 2.669000 2.874000 600 60 1.000000 0.053000 0.053000 1.200000 0.025000 0.030000
1517411233261309825	300 53 0.900000 0.038000 0.034000 1400 46 1.000000 2.675000 2.880000 600 60 1.000000 0.053000 0.053000 1.200000 0.025000 0.030000
1517411233787314992	300 53 0.900000 0.037000 0.033000 1400 46 1.000000 2.673000 2.878000 600 60 1.000000 0.053000 0.053000 1.200000 0.025000 0.030000
1517411234311748492	300 53 0.900000 0.044000 0.040000 1400 46 1.000000 2.659000 2.863000 600 60 1.000000 0.053000 0.053000 1.200000 0.048000 0.057000
1517411234835069409	300 53 0.900000 0.048000 0.043000 1400 46 1.000000 2.671000 2.876000 600 60 1.000000 0.053000 0.053000 1.200000 0.025000 0.030000
1517411235358808117	300 53 0.900000 0.037000 0.033000 1400 46 1.000000 2.673000 2.878000 600 60 1.000000 0.053000 0.053000 1.200000 0.025000 0.030000
1517411235882660950	300 53 0.900000 0.038000 0.034000 1400 46 1.000000 2.677000 2.883000 600 60 1.000000 0.053000 0.053000 1.200000 0.025000 0.030000
1517411236410416325	300 53 0.900000 0.038000 0.034000 1400 46 1.000000 2.672000 2.877000 600 60 1.000000 0.053000 0.053000 1.200000 0.029000 0.035000
1517411236934131784	300 53 0.900000 0.059000 0.053000 1400 46 1.000000 2.658000 2.862000 600 60 1.000000 0.053000 0.053000 1.200000 0.046000 0.055000
1517411237457659117	300 53 0.900000 0.038000 0.034000 1400 46 1.000000 2.673000 2.878000 600 60 1.000000 0.053000 0.053000 1.200000 0.025000 0.030000
1517411237981586076	300 53 0.900000 0.038000 0.034000 1400 46 1.000000 2.679000 2.885000 600 60 1.000000 0.053000 0.053000 1.200000 0.025000 0.030000
1517411238505445992	300 53 0.900000 0.038000 0.034000 1400 46 1.000000 2.676000 2.882000 600 60 1.000000 0.053000 0.053000 1.200000 0.025000 0.030000
1517411239032945826	300 53 0.900000 0.044000 0.040000 1400 46 1.000000 2.677000 2.883000 600 60 1.000000 0.053000 0.053000 1.200000 0.031000 0.037000
1517411239557314659	300 53 0.900000 0.045000 0.041000 1400 46 1.000000 2.662000 2.866000 600 60 1.000000 0.053000 0.053000 1.200000 0.036000 0.043000
1517411240080809742	300 53 0.900000 0.038000 0.034000 1400 46 1.000000 2.678000 2.884000 600 60 1.000000 0.053000 0.053000 1.200000 0.025000 0.030000
1517411240605166951	300 53 0.900000 0.038000 0.034000 1400 46 1.000000 2.679000 2.885000 600 60 1.000000 0.053000 0.053000 1.200000 0.024000 0.028000
1517411241129158034	300 53 0.900000 0.055000 0.050000 1400 46 1.000000 2.677000 2.883000 600 60 1.000000 0.053000 0.053000 1.200000 0.028000 0.033000
1517411241653071909	300 53 0.900000 0.045000 0.041000 1400 46 1.000000 2.664000 2.869000 600 60 1.000000 0.053000 0.053000 1.200000 0.045000 0.054000
1517411242177381368	300 53 0.900000 0.045000 0.041000 1400 46 1.000000 2.678000 2.884000 600 60 1.000000 0.053000 0.053000 1.200000 0.023000 0.027000
1517411242702536451	300 53 0.900000 0.038000 0.034000 1400 46 1.000000 2.678000 2.884000 600 60 1.000000 0.053000 0.053000 1.200000 0.023000 0.027000
1517411243226836076	300 53 0.900000 0.053000 0.048000 1400 46 1.000000 2.675000 2.880000 600 60 1.000000 0.053000 0.053000 1.200000 0.032000 0.038000
1517411243755336785	300 53 0.900000 0.038000 0.034000 1400 46 1.000000 2.679000 2.885000 600 60 1.000000 0.053000 0.053000 1.200000 0.023000 0.027000
1517411244279221035	300 53 0.900000 0.059000 0.053000 1400 46 1.000000 2.657000 2.861000 600 60 1.000000 0.053000 0.053000 1.200000 0.045000 0.054000
1517411244802894160	300 53 0.900000 0.037000 0.033000 1400 46 1.000000 2.679000 2.885000 600 60 1.000000 0.053000 0.053000 1.200000 0.023000 0.027000
1517411245326860618	300 53 0.900000 0.052000 0.047000 1400 46 1.000000 2.676000 2.882000 600 60 1.000000 0.053000 0.053000 1.200000 0.035000 0.042000
1517411245850721410	300 53 0.900000 0.037000 0.033000 1400 46 1.000000 2.679000 2.885000 600 60 1.000000 0.053000 0.053000 1.200000 0.023000 0.027000
1517411246378892077	300 53 0.900000 0.037000 0.033000 1400 46 1.000000 2.679000 2.885000 600 60 1.000000 0.053000 0.053000 1.200000 0.032000 0.038000
1517411246903613535	300 53 0.900000 0.060000 0.054000 1400 46 1.000000 2.666000 2.871000 600 60 1.000000 0.053000 0.053000 1.200000 0.032000 0.038000
1517411247427201452	300 53 0.900000 0.038000 0.034000 1400 46 1.000000 2.679000 2.885000 600 60 1.000000 0.053000 0.053000 1.200000 0.026000 0.031000
1517411247951134827	300 53 0.900000 0.040000 0.036000 1400 46 1.000000 2.681000 2.887000 600 60 1.000000 0.053000 0.053000 1.200000 0.030000 0.036000
1517411248475120618	300 53 0.900000 0.038000 0.034000 1400 46 1.000000 2.681000 2.887000 600 60 1.000000 0.053000 0.053000 1.200000 0.026000 0.031000
1517411249000976494	300 53 0.900000 0.048000 0.043000 1400 46 1.000000 2.661000 2.865000 600 60 1.000000 0.053000 0.053000 1.200000 0.027000 0.032000
1517411249530382327	300 53 0.900000 0.043000 0.039000 1400 46 1.000000 2.683000 2.889000 600 60 1.000000 0.053000 0.053000 1.200000 0.040000 0.048000
1517411250054614244	300 53 0.900000 0.041000 0.037000 1400 46 1.000000 2.680000 2.886000 600 60 1.000000 0.053000 0.053000 1.200000 0.034000 0.041000
1517411250577954160	300 53 0.900000 0.037000 0.033000 1400 46 1.000000 2.682000 2.888000 600 60 1.000000 0.053000 0.053000 1.200000 0.026000 0.031000
1517411251106133202	300 53 0.900000 0.036000 0.032000 1400 46 1.000000 2.681000 2.887000 600 60 1.000000 0.053000 0.053000 1.200000 0.025000 0.030000
1517411251634197452	300 53 0.900000 0.058000 0.052000 1400 46 1.000000 2.661000 2.865000 600 60 1.000000 0.053000 0.053000 1.200000 0.042000 0.050000
1517411252158493494	300 53 0.900000 0.040000 0.036000 1400 46 1.000000 2.680000 2.886000 600 60 1.000000 0.053000 0.053000 1.200000 0.037000 0.044000
1517411252682314994	300 53 0.900000 0.039000 0.035000 1400 46 1.000000 2.683000 2.889000 600 60 1.000000 0.053000 0.053000 1.200000 0.025000 0.030000
1517411253205923786	300 53 0.900000 0.039000 0.035000 1400 46 1.000000 2.681000 2.887000 600 60 1.000000 0.053000 0.053000 1.200000 0.026000 0.031000
1517411253731334036	300 53 0.900000 0.038000 0.034000 1400 46 1.000000 2.679000 2.885000 600 60 1.000000 0.053000 0.053000 1.200000 0.026000 0.031000
1517411254255778452	300 53 0.900000 0.068000 0.062000 1400 46 1.000000 2.664000 2.869000 600 60 1.000000 0.053000 0.053000 1.200000 0.049000 0.059000
1517411254779456203	300 53 0.900000 0.038000 0.034000 1400 46 1.000000 2.682000 2.888000 600 60 1.000000 0.053000 0.053000 1.200000 0.027000 0.032000
1517411255303069953	300 53 0.900000 0.039000 0.035000 1400 46 1.000000 2.682000 2.888000 600 60 1.000000 0.053000 0.053000 1.200000 0.025000 0.030000
1517411255826866994	300 53 0.900000 0.038000 0.034000 1400 46 1.000000 2.682000 2.888000 600 60 1.000000 0.053000 0.053000 1.200000 0.027000 0.032000
1517411256354987328	300 53 0.900000 0.054000 0.049000 1400 46 1.000000 2.663000 2.868000 600 60 1.000000 0.053000 0.053000 1.200000 0.029000 0.035000
1517411256878939369	300 53 0.900000 0.041000 0.037000 1400 46 1.000000 2.661000 2.865000 600 60 1.000000 0.053000 0.053000 1.200000 0.039000 0.047000
1517411257402773578	300 53 0.900000 0.036000 0.032000 1400 46 1.000000 2.678000 2.884000 600 60 1.000000 0.053000 0.053000 1.200000 0.026000 0.031000
1517411257926410995	300 53 0.900000 0.037000 0.033000 1400 46 1.000000 2.681000 2.887000 600 60 1.000000 0.053000 0.053000 1.200000 0.025000 0.030000
1517411258450413745	300 53 0.900000 0.040000 0.036000 1400 46 1.000000 2.677000 2.883000 600 60 1.000000 0.053000 0.053000 1.200000 0.027000 0.032000
1517411258975168328	300 53 0.900000 0.061000 0.055000 1400 46 1.000000 2.668000 2.873000 600 60 1.000000 0.053000 0.053000 1.200000 0.045000 0.054000
1517411259498981953	300 53 0.900000 0.043000 0.039000 1400 46 1.000000 2.674000 2.879000 600 60 1.000000 0.053000 0.053000 1.200000 0.027000 0.032000
1517411260022578787	300 53 0.900000 0.038000 0.034000 1400 46 1.000000 2.680000 2.886000 600 60 1.000000 0.053000 0.053000 1.200000 0.026000 0.031000
1517411260547101162	300 53 0.900000 0.039000 0.035000 1400 46 1.000000 2.679000 2.885000 600 60 1.000000 0.053000 0.053000 1.200000 0.025000 0.030000
1517411261072750120	300 53 0.900000 0.052000 0.047000 1400 46 1.000000 2.674000 2.879000 600 60 1.000000 0.053000 0.053000 1.200000 0.035000 0.042000
1517411261597059662	300 53 0.900000 0.058000 0.052000 1400 46 1.000000 2.659000 2.863000 600 60 1.000000 0.053000 0.053000 1.200000 0.047000 0.056000
1517411262120791453	300 53 0.900000 0.038000 0.034000 1400 46 1.000000 2.678000 2.884000 600 60 1.000000 0.053000 0.053000 1.200000 0.025000 0.030000
1517411262644691037	300 53 0.900000 0.038000 0.034000 1400 46 1.000000 2.679000 2.885000 600 60 1.000000 0.053000 0.053000 1.200000 0.025000 0.030000
1517411263169060287	300 53 0.900000 0.052000 0.047000 1400 46 1.000000 2.676000 2.882000 600 60 1.000000 0.053000 0.053000 1.200000 0.037000 0.044000
1517411263696693079	300 53 0.900000 0.048000 0.043000 1400 46 1.000000 2.679000 2.885000 600 60 1.000000 0.053000 0.053000 1.200000 0.028000 0.033000
1517411264221285412	300 53 0.900000 0.041000 0.037000 1400 46 1.000000 2.661000 2.865000 600 60 1.000000 0.053000 0.053000 1.200000 0.038000 0.045000
1517411264745127120	300 53 0.900000 0.035000 0.032000 1400 46 1.000000 2.678000 2.884000 600 60 1.000000 0.053000 0.053000 1.200000 0.024000 0.028000
1517411265268792120	300 53 0.900000 0.040000 0.036000 1400 46 1.000000 2.677000 2.883000 600 60 1.000000 0.053000 0.053000 1.200000 0.033000 0.039000
1517411265792925121	300 53 0.900000 0.038000 0.034000 1400 46 1.000000 2.679000 2.885000 600 60 1.000000 0.053000 0.053000 1.200000 0.024000 0.028000
1517411266317872871	300 53 0.900000 0.051000 0.046000 1400 46 1.000000 2.664000 2.869000 600 60 1.000000 0.053000 0.053000 1.200000 0.044000 0.053000
1517411266841827496	300 53 0.900000 0.040000 0.036000 1400 46 1.000000 2.678000 2.884000 600 60 1.000000 0.053000 0.053000 1.200000 0.023000 0.027000
1517411267365700787	300 53 0.900000 0.038000 0.034000 1400 46 1.000000 2.680000 2.886000 600 60 1.000000 0.053000 0.053000 1.200000 0.027000 0.032000
1517411267889586829	300 53 0.900000 0.037000 0.033000 1400 46 1.000000 2.681000 2.887000 600 60 1.000000 0.053000 0.053000 1.200000 0.023000 0.027000
1517411268415389413	300 53 0.900000 0.036000 0.032000 1400 46 1.000000 2.680000 2.886000 600 60 1.000000 0.053000 0.053000 1.200000 0.024000 0.028000
1517411268939773538	300 53 0.900000 0.058000 0.053000 1400 46 1.000000 2.659000 2.863000 600 60 1.000000 0.053000 0.053000 1.200000 0.046000 0.055000
1517411269463740996	300 53 0.900000 0.037000 0.033000 1400 46 1.000000 2.680000 2.886000 600 60 1.000000 0.053000 0.053000 1.200000 0.024000 0.028000
1517411269987870829	300 53 0.900000 0.037000 0.033000 1400 46 1.000000 2.680000 2.886000 600 60 1.000000 0.053000 0.053000 1.200000 0.025000 0.030000
1517411270511401954	300 53 0.900000 0.037000 0.033000 1400 46 1.000000 2.681000 2.887000 600 60 1.000000 0.053000 0.053000 1.200000 0.024000 0.028000
1517411271036872288	300 53 0.900000 0.050000 0.045000 1400 46 1.000000 2.680000 2.886000 600 60 1.000000 0.053000 0.053000 1.200000 0.030000 0.036000
1517411271567122788	300 53 0.900000 0.060000 0.054000 1400 46 1.000000 2.664000 2.869000 600 60 1.000000 0.053000 0.053000 1.200000 0.035000 0.042000
1517411272091082830	300 53 0.900000 0.055000 0.050000 1400 46 1.000000 2.679000 2.885000 600 60 1.000000 0.053000 0.053000 1.200000 0.027000 0.032000
1517411272614815455	300 53 0.900000 0.038000 0.034000 1400 46 1.000000 2.680000 2.886000 600 60 1.000000 0.053000 0.053000 1.200000 0.024000 0.028000
1517411273138633288	300 53 0.900000 0.037000 0.033000 1400 46 1.000000 2.680000 2.886000 600 60 1.000000 0.053000 0.053000 1.200000 0.024000 0.028000
1517411273670333746	300 53 0.900000 0.050000 0.045000 1400 46 1.000000 2.665000 2.870000 600 60 1.000000 0.053000 0.053000 1.200000 0.046000 0.055000
1517411274194153538	300 53 0.900000 0.055000 0.050000 1400 46 1.000000 2.675000 2.880000 600 60 1.000000 0.053000 0.053000 1.200000 0.033000 0.039000
1517411274717476788	300 53 0.900000 0.037000 0.033000 1400 46 1.000000 2.681000 2.887000 600 60 1.000000 0.053000 0.053000 1.200000 0.024000 0.028000
1517411275241406330	300 53 0.900000 0.037000 0.033000 1400 46 1.000000 2.681000 2.887000 600 60 1.000000 0.053000 0.053000 1.200000 0.024000 0.028000
1517411275768795997	300 53 0.900000 0.037000 0.033000 1400 46 1.000000 2.680000 2.886000 600 60 1.000000 0.053000 0.053000 1.200000 0.024000 0.028000
1517411276295720205	300 53 0.900000 0.074000 0.067000 1400 46 1.000000 2.657000 2.861000 600 60 1.000000 0.053000 0.053000 1.200000 0.052000 0.062000
1517411276819713622	300 53 0.900000 0.036000 0.032000 1400 46 1.000000 2.681000 2.887000 600 60 1.000000 0.053000 0.053000 1.200000 0.023000 0.027000
1517411277343810622	300 53 0.900000 0.037000 0.033000 1400 46 1.000000 2.679000 2.885000 600 60 1.000000 0.053000 0.053000 1.200000 0.024000 0.028000
1517411277867586664	300 53 0.900000 0.037000 0.033000 1400 46 1.000000 2.678000 2.884000 600 60 1.000000 0.053000 0.053000 1.200000 0.027000 0.032000
1517411278396390580	300 53 0.900000 0.038000 0.034000 1400 46 1.000000 2.678000 2.884000 600 60 1.000000 0.053000 0.053000 1.200000 0.026000 0.031000
1517411278921561289	300 53 0.900000 0.064000 0.058000 1400 46 1.000000 2.654000 2.858000 600 60 1.000000 0.053000 0.053000 1.200000 0.051000 0.061000
1517411279445279289	300 53 0.900000 0.040000 0.036000 1400 46 1.000000 2.678000 2.884000 600 60 1.000000 0.053000 0.053000 1.200000 0.026000 0.031000
1517411279969134789	300 53 0.900000 0.038000 0.034000 1400 46 1.000000 2.679000 2.885000 600 60 1.000000 0.053000 0.053000 1.200000 0.025000 0.030000
1517411280494559414	300 53 0.900000 0.038000 0.034000 1400 46 1.000000 2.679000 2.885000 600 60 1.000000 0.053000 0.053000 1.200000 0.026000 0.031000
1517411281021128914	300 53 0.900000 0.049000 0.044000 1400 46 1.000000 2.676000 2.882000 600 60 1.000000 0.053000 0.053000 1.200000 0.037000 0.044000
1517411281545017789	300 53 0.900000 0.059000 0.053000 1400 46 1.000000 2.657000 2.861000 600 60 1.000000 0.053000 0.053000 1.200000 0.043000 0.051000
1517411282069101789	300 53 0.900000 0.039000 0.035000 1400 46 1.000000 2.679000 2.885000 600 60 1.000000 0.053000 0.053000 1.200000 0.026000 0.031000
1517411282592752498	300 53 0.900000 0.038000 0.034000 1400 46 1.000000 2.679000 2.885000 600 60 1.000000 0.053000 0.053000 1.200000 0.026000 0.031000
1517411283117021248	300 53 0.900000 0.049000 0.044000 1400 46 1.000000 2.676000 2.882000 600 60 1.000000 0.053000 0.053000 1.200000 0.035000 0.042000
1517411283642238748	300 53 0.900000 0.053000 0.048000 1400 46 1.000000 2.669000 2.874000 600 60 1.000000 0.053000 0.053000 1.200000 0.042000 0.050000
1517411284166647914	300 53 0.900000 0.061000 0.055000 1400 46 1.000000 2.673000 2.878000 600 60 1.000000 0.053000 0.053000 1.200000 0.027000 0.032000
1517411284690380456	300 53 0.900000 0.038000 0.034000 1400 46 1.000000 2.678000 2.884000 600 60 1.000000 0.053000 0.053000 1.200000 0.025000 0.030000
1517411285214349331	300 53 0.900000 0.039000 0.035000 1400 46 1.000000 2.679000 2.885000 600 60 1.000000 0.053000 0.053000 1.200000 0.027000 0.032000
1517411285745252623	300 53 0.900000 0.045000 0.041000 1400 46 1.000000 2.679000 2.885000 600 60 1.000000 0.053000 0.053000 1.200000 0.023000 0.027000
1517411286269129706	300 53 0.900000 0.053000 0.048000 1400 46 1.000000 2.659000 2.863000 600 60 1.000000 0.053000 0.053000 1.200000 0.047000 0.056000
1517411286792473248	300 53 0.900000 0.039000 0.035000 1400 46 1.000000 2.676000 2.882000 600 60 1.000000 0.053000 0.053000 1.200000 0.036000 0.043000
1517411287316546165	300 53 0.900000 0.038000 0.034000 1400 46 1.000000 2.679000 2.885000 600 60 1.000000 0.053000 0.053000 1.200000 0.026000 0.031000
1517411287840374540	300 53 0.900000 0.046000 0.042000 1400 46 1.000000 2.676000 2.882000 600 60 1.000000 0.053000 0.053000 1.200000 0.037000 0.044000
1517411288366356665	300 53 0.900000 0.038000 0.034000 1400 46 1.000000 2.679000 2.885000 600 60 1.000000 0.053000 0.053000 1.200000 0.026000 0.031000
1517411288890891790	300 53 0.900000 0.059000 0.053000 1400 46 1.000000 2.660000 2.864000 600 60 1.000000 0.053000 0.053000 1.200000 0.046000 0.055000
1517411289415193998	300 53 0.900000 0.038000 0.034000 1400 46 1.000000 2.679000 2.885000 600 60 1.000000 0.053000 0.053000 1.200000 0.026000 0.031000
1517411289938693498	300 53 0.900000 0.046000 0.042000 1400 46 1.000000 2.677000 2.883000 600 60 1.000000 0.053000 0.053000 1.200000 0.033000 0.039000
1517411290462500623	300 53 0.900000 0.039000 0.035000 1400 46 1.000000 2.679000 2.885000 600 60 1.000000 0.053000 0.053000 1.200000 0.026000 0.031000
1517411290988680374	300 53 0.900000 0.038000 0.034000 1400 46 1.000000 2.667000 2.872000 600 60 1.000000 0.053000 0.053000 1.200000 0.027000 0.032000
1517411291512602665	300 53 0.900000 0.060000 0.054000 1400 46 1.000000 2.675000 2.880000 600 60 1.000000 0.053000 0.053000 1.200000 0.047000 0.056000
1517411292036408207	300 53 0.900000 0.044000 0.040000 1400 46 1.000000 2.675000 2.880000 600 60 1.000000 0.053000 0.053000 1.200000 0.029000 0.035000
1517411292560178957	300 53 0.900000 0.039000 0.035000 1400 46 1.000000 2.679000 2.885000 600 60 1.000000 0.053000 0.053000 1.200000 0.027000 0.032000
1517411293084440832	300 53 0.900000 0.039000 0.035000 1400 46 1.000000 2.678000 2.884000 600 60 1.000000 0.053000 0.053000 1.200000 0.026000 0.031000
1517411293609261416	300 53 0.900000 0.054000 0.049000 1400 46 1.000000 2.675000 2.880000 600 60 1.000000 0.053000 0.053000 1.200000 0.035000 0.042000
1517411294133359082	300 53 0.900000 0.045000 0.041000 1400 46 1.000000 2.667000 2.872000 600 60 1.000000 0.053000 0.053000 1.200000 0.033000 0.039000
1517411294657121957	300 53 0.900000 0.038000 0.034000 1400 46 1.000000 2.676000 2.882000 600 60 1.000000 0.053000 0.053000 1.200000 0.027000 0.032000
1517411295180996207	300 53 0.900000 0.036000 0.032000 1400 46 1.000000 2.678000 2.884000 600 60 1.000000 0.053000 0.053000 1.200000 0.026000 0.031000
1517411295712241874	300 53 0.900000 0.037000 0.033000 1400 46 1.000000 2.677000 2.883000 600 60 1.000000 0.053000 0.053000 1.200000 0.026000 0.031000
1517411296236251749	300 53 0.900000 0.061000 0.055000 1400 46 1.000000 2.658000 2.862000 600 60 1.000000 0.053000 0.053000 1.200000 0.047000 0.056000
1517411296760048499	300 53 0.900000 0.051000 0.046000 1400 46 1.000000 2.676000 2.882000 600 60 1.000000 0.053000 0.053000 1.200000 0.030000 0.036000
1517411297283721249	300 53 0.900000 0.038000 0.034000 1400 46 1.000000 2.677000 2.883000 600 60 1.000000 0.053000 0.053000 1.200000 0.026000 0.031000
1517411297807249999	300 53 0.900000 0.038000 0.034000 1400 46 1.000000 2.677000 2.883000 600 60 1.000000 0.053000 0.053000 1.200000 0.026000 0.031000
1517411298334721958	300 53 0.900000 0.039000 0.035000 1400 46 1.000000 2.677000 2.883000 600 60 1.000000 0.053000 0.053000 1.200000 0.026000 0.031000
1517411298859351624	300 53 0.900000 0.071000 0.064000 1400 46 1.000000 2.656000 2.860000 600 60 1.000000 0.053000 0.053000 1.200000 0.052000 0.062000
1517411299383744500	300 53 0.900000 0.038000 0.034000 1400 46 1.000000 2.678000 2.884000 600 60 1.000000 0.053000 0.053000 1.200000 0.026000 0.031000
1517411299907303833	300 53 0.900000 0.038000 0.034000 1400 46 1.000000 2.678000 2.884000 600 60 1.000000 0.053000 0.053000 1.200000 0.025000 0.030000
1517411300431073625	300 53 0.900000 0.038000 0.034000 1400 46 1.000000 2.679000 2.885000 600 60 1.000000 0.053000 0.053000 1.200000 0.027000 0.032000
1517411300958892791	300 53 0.900000 0.068000 0.062000 1400 46 1.000000 2.670000 2.875000 600 60 1.000000 0.053000 0.053000 1.200000 0.042000 0.050000
1517411301487457625	300 53 0.900000 0.037000 0.033000 1400 46 1.000000 2.668000 2.873000 600 60 1.000000 0.053000 0.053000 1.200000 0.033000 0.039000
1517411302011268375	300 53 0.900000 0.037000 0.033000 1400 46 1.000000 2.678000 2.884000 600 60 1.000000 0.053000 0.053000 1.200000 0.026000 0.031000
1517411302534778958	300 53 0.900000 0.037000 0.033000 1400 46 1.000000 2.679000 2.885000 600 60 1.000000 0.053000 0.053000 1.200000 0.025000 0.030000
1517411303060691250	300 53 0.900000 0.038000 0.034000 1400 46 1.000000 2.676000 2.882000 600 60 1.000000 0.053000 0.053000 1.200000 0.030000 0.036000
1517411303585092167	300 53 0.900000 0.055000 0.050000 1400 46 1.000000 2.659000 2.863000 600 60 1.000000 0.053000 0.053000 1.200000 0.047000 0.056000
1517411304109071500	300 53 0.900000 0.038000 0.034000 1400 46 1.000000 2.678000 2.884000 600 60 1.000000 0.053000 0.053000 1.200000 0.026000 0.031000
1517411304633303333	300 53 0.900000 0.038000 0.034000 1400 46 1.000000 2.679000 2.885000 600 60 1.000000 0.053000 0.053000 1.200000 0.026000 0.031000
1517411305156843625	300 53 0.900000 0.038000 0.034000 1400 46 1.000000 2.677000 2.883000 600 60 1.000000 0.053000 0.053000 1.200000 0.026000 0.031000
1517411305682702542	300 53 0.900000 0.038000 0.034000 1400 46 1.000000 2.678000 2.884000 600 60 1.000000 0.053000 0.053000 1.200000 0.025000 0.030000
1517411306206934542	300 53 0.900000 0.057000 0.052000 1400 46 1.000000 2.657000 2.861000 600 60 1.000000 0.053000 0.053000 1.200000 0.046000 0.055000
1517411306730749500	300 53 0.900000 0.037000 0.033000 1400 46 1.000000 2.679000 2.885000 600 60 1.000000 0.053000 0.053000 1.200000 0.024000 0.028000
1517411307255752292	300 53 0.900000 0.036000 0.032000 1400 46 1.000000 2.677000 2.883000 600 60 1.000000 0.053000 0.053000 1.200000 0.024000 0.028000
1517411307780324501	300 53 0.900000 0.037000 0.033000 1400 46 1.000000 2.677000 2.883000 600 60 1.000000 0.053000 0.053000 1.200000 0.028000 0.033000
1517411308306373292	300 53 0.900000 0.054000 0.049000 1400 46 1.000000 2.670000 2.875000 600 60 1.000000 0.053000 0.053000 1.200000 0.036000 0.043000
1517411308830814334	300 53 0.900000 0.036000 0.032000 1400 46 1.000000 2.669000 2.874000 600 60 1.000000 0.053000 0.053000 1.200000 0.030000 0.036000
1517411309358120876	300 53 0.900000 0.038000 0.034000 1400 46 1.000000 2.679000 2.885000 600 60 1.000000 0.053000 0.053000 1.200000 0.024000 0.028000
1517411309882887042	300 53 0.900000 0.053000 0.048000 1400 46 1.000000 2.674000 2.879000 600 60 1.000000 0.053000 0.053000 1.200000 0.033000 0.039000
1517411310406983501	300 53 0.900000 0.038000 0.034000 1400 46 1.000000 2.680000 2.886000 600 60 1.000000 0.053000 0.053000 1.200000 0.024000 0.028000
1517411310933021876	300 53 0.900000 0.055000 0.050000 1400 46 1.000000 2.659000 2.863000 600 60 1.000000 0.053000 0.053000 1.200000 0.046000 0.055000
1517411311456752793	300 53 0.900000 0.038000 0.034000 1400 46 1.000000 2.681000 2.887000 600 60 1.000000 0.053000 0.053000 1.200000 0.024000 0.028000
1517411311980091293	300 53 0.900000 0.051000 0.046000 1400 46 1.000000 2.676000 2.882000 600 60 1.000000 0.053000 0.053000 1.200000 0.036000 0.043000
1517411312503699334	300 53 0.900000 0.036000 0.032000 1400 46 1.000000 2.681000 2.887000 600 60 1.000000 0.053000 0.053000 1.200000 0.024000 0.028000
1517411313029388584	300 53 0.900000 0.037000 0.033000 1400 46 1.000000 2.679000 2.885000 600 60 1.000000 0.053000 0.053000 1.200000 0.024000 0.028000
1517411313552992168	300 53 0.900000 0.055000 0.050000 1400 46 1.000000 2.660000 2.864000 600 60 1.000000 0.053000 0.053000 1.200000 0.044000 0.053000
1517411314077062918	300 53 0.900000 0.050000 0.045000 1400 46 1.000000 2.676000 2.882000 600 60 1.000000 0.053000 0.053000 1.200000 0.031000 0.037000
1517411314600455626	300 53 0.900000 0.037000 0.033000 1400 46 1.000000 2.681000 2.887000 600 60 1.000000 0.053000 0.053000 1.200000 0.024000 0.028000
1517411315123869501	300 53 0.900000 0.037000 0.033000 1400 46 1.000000 2.679000 2.885000 600 60 1.000000 0.053000 0.053000 1.200000 0.024000 0.028000
1517411315651310335	300 53 0.900000 0.040000 0.036000 1400 46 1.000000 2.669000 2.874000 600 60 1.000000 0.053000 0.053000 1.200000 0.037000 0.044000
1517411316177984293	300 53 0.900000 0.056000 0.051000 1400 46 1.000000 2.671000 2.876000 600 60 1.000000 0.053000 0.053000 1.200000 0.031000 0.037000
1517411316701635335	300 53 0.900000 0.042000 0.038000 1400 46 1.000000 2.680000 2.886000 600 60 1.000000 0.053000 0.053000 1.200000 0.024000 0.028000
1517411317225357543	300 53 0.900000 0.037000 0.033000 1400 46 1.000000 2.680000 2.886000 600 60 1.000000 0.053000 0.053000 1.200000 0.023000 0.027000
1517411317748668335	300 53 0.900000 0.036000 0.032000 1400 46 1.000000 2.679000 2.885000 600 60 1.000000 0.053000 0.053000 1.200000 0.023000 0.027000
1517411318277258127	300 53 0.900000 0.056000 0.051000 1400 46 1.000000 2.657000 2.861000 600 60 1.000000 0.053000 0.053000 1.200000 0.046000 0.055000
1517411318802780335	300 53 0.900000 0.042000 0.038000 1400 46 1.000000 2.677000 2.883000 600 60 1.000000 0.053000 0.053000 1.200000 0.023000 0.027000
1517411319326167960	300 53 0.900000 0.036000 0.032000 1400 46 1.000000 2.678000 2.884000 600 60 1.000000 0.053000 0.053000 1.200000 0.024000 0.028000
1517411319849422085	300 53 0.900000 0.036000 0.032000 1400 46 1.000000 2.677000 2.883000 600 60 1.000000 0.053000 0.053000 1.200000 0.023000 0.027000
1517411320376903627	300 53 0.900000 0.037000 0.033000 1400 46 1.000000 2.678000 2.884000 600 60 1.000000 0.053000 0.053000 1.200000 0.024000 0.028000
1517411320900932502	300 53 0.900000 0.061000 0.055000 1400 46 1.000000 2.655000 2.859000 600 60 1.000000 0.053000 0.053000 1.200000 0.044000 0.053000
1517411321424636085	300 53 0.900000 0.038000 0.034000 1400 46 1.000000 2.678000 2.884000 600 60 1.000000 0.053000 0.053000 1.200000 0.023000 0.027000
1517411321948035627	300 53 0.900000 0.038000 0.034000 1400 46 1.000000 2.678000 2.884000 600 60 1.000000 0.053000 0.053000 1.200000 0.023000 0.027000
1517411322471363711	300 53 0.900000 0.038000 0.034000 1400 46 1.000000 2.678000 2.884000 600 60 1.000000 0.053000 0.053000 1.200000 0.025000 0.030000
1517411322997149919	300 53 0.900000 0.041000 0.037000 1400 46 1.000000 2.662000 2.866000 600 60 1.000000 0.053000 0.053000 1.200000 0.047000 0.056000
1517411323521347419	300 53 0.900000 0.053000 0.048000 1400 46 1.000000 2.672000 2.877000 600 60 1.000000 0.053000 0.053000 1.200000 0.027000 0.032000
1517411324044960044	300 53 0.900000 0.036000 0.032000 1400 46 1.000000 2.678000 2.884000 600 60 1.000000 0.053000 0.053000 1.200000 0.023000 0.027000
1517411324567982253	300 53 0.900000 0.038000 0.034000 1400 46 1.000000 2.678000 2.884000 600 60 1.000000 0.053000 0.053000 1.200000 0.023000 0.027000
1517411325091823128	300 53 0.900000 0.038000 0.034000 1400 46 1.000000 2.675000 2.880000 600 60 1.000000 0.053000 0.053000 1.200000 0.025000 0.030000
1517411325617203419	300 53 0.900000 0.052000 0.047000 1400 46 1.000000 2.668000 2.873000 600 60 1.000000 0.053000 0.053000 1.200000 0.037000 0.044000
1517411326141153461	300 53 0.900000 0.053000 0.048000 1400 46 1.000000 2.665000 2.870000 600 60 1.000000 0.053000 0.053000 1.200000 0.046000 0.055000
1517411326665015836	300 53 0.900000 0.038000 0.034000 1400 46 1.000000 2.675000 2.880000 600 60 1.000000 0.053000 0.053000 1.200000 0.025000 0.030000
1517411327188844295	300 53 0.900000 0.038000 0.034000 1400 46 1.000000 2.674000 2.879000 600 60 1.000000 0.053000 0.053000 1.200000 0.025000 0.030000
1517411327714118586	300 53 0.900000 0.053000 0.048000 1400 46 1.000000 2.671000 2.876000 600 60 1.000000 0.053000 0.053000 1.200000 0.028000 0.033000
1517411328238256878	300 53 0.900000 0.038000 0.034000 1400 46 1.000000 2.652000 2.853000 600 60 1.000000 0.053000 0.053000 1.200000 0.026000 0.031000
1517411328761969420	300 53 0.900000 0.055000 0.050000 1400 46 1.000000 2.676000 2.882000 600 60 1.000000 0.053000 0.053000 1.200000 0.041000 0.049000
1517411329285509045	300 53 0.900000 0.038000 0.034000 1400 46 1.000000 2.676000 2.882000 600 60 1.000000 0.053000 0.053000 1.200000 0.026000 0.031000
1517411329809462753	300 53 0.900000 0.039000 0.035000 1400 46 1.000000 2.676000 2.882000 600 60 1.000000 0.053000 0.053000 1.200000 0.025000 0.030000
1517411330337850253	300 53 0.900000 0.038000 0.034000 1400 46 1.000000 2.675000 2.880000 600 60 1.000000 0.053000 0.053000 1.200000 0.026000 0.031000
1517411330861920253	300 53 0.900000 0.060000 0.054000 1400 46 1.000000 2.661000 2.865000 600 60 1.000000 0.053000 0.053000 1.200000 0.041000 0.049000
1517411331385542253	300 53 0.900000 0.038000 0.034000 1400 46 1.000000 2.672000 2.877000 600 60 1.000000 0.053000 0.053000 1.200000 0.025000 0.030000
1517411331909317087	300 53 0.900000 0.038000 0.034000 1400 46 1.000000 2.676000 2.882000 600 60 1.000000 0.053000 0.053000 1.200000 0.026000 0.031000
1517411332433057628	300 53 0.900000 0.037000 0.033000 1400 46 1.000000 2.674000 2.879000 600 60 1.000000 0.053000 0.053000 1.200000 0.029000 0.035000
1517411332958153504	300 53 0.900000 0.040000 0.036000 1400 46 1.000000 2.675000 2.880000 600 60 1.000000 0.053000 0.053000 1.200000 0.026000 0.031000
1517411333482452129	300 53 0.900000 0.051000 0.046000 1400 46 1.000000 2.655000 2.859000 600 60 1.000000 0.053000 0.053000 1.200000 0.046000 0.055000
1517411334006335129	300 53 0.900000 0.036000 0.032000 1400 46 1.000000 2.677000 2.883000 600 60 1.000000 0.053000 0.053000 1.200000 0.025000 0.030000
1517411334529993420	300 53 0.900000 0.055000 0.050000 1400 46 1.000000 2.672000 2.877000 600 60 1.000000 0.053000 0.053000 1.200000 0.034000 0.041000
1517411335053351462	300 53 0.900000 0.038000 0.034000 1400 46 1.000000 2.676000 2.882000 600 60 1.000000 0.053000 0.053000 1.200000 0.025000 0.030000
1517411335580077504	300 53 0.900000 0.041000 0.037000 1400 46 1.000000 2.674000 2.879000 600 60 1.000000 0.053000 0.053000 1.200000 0.030000 0.036000
1517411336104871921	300 53 0.900000 0.050000 0.045000 1400 46 1.000000 2.659000 2.863000 600 60 1.000000 0.053000 0.053000 1.200000 0.037000 0.044000
1517411336628600587	300 53 0.900000 0.055000 0.050000 1400 46 1.000000 2.669000 2.874000 600 60 1.000000 0.053000 0.053000 1.200000 0.036000 0.043000
1517411337151854921	300 53 0.900000 0.037000 0.033000 1400 46 1.000000 2.677000 2.883000 600 60 1.000000 0.053000 0.053000 1.200000 0.025000 0.030000
1517411337677075171	300 53 0.900000 0.038000 0.034000 1400 46 1.000000 2.676000 2.882000 600 60 1.000000 0.053000 0.053000 1.200000 0.025000 0.030000
1517411338201466171	300 53 0.900000 0.059000 0.053000 1400 46 1.000000 2.660000 2.864000 600 60 1.000000 0.053000 0.053000 1.200000 0.043000 0.051000
1517411338725591088	300 53 0.900000 0.055000 0.050000 1400 46 1.000000 2.671000 2.876000 600 60 1.000000 0.053000 0.053000 1.200000 0.034000 0.041000
1517411339249182671	300 53 0.900000 0.036000 0.032000 1400 46 1.000000 2.676000 2.882000 600 60 1.000000 0.053000 0.053000 1.200000 0.025000 0.030000
1517411339773040629	300 53 0.900000 0.036000 0.032000 1400 46 1.000000 2.675000 2.880000 600 60 1.000000 0.053000 0.053000 1.200000 0.025000 0.030000
1517411340297996129	300 53 0.900000 0.040000 0.036000 1400 46 1.000000 2.676000 2.882000 600 60 1.000000 0.053000 0.053000 1.200000 0.025000 0.030000
1517411340822219129	300 53 0.900000 0.059000 0.053000 1400 46 1.000000 2.653000 2.857000 600 60 1.000000 0.053000 0.053000 1.200000 0.048000 0.057000
1517411341345775963	300 53 0.900000 0.038000 0.034000 1400 46 1.000000 2.676000 2.882000 600 60 1.000000 0.053000 0.053000 1.200000 0.025000 0.030000
1517411341902630130	300 54 0.900000 0.037000 0.033000 1400 46 1.000000 2.676000 2.882000 600 60 1.000000 0.053000 0.053000 1.200000 0.026000 0.031000
1517411342428461338	300 54 0.900000 0.060000 0.054000 1400 46 1.000000 2.666000 2.871000 600 60 1.000000 0.053000 0.053000 1.200000 0.043000 0.051000
1517411342953837296	300 54 0.900000 0.061000 0.055000 1400 46 1.000000 2.664000 2.869000 600 60 1.000000 0.053000 0.053000 1.200000 0.046000 0.055000
1517411343478302838	300 53 0.900000 0.053000 0.048000 1400 46 1.000000 2.664000 2.869000 600 60 1.000000 0.053000 0.053000 1.200000 0.038000 0.045000
1517411344001691172	300 53 0.900000 0.037000 0.033000 1400 46 1.000000 2.677000 2.883000 600 60 1.000000 0.053000 0.053000 1.200000 0.025000 0.030000
1517411344525186422	300 53 0.900000 0.038000 0.034000 1400 46 1.000000 2.676000 2.882000 600 60 1.000000 0.053000 0.053000 1.200000 0.026000 0.031000
1517411345056836755	300 53 0.900000 0.038000 0.034000 1400 46 1.000000 2.675000 2.880000 600 60 1.000000 0.053000 0.053000 1.200000 0.025000 0.030000
1517411345580272380	300 54 0.900000 0.061000 0.055000 1400 46 1.000000 2.657000 2.861000 600 60 1.000000 0.053000 0.053000 1.200000 0.048000 0.057000
1517411346104065547	300 53 0.900000 0.036000 0.032000 1400 46 1.000000 2.675000 2.880000 600 60 1.000000 0.053000 0.053000 1.200000 0.026000 0.031000
1517411346627700422	300 53 0.900000 0.036000 0.032000 1400 46 1.000000 2.675000 2.880000 600 60 1.000000 0.053000 0.053000 1.200000 0.025000 0.030000
1517411347152880214	300 53 0.900000 0.038000 0.034000 1400 46 1.000000 2.676000 2.882000 600 60 1.000000 0.053000 0.053000 1.200000 0.026000 0.031000
1517411347679408672	300 53 0.900000 0.049000 0.044000 1400 46 1.000000 2.671000 2.876000 600 60 1.000000 0.053000 0.053000 1.200000 0.037000 0.044000
1517411348203675422	300 54 0.900000 0.060000 0.054000 1400 46 1.000000 2.655000 2.859000 600 60 1.000000 0.053000 0.053000 1.200000 0.046000 0.055000
1517411348727302839	300 53 0.900000 0.038000 0.034000 1400 46 1.000000 2.670000 2.875000 600 60 1.000000 0.053000 0.053000 1.200000 0.026000 0.031000
1517411349250686297	300 53 0.900000 0.037000 0.033000 1400 46 1.000000 2.662000 2.866000 600 55 1.000000 0.053000 0.053000 1.200000 0.025000 0.030000
1517411349774894589	300 47 0.900000 0.047000 0.043000 1400 45 1.000000 1.357000 1.453000 600 51 1.000000 0.053000 0.053000 1.200000 0.034000 0.041000
1517411350301633506	300 44 0.900000 0.042000 0.038000 1400 43 1.000000 0.195000 0.209000 600 49 1.000000 0.053000 0.053000 1.200000 0.030000 0.036000
1517411350825852047	300 48 0.900000 0.040000 0.036000 1400 43 1.000000 0.483000 0.518000 600 48 1.000000 0.052000 0.052000 1.200000 0.038000 0.045000
1517411351349597881	300 48 0.900000 0.016000 0.014000 1400 43 1.000000 0.961000 1.026000 600 48 1.000000 0.052000 0.052000 1.200000 0.033000 0.039000
1517411351873371089	300 43 0.900000 0.026000 0.023000 1400 42 1.000000 0.960000 1.025000 600 47 1.000000 0.052000 0.052000 1.200000 0.035000 0.042000
1517411352397089423	300 41 0.900000 0.020000 0.018000 1400 41 1.000000 0.177000 0.190000 600 45 1.000000 0.052000 0.052000 1.200000 0.028000 0.033000
