1576099432,5.006,0.804,4.027,0.000
1576099433,5.023,1.348,6.775,0.000
1576099434,5.023,1.347,6.771,0.000
1576099435,5.021,1.356,6.813,0.000
1576099436,5.021,1.371,6.886,0.000
1576099437,5.021,1.351,6.786,0.000
1576099438,5.021,1.358,6.825,0.000
1576099439,5.021,1.359,6.828,0.000
1576099440,5.021,1.361,6.840,0.000
1576099441,5.021,1.364,6.851,0.000
1576099442,5.021,1.365,6.859,0.000
1576099443,5.021,1.360,6.832,0.000
1576099444,5.021,1.363,6.851,0.000
1576099445,5.021,1.357,6.821,0.000
1576099446,5.021,1.356,6.813,0.000
1576099447,5.021,1.358,6.825,0.000
1576099448,5.023,1.356,6.813,0.000
1576099449,5.021,1.354,6.805,0.000
1576099450,5.021,1.359,6.828,0.000
1576099451,5.021,1.361,6.836,0.000
1576099452,5.021,1.354,6.802,0.000
1576099453,5.021,1.348,6.775,0.000
1576099454,5.021,1.353,6.798,0.000
1576099455,5.021,1.350,6.783,0.000
1576099456,5.021,1.351,6.786,0.000
1576099457,5.021,1.351,6.786,0.000
1576099458,5.023,1.362,6.844,0.000
1576099459,5.023,1.351,6.790,0.000
1576099460,5.021,1.348,6.771,0.000
1576099461,5.021,1.355,6.809,0.000
1576099462,5.023,1.351,6.790,0.000
1576099463,5.023,1.346,6.760,0.000
1576099464,5.021,1.350,6.783,0.000
1576099465,5.023,1.348,6.771,0.000
1576099466,5.023,1.356,6.813,0.000
1576099467,5.021,1.350,6.783,0.000
1576099468,5.023,1.344,6.756,0.000
1576099469,5.023,1.355,6.809,0.000
1576099470,5.021,1.345,6.760,0.000
1576099471,5.023,1.344,6.752,0.000
1576099472,5.023,1.356,6.813,0.000
1576099473,5.023,1.349,6.775,0.000
1576099474,5.025,1.297,6.519,0.000
1576099475,4.999,0.653,3.263,0.000
1576099476,4.999,0.661,3.302,0.000
1576099477,4.997,0.637,3.187,0.000
1576099478,4.999,0.664,3.324,0.000
1576099479,4.997,0.649,3.244,0.000
1576099480,4.997,0.636,3.183,0.000
1576099481,4.997,0.640,3.199,0.000
1576099482,4.999,0.653,3.267,0.000
1576099483,4.997,0.638,3.191,0.000
1576099484,4.999,0.653,3.263,0.000
1576099485,5.004,0.751,3.760,0.000
1576099486,5.009,0.869,4.355,0.000
1576099487,4.999,0.652,3.263,0.000
1576099488,5.001,0.714,3.573,0.000
1576099489,5.000,0.661,3.302,0.000
1576099490,4.999,0.674,3.374,0.000
1576099491,4.999,0.652,3.263,0.000
1576099492,4.999,0.654,3.271,0.000
1576099493,5.001,0.725,3.630,0.000
1576099494,5.003,0.794,3.973,0.000
1576099495,4.999,0.653,3.267,0.000
1576099496,4.999,0.653,3.263,0.000
1576099497,4.999,0.658,3.294,0.000
1576099498,4.999,0.657,3.283,0.000
1576099499,4.999,0.654,3.267,0.000
1576099500,4.999,0.651,3.256,0.000
1576099501,4.999,0.650,3.252,0.000
1576099502,4.999,0.651,3.256,0.000
1576099503,5.005,0.803,4.019,0.000
1576099504,5.006,0.804,4.023,0.000
1576099505,5.006,0.810,4.057,0.000
1576099506,5.007,0.810,4.057,0.000
1576099507,5.006,0.809,4.054,0.000
1576099508,5.007,0.809,4.050,0.000
1576099509,5.006,0.808,4.046,0.000
1576099510,5.007,0.837,4.195,0.000
1576099511,5.007,0.836,4.187,0.000
1576099512,5.009,0.840,4.210,0.000
1576099513,5.007,0.841,4.214,0.000
1576099514,5.009,0.840,4.206,0.000
1576099515,5.009,0.840,4.210,0.000
1576099516,5.009,0.840,4.210,0.000
1576099517,4.997,0.651,3.252,0.000
1576099518,5.000,0.666,3.336,0.000
1576099519,4.999,0.653,3.267,0.000
1576099520,4.999,0.651,3.256,0.000
1576099521,4.999,0.653,3.267,0.000
1576099522,5.009,0.838,4.199,0.000
1576099523,5.007,0.838,4.199,0.000
1576099524,5.009,0.838,4.199,0.000
1576099525,5.009,0.839,4.202,0.000
1576099526,5.009,0.839,4.202,0.000
1576099527,5.007,0.840,4.206,0.000
1576099528,5.009,0.840,4.206,0.000
1576099529,5.009,0.844,4.229,0.000
1576099530,5.009,0.839,4.202,0.000
1576099531,5.009,0.839,4.206,0.000
1576099532,5.009,0.841,4.214,0.000
1576099533,5.009,0.839,4.206,0.000
1576099534,5.009,0.839,4.202,0.000
1576099535,5.009,0.839,4.206,0.000
1576099536,5.009,0.840,4.206,0.000
1576099537,5.007,0.839,4.206,0.000
1576099538,5.009,0.835,4.183,0.000
1576099539,5.009,0.841,4.214,0.000
1576099540,5.009,0.840,4.206,0.000
1576099541,5.007,0.840,4.210,0.000
1576099542,5.009,0.839,4.202,0.000
1576099543,5.009,0.838,4.199,0.000
1576099544,5.009,0.838,4.199,0.000
1576099545,5.009,0.838,4.202,0.000
1576099546,4.999,0.643,3.218,0.000
1576099547,4.999,0.654,3.271,0.000
1576099548,4.999,0.652,3.260,0.000
1576099549,4.999,0.654,3.275,0.000
1576099550,4.999,0.652,3.260,0.000
1576099551,5.007,0.837,4.195,0.000
1576099552,5.009,0.837,4.195,0.000
1576099553,5.007,0.839,4.202,0.000
1576099554,5.009,0.838,4.199,0.000
1576099555,5.009,0.838,4.199,0.000
1576099556,5.009,0.837,4.199,0.000
1576099557,5.009,0.837,4.191,0.000
1576099558,5.009,0.838,4.199,0.000
1576099559,5.009,0.839,4.202,0.000
1576099560,5.009,0.839,4.206,0.000
1576099561,5.009,0.837,4.191,0.000
1576099562,5.009,0.839,4.202,0.000
1576099563,5.009,0.839,4.202,0.000
1576099564,5.009,0.839,4.202,0.000
1576099565,5.007,0.838,4.199,0.000
1576099566,5.007,0.837,4.191,0.000
1576099567,5.009,0.837,4.191,0.000
1576099568,5.009,0.837,4.195,0.000
1576099569,5.009,0.837,4.195,0.000
1576099570,5.009,0.838,4.199,0.000
1576099571,5.009,0.839,4.202,0.000
1576099572,5.009,0.838,4.199,0.000
1576099573,5.009,0.838,4.202,0.000
1576099574,5.009,0.838,4.199,0.000
1576099575,5.009,0.839,4.206,0.000
1576099576,5.009,0.839,4.202,0.000
1576099577,5.009,0.839,4.202,0.000
1576099578,5.009,0.839,4.202,0.000
1576099579,5.009,0.838,4.199,0.000
1576099580,5.009,0.838,4.199,0.000
1576099581,5.010,0.838,4.199,0.000
1576099582,5.010,0.838,4.199,0.000
1576099583,5.009,0.837,4.195,0.000
1576099584,5.009,0.839,4.202,0.000
1576099585,5.009,0.843,4.221,0.000
1576099586,5.009,0.838,4.199,0.000
1576099587,5.009,0.837,4.195,0.000
1576099588,5.009,0.838,4.199,0.000
1576099589,5.010,0.837,4.195,0.000
1576099590,5.009,0.837,4.195,0.000
1576099591,5.009,0.837,4.195,0.000
1576099592,5.007,0.838,4.195,0.000
1576099593,5.009,0.837,4.195,0.000
1576099594,5.009,0.837,4.195,0.000
1576099595,5.009,0.838,4.199,0.000
1576099596,5.007,0.837,4.195,0.000
1576099597,5.009,0.838,4.199,0.000
1576099598,5.009,0.837,4.195,0.000
1576099599,5.007,0.837,4.191,0.000
1576099600,5.009,0.837,4.195,0.000
1576099601,5.009,0.836,4.191,0.000
1576099602,5.009,0.837,4.191,0.000
1576099603,5.010,0.836,4.191,0.000
1576099604,5.009,0.837,4.195,0.000
1576099605,5.010,0.837,4.195,0.000
1576099606,5.009,0.838,4.199,0.000
1576099607,5.009,0.837,4.195,0.000
1576099608,5.009,0.838,4.199,0.000
1576099609,5.010,0.838,4.199,0.000
1576099610,5.009,0.838,4.199,0.000
1576099611,5.009,0.838,4.199,0.000
1576099612,5.009,0.837,4.195,0.000
1576099613,5.009,0.837,4.199,0.000
1576099614,5.009,0.838,4.199,0.000
1576099615,5.009,0.837,4.195,0.000
1576099616,5.009,0.841,4.214,0.000
1576099617,5.009,0.838,4.199,0.000
1576099618,5.009,0.838,4.199,0.000
1576099619,5.009,0.838,4.202,0.000
1576099620,5.009,0.838,4.199,0.000
1576099621,5.009,0.839,4.206,0.000
1576099622,5.009,0.838,4.202,0.000
1576099623,5.009,0.837,4.195,0.000
1576099624,5.009,0.837,4.191,0.000
1576099625,5.009,0.837,4.195,0.000
1576099626,5.009,0.837,4.191,0.000
1576099627,5.009,0.836,4.191,0.000
1576099628,5.009,0.838,4.199,0.000
1576099629,5.009,0.837,4.195,0.000
1576099630,5.009,0.838,4.202,0.000
1576099631,5.009,0.838,4.202,0.000
1576099632,5.009,0.838,4.199,0.000
1576099633,5.009,0.837,4.195,0.000
1576099634,5.009,0.838,4.199,0.000
1576099635,5.009,0.837,4.195,0.000
1576099636,5.009,0.837,4.195,0.000
1576099637,5.010,0.837,4.195,0.000
1576099638,5.009,0.838,4.199,0.000
1576099639,5.009,0.838,4.202,0.000
1576099640,5.009,0.839,4.206,0.000
1576099641,5.009,0.838,4.202,0.000
1576099642,5.009,0.838,4.199,0.000
1576099643,5.009,0.838,4.202,0.000
1576099644,5.009,0.839,4.202,0.000
1576099645,5.010,0.838,4.202,0.000
1576099646,5.009,0.838,4.199,0.000
1576099647,5.009,0.837,4.195,0.000
1576099648,5.009,0.837,4.195,0.000
1576099649,5.009,0.837,4.195,0.000
1576099650,5.009,0.839,4.206,0.000
1576099651,5.009,0.838,4.199,0.000
1576099652,5.009,0.837,4.199,0.000
1576099653,5.009,0.838,4.202,0.000
1576099654,5.009,0.837,4.195,0.000
1576099655,5.009,0.838,4.199,0.000
1576099656,5.009,0.838,4.202,0.000
1576099657,5.010,0.843,4.221,0.000
1576099658,5.010,0.839,4.206,0.000
1576099659,5.001,0.677,3.389,0.000
1576099660,5.026,1.162,5.844,0.000
1576099661,5.026,1.172,5.897,0.000
1576099662,5.026,1.170,5.882,0.000
1576099663,5.021,1.323,6.645,0.000
1576099664,5.024,1.316,6.615,0.000
1576099665,5.025,1.340,6.737,0.000
1576099666,5.026,1.177,5.920,0.000
1576099667,5.023,1.347,6.767,0.000
1576099668,5.021,1.377,6.920,0.000
1576099669,5.023,1.342,6.741,0.000
1576099670,5.026,1.186,5.970,0.000
1576099671,5.026,1.184,5.958,0.000
1576099672,5.023,1.352,6.794,0.000
1576099673,5.026,1.187,5.970,0.000
1576099674,5.024,1.332,6.695,0.000
1576099675,5.027,1.199,6.031,0.000
1576099676,5.014,0.925,4.641,0.000
