#Timestamp	CPU(0) Frequency(MHz)	CPU(0) Temperature(C)	A7 Voltage(V)	A7 Current(A)	A7 Power(W)	CPU(4) Frequency(MHz)	CPU(4) Temperature(C)	A15 Voltage(V)	A15 Current(A)	A15 Power(W)	GPU Frequency(MHz)	GPU Temperature(C)	GPU Voltage(V)	GPU Current(A)	GPU Power(W)	RAM Voltage(V)	RAM Current(A)	RAM Power(W)
1559767540531944162	900 30 1.000000 0.096000 0.101000 800 29 0.900000 0.262000 0.242000 600 34 1.000000 0.050000 0.050000 1.200000 0.041000 0.049000
1559767541040534246	900 30 1.000000 0.108000 0.114000 800 30 0.900000 0.104000 0.096000 600 34 1.000000 0.050000 0.050000 1.200000 0.040000 0.048000
1559767541549083162	900 30 1.000000 0.106000 0.112000 800 30 0.900000 0.101000 0.093000 600 34 1.000000 0.050000 0.050000 1.200000 0.041000 0.049000
1559767542057543954	900 30 1.000000 0.106000 0.112000 800 29 0.900000 0.112000 0.103000 600 34 1.000000 0.050000 0.050000 1.200000 0.039000 0.047000
1559767542565904246	900 30 1.000000 0.106000 0.112000 800 30 0.900000 0.097000 0.089000 600 34 1.000000 0.050000 0.050000 1.200000 0.039000 0.047000
1559767543074372371	900 31 1.000000 0.106000 0.112000 800 30 0.900000 0.101000 0.093000 600 34 1.000000 0.050000 0.050000 1.200000 0.030000 0.036000
1559767543583252079	900 30 1.000000 0.120000 0.127000 800 30 0.900000 0.148000 0.137000 600 34 1.000000 0.050000 0.050000 1.200000 0.029000 0.035000
1559767544091762954	900 30 1.000000 0.115000 0.122000 800 29 0.900000 0.083000 0.076000 600 34 1.000000 0.050000 0.050000 1.200000 0.025000 0.030000
1559767544600210788	900 30 1.000000 0.114000 0.121000 800 29 0.900000 0.095000 0.087000 600 34 1.000000 0.050000 0.050000 1.200000 0.024000 0.029000
1559767545109337829	900 31 1.000000 0.114000 0.120000 800 30 0.900000 0.092000 0.085000 600 34 1.000000 0.050000 0.050000 1.200000 0.024000 0.029000
1559767545618391371	900 30 1.000000 0.119000 0.126000 800 30 0.900000 0.241000 0.223000 600 34 1.000000 0.050000 0.050000 1.200000 0.029000 0.035000
1559767546127093038	900 30 1.000000 0.115000 0.122000 800 30 0.900000 0.083000 0.076000 600 34 1.000000 0.050000 0.050000 1.200000 0.024000 0.029000
1559767546635479038	900 30 1.000000 0.114000 0.121000 800 30 0.900000 0.081000 0.075000 600 34 1.000000 0.050000 0.050000 1.200000 0.025000 0.030000
1559767547143889746	900 30 1.000000 0.114000 0.121000 800 30 0.900000 0.079000 0.073000 600 34 1.000000 0.050000 0.050000 1.200000 0.024000 0.029000
1559767547652645246	900 30 1.000000 0.120000 0.127000 800 30 0.900000 0.288000 0.266000 600 34 1.000000 0.050000 0.050000 1.200000 0.031000 0.037000
1559767548161214121	900 30 1.000000 0.115000 0.122000 800 29 0.900000 0.088000 0.081000 600 34 1.000000 0.050000 0.050000 1.200000 0.025000 0.030000
1559767548669609705	900 30 1.000000 0.114000 0.121000 800 29 0.900000 0.091000 0.084000 600 34 1.000000 0.050000 0.050000 1.200000 0.025000 0.030000
1559767549177996247	900 30 1.000000 0.115000 0.122000 800 29 0.900000 0.098000 0.090000 600 34 1.000000 0.050000 0.050000 1.200000 0.025000 0.030000
1559767549686597538	900 30 1.000000 0.114000 0.121000 800 30 0.900000 0.090000 0.083000 600 34 1.000000 0.050000 0.050000 1.200000 0.030000 0.036000
1559767550195193455	900 30 1.000000 0.116000 0.123000 800 30 0.900000 0.095000 0.087000 600 34 1.000000 0.050000 0.050000 1.200000 0.025000 0.030000
1559767550703565747	900 30 1.000000 0.114000 0.121000 800 30 0.900000 0.096000 0.088000 600 34 1.000000 0.051000 0.051000 1.200000 0.025000 0.030000
1559767551211944330	900 30 1.000000 0.115000 0.122000 800 30 0.900000 0.086000 0.079000 600 34 1.000000 0.050000 0.050000 1.200000 0.024000 0.029000
1559767551720609413	900 31 1.000000 0.115000 0.122000 800 30 0.900000 0.081000 0.075000 600 34 1.000000 0.050000 0.050000 1.200000 0.030000 0.036000
1559767552229164455	900 30 1.000000 0.115000 0.122000 800 30 0.900000 0.081000 0.075000 600 34 1.000000 0.050000 0.050000 1.200000 0.024000 0.029000
1559767552737503830	900 30 1.000000 0.114000 0.121000 800 29 0.900000 0.081000 0.075000 600 34 1.000000 0.050000 0.050000 1.200000 0.024000 0.029000
1559767553245823497	900 30 1.000000 0.114000 0.120000 800 30 0.900000 0.083000 0.076000 600 34 1.000000 0.050000 0.050000 1.200000 0.024000 0.029000
1559767553755114247	900 31 1.000000 0.115000 0.122000 800 30 0.900000 0.122000 0.112000 600 34 1.000000 0.050000 0.050000 1.200000 0.029000 0.035000
1559767554263962872	900 30 1.000000 0.114000 0.120000 800 29 0.900000 0.081000 0.075000 600 34 1.000000 0.050000 0.050000 1.200000 0.025000 0.030000
1559767554772732872	900 30 1.000000 0.115000 0.122000 800 30 0.900000 0.096000 0.088000 600 34 1.000000 0.051000 0.051000 1.200000 0.025000 0.030000
1559767555281260372	900 30 1.000000 0.115000 0.122000 800 29 0.900000 0.084000 0.077000 600 34 1.000000 0.050000 0.050000 1.200000 0.025000 0.030000
1559767555789940997	900 30 1.000000 0.115000 0.122000 800 29 0.900000 0.095000 0.087000 600 34 1.000000 0.050000 0.050000 1.200000 0.025000 0.030000
1559767556298564331	900 30 1.000000 0.114000 0.121000 800 30 0.900000 0.230000 0.212000 600 34 1.000000 0.050000 0.050000 1.200000 0.036000 0.043000
1559767556807230581	900 30 1.000000 0.114000 0.121000 800 30 0.900000 0.083000 0.076000 600 34 1.000000 0.050000 0.050000 1.200000 0.024000 0.029000
1559767557315680331	900 30 1.000000 0.115000 0.122000 800 30 0.900000 0.095000 0.087000 600 34 1.000000 0.050000 0.050000 1.200000 0.024000 0.029000
1559767557824248831	900 30 1.000000 0.114000 0.120000 800 30 0.900000 0.081000 0.075000 600 34 1.000000 0.050000 0.050000 1.200000 0.025000 0.030000
1559767558332828873	900 30 1.000000 0.115000 0.122000 800 30 0.900000 0.172000 0.159000 600 34 1.000000 0.050000 0.050000 1.200000 0.029000 0.035000
1559767558841320373	900 30 1.000000 0.114000 0.121000 800 30 0.900000 0.081000 0.075000 600 34 1.000000 0.050000 0.050000 1.200000 0.026000 0.031000
1559767559349753706	900 30 1.000000 0.115000 0.122000 800 30 0.900000 0.081000 0.075000 600 34 1.000000 0.050000 0.050000 1.200000 0.026000 0.031000
1559767559858451706	900 30 1.000000 0.114000 0.120000 800 30 0.900000 0.081000 0.075000 600 34 1.000000 0.050000 0.050000 1.200000 0.024000 0.029000
1559767560367792623	900 31 1.000000 0.116000 0.123000 800 30 0.900000 0.117000 0.108000 600 34 1.000000 0.050000 0.050000 1.200000 0.028000 0.033000
1559767560876502831	900 30 1.000000 0.115000 0.122000 800 30 0.900000 0.083000 0.076000 600 34 1.000000 0.050000 0.050000 1.200000 0.029000 0.035000
1559767561384886873	900 30 1.000000 0.115000 0.122000 800 29 0.900000 0.081000 0.075000 600 34 1.000000 0.050000 0.050000 1.200000 0.025000 0.030000
1559767561894135040	900 31 1.000000 0.115000 0.122000 800 29 0.900000 0.096000 0.088000 600 34 1.000000 0.050000 0.050000 1.200000 0.025000 0.030000
1559767562403522498	900 30 1.000000 0.115000 0.122000 800 30 0.900000 0.166000 0.153000 600 34 1.000000 0.050000 0.050000 1.200000 0.030000 0.036000
1559767562912355081	900 30 1.000000 0.117000 0.124000 800 30 0.900000 0.263000 0.243000 600 34 1.000000 0.050000 0.050000 1.200000 0.029000 0.035000
1559767563420799248	900 30 1.000000 0.115000 0.122000 800 30 0.900000 0.099000 0.091000 600 34 1.000000 0.050000 0.050000 1.200000 0.025000 0.030000
1559767563929747290	900 31 1.000000 0.116000 0.123000 800 30 0.900000 0.081000 0.075000 600 34 1.000000 0.050000 0.050000 1.200000 0.026000 0.031000
1559767564438692832	900 30 1.000000 0.115000 0.122000 800 30 0.900000 0.084000 0.077000 600 34 1.000000 0.050000 0.050000 1.200000 0.029000 0.035000
1559767564947409957	900 30 1.000000 0.119000 0.126000 800 30 0.900000 0.270000 0.250000 600 34 1.000000 0.050000 0.050000 1.200000 0.026000 0.031000
1559767565455871915	900 30 1.000000 0.114000 0.121000 800 30 0.900000 0.082000 0.075000 600 34 1.000000 0.050000 0.050000 1.200000 0.025000 0.030000
1559767565964238749	900 30 1.000000 0.114000 0.120000 800 30 0.900000 0.083000 0.076000 600 34 1.000000 0.050000 0.050000 1.200000 0.024000 0.029000
1559767566472955290	900 30 1.000000 0.115000 0.122000 800 30 0.900000 0.081000 0.075000 600 34 1.000000 0.050000 0.050000 1.200000 0.029000 0.035000
1559767566981589874	900 30 1.000000 0.121000 0.128000 800 30 0.900000 0.257000 0.237000 600 34 1.000000 0.050000 0.050000 1.200000 0.026000 0.031000
1559767567490051582	900 30 1.000000 0.114000 0.120000 800 30 0.900000 0.080000 0.074000 600 34 1.000000 0.050000 0.050000 1.200000 0.025000 0.030000
1559767567998504957	900 30 1.000000 0.114000 0.121000 800 30 0.900000 0.083000 0.076000 600 34 1.000000 0.050000 0.050000 1.200000 0.024000 0.029000
1559767568507262749	900 30 1.000000 0.114000 0.121000 800 30 0.900000 0.082000 0.075000 600 34 1.000000 0.050000 0.050000 1.200000 0.029000 0.035000
1559767569016637916	900 31 1.000000 0.114000 0.121000 800 30 0.900000 0.082000 0.075000 600 34 1.000000 0.050000 0.050000 1.200000 0.024000 0.029000
1559767569525527582	900 30 1.000000 0.122000 0.129000 800 30 0.900000 0.200000 0.185000 600 34 1.000000 0.050000 0.050000 1.200000 0.037000 0.044000
1559767570034028207	900 30 1.000000 0.115000 0.122000 800 30 0.900000 0.090000 0.083000 600 34 1.000000 0.050000 0.050000 1.200000 0.025000 0.030000
1559767570542822832	900 30 1.000000 0.114000 0.120000 800 30 0.900000 0.098000 0.090000 600 34 1.000000 0.050000 0.050000 1.200000 0.028000 0.033000
1559767571051293374	900 30 1.000000 0.114000 0.121000 800 30 0.900000 0.088000 0.081000 600 34 1.000000 0.050000 0.050000 1.200000 0.025000 0.030000
1559767571560065624	900 30 1.000000 0.123000 0.130000 800 30 0.900000 0.166000 0.153000 600 34 1.000000 0.051000 0.051000 1.200000 0.034000 0.041000
1559767572068746958	900 30 1.000000 0.114000 0.121000 800 30 0.900000 0.103000 0.095000 600 34 1.000000 0.050000 0.050000 1.200000 0.025000 0.030000
1559767572577528499	900 30 1.000000 0.115000 0.122000 800 30 0.900000 0.124000 0.114000 600 34 1.000000 0.050000 0.050000 1.200000 0.030000 0.036000
1559767573086173166	900 30 1.000000 0.114000 0.121000 800 30 0.900000 0.099000 0.091000 600 34 1.000000 0.050000 0.050000 1.200000 0.025000 0.030000
1559767573594880791	900 30 1.000000 0.123000 0.130000 800 30 0.900000 0.115000 0.106000 600 34 1.000000 0.050000 0.050000 1.200000 0.031000 0.037000
1559767574103384124	900 30 1.000000 0.115000 0.122000 800 30 0.900000 0.086000 0.079000 600 34 1.000000 0.050000 0.050000 1.200000 0.024000 0.029000
1559767574612042125	900 30 1.000000 0.114000 0.121000 800 30 0.900000 0.180000 0.166000 600 34 1.000000 0.050000 0.050000 1.200000 0.029000 0.035000
1559767575120739958	900 30 1.000000 0.115000 0.122000 800 30 0.900000 0.089000 0.082000 600 34 1.000000 0.050000 0.050000 1.200000 0.024000 0.029000
1559767575629275708	900 31 1.000000 0.114000 0.121000 800 30 0.900000 0.083000 0.076000 600 34 1.000000 0.050000 0.050000 1.200000 0.028000 0.033000
1559767576137886541	900 30 1.000000 0.124000 0.131000 800 30 0.900000 0.280000 0.259000 600 34 1.000000 0.050000 0.050000 1.200000 0.032000 0.038000
1559767576646723083	900 30 1.000000 0.115000 0.122000 800 30 0.900000 0.085000 0.078000 600 34 1.000000 0.050000 0.050000 1.200000 0.025000 0.030000
1559767577155278542	900 30 1.000000 0.115000 0.122000 800 30 0.900000 0.091000 0.084000 600 34 1.000000 0.050000 0.050000 1.200000 0.025000 0.030000
1559767577664210583	900 31 1.000000 0.114000 0.120000 800 30 0.900000 0.096000 0.088000 600 34 1.000000 0.050000 0.050000 1.200000 0.025000 0.030000
1559767578172821083	900 30 1.000000 0.123000 0.130000 800 30 0.900000 0.260000 0.240000 600 34 1.000000 0.050000 0.050000 1.200000 0.035000 0.042000
1559767578681460167	900 30 1.000000 0.114000 0.121000 800 30 0.900000 0.098000 0.090000 600 34 1.000000 0.050000 0.050000 1.200000 0.026000 0.031000
1559767579190006792	900 30 1.000000 0.115000 0.122000 800 30 0.900000 0.093000 0.086000 600 34 1.000000 0.050000 0.050000 1.200000 0.025000 0.030000
1559767579698400750	900 30 1.000000 0.114000 0.120000 800 30 0.900000 0.083000 0.076000 600 34 1.000000 0.050000 0.050000 1.200000 0.025000 0.030000
1559767580207065209	900 30 1.000000 0.122000 0.129000 800 30 0.900000 0.260000 0.240000 600 34 1.000000 0.050000 0.050000 1.200000 0.036000 0.043000
1559767580715739625	900 30 1.000000 0.115000 0.122000 800 30 0.900000 0.092000 0.085000 600 34 1.000000 0.050000 0.050000 1.200000 0.029000 0.035000
1559767581224303167	900 30 1.000000 0.115000 0.122000 800 30 0.900000 0.088000 0.081000 600 34 1.000000 0.050000 0.050000 1.200000 0.025000 0.030000
1559767581732912000	900 30 1.000000 0.115000 0.122000 800 30 0.900000 0.081000 0.075000 600 34 1.000000 0.050000 0.050000 1.200000 0.024000 0.029000
1559767582241547459	900 31 1.000000 0.118000 0.125000 800 30 0.900000 0.196000 0.181000 600 34 1.000000 0.050000 0.050000 1.200000 0.035000 0.042000
1559767582750223042	900 31 1.000000 0.115000 0.122000 800 30 0.900000 0.153000 0.141000 600 34 1.000000 0.050000 0.050000 1.200000 0.029000 0.035000
1559767583259019459	900 30 1.000000 0.115000 0.122000 800 30 0.900000 0.110000 0.101000 600 34 1.000000 0.050000 0.050000 1.200000 0.025000 0.030000
1559767583767502709	900 30 1.000000 0.114000 0.121000 800 30 0.900000 0.084000 0.077000 600 34 1.000000 0.050000 0.050000 1.200000 0.024000 0.029000
1559767584276021459	900 31 1.000000 0.114000 0.120000 800 30 0.900000 0.093000 0.086000 600 34 1.000000 0.051000 0.051000 1.200000 0.025000 0.030000
1559767584784589459	900 31 1.000000 0.118000 0.125000 800 30 0.900000 0.210000 0.194000 600 34 1.000000 0.050000 0.050000 1.200000 0.028000 0.033000
1559767585293109626	900 30 1.000000 0.115000 0.122000 800 30 0.900000 0.085000 0.078000 600 34 1.000000 0.050000 0.050000 1.200000 0.025000 0.030000
1559767585801496001	900 30 1.000000 0.115000 0.122000 800 30 0.900000 0.100000 0.092000 600 34 1.000000 0.050000 0.050000 1.200000 0.025000 0.030000
1559767586310489876	900 31 1.000000 0.114000 0.120000 800 30 0.900000 0.090000 0.083000 600 34 1.000000 0.050000 0.050000 1.200000 0.024000 0.029000
1559767586819439043	900 31 1.000000 0.117000 0.124000 800 30 0.900000 0.243000 0.224000 600 34 1.000000 0.050000 0.050000 1.200000 0.031000 0.037000
1559767587327897126	900 30 1.000000 0.115000 0.122000 800 30 0.900000 0.100000 0.092000 600 34 1.000000 0.050000 0.050000 1.200000 0.024000 0.029000
1559767587836389668	900 30 1.000000 0.115000 0.122000 800 30 0.900000 0.083000 0.076000 600 34 1.000000 0.050000 0.050000 1.200000 0.025000 0.030000
1559767588344924835	900 30 1.000000 0.115000 0.122000 800 30 0.900000 0.082000 0.075000 600 34 1.000000 0.050000 0.050000 1.200000 0.024000 0.029000
1559767588853641918	900 31 1.000000 0.124000 0.131000 800 30 0.900000 0.250000 0.231000 600 34 1.000000 0.050000 0.050000 1.200000 0.036000 0.043000
1559767589362129710	900 30 1.000000 0.114000 0.120000 800 30 0.900000 0.079000 0.073000 600 34 1.000000 0.050000 0.050000 1.200000 0.024000 0.029000
1559767589870558501	900 31 1.000000 0.115000 0.122000 800 30 0.900000 0.081000 0.075000 600 34 1.000000 0.050000 0.050000 1.200000 0.024000 0.029000
1559767590378960418	900 30 1.000000 0.115000 0.122000 800 30 0.900000 0.096000 0.088000 600 34 1.000000 0.050000 0.050000 1.200000 0.025000 0.030000
1559767590887587085	900 31 1.000000 0.115000 0.122000 800 30 0.900000 0.084000 0.077000 600 34 1.000000 0.051000 0.051000 1.200000 0.025000 0.030000
1559767591396009085	900 30 1.000000 0.114000 0.121000 800 30 0.900000 0.143000 0.132000 600 34 1.000000 0.050000 0.050000 1.200000 0.025000 0.030000
1559767591904467377	900 30 1.000000 0.115000 0.122000 800 30 0.900000 0.090000 0.083000 600 34 1.000000 0.050000 0.050000 1.200000 0.025000 0.030000
1559767592412775252	900 31 1.000000 0.115000 0.122000 800 30 0.900000 0.088000 0.081000 600 34 1.000000 0.051000 0.051000 1.200000 0.024000 0.029000
1559767592921969043	900 31 1.000000 0.114000 0.121000 800 30 0.900000 0.103000 0.095000 600 35 1.000000 0.050000 0.050000 1.200000 0.025000 0.030000
1559767593430696252	900 31 1.000000 0.115000 0.122000 800 30 0.900000 0.120000 0.111000 600 34 1.000000 0.050000 0.050000 1.200000 0.025000 0.030000
1559767593939258169	900 31 1.000000 0.115000 0.122000 800 30 0.900000 0.081000 0.075000 600 34 1.000000 0.050000 0.050000 1.200000 0.024000 0.028000
1559767594447547794	900 30 1.000000 0.115000 0.122000 800 30 0.900000 0.079000 0.073000 600 34 1.000000 0.050000 0.050000 1.200000 0.024000 0.028000
1559767594957071960	900 31 1.000000 0.114000 0.121000 800 30 0.900000 0.081000 0.075000 600 34 1.000000 0.050000 0.050000 1.200000 0.024000 0.029000
1559767595466037419	900 31 1.000000 0.124000 0.131000 800 30 0.900000 0.163000 0.150000 600 34 1.000000 0.050000 0.050000 1.200000 0.026000 0.031000
1559767595974422002	900 30 1.000000 0.114000 0.121000 800 30 0.900000 0.081000 0.075000 600 34 1.000000 0.050000 0.050000 1.200000 0.024000 0.028000
1559767596482869044	900 31 1.000000 0.115000 0.122000 800 30 0.900000 0.079000 0.073000 600 34 1.000000 0.050000 0.050000 1.200000 0.024000 0.029000
1559767596991758502	900 31 1.000000 0.115000 0.122000 800 30 0.900000 0.081000 0.075000 600 34 1.000000 0.050000 0.050000 1.200000 0.025000 0.030000
1559767597500505669	900 31 1.000000 0.116000 0.123000 800 30 0.900000 0.226000 0.209000 600 34 1.000000 0.050000 0.050000 1.200000 0.037000 0.044000
1559767598008993294	900 31 1.000000 0.115000 0.122000 800 30 0.900000 0.087000 0.080000 600 34 1.000000 0.050000 0.050000 1.200000 0.025000 0.030000
1559767598517368794	900 30 1.000000 0.114000 0.120000 800 30 0.900000 0.098000 0.090000 600 34 1.000000 0.050000 0.050000 1.200000 0.025000 0.030000
1559767599025785752	900 31 1.000000 0.115000 0.122000 800 30 0.900000 0.089000 0.082000 600 34 1.000000 0.050000 0.050000 1.200000 0.024000 0.029000
1559767599534434669	900 31 1.000000 0.116000 0.123000 800 30 0.900000 0.163000 0.150000 600 35 1.000000 0.050000 0.050000 1.200000 0.028000 0.033000
1559767600043026086	900 31 1.000000 0.121000 0.128000 800 30 0.900000 0.082000 0.075000 600 34 1.000000 0.050000 0.050000 1.200000 0.032000 0.038000
1559767600551523003	900 31 1.000000 0.114000 0.120000 800 30 0.900000 0.083000 0.076000 600 34 1.000000 0.050000 0.050000 1.200000 0.025000 0.030000
1559767601059863753	900 31 1.000000 0.115000 0.122000 800 30 0.900000 0.081000 0.075000 600 34 1.000000 0.050000 0.050000 1.200000 0.024000 0.029000
1559767601569032253	900 31 1.000000 0.115000 0.122000 800 30 0.900000 0.102000 0.094000 600 34 1.000000 0.050000 0.050000 1.200000 0.029000 0.035000
1559767602077816128	900 31 1.000000 0.118000 0.125000 800 30 0.900000 0.081000 0.075000 600 34 1.000000 0.050000 0.050000 1.200000 0.035000 0.042000
1559767602586401670	900 31 1.000000 0.114000 0.120000 800 30 0.900000 0.083000 0.076000 600 34 1.000000 0.050000 0.050000 1.200000 0.025000 0.030000
1559767603095072045	900 31 1.000000 0.115000 0.122000 800 30 0.900000 0.081000 0.075000 600 34 1.000000 0.050000 0.050000 1.200000 0.025000 0.030000
1559767603603859211	900 31 1.000000 0.115000 0.122000 800 30 0.900000 0.081000 0.075000 600 34 1.000000 0.050000 0.050000 1.200000 0.029000 0.035000
1559767604112495503	900 31 1.000000 0.119000 0.126000 800 30 0.900000 0.083000 0.076000 600 34 1.000000 0.050000 0.050000 1.200000 0.036000 0.043000
1559767604621125045	900 31 1.000000 0.115000 0.122000 800 30 0.900000 0.092000 0.085000 600 34 1.000000 0.050000 0.050000 1.200000 0.026000 0.031000
1559767605129560587	900 31 1.000000 0.114000 0.121000 800 30 0.900000 0.089000 0.082000 600 34 1.000000 0.050000 0.050000 1.200000 0.025000 0.030000
1559767605638237003	900 31 1.000000 0.115000 0.122000 800 30 0.900000 0.166000 0.153000 600 34 1.000000 0.050000 0.050000 1.200000 0.025000 0.030000
1559767606147008712	900 31 1.000000 0.121000 0.128000 800 30 0.900000 0.223000 0.206000 600 34 1.000000 0.050000 0.050000 1.200000 0.026000 0.031000
1559767606655468878	900 31 1.000000 0.116000 0.123000 800 30 0.900000 0.080000 0.074000 600 34 1.000000 0.051000 0.051000 1.200000 0.025000 0.030000
1559767607163790420	900 31 1.000000 0.115000 0.122000 800 30 0.900000 0.081000 0.075000 600 34 1.000000 0.050000 0.050000 1.200000 0.024000 0.029000
1559767607672394878	900 31 1.000000 0.115000 0.122000 800 30 0.900000 0.167000 0.154000 600 34 1.000000 0.050000 0.050000 1.200000 0.026000 0.031000
1559767608180922962	900 31 1.000000 0.115000 0.122000 800 30 0.900000 0.169000 0.156000 600 35 1.000000 0.050000 0.050000 1.200000 0.025000 0.030000
1559767608689251504	900 31 1.000000 0.115000 0.122000 800 30 0.900000 0.180000 0.166000 600 34 1.000000 0.050000 0.050000 1.200000 0.027000 0.032000
1559767609197602420	900 31 1.000000 0.115000 0.122000 800 30 0.900000 0.083000 0.076000 600 34 1.000000 0.050000 0.050000 1.200000 0.025000 0.030000
1559767609706327837	900 31 1.000000 0.115000 0.122000 800 30 0.900000 0.119000 0.110000 600 34 1.000000 0.050000 0.050000 1.200000 0.029000 0.035000
1559767610215550879	900 31 1.000000 0.115000 0.122000 800 30 0.900000 0.094000 0.087000 600 34 1.000000 0.050000 0.050000 1.200000 0.025000 0.030000
1559767610724207796	900 31 1.000000 0.115000 0.122000 800 30 0.900000 0.229000 0.211000 600 34 1.000000 0.050000 0.050000 1.200000 0.030000 0.036000
1559767611233516379	900 31 1.000000 0.115000 0.122000 800 30 0.900000 0.080000 0.074000 600 34 1.000000 0.050000 0.050000 1.200000 0.025000 0.030000
1559767611742088587	900 31 1.000000 0.116000 0.123000 800 30 0.900000 0.087000 0.080000 600 34 1.000000 0.050000 0.050000 1.200000 0.026000 0.031000
1559767612250521712	900 31 1.000000 0.115000 0.122000 800 30 0.900000 0.090000 0.083000 600 34 1.000000 0.050000 0.050000 1.200000 0.025000 0.030000
1559767612759126046	900 31 1.000000 0.115000 0.122000 800 30 0.900000 0.101000 0.093000 600 34 1.000000 0.050000 0.050000 1.200000 0.028000 0.033000
1559767613267623254	900 31 1.000000 0.114000 0.120000 800 30 0.900000 0.087000 0.080000 600 35 1.000000 0.050000 0.050000 1.200000 0.026000 0.031000
1559767613776111879	900 31 1.000000 0.115000 0.122000 800 30 0.900000 0.092000 0.085000 600 34 1.000000 0.050000 0.050000 1.200000 0.026000 0.031000
1559767614284687504	900 31 1.000000 0.115000 0.122000 800 30 0.900000 0.096000 0.088000 600 34 1.000000 0.050000 0.050000 1.200000 0.025000 0.030000
1559767614793277963	900 31 1.000000 0.114000 0.120000 800 30 0.900000 0.084000 0.077000 600 35 1.000000 0.050000 0.050000 1.200000 0.026000 0.031000
1559767615301881171	900 31 1.000000 0.115000 0.122000 800 30 0.900000 0.099000 0.091000 600 35 1.000000 0.050000 0.050000 1.200000 0.025000 0.030000
1559767615810615129	900 31 1.000000 0.115000 0.122000 800 30 0.900000 0.093000 0.086000 600 35 1.000000 0.050000 0.050000 1.200000 0.024000 0.028000
1559767616319251213	900 31 1.000000 0.115000 0.122000 800 30 0.900000 0.086000 0.079000 600 34 1.000000 0.050000 0.050000 1.200000 0.025000 0.030000
1559767616828012838	900 31 1.000000 0.116000 0.123000 800 30 0.900000 0.099000 0.091000 600 35 1.000000 0.050000 0.050000 1.200000 0.024000 0.029000
1559767617336390421	900 31 1.000000 0.115000 0.122000 800 30 0.900000 0.094000 0.087000 600 35 1.000000 0.050000 0.050000 1.200000 0.025000 0.030000
1559767617845010130	900 31 1.000000 0.114000 0.120000 800 30 0.900000 0.083000 0.076000 600 35 1.000000 0.050000 0.050000 1.200000 0.027000 0.032000
1559767618353590421	900 31 1.000000 0.114000 0.120000 800 30 0.900000 0.185000 0.171000 600 34 1.000000 0.050000 0.050000 1.200000 0.027000 0.032000
1559767618862529963	900 31 1.000000 0.115000 0.122000 800 30 0.900000 0.085000 0.078000 600 35 1.000000 0.050000 0.050000 1.200000 0.025000 0.030000
1559767619371318880	900 31 1.000000 0.117000 0.124000 800 30 0.900000 0.211000 0.195000 600 35 1.000000 0.050000 0.050000 1.200000 0.036000 0.043000
1559767619880074088	900 31 1.000000 0.115000 0.122000 800 30 0.900000 0.098000 0.090000 600 35 1.000000 0.050000 0.050000 1.200000 0.025000 0.030000
1559767620388590297	900 31 1.000000 0.116000 0.123000 800 30 0.900000 0.112000 0.103000 600 34 1.000000 0.050000 0.050000 1.200000 0.025000 0.030000
1559767620897082422	900 31 1.000000 0.115000 0.122000 800 30 0.900000 0.095000 0.087000 600 34 1.000000 0.051000 0.051000 1.200000 0.025000 0.030000
1559767621405623672	900 31 1.000000 0.119000 0.126000 800 30 0.900000 0.174000 0.161000 600 35 1.000000 0.050000 0.050000 1.200000 0.034000 0.041000
1559767621914235464	900 31 1.000000 0.115000 0.122000 800 30 0.900000 0.085000 0.078000 600 35 1.000000 0.050000 0.050000 1.200000 0.025000 0.030000
1559767622422762422	900 31 1.000000 0.115000 0.122000 800 30 0.900000 0.103000 0.095000 600 34 1.000000 0.051000 0.051000 1.200000 0.025000 0.030000
1559767622931198964	900 31 1.000000 0.114000 0.120000 800 30 0.900000 0.091000 0.084000 600 34 1.000000 0.051000 0.051000 1.200000 0.025000 0.030000
1559767623439806339	900 31 1.000000 0.120000 0.127000 800 30 0.900000 0.118000 0.109000 600 35 1.000000 0.050000 0.050000 1.200000 0.030000 0.036000
1559767623948447047	900 31 1.000000 0.115000 0.122000 800 30 0.900000 0.081000 0.075000 600 35 1.000000 0.050000 0.050000 1.200000 0.025000 0.030000
1559767624457033297	900 31 1.000000 0.115000 0.122000 800 30 0.900000 0.083000 0.076000 600 35 1.000000 0.050000 0.050000 1.200000 0.024000 0.028000
1559767624965555964	900 31 1.000000 0.114000 0.120000 800 30 0.900000 0.083000 0.076000 600 35 1.000000 0.050000 0.050000 1.200000 0.024000 0.029000
1559767625474886589	900 31 1.000000 0.114000 0.120000 800 30 0.900000 0.098000 0.090000 600 35 1.000000 0.051000 0.051000 1.200000 0.025000 0.030000
1559767625983586714	900 31 1.000000 0.122000 0.129000 800 30 0.900000 0.266000 0.246000 600 35 1.000000 0.050000 0.050000 1.200000 0.033000 0.039000
1559767626492046422	900 31 1.000000 0.115000 0.122000 800 30 0.900000 0.175000 0.161000 600 35 1.000000 0.050000 0.050000 1.200000 0.030000 0.036000
1559767627000416672	900 31 1.000000 0.115000 0.122000 800 30 0.900000 0.095000 0.087000 600 34 1.000000 0.051000 0.051000 1.200000 0.025000 0.030000
1559767627509188923	900 31 1.000000 0.115000 0.122000 800 30 0.900000 0.086000 0.079000 600 34 1.000000 0.050000 0.050000 1.200000 0.025000 0.030000
1559767628018199423	900 32 1.000000 0.124000 0.131000 800 30 0.900000 0.274000 0.253000 600 35 1.000000 0.050000 0.050000 1.200000 0.037000 0.044000
1559767628526909923	900 31 1.000000 0.115000 0.122000 800 30 0.900000 0.152000 0.140000 600 35 1.000000 0.050000 0.050000 1.200000 0.025000 0.030000
1559767629035563173	900 31 1.000000 0.115000 0.122000 800 30 0.900000 0.087000 0.080000 600 35 1.000000 0.051000 0.051000 1.200000 0.025000 0.030000
1559767629543920298	900 31 1.000000 0.115000 0.122000 800 30 0.900000 0.083000 0.076000 600 34 1.000000 0.050000 0.050000 1.200000 0.025000 0.030000
1559767630052804131	900 32 1.000000 0.123000 0.130000 800 31 0.900000 0.247000 0.228000 600 35 1.000000 0.050000 0.050000 1.200000 0.036000 0.043000
1559767630561627590	900 31 1.000000 0.115000 0.122000 800 30 0.900000 0.083000 0.076000 600 35 1.000000 0.050000 0.050000 1.200000 0.025000 0.030000
1559767631070133715	900 31 1.000000 0.115000 0.122000 800 30 0.900000 0.080000 0.074000 600 35 1.000000 0.050000 0.050000 1.200000 0.024000 0.029000
1559767631578548965	900 31 1.000000 0.115000 0.122000 800 30 0.900000 0.081000 0.075000 600 35 1.000000 0.050000 0.050000 1.200000 0.024000 0.029000
1559767632087215798	900 31 1.000000 0.115000 0.122000 800 30 0.900000 0.204000 0.188000 600 35 1.000000 0.050000 0.050000 1.200000 0.035000 0.042000
1559767632596147715	900 31 1.000000 0.124000 0.131000 800 30 0.900000 0.232000 0.214000 600 35 1.000000 0.050000 0.050000 1.200000 0.030000 0.036000
1559767633104792507	900 31 1.000000 0.114000 0.120000 800 30 0.900000 0.084000 0.077000 600 35 1.000000 0.050000 0.050000 1.200000 0.025000 0.030000
1559767633613322882	900 31 1.000000 0.115000 0.122000 800 30 0.900000 0.099000 0.091000 600 35 1.000000 0.050000 0.050000 1.200000 0.025000 0.030000
1559767634122484465	900 31 1.000000 0.115000 0.122000 800 30 0.900000 0.094000 0.087000 600 35 1.000000 0.050000 0.050000 1.200000 0.025000 0.030000
1559767634631399298	900 31 1.000000 0.124000 0.131000 800 30 0.900000 0.272000 0.251000 600 35 1.000000 0.050000 0.050000 1.200000 0.032000 0.038000
1559767635140040715	900 31 1.000000 0.115000 0.122000 800 30 0.900000 0.099000 0.091000 600 35 1.000000 0.051000 0.051000 1.200000 0.025000 0.030000
1559767635648514923	900 31 1.000000 0.115000 0.122000 800 30 0.900000 0.081000 0.075000 600 35 1.000000 0.051000 0.051000 1.200000 0.024000 0.029000
1559767636157073174	900 31 1.000000 0.114000 0.120000 800 30 0.900000 0.080000 0.074000 600 35 1.000000 0.050000 0.050000 1.200000 0.025000 0.030000
1559767636665863174	900 31 1.000000 0.101000 0.107000 800 31 0.900000 0.344000 0.317000 600 35 1.000000 0.050000 0.050000 1.200000 0.071000 0.086000
1559767637174478090	900 32 1.000000 0.167000 0.176000 800 31 0.900000 0.140000 0.129000 600 35 1.000000 0.050000 0.050000 1.200000 0.058000 0.070000
1559767637682878215	900 32 1.000000 0.262000 0.275000 800 31 0.900000 0.135000 0.125000 600 35 1.000000 0.051000 0.051000 1.200000 0.052000 0.062000
1559767638191243340	900 32 1.000000 0.262000 0.275000 800 31 0.900000 0.134000 0.124000 600 35 1.000000 0.050000 0.050000 1.200000 0.053000 0.064000
1559767638699759674	900 33 1.000000 0.262000 0.275000 800 32 0.900000 0.323000 0.298000 600 35 1.000000 0.051000 0.051000 1.200000 0.059000 0.071000
1559767639208244382	900 33 1.000000 0.260000 0.273000 800 32 0.900000 0.137000 0.126000 600 35 1.000000 0.050000 0.050000 1.200000 0.053000 0.064000
1559767639716678132	900 33 1.000000 0.259000 0.272000 800 31 0.900000 0.148000 0.137000 600 35 1.000000 0.051000 0.051000 1.200000 0.052000 0.062000
1559767640225067507	900 33 1.000000 0.259000 0.272000 800 32 0.900000 0.142000 0.131000 600 35 1.000000 0.050000 0.050000 1.200000 0.052000 0.062000
1559767640733959382	900 33 1.000000 0.259000 0.272000 800 32 0.900000 0.220000 0.203000 600 36 1.000000 0.050000 0.050000 1.200000 0.054000 0.065000
1559767641242513299	900 33 1.000000 0.264000 0.276000 800 32 0.900000 0.144000 0.133000 600 35 1.000000 0.051000 0.051000 1.200000 0.060000 0.072000
1559767641751056299	900 33 1.000000 0.259000 0.271000 800 32 0.900000 0.137000 0.126000 600 35 1.000000 0.051000 0.051000 1.200000 0.052000 0.062000
1559767642259485799	900 33 1.000000 0.259000 0.271000 800 32 0.900000 0.138000 0.127000 600 36 1.000000 0.050000 0.050000 1.200000 0.052000 0.062000
1559767642768699508	900 33 1.000000 0.258000 0.270000 800 32 0.900000 0.208000 0.192000 600 36 1.000000 0.051000 0.051000 1.200000 0.052000 0.062000
1559767643277496549	900 33 1.000000 0.264000 0.276000 800 32 0.900000 0.181000 0.167000 600 36 1.000000 0.051000 0.051000 1.200000 0.059000 0.071000
1559767643785929216	900 33 1.000000 0.260000 0.273000 800 32 0.900000 0.136000 0.125000 600 36 1.000000 0.051000 0.051000 1.200000 0.052000 0.062000
1559767644294378383	900 33 1.000000 0.259000 0.271000 800 32 0.900000 0.137000 0.126000 600 36 1.000000 0.051000 0.051000 1.200000 0.053000 0.064000
1559767644803129883	900 33 1.000000 0.259000 0.271000 800 32 0.900000 0.207000 0.191000 600 36 1.000000 0.051000 0.051000 1.200000 0.052000 0.062000
1559767645311860175	900 33 1.000000 0.264000 0.276000 800 32 0.900000 0.232000 0.214000 600 36 1.000000 0.050000 0.050000 1.200000 0.058000 0.070000
1559767645820385091	900 33 1.000000 0.260000 0.273000 800 32 0.900000 0.137000 0.126000 600 36 1.000000 0.050000 0.050000 1.200000 0.053000 0.064000
1559767646328717716	900 33 1.000000 0.259000 0.272000 800 32 0.900000 0.136000 0.125000 600 36 1.000000 0.051000 0.051000 1.200000 0.052000 0.062000
1559767646837336258	900 33 1.000000 0.260000 0.273000 800 32 0.900000 0.144000 0.133000 600 36 1.000000 0.050000 0.050000 1.200000 0.052000 0.062000
1559767647345786383	900 33 1.000000 0.259000 0.272000 800 32 0.900000 0.151000 0.139000 600 36 1.000000 0.051000 0.051000 1.200000 0.053000 0.064000
1559767647854285342	900 33 1.000000 0.261000 0.274000 800 32 0.900000 0.293000 0.271000 600 36 1.000000 0.051000 0.051000 1.200000 0.057000 0.069000
1559767648362754800	900 33 1.000000 0.260000 0.273000 800 32 0.900000 0.141000 0.130000 600 36 1.000000 0.051000 0.051000 1.200000 0.052000 0.062000
1559767648871549383	900 33 1.000000 0.260000 0.273000 800 32 0.900000 0.146000 0.135000 600 36 1.000000 0.051000 0.051000 1.200000 0.052000 0.062000
1559767649380789217	900 34 1.000000 0.259000 0.271000 800 32 0.900000 0.155000 0.143000 600 36 1.000000 0.050000 0.050000 1.200000 0.052000 0.062000
1559767649889602009	900 33 1.000000 0.259000 0.272000 800 32 0.900000 0.297000 0.274000 600 36 1.000000 0.051000 0.051000 1.200000 0.059000 0.071000
1559767650398216634	900 33 1.000000 0.260000 0.273000 800 32 0.900000 0.148000 0.137000 600 36 1.000000 0.051000 0.051000 1.200000 0.052000 0.062000
1559767650906999300	900 33 1.000000 0.260000 0.273000 800 32 0.900000 0.149000 0.137000 600 36 1.000000 0.051000 0.051000 1.200000 0.053000 0.064000
1559767651415517884	900 33 1.000000 0.259000 0.271000 800 32 0.900000 0.140000 0.129000 600 36 1.000000 0.051000 0.051000 1.200000 0.053000 0.064000
1559767651924129092	900 33 1.000000 0.269000 0.281000 800 32 0.900000 0.301000 0.278000 600 36 1.000000 0.051000 0.051000 1.200000 0.060000 0.072000
1559767652432743592	900 33 1.000000 0.260000 0.272000 800 32 0.900000 0.146000 0.135000 600 36 1.000000 0.050000 0.050000 1.200000 0.052000 0.062000
1559767652941504926	900 33 1.000000 0.259000 0.271000 800 32 0.900000 0.143000 0.132000 600 36 1.000000 0.051000 0.051000 1.200000 0.052000 0.062000
1559767653449882259	900 33 1.000000 0.260000 0.272000 800 32 0.900000 0.137000 0.126000 600 36 1.000000 0.051000 0.051000 1.200000 0.052000 0.062000
1559767653958408676	900 33 1.000000 0.259000 0.271000 800 32 0.900000 0.142000 0.131000 600 36 1.000000 0.051000 0.051000 1.200000 0.052000 0.062000
1559767654467037801	900 33 1.000000 0.260000 0.272000 800 32 0.900000 0.191000 0.176000 600 36 1.000000 0.051000 0.051000 1.200000 0.053000 0.064000
1559767654975712467	900 33 1.000000 0.260000 0.272000 800 32 0.900000 0.151000 0.139000 600 36 1.000000 0.051000 0.051000 1.200000 0.052000 0.062000
1559767655484110509	900 33 1.000000 0.260000 0.272000 800 32 0.900000 0.210000 0.194000 600 36 1.000000 0.051000 0.051000 1.200000 0.054000 0.065000
1559767655992665426	900 34 1.000000 0.260000 0.272000 800 32 0.900000 0.148000 0.137000 600 36 1.000000 0.050000 0.050000 1.200000 0.052000 0.062000
1559767656501147343	900 33 1.000000 0.260000 0.272000 800 32 0.900000 0.238000 0.220000 600 36 1.000000 0.051000 0.051000 1.200000 0.055000 0.066000
1559767657009793593	900 34 1.000000 0.259000 0.271000 800 32 0.900000 0.141000 0.130000 600 36 1.000000 0.051000 0.051000 1.200000 0.052000 0.062000
1559767657518355801	900 33 1.000000 0.259000 0.271000 800 32 0.900000 0.188000 0.174000 600 36 1.000000 0.050000 0.050000 1.200000 0.052000 0.062000
1559767658027492593	900 34 1.000000 0.260000 0.272000 800 32 0.900000 0.145000 0.134000 600 36 1.000000 0.051000 0.051000 1.200000 0.052000 0.062000
1559767658536426801	900 33 1.000000 0.269000 0.281000 800 32 0.900000 0.282000 0.260000 600 36 1.000000 0.051000 0.051000 1.200000 0.057000 0.069000
1559767659045320051	900 34 1.000000 0.259000 0.271000 800 32 0.900000 0.155000 0.143000 600 36 1.000000 0.051000 0.051000 1.200000 0.052000 0.062000
1559767659553888968	900 33 1.000000 0.259000 0.272000 800 32 0.900000 0.138000 0.127000 600 36 1.000000 0.051000 0.051000 1.200000 0.052000 0.062000
1559767660062428885	900 33 1.000000 0.259000 0.271000 800 32 0.900000 0.136000 0.125000 600 36 1.000000 0.051000 0.051000 1.200000 0.052000 0.062000
1559767660571236135	900 33 1.000000 0.260000 0.272000 800 32 0.900000 0.152000 0.140000 600 36 1.000000 0.050000 0.050000 1.200000 0.052000 0.062000
1559767661080061218	900 34 1.000000 0.260000 0.273000 800 32 0.900000 0.142000 0.131000 600 36 1.000000 0.051000 0.051000 1.200000 0.052000 0.062000
1559767661588782052	900 33 1.000000 0.259000 0.271000 800 32 0.900000 0.214000 0.197000 600 36 1.000000 0.051000 0.051000 1.200000 0.055000 0.066000
1559767662097267718	900 33 1.000000 0.259000 0.272000 800 32 0.900000 0.151000 0.139000 600 36 1.000000 0.051000 0.051000 1.200000 0.052000 0.062000
1559767662605889260	900 33 1.000000 0.260000 0.273000 800 33 0.900000 0.139000 0.128000 600 36 1.000000 0.051000 0.051000 1.200000 0.052000 0.062000
1559767663114995260	900 33 1.000000 0.259000 0.271000 800 32 0.900000 0.150000 0.138000 600 36 1.000000 0.051000 0.051000 1.200000 0.053000 0.064000
1559767663623683302	900 33 1.000000 0.259000 0.271000 800 32 0.900000 0.220000 0.203000 600 36 1.000000 0.051000 0.051000 1.200000 0.055000 0.066000
1559767664132295344	900 33 1.000000 0.260000 0.272000 800 32 0.900000 0.143000 0.132000 600 36 1.000000 0.051000 0.051000 1.200000 0.053000 0.064000
1559767664641495927	900 34 1.000000 0.259000 0.271000 800 33 0.900000 0.151000 0.139000 600 36 1.000000 0.050000 0.050000 1.200000 0.052000 0.062000
1559767665150304177	900 34 1.000000 0.264000 0.277000 800 33 0.900000 0.191000 0.176000 600 36 1.000000 0.051000 0.051000 1.200000 0.053000 0.064000
1559767665659120719	900 33 1.000000 0.259000 0.272000 800 33 0.900000 0.207000 0.191000 600 36 1.000000 0.051000 0.051000 1.200000 0.053000 0.064000
1559767666167642052	900 33 1.000000 0.259000 0.271000 800 33 0.900000 0.138000 0.127000 600 36 1.000000 0.051000 0.051000 1.200000 0.052000 0.062000
1559767666675872844	900 33 1.000000 0.260000 0.273000 800 32 0.900000 0.138000 0.127000 600 36 1.000000 0.051000 0.051000 1.200000 0.052000 0.062000
1559767667184522011	900 34 1.000000 0.262000 0.274000 800 33 0.900000 0.235000 0.217000 600 36 1.000000 0.051000 0.051000 1.200000 0.055000 0.066000
1559767667693303802	900 34 1.000000 0.259000 0.271000 800 32 0.900000 0.206000 0.190000 600 36 1.000000 0.051000 0.051000 1.200000 0.055000 0.066000
1559767668201904927	900 33 1.000000 0.259000 0.271000 800 33 0.900000 0.141000 0.130000 600 36 1.000000 0.051000 0.051000 1.200000 0.053000 0.064000
1559767668710274927	900 33 1.000000 0.260000 0.272000 800 32 0.900000 0.147000 0.136000 600 36 1.000000 0.051000 0.051000 1.200000 0.052000 0.062000
1559767669218985427	900 34 1.000000 0.264000 0.276000 800 33 0.900000 0.166000 0.153000 600 36 1.000000 0.051000 0.051000 1.200000 0.054000 0.065000
1559767669727676261	900 34 1.000000 0.262000 0.274000 800 32 0.900000 0.211000 0.195000 600 36 1.000000 0.050000 0.050000 1.200000 0.054000 0.065000
1559767670236286011	900 33 1.000000 0.259000 0.271000 800 33 0.900000 0.149000 0.137000 600 36 1.000000 0.050000 0.050000 1.200000 0.052000 0.062000
1559767670744921011	900 33 1.000000 0.260000 0.272000 800 32 0.900000 0.148000 0.137000 600 36 1.000000 0.050000 0.050000 1.200000 0.052000 0.062000
1559767671253560053	900 34 1.000000 0.259000 0.271000 800 33 0.900000 0.143000 0.132000 600 37 1.000000 0.051000 0.051000 1.200000 0.052000 0.062000
1559767671762385428	900 34 1.000000 0.260000 0.273000 800 33 0.900000 0.211000 0.195000 600 36 1.000000 0.051000 0.051000 1.200000 0.054000 0.065000
1559767672271026136	900 33 1.000000 0.259000 0.271000 800 33 0.900000 0.137000 0.126000 600 36 1.000000 0.051000 0.051000 1.200000 0.052000 0.062000
1559767672779523095	900 33 1.000000 0.259000 0.271000 800 32 0.900000 0.136000 0.125000 600 36 1.000000 0.050000 0.050000 1.200000 0.052000 0.062000
1559767673288649470	900 34 1.000000 0.261000 0.273000 800 33 0.900000 0.137000 0.126000 600 36 1.000000 0.050000 0.050000 1.200000 0.052000 0.062000
1559767673797453428	900 34 1.000000 0.259000 0.271000 800 32 0.900000 0.214000 0.197000 600 36 1.000000 0.051000 0.051000 1.200000 0.054000 0.065000
1559767674305838553	900 33 1.000000 0.260000 0.272000 800 33 0.900000 0.137000 0.126000 600 36 1.000000 0.051000 0.051000 1.200000 0.052000 0.062000
1559767674814802845	900 34 1.000000 0.260000 0.272000 800 33 0.900000 0.152000 0.140000 600 36 1.000000 0.051000 0.051000 1.200000 0.053000 0.064000
1559767675323376428	900 33 1.000000 0.260000 0.272000 800 33 0.900000 0.139000 0.128000 600 36 1.000000 0.051000 0.051000 1.200000 0.052000 0.062000
1559767675832186762	900 34 1.000000 0.269000 0.281000 800 33 0.900000 0.265000 0.245000 600 37 1.000000 0.051000 0.051000 1.200000 0.059000 0.071000
1559767676340798512	900 34 1.000000 0.259000 0.271000 800 33 0.900000 0.152000 0.140000 600 37 1.000000 0.050000 0.050000 1.200000 0.053000 0.064000
1559767676849451845	900 33 1.000000 0.259000 0.271000 800 33 0.900000 0.141000 0.130000 600 36 1.000000 0.051000 0.051000 1.200000 0.052000 0.062000
1559767677357823553	900 33 1.000000 0.259000 0.271000 800 32 0.900000 0.137000 0.126000 600 36 1.000000 0.051000 0.051000 1.200000 0.052000 0.062000
1559767677866585970	900 34 1.000000 0.260000 0.272000 800 33 0.900000 0.258000 0.238000 600 37 1.000000 0.050000 0.050000 1.200000 0.058000 0.070000
1559767678375226512	900 34 1.000000 0.260000 0.273000 800 33 0.900000 0.138000 0.127000 600 37 1.000000 0.050000 0.050000 1.200000 0.052000 0.062000
1559767678883777804	900 34 1.000000 0.259000 0.271000 800 33 0.900000 0.140000 0.129000 600 36 1.000000 0.051000 0.051000 1.200000 0.052000 0.062000
1559767679392190804	900 34 1.000000 0.260000 0.272000 800 33 0.900000 0.137000 0.126000 600 36 1.000000 0.051000 0.051000 1.200000 0.052000 0.062000
1559767679901344804	900 34 1.000000 0.259000 0.271000 800 33 0.900000 0.209000 0.193000 600 37 1.000000 0.051000 0.051000 1.200000 0.056000 0.067000
1559767680410267554	900 34 1.000000 0.260000 0.272000 800 33 0.900000 0.137000 0.126000 600 37 1.000000 0.051000 0.051000 1.200000 0.052000 0.062000
1559767680918862096	900 34 1.000000 0.261000 0.273000 800 33 0.900000 0.137000 0.126000 600 37 1.000000 0.050000 0.050000 1.200000 0.052000 0.062000
1559767681427310929	900 34 1.000000 0.260000 0.272000 800 33 0.900000 0.138000 0.127000 600 36 1.000000 0.051000 0.051000 1.200000 0.052000 0.062000
1559767681936251471	900 34 1.000000 0.260000 0.272000 800 33 0.900000 0.150000 0.138000 600 37 1.000000 0.051000 0.051000 1.200000 0.052000 0.062000
1559767682444987971	900 34 1.000000 0.259000 0.271000 800 33 0.900000 0.294000 0.271000 600 37 1.000000 0.050000 0.050000 1.200000 0.060000 0.072000
1559767682953569429	900 34 1.000000 0.259000 0.271000 800 33 0.900000 0.150000 0.138000 600 37 1.000000 0.051000 0.051000 1.200000 0.052000 0.062000
1559767683461896804	900 34 1.000000 0.260000 0.273000 800 33 0.900000 0.139000 0.128000 600 37 1.000000 0.051000 0.051000 1.200000 0.052000 0.062000
1559767683970620263	900 34 1.000000 0.260000 0.273000 800 33 0.900000 0.138000 0.127000 600 37 1.000000 0.051000 0.051000 1.200000 0.052000 0.062000
1559767684479425346	900 34 1.000000 0.259000 0.271000 800 33 0.900000 0.274000 0.253000 600 37 1.000000 0.051000 0.051000 1.200000 0.054000 0.065000
1559767684987951638	900 34 1.000000 0.260000 0.273000 800 33 0.900000 0.136000 0.125000 600 37 1.000000 0.051000 0.051000 1.200000 0.052000 0.062000
1559767685496343554	900 34 1.000000 0.259000 0.271000 800 33 0.900000 0.137000 0.126000 600 36 1.000000 0.051000 0.051000 1.200000 0.052000 0.062000
1559767686004989263	900 34 1.000000 0.260000 0.273000 800 33 0.900000 0.172000 0.159000 600 37 1.000000 0.050000 0.050000 1.200000 0.052000 0.062000
1559767686513891888	900 35 1.000000 0.260000 0.272000 800 33 0.900000 0.179000 0.165000 600 38 1.000000 0.050000 0.050000 1.200000 0.053000 0.064000
1559767687022768888	900 34 1.000000 0.261000 0.273000 800 33 0.900000 0.329000 0.303000 600 37 1.000000 0.051000 0.051000 1.200000 0.059000 0.071000
1559767687531076346	900 34 1.000000 0.261000 0.273000 800 33 0.900000 0.151000 0.139000 600 37 1.000000 0.051000 0.051000 1.200000 0.052000 0.062000
1559767688039753555	900 34 1.000000 0.260000 0.273000 800 33 0.900000 0.140000 0.129000 600 37 1.000000 0.051000 0.051000 1.200000 0.052000 0.062000
1559767688548811763	900 34 1.000000 0.259000 0.271000 800 33 0.900000 0.152000 0.140000 600 37 1.000000 0.051000 0.051000 1.200000 0.052000 0.062000
1559767689057862597	900 34 1.000000 0.261000 0.273000 800 33 0.900000 0.166000 0.153000 600 37 1.000000 0.050000 0.050000 1.200000 0.055000 0.066000
1559767689566456138	900 34 1.000000 0.261000 0.274000 800 33 0.900000 0.139000 0.128000 600 37 1.000000 0.051000 0.051000 1.200000 0.053000 0.064000
1559767690075286597	900 34 1.000000 0.260000 0.273000 800 33 0.900000 0.150000 0.138000 600 37 1.000000 0.051000 0.051000 1.200000 0.052000 0.062000
1559767690583885597	900 34 1.000000 0.259000 0.271000 800 33 0.900000 0.218000 0.201000 600 36 1.000000 0.051000 0.051000 1.200000 0.054000 0.065000
1559767691092433763	900 34 1.000000 0.261000 0.273000 800 33 0.900000 0.145000 0.134000 600 37 1.000000 0.051000 0.051000 1.200000 0.053000 0.064000
1559767691600936347	900 34 1.000000 0.260000 0.272000 800 33 0.900000 0.154000 0.142000 600 37 1.000000 0.051000 0.051000 1.200000 0.052000 0.062000
1559767692110287889	900 34 1.000000 0.260000 0.272000 800 33 0.900000 0.141000 0.130000 600 37 1.000000 0.051000 0.051000 1.200000 0.053000 0.064000
1559767692619072097	900 34 1.000000 0.260000 0.273000 800 33 0.900000 0.220000 0.203000 600 37 1.000000 0.051000 0.051000 1.200000 0.054000 0.065000
1559767693127768764	900 34 1.000000 0.263000 0.275000 800 33 0.900000 0.154000 0.142000 600 37 1.000000 0.051000 0.051000 1.200000 0.052000 0.062000
1559767693636219847	900 34 1.000000 0.260000 0.272000 800 33 0.900000 0.144000 0.133000 600 37 1.000000 0.050000 0.050000 1.200000 0.052000 0.062000
1559767694145152514	900 34 1.000000 0.260000 0.272000 800 33 0.900000 0.148000 0.137000 600 37 1.000000 0.051000 0.051000 1.200000 0.052000 0.062000
1559767694653997681	900 34 1.000000 0.261000 0.273000 800 33 0.900000 0.220000 0.203000 600 37 1.000000 0.050000 0.050000 1.200000 0.054000 0.065000
1559767695163170722	900 34 1.000000 0.260000 0.272000 800 33 0.900000 0.141000 0.130000 600 37 1.000000 0.050000 0.050000 1.200000 0.052000 0.062000
1559767695672047347	900 34 1.000000 0.263000 0.275000 800 33 0.900000 0.180000 0.166000 600 37 1.000000 0.050000 0.050000 1.200000 0.053000 0.064000
1559767696180694556	900 34 1.000000 0.260000 0.273000 800 33 0.900000 0.149000 0.137000 600 37 1.000000 0.050000 0.050000 1.200000 0.052000 0.062000
1559767696689444514	900 34 1.000000 0.261000 0.274000 800 33 0.900000 0.199000 0.184000 600 37 1.000000 0.051000 0.051000 1.200000 0.054000 0.065000
1559767697198362472	900 34 1.000000 0.260000 0.273000 800 33 0.900000 0.150000 0.138000 600 37 1.000000 0.050000 0.050000 1.200000 0.052000 0.062000
1559767697707291348	900 34 1.000000 0.267000 0.279000 800 33 0.900000 0.221000 0.204000 600 37 1.000000 0.051000 0.051000 1.200000 0.057000 0.068000
1559767698215799306	900 34 1.000000 0.260000 0.272000 800 33 0.900000 0.143000 0.132000 600 37 1.000000 0.051000 0.051000 1.200000 0.052000 0.062000
1559767698724482598	900 34 1.000000 0.259000 0.271000 800 33 0.900000 0.223000 0.206000 600 37 1.000000 0.051000 0.051000 1.200000 0.054000 0.065000
1559767699232906889	900 34 1.000000 0.260000 0.272000 800 33 0.900000 0.143000 0.132000 600 37 1.000000 0.051000 0.051000 1.200000 0.052000 0.062000
1559767699741554764	900 34 1.000000 0.268000 0.280000 800 33 0.900000 0.171000 0.158000 600 37 1.000000 0.051000 0.051000 1.200000 0.055000 0.066000
1559767700250034515	900 34 1.000000 0.261000 0.273000 800 33 0.900000 0.155000 0.143000 600 37 1.000000 0.051000 0.051000 1.200000 0.052000 0.062000
1559767700758836223	900 34 1.000000 0.259000 0.271000 800 33 0.900000 0.218000 0.201000 600 37 1.000000 0.050000 0.050000 1.200000 0.054000 0.065000
1559767701267498348	900 34 1.000000 0.260000 0.272000 800 33 0.900000 0.138000 0.127000 600 37 1.000000 0.051000 0.051000 1.200000 0.052000 0.062000
1559767701776080015	900 34 1.000000 0.260000 0.273000 800 33 0.900000 0.136000 0.125000 600 37 1.000000 0.051000 0.051000 1.200000 0.052000 0.062000
1559767702284544806	900 34 1.000000 0.261000 0.274000 800 33 0.900000 0.140000 0.129000 600 37 1.000000 0.051000 0.051000 1.200000 0.052000 0.062000
1559767702793304973	900 34 1.000000 0.259000 0.271000 800 33 0.900000 0.210000 0.194000 600 37 1.000000 0.051000 0.051000 1.200000 0.054000 0.065000
1559767703301850182	900 34 1.000000 0.261000 0.273000 800 33 0.900000 0.149000 0.137000 600 37 1.000000 0.051000 0.051000 1.200000 0.052000 0.062000
1559767703811139682	900 34 1.000000 0.260000 0.272000 800 33 0.900000 0.143000 0.132000 600 37 1.000000 0.051000 0.051000 1.200000 0.052000 0.062000
1559767704319953307	900 34 1.000000 0.271000 0.284000 800 33 0.900000 0.302000 0.279000 600 37 1.000000 0.051000 0.051000 1.200000 0.060000 0.072000
1559767704828574265	900 34 1.000000 0.260000 0.273000 800 33 0.900000 0.168000 0.155000 600 37 1.000000 0.051000 0.051000 1.200000 0.054000 0.065000
1559767705337034682	900 34 1.000000 0.260000 0.272000 800 33 0.900000 0.144000 0.133000 600 37 1.000000 0.050000 0.050000 1.200000 0.053000 0.064000
1559767705845350849	900 34 1.000000 0.260000 0.272000 800 33 0.900000 0.154000 0.142000 600 37 1.000000 0.051000 0.051000 1.200000 0.052000 0.062000
1559767706353914099	900 34 1.000000 0.267000 0.279000 800 33 0.900000 0.255000 0.235000 600 37 1.000000 0.051000 0.051000 1.200000 0.058000 0.070000
1559767706862845432	900 34 1.000000 0.260000 0.272000 800 33 0.900000 0.217000 0.200000 600 37 1.000000 0.050000 0.050000 1.200000 0.054000 0.065000
1559767707371433099	900 34 1.000000 0.261000 0.273000 800 33 0.900000 0.138000 0.127000 600 37 1.000000 0.051000 0.051000 1.200000 0.052000 0.062000
1559767707879865307	900 34 1.000000 0.260000 0.272000 800 33 0.900000 0.140000 0.129000 600 37 1.000000 0.051000 0.051000 1.200000 0.052000 0.062000
1559767708388453307	900 34 1.000000 0.260000 0.272000 800 33 0.900000 0.211000 0.195000 600 37 1.000000 0.051000 0.051000 1.200000 0.056000 0.067000
1559767708897237266	900 34 1.000000 0.260000 0.272000 800 33 0.900000 0.210000 0.194000 600 37 1.000000 0.051000 0.051000 1.200000 0.054000 0.065000
1559767709405892516	900 34 1.000000 0.260000 0.272000 800 33 0.900000 0.137000 0.126000 600 37 1.000000 0.051000 0.051000 1.200000 0.052000 0.062000
1559767709914305057	900 34 1.000000 0.260000 0.272000 800 33 0.900000 0.138000 0.127000 600 37 1.000000 0.051000 0.051000 1.200000 0.052000 0.062000
1559767710423532807	900 34 1.000000 0.261000 0.273000 800 33 0.900000 0.146000 0.135000 600 37 1.000000 0.051000 0.051000 1.200000 0.052000 0.062000
1559767710932289141	900 34 1.000000 0.267000 0.279000 800 33 0.900000 0.269000 0.248000 600 37 1.000000 0.051000 0.051000 1.200000 0.057000 0.068000
1559767711440841266	900 34 1.000000 0.260000 0.272000 800 33 0.900000 0.153000 0.141000 600 37 1.000000 0.051000 0.051000 1.200000 0.053000 0.064000
1559767711949350599	900 34 1.000000 0.260000 0.272000 800 33 0.900000 0.142000 0.131000 600 37 1.000000 0.051000 0.051000 1.200000 0.052000 0.062000
1559767712457697849	900 34 1.000000 0.260000 0.273000 800 33 0.900000 0.147000 0.136000 600 37 1.000000 0.051000 0.051000 1.200000 0.052000 0.062000
1559767712966370433	900 34 1.000000 0.267000 0.279000 800 33 0.900000 0.300000 0.277000 600 37 1.000000 0.050000 0.050000 1.200000 0.059000 0.071000
1559767713474924933	900 34 1.000000 0.261000 0.273000 800 33 0.900000 0.138000 0.127000 600 37 1.000000 0.051000 0.051000 1.200000 0.052000 0.062000
1559767713983326474	900 34 1.000000 0.261000 0.273000 800 33 0.900000 0.136000 0.125000 600 37 1.000000 0.051000 0.051000 1.200000 0.053000 0.064000
1559767714491678266	900 34 1.000000 0.260000 0.273000 800 33 0.900000 0.138000 0.127000 600 37 1.000000 0.051000 0.051000 1.200000 0.052000 0.062000
1559767715000355808	900 34 1.000000 0.262000 0.275000 800 33 0.900000 0.331000 0.305000 600 37 1.000000 0.051000 0.051000 1.200000 0.061000 0.073000
1559767715508931850	900 34 1.000000 0.260000 0.272000 800 33 0.900000 0.137000 0.126000 600 37 1.000000 0.051000 0.051000 1.200000 0.052000 0.062000
1559767716017449183	900 34 1.000000 0.260000 0.272000 800 33 0.900000 0.137000 0.126000 600 37 1.000000 0.051000 0.051000 1.200000 0.052000 0.062000
1559767716525795725	900 34 1.000000 0.261000 0.273000 800 33 0.900000 0.137000 0.126000 600 37 1.000000 0.051000 0.051000 1.200000 0.052000 0.062000
1559767717034449350	900 34 1.000000 0.264000 0.276000 800 33 0.900000 0.307000 0.283000 600 37 1.000000 0.051000 0.051000 1.200000 0.060000 0.072000
1559767717543051600	900 34 1.000000 0.266000 0.279000 800 33 0.900000 0.184000 0.170000 600 37 1.000000 0.051000 0.051000 1.200000 0.054000 0.065000
1559767718051404808	900 34 1.000000 0.260000 0.272000 800 33 0.900000 0.150000 0.138000 600 37 1.000000 0.051000 0.051000 1.200000 0.053000 0.064000
1559767718559754725	900 34 1.000000 0.261000 0.273000 800 33 0.900000 0.148000 0.137000 600 37 1.000000 0.050000 0.050000 1.200000 0.052000 0.062000
1559767719069020183	900 34 1.000000 0.260000 0.272000 800 33 0.900000 0.138000 0.127000 600 37 1.000000 0.051000 0.051000 1.200000 0.052000 0.062000
1559767719577862975	900 34 1.000000 0.267000 0.279000 800 33 0.900000 0.225000 0.208000 600 37 1.000000 0.051000 0.051000 1.200000 0.056000 0.067000
1559767720086527225	900 34 1.000000 0.260000 0.272000 800 33 0.900000 0.140000 0.129000 600 37 1.000000 0.051000 0.051000 1.200000 0.052000 0.062000
1559767720595281309	900 34 1.000000 0.259000 0.271000 800 33 0.900000 0.138000 0.127000 600 37 1.000000 0.051000 0.051000 1.200000 0.052000 0.062000
1559767721103992517	900 34 1.000000 0.260000 0.272000 800 33 0.900000 0.136000 0.125000 600 37 1.000000 0.051000 0.051000 1.200000 0.052000 0.062000
1559767721612929350	900 34 1.000000 0.264000 0.276000 800 33 0.900000 0.271000 0.250000 600 37 1.000000 0.051000 0.051000 1.200000 0.058000 0.070000
1559767722121511892	900 34 1.000000 0.260000 0.272000 800 33 0.900000 0.138000 0.127000 600 37 1.000000 0.051000 0.051000 1.200000 0.052000 0.062000
1559767722629882517	900 34 1.000000 0.260000 0.272000 800 33 0.900000 0.138000 0.127000 600 37 1.000000 0.051000 0.051000 1.200000 0.052000 0.062000
1559767723139220934	900 35 1.000000 0.260000 0.273000 800 33 0.900000 0.140000 0.129000 600 37 1.000000 0.051000 0.051000 1.200000 0.053000 0.064000
1559767723647876267	900 34 1.000000 0.265000 0.277000 800 33 0.900000 0.287000 0.265000 600 37 1.000000 0.051000 0.051000 1.200000 0.060000 0.072000
1559767724156530351	900 34 1.000000 0.261000 0.273000 800 33 0.900000 0.138000 0.127000 600 37 1.000000 0.050000 0.050000 1.200000 0.060000 0.072000
1559767724664943809	900 34 1.000000 0.260000 0.272000 800 33 0.900000 0.140000 0.129000 600 37 1.000000 0.051000 0.051000 1.200000 0.052000 0.062000
1559767725174122101	900 35 1.000000 0.260000 0.272000 800 33 0.900000 0.140000 0.129000 600 37 1.000000 0.051000 0.051000 1.200000 0.052000 0.062000
1559767725683680601	900 34 1.000000 0.259000 0.271000 800 33 0.900000 0.215000 0.198000 600 37 1.000000 0.051000 0.051000 1.200000 0.055000 0.066000
1559767726192442476	900 34 1.000000 0.262000 0.274000 800 33 0.900000 0.298000 0.275000 600 37 1.000000 0.051000 0.051000 1.200000 0.060000 0.072000
1559767726700811851	900 34 1.000000 0.261000 0.273000 800 33 0.900000 0.151000 0.139000 600 37 1.000000 0.051000 0.051000 1.200000 0.052000 0.062000
1559767727209779184	900 34 1.000000 0.260000 0.272000 800 33 0.900000 0.149000 0.137000 600 37 1.000000 0.051000 0.051000 1.200000 0.052000 0.062000
1559767727718794684	900 34 1.000000 0.260000 0.272000 800 33 0.900000 0.213000 0.197000 600 37 1.000000 0.051000 0.051000 1.200000 0.054000 0.065000
1559767728227294810	900 34 1.000000 0.270000 0.282000 800 33 0.900000 0.262000 0.242000 600 37 1.000000 0.051000 0.051000 1.200000 0.058000 0.070000
1559767728735810893	900 34 1.000000 0.260000 0.273000 800 33 0.900000 0.145000 0.134000 600 37 1.000000 0.051000 0.051000 1.200000 0.052000 0.062000
1559767729244267685	900 34 1.000000 0.260000 0.273000 800 33 0.900000 0.145000 0.134000 600 37 1.000000 0.051000 0.051000 1.200000 0.052000 0.062000
1559767729752931935	900 34 1.000000 0.260000 0.273000 800 33 0.900000 0.226000 0.209000 600 37 1.000000 0.051000 0.051000 1.200000 0.054000 0.065000
1559767730261584185	900 34 1.000000 0.271000 0.284000 800 33 0.900000 0.201000 0.186000 600 37 1.000000 0.051000 0.051000 1.200000 0.056000 0.067000
1559767730770094685	900 34 1.000000 0.261000 0.273000 800 33 0.900000 0.145000 0.134000 600 37 1.000000 0.051000 0.051000 1.200000 0.052000 0.062000
1559767731278459310	900 34 1.000000 0.260000 0.273000 800 33 0.900000 0.149000 0.137000 600 37 1.000000 0.050000 0.050000 1.200000 0.052000 0.062000
1559767731787335935	900 34 1.000000 0.259000 0.271000 800 33 0.900000 0.138000 0.127000 600 37 1.000000 0.051000 0.051000 1.200000 0.052000 0.062000
1559767732296089102	900 34 1.000000 0.260000 0.273000 800 33 0.900000 0.151000 0.139000 600 37 1.000000 0.051000 0.051000 1.200000 0.052000 0.062000
1559767732804700268	900 34 1.000000 0.260000 0.272000 800 33 0.900000 0.287000 0.265000 600 37 1.000000 0.051000 0.051000 1.200000 0.058000 0.070000
1559767733312983352	900 34 1.000000 0.261000 0.273000 800 33 0.900000 0.141000 0.130000 600 37 1.000000 0.051000 0.051000 1.200000 0.052000 0.062000
1559767733821655602	900 34 1.000000 0.260000 0.272000 800 33 0.900000 0.186000 0.172000 600 37 1.000000 0.051000 0.051000 1.200000 0.053000 0.064000
1559767734330919560	900 34 1.000000 0.261000 0.273000 800 33 0.900000 0.146000 0.135000 600 37 1.000000 0.051000 0.051000 1.200000 0.053000 0.064000
1559767734839752102	900 34 1.000000 0.268000 0.280000 800 33 0.900000 0.298000 0.275000 600 37 1.000000 0.051000 0.051000 1.200000 0.060000 0.072000
1559767735348280560	900 34 1.000000 0.260000 0.273000 800 33 0.900000 0.155000 0.143000 600 37 1.000000 0.051000 0.051000 1.200000 0.053000 0.064000
1559767735857093644	900 34 1.000000 0.259000 0.271000 800 33 0.900000 0.213000 0.197000 600 37 1.000000 0.051000 0.051000 1.200000 0.054000 0.065000
1559767736365591310	900 34 1.000000 0.260000 0.273000 800 33 0.900000 0.147000 0.136000 600 37 1.000000 0.051000 0.051000 1.200000 0.053000 0.064000
1559767736874255269	900 34 1.000000 0.268000 0.281000 800 33 0.900000 0.303000 0.280000 600 37 1.000000 0.051000 0.051000 1.200000 0.060000 0.072000
1559767737382766019	900 34 1.000000 0.261000 0.274000 800 33 0.900000 0.138000 0.127000 600 37 1.000000 0.051000 0.051000 1.200000 0.052000 0.062000
1559767737891617519	900 34 1.000000 0.260000 0.273000 800 33 0.900000 0.207000 0.191000 600 37 1.000000 0.051000 0.051000 1.200000 0.054000 0.065000
1559767738400426644	900 34 1.000000 0.260000 0.273000 800 33 0.900000 0.148000 0.137000 600 37 1.000000 0.051000 0.051000 1.200000 0.053000 0.064000
1559767738909096852	900 34 1.000000 0.261000 0.274000 800 33 0.900000 0.140000 0.129000 600 37 1.000000 0.051000 0.051000 1.200000 0.052000 0.062000
1559767739417651228	900 34 1.000000 0.266000 0.279000 800 33 0.900000 0.201000 0.186000 600 37 1.000000 0.051000 0.051000 1.200000 0.054000 0.065000
1559767739926442769	900 34 1.000000 0.261000 0.273000 800 33 0.900000 0.147000 0.136000 600 37 1.000000 0.050000 0.050000 1.200000 0.052000 0.062000
1559767740435137311	900 34 1.000000 0.259000 0.271000 800 33 0.900000 0.145000 0.134000 600 37 1.000000 0.051000 0.051000 1.200000 0.053000 0.064000
1559767740944476478	900 35 1.000000 0.261000 0.274000 800 33 0.900000 0.154000 0.142000 600 37 1.000000 0.051000 0.051000 1.200000 0.053000 0.064000
1559767741453240644	900 34 1.000000 0.268000 0.281000 800 33 0.900000 0.239000 0.221000 600 37 1.000000 0.051000 0.051000 1.200000 0.056000 0.067000
1559767741962104519	900 34 1.000000 0.260000 0.272000 800 33 0.900000 0.145000 0.134000 600 37 1.000000 0.051000 0.051000 1.200000 0.053000 0.064000
1559767742470816311	900 34 1.000000 0.260000 0.272000 800 33 0.900000 0.157000 0.145000 600 37 1.000000 0.051000 0.051000 1.200000 0.053000 0.064000
1559767742979219936	900 34 1.000000 0.260000 0.272000 800 33 0.900000 0.142000 0.131000 600 37 1.000000 0.051000 0.051000 1.200000 0.052000 0.062000
1559767743487853520	900 34 1.000000 0.267000 0.279000 800 33 0.900000 0.277000 0.256000 600 37 1.000000 0.051000 0.051000 1.200000 0.058000 0.070000
1559767743996638520	900 34 1.000000 0.260000 0.272000 800 33 0.900000 0.193000 0.178000 600 37 1.000000 0.051000 0.051000 1.200000 0.054000 0.065000
1559767744505221228	900 34 1.000000 0.261000 0.273000 800 33 0.900000 0.138000 0.127000 600 37 1.000000 0.051000 0.051000 1.200000 0.052000 0.062000
1559767745013666103	900 34 1.000000 0.261000 0.273000 800 33 0.900000 0.136000 0.125000 600 37 1.000000 0.050000 0.050000 1.200000 0.052000 0.062000
1559767745522461645	900 34 1.000000 0.265000 0.277000 800 33 0.900000 0.148000 0.137000 600 37 1.000000 0.051000 0.051000 1.200000 0.052000 0.062000
1559767746031368437	900 34 1.000000 0.265000 0.277000 800 33 0.900000 0.144000 0.133000 600 37 1.000000 0.050000 0.050000 1.200000 0.052000 0.062000
1559767746540029687	900 34 1.000000 0.260000 0.273000 800 33 0.900000 0.152000 0.140000 600 37 1.000000 0.051000 0.051000 1.200000 0.053000 0.064000
1559767747048511603	900 34 1.000000 0.261000 0.274000 800 33 0.900000 0.146000 0.135000 600 37 1.000000 0.051000 0.051000 1.200000 0.052000 0.062000
1559767747557019853	900 34 1.000000 0.260000 0.273000 800 33 0.900000 0.142000 0.131000 600 37 1.000000 0.051000 0.051000 1.200000 0.052000 0.062000
1559767748065830437	900 34 1.000000 0.264000 0.276000 800 33 0.900000 0.154000 0.142000 600 37 1.000000 0.051000 0.051000 1.200000 0.052000 0.062000
1559767748574446062	900 33 1.000000 0.174000 0.183000 800 33 0.900000 0.130000 0.120000 600 37 1.000000 0.051000 0.051000 1.200000 0.041000 0.049000
1559767749083054604	900 33 1.000000 0.040000 0.042000 800 32 0.900000 0.084000 0.077000 600 36 1.000000 0.051000 0.051000 1.200000 0.023000 0.027000
