#Timestamp	CPU(0) Frequency(MHz)	CPU(0) Temperature(C)	A7 Voltage(V)	A7 Current(A)	A7 Power(W)	CPU(4) Frequency(MHz)	CPU(4) Temperature(C)	A15 Voltage(V)	A15 Current(A)	A15 Power(W)	GPU Frequency(MHz)	GPU Temperature(C)	GPU Voltage(V)	GPU Current(A)	GPU Power(W)	RAM Voltage(V)	RAM Current(A)	RAM Power(W)
1559784775336494436	1200 31 1.100000 0.050000 0.056000 600 30 0.900000 0.127000 0.115000 600 35 1.000000 0.050000 0.050000 1.200000 0.039000 0.047000
1559784775847961770	1200 31 1.100000 0.155000 0.181000 600 31 0.900000 0.121000 0.110000 600 35 1.000000 0.050000 0.050000 1.200000 0.044000 0.053000
1559784776358900645	1200 31 1.100000 0.155000 0.181000 600 31 0.900000 0.091000 0.083000 600 35 1.000000 0.050000 0.050000 1.200000 0.044000 0.053000
1559784776869957478	1200 32 1.100000 0.155000 0.181000 600 31 0.900000 0.144000 0.131000 600 35 1.000000 0.050000 0.050000 1.200000 0.044000 0.053000
1559784777380860812	1200 31 1.100000 0.155000 0.181000 600 31 0.900000 0.081000 0.073000 600 35 1.000000 0.050000 0.050000 1.200000 0.041000 0.049000
1559784777891876687	1200 31 1.100000 0.172000 0.201000 600 31 0.900000 0.129000 0.117000 600 35 1.000000 0.050000 0.050000 1.200000 0.025000 0.030000
1559784778402827854	1200 31 1.100000 0.172000 0.201000 600 31 0.900000 0.066000 0.060000 600 35 1.000000 0.050000 0.050000 1.200000 0.026000 0.031000
1559784778915716229	1200 32 1.100000 0.170000 0.199000 600 31 0.900000 0.066000 0.060000 600 35 1.000000 0.050000 0.050000 1.200000 0.025000 0.030000
1559784779426872062	1200 32 1.100000 0.171000 0.200000 600 31 0.900000 0.070000 0.063000 600 35 1.000000 0.050000 0.050000 1.200000 0.027000 0.032000
1559784779938114020	1200 31 1.100000 0.172000 0.201000 600 31 0.900000 0.146000 0.133000 600 35 1.000000 0.050000 0.050000 1.200000 0.027000 0.032000
1559784780449407979	1200 31 1.100000 0.170000 0.199000 600 31 0.900000 0.066000 0.060000 600 35 1.000000 0.051000 0.051000 1.200000 0.025000 0.030000
1559784780961004979	1200 31 1.100000 0.171000 0.200000 600 31 0.900000 0.065000 0.059000 600 35 1.000000 0.050000 0.050000 1.200000 0.025000 0.030000
1559784781472224312	1200 32 1.100000 0.172000 0.201000 600 31 0.900000 0.125000 0.114000 600 35 1.000000 0.050000 0.050000 1.200000 0.028000 0.033000
1559784781983314812	1200 32 1.100000 0.172000 0.201000 600 31 0.900000 0.145000 0.132000 600 35 1.000000 0.051000 0.051000 1.200000 0.029000 0.035000
1559784782494130479	1200 31 1.100000 0.172000 0.201000 600 31 0.900000 0.067000 0.061000 600 35 1.000000 0.050000 0.050000 1.200000 0.025000 0.030000
1559784783005088937	1200 31 1.100000 0.172000 0.201000 600 31 0.900000 0.066000 0.060000 600 35 1.000000 0.051000 0.051000 1.200000 0.025000 0.030000
1559784783515974687	1200 32 1.100000 0.171000 0.200000 600 31 0.900000 0.205000 0.186000 600 35 1.000000 0.050000 0.050000 1.200000 0.031000 0.037000
1559784784027158938	1200 32 1.100000 0.171000 0.200000 600 31 0.900000 0.077000 0.070000 600 35 1.000000 0.051000 0.051000 1.200000 0.025000 0.030000
1559784784538285854	1200 31 1.100000 0.172000 0.201000 600 31 0.900000 0.072000 0.065000 600 35 1.000000 0.050000 0.050000 1.200000 0.025000 0.030000
1559784785049230938	1200 31 1.100000 0.171000 0.200000 600 31 0.900000 0.067000 0.061000 600 35 1.000000 0.050000 0.050000 1.200000 0.025000 0.030000
1559784785561070813	1200 32 1.100000 0.171000 0.200000 600 31 0.900000 0.082000 0.074000 600 35 1.000000 0.051000 0.051000 1.200000 0.025000 0.030000
1559784786072480229	1200 32 1.100000 0.172000 0.201000 600 31 0.900000 0.270000 0.246000 600 35 1.000000 0.050000 0.050000 1.200000 0.027000 0.032000
1559784786583504980	1200 31 1.100000 0.171000 0.200000 600 31 0.900000 0.156000 0.142000 600 35 1.000000 0.050000 0.050000 1.200000 0.026000 0.031000
1559784787094315521	1200 31 1.100000 0.172000 0.201000 600 31 0.900000 0.073000 0.066000 600 35 1.000000 0.050000 0.050000 1.200000 0.025000 0.030000
1559784787607170021	1200 31 1.100000 0.171000 0.200000 600 31 0.900000 0.074000 0.067000 600 35 1.000000 0.050000 0.050000 1.200000 0.025000 0.030000
1559784788119504105	1200 32 1.100000 0.171000 0.200000 600 31 0.900000 0.212000 0.193000 600 35 1.000000 0.050000 0.050000 1.200000 0.028000 0.033000
1559784788630538771	1200 31 1.100000 0.172000 0.201000 600 31 0.900000 0.158000 0.144000 600 35 1.000000 0.050000 0.050000 1.200000 0.025000 0.030000
1559784789141180438	1200 31 1.100000 0.171000 0.200000 600 31 0.900000 0.080000 0.072000 600 34 1.000000 0.050000 0.050000 1.200000 0.024000 0.028000
1559784789651876188	1200 31 1.100000 0.171000 0.200000 600 31 0.900000 0.073000 0.066000 600 35 1.000000 0.050000 0.050000 1.200000 0.025000 0.030000
1559784790163172438	1200 32 1.100000 0.171000 0.200000 600 31 0.900000 0.133000 0.121000 600 35 1.000000 0.050000 0.050000 1.200000 0.031000 0.037000
1559784790674445355	1200 31 1.100000 0.171000 0.200000 600 31 0.900000 0.119000 0.108000 600 35 1.000000 0.050000 0.050000 1.200000 0.025000 0.030000
1559784791185347938	1200 31 1.100000 0.171000 0.200000 600 31 0.900000 0.083000 0.075000 600 35 1.000000 0.050000 0.050000 1.200000 0.024000 0.028000
1559784791696154313	1200 31 1.100000 0.171000 0.200000 600 31 0.900000 0.069000 0.062000 600 35 1.000000 0.050000 0.050000 1.200000 0.025000 0.030000
1559784792209223147	1200 32 1.100000 0.171000 0.200000 600 31 0.900000 0.072000 0.065000 600 35 1.000000 0.050000 0.050000 1.200000 0.025000 0.030000
1559784792720783689	1200 31 1.100000 0.172000 0.201000 600 30 0.900000 0.333000 0.303000 600 34 1.000000 0.050000 0.050000 1.200000 0.031000 0.037000
1559784793231763105	1200 31 1.100000 0.171000 0.200000 600 31 0.900000 0.076000 0.069000 600 34 1.000000 0.050000 0.050000 1.200000 0.025000 0.030000
1559784793742471689	1200 31 1.100000 0.171000 0.200000 600 30 0.900000 0.081000 0.073000 600 34 1.000000 0.050000 0.050000 1.200000 0.025000 0.030000
1559784794254117022	1200 31 1.100000 0.171000 0.200000 600 31 0.900000 0.078000 0.071000 600 34 1.000000 0.050000 0.050000 1.200000 0.025000 0.030000
1559784794765550980	1200 31 1.100000 0.172000 0.201000 600 31 0.900000 0.268000 0.244000 600 35 1.000000 0.051000 0.051000 1.200000 0.035000 0.042000
1559784795277228397	1200 31 1.100000 0.171000 0.200000 600 31 0.900000 0.074000 0.067000 600 35 1.000000 0.050000 0.050000 1.200000 0.025000 0.030000
1559784795788139106	1200 31 1.100000 0.171000 0.200000 600 31 0.900000 0.078000 0.071000 600 34 1.000000 0.050000 0.050000 1.200000 0.025000 0.030000
1559784796298963897	1200 31 1.100000 0.171000 0.200000 600 31 0.900000 0.082000 0.074000 600 34 1.000000 0.051000 0.051000 1.200000 0.025000 0.030000
1559784796810053689	1200 31 1.100000 0.172000 0.201000 600 31 0.900000 0.202000 0.184000 600 35 1.000000 0.050000 0.050000 1.200000 0.034000 0.041000
1559784797321014564	1200 31 1.100000 0.170000 0.199000 600 31 0.900000 0.073000 0.066000 600 34 1.000000 0.050000 0.050000 1.200000 0.025000 0.030000
1559784797831893064	1200 31 1.100000 0.171000 0.200000 600 31 0.900000 0.075000 0.068000 600 34 1.000000 0.050000 0.050000 1.200000 0.024000 0.029000
1559784798342510898	1200 31 1.100000 0.171000 0.200000 600 31 0.900000 0.066000 0.060000 600 34 1.000000 0.050000 0.050000 1.200000 0.025000 0.030000
1559784798854130273	1200 32 1.100000 0.173000 0.202000 600 31 0.900000 0.143000 0.130000 600 35 1.000000 0.050000 0.050000 1.200000 0.030000 0.036000
1559784799365451439	1200 31 1.100000 0.171000 0.200000 600 30 0.900000 0.069000 0.062000 600 34 1.000000 0.050000 0.050000 1.200000 0.028000 0.033000
1559784799876230481	1200 31 1.100000 0.170000 0.199000 600 30 0.900000 0.066000 0.060000 600 34 1.000000 0.050000 0.050000 1.200000 0.025000 0.030000
1559784800387032856	1200 31 1.100000 0.171000 0.200000 600 30 0.900000 0.076000 0.069000 600 34 1.000000 0.050000 0.050000 1.200000 0.025000 0.030000
1559784800899034148	1200 31 1.100000 0.172000 0.201000 600 30 0.900000 0.085000 0.077000 600 35 1.000000 0.050000 0.050000 1.200000 0.025000 0.030000
1559784801410150398	1200 31 1.100000 0.171000 0.200000 600 31 0.900000 0.207000 0.188000 600 35 1.000000 0.050000 0.050000 1.200000 0.027000 0.032000
1559784801921210481	1200 31 1.100000 0.171000 0.200000 600 30 0.900000 0.075000 0.068000 600 34 1.000000 0.050000 0.050000 1.200000 0.025000 0.030000
1559784802432016023	1200 31 1.100000 0.170000 0.199000 600 30 0.900000 0.072000 0.065000 600 34 1.000000 0.050000 0.050000 1.200000 0.025000 0.030000
1559784802943144356	1200 31 1.100000 0.171000 0.200000 600 30 0.900000 0.076000 0.069000 600 34 1.000000 0.050000 0.050000 1.200000 0.025000 0.030000
1559784803454311107	1200 31 1.100000 0.170000 0.199000 600 30 0.900000 0.127000 0.115000 600 34 1.000000 0.050000 0.050000 1.200000 0.026000 0.031000
1559784803965103898	1200 31 1.100000 0.171000 0.200000 600 30 0.900000 0.079000 0.072000 600 34 1.000000 0.050000 0.050000 1.200000 0.025000 0.030000
1559784804475875898	1200 31 1.100000 0.171000 0.200000 600 31 0.900000 0.072000 0.065000 600 34 1.000000 0.050000 0.050000 1.200000 0.025000 0.030000
1559784804986789898	1200 31 1.100000 0.172000 0.201000 600 30 0.900000 0.096000 0.087000 600 34 1.000000 0.050000 0.050000 1.200000 0.026000 0.031000
1559784805498733232	1200 32 1.100000 0.171000 0.200000 600 31 0.900000 0.064000 0.058000 600 35 1.000000 0.050000 0.050000 1.200000 0.025000 0.030000
1559784806010088273	1200 31 1.100000 0.171000 0.200000 600 30 0.900000 0.067000 0.061000 600 34 1.000000 0.050000 0.050000 1.200000 0.028000 0.033000
1559784806520956482	1200 31 1.100000 0.171000 0.200000 600 30 0.900000 0.067000 0.061000 600 34 1.000000 0.050000 0.050000 1.200000 0.025000 0.030000
1559784807032022857	1200 31 1.100000 0.172000 0.201000 600 30 0.900000 0.130000 0.118000 600 35 1.000000 0.050000 0.050000 1.200000 0.025000 0.030000
1559784807544132315	1200 31 1.100000 0.171000 0.200000 600 30 0.900000 0.065000 0.059000 600 34 1.000000 0.050000 0.050000 1.200000 0.025000 0.030000
1559784808055073024	1200 31 1.100000 0.170000 0.199000 600 30 0.900000 0.130000 0.118000 600 35 1.000000 0.050000 0.050000 1.200000 0.030000 0.036000
1559784808566031399	1200 31 1.100000 0.172000 0.201000 600 30 0.900000 0.082000 0.074000 600 34 1.000000 0.050000 0.050000 1.200000 0.025000 0.030000
1559784809077078441	1200 31 1.100000 0.171000 0.200000 600 30 0.900000 0.077000 0.070000 600 34 1.000000 0.050000 0.050000 1.200000 0.025000 0.030000
1559784809588148732	1200 31 1.100000 0.172000 0.201000 600 30 0.900000 0.074000 0.067000 600 34 1.000000 0.050000 0.050000 1.200000 0.029000 0.035000
1559784810099238524	1200 31 1.100000 0.170000 0.199000 600 30 0.900000 0.123000 0.112000 600 35 1.000000 0.050000 0.050000 1.200000 0.025000 0.030000
1559784810610177274	1200 31 1.100000 0.170000 0.199000 600 30 0.900000 0.080000 0.073000 600 34 1.000000 0.050000 0.050000 1.200000 0.025000 0.030000
1559784811121384024	1200 31 1.100000 0.172000 0.201000 600 30 0.900000 0.081000 0.073000 600 34 1.000000 0.050000 0.050000 1.200000 0.025000 0.030000
1559784811632325232	1200 31 1.100000 0.171000 0.200000 600 30 0.900000 0.075000 0.068000 600 34 1.000000 0.050000 0.050000 1.200000 0.027000 0.032000
1559784812143958108	1200 32 1.100000 0.171000 0.200000 600 30 0.900000 0.067000 0.061000 600 35 1.000000 0.050000 0.050000 1.200000 0.025000 0.030000
1559784812655097649	1200 31 1.100000 0.171000 0.200000 600 30 0.900000 0.066000 0.060000 600 34 1.000000 0.050000 0.050000 1.200000 0.029000 0.035000
1559784813166322399	1200 31 1.100000 0.171000 0.200000 600 30 0.900000 0.065000 0.059000 600 34 1.000000 0.050000 0.050000 1.200000 0.026000 0.031000
1559784813677214358	1200 31 1.100000 0.171000 0.200000 600 30 0.900000 0.066000 0.060000 600 34 1.000000 0.050000 0.050000 1.200000 0.025000 0.030000
1559784814188802441	1200 31 1.100000 0.171000 0.200000 600 30 0.900000 0.068000 0.062000 600 34 1.000000 0.050000 0.050000 1.200000 0.025000 0.030000
1559784814700001483	1200 31 1.100000 0.172000 0.201000 600 30 0.900000 0.127000 0.115000 600 34 1.000000 0.051000 0.051000 1.200000 0.029000 0.035000
1559784815211324983	1200 31 1.100000 0.171000 0.200000 600 30 0.900000 0.065000 0.059000 600 34 1.000000 0.050000 0.050000 1.200000 0.025000 0.030000
1559784815722590316	1200 31 1.100000 0.171000 0.200000 600 30 0.900000 0.066000 0.060000 600 34 1.000000 0.050000 0.050000 1.200000 0.025000 0.030000
1559784816233421316	1200 31 1.100000 0.171000 0.200000 600 30 0.900000 0.067000 0.061000 600 34 1.000000 0.050000 0.050000 1.200000 0.025000 0.030000
1559784816744052566	1200 31 1.100000 0.170000 0.199000 600 30 0.900000 0.121000 0.110000 600 34 1.000000 0.050000 0.050000 1.200000 0.025000 0.030000
1559784817255768691	1200 31 1.100000 0.171000 0.200000 600 30 0.900000 0.074000 0.067000 600 34 1.000000 0.050000 0.050000 1.200000 0.025000 0.030000
1559784817766950275	1200 31 1.100000 0.173000 0.202000 600 30 0.900000 0.152000 0.138000 600 34 1.000000 0.050000 0.050000 1.200000 0.030000 0.036000
1559784818277872233	1200 31 1.100000 0.171000 0.200000 600 30 0.900000 0.081000 0.073000 600 34 1.000000 0.050000 0.050000 1.200000 0.026000 0.031000
1559784818790990233	1200 32 1.100000 0.171000 0.200000 600 30 0.900000 0.067000 0.061000 600 34 1.000000 0.050000 0.050000 1.200000 0.025000 0.030000
1559784819302385150	1200 31 1.100000 0.170000 0.199000 600 30 0.900000 0.069000 0.062000 600 34 1.000000 0.050000 0.050000 1.200000 0.027000 0.032000
1559784819813421400	1200 31 1.100000 0.171000 0.200000 600 30 0.900000 0.109000 0.099000 600 34 1.000000 0.050000 0.050000 1.200000 0.030000 0.036000
1559784820324355109	1200 31 1.100000 0.171000 0.200000 600 30 0.900000 0.065000 0.059000 600 34 1.000000 0.050000 0.050000 1.200000 0.025000 0.030000
1559784820837388650	1200 31 1.100000 0.171000 0.200000 600 30 0.900000 0.066000 0.060000 600 34 1.000000 0.050000 0.050000 1.200000 0.025000 0.030000
1559784821348613109	1200 31 1.100000 0.172000 0.201000 600 30 0.900000 0.130000 0.118000 600 34 1.000000 0.050000 0.050000 1.200000 0.031000 0.037000
1559784821859902859	1200 31 1.100000 0.172000 0.201000 600 30 0.900000 0.070000 0.063000 600 34 1.000000 0.050000 0.050000 1.200000 0.029000 0.035000
1559784822370841150	1200 31 1.100000 0.170000 0.199000 600 30 0.900000 0.065000 0.059000 600 34 1.000000 0.050000 0.050000 1.200000 0.025000 0.030000
1559784822881702150	1200 31 1.100000 0.170000 0.199000 600 30 0.900000 0.065000 0.059000 600 34 1.000000 0.050000 0.050000 1.200000 0.025000 0.030000
1559784823392514734	1200 31 1.100000 0.172000 0.201000 600 30 0.900000 0.220000 0.200000 600 34 1.000000 0.050000 0.050000 1.200000 0.033000 0.039000
1559784823903889276	1200 31 1.100000 0.172000 0.201000 600 30 0.900000 0.068000 0.062000 600 34 1.000000 0.050000 0.050000 1.200000 0.028000 0.033000
1559784824414896651	1200 31 1.100000 0.171000 0.200000 600 30 0.900000 0.067000 0.061000 600 34 1.000000 0.050000 0.050000 1.200000 0.025000 0.030000
1559784824925902442	1200 31 1.100000 0.171000 0.200000 600 30 0.900000 0.067000 0.061000 600 34 1.000000 0.050000 0.050000 1.200000 0.025000 0.030000
1559784825437716942	1200 31 1.100000 0.171000 0.200000 600 30 0.900000 0.075000 0.068000 600 35 1.000000 0.050000 0.050000 1.200000 0.025000 0.030000
1559784825948873776	1200 31 1.100000 0.173000 0.202000 600 30 0.900000 0.279000 0.254000 600 34 1.000000 0.050000 0.050000 1.200000 0.032000 0.038000
1559784826459651109	1200 31 1.100000 0.170000 0.199000 600 30 0.900000 0.083000 0.075000 600 34 1.000000 0.050000 0.050000 1.200000 0.026000 0.031000
1559784826970580568	1200 31 1.100000 0.171000 0.200000 600 30 0.900000 0.073000 0.066000 600 34 1.000000 0.050000 0.050000 1.200000 0.025000 0.030000
1559784827481949401	1200 31 1.100000 0.171000 0.200000 600 30 0.900000 0.072000 0.065000 600 34 1.000000 0.050000 0.050000 1.200000 0.025000 0.030000
1559784827993194651	1200 31 1.100000 0.171000 0.200000 600 30 0.900000 0.204000 0.186000 600 34 1.000000 0.050000 0.050000 1.200000 0.034000 0.041000
1559784828504103818	1200 31 1.100000 0.171000 0.200000 600 30 0.900000 0.083000 0.075000 600 34 1.000000 0.050000 0.050000 1.200000 0.025000 0.030000
1559784829014949568	1200 31 1.100000 0.172000 0.201000 600 30 0.900000 0.079000 0.072000 600 34 1.000000 0.050000 0.050000 1.200000 0.025000 0.030000
1559784829525735276	1200 31 1.100000 0.171000 0.200000 600 30 0.900000 0.071000 0.064000 600 34 1.000000 0.050000 0.050000 1.200000 0.025000 0.030000
1559784830036715068	1200 31 1.100000 0.172000 0.201000 600 30 0.900000 0.118000 0.107000 600 35 1.000000 0.050000 0.050000 1.200000 0.038000 0.045000
1559784830547770443	1200 31 1.100000 0.171000 0.200000 600 30 0.900000 0.081000 0.073000 600 34 1.000000 0.050000 0.050000 1.200000 0.025000 0.030000
1559784831058611360	1200 31 1.100000 0.171000 0.200000 600 30 0.900000 0.081000 0.073000 600 34 1.000000 0.050000 0.050000 1.200000 0.025000 0.030000
1559784831569524943	1200 31 1.100000 0.171000 0.200000 600 30 0.900000 0.075000 0.068000 600 34 1.000000 0.050000 0.050000 1.200000 0.025000 0.030000
1559784832081018610	1200 32 1.100000 0.173000 0.202000 600 30 0.900000 0.066000 0.060000 600 35 1.000000 0.050000 0.050000 1.200000 0.035000 0.042000
1559784832591918152	1200 31 1.100000 0.171000 0.200000 600 30 0.900000 0.066000 0.060000 600 34 1.000000 0.050000 0.050000 1.200000 0.025000 0.030000
1559784833102753985	1200 31 1.100000 0.172000 0.201000 600 30 0.900000 0.081000 0.073000 600 34 1.000000 0.051000 0.051000 1.200000 0.025000 0.030000
1559784833613458193	1200 31 1.100000 0.171000 0.200000 600 30 0.900000 0.078000 0.071000 600 34 1.000000 0.050000 0.050000 1.200000 0.025000 0.030000
1559784834126036902	1200 31 1.100000 0.171000 0.200000 600 30 0.900000 0.072000 0.065000 600 34 1.000000 0.050000 0.050000 1.200000 0.025000 0.030000
1559784834638056027	1200 31 1.100000 0.173000 0.202000 600 30 0.900000 0.254000 0.231000 600 34 1.000000 0.050000 0.050000 1.200000 0.031000 0.037000
1559784835148938527	1200 31 1.100000 0.171000 0.200000 600 30 0.900000 0.075000 0.068000 600 34 1.000000 0.051000 0.051000 1.200000 0.025000 0.030000
1559784835659655985	1200 31 1.100000 0.171000 0.200000 600 30 0.900000 0.081000 0.073000 600 34 1.000000 0.050000 0.050000 1.200000 0.025000 0.030000
1559784836170875777	1200 31 1.100000 0.172000 0.201000 600 30 0.900000 0.079000 0.072000 600 34 1.000000 0.051000 0.051000 1.200000 0.025000 0.030000
1559784836681955402	1200 31 1.100000 0.172000 0.201000 600 30 0.900000 0.143000 0.130000 600 34 1.000000 0.050000 0.050000 1.200000 0.032000 0.038000
1559784837192946652	1200 31 1.100000 0.170000 0.199000 600 30 0.900000 0.072000 0.065000 600 34 1.000000 0.050000 0.050000 1.200000 0.025000 0.030000
1559784837703664861	1200 31 1.100000 0.171000 0.200000 600 30 0.900000 0.077000 0.070000 600 34 1.000000 0.050000 0.050000 1.200000 0.025000 0.030000
1559784838214675027	1200 31 1.100000 0.171000 0.200000 600 30 0.900000 0.082000 0.074000 600 34 1.000000 0.050000 0.050000 1.200000 0.025000 0.030000
1559784838726533777	1200 31 1.100000 0.171000 0.200000 600 30 0.900000 0.078000 0.071000 600 34 1.000000 0.050000 0.050000 1.200000 0.030000 0.036000
1559784839237617277	1200 31 1.100000 0.171000 0.200000 600 30 0.900000 0.068000 0.062000 600 34 1.000000 0.050000 0.050000 1.200000 0.025000 0.030000
1559784839748574611	1200 31 1.100000 0.170000 0.199000 600 30 0.900000 0.065000 0.059000 600 34 1.000000 0.050000 0.050000 1.200000 0.025000 0.030000
1559784840259730903	1200 31 1.100000 0.171000 0.200000 600 30 0.900000 0.065000 0.059000 600 34 1.000000 0.050000 0.050000 1.200000 0.027000 0.032000
1559784840771423861	1200 31 1.100000 0.171000 0.200000 600 30 0.900000 0.067000 0.061000 600 34 1.000000 0.050000 0.050000 1.200000 0.028000 0.033000
1559784841283298528	1200 31 1.100000 0.171000 0.200000 600 31 0.900000 0.195000 0.177000 600 34 1.000000 0.050000 0.050000 1.200000 0.026000 0.031000
1559784841794248153	1200 31 1.100000 0.170000 0.199000 600 30 0.900000 0.072000 0.065000 600 34 1.000000 0.050000 0.050000 1.200000 0.025000 0.030000
1559784842305552153	1200 31 1.100000 0.171000 0.200000 600 30 0.900000 0.072000 0.065000 600 34 1.000000 0.050000 0.050000 1.200000 0.025000 0.030000
1559784842816500945	1200 31 1.100000 0.172000 0.201000 600 30 0.900000 0.155000 0.141000 600 34 1.000000 0.050000 0.050000 1.200000 0.029000 0.035000
1559784843327701111	1200 31 1.100000 0.171000 0.200000 600 30 0.900000 0.128000 0.116000 600 34 1.000000 0.050000 0.050000 1.200000 0.025000 0.030000
1559784843838490195	1200 31 1.100000 0.171000 0.200000 600 30 0.900000 0.078000 0.071000 600 34 1.000000 0.050000 0.050000 1.200000 0.026000 0.031000
1559784844349345695	1200 31 1.100000 0.170000 0.199000 600 30 0.900000 0.072000 0.065000 600 34 1.000000 0.050000 0.050000 1.200000 0.025000 0.030000
1559784844860351070	1200 31 1.100000 0.171000 0.200000 600 30 0.900000 0.151000 0.137000 600 34 1.000000 0.050000 0.050000 1.200000 0.030000 0.036000
1559784845371753445	1200 31 1.100000 0.171000 0.200000 600 30 0.900000 0.081000 0.073000 600 35 1.000000 0.050000 0.050000 1.200000 0.025000 0.030000
1559784845882649612	1200 31 1.100000 0.171000 0.200000 600 30 0.900000 0.069000 0.062000 600 34 1.000000 0.050000 0.050000 1.200000 0.029000 0.035000
1559784846393430362	1200 31 1.100000 0.171000 0.200000 600 30 0.900000 0.067000 0.061000 600 34 1.000000 0.050000 0.050000 1.200000 0.025000 0.030000
1559784846904321528	1200 31 1.100000 0.172000 0.201000 600 30 0.900000 0.143000 0.130000 600 34 1.000000 0.050000 0.050000 1.200000 0.031000 0.037000
1559784847415935028	1200 31 1.100000 0.172000 0.201000 600 30 0.900000 0.065000 0.059000 600 34 1.000000 0.050000 0.050000 1.200000 0.026000 0.031000
1559784847927437737	1200 31 1.100000 0.129000 0.151000 600 30 0.900000 0.178000 0.162000 600 34 1.000000 0.050000 0.050000 1.200000 0.070000 0.084000
1559784848438298154	1200 32 1.100000 0.208000 0.242000 600 31 0.900000 0.107000 0.097000 600 34 1.000000 0.050000 0.050000 1.200000 0.061000 0.073000
1559784848949598820	1200 32 1.100000 0.277000 0.321000 600 31 0.900000 0.150000 0.136000 600 35 1.000000 0.050000 0.050000 1.200000 0.051000 0.061000
1559784849460458195	1200 32 1.100000 0.274000 0.318000 600 31 0.900000 0.109000 0.099000 600 35 1.000000 0.051000 0.051000 1.200000 0.049000 0.059000
1559784849971485404	1200 32 1.100000 0.273000 0.316000 600 31 0.900000 0.151000 0.137000 600 35 1.000000 0.050000 0.050000 1.200000 0.049000 0.059000
1559784850482288612	1200 32 1.100000 0.272000 0.315000 600 31 0.900000 0.116000 0.105000 600 35 1.000000 0.050000 0.050000 1.200000 0.049000 0.059000
1559784850993376029	1200 32 1.100000 0.274000 0.318000 600 31 0.900000 0.162000 0.147000 600 35 1.000000 0.050000 0.050000 1.200000 0.049000 0.059000
1559784851504336779	1200 32 1.100000 0.272000 0.315000 600 31 0.900000 0.109000 0.099000 600 35 1.000000 0.051000 0.051000 1.200000 0.049000 0.059000
1559784852015763779	1200 33 1.100000 0.274000 0.318000 600 31 0.900000 0.111000 0.101000 600 35 1.000000 0.050000 0.050000 1.200000 0.049000 0.059000
1559784852526670571	1200 32 1.100000 0.276000 0.320000 600 31 0.900000 0.105000 0.095000 600 35 1.000000 0.050000 0.050000 1.200000 0.050000 0.060000
1559784853037767862	1200 32 1.100000 0.272000 0.315000 600 31 0.900000 0.170000 0.155000 600 35 1.000000 0.050000 0.050000 1.200000 0.049000 0.059000
1559784853548725071	1200 32 1.100000 0.272000 0.315000 600 31 0.900000 0.105000 0.095000 600 35 1.000000 0.050000 0.050000 1.200000 0.049000 0.059000
1559784854062722821	1200 33 1.100000 0.273000 0.316000 600 31 0.900000 0.105000 0.095000 600 35 1.000000 0.050000 0.050000 1.200000 0.049000 0.059000
1559784854573963363	1200 32 1.100000 0.277000 0.321000 600 31 0.900000 0.170000 0.155000 600 35 1.000000 0.050000 0.050000 1.200000 0.051000 0.061000
1559784855085161196	1200 32 1.100000 0.274000 0.318000 600 32 0.900000 0.169000 0.154000 600 35 1.000000 0.050000 0.050000 1.200000 0.050000 0.060000
1559784855596145863	1200 32 1.100000 0.273000 0.316000 600 32 0.900000 0.104000 0.094000 600 35 1.000000 0.051000 0.051000 1.200000 0.049000 0.059000
1559784856107002529	1200 32 1.100000 0.273000 0.316000 600 31 0.900000 0.106000 0.096000 600 35 1.000000 0.050000 0.050000 1.200000 0.049000 0.059000
1559784856618144113	1200 33 1.100000 0.277000 0.321000 600 32 0.900000 0.238000 0.217000 600 35 1.000000 0.050000 0.050000 1.200000 0.051000 0.061000
1559784857129388571	1200 33 1.100000 0.274000 0.318000 600 31 0.900000 0.169000 0.154000 600 35 1.000000 0.050000 0.050000 1.200000 0.051000 0.061000
1559784857640435821	1200 32 1.100000 0.273000 0.316000 600 31 0.900000 0.115000 0.104000 600 35 1.000000 0.050000 0.050000 1.200000 0.049000 0.059000
1559784858151345905	1200 32 1.100000 0.273000 0.316000 600 32 0.900000 0.118000 0.107000 600 35 1.000000 0.050000 0.050000 1.200000 0.049000 0.059000
1559784858662439280	1200 33 1.100000 0.274000 0.318000 600 32 0.900000 0.112000 0.102000 600 35 1.000000 0.050000 0.050000 1.200000 0.049000 0.059000
1559784859173495488	1200 33 1.100000 0.277000 0.321000 600 32 0.900000 0.108000 0.098000 600 35 1.000000 0.050000 0.050000 1.200000 0.050000 0.060000
1559784859684493905	1200 32 1.100000 0.274000 0.317000 600 32 0.900000 0.104000 0.094000 600 35 1.000000 0.050000 0.050000 1.200000 0.049000 0.059000
1559784860195246280	1200 32 1.100000 0.273000 0.316000 600 32 0.900000 0.103000 0.093000 600 35 1.000000 0.050000 0.050000 1.200000 0.049000 0.059000
1559784860706706238	1200 33 1.100000 0.273000 0.316000 600 31 0.900000 0.104000 0.094000 600 35 1.000000 0.050000 0.050000 1.200000 0.049000 0.059000
1559784861218027113	1200 33 1.100000 0.277000 0.321000 600 32 0.900000 0.172000 0.156000 600 35 1.000000 0.050000 0.050000 1.200000 0.051000 0.061000
1559784861729008988	1200 33 1.100000 0.273000 0.316000 600 32 0.900000 0.103000 0.093000 600 35 1.000000 0.050000 0.050000 1.200000 0.049000 0.059000
1559784862239847405	1200 32 1.100000 0.272000 0.315000 600 32 0.900000 0.103000 0.093000 600 35 1.000000 0.050000 0.050000 1.200000 0.049000 0.059000
1559784862750714322	1200 32 1.100000 0.273000 0.316000 600 32 0.900000 0.103000 0.093000 600 35 1.000000 0.050000 0.050000 1.200000 0.049000 0.059000
1559784863261920572	1200 33 1.100000 0.277000 0.321000 600 32 0.900000 0.263000 0.239000 600 35 1.000000 0.051000 0.051000 1.200000 0.050000 0.060000
1559784863773017530	1200 33 1.100000 0.272000 0.315000 600 32 0.900000 0.105000 0.095000 600 35 1.000000 0.050000 0.050000 1.200000 0.049000 0.059000
1559784864283804572	1200 32 1.100000 0.272000 0.315000 600 32 0.900000 0.111000 0.101000 600 35 1.000000 0.050000 0.050000 1.200000 0.049000 0.059000
1559784864794478739	1200 33 1.100000 0.272000 0.315000 600 32 0.900000 0.115000 0.104000 600 35 1.000000 0.051000 0.051000 1.200000 0.049000 0.059000
1559784865305880239	1200 33 1.100000 0.272000 0.315000 600 32 0.900000 0.115000 0.104000 600 36 1.000000 0.051000 0.051000 1.200000 0.050000 0.060000
1559784865817081864	1200 33 1.100000 0.279000 0.323000 600 32 0.900000 0.314000 0.286000 600 35 1.000000 0.050000 0.050000 1.200000 0.053000 0.064000
1559784866328171531	1200 32 1.100000 0.273000 0.316000 600 32 0.900000 0.110000 0.100000 600 35 1.000000 0.050000 0.050000 1.200000 0.049000 0.059000
1559784866839225406	1200 33 1.100000 0.274000 0.318000 600 32 0.900000 0.114000 0.104000 600 35 1.000000 0.051000 0.051000 1.200000 0.049000 0.059000
1559784867351567781	1200 33 1.100000 0.272000 0.315000 600 32 0.900000 0.116000 0.105000 600 35 1.000000 0.050000 0.050000 1.200000 0.049000 0.059000
1559784867862781364	1200 33 1.100000 0.279000 0.323000 600 32 0.900000 0.272000 0.248000 600 35 1.000000 0.051000 0.051000 1.200000 0.054000 0.065000
1559784868373692531	1200 33 1.100000 0.273000 0.316000 600 32 0.900000 0.112000 0.102000 600 35 1.000000 0.050000 0.050000 1.200000 0.049000 0.059000
1559784868884593448	1200 33 1.100000 0.274000 0.318000 600 32 0.900000 0.110000 0.100000 600 35 1.000000 0.051000 0.051000 1.200000 0.049000 0.059000
1559784869395302823	1200 33 1.100000 0.272000 0.315000 600 32 0.900000 0.114000 0.104000 600 35 1.000000 0.050000 0.050000 1.200000 0.049000 0.059000
1559784869906325614	1200 33 1.100000 0.279000 0.323000 600 32 0.900000 0.204000 0.186000 600 35 1.000000 0.051000 0.051000 1.200000 0.052000 0.062000
1559784870417373698	1200 33 1.100000 0.273000 0.316000 600 32 0.900000 0.114000 0.103000 600 35 1.000000 0.051000 0.051000 1.200000 0.049000 0.059000
1559784870928213406	1200 33 1.100000 0.274000 0.318000 600 32 0.900000 0.110000 0.100000 600 35 1.000000 0.050000 0.050000 1.200000 0.049000 0.059000
1559784871438894115	1200 33 1.100000 0.273000 0.316000 600 32 0.900000 0.110000 0.100000 600 35 1.000000 0.051000 0.051000 1.200000 0.049000 0.059000
1559784871950303781	1200 33 1.100000 0.274000 0.318000 600 32 0.900000 0.181000 0.165000 600 35 1.000000 0.050000 0.050000 1.200000 0.050000 0.060000
1559784872461328073	1200 33 1.100000 0.273000 0.316000 600 32 0.900000 0.123000 0.112000 600 35 1.000000 0.050000 0.050000 1.200000 0.049000 0.059000
1559784872972023531	1200 33 1.100000 0.272000 0.315000 600 32 0.900000 0.105000 0.095000 600 35 1.000000 0.051000 0.051000 1.200000 0.049000 0.059000
1559784873482857198	1200 33 1.100000 0.272000 0.315000 600 32 0.900000 0.109000 0.099000 600 35 1.000000 0.050000 0.050000 1.200000 0.049000 0.059000
1559784873994760907	1200 33 1.100000 0.273000 0.316000 600 32 0.900000 0.113000 0.103000 600 35 1.000000 0.051000 0.051000 1.200000 0.051000 0.061000
1559784874505853115	1200 33 1.100000 0.277000 0.321000 600 32 0.900000 0.206000 0.187000 600 35 1.000000 0.051000 0.051000 1.200000 0.051000 0.061000
1559784875016761073	1200 33 1.100000 0.273000 0.316000 600 32 0.900000 0.114000 0.103000 600 35 1.000000 0.050000 0.050000 1.200000 0.049000 0.059000
1559784875527760782	1200 33 1.100000 0.273000 0.316000 600 32 0.900000 0.112000 0.102000 600 35 1.000000 0.050000 0.050000 1.200000 0.049000 0.059000
1559784876038906865	1200 33 1.100000 0.273000 0.316000 600 32 0.900000 0.111000 0.101000 600 35 1.000000 0.050000 0.050000 1.200000 0.052000 0.062000
1559784876550068407	1200 33 1.100000 0.277000 0.321000 600 32 0.900000 0.136000 0.124000 600 35 1.000000 0.050000 0.050000 1.200000 0.050000 0.060000
1559784877060975615	1200 33 1.100000 0.275000 0.319000 600 32 0.900000 0.116000 0.105000 600 35 1.000000 0.050000 0.050000 1.200000 0.049000 0.059000
1559784877571887074	1200 33 1.100000 0.273000 0.316000 600 32 0.900000 0.114000 0.103000 600 35 1.000000 0.050000 0.050000 1.200000 0.049000 0.059000
1559784878083045949	1200 33 1.100000 0.273000 0.316000 600 32 0.900000 0.123000 0.112000 600 35 1.000000 0.051000 0.051000 1.200000 0.051000 0.061000
1559784878594788990	1200 33 1.100000 0.273000 0.316000 600 32 0.900000 0.112000 0.102000 600 35 1.000000 0.050000 0.050000 1.200000 0.050000 0.060000
1559784879105796032	1200 33 1.100000 0.273000 0.316000 600 32 0.900000 0.129000 0.117000 600 35 1.000000 0.050000 0.050000 1.200000 0.049000 0.059000
1559784879616607491	1200 33 1.100000 0.273000 0.316000 600 32 0.900000 0.103000 0.093000 600 35 1.000000 0.050000 0.050000 1.200000 0.049000 0.059000
1559784880127708074	1200 33 1.100000 0.273000 0.316000 600 32 0.900000 0.150000 0.136000 600 35 1.000000 0.050000 0.050000 1.200000 0.051000 0.061000
1559784880640666866	1200 33 1.100000 0.273000 0.316000 600 32 0.900000 0.105000 0.095000 600 35 1.000000 0.050000 0.050000 1.200000 0.049000 0.059000
1559784881152807657	1200 33 1.100000 0.274000 0.318000 600 32 0.900000 0.184000 0.167000 600 35 1.000000 0.050000 0.050000 1.200000 0.049000 0.059000
1559784881663669574	1200 33 1.100000 0.272000 0.315000 600 32 0.900000 0.105000 0.095000 600 35 1.000000 0.050000 0.050000 1.200000 0.049000 0.059000
1559784882174721408	1200 33 1.100000 0.273000 0.316000 600 32 0.900000 0.116000 0.105000 600 35 1.000000 0.050000 0.050000 1.200000 0.049000 0.059000
1559784882685714449	1200 33 1.100000 0.274000 0.318000 600 32 0.900000 0.117000 0.106000 600 35 1.000000 0.050000 0.050000 1.200000 0.049000 0.059000
1559784883196704824	1200 33 1.100000 0.277000 0.321000 600 32 0.900000 0.126000 0.114000 600 35 1.000000 0.050000 0.050000 1.200000 0.049000 0.059000
1559784883707565824	1200 33 1.100000 0.273000 0.316000 600 32 0.900000 0.112000 0.102000 600 35 1.000000 0.051000 0.051000 1.200000 0.049000 0.059000
1559784884218539158	1200 33 1.100000 0.274000 0.318000 600 32 0.900000 0.115000 0.104000 600 35 1.000000 0.050000 0.050000 1.200000 0.049000 0.059000
1559784884729504241	1200 33 1.100000 0.273000 0.316000 600 32 0.900000 0.116000 0.105000 600 35 1.000000 0.050000 0.050000 1.200000 0.051000 0.061000
1559784885240937741	1200 33 1.100000 0.273000 0.316000 600 32 0.900000 0.112000 0.102000 600 35 1.000000 0.050000 0.050000 1.200000 0.049000 0.059000
1559784885752245658	1200 33 1.100000 0.274000 0.318000 600 32 0.900000 0.126000 0.114000 600 35 1.000000 0.051000 0.051000 1.200000 0.051000 0.061000
1559784886263524866	1200 33 1.100000 0.273000 0.316000 600 32 0.900000 0.105000 0.095000 600 35 1.000000 0.050000 0.050000 1.200000 0.049000 0.059000
1559784886774439991	1200 33 1.100000 0.272000 0.315000 600 32 0.900000 0.104000 0.094000 600 35 1.000000 0.051000 0.051000 1.200000 0.049000 0.059000
1559784887287197033	1200 33 1.100000 0.273000 0.316000 600 32 0.900000 0.106000 0.096000 600 35 1.000000 0.050000 0.050000 1.200000 0.049000 0.059000
1559784887798436117	1200 33 1.100000 0.275000 0.319000 600 32 0.900000 0.188000 0.171000 600 35 1.000000 0.051000 0.051000 1.200000 0.053000 0.064000
1559784888309588200	1200 33 1.100000 0.273000 0.316000 600 32 0.900000 0.106000 0.096000 600 35 1.000000 0.050000 0.050000 1.200000 0.049000 0.059000
1559784888820480742	1200 33 1.100000 0.274000 0.318000 600 32 0.900000 0.104000 0.094000 600 35 1.000000 0.050000 0.050000 1.200000 0.049000 0.059000
1559784889331294117	1200 33 1.100000 0.273000 0.316000 600 32 0.900000 0.103000 0.094000 600 35 1.000000 0.050000 0.050000 1.200000 0.049000 0.059000
1559784889842605200	1200 33 1.100000 0.274000 0.318000 600 32 0.900000 0.260000 0.237000 600 35 1.000000 0.050000 0.050000 1.200000 0.051000 0.061000
1559784890353866909	1200 33 1.100000 0.275000 0.319000 600 32 0.900000 0.112000 0.102000 600 35 1.000000 0.051000 0.051000 1.200000 0.050000 0.060000
1559784890864975784	1200 33 1.100000 0.275000 0.319000 600 32 0.900000 0.175000 0.159000 600 35 1.000000 0.050000 0.050000 1.200000 0.051000 0.061000
1559784891375907034	1200 33 1.100000 0.274000 0.318000 600 31 0.900000 0.114000 0.103000 600 35 1.000000 0.050000 0.050000 1.200000 0.049000 0.059000
1559784891886911659	1200 33 1.100000 0.273000 0.316000 600 32 0.900000 0.116000 0.105000 600 36 1.000000 0.051000 0.051000 1.200000 0.049000 0.059000
1559784892398115659	1200 33 1.100000 0.276000 0.320000 600 32 0.900000 0.131000 0.119000 600 35 1.000000 0.050000 0.050000 1.200000 0.051000 0.061000
1559784892909436159	1200 33 1.100000 0.274000 0.318000 600 32 0.900000 0.162000 0.147000 600 35 1.000000 0.050000 0.050000 1.200000 0.052000 0.062000
1559784893420373159	1200 33 1.100000 0.273000 0.316000 600 32 0.900000 0.105000 0.095000 600 35 1.000000 0.051000 0.051000 1.200000 0.049000 0.059000
1559784893932273076	1200 33 1.100000 0.272000 0.315000 600 32 0.900000 0.104000 0.094000 600 35 1.000000 0.050000 0.050000 1.200000 0.049000 0.059000
1559784894443391409	1200 33 1.100000 0.276000 0.320000 600 32 0.900000 0.185000 0.168000 600 35 1.000000 0.050000 0.050000 1.200000 0.052000 0.062000
1559784894954699242	1200 33 1.100000 0.272000 0.315000 600 32 0.900000 0.123000 0.112000 600 35 1.000000 0.050000 0.050000 1.200000 0.051000 0.061000
1559784895465511201	1200 33 1.100000 0.274000 0.318000 600 32 0.900000 0.105000 0.095000 600 35 1.000000 0.050000 0.050000 1.200000 0.049000 0.059000
1559784895976343743	1200 33 1.100000 0.274000 0.318000 600 32 0.900000 0.104000 0.094000 600 35 1.000000 0.050000 0.050000 1.200000 0.049000 0.059000
1559784896487521534	1200 33 1.100000 0.274000 0.318000 600 32 0.900000 0.256000 0.233000 600 35 1.000000 0.050000 0.050000 1.200000 0.051000 0.061000
1559784896998632243	1200 33 1.100000 0.274000 0.318000 600 32 0.900000 0.105000 0.095000 600 35 1.000000 0.051000 0.051000 1.200000 0.051000 0.061000
1559784897509738409	1200 33 1.100000 0.272000 0.315000 600 32 0.900000 0.104000 0.094000 600 35 1.000000 0.051000 0.051000 1.200000 0.049000 0.059000
1559784898020755868	1200 33 1.100000 0.274000 0.318000 600 32 0.900000 0.106000 0.096000 600 35 1.000000 0.050000 0.050000 1.200000 0.049000 0.059000
1559784898531780701	1200 33 1.100000 0.274000 0.318000 600 32 0.900000 0.114000 0.103000 600 35 1.000000 0.050000 0.050000 1.200000 0.049000 0.059000
1559784899043086743	1200 33 1.100000 0.276000 0.320000 600 32 0.900000 0.198000 0.180000 600 35 1.000000 0.050000 0.050000 1.200000 0.051000 0.061000
1559784899554153868	1200 33 1.100000 0.273000 0.316000 600 32 0.900000 0.116000 0.105000 600 35 1.000000 0.050000 0.050000 1.200000 0.049000 0.059000
1559784900065333743	1200 33 1.100000 0.273000 0.316000 600 32 0.900000 0.106000 0.096000 600 35 1.000000 0.050000 0.050000 1.200000 0.049000 0.059000
1559784900577102326	1200 33 1.100000 0.273000 0.316000 600 32 0.900000 0.106000 0.096000 600 35 1.000000 0.051000 0.051000 1.200000 0.049000 0.059000
1559784901088548868	1200 33 1.100000 0.278000 0.322000 600 32 0.900000 0.253000 0.230000 600 35 1.000000 0.051000 0.051000 1.200000 0.054000 0.065000
1559784901599478368	1200 33 1.100000 0.273000 0.316000 600 32 0.900000 0.104000 0.094000 600 35 1.000000 0.050000 0.050000 1.200000 0.049000 0.059000
1559784902110137368	1200 33 1.100000 0.274000 0.318000 600 32 0.900000 0.103000 0.093000 600 35 1.000000 0.050000 0.050000 1.200000 0.049000 0.059000
1559784902621312993	1200 33 1.100000 0.274000 0.318000 600 32 0.900000 0.104000 0.094000 600 35 1.000000 0.051000 0.051000 1.200000 0.049000 0.059000
1559784903132481118	1200 33 1.100000 0.274000 0.318000 600 32 0.900000 0.327000 0.298000 600 35 1.000000 0.050000 0.050000 1.200000 0.054000 0.065000
1559784903643320827	1200 33 1.100000 0.272000 0.315000 600 32 0.900000 0.115000 0.104000 600 35 1.000000 0.051000 0.051000 1.200000 0.049000 0.059000
1559784904154120869	1200 33 1.100000 0.272000 0.315000 600 32 0.900000 0.117000 0.106000 600 35 1.000000 0.051000 0.051000 1.200000 0.049000 0.059000
1559784904664751369	1200 33 1.100000 0.273000 0.316000 600 32 0.900000 0.114000 0.103000 600 35 1.000000 0.050000 0.050000 1.200000 0.049000 0.059000
1559784905175814035	1200 33 1.100000 0.274000 0.318000 600 32 0.900000 0.110000 0.100000 600 35 1.000000 0.050000 0.050000 1.200000 0.053000 0.064000
1559784905686679869	1200 33 1.100000 0.273000 0.316000 600 32 0.900000 0.129000 0.117000 600 35 1.000000 0.050000 0.050000 1.200000 0.049000 0.059000
1559784906197599869	1200 33 1.100000 0.273000 0.316000 600 32 0.900000 0.104000 0.094000 600 35 1.000000 0.051000 0.051000 1.200000 0.049000 0.059000
1559784906708215285	1200 33 1.100000 0.273000 0.316000 600 32 0.900000 0.114000 0.103000 600 35 1.000000 0.051000 0.051000 1.200000 0.049000 0.059000
1559784907219975077	1200 33 1.100000 0.273000 0.316000 600 32 0.900000 0.110000 0.100000 600 35 1.000000 0.050000 0.050000 1.200000 0.049000 0.059000
1559784907731368869	1200 33 1.100000 0.278000 0.322000 600 32 0.900000 0.243000 0.221000 600 35 1.000000 0.050000 0.050000 1.200000 0.052000 0.062000
1559784908242286119	1200 33 1.100000 0.274000 0.318000 600 32 0.900000 0.113000 0.103000 600 35 1.000000 0.050000 0.050000 1.200000 0.049000 0.059000
1559784908752972661	1200 33 1.100000 0.273000 0.316000 600 32 0.900000 0.118000 0.107000 600 35 1.000000 0.050000 0.050000 1.200000 0.049000 0.059000
1559784909264105411	1200 33 1.100000 0.274000 0.318000 600 32 0.900000 0.115000 0.104000 600 35 1.000000 0.051000 0.051000 1.200000 0.049000 0.059000
1559784909775370328	1200 33 1.100000 0.274000 0.318000 600 32 0.900000 0.150000 0.136000 600 35 1.000000 0.050000 0.050000 1.200000 0.051000 0.061000
1559784910286334369	1200 33 1.100000 0.273000 0.316000 600 32 0.900000 0.111000 0.101000 600 35 1.000000 0.050000 0.050000 1.200000 0.049000 0.059000
1559784910797015536	1200 33 1.100000 0.273000 0.316000 600 32 0.900000 0.115000 0.104000 600 35 1.000000 0.050000 0.050000 1.200000 0.049000 0.059000
1559784911308133244	1200 33 1.100000 0.274000 0.318000 600 32 0.900000 0.119000 0.108000 600 35 1.000000 0.050000 0.050000 1.200000 0.049000 0.059000
1559784911819138536	1200 33 1.100000 0.274000 0.318000 600 32 0.900000 0.114000 0.104000 600 35 1.000000 0.050000 0.050000 1.200000 0.050000 0.060000
1559784912330121869	1200 33 1.100000 0.273000 0.316000 600 32 0.900000 0.131000 0.119000 600 35 1.000000 0.050000 0.050000 1.200000 0.049000 0.059000
1559784912840961703	1200 33 1.100000 0.274000 0.318000 600 32 0.900000 0.113000 0.103000 600 35 1.000000 0.050000 0.050000 1.200000 0.049000 0.059000
1559784913352140370	1200 33 1.100000 0.273000 0.316000 600 32 0.900000 0.107000 0.097000 600 35 1.000000 0.050000 0.050000 1.200000 0.049000 0.059000
1559784913863954536	1200 33 1.100000 0.273000 0.316000 600 32 0.900000 0.104000 0.094000 600 35 1.000000 0.050000 0.050000 1.200000 0.049000 0.059000
1559784914375552786	1200 33 1.100000 0.278000 0.322000 600 32 0.900000 0.188000 0.171000 600 35 1.000000 0.051000 0.051000 1.200000 0.052000 0.062000
1559784914886453036	1200 33 1.100000 0.272000 0.315000 600 32 0.900000 0.109000 0.099000 600 35 1.000000 0.050000 0.050000 1.200000 0.049000 0.059000
1559784915397777203	1200 33 1.100000 0.274000 0.318000 600 32 0.900000 0.114000 0.104000 600 35 1.000000 0.050000 0.050000 1.200000 0.049000 0.059000
1559784915908940037	1200 33 1.100000 0.276000 0.320000 600 32 0.900000 0.181000 0.165000 600 35 1.000000 0.050000 0.050000 1.200000 0.050000 0.060000
1559784916419851120	1200 33 1.100000 0.274000 0.318000 600 32 0.900000 0.127000 0.115000 600 35 1.000000 0.051000 0.051000 1.200000 0.051000 0.061000
1559784916930733537	1200 33 1.100000 0.274000 0.318000 600 32 0.900000 0.110000 0.100000 600 35 1.000000 0.050000 0.050000 1.200000 0.049000 0.059000
1559784917442123578	1200 33 1.100000 0.274000 0.318000 600 32 0.900000 0.109000 0.099000 600 35 1.000000 0.051000 0.051000 1.200000 0.049000 0.059000
1559784917953213620	1200 33 1.100000 0.275000 0.319000 600 32 0.900000 0.182000 0.165000 600 35 1.000000 0.050000 0.050000 1.200000 0.049000 0.059000
1559784918464159662	1200 33 1.100000 0.274000 0.318000 600 32 0.900000 0.120000 0.109000 600 36 1.000000 0.050000 0.050000 1.200000 0.050000 0.060000
1559784918975147412	1200 33 1.100000 0.274000 0.318000 600 32 0.900000 0.140000 0.127000 600 35 1.000000 0.050000 0.050000 1.200000 0.049000 0.059000
1559784919485999912	1200 33 1.100000 0.274000 0.318000 600 32 0.900000 0.109000 0.099000 600 35 1.000000 0.050000 0.050000 1.200000 0.049000 0.059000
1559784919997170787	1200 33 1.100000 0.274000 0.318000 600 32 0.900000 0.172000 0.156000 600 35 1.000000 0.051000 0.051000 1.200000 0.049000 0.059000
1559784920509046287	1200 33 1.100000 0.274000 0.318000 600 32 0.900000 0.106000 0.096000 600 35 1.000000 0.051000 0.051000 1.200000 0.049000 0.059000
1559784921020187954	1200 33 1.100000 0.274000 0.318000 600 32 0.900000 0.199000 0.181000 600 35 1.000000 0.050000 0.050000 1.200000 0.049000 0.059000
1559784921531070454	1200 33 1.100000 0.274000 0.318000 600 32 0.900000 0.103000 0.094000 600 35 1.000000 0.050000 0.050000 1.200000 0.049000 0.059000
1559784922042163371	1200 33 1.100000 0.274000 0.318000 600 32 0.900000 0.157000 0.143000 600 35 1.000000 0.050000 0.050000 1.200000 0.048000 0.058000
1559784922553302121	1200 33 1.100000 0.274000 0.318000 600 32 0.900000 0.111000 0.101000 600 35 1.000000 0.050000 0.050000 1.200000 0.049000 0.059000
1559784923064299579	1200 33 1.100000 0.274000 0.318000 600 32 0.900000 0.123000 0.112000 600 35 1.000000 0.050000 0.050000 1.200000 0.051000 0.061000
1559784923575169413	1200 33 1.100000 0.273000 0.316000 600 32 0.900000 0.119000 0.108000 600 35 1.000000 0.050000 0.050000 1.200000 0.049000 0.059000
1559784924086377579	1200 33 1.100000 0.274000 0.318000 600 32 0.900000 0.154000 0.140000 600 35 1.000000 0.051000 0.051000 1.200000 0.051000 0.061000
1559784924597326204	1200 33 1.100000 0.274000 0.318000 600 32 0.900000 0.109000 0.099000 600 35 1.000000 0.051000 0.051000 1.200000 0.049000 0.059000
1559784925108299621	1200 33 1.100000 0.273000 0.316000 600 32 0.900000 0.113000 0.103000 600 35 1.000000 0.050000 0.050000 1.200000 0.049000 0.059000
1559784925619211788	1200 33 1.100000 0.274000 0.318000 600 32 0.900000 0.147000 0.134000 600 35 1.000000 0.050000 0.050000 1.200000 0.051000 0.061000
1559784926130256038	1200 33 1.100000 0.275000 0.319000 600 32 0.900000 0.180000 0.164000 600 35 1.000000 0.050000 0.050000 1.200000 0.049000 0.059000
1559784926641055746	1200 33 1.100000 0.274000 0.318000 600 32 0.900000 0.108000 0.098000 600 35 1.000000 0.050000 0.050000 1.200000 0.049000 0.059000
1559784927152778455	1200 33 1.100000 0.274000 0.318000 600 32 0.900000 0.105000 0.095000 600 35 1.000000 0.051000 0.051000 1.200000 0.049000 0.059000
1559784927664087705	1200 33 1.100000 0.274000 0.318000 600 32 0.900000 0.200000 0.182000 600 35 1.000000 0.051000 0.051000 1.200000 0.052000 0.062000
1559784928175243663	1200 33 1.100000 0.274000 0.318000 600 32 0.900000 0.170000 0.155000 600 35 1.000000 0.050000 0.050000 1.200000 0.049000 0.059000
1559784928686308205	1200 33 1.100000 0.274000 0.318000 600 32 0.900000 0.103000 0.093000 600 35 1.000000 0.050000 0.050000 1.200000 0.049000 0.059000
1559784929197129788	1200 33 1.100000 0.274000 0.318000 600 32 0.900000 0.103000 0.093000 600 35 1.000000 0.050000 0.050000 1.200000 0.049000 0.059000
1559784929708185122	1200 33 1.100000 0.278000 0.322000 600 32 0.900000 0.273000 0.248000 600 35 1.000000 0.050000 0.050000 1.200000 0.051000 0.061000
1559784930219399538	1200 33 1.100000 0.275000 0.319000 600 32 0.900000 0.173000 0.157000 600 35 1.000000 0.050000 0.050000 1.200000 0.050000 0.060000
1559784930730468788	1200 33 1.100000 0.273000 0.316000 600 32 0.900000 0.118000 0.107000 600 35 1.000000 0.050000 0.050000 1.200000 0.050000 0.060000
1559784931241328205	1200 33 1.100000 0.274000 0.318000 600 32 0.900000 0.111000 0.101000 600 35 1.000000 0.050000 0.050000 1.200000 0.049000 0.059000
1559784931752227830	1200 33 1.100000 0.273000 0.316000 600 32 0.900000 0.107000 0.097000 600 35 1.000000 0.050000 0.050000 1.200000 0.049000 0.059000
1559784932263597664	1200 33 1.100000 0.275000 0.319000 600 32 0.900000 0.142000 0.129000 600 35 1.000000 0.050000 0.050000 1.200000 0.052000 0.062000
1559784932774604997	1200 33 1.100000 0.274000 0.317000 600 32 0.900000 0.119000 0.108000 600 35 1.000000 0.050000 0.050000 1.200000 0.049000 0.059000
1559784933285393122	1200 33 1.100000 0.273000 0.316000 600 32 0.900000 0.115000 0.104000 600 35 1.000000 0.051000 0.051000 1.200000 0.049000 0.059000
1559784933796834872	1200 33 1.100000 0.274000 0.317000 600 32 0.900000 0.103000 0.093000 600 35 1.000000 0.050000 0.050000 1.200000 0.049000 0.059000
1559784934308332205	1200 33 1.100000 0.276000 0.320000 600 32 0.900000 0.204000 0.186000 600 35 1.000000 0.051000 0.051000 1.200000 0.052000 0.062000
1559784934819574664	1200 33 1.100000 0.274000 0.318000 600 32 0.900000 0.105000 0.095000 600 35 1.000000 0.050000 0.050000 1.200000 0.049000 0.059000
1559784935330399039	1200 33 1.100000 0.273000 0.316000 600 32 0.900000 0.104000 0.094000 600 35 1.000000 0.050000 0.050000 1.200000 0.049000 0.059000
1559784935840954289	1200 33 1.100000 0.274000 0.318000 600 32 0.900000 0.103000 0.093000 600 35 1.000000 0.051000 0.051000 1.200000 0.049000 0.059000
1559784936352222747	1200 33 1.100000 0.277000 0.321000 600 32 0.900000 0.293000 0.266000 600 35 1.000000 0.050000 0.050000 1.200000 0.051000 0.061000
1559784936863145706	1200 33 1.100000 0.274000 0.317000 600 32 0.900000 0.104000 0.094000 600 35 1.000000 0.051000 0.051000 1.200000 0.049000 0.059000
1559784937374126039	1200 33 1.100000 0.274000 0.318000 600 32 0.900000 0.105000 0.095000 600 35 1.000000 0.051000 0.051000 1.200000 0.049000 0.059000
1559784937884874123	1200 33 1.100000 0.274000 0.318000 600 32 0.900000 0.104000 0.094000 600 35 1.000000 0.051000 0.051000 1.200000 0.049000 0.059000
1559784938396350581	1200 33 1.100000 0.277000 0.321000 600 32 0.900000 0.287000 0.261000 600 36 1.000000 0.050000 0.050000 1.200000 0.050000 0.060000
1559784938907513373	1200 33 1.100000 0.278000 0.322000 600 32 0.900000 0.166000 0.151000 600 35 1.000000 0.051000 0.051000 1.200000 0.055000 0.066000
1559784939418597164	1200 33 1.100000 0.274000 0.318000 600 32 0.900000 0.113000 0.103000 600 35 1.000000 0.050000 0.050000 1.200000 0.049000 0.059000
1559784939929347581	1200 33 1.100000 0.274000 0.318000 600 32 0.900000 0.118000 0.107000 600 35 1.000000 0.050000 0.050000 1.200000 0.049000 0.059000
1559784940442869498	1200 33 1.100000 0.274000 0.318000 600 32 0.900000 0.105000 0.095000 600 36 1.000000 0.050000 0.050000 1.200000 0.049000 0.059000
1559784940954224540	1200 33 1.100000 0.278000 0.322000 600 32 0.900000 0.213000 0.194000 600 35 1.000000 0.050000 0.050000 1.200000 0.055000 0.066000
1559784941465115665	1200 33 1.100000 0.274000 0.318000 600 32 0.900000 0.103000 0.093000 600 35 1.000000 0.050000 0.050000 1.200000 0.049000 0.059000
1559784941976053040	1200 33 1.100000 0.274000 0.318000 600 32 0.900000 0.105000 0.095000 600 35 1.000000 0.050000 0.050000 1.200000 0.049000 0.059000
1559784942487448581	1200 33 1.100000 0.274000 0.318000 600 32 0.900000 0.105000 0.095000 600 35 1.000000 0.050000 0.050000 1.200000 0.049000 0.059000
1559784942998793998	1200 33 1.100000 0.276000 0.320000 600 32 0.900000 0.181000 0.165000 600 35 1.000000 0.051000 0.051000 1.200000 0.053000 0.064000
1559784943509752707	1200 33 1.100000 0.274000 0.318000 600 32 0.900000 0.114000 0.103000 600 35 1.000000 0.050000 0.050000 1.200000 0.049000 0.059000
1559784944020406540	1200 33 1.100000 0.274000 0.318000 600 32 0.900000 0.108000 0.098000 600 35 1.000000 0.050000 0.050000 1.200000 0.049000 0.059000
1559784944531282457	1200 33 1.100000 0.274000 0.317000 600 32 0.900000 0.113000 0.103000 600 35 1.000000 0.051000 0.051000 1.200000 0.049000 0.059000
1559784945042489165	1200 33 1.100000 0.274000 0.318000 600 32 0.900000 0.185000 0.168000 600 36 1.000000 0.050000 0.050000 1.200000 0.052000 0.062000
1559784945553415540	1200 33 1.100000 0.274000 0.318000 600 32 0.900000 0.156000 0.142000 600 35 1.000000 0.051000 0.051000 1.200000 0.049000 0.059000
1559784946064173915	1200 33 1.100000 0.274000 0.318000 600 32 0.900000 0.108000 0.098000 600 35 1.000000 0.050000 0.050000 1.200000 0.049000 0.059000
1559784946575017457	1200 33 1.100000 0.274000 0.318000 600 32 0.900000 0.109000 0.099000 600 35 1.000000 0.050000 0.050000 1.200000 0.049000 0.059000
1559784947087057249	1200 33 1.100000 0.274000 0.318000 600 32 0.900000 0.115000 0.104000 600 35 1.000000 0.050000 0.050000 1.200000 0.051000 0.061000
1559784947598068832	1200 33 1.100000 0.275000 0.319000 600 32 0.900000 0.173000 0.157000 600 35 1.000000 0.051000 0.051000 1.200000 0.051000 0.061000
1559784948108922207	1200 33 1.100000 0.274000 0.318000 600 32 0.900000 0.113000 0.103000 600 35 1.000000 0.050000 0.050000 1.200000 0.049000 0.059000
1559784948619693832	1200 33 1.100000 0.274000 0.318000 600 32 0.900000 0.109000 0.099000 600 35 1.000000 0.051000 0.051000 1.200000 0.049000 0.059000
1559784949130787874	1200 33 1.100000 0.273000 0.316000 600 32 0.900000 0.111000 0.101000 600 35 1.000000 0.050000 0.050000 1.200000 0.051000 0.061000
1559784949641937082	1200 33 1.100000 0.274000 0.318000 600 32 0.900000 0.117000 0.106000 600 35 1.000000 0.050000 0.050000 1.200000 0.050000 0.060000
1559784950152656499	1200 33 1.100000 0.273000 0.316000 600 32 0.900000 0.118000 0.107000 600 35 1.000000 0.050000 0.050000 1.200000 0.049000 0.059000
1559784950663395457	1200 33 1.100000 0.274000 0.318000 600 32 0.900000 0.112000 0.102000 600 35 1.000000 0.050000 0.050000 1.200000 0.049000 0.059000
1559784951174601291	1200 33 1.100000 0.273000 0.316000 600 32 0.900000 0.115000 0.104000 600 35 1.000000 0.050000 0.050000 1.200000 0.052000 0.062000
1559784951685567208	1200 34 1.100000 0.274000 0.318000 600 32 0.900000 0.115000 0.104000 600 35 1.000000 0.050000 0.050000 1.200000 0.049000 0.059000
1559784952196284124	1200 33 1.100000 0.274000 0.318000 600 32 0.900000 0.159000 0.145000 600 35 1.000000 0.050000 0.050000 1.200000 0.049000 0.059000
1559784952707043374	1200 33 1.100000 0.274000 0.318000 600 32 0.900000 0.114000 0.103000 600 35 1.000000 0.050000 0.050000 1.200000 0.049000 0.059000
1559784953218085458	1200 33 1.100000 0.275000 0.319000 600 32 0.900000 0.144000 0.131000 600 35 1.000000 0.051000 0.051000 1.200000 0.051000 0.061000
1559784953730882708	1200 33 1.100000 0.274000 0.318000 600 32 0.900000 0.104000 0.094000 600 35 1.000000 0.050000 0.050000 1.200000 0.049000 0.059000
1559784954241982458	1200 33 1.100000 0.278000 0.322000 600 32 0.900000 0.224000 0.204000 600 35 1.000000 0.050000 0.050000 1.200000 0.049000 0.059000
1559784954752923958	1200 33 1.100000 0.273000 0.316000 600 32 0.900000 0.106000 0.096000 600 35 1.000000 0.051000 0.051000 1.200000 0.049000 0.059000
1559784955264177458	1200 33 1.100000 0.274000 0.318000 600 32 0.900000 0.115000 0.104000 600 35 1.000000 0.050000 0.050000 1.200000 0.049000 0.059000
1559784955775290625	1200 33 1.100000 0.273000 0.316000 600 32 0.900000 0.110000 0.100000 600 35 1.000000 0.050000 0.050000 1.200000 0.049000 0.059000
1559784956286310250	1200 33 1.100000 0.273000 0.316000 600 32 0.900000 0.109000 0.099000 600 35 1.000000 0.050000 0.050000 1.200000 0.050000 0.060000
1559784956797174708	1200 33 1.100000 0.274000 0.318000 600 32 0.900000 0.118000 0.107000 600 35 1.000000 0.050000 0.050000 1.200000 0.049000 0.059000
1559784957308343125	1200 33 1.100000 0.273000 0.316000 600 32 0.900000 0.118000 0.107000 600 35 1.000000 0.050000 0.050000 1.200000 0.049000 0.059000
1559784957819271792	1200 33 1.100000 0.274000 0.318000 600 32 0.900000 0.113000 0.103000 600 35 1.000000 0.050000 0.050000 1.200000 0.049000 0.059000
1559784958330197958	1200 33 1.100000 0.273000 0.316000 600 32 0.900000 0.107000 0.097000 600 35 1.000000 0.051000 0.051000 1.200000 0.049000 0.059000
1559784958841046042	1200 33 1.100000 0.274000 0.318000 600 32 0.900000 0.157000 0.143000 600 35 1.000000 0.051000 0.051000 1.200000 0.049000 0.059000
1559784959352080667	1200 33 1.100000 0.274000 0.318000 600 32 0.900000 0.120000 0.109000 600 35 1.000000 0.050000 0.050000 1.200000 0.049000 0.059000
1559784959863113375	1200 33 1.100000 0.274000 0.318000 600 32 0.900000 0.116000 0.105000 600 35 1.000000 0.050000 0.050000 1.200000 0.049000 0.059000
1559784960375065417	1200 33 1.100000 0.274000 0.318000 600 32 0.900000 0.109000 0.099000 600 35 1.000000 0.051000 0.051000 1.200000 0.049000 0.059000
1559784960886205875	1200 33 1.100000 0.279000 0.323000 600 32 0.900000 0.224000 0.204000 600 35 1.000000 0.050000 0.050000 1.200000 0.049000 0.059000
1559784961397447625	1200 33 1.100000 0.274000 0.318000 600 32 0.900000 0.104000 0.094000 600 35 1.000000 0.051000 0.051000 1.200000 0.051000 0.061000
1559784961908197917	1200 33 1.100000 0.273000 0.316000 600 32 0.900000 0.105000 0.095000 600 35 1.000000 0.050000 0.050000 1.200000 0.049000 0.059000
1559784962419204625	1200 33 1.100000 0.274000 0.318000 600 32 0.900000 0.104000 0.094000 600 35 1.000000 0.051000 0.051000 1.200000 0.049000 0.059000
1559784962930378626	1200 33 1.100000 0.279000 0.323000 600 32 0.900000 0.274000 0.249000 600 35 1.000000 0.050000 0.050000 1.200000 0.051000 0.061000
1559784963441845042	1200 33 1.100000 0.273000 0.316000 600 32 0.900000 0.112000 0.102000 600 35 1.000000 0.050000 0.050000 1.200000 0.050000 0.060000
1559784963952769084	1200 33 1.100000 0.275000 0.319000 600 32 0.900000 0.184000 0.167000 600 35 1.000000 0.050000 0.050000 1.200000 0.049000 0.059000
1559784964464085042	1200 33 1.100000 0.274000 0.318000 600 32 0.900000 0.118000 0.107000 600 35 1.000000 0.050000 0.050000 1.200000 0.049000 0.059000
1559784964975168417	1200 33 1.100000 0.274000 0.318000 600 32 0.900000 0.112000 0.102000 600 36 1.000000 0.050000 0.050000 1.200000 0.049000 0.059000
1559784965486733709	1200 33 1.100000 0.274000 0.318000 600 32 0.900000 0.161000 0.146000 600 35 1.000000 0.050000 0.050000 1.200000 0.049000 0.059000
1559784965997957668	1200 33 1.100000 0.274000 0.318000 600 32 0.900000 0.166000 0.151000 600 35 1.000000 0.050000 0.050000 1.200000 0.049000 0.059000
1559784966508882084	1200 33 1.100000 0.273000 0.316000 600 32 0.900000 0.116000 0.105000 600 35 1.000000 0.050000 0.050000 1.200000 0.049000 0.059000
1559784967021005168	1200 33 1.100000 0.273000 0.316000 600 32 0.900000 0.120000 0.109000 600 35 1.000000 0.050000 0.050000 1.200000 0.048000 0.057000
1559784967532780834	1200 33 1.100000 0.279000 0.323000 600 32 0.900000 0.226000 0.206000 600 35 1.000000 0.050000 0.050000 1.200000 0.051000 0.061000
1559784968044202376	1200 33 1.100000 0.274000 0.318000 600 32 0.900000 0.132000 0.120000 600 35 1.000000 0.050000 0.050000 1.200000 0.052000 0.062000
1559784968555323668	1200 33 1.100000 0.273000 0.316000 600 32 0.900000 0.103000 0.094000 600 35 1.000000 0.050000 0.050000 1.200000 0.050000 0.060000
1559784969066165710	1200 33 1.100000 0.273000 0.316000 600 32 0.900000 0.104000 0.094000 600 35 1.000000 0.050000 0.050000 1.200000 0.049000 0.059000
1559784969577330418	1200 33 1.100000 0.279000 0.323000 600 32 0.900000 0.273000 0.248000 600 35 1.000000 0.050000 0.050000 1.200000 0.050000 0.060000
1559784970088643585	1200 33 1.100000 0.274000 0.318000 600 32 0.900000 0.106000 0.096000 600 35 1.000000 0.050000 0.050000 1.200000 0.051000 0.061000
1559784970599603376	1200 33 1.100000 0.274000 0.318000 600 32 0.900000 0.103000 0.094000 600 35 1.000000 0.050000 0.050000 1.200000 0.049000 0.059000
1559784971110559418	1200 33 1.100000 0.274000 0.318000 600 32 0.900000 0.104000 0.094000 600 35 1.000000 0.050000 0.050000 1.200000 0.049000 0.059000
1559784971621716335	1200 33 1.100000 0.274000 0.318000 600 32 0.900000 0.116000 0.105000 600 35 1.000000 0.051000 0.051000 1.200000 0.049000 0.059000
1559784972132875377	1200 33 1.100000 0.275000 0.319000 600 32 0.900000 0.242000 0.220000 600 35 1.000000 0.050000 0.050000 1.200000 0.052000 0.062000
1559784972643745043	1200 33 1.100000 0.274000 0.318000 600 32 0.900000 0.112000 0.102000 600 35 1.000000 0.050000 0.050000 1.200000 0.049000 0.059000
1559784973154480668	1200 33 1.100000 0.274000 0.318000 600 32 0.900000 0.108000 0.098000 600 35 1.000000 0.050000 0.050000 1.200000 0.049000 0.059000
1559784973666111960	1200 33 1.100000 0.274000 0.318000 600 32 0.900000 0.112000 0.102000 600 35 1.000000 0.050000 0.050000 1.200000 0.049000 0.059000
1559784974177212044	1200 33 1.100000 0.278000 0.322000 600 32 0.900000 0.290000 0.264000 600 35 1.000000 0.050000 0.050000 1.200000 0.051000 0.061000
1559784974688220627	1200 33 1.100000 0.274000 0.318000 600 32 0.900000 0.107000 0.097000 600 35 1.000000 0.050000 0.050000 1.200000 0.049000 0.059000
1559784975199053502	1200 33 1.100000 0.273000 0.316000 600 32 0.900000 0.104000 0.094000 600 35 1.000000 0.051000 0.051000 1.200000 0.049000 0.059000
1559784975709681627	1200 33 1.100000 0.273000 0.316000 600 32 0.900000 0.103000 0.094000 600 35 1.000000 0.051000 0.051000 1.200000 0.049000 0.059000
1559784976220552960	1200 33 1.100000 0.279000 0.323000 600 32 0.900000 0.334000 0.304000 600 35 1.000000 0.050000 0.050000 1.200000 0.051000 0.061000
1559784976731480586	1200 33 1.100000 0.274000 0.318000 600 32 0.900000 0.105000 0.095000 600 35 1.000000 0.051000 0.051000 1.200000 0.049000 0.059000
1559784977242426127	1200 33 1.100000 0.274000 0.318000 600 32 0.900000 0.104000 0.094000 600 35 1.000000 0.050000 0.050000 1.200000 0.049000 0.059000
1559784977753086377	1200 33 1.100000 0.274000 0.318000 600 32 0.900000 0.103000 0.093000 600 35 1.000000 0.050000 0.050000 1.200000 0.049000 0.059000
1559784978264236794	1200 32 1.100000 0.116000 0.135000 600 31 0.900000 0.286000 0.260000 600 36 1.000000 0.051000 0.051000 1.200000 0.049000 0.059000
1559784978774940377	1200 32 1.100000 0.061000 0.071000 600 31 0.900000 0.065000 0.059000 600 35 1.000000 0.051000 0.051000 1.200000 0.022000 0.026000
