#Timestamp	CPU(0) Frequency(MHz)	CPU(0) Temperature(C)	A7 Voltage(V)	A7 Current(A)	A7 Power(W)	CPU(4) Frequency(MHz)	CPU(4) Temperature(C)	A15 Voltage(V)	A15 Current(A)	A15 Power(W)	GPU Frequency(MHz)	GPU Temperature(C)	GPU Voltage(V)	GPU Current(A)	GPU Power(W)	RAM Voltage(V)	RAM Current(A)	RAM Power(W)
1560049741364344315	200 36 0.900000 0.033000 0.030000 1300 35 1.000000 0.260000 0.273000 600 40 1.000000 0.051000 0.051000 1.200000 0.041000 0.049000
1560049741879066940	200 38 0.900000 0.027000 0.024000 1300 36 1.000000 0.189000 0.198000 600 40 1.000000 0.051000 0.051000 1.200000 0.037000 0.044000
1560049742391544482	200 39 0.900000 0.024000 0.021000 1300 36 1.000000 0.967000 1.010000 600 41 1.000000 0.051000 0.051000 1.200000 0.058000 0.070000
1560049742904010190	200 39 0.900000 0.020000 0.018000 1300 36 1.000000 0.736000 0.767000 600 41 1.000000 0.051000 0.051000 1.200000 0.047000 0.056000
1560049743416425023	200 39 0.900000 0.012000 0.010000 1300 36 1.000000 0.656000 0.683000 600 41 1.000000 0.051000 0.051000 1.200000 0.037000 0.044000
1560049743928674524	200 41 0.900000 0.012000 0.010000 1300 36 1.000000 0.657000 0.684000 600 45 1.000000 0.051000 0.051000 1.200000 0.037000 0.044000
1560049744440078524	200 44 0.900000 0.052000 0.047000 1300 38 1.000000 1.457000 1.524000 600 49 1.000000 0.051000 0.051000 1.200000 0.039000 0.047000
1560049744951652649	200 45 0.900000 0.065000 0.059000 1300 38 1.000000 2.115000 2.220000 600 50 1.000000 0.051000 0.051000 1.200000 0.039000 0.047000
1560049745463474815	200 45 0.900000 0.056000 0.051000 1300 39 1.000000 2.087000 2.191000 600 51 1.000000 0.051000 0.051000 1.200000 0.028000 0.033000
1560049745975218732	200 46 0.900000 0.056000 0.051000 1300 39 1.000000 2.081000 2.185000 600 52 1.000000 0.051000 0.051000 1.200000 0.025000 0.030000
1560049746486893774	200 46 0.900000 0.056000 0.051000 1300 40 1.000000 2.081000 2.185000 600 52 1.000000 0.052000 0.052000 1.200000 0.025000 0.030000
1560049746996400441	200 47 0.900000 0.056000 0.051000 1300 40 1.000000 2.085000 2.189000 600 53 1.000000 0.052000 0.052000 1.200000 0.025000 0.030000
1560049747509467191	200 47 0.900000 0.064000 0.058000 1300 40 1.000000 2.232000 2.345000 600 53 1.000000 0.052000 0.052000 1.200000 0.044000 0.053000
1560049748021271316	200 47 0.900000 0.056000 0.051000 1300 41 1.000000 2.071000 2.174000 600 53 1.000000 0.052000 0.052000 1.200000 0.026000 0.031000
1560049748532640149	200 47 0.900000 0.056000 0.051000 1300 41 1.000000 2.079000 2.182000 600 53 1.000000 0.052000 0.052000 1.200000 0.025000 0.030000
1560049749041519316	200 48 0.900000 0.056000 0.051000 1300 41 1.000000 2.094000 2.198000 600 53 1.000000 0.052000 0.052000 1.200000 0.024000 0.028000
1560049749555326358	200 48 0.900000 0.063000 0.057000 1300 41 1.000000 2.169000 2.277000 600 54 1.000000 0.052000 0.052000 1.200000 0.038000 0.045000
1560049750066990399	200 48 0.900000 0.058000 0.052000 1300 41 1.000000 2.085000 2.189000 600 54 1.000000 0.052000 0.052000 1.200000 0.027000 0.032000
1560049750578583524	200 48 0.900000 0.056000 0.051000 1300 41 1.000000 2.068000 2.171000 600 54 1.000000 0.052000 0.052000 1.200000 0.024000 0.028000
1560049751090338774	200 48 0.900000 0.057000 0.051000 1300 42 1.000000 2.084000 2.188000 600 54 1.000000 0.052000 0.052000 1.200000 0.026000 0.031000
1560049751602328858	200 48 0.900000 0.061000 0.055000 1300 42 1.000000 2.117000 2.222000 600 54 1.000000 0.052000 0.052000 1.200000 0.030000 0.036000
1560049752113661025	200 49 0.900000 0.062000 0.056000 1300 42 1.000000 2.098000 2.202000 600 54 1.000000 0.052000 0.052000 1.200000 0.031000 0.037000
1560049752625561983	200 49 0.900000 0.057000 0.051000 1300 42 1.000000 2.114000 2.219000 600 54 1.000000 0.052000 0.052000 1.200000 0.031000 0.037000
1560049753137656733	200 49 0.900000 0.057000 0.051000 1300 42 1.000000 2.082000 2.186000 600 54 1.000000 0.052000 0.052000 1.200000 0.026000 0.031000
1560049753649600608	200 49 0.900000 0.057000 0.051000 1300 42 1.000000 2.091000 2.195000 600 55 1.000000 0.052000 0.052000 1.200000 0.027000 0.032000
1560049754161636566	200 49 0.900000 0.057000 0.051000 1300 42 1.000000 2.084000 2.188000 600 55 1.000000 0.052000 0.052000 1.200000 0.026000 0.031000
1560049754673160233	200 49 0.900000 0.064000 0.058000 1300 42 1.000000 2.185000 2.294000 600 55 1.000000 0.052000 0.052000 1.200000 0.042000 0.050000
1560049755184878400	200 49 0.900000 0.057000 0.051000 1300 42 1.000000 2.086000 2.190000 600 55 1.000000 0.053000 0.053000 1.200000 0.025000 0.030000
1560049755694362983	200 49 0.900000 0.056000 0.051000 1300 42 1.000000 2.081000 2.185000 600 55 1.000000 0.052000 0.052000 1.200000 0.025000 0.030000
1560049756206169108	200 49 0.900000 0.058000 0.052000 1300 42 1.000000 2.065000 2.168000 600 55 1.000000 0.052000 0.052000 1.200000 0.024000 0.028000
1560049756718837525	200 49 0.900000 0.057000 0.051000 1300 42 1.000000 2.068000 2.171000 600 55 1.000000 0.052000 0.052000 1.200000 0.025000 0.030000
1560049757231980317	200 49 0.900000 0.061000 0.055000 1300 42 1.000000 2.140000 2.247000 600 55 1.000000 0.052000 0.052000 1.200000 0.036000 0.043000
1560049757765199150	200 49 0.900000 0.056000 0.051000 1300 42 1.000000 2.079000 2.182000 600 55 1.000000 0.052000 0.052000 1.200000 0.024000 0.028000
1560049758279854442	200 49 0.900000 0.057000 0.051000 1300 42 1.000000 2.071000 2.174000 600 55 1.000000 0.052000 0.052000 1.200000 0.024000 0.028000
1560049758791572567	200 49 0.900000 0.057000 0.051000 1300 42 1.000000 2.082000 2.186000 600 55 1.000000 0.052000 0.052000 1.200000 0.024000 0.028000
1560049759300672317	200 49 0.900000 0.067000 0.061000 1300 43 1.000000 2.146000 2.253000 600 55 1.000000 0.052000 0.052000 1.200000 0.040000 0.048000
1560049759815432359	200 49 0.900000 0.060000 0.054000 1300 43 1.000000 2.068000 2.171000 600 55 1.000000 0.052000 0.052000 1.200000 0.025000 0.030000
1560049760327926234	200 49 0.900000 0.058000 0.052000 1300 43 1.000000 2.151000 2.258000 600 55 1.000000 0.052000 0.052000 1.200000 0.034000 0.041000
1560049760839961484	200 49 0.900000 0.057000 0.051000 1300 43 1.000000 2.087000 2.191000 600 55 1.000000 0.052000 0.052000 1.200000 0.026000 0.031000
1560049761351625567	200 49 0.900000 0.057000 0.051000 1300 43 1.000000 2.091000 2.195000 600 55 1.000000 0.052000 0.052000 1.200000 0.026000 0.031000
1560049761863417067	200 49 0.900000 0.060000 0.054000 1300 43 1.000000 2.149000 2.256000 600 55 1.000000 0.053000 0.053000 1.200000 0.039000 0.047000
1560049762375476734	200 49 0.900000 0.059000 0.053000 1300 43 1.000000 2.180000 2.289000 600 55 1.000000 0.052000 0.052000 1.200000 0.031000 0.037000
1560049762887404234	200 49 0.900000 0.057000 0.051000 1300 43 1.000000 2.094000 2.198000 600 55 1.000000 0.052000 0.052000 1.200000 0.025000 0.030000
1560049763399193984	200 50 0.900000 0.057000 0.051000 1300 43 1.000000 2.093000 2.197000 600 55 1.000000 0.052000 0.052000 1.200000 0.025000 0.030000
1560049763908180234	200 49 0.900000 0.057000 0.051000 1300 43 1.000000 2.078000 2.177000 600 55 1.000000 0.052000 0.052000 1.200000 0.024000 0.028000
1560049764419986401	200 50 0.900000 0.065000 0.059000 1300 43 1.000000 2.248000 2.360000 600 56 1.000000 0.052000 0.052000 1.200000 0.045000 0.054000
1560049764931688109	200 50 0.900000 0.057000 0.051000 1300 43 1.000000 2.081000 2.185000 600 56 1.000000 0.052000 0.052000 1.200000 0.024000 0.028000
1560049765443495234	200 50 0.900000 0.056000 0.051000 1300 43 1.000000 2.076000 2.179000 600 55 1.000000 0.052000 0.052000 1.200000 0.025000 0.030000
1560049765955408193	200 50 0.900000 0.057000 0.051000 1300 43 1.000000 2.081000 2.185000 600 55 1.000000 0.052000 0.052000 1.200000 0.024000 0.028000
1560049766464361068	200 50 0.900000 0.061000 0.055000 1300 43 1.000000 2.169000 2.277000 600 56 1.000000 0.052000 0.052000 1.200000 0.039000 0.047000
1560049766976631193	200 50 0.900000 0.066000 0.060000 1300 43 1.000000 2.119000 2.224000 600 56 1.000000 0.052000 0.052000 1.200000 0.030000 0.036000
1560049767501842193	200 50 0.900000 0.057000 0.051000 1300 43 1.000000 2.083000 2.187000 600 56 1.000000 0.052000 0.052000 1.200000 0.025000 0.030000
1560049768016366693	200 50 0.900000 0.057000 0.051000 1300 43 1.000000 2.083000 2.187000 600 56 1.000000 0.052000 0.052000 1.200000 0.024000 0.028000
1560049768528269651	200 50 0.900000 0.062000 0.056000 1300 43 1.000000 2.136000 2.242000 600 56 1.000000 0.052000 0.052000 1.200000 0.034000 0.041000
1560049769037238777	200 50 0.900000 0.064000 0.058000 1300 43 1.000000 2.181000 2.290000 600 56 1.000000 0.053000 0.053000 1.200000 0.042000 0.050000
1560049769549914485	200 50 0.900000 0.064000 0.058000 1300 43 1.000000 2.148000 2.255000 600 56 1.000000 0.052000 0.052000 1.200000 0.033000 0.039000
1560049770061730235	200 50 0.900000 0.057000 0.051000 1300 43 1.000000 2.084000 2.188000 600 56 1.000000 0.052000 0.052000 1.200000 0.025000 0.030000
1560049770588949777	200 50 0.900000 0.057000 0.051000 1300 43 1.000000 2.088000 2.192000 600 56 1.000000 0.052000 0.052000 1.200000 0.025000 0.030000
1560049771102492652	200 50 0.900000 0.058000 0.052000 1300 43 1.000000 2.080000 2.184000 600 56 1.000000 0.052000 0.052000 1.200000 0.025000 0.030000
1560049771613914610	200 50 0.900000 0.066000 0.060000 1300 43 1.000000 2.181000 2.290000 600 56 1.000000 0.052000 0.052000 1.200000 0.042000 0.050000
1560049772125570527	200 50 0.900000 0.057000 0.051000 1300 43 1.000000 2.079000 2.182000 600 56 1.000000 0.052000 0.052000 1.200000 0.024000 0.028000
1560049772634407444	200 50 0.900000 0.058000 0.052000 1300 43 1.000000 2.074000 2.177000 600 56 1.000000 0.053000 0.053000 1.200000 0.024000 0.028000
1560049773146689360	200 50 0.900000 0.064000 0.058000 1300 43 1.000000 2.091000 2.195000 600 56 1.000000 0.053000 0.053000 1.200000 0.027000 0.032000
1560049773656041694	200 50 0.900000 0.057000 0.051000 1300 43 1.000000 2.081000 2.185000 600 56 1.000000 0.052000 0.052000 1.200000 0.025000 0.030000
1560049774173648819	200 50 0.900000 0.066000 0.060000 1300 43 1.000000 2.147000 2.254000 600 56 1.000000 0.052000 0.052000 1.200000 0.041000 0.049000
1560049774685452277	200 50 0.900000 0.057000 0.051000 1300 43 1.000000 2.100000 2.205000 600 56 1.000000 0.053000 0.053000 1.200000 0.026000 0.031000
1560049775196927861	200 50 0.900000 0.063000 0.057000 1300 43 1.000000 2.107000 2.212000 600 56 1.000000 0.053000 0.053000 1.200000 0.029000 0.035000
1560049775721595319	200 50 0.900000 0.057000 0.051000 1300 43 1.000000 2.087000 2.191000 600 56 1.000000 0.052000 0.052000 1.200000 0.025000 0.030000
1560049776232489861	200 50 0.900000 0.061000 0.055000 1300 43 1.000000 2.092000 2.196000 600 56 1.000000 0.052000 0.052000 1.200000 0.026000 0.031000
1560049776744536319	200 50 0.900000 0.059000 0.053000 1300 43 1.000000 2.184000 2.293000 600 56 1.000000 0.053000 0.053000 1.200000 0.039000 0.047000
1560049777256350569	200 50 0.900000 0.065000 0.059000 1300 43 1.000000 2.100000 2.205000 600 56 1.000000 0.052000 0.052000 1.200000 0.028000 0.033000
1560049777768141028	200 50 0.900000 0.057000 0.051000 1300 43 1.000000 2.099000 2.203000 600 56 1.000000 0.053000 0.053000 1.200000 0.025000 0.030000
1560049778279652361	200 50 0.900000 0.057000 0.051000 1300 43 1.000000 2.099000 2.203000 600 56 1.000000 0.053000 0.053000 1.200000 0.025000 0.030000
1560049778788326028	200 50 0.900000 0.057000 0.051000 1300 43 1.000000 2.093000 2.197000 600 56 1.000000 0.053000 0.053000 1.200000 0.024000 0.028000
1560049779303303986	200 50 0.900000 0.066000 0.060000 1300 43 1.000000 2.191000 2.300000 600 56 1.000000 0.052000 0.052000 1.200000 0.041000 0.049000
1560049779815267195	200 50 0.900000 0.063000 0.057000 1300 43 1.000000 2.150000 2.257000 600 56 1.000000 0.052000 0.052000 1.200000 0.033000 0.039000
1560049780326955945	200 50 0.900000 0.057000 0.051000 1300 43 1.000000 2.091000 2.195000 600 56 1.000000 0.053000 0.053000 1.200000 0.026000 0.031000
1560049780842387736	200 50 0.900000 0.057000 0.051000 1300 43 1.000000 2.085000 2.189000 600 56 1.000000 0.053000 0.053000 1.200000 0.026000 0.031000
1560049781359686570	200 50 0.900000 0.064000 0.058000 1300 43 1.000000 2.138000 2.244000 600 56 1.000000 0.052000 0.052000 1.200000 0.034000 0.041000
1560049781873238361	200 50 0.900000 0.058000 0.052000 1300 43 1.000000 2.194000 2.303000 600 56 1.000000 0.052000 0.052000 1.200000 0.032000 0.038000
1560049782384906653	200 50 0.900000 0.057000 0.051000 1300 44 1.000000 2.093000 2.197000 600 56 1.000000 0.052000 0.052000 1.200000 0.026000 0.031000
1560049782909562695	200 50 0.900000 0.057000 0.051000 1300 43 1.000000 2.093000 2.197000 600 56 1.000000 0.052000 0.052000 1.200000 0.026000 0.031000
1560049783435452862	200 50 0.900000 0.057000 0.051000 1300 44 1.000000 2.089000 2.193000 600 56 1.000000 0.052000 0.052000 1.200000 0.026000 0.031000
1560049783947712195	200 50 0.900000 0.064000 0.058000 1300 44 1.000000 2.276000 2.392000 600 56 1.000000 0.052000 0.052000 1.200000 0.045000 0.054000
1560049784459701403	200 50 0.900000 0.056000 0.051000 1300 44 1.000000 2.089000 2.193000 600 56 1.000000 0.053000 0.053000 1.200000 0.025000 0.030000
1560049784971256528	200 50 0.900000 0.057000 0.051000 1300 43 1.000000 2.094000 2.198000 600 56 1.000000 0.053000 0.053000 1.200000 0.026000 0.031000
1560049785480375070	200 50 0.900000 0.057000 0.051000 1300 43 1.000000 2.091000 2.195000 600 56 1.000000 0.052000 0.052000 1.200000 0.025000 0.030000
1560049785993656820	200 50 0.900000 0.063000 0.057000 1300 44 1.000000 2.152000 2.259000 600 56 1.000000 0.053000 0.053000 1.200000 0.034000 0.041000
1560049786508555529	200 50 0.900000 0.061000 0.055000 1300 44 1.000000 2.128000 2.234000 600 56 1.000000 0.053000 0.053000 1.200000 0.032000 0.038000
1560049787033832279	200 50 0.900000 0.057000 0.051000 1300 44 1.000000 2.090000 2.194000 600 56 1.000000 0.052000 0.052000 1.200000 0.025000 0.030000
1560049787547870779	200 50 0.900000 0.057000 0.051000 1300 44 1.000000 2.084000 2.188000 600 56 1.000000 0.053000 0.053000 1.200000 0.024000 0.028000
1560049788059606945	200 50 0.900000 0.065000 0.059000 1300 43 1.000000 2.139000 2.245000 600 56 1.000000 0.053000 0.053000 1.200000 0.034000 0.041000
1560049788570911737	200 50 0.900000 0.067000 0.061000 1300 44 1.000000 2.183000 2.292000 600 56 1.000000 0.052000 0.052000 1.200000 0.042000 0.050000
1560049789083135112	200 50 0.900000 0.060000 0.054000 1300 44 1.000000 2.156000 2.263000 600 56 1.000000 0.053000 0.053000 1.200000 0.035000 0.042000
1560049789594775946	200 50 0.900000 0.057000 0.051000 1300 44 1.000000 2.087000 2.191000 600 56 1.000000 0.052000 0.052000 1.200000 0.025000 0.030000
1560049790106400779	200 50 0.900000 0.058000 0.052000 1300 44 1.000000 2.085000 2.189000 600 56 1.000000 0.052000 0.052000 1.200000 0.026000 0.031000
1560049790615662487	200 50 0.900000 0.056000 0.051000 1300 44 1.000000 2.083000 2.187000 600 56 1.000000 0.053000 0.053000 1.200000 0.026000 0.031000
1560049791127204529	200 50 0.900000 0.060000 0.054000 1300 44 1.000000 2.181000 2.290000 600 56 1.000000 0.053000 0.053000 1.200000 0.040000 0.048000
1560049791639119113	200 50 0.900000 0.059000 0.053000 1300 44 1.000000 2.077000 2.180000 600 56 1.000000 0.053000 0.053000 1.200000 0.024000 0.028000
1560049792148429238	200 50 0.900000 0.057000 0.051000 1300 44 1.000000 2.079000 2.182000 600 56 1.000000 0.052000 0.052000 1.200000 0.025000 0.030000
1560049792660319779	200 50 0.900000 0.063000 0.057000 1300 44 1.000000 2.098000 2.202000 600 56 1.000000 0.053000 0.053000 1.200000 0.028000 0.033000
1560049793169255404	200 50 0.900000 0.057000 0.051000 1300 44 1.000000 2.091000 2.195000 600 56 1.000000 0.052000 0.052000 1.200000 0.026000 0.031000
1560049793681164571	200 50 0.900000 0.066000 0.060000 1300 44 1.000000 2.176000 2.284000 600 56 1.000000 0.052000 0.052000 1.200000 0.040000 0.048000
1560049794190043488	200 50 0.900000 0.057000 0.051000 1300 44 1.000000 2.066000 2.169000 600 56 1.000000 0.052000 0.052000 1.200000 0.024000 0.028000
1560049794701862946	200 50 0.900000 0.060000 0.054000 1300 44 1.000000 2.128000 2.234000 600 56 1.000000 0.052000 0.052000 1.200000 0.030000 0.036000
1560049795213525030	200 50 0.900000 0.058000 0.052000 1300 44 1.000000 2.078000 2.181000 600 56 1.000000 0.052000 0.052000 1.200000 0.024000 0.028000
1560049795725112946	200 50 0.900000 0.065000 0.059000 1300 44 1.000000 2.128000 2.234000 600 56 1.000000 0.052000 0.052000 1.200000 0.035000 0.042000
1560049796237174238	200 50 0.900000 0.057000 0.051000 1300 44 1.000000 2.079000 2.182000 600 56 1.000000 0.052000 0.052000 1.200000 0.025000 0.030000
1560049796748858822	200 50 0.900000 0.061000 0.055000 1300 44 1.000000 2.099000 2.199000 600 56 1.000000 0.052000 0.052000 1.200000 0.032000 0.038000
1560049797259727405	200 50 0.900000 0.057000 0.051000 1300 44 1.000000 2.094000 2.198000 600 56 1.000000 0.053000 0.053000 1.200000 0.025000 0.030000
1560049797771908447	200 50 0.900000 0.057000 0.051000 1300 44 1.000000 2.087000 2.191000 600 56 1.000000 0.053000 0.053000 1.200000 0.025000 0.030000
1560049798283233655	200 50 0.900000 0.057000 0.051000 1300 44 1.000000 2.133000 2.239000 600 56 1.000000 0.053000 0.053000 1.200000 0.033000 0.039000
1560049798795255780	200 50 0.900000 0.063000 0.057000 1300 44 1.000000 2.100000 2.205000 600 56 1.000000 0.052000 0.052000 1.200000 0.028000 0.033000
1560049799307089113	200 50 0.900000 0.058000 0.052000 1300 44 1.000000 2.089000 2.193000 600 56 1.000000 0.052000 0.052000 1.200000 0.025000 0.030000
1560049799818690530	200 50 0.900000 0.057000 0.051000 1300 44 1.000000 2.089000 2.193000 600 56 1.000000 0.052000 0.052000 1.200000 0.025000 0.030000
1560049800331034614	200 50 0.900000 0.058000 0.052000 1300 44 1.000000 2.086000 2.190000 600 56 1.000000 0.052000 0.052000 1.200000 0.026000 0.031000
1560049800842866780	200 51 0.900000 0.066000 0.060000 1300 44 1.000000 2.172000 2.280000 600 57 1.000000 0.053000 0.053000 1.200000 0.042000 0.050000
1560049801354594614	200 50 0.900000 0.057000 0.051000 1300 44 1.000000 2.076000 2.179000 600 56 1.000000 0.052000 0.052000 1.200000 0.024000 0.028000
1560049801866069947	200 50 0.900000 0.057000 0.051000 1300 44 1.000000 2.071000 2.174000 600 56 1.000000 0.052000 0.052000 1.200000 0.024000 0.028000
1560049802378132697	200 50 0.900000 0.057000 0.051000 1300 44 1.000000 2.076000 2.179000 600 56 1.000000 0.052000 0.052000 1.200000 0.024000 0.028000
1560049802887324739	200 51 0.900000 0.058000 0.052000 1300 44 1.000000 2.081000 2.185000 600 57 1.000000 0.052000 0.052000 1.200000 0.028000 0.033000
1560049803400217739	200 51 0.900000 0.060000 0.054000 1300 44 1.000000 2.131000 2.237000 600 57 1.000000 0.052000 0.052000 1.200000 0.033000 0.039000
1560049803912247406	200 50 0.900000 0.057000 0.051000 1300 44 1.000000 2.074000 2.173000 600 56 1.000000 0.053000 0.053000 1.200000 0.024000 0.028000
1560049804423816781	200 50 0.900000 0.058000 0.052000 1300 44 1.000000 2.071000 2.174000 600 56 1.000000 0.053000 0.053000 1.200000 0.024000 0.028000
1560049804932878656	200 50 0.900000 0.057000 0.051000 1300 44 1.000000 2.077000 2.180000 600 56 1.000000 0.053000 0.053000 1.200000 0.026000 0.031000
1560049805446607281	200 50 0.900000 0.063000 0.057000 1300 44 1.000000 2.146000 2.253000 600 56 1.000000 0.053000 0.053000 1.200000 0.031000 0.037000
1560049805958358531	200 50 0.900000 0.067000 0.061000 1300 44 1.000000 2.144000 2.251000 600 56 1.000000 0.052000 0.052000 1.200000 0.037000 0.044000
1560049806470489156	200 50 0.900000 0.058000 0.052000 1300 44 1.000000 2.080000 2.184000 600 56 1.000000 0.053000 0.053000 1.200000 0.026000 0.031000
1560049806997192781	200 50 0.900000 0.057000 0.051000 1300 44 1.000000 2.077000 2.176000 600 56 1.000000 0.052000 0.052000 1.200000 0.025000 0.030000
1560049807511374364	200 51 0.900000 0.065000 0.059000 1300 44 1.000000 2.134000 2.240000 600 56 1.000000 0.052000 0.052000 1.200000 0.034000 0.041000
1560049808022685615	200 51 0.900000 0.063000 0.057000 1300 44 1.000000 2.151000 2.258000 600 57 1.000000 0.053000 0.053000 1.200000 0.040000 0.048000
1560049808534383240	200 51 0.900000 0.058000 0.052000 1300 44 1.000000 2.081000 2.185000 600 57 1.000000 0.053000 0.053000 1.200000 0.025000 0.030000
1560049809045987948	200 51 0.900000 0.057000 0.051000 1300 44 1.000000 2.073000 2.176000 600 56 1.000000 0.053000 0.053000 1.200000 0.024000 0.028000
1560049809557825656	200 50 0.900000 0.063000 0.057000 1300 44 1.000000 2.128000 2.234000 600 57 1.000000 0.053000 0.053000 1.200000 0.034000 0.041000
1560049810066992281	200 50 0.900000 0.057000 0.051000 1300 44 1.000000 2.069000 2.172000 600 57 1.000000 0.053000 0.053000 1.200000 0.024000 0.028000
1560049810579010073	200 51 0.900000 0.064000 0.058000 1300 44 1.000000 2.163000 2.271000 600 57 1.000000 0.053000 0.053000 1.200000 0.041000 0.049000
1560049811090971948	200 51 0.900000 0.057000 0.051000 1300 44 1.000000 2.075000 2.178000 600 56 1.000000 0.052000 0.052000 1.200000 0.024000 0.028000
1560049811602791698	200 51 0.900000 0.058000 0.052000 1300 44 1.000000 2.086000 2.190000 600 57 1.000000 0.053000 0.053000 1.200000 0.032000 0.038000
1560049812114203490	200 51 0.900000 0.057000 0.051000 1300 44 1.000000 2.087000 2.191000 600 56 1.000000 0.052000 0.052000 1.200000 0.024000 0.028000
1560049812624171198	200 51 0.900000 0.057000 0.051000 1300 44 1.000000 2.090000 2.194000 600 57 1.000000 0.052000 0.052000 1.200000 0.035000 0.042000
1560049813135756615	200 51 0.900000 0.063000 0.057000 1300 44 1.000000 2.194000 2.303000 600 57 1.000000 0.053000 0.053000 1.200000 0.042000 0.050000
1560049813644815324	200 51 0.900000 0.057000 0.051000 1300 44 1.000000 2.089000 2.193000 600 57 1.000000 0.052000 0.052000 1.200000 0.025000 0.030000
1560049814169757074	200 51 0.900000 0.058000 0.052000 1300 44 1.000000 2.123000 2.229000 600 57 1.000000 0.053000 0.053000 1.200000 0.030000 0.036000
1560049814683930824	200 51 0.900000 0.057000 0.051000 1300 44 1.000000 2.078000 2.181000 600 57 1.000000 0.053000 0.053000 1.200000 0.027000 0.032000
1560049815193166157	200 51 0.900000 0.059000 0.053000 1300 44 1.000000 2.087000 2.191000 600 57 1.000000 0.052000 0.052000 1.200000 0.024000 0.028000
1560049815708169157	200 51 0.900000 0.061000 0.055000 1300 44 1.000000 2.185000 2.294000 600 57 1.000000 0.053000 0.053000 1.200000 0.042000 0.050000
1560049816220198991	200 51 0.900000 0.063000 0.057000 1300 44 1.000000 2.097000 2.201000 600 57 1.000000 0.052000 0.052000 1.200000 0.027000 0.032000
1560049816732125991	200 51 0.900000 0.057000 0.051000 1300 44 1.000000 2.077000 2.180000 600 57 1.000000 0.053000 0.053000 1.200000 0.026000 0.031000
1560049817243670616	200 50 0.900000 0.058000 0.052000 1300 44 1.000000 2.087000 2.191000 600 57 1.000000 0.053000 0.053000 1.200000 0.025000 0.030000
1560049817755295241	200 51 0.900000 0.061000 0.055000 1300 44 1.000000 2.125000 2.231000 600 57 1.000000 0.053000 0.053000 1.200000 0.031000 0.037000
1560049818267421366	200 51 0.900000 0.061000 0.055000 1300 44 1.000000 2.157000 2.264000 600 57 1.000000 0.053000 0.053000 1.200000 0.032000 0.038000
1560049818779174907	200 51 0.900000 0.057000 0.051000 1300 44 1.000000 2.087000 2.191000 600 57 1.000000 0.052000 0.052000 1.200000 0.025000 0.030000
1560049819290912908	200 51 0.900000 0.057000 0.051000 1300 44 1.000000 2.082000 2.181000 600 56 1.000000 0.052000 0.052000 1.200000 0.025000 0.030000
1560049819803540949	200 51 0.900000 0.057000 0.051000 1300 44 1.000000 2.094000 2.198000 600 57 1.000000 0.053000 0.053000 1.200000 0.026000 0.031000
1560049820318476158	200 51 0.900000 0.066000 0.060000 1300 44 1.000000 2.180000 2.289000 600 57 1.000000 0.052000 0.052000 1.200000 0.042000 0.050000
1560049820830281908	200 51 0.900000 0.057000 0.051000 1300 44 1.000000 2.090000 2.194000 600 57 1.000000 0.052000 0.052000 1.200000 0.025000 0.030000
1560049821342006199	200 51 0.900000 0.057000 0.051000 1300 44 1.000000 2.082000 2.181000 600 57 1.000000 0.053000 0.053000 1.200000 0.025000 0.030000
1560049821853483033	200 51 0.900000 0.057000 0.051000 1300 44 1.000000 2.091000 2.191000 600 57 1.000000 0.053000 0.053000 1.200000 0.025000 0.030000
1560049822363794408	200 51 0.900000 0.063000 0.057000 1300 44 1.000000 2.072000 2.171000 600 57 1.000000 0.052000 0.052000 1.200000 0.025000 0.030000
1560049822875565741	200 51 0.900000 0.061000 0.055000 1300 44 1.000000 2.096000 2.200000 600 57 1.000000 0.052000 0.052000 1.200000 0.028000 0.033000
1560049823387574283	200 51 0.900000 0.057000 0.051000 1300 44 1.000000 2.070000 2.173000 600 57 1.000000 0.053000 0.053000 1.200000 0.024000 0.028000
1560049823899378075	200 51 0.900000 0.058000 0.052000 1300 44 1.000000 2.084000 2.188000 600 57 1.000000 0.052000 0.052000 1.200000 0.025000 0.030000
1560049824408390075	200 51 0.900000 0.057000 0.051000 1300 44 1.000000 2.088000 2.192000 600 57 1.000000 0.052000 0.052000 1.200000 0.025000 0.030000
1560049824920382242	200 51 0.900000 0.064000 0.058000 1300 44 1.000000 2.211000 2.321000 600 57 1.000000 0.053000 0.053000 1.200000 0.036000 0.043000
1560049825431998658	200 51 0.900000 0.058000 0.052000 1300 44 1.000000 2.087000 2.191000 600 57 1.000000 0.053000 0.053000 1.200000 0.026000 0.031000
1560049825943835533	200 51 0.900000 0.058000 0.052000 1300 44 1.000000 2.091000 2.195000 600 57 1.000000 0.052000 0.052000 1.200000 0.026000 0.031000
1560049826455571867	200 51 0.900000 0.057000 0.051000 1300 44 1.000000 2.092000 2.196000 600 57 1.000000 0.052000 0.052000 1.200000 0.025000 0.030000
1560049826964583950	200 51 0.900000 0.058000 0.052000 1300 44 1.000000 2.087000 2.191000 600 57 1.000000 0.052000 0.052000 1.200000 0.025000 0.030000
1560049827476455242	200 51 0.900000 0.061000 0.055000 1300 44 1.000000 2.163000 2.271000 600 57 1.000000 0.053000 0.053000 1.200000 0.041000 0.049000
1560049827988531409	200 51 0.900000 0.057000 0.051000 1300 44 1.000000 2.088000 2.192000 600 57 1.000000 0.053000 0.053000 1.200000 0.026000 0.031000
1560049828500122700	200 51 0.900000 0.057000 0.051000 1300 44 1.000000 2.082000 2.181000 600 57 1.000000 0.053000 0.053000 1.200000 0.026000 0.031000
1560049829011972200	200 51 0.900000 0.057000 0.051000 1300 44 1.000000 2.079000 2.182000 600 57 1.000000 0.053000 0.053000 1.200000 0.026000 0.031000
1560049829525285117	200 51 0.900000 0.060000 0.054000 1300 44 1.000000 2.140000 2.247000 600 57 1.000000 0.052000 0.052000 1.200000 0.036000 0.043000
1560049830036964450	200 51 0.900000 0.059000 0.053000 1300 44 1.000000 2.073000 2.176000 600 57 1.000000 0.052000 0.052000 1.200000 0.025000 0.030000
1560049830561787701	200 51 0.900000 0.057000 0.051000 1300 44 1.000000 2.073000 2.176000 600 57 1.000000 0.052000 0.052000 1.200000 0.024000 0.028000
1560049831075684742	200 51 0.900000 0.057000 0.051000 1300 44 1.000000 2.073000 2.176000 600 57 1.000000 0.053000 0.053000 1.200000 0.024000 0.028000
1560049831585767326	200 51 0.900000 0.057000 0.051000 1300 44 1.000000 2.073000 2.176000 600 57 1.000000 0.053000 0.053000 1.200000 0.024000 0.028000
1560049832097304784	200 51 0.900000 0.067000 0.061000 1300 44 1.000000 2.175000 2.283000 600 57 1.000000 0.052000 0.052000 1.200000 0.042000 0.050000
1560049832608868659	200 51 0.900000 0.058000 0.052000 1300 44 1.000000 2.088000 2.192000 600 57 1.000000 0.052000 0.052000 1.200000 0.027000 0.032000
1560049833118237534	200 51 0.900000 0.057000 0.051000 1300 44 1.000000 2.088000 2.192000 600 57 1.000000 0.052000 0.052000 1.200000 0.025000 0.030000
1560049833630469951	200 51 0.900000 0.065000 0.059000 1300 44 1.000000 2.145000 2.252000 600 57 1.000000 0.053000 0.053000 1.200000 0.034000 0.041000
1560049834143589993	200 51 0.900000 0.057000 0.051000 1300 44 1.000000 2.088000 2.192000 600 57 1.000000 0.052000 0.052000 1.200000 0.026000 0.031000
1560049834658470826	200 51 0.900000 0.066000 0.060000 1300 44 1.000000 2.194000 2.303000 600 57 1.000000 0.053000 0.053000 1.200000 0.042000 0.050000
1560049835170166993	200 51 0.900000 0.058000 0.052000 1300 44 1.000000 2.090000 2.194000 600 57 1.000000 0.053000 0.053000 1.200000 0.025000 0.030000
1560049835682304493	200 51 0.900000 0.058000 0.052000 1300 44 1.000000 2.130000 2.236000 600 57 1.000000 0.053000 0.053000 1.200000 0.031000 0.037000
1560049836193956076	200 51 0.900000 0.058000 0.052000 1300 44 1.000000 2.082000 2.186000 600 57 1.000000 0.053000 0.053000 1.200000 0.025000 0.030000
1560049836702946826	200 51 0.900000 0.057000 0.051000 1300 44 1.000000 2.103000 2.208000 600 57 1.000000 0.052000 0.052000 1.200000 0.029000 0.035000
1560049837214665368	200 51 0.900000 0.063000 0.057000 1300 44 1.000000 2.101000 2.206000 600 57 1.000000 0.053000 0.053000 1.200000 0.032000 0.038000
1560049837726431535	200 51 0.900000 0.058000 0.052000 1300 44 1.000000 2.117000 2.222000 600 57 1.000000 0.053000 0.053000 1.200000 0.030000 0.036000
1560049838238276451	200 51 0.900000 0.057000 0.051000 1300 44 1.000000 2.072000 2.175000 600 57 1.000000 0.053000 0.053000 1.200000 0.025000 0.030000
1560049838750367243	200 51 0.900000 0.057000 0.051000 1300 44 1.000000 2.079000 2.182000 600 57 1.000000 0.053000 0.053000 1.200000 0.025000 0.030000
1560049839279016702	200 51 0.900000 0.067000 0.061000 1300 44 1.000000 2.168000 2.276000 600 57 1.000000 0.053000 0.053000 1.200000 0.043000 0.051000
1560049839809780202	200 51 0.900000 0.059000 0.053000 1300 44 1.000000 2.079000 2.182000 600 57 1.000000 0.053000 0.053000 1.200000 0.025000 0.030000
1560049840323985452	200 51 0.900000 0.057000 0.051000 1300 44 1.000000 2.077000 2.176000 600 57 1.000000 0.053000 0.053000 1.200000 0.024000 0.028000
1560049840835703618	200 51 0.900000 0.057000 0.051000 1300 44 1.000000 2.079000 2.178000 600 57 1.000000 0.052000 0.052000 1.200000 0.024000 0.028000
1560049841348916952	200 51 0.900000 0.057000 0.051000 1300 44 1.000000 2.083000 2.182000 600 57 1.000000 0.053000 0.053000 1.200000 0.024000 0.028000
1560049841861680619	200 51 0.900000 0.066000 0.060000 1300 44 1.000000 2.136000 2.242000 600 57 1.000000 0.053000 0.053000 1.200000 0.036000 0.043000
1560049842373638785	200 51 0.900000 0.062000 0.056000 1300 44 1.000000 2.129000 2.231000 600 57 1.000000 0.053000 0.053000 1.200000 0.035000 0.042000
1560049842885399327	200 51 0.900000 0.057000 0.051000 1300 44 1.000000 2.090000 2.194000 600 57 1.000000 0.053000 0.053000 1.200000 0.025000 0.030000
1560049843397572077	200 51 0.900000 0.058000 0.052000 1300 44 1.000000 2.095000 2.199000 600 57 1.000000 0.053000 0.053000 1.200000 0.025000 0.030000
1560049843906603994	200 51 0.900000 0.058000 0.052000 1300 44 1.000000 2.079000 2.182000 600 57 1.000000 0.053000 0.053000 1.200000 0.026000 0.031000
1560049844418447536	200 51 0.900000 0.065000 0.059000 1300 44 1.000000 2.250000 2.362000 600 57 1.000000 0.053000 0.053000 1.200000 0.043000 0.051000
1560049844930232286	200 51 0.900000 0.057000 0.051000 1300 44 1.000000 2.076000 2.179000 600 57 1.000000 0.053000 0.053000 1.200000 0.024000 0.028000
1560049845441940702	200 51 0.900000 0.057000 0.051000 1300 44 1.000000 2.082000 2.186000 600 57 1.000000 0.052000 0.052000 1.200000 0.024000 0.028000
1560049845953763244	200 51 0.900000 0.057000 0.051000 1300 44 1.000000 2.076000 2.179000 600 57 1.000000 0.053000 0.053000 1.200000 0.024000 0.028000
1560049846465305702	200 51 0.900000 0.065000 0.059000 1300 44 1.000000 2.293000 2.409000 600 57 1.000000 0.052000 0.052000 1.200000 0.040000 0.048000
1560049846978708744	200 51 0.900000 0.057000 0.051000 1300 44 1.000000 2.072000 2.175000 600 57 1.000000 0.053000 0.053000 1.200000 0.025000 0.030000
1560049847490572744	200 51 0.900000 0.058000 0.052000 1300 44 1.000000 2.077000 2.180000 600 57 1.000000 0.053000 0.053000 1.200000 0.024000 0.028000
1560049848002419328	200 51 0.900000 0.058000 0.052000 1300 44 1.000000 2.077000 2.180000 600 57 1.000000 0.052000 0.052000 1.200000 0.024000 0.028000
1560049848517290494	200 51 0.900000 0.057000 0.051000 1300 44 1.000000 2.093000 2.197000 600 57 1.000000 0.053000 0.053000 1.200000 0.031000 0.037000
1560049849030205744	200 51 0.900000 0.066000 0.060000 1300 44 1.000000 2.224000 2.335000 600 57 1.000000 0.053000 0.053000 1.200000 0.035000 0.042000
1560049849541996828	200 51 0.900000 0.057000 0.051000 1300 44 1.000000 2.097000 2.201000 600 57 1.000000 0.052000 0.052000 1.200000 0.024000 0.028000
1560049850053466453	200 51 0.900000 0.057000 0.051000 1300 44 1.000000 2.090000 2.194000 600 57 1.000000 0.053000 0.053000 1.200000 0.024000 0.028000
1560049850562886036	200 51 0.900000 0.057000 0.051000 1300 44 1.000000 2.089000 2.193000 600 57 1.000000 0.052000 0.052000 1.200000 0.025000 0.030000
1560049851071969328	200 51 0.900000 0.063000 0.057000 1300 44 1.000000 2.090000 2.194000 600 57 1.000000 0.053000 0.053000 1.200000 0.033000 0.039000
1560049851589660828	200 51 0.900000 0.066000 0.060000 1300 44 1.000000 2.190000 2.299000 600 57 1.000000 0.053000 0.053000 1.200000 0.037000 0.044000
1560049852101501161	200 51 0.900000 0.058000 0.052000 1300 44 1.000000 2.090000 2.194000 600 57 1.000000 0.053000 0.053000 1.200000 0.024000 0.028000
1560049852612873245	200 51 0.900000 0.057000 0.051000 1300 44 1.000000 2.090000 2.194000 600 57 1.000000 0.053000 0.053000 1.200000 0.025000 0.030000
1560049853137740328	200 51 0.900000 0.065000 0.059000 1300 44 1.000000 2.089000 2.193000 600 57 1.000000 0.053000 0.053000 1.200000 0.025000 0.030000
1560049853652335120	200 51 0.900000 0.063000 0.057000 1300 44 1.000000 2.084000 2.188000 600 57 1.000000 0.053000 0.053000 1.200000 0.027000 0.032000
1560049854164115412	200 51 0.900000 0.065000 0.059000 1300 44 1.000000 2.167000 2.275000 600 57 1.000000 0.052000 0.052000 1.200000 0.040000 0.048000
1560049854676085995	200 51 0.900000 0.058000 0.052000 1300 44 1.000000 2.097000 2.201000 600 57 1.000000 0.052000 0.052000 1.200000 0.025000 0.030000
1560049855187810870	200 51 0.900000 0.057000 0.051000 1300 44 1.000000 2.095000 2.199000 600 57 1.000000 0.053000 0.053000 1.200000 0.025000 0.030000
1560049855696963037	200 51 0.900000 0.058000 0.052000 1300 44 1.000000 2.084000 2.188000 600 57 1.000000 0.052000 0.052000 1.200000 0.026000 0.031000
1560049856213322370	200 51 0.900000 0.065000 0.059000 1300 44 1.000000 2.172000 2.280000 600 57 1.000000 0.052000 0.052000 1.200000 0.037000 0.044000
1560049856725117037	200 51 0.900000 0.057000 0.051000 1300 44 1.000000 2.085000 2.189000 600 57 1.000000 0.053000 0.053000 1.200000 0.026000 0.031000
1560049857234712829	200 51 0.900000 0.057000 0.051000 1300 44 1.000000 2.094000 2.198000 600 57 1.000000 0.053000 0.053000 1.200000 0.026000 0.031000
1560049857746578954	200 51 0.900000 0.057000 0.051000 1300 44 1.000000 2.105000 2.210000 600 57 1.000000 0.053000 0.053000 1.200000 0.028000 0.033000
1560049858260556371	200 51 0.900000 0.058000 0.052000 1300 44 1.000000 2.090000 2.194000 600 57 1.000000 0.052000 0.052000 1.200000 0.025000 0.030000
1560049858785603162	200 51 0.900000 0.062000 0.056000 1300 44 1.000000 2.187000 2.296000 600 57 1.000000 0.053000 0.053000 1.200000 0.043000 0.051000
1560049859296749496	200 51 0.900000 0.057000 0.051000 1300 44 1.000000 2.080000 2.184000 600 57 1.000000 0.052000 0.052000 1.200000 0.026000 0.031000
1560049859822174996	200 51 0.900000 0.057000 0.051000 1300 44 1.000000 2.129000 2.235000 600 57 1.000000 0.052000 0.052000 1.200000 0.030000 0.036000
1560049860336223787	200 51 0.900000 0.058000 0.052000 1300 44 1.000000 2.079000 2.182000 600 57 1.000000 0.053000 0.053000 1.200000 0.025000 0.030000
1560049860852604037	200 51 0.900000 0.057000 0.051000 1300 44 1.000000 2.089000 2.193000 600 57 1.000000 0.053000 0.053000 1.200000 0.025000 0.030000
1560049861378338663	200 51 0.900000 0.066000 0.060000 1300 44 1.000000 2.180000 2.289000 600 57 1.000000 0.053000 0.053000 1.200000 0.042000 0.050000
1560049861892371913	200 51 0.900000 0.059000 0.053000 1300 44 1.000000 2.128000 2.234000 600 57 1.000000 0.053000 0.053000 1.200000 0.028000 0.033000
1560049862404098621	200 51 0.900000 0.058000 0.052000 1300 44 1.000000 2.083000 2.182000 600 57 1.000000 0.052000 0.052000 1.200000 0.025000 0.030000
1560049862915802371	200 51 0.900000 0.057000 0.051000 1300 44 1.000000 2.090000 2.194000 600 57 1.000000 0.053000 0.053000 1.200000 0.025000 0.030000
1560049863427108246	200 51 0.900000 0.061000 0.055000 1300 44 1.000000 2.129000 2.235000 600 57 1.000000 0.053000 0.053000 1.200000 0.030000 0.036000
1560049863938895121	200 51 0.900000 0.059000 0.053000 1300 44 1.000000 2.117000 2.222000 600 57 1.000000 0.053000 0.053000 1.200000 0.032000 0.038000
1560049864450631496	200 51 0.900000 0.058000 0.052000 1300 44 1.000000 2.087000 2.191000 600 57 1.000000 0.052000 0.052000 1.200000 0.025000 0.030000
1560049864962259663	200 51 0.900000 0.057000 0.051000 1300 44 1.000000 2.087000 2.191000 600 57 1.000000 0.053000 0.053000 1.200000 0.025000 0.030000
1560049865474243621	200 51 0.900000 0.057000 0.051000 1300 44 1.000000 2.088000 2.192000 600 57 1.000000 0.053000 0.053000 1.200000 0.026000 0.031000
1560049865986091371	200 51 0.900000 0.066000 0.060000 1300 44 1.000000 2.199000 2.308000 600 57 1.000000 0.052000 0.052000 1.200000 0.043000 0.051000
1560049866497765788	200 51 0.900000 0.058000 0.052000 1300 44 1.000000 2.093000 2.197000 600 57 1.000000 0.053000 0.053000 1.200000 0.026000 0.031000
1560049867009745663	200 51 0.900000 0.058000 0.052000 1300 44 1.000000 2.088000 2.192000 600 57 1.000000 0.053000 0.053000 1.200000 0.025000 0.030000
1560049867521482538	200 51 0.900000 0.057000 0.051000 1300 44 1.000000 2.082000 2.186000 600 57 1.000000 0.053000 0.053000 1.200000 0.025000 0.030000
1560049868037758413	200 51 0.900000 0.057000 0.051000 1300 44 1.000000 2.095000 2.199000 600 57 1.000000 0.052000 0.052000 1.200000 0.024000 0.028000
1560049868550657913	200 51 0.900000 0.066000 0.060000 1300 44 1.000000 2.128000 2.234000 600 57 1.000000 0.052000 0.052000 1.200000 0.037000 0.044000
1560049869062310538	200 51 0.900000 0.057000 0.051000 1300 44 1.000000 2.081000 2.185000 600 57 1.000000 0.053000 0.053000 1.200000 0.024000 0.028000
1560049869574331997	200 51 0.900000 0.057000 0.051000 1300 44 1.000000 2.077000 2.180000 600 57 1.000000 0.053000 0.053000 1.200000 0.024000 0.028000
1560049870083422872	200 51 0.900000 0.058000 0.052000 1300 44 1.000000 2.114000 2.219000 600 57 1.000000 0.053000 0.053000 1.200000 0.026000 0.031000
1560049870593465997	200 51 0.900000 0.064000 0.058000 1300 44 1.000000 2.089000 2.193000 600 57 1.000000 0.052000 0.052000 1.200000 0.032000 0.038000
1560049871105621789	200 51 0.900000 0.062000 0.056000 1300 44 1.000000 2.168000 2.276000 600 57 1.000000 0.053000 0.053000 1.200000 0.040000 0.048000
1560049871617255289	200 51 0.900000 0.058000 0.052000 1300 44 1.000000 2.089000 2.193000 600 57 1.000000 0.053000 0.053000 1.200000 0.026000 0.031000
1560049872126345331	200 51 0.900000 0.057000 0.051000 1300 44 1.000000 2.092000 2.196000 600 57 1.000000 0.052000 0.052000 1.200000 0.025000 0.030000
1560049872638569622	200 51 0.900000 0.061000 0.055000 1300 44 1.000000 2.153000 2.260000 600 57 1.000000 0.052000 0.052000 1.200000 0.033000 0.039000
1560049873149824039	200 51 0.900000 0.058000 0.052000 1300 44 1.000000 2.157000 2.264000 600 57 1.000000 0.053000 0.053000 1.200000 0.036000 0.043000
1560049873661470289	200 51 0.900000 0.061000 0.055000 1300 44 1.000000 2.079000 2.182000 600 57 1.000000 0.053000 0.053000 1.200000 0.025000 0.030000
1560049874173275831	200 51 0.900000 0.058000 0.052000 1300 44 1.000000 2.081000 2.185000 600 57 1.000000 0.053000 0.053000 1.200000 0.025000 0.030000
1560049874685257497	200 51 0.900000 0.061000 0.055000 1300 44 1.000000 2.125000 2.231000 600 57 1.000000 0.053000 0.053000 1.200000 0.033000 0.039000
1560049875197288498	200 51 0.900000 0.058000 0.052000 1300 44 1.000000 2.083000 2.187000 600 57 1.000000 0.053000 0.053000 1.200000 0.025000 0.030000
1560049875709198414	200 51 0.900000 0.067000 0.061000 1300 44 1.000000 2.165000 2.273000 600 57 1.000000 0.053000 0.053000 1.200000 0.042000 0.050000
1560049876234178581	200 51 0.900000 0.057000 0.051000 1300 44 1.000000 2.076000 2.179000 600 57 1.000000 0.053000 0.053000 1.200000 0.024000 0.028000
1560049876748018248	200 51 0.900000 0.062000 0.056000 1300 44 1.000000 2.099000 2.203000 600 57 1.000000 0.053000 0.053000 1.200000 0.029000 0.035000
1560049877259764831	200 51 0.900000 0.057000 0.051000 1300 44 1.000000 2.074000 2.173000 600 57 1.000000 0.053000 0.053000 1.200000 0.025000 0.030000
1560049877771869581	200 51 0.900000 0.062000 0.056000 1300 44 1.000000 2.125000 2.231000 600 57 1.000000 0.052000 0.052000 1.200000 0.032000 0.038000
1560049878283498790	200 51 0.900000 0.058000 0.052000 1300 44 1.000000 2.088000 2.192000 600 57 1.000000 0.053000 0.053000 1.200000 0.029000 0.035000
1560049878792499540	200 51 0.900000 0.063000 0.057000 1300 44 1.000000 2.122000 2.228000 600 57 1.000000 0.053000 0.053000 1.200000 0.029000 0.035000
1560049879304204540	200 51 0.900000 0.063000 0.057000 1300 44 1.000000 2.113000 2.218000 600 57 1.000000 0.052000 0.052000 1.200000 0.029000 0.035000
1560049879815595623	200 51 0.900000 0.057000 0.051000 1300 44 1.000000 2.088000 2.192000 600 57 1.000000 0.052000 0.052000 1.200000 0.026000 0.031000
1560049880358262873	200 51 0.900000 0.057000 0.051000 1300 44 1.000000 2.122000 2.228000 600 57 1.000000 0.053000 0.053000 1.200000 0.031000 0.037000
1560049880868995082	200 51 0.900000 0.064000 0.058000 1300 44 1.000000 2.108000 2.209000 600 57 1.000000 0.052000 0.052000 1.200000 0.031000 0.037000
1560049881394043498	200 51 0.900000 0.063000 0.057000 1300 44 1.000000 2.151000 2.258000 600 57 1.000000 0.053000 0.053000 1.200000 0.033000 0.039000
1560049881907966165	200 51 0.900000 0.058000 0.052000 1300 44 1.000000 2.080000 2.179000 600 57 1.000000 0.053000 0.053000 1.200000 0.027000 0.032000
1560049882420264082	200 51 0.900000 0.057000 0.051000 1300 44 1.000000 2.080000 2.184000 600 57 1.000000 0.053000 0.053000 1.200000 0.026000 0.031000
1560049882931799373	200 51 0.900000 0.066000 0.060000 1300 44 1.000000 2.173000 2.281000 600 57 1.000000 0.053000 0.053000 1.200000 0.042000 0.050000
1560049883443586374	200 51 0.900000 0.066000 0.060000 1300 44 1.000000 2.121000 2.227000 600 57 1.000000 0.053000 0.053000 1.200000 0.035000 0.042000
1560049883955308915	200 51 0.900000 0.057000 0.051000 1300 44 1.000000 2.077000 2.180000 600 57 1.000000 0.052000 0.052000 1.200000 0.025000 0.030000
1560049884467442624	200 51 0.900000 0.058000 0.052000 1300 44 1.000000 2.079000 2.182000 600 57 1.000000 0.052000 0.052000 1.200000 0.024000 0.028000
1560049884976496540	200 51 0.900000 0.058000 0.052000 1300 44 1.000000 2.091000 2.195000 600 57 1.000000 0.052000 0.052000 1.200000 0.025000 0.030000
1560049885488233957	200 51 0.900000 0.066000 0.060000 1300 44 1.000000 2.186000 2.295000 600 57 1.000000 0.053000 0.053000 1.200000 0.039000 0.047000
1560049886000073290	200 51 0.900000 0.057000 0.051000 1300 44 1.000000 2.093000 2.197000 600 57 1.000000 0.053000 0.053000 1.200000 0.024000 0.028000
1560049886511934166	200 51 0.900000 0.058000 0.052000 1300 44 1.000000 2.097000 2.201000 600 57 1.000000 0.052000 0.052000 1.200000 0.024000 0.028000
1560049887023358999	200 51 0.900000 0.058000 0.052000 1300 44 1.000000 2.088000 2.192000 600 57 1.000000 0.052000 0.052000 1.200000 0.024000 0.028000
1560049887532612207	200 51 0.900000 0.058000 0.052000 1300 44 1.000000 2.084000 2.188000 600 57 1.000000 0.053000 0.053000 1.200000 0.041000 0.049000
1560049888046993249	200 51 0.900000 0.062000 0.056000 1300 44 1.000000 2.184000 2.293000 600 57 1.000000 0.053000 0.053000 1.200000 0.025000 0.030000
1560049888558829707	200 51 0.900000 0.058000 0.052000 1300 44 1.000000 2.092000 2.196000 600 57 1.000000 0.053000 0.053000 1.200000 0.025000 0.030000
1560049889070439333	200 51 0.900000 0.057000 0.051000 1300 44 1.000000 2.094000 2.198000 600 57 1.000000 0.053000 0.053000 1.200000 0.025000 0.030000
1560049889582115708	200 51 0.900000 0.057000 0.051000 1300 44 1.000000 2.086000 2.190000 600 57 1.000000 0.053000 0.053000 1.200000 0.025000 0.030000
1560049890093448666	200 51 0.900000 0.060000 0.054000 1300 44 1.000000 2.141000 2.248000 600 57 1.000000 0.053000 0.053000 1.200000 0.034000 0.041000
1560049890604947833	200 51 0.900000 0.060000 0.054000 1300 44 1.000000 2.190000 2.299000 600 57 1.000000 0.052000 0.052000 1.200000 0.026000 0.031000
1560049891129829374	200 51 0.900000 0.058000 0.052000 1300 44 1.000000 2.088000 2.192000 600 57 1.000000 0.052000 0.052000 1.200000 0.025000 0.030000
1560049891641431250	200 51 0.900000 0.057000 0.051000 1300 44 1.000000 2.084000 2.188000 600 57 1.000000 0.053000 0.053000 1.200000 0.025000 0.030000
1560049892150799250	200 51 0.900000 0.065000 0.059000 1300 44 1.000000 2.144000 2.251000 600 57 1.000000 0.053000 0.053000 1.200000 0.034000 0.041000
1560049892668081916	200 51 0.900000 0.061000 0.055000 1300 44 1.000000 2.137000 2.243000 600 57 1.000000 0.053000 0.053000 1.200000 0.032000 0.038000
1560049893179878375	200 51 0.900000 0.058000 0.052000 1300 44 1.000000 2.104000 2.209000 600 57 1.000000 0.053000 0.053000 1.200000 0.031000 0.037000
1560049893694243875	200 51 0.900000 0.057000 0.051000 1300 44 1.000000 2.099000 2.203000 600 57 1.000000 0.053000 0.053000 1.200000 0.026000 0.031000
1560049894206221916	200 51 0.900000 0.064000 0.058000 1300 44 1.000000 2.152000 2.259000 600 57 1.000000 0.052000 0.052000 1.200000 0.032000 0.038000
1560049894715406958	200 51 0.900000 0.058000 0.052000 1300 44 1.000000 2.096000 2.200000 600 57 1.000000 0.052000 0.052000 1.200000 0.026000 0.031000
1560049895227432208	200 51 0.900000 0.066000 0.060000 1300 44 1.000000 2.190000 2.299000 600 57 1.000000 0.053000 0.053000 1.200000 0.042000 0.050000
1560049895739391667	200 51 0.900000 0.057000 0.051000 1300 44 1.000000 2.094000 2.198000 600 57 1.000000 0.053000 0.053000 1.200000 0.025000 0.030000
1560049896251448750	200 51 0.900000 0.065000 0.059000 1300 44 1.000000 2.124000 2.230000 600 57 1.000000 0.052000 0.052000 1.200000 0.032000 0.038000
1560049896763382958	200 51 0.900000 0.058000 0.052000 1300 44 1.000000 2.079000 2.182000 600 57 1.000000 0.053000 0.053000 1.200000 0.026000 0.031000
1560049897272251917	200 51 0.900000 0.065000 0.059000 1300 44 1.000000 2.110000 2.215000 600 57 1.000000 0.053000 0.053000 1.200000 0.027000 0.032000
1560049897798306334	200 51 0.900000 0.064000 0.058000 1300 44 1.000000 2.201000 2.311000 600 57 1.000000 0.053000 0.053000 1.200000 0.042000 0.050000
1560049898312312917	200 51 0.900000 0.057000 0.051000 1300 44 1.000000 2.091000 2.195000 600 57 1.000000 0.052000 0.052000 1.200000 0.026000 0.031000
1560049898824198292	200 51 0.900000 0.063000 0.057000 1300 44 1.000000 2.148000 2.255000 600 57 1.000000 0.053000 0.053000 1.200000 0.031000 0.037000
1560049899335562500	200 51 0.900000 0.058000 0.052000 1300 44 1.000000 2.093000 2.197000 600 57 1.000000 0.053000 0.053000 1.200000 0.026000 0.031000
1560049899848450750	200 51 0.900000 0.058000 0.052000 1300 44 1.000000 2.104000 2.209000 600 57 1.000000 0.052000 0.052000 1.200000 0.025000 0.030000
1560049900358591584	200 51 0.900000 0.063000 0.057000 1300 44 1.000000 2.132000 2.238000 600 57 1.000000 0.053000 0.053000 1.200000 0.037000 0.044000
1560049900870402917	200 51 0.900000 0.065000 0.059000 1300 44 1.000000 2.104000 2.209000 600 57 1.000000 0.053000 0.053000 1.200000 0.035000 0.042000
1560049901382167501	200 51 0.900000 0.057000 0.051000 1300 44 1.000000 2.092000 2.196000 600 57 1.000000 0.053000 0.053000 1.200000 0.026000 0.031000
1560049901894587376	200 51 0.900000 0.057000 0.051000 1300 44 1.000000 2.098000 2.202000 600 57 1.000000 0.053000 0.053000 1.200000 0.025000 0.030000
1560049902425165834	200 51 0.900000 0.067000 0.061000 1300 44 1.000000 2.181000 2.290000 600 57 1.000000 0.053000 0.053000 1.200000 0.038000 0.045000
1560049902939230584	200 51 0.900000 0.058000 0.052000 1300 44 1.000000 2.184000 2.293000 600 57 1.000000 0.053000 0.053000 1.200000 0.032000 0.038000
1560049903451182834	200 51 0.900000 0.057000 0.051000 1300 44 1.000000 2.090000 2.194000 600 57 1.000000 0.052000 0.052000 1.200000 0.026000 0.031000
1560049903962691334	200 51 0.900000 0.058000 0.052000 1300 44 1.000000 2.081000 2.185000 600 57 1.000000 0.053000 0.053000 1.200000 0.025000 0.030000
1560049904471809084	200 51 0.900000 0.057000 0.051000 1300 44 1.000000 2.078000 2.181000 600 57 1.000000 0.053000 0.053000 1.200000 0.025000 0.030000
1560049904983698043	200 51 0.900000 0.066000 0.060000 1300 44 1.000000 2.216000 2.326000 600 57 1.000000 0.053000 0.053000 1.200000 0.045000 0.054000
1560049905495658584	200 51 0.900000 0.058000 0.052000 1300 44 1.000000 2.078000 2.177000 600 57 1.000000 0.053000 0.053000 1.200000 0.024000 0.028000
1560049906007331835	200 51 0.900000 0.058000 0.052000 1300 44 1.000000 2.081000 2.185000 600 57 1.000000 0.053000 0.053000 1.200000 0.024000 0.028000
1560049906519199710	200 51 0.900000 0.057000 0.051000 1300 44 1.000000 2.077000 2.180000 600 57 1.000000 0.053000 0.053000 1.200000 0.024000 0.028000
1560049907028182501	200 51 0.900000 0.065000 0.059000 1300 44 1.000000 2.176000 2.284000 600 57 1.000000 0.053000 0.053000 1.200000 0.038000 0.045000
1560049907545395585	200 51 0.900000 0.066000 0.060000 1300 44 1.000000 2.188000 2.297000 600 57 1.000000 0.052000 0.052000 1.200000 0.042000 0.050000
1560049908056851043	200 51 0.900000 0.058000 0.052000 1300 44 1.000000 2.096000 2.200000 600 57 1.000000 0.052000 0.052000 1.200000 0.025000 0.030000
1560049908581762668	200 51 0.900000 0.058000 0.052000 1300 44 1.000000 2.089000 2.193000 600 57 1.000000 0.053000 0.053000 1.200000 0.026000 0.031000
1560049909096101377	200 51 0.900000 0.061000 0.055000 1300 44 1.000000 2.122000 2.228000 600 57 1.000000 0.052000 0.052000 1.200000 0.027000 0.032000
1560049909606339752	200 51 0.900000 0.063000 0.057000 1300 44 1.000000 2.124000 2.230000 600 57 1.000000 0.053000 0.053000 1.200000 0.029000 0.035000
1560049910122570543	200 51 0.900000 0.058000 0.052000 1300 44 1.000000 2.109000 2.214000 600 57 1.000000 0.053000 0.053000 1.200000 0.032000 0.038000
1560049910634320293	200 51 0.900000 0.057000 0.051000 1300 44 1.000000 2.093000 2.197000 600 57 1.000000 0.052000 0.052000 1.200000 0.025000 0.030000
1560049911145995543	200 51 0.900000 0.058000 0.052000 1300 44 1.000000 2.092000 2.196000 600 57 1.000000 0.052000 0.052000 1.200000 0.025000 0.030000
1560049911658629877	200 51 0.900000 0.060000 0.054000 1300 44 1.000000 2.081000 2.185000 600 57 1.000000 0.053000 0.053000 1.200000 0.025000 0.030000
1560049912172624127	200 51 0.900000 0.064000 0.058000 1300 44 1.000000 2.179000 2.287000 600 57 1.000000 0.052000 0.052000 1.200000 0.042000 0.050000
1560049912697554127	200 51 0.900000 0.057000 0.051000 1300 44 1.000000 2.078000 2.177000 600 57 1.000000 0.053000 0.053000 1.200000 0.026000 0.031000
1560049913208832210	200 51 0.900000 0.058000 0.052000 1300 44 1.000000 2.078000 2.177000 600 57 1.000000 0.052000 0.052000 1.200000 0.026000 0.031000
1560049913733892585	200 51 0.900000 0.060000 0.054000 1300 44 1.000000 2.078000 2.177000 600 57 1.000000 0.052000 0.052000 1.200000 0.026000 0.031000
1560049914246354711	200 51 0.900000 0.057000 0.051000 1300 44 1.000000 2.087000 2.187000 600 57 1.000000 0.053000 0.053000 1.200000 0.024000 0.028000
1560049914757842127	200 51 0.900000 0.063000 0.057000 1300 44 1.000000 2.132000 2.238000 600 57 1.000000 0.052000 0.052000 1.200000 0.036000 0.043000
1560049915287594461	200 51 0.900000 0.058000 0.052000 1300 44 1.000000 2.076000 2.179000 600 57 1.000000 0.053000 0.053000 1.200000 0.024000 0.028000
1560049915803084044	200 51 0.900000 0.057000 0.051000 1300 44 1.000000 2.075000 2.174000 600 57 1.000000 0.053000 0.053000 1.200000 0.025000 0.030000
1560049916314784711	200 51 0.900000 0.057000 0.051000 1300 44 1.000000 2.076000 2.175000 600 57 1.000000 0.053000 0.053000 1.200000 0.024000 0.028000
1560049916827697919	200 51 0.900000 0.058000 0.052000 1300 44 1.000000 2.165000 2.273000 600 57 1.000000 0.053000 0.053000 1.200000 0.038000 0.045000
1560049917344686336	200 51 0.900000 0.061000 0.055000 1300 44 1.000000 2.077000 2.176000 600 57 1.000000 0.053000 0.053000 1.200000 0.024000 0.028000
1560049917870288253	200 51 0.900000 0.065000 0.059000 1300 44 1.000000 2.080000 2.184000 600 57 1.000000 0.053000 0.053000 1.200000 0.027000 0.032000
1560049918384092461	200 51 0.900000 0.057000 0.051000 1300 44 1.000000 2.079000 2.182000 600 57 1.000000 0.053000 0.053000 1.200000 0.025000 0.030000
1560049918895950419	200 51 0.900000 0.057000 0.051000 1300 44 1.000000 2.079000 2.178000 600 57 1.000000 0.053000 0.053000 1.200000 0.024000 0.028000
1560049919407522253	200 51 0.900000 0.060000 0.054000 1300 44 1.000000 2.165000 2.273000 600 57 1.000000 0.053000 0.053000 1.200000 0.037000 0.044000
1560049919919753920	200 51 0.900000 0.060000 0.054000 1300 44 1.000000 2.131000 2.233000 600 57 1.000000 0.053000 0.053000 1.200000 0.032000 0.038000
1560049920431564670	200 51 0.900000 0.058000 0.052000 1300 44 1.000000 2.077000 2.176000 600 57 1.000000 0.052000 0.052000 1.200000 0.025000 0.030000
1560049920943524795	200 51 0.900000 0.057000 0.051000 1300 44 1.000000 2.080000 2.179000 600 57 1.000000 0.052000 0.052000 1.200000 0.025000 0.030000
1560049921453358211	200 51 0.900000 0.057000 0.051000 1300 44 1.000000 2.081000 2.180000 600 57 1.000000 0.053000 0.053000 1.200000 0.025000 0.030000
1560049921964821378	200 51 0.900000 0.066000 0.060000 1300 44 1.000000 2.155000 2.262000 600 57 1.000000 0.053000 0.053000 1.200000 0.043000 0.051000
1560049922476509420	200 51 0.900000 0.057000 0.051000 1300 44 1.000000 2.090000 2.190000 600 57 1.000000 0.053000 0.053000 1.200000 0.024000 0.028000
1560049922988089587	200 51 0.900000 0.057000 0.051000 1300 44 1.000000 2.094000 2.194000 600 57 1.000000 0.053000 0.053000 1.200000 0.024000 0.028000
1560049923499894212	200 51 0.900000 0.057000 0.051000 1300 44 1.000000 2.095000 2.195000 600 57 1.000000 0.053000 0.053000 1.200000 0.024000 0.028000
1560049924008982837	200 51 0.900000 0.058000 0.052000 1300 44 1.000000 2.084000 2.188000 600 57 1.000000 0.053000 0.053000 1.200000 0.032000 0.038000
1560049924520693795	200 51 0.900000 0.066000 0.060000 1300 44 1.000000 2.182000 2.291000 600 57 1.000000 0.053000 0.053000 1.200000 0.031000 0.037000
1560049925045833962	200 51 0.900000 0.057000 0.051000 1300 44 1.000000 2.093000 2.197000 600 57 1.000000 0.053000 0.053000 1.200000 0.024000 0.028000
1560049925559578920	200 51 0.900000 0.058000 0.052000 1300 44 1.000000 2.087000 2.191000 600 57 1.000000 0.053000 0.053000 1.200000 0.024000 0.028000
1560049926071148962	200 51 0.900000 0.057000 0.051000 1300 44 1.000000 2.088000 2.188000 600 57 1.000000 0.052000 0.052000 1.200000 0.031000 0.037000
1560049926583100670	200 51 0.900000 0.064000 0.058000 1300 44 1.000000 2.122000 2.228000 600 57 1.000000 0.052000 0.052000 1.200000 0.042000 0.050000
1560049927095197587	200 51 0.900000 0.057000 0.051000 1300 44 1.000000 2.126000 2.232000 600 57 1.000000 0.053000 0.053000 1.200000 0.025000 0.030000
1560049927607041004	200 51 0.900000 0.057000 0.051000 1300 44 1.000000 2.081000 2.185000 600 57 1.000000 0.053000 0.053000 1.200000 0.024000 0.028000
1560049928116146671	200 51 0.900000 0.058000 0.052000 1300 44 1.000000 2.098000 2.202000 600 57 1.000000 0.053000 0.053000 1.200000 0.025000 0.030000
1560049928628183212	200 51 0.900000 0.063000 0.057000 1300 44 1.000000 2.098000 2.202000 600 57 1.000000 0.052000 0.052000 1.200000 0.031000 0.037000
1560049929140177337	200 51 0.900000 0.066000 0.060000 1300 44 1.000000 2.098000 2.202000 600 57 1.000000 0.053000 0.053000 1.200000 0.042000 0.050000
1560049929651909587	200 51 0.900000 0.062000 0.056000 1300 44 1.000000 2.131000 2.237000 600 57 1.000000 0.053000 0.053000 1.200000 0.024000 0.028000
1560049930163343504	200 51 0.900000 0.057000 0.051000 1300 44 1.000000 2.094000 2.198000 600 57 1.000000 0.053000 0.053000 1.200000 0.024000 0.028000
1560049930675291837	200 51 0.900000 0.059000 0.053000 1300 44 1.000000 2.130000 2.236000 600 57 1.000000 0.053000 0.053000 1.200000 0.033000 0.039000
1560049931189030213	200 51 0.900000 0.058000 0.052000 1300 44 1.000000 2.086000 2.190000 600 57 1.000000 0.053000 0.053000 1.200000 0.025000 0.030000
1560049931700498254	200 51 0.900000 0.066000 0.060000 1300 44 1.000000 2.193000 2.302000 600 57 1.000000 0.052000 0.052000 1.200000 0.040000 0.048000
1560049932212071879	200 51 0.900000 0.057000 0.051000 1300 44 1.000000 2.082000 2.186000 600 57 1.000000 0.053000 0.053000 1.200000 0.025000 0.030000
1560049932723909588	200 51 0.900000 0.061000 0.055000 1300 44 1.000000 2.095000 2.199000 600 57 1.000000 0.053000 0.053000 1.200000 0.025000 0.030000
1560049933235647838	200 51 0.900000 0.058000 0.052000 1300 44 1.000000 2.095000 2.199000 600 57 1.000000 0.053000 0.053000 1.200000 0.026000 0.031000
1560049933748557630	200 51 0.900000 0.060000 0.054000 1300 44 1.000000 2.088000 2.192000 600 57 1.000000 0.053000 0.053000 1.200000 0.025000 0.030000
1560049934263093463	200 51 0.900000 0.060000 0.054000 1300 44 1.000000 2.168000 2.276000 600 57 1.000000 0.053000 0.053000 1.200000 0.040000 0.048000
1560049934791887463	200 51 0.900000 0.061000 0.055000 1300 44 1.000000 2.081000 2.185000 600 57 1.000000 0.053000 0.053000 1.200000 0.026000 0.031000
1560049935305993380	200 51 0.900000 0.057000 0.051000 1300 44 1.000000 2.079000 2.182000 600 57 1.000000 0.052000 0.052000 1.200000 0.029000 0.035000
1560049935817729880	200 51 0.900000 0.057000 0.051000 1300 44 1.000000 2.077000 2.180000 600 57 1.000000 0.053000 0.053000 1.200000 0.025000 0.030000
1560049936346186546	200 51 0.900000 0.063000 0.057000 1300 44 1.000000 2.167000 2.275000 600 57 1.000000 0.053000 0.053000 1.200000 0.037000 0.044000
1560049936857489963	200 51 0.900000 0.058000 0.052000 1300 44 1.000000 2.079000 2.182000 600 57 1.000000 0.053000 0.053000 1.200000 0.026000 0.031000
1560049937369312338	200 51 0.900000 0.058000 0.052000 1300 44 1.000000 2.085000 2.189000 600 57 1.000000 0.053000 0.053000 1.200000 0.030000 0.036000
1560049937881196047	200 51 0.900000 0.058000 0.052000 1300 44 1.000000 2.089000 2.193000 600 57 1.000000 0.053000 0.053000 1.200000 0.025000 0.030000
1560049938401651255	200 51 0.900000 0.057000 0.051000 1300 44 1.000000 2.087000 2.191000 600 57 1.000000 0.052000 0.052000 1.200000 0.025000 0.030000
1560049938916042338	200 51 0.900000 0.063000 0.057000 1300 44 1.000000 2.173000 2.281000 600 57 1.000000 0.052000 0.052000 1.200000 0.034000 0.041000
1560049939427956964	200 51 0.900000 0.064000 0.058000 1300 44 1.000000 2.135000 2.241000 600 57 1.000000 0.053000 0.053000 1.200000 0.032000 0.038000
1560049939939831797	200 51 0.900000 0.057000 0.051000 1300 44 1.000000 2.087000 2.191000 600 57 1.000000 0.053000 0.053000 1.200000 0.025000 0.030000
1560049940451998005	200 51 0.900000 0.058000 0.052000 1300 44 1.000000 2.086000 2.190000 600 57 1.000000 0.053000 0.053000 1.200000 0.025000 0.030000
1560049940964948339	200 51 0.900000 0.057000 0.051000 1300 44 1.000000 2.092000 2.196000 600 57 1.000000 0.053000 0.053000 1.200000 0.025000 0.030000
1560049941476626464	200 51 0.900000 0.062000 0.056000 1300 44 1.000000 2.264000 2.377000 600 57 1.000000 0.053000 0.053000 1.200000 0.042000 0.050000
1560049941988472339	200 51 0.900000 0.058000 0.052000 1300 44 1.000000 2.097000 2.201000 600 57 1.000000 0.053000 0.053000 1.200000 0.026000 0.031000
1560049942499980047	200 51 0.900000 0.058000 0.052000 1300 44 1.000000 2.087000 2.191000 600 57 1.000000 0.053000 0.053000 1.200000 0.026000 0.031000
1560049943011672797	200 51 0.900000 0.057000 0.051000 1300 44 1.000000 2.078000 2.181000 600 57 1.000000 0.053000 0.053000 1.200000 0.026000 0.031000
1560049943523381589	200 51 0.900000 0.058000 0.052000 1300 44 1.000000 2.226000 2.339000 600 57 1.000000 0.053000 0.053000 1.200000 0.029000 0.035000
1560049944035073506	200 51 0.900000 0.057000 0.051000 1300 44 1.000000 2.081000 2.185000 600 57 1.000000 0.052000 0.052000 1.200000 0.025000 0.030000
1560049944546920964	200 51 0.900000 0.058000 0.052000 1300 44 1.000000 2.079000 2.182000 600 57 1.000000 0.052000 0.052000 1.200000 0.024000 0.028000
1560049945058574881	200 51 0.900000 0.057000 0.051000 1300 44 1.000000 2.077000 2.180000 600 57 1.000000 0.053000 0.053000 1.200000 0.024000 0.028000
1560049945567840881	200 51 0.900000 0.057000 0.051000 1300 44 1.000000 2.107000 2.212000 600 57 1.000000 0.052000 0.052000 1.200000 0.025000 0.030000
1560049946079546506	200 51 0.900000 0.061000 0.055000 1300 44 1.000000 2.119000 2.224000 600 57 1.000000 0.053000 0.053000 1.200000 0.039000 0.047000
1560049946591550089	200 51 0.900000 0.057000 0.051000 1300 44 1.000000 2.091000 2.195000 600 57 1.000000 0.053000 0.053000 1.200000 0.025000 0.030000
1560049947103332923	200 51 0.900000 0.057000 0.051000 1300 44 1.000000 2.096000 2.200000 600 57 1.000000 0.053000 0.053000 1.200000 0.025000 0.030000
1560049947612382631	200 51 0.900000 0.057000 0.051000 1300 44 1.000000 2.091000 2.195000 600 57 1.000000 0.053000 0.053000 1.200000 0.026000 0.031000
1560049948126075423	200 51 0.900000 0.062000 0.056000 1300 44 1.000000 2.085000 2.189000 600 57 1.000000 0.053000 0.053000 1.200000 0.035000 0.042000
1560049948637747506	200 51 0.900000 0.066000 0.060000 1300 44 1.000000 2.155000 2.262000 600 57 1.000000 0.053000 0.053000 1.200000 0.041000 0.049000
1560049949149774298	200 51 0.900000 0.058000 0.052000 1300 44 1.000000 2.089000 2.193000 600 57 1.000000 0.053000 0.053000 1.200000 0.025000 0.030000
1560049949661492298	200 51 0.900000 0.058000 0.052000 1300 44 1.000000 2.078000 2.181000 600 57 1.000000 0.053000 0.053000 1.200000 0.025000 0.030000
1560049950173344048	200 51 0.900000 0.063000 0.057000 1300 44 1.000000 2.138000 2.244000 600 57 1.000000 0.053000 0.053000 1.200000 0.033000 0.039000
1560049950686323840	200 51 0.900000 0.061000 0.055000 1300 44 1.000000 2.177000 2.285000 600 57 1.000000 0.053000 0.053000 1.200000 0.036000 0.043000
1560049951197881965	200 51 0.900000 0.058000 0.052000 1300 44 1.000000 2.081000 2.185000 600 57 1.000000 0.053000 0.053000 1.200000 0.026000 0.031000
1560049951709691548	200 51 0.900000 0.057000 0.051000 1300 44 1.000000 2.082000 2.186000 600 57 1.000000 0.053000 0.053000 1.200000 0.024000 0.028000
1560049952221483507	200 51 0.900000 0.065000 0.059000 1300 44 1.000000 2.119000 2.224000 600 57 1.000000 0.053000 0.053000 1.200000 0.032000 0.038000
1560049952730377340	200 51 0.900000 0.057000 0.051000 1300 44 1.000000 2.077000 2.180000 600 57 1.000000 0.053000 0.053000 1.200000 0.025000 0.030000
1560049953247472882	200 51 0.900000 0.066000 0.060000 1300 44 1.000000 2.175000 2.283000 600 57 1.000000 0.053000 0.053000 1.200000 0.042000 0.050000
1560049953759595674	200 51 0.900000 0.057000 0.051000 1300 44 1.000000 2.078000 2.181000 600 57 1.000000 0.053000 0.053000 1.200000 0.024000 0.028000
1560049954271330132	200 51 0.900000 0.064000 0.058000 1300 44 1.000000 2.142000 2.249000 600 57 1.000000 0.052000 0.052000 1.200000 0.028000 0.033000
1560049954783370507	200 51 0.900000 0.058000 0.052000 1300 44 1.000000 2.079000 2.182000 600 57 1.000000 0.053000 0.053000 1.200000 0.024000 0.028000
1560049955296043965	200 51 0.900000 0.058000 0.052000 1300 44 1.000000 2.095000 2.199000 600 57 1.000000 0.052000 0.052000 1.200000 0.025000 0.030000
1560049955808148215	200 51 0.900000 0.064000 0.058000 1300 44 1.000000 2.185000 2.296000 600 57 1.000000 0.053000 0.053000 1.200000 0.042000 0.050000
1560049956317173299	200 51 0.900000 0.058000 0.052000 1300 44 1.000000 2.090000 2.194000 600 57 1.000000 0.052000 0.052000 1.200000 0.025000 0.030000
1560049956828802632	200 51 0.900000 0.065000 0.059000 1300 44 1.000000 2.097000 2.201000 600 57 1.000000 0.052000 0.052000 1.200000 0.030000 0.036000
1560049957340243132	200 51 0.900000 0.058000 0.052000 1300 44 1.000000 2.078000 2.181000 600 57 1.000000 0.053000 0.053000 1.200000 0.026000 0.031000
1560049957853499799	200 51 0.900000 0.058000 0.052000 1300 44 1.000000 2.131000 2.237000 600 57 1.000000 0.052000 0.052000 1.200000 0.029000 0.035000
1560049958367536591	200 51 0.900000 0.062000 0.056000 1300 44 1.000000 2.192000 2.303000 600 57 1.000000 0.052000 0.052000 1.200000 0.032000 0.038000
1560049958879373924	200 51 0.900000 0.063000 0.057000 1300 44 1.000000 2.094000 2.198000 600 57 1.000000 0.053000 0.053000 1.200000 0.033000 0.039000
1560049959391001383	200 51 0.900000 0.057000 0.051000 1300 44 1.000000 2.088000 2.192000 600 57 1.000000 0.053000 0.053000 1.200000 0.025000 0.030000
1560049959902709549	200 51 0.900000 0.057000 0.051000 1300 44 1.000000 2.093000 2.197000 600 57 1.000000 0.052000 0.052000 1.200000 0.024000 0.028000
1560049960414015383	200 51 0.900000 0.066000 0.060000 1300 44 1.000000 2.117000 2.222000 600 57 1.000000 0.053000 0.053000 1.200000 0.042000 0.050000
1560049960926116549	200 51 0.900000 0.061000 0.055000 1300 44 1.000000 2.151000 2.260000 600 57 1.000000 0.052000 0.052000 1.200000 0.034000 0.041000
1560049961438045466	200 51 0.900000 0.058000 0.052000 1300 44 1.000000 2.096000 2.200000 600 57 1.000000 0.052000 0.052000 1.200000 0.024000 0.028000
1560049961949692425	200 51 0.900000 0.058000 0.052000 1300 44 1.000000 2.093000 2.197000 600 57 1.000000 0.053000 0.053000 1.200000 0.024000 0.028000
1560049962458672591	200 51 0.900000 0.058000 0.052000 1300 44 1.000000 2.093000 2.197000 600 57 1.000000 0.052000 0.052000 1.200000 0.024000 0.028000
1560049962970619675	200 51 0.900000 0.067000 0.061000 1300 44 1.000000 2.198000 2.307000 600 57 1.000000 0.053000 0.053000 1.200000 0.043000 0.052000
1560049963482569175	200 51 0.900000 0.060000 0.054000 1300 44 1.000000 2.076000 2.179000 600 57 1.000000 0.053000 0.053000 1.200000 0.024000 0.028000
1560049963994291716	200 51 0.900000 0.057000 0.051000 1300 44 1.000000 2.095000 2.199000 600 57 1.000000 0.053000 0.053000 1.200000 0.025000 0.030000
1560049964506181425	200 51 0.900000 0.057000 0.051000 1300 44 1.000000 2.090000 2.194000 600 57 1.000000 0.052000 0.052000 1.200000 0.025000 0.030000
1560049965017847092	200 51 0.900000 0.057000 0.051000 1300 44 1.000000 2.091000 2.195000 600 57 1.000000 0.053000 0.053000 1.200000 0.025000 0.030000
1560049965533547092	200 51 0.900000 0.062000 0.056000 1300 44 1.000000 2.335000 2.454000 600 57 1.000000 0.053000 0.053000 1.200000 0.034000 0.041000
1560049966045287050	200 51 0.900000 0.058000 0.052000 1300 44 1.000000 2.083000 2.187000 600 57 1.000000 0.053000 0.053000 1.200000 0.024000 0.028000
1560049966556811342	200 51 0.900000 0.058000 0.052000 1300 44 1.000000 2.084000 2.188000 600 57 1.000000 0.052000 0.052000 1.200000 0.024000 0.028000
1560049967082051175	200 51 0.900000 0.057000 0.051000 1300 44 1.000000 2.097000 2.201000 600 57 1.000000 0.053000 0.053000 1.200000 0.024000 0.028000
1560049967595764884	200 51 0.900000 0.060000 0.054000 1300 44 1.000000 2.200000 2.310000 600 57 1.000000 0.053000 0.053000 1.200000 0.044000 0.053000
1560049968107716800	200 51 0.900000 0.061000 0.055000 1300 44 1.000000 2.117000 2.222000 600 57 1.000000 0.053000 0.053000 1.200000 0.024000 0.028000
1560049968619515884	200 51 0.900000 0.057000 0.051000 1300 44 1.000000 2.088000 2.192000 600 57 1.000000 0.053000 0.053000 1.200000 0.024000 0.028000
1560049969131227925	200 51 0.900000 0.058000 0.052000 1300 44 1.000000 2.088000 2.192000 600 57 1.000000 0.053000 0.053000 1.200000 0.024000 0.028000
1560049969640617467	200 51 0.900000 0.063000 0.057000 1300 44 1.000000 2.137000 2.243000 600 57 1.000000 0.053000 0.053000 1.200000 0.032000 0.038000
1560049970152018134	200 51 0.900000 0.066000 0.060000 1300 44 1.000000 2.181000 2.290000 600 57 1.000000 0.052000 0.052000 1.200000 0.042000 0.050000
1560049970663646092	200 51 0.900000 0.057000 0.051000 1300 44 1.000000 2.083000 2.187000 600 57 1.000000 0.053000 0.053000 1.200000 0.025000 0.030000
1560049971175277926	200 51 0.900000 0.057000 0.051000 1300 44 1.000000 2.079000 2.182000 600 57 1.000000 0.052000 0.052000 1.200000 0.025000 0.030000
1560049971686549717	200 44 0.900000 0.035000 0.031000 1300 43 1.000000 0.577000 0.606000 600 49 1.000000 0.053000 0.053000 1.200000 0.026000 0.031000
1560049972199969926	200 43 0.900000 0.020000 0.018000 1300 42 1.000000 0.169000 0.177000 600 47 1.000000 0.052000 0.052000 1.200000 0.024000 0.029000
