#Timestamp	CPU(0) Frequency(MHz)	CPU(0) Temperature(C)	A7 Voltage(V)	A7 Current(A)	A7 Power(W)	CPU(4) Frequency(MHz)	CPU(4) Temperature(C)	A15 Voltage(V)	A15 Current(A)	A15 Power(W)	GPU Frequency(MHz)	GPU Temperature(C)	GPU Voltage(V)	GPU Current(A)	GPU Power(W)	RAM Voltage(V)	RAM Current(A)	RAM Power(W)
1553297871760776415	300 31 0.900000 0.028000 0.025000 1000 30 0.900000 0.538000 0.520000 600 35 1.000000 0.050000 0.050000 1.200000 0.034000 0.041000
1553297872268959790	300 31 0.900000 0.038000 0.034000 1000 30 0.900000 0.107000 0.104000 600 35 1.000000 0.050000 0.050000 1.200000 0.031000 0.037000
1553297872777175665	300 31 0.900000 0.038000 0.034000 1000 30 0.900000 0.109000 0.106000 600 35 1.000000 0.050000 0.050000 1.200000 0.031000 0.037000
1553297873285830248	300 32 0.900000 0.038000 0.034000 1000 30 0.900000 0.112000 0.109000 600 35 1.000000 0.050000 0.050000 1.200000 0.030000 0.036000
1553297873794486790	300 31 0.900000 0.038000 0.034000 1000 31 0.900000 0.219000 0.213000 600 35 1.000000 0.050000 0.050000 1.200000 0.033000 0.039000
1553297874302868748	300 31 0.900000 0.038000 0.034000 1000 30 0.900000 0.118000 0.115000 600 35 1.000000 0.050000 0.050000 1.200000 0.034000 0.041000
1553297874811054582	300 31 0.900000 0.038000 0.034000 1000 30 0.900000 0.121000 0.117000 600 35 1.000000 0.051000 0.051000 1.200000 0.030000 0.036000
1553297875319958165	300 31 0.900000 0.038000 0.034000 1000 30 0.900000 0.130000 0.126000 600 35 1.000000 0.050000 0.050000 1.200000 0.032000 0.038000
1553297875828358998	300 32 0.900000 0.039000 0.035000 1000 30 0.900000 0.210000 0.204000 600 35 1.000000 0.050000 0.050000 1.200000 0.035000 0.042000
1553297876336604748	300 31 0.900000 0.039000 0.035000 1000 30 0.900000 0.156000 0.152000 600 35 1.000000 0.050000 0.050000 1.200000 0.035000 0.042000
1553297876844791457	300 31 0.900000 0.038000 0.034000 1000 30 0.900000 0.123000 0.119000 600 35 1.000000 0.050000 0.050000 1.200000 0.031000 0.037000
1553297877352882290	300 31 0.900000 0.066000 0.060000 1000 30 0.900000 0.103000 0.100000 600 35 1.000000 0.050000 0.050000 1.200000 0.028000 0.033000
1553297877863166665	300 32 0.900000 0.073000 0.066000 1000 30 0.900000 0.157000 0.153000 600 35 1.000000 0.050000 0.050000 1.200000 0.029000 0.035000
1553297878373026040	300 31 0.900000 0.073000 0.066000 1000 31 0.900000 0.211000 0.205000 600 35 1.000000 0.050000 0.050000 1.200000 0.032000 0.038000
1553297878881161290	300 31 0.900000 0.073000 0.066000 1000 30 0.900000 0.105000 0.102000 600 35 1.000000 0.050000 0.050000 1.200000 0.025000 0.030000
1553297879389361499	300 31 0.900000 0.073000 0.066000 1000 30 0.900000 0.102000 0.099000 600 35 1.000000 0.050000 0.050000 1.200000 0.025000 0.030000
1553297879898095791	300 31 0.900000 0.072000 0.065000 1000 30 0.900000 0.104000 0.101000 600 35 1.000000 0.051000 0.051000 1.200000 0.030000 0.036000
1553297880406683624	300 31 0.900000 0.073000 0.066000 1000 31 0.900000 0.260000 0.252000 600 35 1.000000 0.050000 0.050000 1.200000 0.030000 0.036000
1553297880915200166	300 31 0.900000 0.073000 0.066000 1000 30 0.900000 0.130000 0.126000 600 35 1.000000 0.050000 0.050000 1.200000 0.026000 0.031000
1553297881423515707	300 31 0.900000 0.073000 0.066000 1000 30 0.900000 0.109000 0.106000 600 35 1.000000 0.050000 0.050000 1.200000 0.025000 0.030000
1553297881932388416	300 31 0.900000 0.073000 0.066000 1000 31 0.900000 0.228000 0.221000 600 35 1.000000 0.050000 0.050000 1.200000 0.027000 0.032000
1553297882440820374	300 32 0.900000 0.073000 0.066000 1000 31 0.900000 0.151000 0.147000 600 35 1.000000 0.050000 0.050000 1.200000 0.025000 0.030000
1553297882949230458	300 31 0.900000 0.073000 0.066000 1000 31 0.900000 0.107000 0.104000 600 35 1.000000 0.051000 0.051000 1.200000 0.026000 0.031000
1553297883457548666	300 31 0.900000 0.073000 0.066000 1000 30 0.900000 0.107000 0.104000 600 35 1.000000 0.050000 0.050000 1.200000 0.025000 0.030000
1553297883966043458	300 31 0.900000 0.073000 0.066000 1000 30 0.900000 0.212000 0.206000 600 35 1.000000 0.050000 0.050000 1.200000 0.029000 0.035000
1553297884475484874	300 32 0.900000 0.073000 0.066000 1000 31 0.900000 0.104000 0.101000 600 35 1.000000 0.050000 0.050000 1.200000 0.026000 0.031000
1553297884984300666	300 31 0.900000 0.072000 0.065000 1000 30 0.900000 0.103000 0.100000 600 35 1.000000 0.050000 0.050000 1.200000 0.028000 0.033000
1553297885492683083	300 31 0.900000 0.073000 0.066000 1000 31 0.900000 0.107000 0.104000 600 35 1.000000 0.050000 0.050000 1.200000 0.026000 0.031000
1553297886001323125	300 31 0.900000 0.073000 0.066000 1000 31 0.900000 0.161000 0.156000 600 35 1.000000 0.050000 0.050000 1.200000 0.029000 0.035000
1553297886510879625	300 32 0.900000 0.073000 0.066000 1000 31 0.900000 0.104000 0.101000 600 35 1.000000 0.050000 0.050000 1.200000 0.025000 0.030000
1553297887019495791	300 32 0.900000 0.073000 0.066000 1000 31 0.900000 0.104000 0.101000 600 35 1.000000 0.050000 0.050000 1.200000 0.030000 0.036000
1553297887527938291	300 31 0.900000 0.073000 0.066000 1000 31 0.900000 0.103000 0.100000 600 35 1.000000 0.050000 0.050000 1.200000 0.025000 0.030000
1553297888036714750	300 31 0.900000 0.073000 0.066000 1000 31 0.900000 0.229000 0.223000 600 35 1.000000 0.050000 0.050000 1.200000 0.026000 0.031000
1553297888545111500	300 31 0.900000 0.073000 0.066000 1000 31 0.900000 0.108000 0.105000 600 35 1.000000 0.050000 0.050000 1.200000 0.026000 0.031000
1553297889053687083	300 32 0.900000 0.073000 0.066000 1000 31 0.900000 0.354000 0.342000 600 35 1.000000 0.050000 0.050000 1.200000 0.026000 0.031000
1553297889562039708	300 31 0.900000 0.073000 0.066000 1000 31 0.900000 0.104000 0.101000 600 35 1.000000 0.050000 0.050000 1.200000 0.026000 0.031000
1553297890070506167	300 31 0.900000 0.073000 0.066000 1000 31 0.900000 0.204000 0.198000 600 35 1.000000 0.050000 0.050000 1.200000 0.027000 0.032000
1553297890578904959	300 31 0.900000 0.073000 0.066000 1000 31 0.900000 0.105000 0.102000 600 35 1.000000 0.050000 0.050000 1.200000 0.025000 0.030000
1553297891087136209	300 32 0.900000 0.073000 0.066000 1000 31 0.900000 0.284000 0.276000 600 35 1.000000 0.051000 0.051000 1.200000 0.025000 0.030000
1553297891595485292	300 31 0.900000 0.073000 0.066000 1000 31 0.900000 0.198000 0.192000 600 35 1.000000 0.050000 0.050000 1.200000 0.026000 0.031000
1553297892104198500	300 31 0.900000 0.073000 0.066000 1000 30 0.900000 0.124000 0.120000 600 35 1.000000 0.050000 0.050000 1.200000 0.030000 0.036000
1553297892612490042	300 31 0.900000 0.073000 0.066000 1000 31 0.900000 0.107000 0.104000 600 35 1.000000 0.050000 0.050000 1.200000 0.025000 0.030000
1553297893122504667	300 32 0.900000 0.073000 0.066000 1000 31 0.900000 0.124000 0.120000 600 35 1.000000 0.050000 0.050000 1.200000 0.025000 0.030000
1553297893631198792	300 31 0.900000 0.072000 0.065000 1000 31 0.900000 0.260000 0.252000 600 35 1.000000 0.051000 0.051000 1.200000 0.025000 0.030000
1553297894139760709	300 32 0.900000 0.073000 0.066000 1000 31 0.900000 0.145000 0.141000 600 35 1.000000 0.051000 0.051000 1.200000 0.030000 0.036000
1553297894648208834	300 31 0.900000 0.073000 0.066000 1000 31 0.900000 0.122000 0.119000 600 35 1.000000 0.050000 0.050000 1.200000 0.025000 0.030000
1553297895156868584	300 31 0.900000 0.073000 0.066000 1000 31 0.900000 0.116000 0.113000 600 35 1.000000 0.050000 0.050000 1.200000 0.025000 0.030000
1553297895665893501	300 32 0.900000 0.073000 0.066000 1000 31 0.900000 0.162000 0.157000 600 35 1.000000 0.050000 0.050000 1.200000 0.033000 0.039000
1553297896174397709	300 31 0.900000 0.073000 0.066000 1000 30 0.900000 0.130000 0.126000 600 35 1.000000 0.050000 0.050000 1.200000 0.026000 0.031000
1553297896682765126	300 31 0.900000 0.073000 0.066000 1000 30 0.900000 0.115000 0.112000 600 35 1.000000 0.051000 0.051000 1.200000 0.025000 0.030000
1553297897191088959	300 31 0.900000 0.073000 0.066000 1000 31 0.900000 0.114000 0.111000 600 35 1.000000 0.051000 0.051000 1.200000 0.025000 0.030000
1553297897699611043	300 32 0.900000 0.073000 0.066000 1000 31 0.900000 0.131000 0.127000 600 35 1.000000 0.050000 0.050000 1.200000 0.031000 0.037000
1553297898208139668	300 32 0.900000 0.072000 0.065000 1000 31 0.900000 0.114000 0.111000 600 35 1.000000 0.050000 0.050000 1.200000 0.026000 0.031000
1553297898716522876	300 31 0.900000 0.073000 0.066000 1000 31 0.900000 0.122000 0.119000 600 35 1.000000 0.050000 0.050000 1.200000 0.025000 0.030000
1553297899224650585	300 31 0.900000 0.073000 0.066000 1000 30 0.900000 0.120000 0.117000 600 35 1.000000 0.050000 0.050000 1.200000 0.025000 0.030000
1553297899732938626	300 32 0.900000 0.073000 0.066000 1000 31 0.900000 0.109000 0.106000 600 35 1.000000 0.050000 0.050000 1.200000 0.028000 0.033000
1553297900241426293	300 32 0.900000 0.073000 0.066000 1000 31 0.900000 0.134000 0.130000 600 35 1.000000 0.050000 0.050000 1.200000 0.030000 0.036000
1553297900749734710	300 31 0.900000 0.072000 0.065000 1000 31 0.900000 0.115000 0.112000 600 35 1.000000 0.050000 0.050000 1.200000 0.025000 0.030000
1553297901258081376	300 31 0.900000 0.073000 0.066000 1000 30 0.900000 0.103000 0.100000 600 35 1.000000 0.050000 0.050000 1.200000 0.025000 0.030000
1553297901768147960	300 32 0.900000 0.073000 0.066000 1000 31 0.900000 0.122000 0.118000 600 35 1.000000 0.050000 0.050000 1.200000 0.025000 0.030000
1553297902276892835	300 32 0.900000 0.073000 0.066000 1000 31 0.900000 0.368000 0.356000 600 35 1.000000 0.050000 0.050000 1.200000 0.032000 0.038000
1553297902785188627	300 31 0.900000 0.073000 0.066000 1000 31 0.900000 0.177000 0.172000 600 35 1.000000 0.050000 0.050000 1.200000 0.025000 0.030000
1553297903293332918	300 31 0.900000 0.073000 0.066000 1000 30 0.900000 0.126000 0.122000 600 35 1.000000 0.050000 0.050000 1.200000 0.026000 0.031000
1553297903801695502	300 31 0.900000 0.073000 0.066000 1000 30 0.900000 0.106000 0.103000 600 35 1.000000 0.050000 0.050000 1.200000 0.025000 0.030000
1553297904310299293	300 32 0.900000 0.074000 0.067000 1000 31 0.900000 0.324000 0.314000 600 35 1.000000 0.050000 0.050000 1.200000 0.034000 0.041000
1553297904818633752	300 31 0.900000 0.073000 0.066000 1000 31 0.900000 0.123000 0.120000 600 35 1.000000 0.050000 0.050000 1.200000 0.025000 0.030000
1553297905326939752	300 31 0.900000 0.073000 0.066000 1000 30 0.900000 0.115000 0.112000 600 35 1.000000 0.050000 0.050000 1.200000 0.025000 0.030000
1553297905835303460	300 31 0.900000 0.073000 0.066000 1000 31 0.900000 0.131000 0.127000 600 35 1.000000 0.050000 0.050000 1.200000 0.025000 0.030000
1553297906344068169	300 32 0.900000 0.074000 0.067000 1000 31 0.900000 0.239000 0.232000 600 35 1.000000 0.050000 0.050000 1.200000 0.033000 0.039000
1553297906852509835	300 31 0.900000 0.073000 0.066000 1000 31 0.900000 0.106000 0.103000 600 35 1.000000 0.050000 0.050000 1.200000 0.025000 0.030000
1553297907360877627	300 31 0.900000 0.073000 0.066000 1000 31 0.900000 0.106000 0.103000 600 35 1.000000 0.050000 0.050000 1.200000 0.025000 0.030000
1553297907869096044	300 31 0.900000 0.073000 0.066000 1000 31 0.900000 0.108000 0.105000 600 35 1.000000 0.050000 0.050000 1.200000 0.026000 0.031000
1553297908377433919	300 32 0.900000 0.073000 0.066000 1000 31 0.900000 0.178000 0.173000 600 36 1.000000 0.050000 0.050000 1.200000 0.038000 0.045000
1553297908885849169	300 31 0.900000 0.074000 0.067000 1000 30 0.900000 0.402000 0.390000 600 35 1.000000 0.050000 0.050000 1.200000 0.027000 0.032000
1553297909394057877	300 31 0.900000 0.072000 0.065000 1000 31 0.900000 0.113000 0.110000 600 35 1.000000 0.051000 0.051000 1.200000 0.025000 0.030000
1553297909902206711	300 31 0.900000 0.073000 0.066000 1000 31 0.900000 0.129000 0.125000 600 35 1.000000 0.050000 0.050000 1.200000 0.026000 0.031000
1553297910412111336	300 32 0.900000 0.072000 0.065000 1000 31 0.900000 0.111000 0.108000 600 36 1.000000 0.050000 0.050000 1.200000 0.025000 0.030000
1553297910920899003	300 31 0.900000 0.073000 0.066000 1000 31 0.900000 0.458000 0.443000 600 35 1.000000 0.050000 0.050000 1.200000 0.028000 0.033000
1553297911429334003	300 31 0.900000 0.073000 0.066000 1000 31 0.900000 0.129000 0.125000 600 35 1.000000 0.050000 0.050000 1.200000 0.025000 0.030000
1553297911937728336	300 31 0.900000 0.073000 0.066000 1000 31 0.900000 0.110000 0.107000 600 35 1.000000 0.050000 0.050000 1.200000 0.025000 0.030000
1553297912447968544	300 32 0.900000 0.073000 0.066000 1000 31 0.900000 0.126000 0.122000 600 35 1.000000 0.050000 0.050000 1.200000 0.025000 0.030000
1553297912956441878	300 32 0.900000 0.074000 0.067000 1000 31 0.900000 0.368000 0.356000 600 35 1.000000 0.050000 0.050000 1.200000 0.030000 0.036000
1553297913464803045	300 31 0.900000 0.073000 0.066000 1000 31 0.900000 0.105000 0.102000 600 35 1.000000 0.050000 0.050000 1.200000 0.025000 0.030000
1553297913972958545	300 31 0.900000 0.073000 0.066000 1000 31 0.900000 0.102000 0.099000 600 35 1.000000 0.050000 0.050000 1.200000 0.026000 0.031000
1553297914482731503	300 31 0.900000 0.072000 0.065000 1000 30 0.900000 0.106000 0.103000 600 35 1.000000 0.050000 0.050000 1.200000 0.025000 0.030000
1553297914991359545	300 32 0.900000 0.073000 0.066000 1000 31 0.900000 0.361000 0.349000 600 35 1.000000 0.051000 0.051000 1.200000 0.031000 0.037000
1553297915499738170	300 32 0.900000 0.073000 0.066000 1000 31 0.900000 0.109000 0.106000 600 35 1.000000 0.050000 0.050000 1.200000 0.026000 0.031000
1553297916008289878	300 31 0.900000 0.073000 0.066000 1000 31 0.900000 0.121000 0.118000 600 35 1.000000 0.051000 0.051000 1.200000 0.025000 0.030000
1553297916517708837	300 31 0.900000 0.073000 0.066000 1000 31 0.900000 0.117000 0.114000 600 35 1.000000 0.050000 0.050000 1.200000 0.026000 0.031000
1553297917026499962	300 32 0.900000 0.073000 0.066000 1000 31 0.900000 0.227000 0.220000 600 35 1.000000 0.050000 0.050000 1.200000 0.028000 0.033000
1553297917534901378	300 31 0.900000 0.073000 0.066000 1000 31 0.900000 0.185000 0.180000 600 35 1.000000 0.050000 0.050000 1.200000 0.034000 0.041000
1553297918043332170	300 31 0.900000 0.073000 0.066000 1000 30 0.900000 0.116000 0.113000 600 35 1.000000 0.050000 0.050000 1.200000 0.026000 0.031000
1553297918551624504	300 31 0.900000 0.073000 0.066000 1000 31 0.900000 0.130000 0.126000 600 35 1.000000 0.050000 0.050000 1.200000 0.026000 0.031000
1553297919061610504	300 32 0.900000 0.072000 0.065000 1000 31 0.900000 0.204000 0.198000 600 35 1.000000 0.050000 0.050000 1.200000 0.029000 0.035000
1553297919570280712	300 32 0.900000 0.073000 0.066000 1000 31 0.900000 0.236000 0.229000 600 35 1.000000 0.050000 0.050000 1.200000 0.034000 0.041000
1553297920078683754	300 31 0.900000 0.073000 0.066000 1000 31 0.900000 0.110000 0.107000 600 35 1.000000 0.050000 0.050000 1.200000 0.026000 0.031000
1553297920586798254	300 31 0.900000 0.073000 0.066000 1000 31 0.900000 0.107000 0.104000 600 35 1.000000 0.051000 0.051000 1.200000 0.026000 0.031000
1553297921095321170	300 31 0.900000 0.073000 0.066000 1000 31 0.900000 0.105000 0.102000 600 35 1.000000 0.051000 0.051000 1.200000 0.029000 0.035000
1553297921604066587	300 31 0.900000 0.074000 0.067000 1000 31 0.900000 0.307000 0.298000 600 35 1.000000 0.050000 0.050000 1.200000 0.033000 0.039000
1553297922112519587	300 31 0.900000 0.073000 0.066000 1000 31 0.900000 0.107000 0.104000 600 35 1.000000 0.050000 0.050000 1.200000 0.025000 0.030000
1553297922620858587	300 31 0.900000 0.073000 0.066000 1000 31 0.900000 0.109000 0.106000 600 35 1.000000 0.050000 0.050000 1.200000 0.025000 0.030000
1553297923129579296	300 31 0.900000 0.073000 0.066000 1000 30 0.900000 0.212000 0.206000 600 35 1.000000 0.050000 0.050000 1.200000 0.026000 0.031000
1553297923638202087	300 32 0.900000 0.073000 0.066000 1000 31 0.900000 0.115000 0.112000 600 35 1.000000 0.050000 0.050000 1.200000 0.025000 0.030000
1553297924146408713	300 31 0.900000 0.073000 0.066000 1000 31 0.900000 0.132000 0.128000 600 35 1.000000 0.050000 0.050000 1.200000 0.028000 0.033000
1553297924654744546	300 31 0.900000 0.039000 0.035000 1000 30 0.900000 0.109000 0.106000 600 35 1.000000 0.050000 0.050000 1.200000 0.025000 0.030000
1553297925163339046	300 31 0.900000 0.039000 0.035000 1000 30 0.900000 0.205000 0.199000 600 35 1.000000 0.050000 0.050000 1.200000 0.039000 0.047000
1553297925673104463	300 32 0.900000 0.039000 0.035000 1000 31 0.900000 0.112000 0.109000 600 35 1.000000 0.050000 0.050000 1.200000 0.039000 0.047000
1553297926181569296	300 31 0.900000 0.040000 0.036000 1000 30 0.900000 0.110000 0.107000 600 35 1.000000 0.050000 0.050000 1.200000 0.041000 0.049000
1553297926689865088	300 31 0.900000 0.039000 0.035000 1000 30 0.900000 0.114000 0.111000 600 35 1.000000 0.050000 0.050000 1.200000 0.040000 0.048000
1553297927198475255	300 31 0.900000 0.039000 0.035000 1000 30 0.900000 0.201000 0.195000 600 35 1.000000 0.050000 0.050000 1.200000 0.042000 0.050000
1553297927708456088	300 31 0.900000 0.039000 0.035000 1000 31 0.900000 0.115000 0.112000 600 35 1.000000 0.050000 0.050000 1.200000 0.039000 0.047000
1553297928217095963	300 31 0.900000 0.040000 0.036000 1000 31 0.900000 0.114000 0.111000 600 35 1.000000 0.050000 0.050000 1.200000 0.042000 0.050000
1553297928725241046	300 31 0.900000 0.038000 0.034000 1000 30 0.900000 0.111000 0.108000 600 35 1.000000 0.050000 0.050000 1.200000 0.038000 0.045000
1553297929233840671	300 31 0.900000 0.039000 0.035000 1000 31 0.900000 0.113000 0.110000 600 35 1.000000 0.050000 0.050000 1.200000 0.041000 0.049000
1553297929742267672	300 31 0.900000 0.038000 0.034000 1000 30 0.900000 0.115000 0.112000 600 35 1.000000 0.050000 0.050000 1.200000 0.039000 0.047000
1553297930250606255	300 31 0.900000 0.040000 0.036000 1000 30 0.900000 0.321000 0.313000 600 35 1.000000 0.050000 0.050000 1.200000 0.038000 0.045000
1553297930758975047	300 31 0.900000 0.038000 0.034000 1000 31 0.900000 0.178000 0.173000 600 35 1.000000 0.050000 0.050000 1.200000 0.040000 0.048000
1553297931267438797	300 31 0.900000 0.039000 0.035000 1000 30 0.900000 0.133000 0.129000 600 35 1.000000 0.050000 0.050000 1.200000 0.039000 0.047000
1553297931775764297	300 31 0.900000 0.039000 0.035000 1000 30 0.900000 0.115000 0.112000 600 35 1.000000 0.051000 0.051000 1.200000 0.039000 0.047000
1553297932284160755	300 32 0.900000 0.039000 0.035000 1000 31 0.900000 0.134000 0.130000 600 35 1.000000 0.050000 0.050000 1.200000 0.039000 0.047000
1553297932792325839	300 31 0.900000 0.039000 0.035000 1000 30 0.900000 0.232000 0.225000 600 35 1.000000 0.051000 0.051000 1.200000 0.039000 0.047000
1553297933300807005	300 31 0.900000 0.039000 0.035000 1000 31 0.900000 0.117000 0.114000 600 35 1.000000 0.050000 0.050000 1.200000 0.039000 0.047000
1553297933809077630	300 31 0.900000 0.039000 0.035000 1000 30 0.900000 0.137000 0.133000 600 35 1.000000 0.050000 0.050000 1.200000 0.039000 0.047000
1553297934318616422	300 32 0.900000 0.039000 0.035000 1000 31 0.900000 0.123000 0.120000 600 35 1.000000 0.050000 0.050000 1.200000 0.038000 0.045000
1553297934827209089	300 31 0.900000 0.039000 0.035000 1000 30 0.900000 0.307000 0.298000 600 35 1.000000 0.051000 0.051000 1.200000 0.039000 0.047000
1553297935335904756	300 31 0.900000 0.039000 0.035000 1000 31 0.900000 0.139000 0.135000 600 35 1.000000 0.050000 0.050000 1.200000 0.041000 0.049000
1553297935844168589	300 31 0.900000 0.038000 0.034000 1000 30 0.900000 0.115000 0.112000 600 35 1.000000 0.050000 0.050000 1.200000 0.038000 0.045000
1553297936352914339	300 31 0.900000 0.038000 0.034000 1000 30 0.900000 0.128000 0.124000 600 35 1.000000 0.051000 0.051000 1.200000 0.040000 0.048000
1553297936861618922	300 31 0.900000 0.039000 0.035000 1000 30 0.900000 0.385000 0.373000 600 35 1.000000 0.050000 0.050000 1.200000 0.045000 0.054000
1553297937370170131	300 31 0.900000 0.039000 0.035000 1000 31 0.900000 0.123000 0.119000 600 35 1.000000 0.050000 0.050000 1.200000 0.039000 0.047000
1553297937878692506	300 31 0.900000 0.039000 0.035000 1000 30 0.900000 0.142000 0.138000 600 35 1.000000 0.050000 0.050000 1.200000 0.039000 0.047000
1553297938387146464	300 31 0.900000 0.038000 0.034000 1000 30 0.900000 0.124000 0.120000 600 35 1.000000 0.050000 0.050000 1.200000 0.039000 0.047000
1553297938895514798	300 31 0.900000 0.039000 0.035000 1000 31 0.900000 0.121000 0.117000 600 35 1.000000 0.050000 0.050000 1.200000 0.040000 0.048000
1553297939404307589	300 31 0.900000 0.039000 0.035000 1000 31 0.900000 0.140000 0.136000 600 35 1.000000 0.050000 0.050000 1.200000 0.039000 0.047000
1553297939912727381	300 31 0.900000 0.039000 0.035000 1000 31 0.900000 0.121000 0.117000 600 35 1.000000 0.050000 0.050000 1.200000 0.039000 0.047000
1553297940420972589	300 31 0.900000 0.039000 0.035000 1000 30 0.900000 0.126000 0.122000 600 35 1.000000 0.050000 0.050000 1.200000 0.039000 0.047000
1553297940929346923	300 32 0.900000 0.038000 0.034000 1000 31 0.900000 0.129000 0.125000 600 35 1.000000 0.050000 0.050000 1.200000 0.040000 0.048000
1553297941438043006	300 32 0.900000 0.040000 0.036000 1000 31 0.900000 0.292000 0.283000 600 35 1.000000 0.051000 0.051000 1.200000 0.051000 0.061000
1553297941946470131	300 31 0.900000 0.039000 0.035000 1000 31 0.900000 0.135000 0.131000 600 35 1.000000 0.051000 0.051000 1.200000 0.038000 0.045000
1553297942454655090	300 31 0.900000 0.039000 0.035000 1000 30 0.900000 0.127000 0.123000 600 35 1.000000 0.050000 0.050000 1.200000 0.039000 0.047000
1553297942964596506	300 32 0.900000 0.040000 0.036000 1000 31 0.900000 0.113000 0.110000 600 35 1.000000 0.050000 0.050000 1.200000 0.039000 0.047000
1553297943473421381	300 32 0.900000 0.039000 0.035000 1000 31 0.900000 0.141000 0.137000 600 35 1.000000 0.051000 0.051000 1.200000 0.041000 0.049000
1553297943981782757	300 31 0.900000 0.039000 0.035000 1000 31 0.900000 0.226000 0.219000 600 35 1.000000 0.050000 0.050000 1.200000 0.039000 0.047000
1553297944489989382	300 31 0.900000 0.039000 0.035000 1000 30 0.900000 0.123000 0.119000 600 35 1.000000 0.050000 0.050000 1.200000 0.040000 0.048000
1553297944998259507	300 31 0.900000 0.039000 0.035000 1000 30 0.900000 0.137000 0.133000 600 35 1.000000 0.050000 0.050000 1.200000 0.039000 0.047000
1553297945506661382	300 32 0.900000 0.039000 0.035000 1000 31 0.900000 0.282000 0.273000 600 35 1.000000 0.050000 0.050000 1.200000 0.042000 0.050000
1553297946015239590	300 31 0.900000 0.039000 0.035000 1000 31 0.900000 0.153000 0.149000 600 35 1.000000 0.050000 0.050000 1.200000 0.039000 0.047000
1553297946523335715	300 31 0.900000 0.039000 0.035000 1000 31 0.900000 0.132000 0.128000 600 35 1.000000 0.050000 0.050000 1.200000 0.039000 0.047000
1553297947031663674	300 31 0.900000 0.039000 0.035000 1000 31 0.900000 0.120000 0.117000 600 35 1.000000 0.050000 0.050000 1.200000 0.039000 0.047000
1553297947540286007	300 32 0.900000 0.040000 0.036000 1000 31 0.900000 0.234000 0.227000 600 35 1.000000 0.050000 0.050000 1.200000 0.042000 0.050000
1553297948048678840	300 31 0.900000 0.039000 0.035000 1000 31 0.900000 0.123000 0.119000 600 35 1.000000 0.050000 0.050000 1.200000 0.039000 0.047000
1553297948556902924	300 31 0.900000 0.039000 0.035000 1000 30 0.900000 0.113000 0.110000 600 35 1.000000 0.050000 0.050000 1.200000 0.038000 0.045000
1553297949065187674	300 31 0.900000 0.039000 0.035000 1000 31 0.900000 0.113000 0.110000 600 35 1.000000 0.050000 0.050000 1.200000 0.038000 0.045000
1553297949573759841	300 32 0.900000 0.040000 0.036000 1000 31 0.900000 0.152000 0.148000 600 35 1.000000 0.051000 0.051000 1.200000 0.040000 0.048000
1553297950082184216	300 31 0.900000 0.039000 0.035000 1000 31 0.900000 0.109000 0.106000 600 35 1.000000 0.050000 0.050000 1.200000 0.037000 0.044000
1553297950590396007	300 31 0.900000 0.039000 0.035000 1000 31 0.900000 0.109000 0.106000 600 35 1.000000 0.050000 0.050000 1.200000 0.037000 0.044000
1553297951098682299	300 31 0.900000 0.039000 0.035000 1000 31 0.900000 0.113000 0.110000 600 35 1.000000 0.050000 0.050000 1.200000 0.037000 0.044000
1553297951609206257	300 33 0.900000 0.039000 0.035000 1000 31 0.900000 0.133000 0.129000 600 36 1.000000 0.050000 0.050000 1.200000 0.037000 0.044000
1553297952117907383	300 31 0.900000 0.040000 0.036000 1000 31 0.900000 0.474000 0.458000 600 35 1.000000 0.050000 0.050000 1.200000 0.040000 0.048000
1553297952626259841	300 31 0.900000 0.039000 0.035000 1000 31 0.900000 0.113000 0.110000 600 35 1.000000 0.050000 0.050000 1.200000 0.037000 0.044000
1553297953134376883	300 31 0.900000 0.040000 0.036000 1000 30 0.900000 0.130000 0.126000 600 35 1.000000 0.050000 0.050000 1.200000 0.037000 0.044000
1553297953643674174	300 32 0.900000 0.039000 0.035000 1000 31 0.900000 0.123000 0.119000 600 35 1.000000 0.050000 0.050000 1.200000 0.038000 0.045000
1553297954152197549	300 31 0.900000 0.040000 0.036000 1000 30 0.900000 0.436000 0.421000 600 35 1.000000 0.050000 0.050000 1.200000 0.040000 0.048000
1553297954660484341	300 31 0.900000 0.039000 0.035000 1000 30 0.900000 0.113000 0.110000 600 35 1.000000 0.051000 0.051000 1.200000 0.038000 0.045000
1553297955168797258	300 31 0.900000 0.039000 0.035000 1000 30 0.900000 0.110000 0.107000 600 35 1.000000 0.050000 0.050000 1.200000 0.038000 0.045000
1553297955678288841	300 31 0.900000 0.039000 0.035000 1000 30 0.900000 0.109000 0.106000 600 35 1.000000 0.050000 0.050000 1.200000 0.038000 0.045000
1553297956186927008	300 31 0.900000 0.040000 0.036000 1000 30 0.900000 0.338000 0.327000 600 35 1.000000 0.050000 0.050000 1.200000 0.041000 0.049000
1553297956695193966	300 31 0.900000 0.039000 0.035000 1000 31 0.900000 0.112000 0.109000 600 35 1.000000 0.050000 0.050000 1.200000 0.039000 0.047000
1553297957203934091	300 31 0.900000 0.038000 0.034000 1000 30 0.900000 0.165000 0.160000 600 35 1.000000 0.050000 0.050000 1.200000 0.038000 0.045000
1553297957712385925	300 31 0.900000 0.039000 0.035000 1000 31 0.900000 0.109000 0.106000 600 35 1.000000 0.050000 0.050000 1.200000 0.040000 0.048000
1553297958220901967	300 32 0.900000 0.039000 0.035000 1000 31 0.900000 0.216000 0.210000 600 35 1.000000 0.051000 0.051000 1.200000 0.038000 0.045000
1553297958729286092	300 31 0.900000 0.040000 0.036000 1000 30 0.900000 0.211000 0.205000 600 35 1.000000 0.050000 0.050000 1.200000 0.042000 0.050000
1553297959237555592	300 31 0.900000 0.039000 0.035000 1000 30 0.900000 0.124000 0.120000 600 35 1.000000 0.050000 0.050000 1.200000 0.038000 0.045000
1553297959745804800	300 31 0.900000 0.039000 0.035000 1000 30 0.900000 0.121000 0.117000 600 35 1.000000 0.050000 0.050000 1.200000 0.038000 0.045000
1553297960255421550	300 32 0.900000 0.014000 0.012000 1000 30 0.900000 0.176000 0.171000 600 35 1.000000 0.050000 0.050000 1.200000 0.026000 0.031000
