#Timestamp	CPU(0) Frequency(MHz)	CPU(0) Temperature(C)	A7 Voltage(V)	A7 Current(A)	A7 Power(W)	CPU(4) Frequency(MHz)	CPU(4) Temperature(C)	A15 Voltage(V)	A15 Current(A)	A15 Power(W)	GPU Frequency(MHz)	GPU Temperature(C)	GPU Voltage(V)	GPU Current(A)	GPU Power(W)	RAM Voltage(V)	RAM Current(A)	RAM Power(W)
1566906618069264114	1200 41 1.100000 0.075000 0.087000 1100 37 0.900000 1.216000 1.209000 600 43 1.000000 0.051000 0.051000 1.200000 0.035000 0.042000
1566906618576630655	1200 43 1.100000 0.080000 0.093000 1100 38 0.900000 1.587000 1.580000 600 44 1.000000 0.051000 0.051000 1.200000 0.029000 0.035000
1566906619083741530	1200 43 1.100000 0.075000 0.087000 1100 38 0.900000 1.589000 1.582000 600 44 1.000000 0.051000 0.051000 1.200000 0.029000 0.035000
1566906619591024905	1200 44 1.100000 0.068000 0.079000 1100 39 0.900000 1.541000 1.534000 600 45 1.000000 0.051000 0.051000 1.200000 0.026000 0.031000
1566906620099779364	1200 44 1.100000 0.074000 0.086000 1100 39 0.900000 1.598000 1.591000 600 46 1.000000 0.052000 0.052000 1.200000 0.025000 0.030000
1566906620607252989	1200 45 1.100000 0.081000 0.095000 1100 40 0.900000 1.691000 1.685000 600 46 1.000000 0.051000 0.051000 1.200000 0.040000 0.048000
1566906621114283656	1200 45 1.100000 0.068000 0.079000 1100 40 0.900000 1.574000 1.567000 600 45 1.000000 0.051000 0.051000 1.200000 0.026000 0.031000
1566906621621208489	1200 45 1.100000 0.066000 0.077000 1100 40 0.900000 1.589000 1.582000 600 46 1.000000 0.051000 0.051000 1.200000 0.025000 0.030000
1566906622128381781	1200 45 1.100000 0.071000 0.083000 1100 40 0.900000 1.576000 1.569000 600 46 1.000000 0.051000 0.051000 1.200000 0.026000 0.031000
1566906622635532072	1200 45 1.100000 0.084000 0.098000 1100 40 0.900000 1.611000 1.604000 600 46 1.000000 0.052000 0.052000 1.200000 0.029000 0.035000
1566906623142799656	1200 45 1.100000 0.087000 0.102000 1100 40 0.900000 1.590000 1.583000 600 46 1.000000 0.051000 0.051000 1.200000 0.031000 0.037000
1566906623650003573	1200 45 1.100000 0.075000 0.087000 1100 40 0.900000 1.570000 1.563000 600 46 1.000000 0.051000 0.051000 1.200000 0.028000 0.033000
1566906624157352573	1200 46 1.100000 0.098000 0.114000 1100 40 0.900000 1.582000 1.575000 600 46 1.000000 0.051000 0.051000 1.200000 0.031000 0.037000
1566906624664576573	1200 46 1.100000 0.079000 0.092000 1100 41 0.900000 1.577000 1.570000 600 46 1.000000 0.051000 0.051000 1.200000 0.028000 0.033000
1566906625171759948	1200 46 1.100000 0.092000 0.107000 1100 41 0.900000 1.582000 1.575000 600 47 1.000000 0.051000 0.051000 1.200000 0.030000 0.036000
1566906625679000781	1200 46 1.100000 0.075000 0.087000 1100 41 0.900000 1.578000 1.571000 600 47 1.000000 0.051000 0.051000 1.200000 0.028000 0.033000
1566906626186257531	1200 46 1.100000 0.100000 0.117000 1100 41 0.900000 1.705000 1.698000 600 47 1.000000 0.052000 0.052000 1.200000 0.046000 0.055000
1566906626693323948	1200 46 1.100000 0.100000 0.117000 1100 41 0.900000 1.610000 1.603000 600 47 1.000000 0.051000 0.051000 1.200000 0.029000 0.035000
1566906627200767698	1200 46 1.100000 0.083000 0.097000 1100 41 0.900000 1.597000 1.590000 600 47 1.000000 0.051000 0.051000 1.200000 0.028000 0.033000
1566906627708308365	1200 46 1.100000 0.086000 0.100000 1100 41 0.900000 1.602000 1.595000 600 47 1.000000 0.052000 0.052000 1.200000 0.031000 0.037000
1566906628215322698	1200 46 1.100000 0.083000 0.097000 1100 41 0.900000 1.599000 1.592000 600 48 1.000000 0.051000 0.051000 1.200000 0.029000 0.035000
1566906628722450782	1200 46 1.100000 0.091000 0.106000 1100 41 0.900000 1.576000 1.569000 600 47 1.000000 0.052000 0.052000 1.200000 0.027000 0.032000
1566906629229662782	1200 46 1.100000 0.076000 0.089000 1100 41 0.900000 1.578000 1.571000 600 47 1.000000 0.052000 0.052000 1.200000 0.027000 0.032000
1566906629737082448	1200 46 1.100000 0.082000 0.096000 1100 41 0.900000 1.590000 1.583000 600 47 1.000000 0.052000 0.052000 1.200000 0.029000 0.035000
1566906630244528657	1200 46 1.100000 0.086000 0.100000 1100 41 0.900000 1.547000 1.540000 600 48 1.000000 0.052000 0.052000 1.200000 0.028000 0.033000
1566906630751931407	1200 47 1.100000 0.091000 0.106000 1100 41 0.900000 1.592000 1.585000 600 47 1.000000 0.052000 0.052000 1.200000 0.031000 0.037000
1566906631259226407	1200 46 1.100000 0.071000 0.083000 1100 41 0.900000 1.561000 1.554000 600 47 1.000000 0.052000 0.052000 1.200000 0.026000 0.031000
1566906631766275282	1200 46 1.100000 0.068000 0.079000 1100 41 0.900000 1.579000 1.572000 600 47 1.000000 0.052000 0.052000 1.200000 0.025000 0.030000
1566906632273351490	1200 46 1.100000 0.076000 0.089000 1100 41 0.900000 1.565000 1.558000 600 47 1.000000 0.052000 0.052000 1.200000 0.027000 0.032000
1566906632780623240	1200 46 1.100000 0.099000 0.116000 1100 41 0.900000 1.596000 1.589000 600 48 1.000000 0.052000 0.052000 1.200000 0.031000 0.037000
1566906633287918032	1200 46 1.100000 0.080000 0.093000 1100 41 0.900000 1.600000 1.593000 600 48 1.000000 0.052000 0.052000 1.200000 0.031000 0.037000
1566906633795086449	1200 46 1.100000 0.097000 0.113000 1100 41 0.900000 1.597000 1.590000 600 47 1.000000 0.052000 0.052000 1.200000 0.028000 0.033000
1566906634302431949	1200 46 1.100000 0.086000 0.100000 1100 42 0.900000 1.578000 1.571000 600 47 1.000000 0.052000 0.052000 1.200000 0.031000 0.037000
1566906634809595949	1200 46 1.100000 0.078000 0.091000 1100 41 0.900000 1.690000 1.683000 600 48 1.000000 0.052000 0.052000 1.200000 0.035000 0.042000
1566906635316592824	1200 47 1.100000 0.065000 0.076000 1100 41 0.900000 1.579000 1.572000 600 48 1.000000 0.051000 0.051000 1.200000 0.024000 0.028000
1566906635823542074	1200 46 1.100000 0.066000 0.077000 1100 41 0.900000 1.549000 1.542000 600 48 1.000000 0.052000 0.052000 1.200000 0.024000 0.028000
1566906636331259074	1200 47 1.100000 0.065000 0.076000 1100 42 0.900000 1.573000 1.566000 600 48 1.000000 0.052000 0.052000 1.200000 0.024000 0.028000
1566906636838242533	1200 47 1.100000 0.070000 0.082000 1100 42 0.900000 1.629000 1.622000 600 48 1.000000 0.052000 0.052000 1.200000 0.032000 0.038000
1566906637345611574	1200 47 1.100000 0.070000 0.082000 1100 42 0.900000 1.573000 1.566000 600 48 1.000000 0.052000 0.052000 1.200000 0.028000 0.033000
1566906637853019824	1200 47 1.100000 0.088000 0.103000 1100 42 0.900000 1.601000 1.594000 600 48 1.000000 0.052000 0.052000 1.200000 0.037000 0.044000
1566906638360088449	1200 47 1.100000 0.079000 0.092000 1100 42 0.900000 1.593000 1.586000 600 48 1.000000 0.052000 0.052000 1.200000 0.029000 0.035000
1566906638867893783	1200 47 1.100000 0.069000 0.080000 1100 42 0.900000 1.587000 1.580000 600 48 1.000000 0.052000 0.052000 1.200000 0.026000 0.031000
1566906639375352866	1200 47 1.100000 0.069000 0.080000 1100 42 0.900000 1.622000 1.615000 600 48 1.000000 0.052000 0.052000 1.200000 0.031000 0.037000
1566906639883281950	1200 47 1.100000 0.066000 0.077000 1100 42 0.900000 1.580000 1.573000 600 48 1.000000 0.052000 0.052000 1.200000 0.026000 0.031000
1566906640390716241	1200 47 1.100000 0.082000 0.096000 1100 42 0.900000 1.605000 1.598000 600 48 1.000000 0.052000 0.052000 1.200000 0.030000 0.036000
1566906640897945575	1200 47 1.100000 0.081000 0.095000 1100 42 0.900000 1.585000 1.578000 600 48 1.000000 0.052000 0.052000 1.200000 0.028000 0.033000
1566906641405123241	1200 47 1.100000 0.093000 0.108000 1100 42 0.900000 1.656000 1.649000 600 48 1.000000 0.052000 0.052000 1.200000 0.037000 0.044000
1566906641912392658	1200 47 1.100000 0.073000 0.085000 1100 42 0.900000 1.571000 1.564000 600 48 1.000000 0.052000 0.052000 1.200000 0.027000 0.032000
1566906642420007492	1200 47 1.100000 0.090000 0.105000 1100 42 0.900000 1.614000 1.607000 600 48 1.000000 0.052000 0.052000 1.200000 0.031000 0.037000
1566906642927156075	1200 47 1.100000 0.065000 0.076000 1100 42 0.900000 1.591000 1.584000 600 48 1.000000 0.052000 0.052000 1.200000 0.024000 0.028000
1566906643434242700	1200 47 1.100000 0.081000 0.095000 1100 42 0.900000 1.626000 1.619000 600 48 1.000000 0.052000 0.052000 1.200000 0.028000 0.033000
1566906643941266700	1200 47 1.100000 0.073000 0.085000 1100 42 0.900000 1.571000 1.564000 600 48 1.000000 0.052000 0.052000 1.200000 0.028000 0.033000
1566906644448625742	1200 47 1.100000 0.087000 0.102000 1100 42 0.900000 1.588000 1.581000 600 48 1.000000 0.052000 0.052000 1.200000 0.029000 0.035000
1566906644955801033	1200 47 1.100000 0.073000 0.085000 1100 42 0.900000 1.607000 1.600000 600 48 1.000000 0.051000 0.051000 1.200000 0.030000 0.036000
1566906645462952575	1200 47 1.100000 0.073000 0.085000 1100 42 0.900000 1.590000 1.583000 600 48 1.000000 0.052000 0.052000 1.200000 0.030000 0.036000
1566906645970359075	1200 47 1.100000 0.097000 0.113000 1100 42 0.900000 1.683000 1.676000 600 48 1.000000 0.052000 0.052000 1.200000 0.038000 0.045000
1566906646477171575	1200 47 1.100000 0.070000 0.082000 1100 42 0.900000 1.580000 1.573000 600 48 1.000000 0.052000 0.052000 1.200000 0.026000 0.031000
1566906646984273825	1200 47 1.100000 0.071000 0.083000 1100 42 0.900000 1.602000 1.595000 600 48 1.000000 0.052000 0.052000 1.200000 0.026000 0.031000
1566906647491220325	1200 47 1.100000 0.067000 0.078000 1100 42 0.900000 1.575000 1.568000 600 48 1.000000 0.052000 0.052000 1.200000 0.024000 0.028000
1566906647998122367	1200 47 1.100000 0.074000 0.086000 1100 42 0.900000 1.721000 1.714000 600 48 1.000000 0.052000 0.052000 1.200000 0.034000 0.041000
1566906648504854242	1200 47 1.100000 0.064000 0.075000 1100 42 0.900000 1.562000 1.555000 600 48 1.000000 0.052000 0.052000 1.200000 0.024000 0.028000
1566906649011695117	1200 47 1.100000 0.064000 0.075000 1100 42 0.900000 1.591000 1.584000 600 48 1.000000 0.052000 0.052000 1.200000 0.024000 0.028000
1566906649519498159	1200 47 1.100000 0.063000 0.073000 1100 42 0.900000 1.594000 1.587000 600 48 1.000000 0.052000 0.052000 1.200000 0.023000 0.027000
1566906650026577159	1200 47 1.100000 0.071000 0.083000 1100 42 0.900000 1.714000 1.707000 600 48 1.000000 0.052000 0.052000 1.200000 0.037000 0.044000
1566906650533675034	1200 47 1.100000 0.078000 0.091000 1100 42 0.900000 1.585000 1.578000 600 48 1.000000 0.052000 0.052000 1.200000 0.028000 0.033000
1566906651041207743	1200 47 1.100000 0.078000 0.091000 1100 42 0.900000 1.589000 1.582000 600 48 1.000000 0.052000 0.052000 1.200000 0.028000 0.033000
1566906651548248201	1200 47 1.100000 0.063000 0.073000 1100 42 0.900000 1.582000 1.575000 600 48 1.000000 0.052000 0.052000 1.200000 0.025000 0.030000
1566906652055285659	1200 47 1.100000 0.077000 0.090000 1100 42 0.900000 1.696000 1.690000 600 48 1.000000 0.052000 0.052000 1.200000 0.034000 0.041000
1566906652562462201	1200 47 1.100000 0.063000 0.073000 1100 42 0.900000 1.568000 1.561000 600 48 1.000000 0.052000 0.052000 1.200000 0.024000 0.028000
1566906653069621076	1200 47 1.100000 0.068000 0.079000 1100 42 0.900000 1.593000 1.586000 600 48 1.000000 0.052000 0.052000 1.200000 0.028000 0.033000
1566906653576646534	1200 47 1.100000 0.076000 0.089000 1100 42 0.900000 1.597000 1.590000 600 48 1.000000 0.052000 0.052000 1.200000 0.029000 0.035000
1566906654084021993	1200 47 1.100000 0.078000 0.091000 1100 42 0.900000 1.593000 1.586000 600 48 1.000000 0.052000 0.052000 1.200000 0.027000 0.032000
1566906654591411701	1200 47 1.100000 0.079000 0.092000 1100 42 0.900000 1.634000 1.627000 600 48 1.000000 0.052000 0.052000 1.200000 0.034000 0.041000
1566906655098595826	1200 47 1.100000 0.079000 0.092000 1100 42 0.900000 1.570000 1.563000 600 48 1.000000 0.052000 0.052000 1.200000 0.029000 0.035000
1566906655605803326	1200 47 1.100000 0.074000 0.086000 1100 42 0.900000 1.612000 1.605000 600 48 1.000000 0.052000 0.052000 1.200000 0.028000 0.033000
1566906656112896701	1200 47 1.100000 0.078000 0.091000 1100 42 0.900000 1.588000 1.581000 600 48 1.000000 0.052000 0.052000 1.200000 0.029000 0.035000
1566906656619882827	1200 47 1.100000 0.067000 0.078000 1100 42 0.900000 1.586000 1.579000 600 48 1.000000 0.052000 0.052000 1.200000 0.027000 0.032000
1566906657126874993	1200 47 1.100000 0.063000 0.073000 1100 42 0.900000 1.572000 1.565000 600 48 1.000000 0.052000 0.052000 1.200000 0.023000 0.027000
1566906657633698077	1200 47 1.100000 0.063000 0.073000 1100 42 0.900000 1.547000 1.540000 600 48 1.000000 0.052000 0.052000 1.200000 0.023000 0.027000
1566906658141613785	1200 47 1.100000 0.078000 0.091000 1100 42 0.900000 1.580000 1.573000 600 49 1.000000 0.052000 0.052000 1.200000 0.028000 0.033000
1566906658649002785	1200 47 1.100000 0.088000 0.103000 1100 42 0.900000 1.568000 1.561000 600 48 1.000000 0.052000 0.052000 1.200000 0.028000 0.033000
1566906659156150952	1200 47 1.100000 0.078000 0.091000 1100 42 0.900000 1.601000 1.594000 600 48 1.000000 0.052000 0.052000 1.200000 0.029000 0.035000
1566906659663332494	1200 47 1.100000 0.081000 0.095000 1100 42 0.900000 1.603000 1.596000 600 48 1.000000 0.052000 0.052000 1.200000 0.028000 0.033000
1566906660170337494	1200 47 1.100000 0.074000 0.086000 1100 42 0.900000 1.598000 1.591000 600 48 1.000000 0.052000 0.052000 1.200000 0.027000 0.032000
1566906660677602202	1200 47 1.100000 0.080000 0.093000 1100 42 0.900000 1.675000 1.669000 600 48 1.000000 0.052000 0.052000 1.200000 0.035000 0.042000
1566906661184563577	1200 47 1.100000 0.065000 0.076000 1100 42 0.900000 1.601000 1.594000 600 48 1.000000 0.052000 0.052000 1.200000 0.023000 0.027000
1566906661692027202	1200 47 1.100000 0.072000 0.084000 1100 42 0.900000 1.567000 1.560000 600 48 1.000000 0.052000 0.052000 1.200000 0.026000 0.031000
1566906662199050286	1200 47 1.100000 0.069000 0.080000 1100 42 0.900000 1.557000 1.550000 600 48 1.000000 0.052000 0.052000 1.200000 0.025000 0.030000
1566906662706349202	1200 47 1.100000 0.078000 0.091000 1100 42 0.900000 1.722000 1.715000 600 48 1.000000 0.052000 0.052000 1.200000 0.034000 0.041000
1566906663213319952	1200 47 1.100000 0.069000 0.080000 1100 42 0.900000 1.571000 1.564000 600 48 1.000000 0.052000 0.052000 1.200000 0.024000 0.028000
1566906663720418661	1200 47 1.100000 0.065000 0.076000 1100 42 0.900000 1.560000 1.553000 600 48 1.000000 0.052000 0.052000 1.200000 0.024000 0.028000
1566906664227499744	1200 47 1.100000 0.069000 0.080000 1100 42 0.900000 1.576000 1.569000 600 48 1.000000 0.051000 0.051000 1.200000 0.025000 0.030000
1566906664734499577	1200 47 1.100000 0.079000 0.092000 1100 42 0.900000 1.708000 1.702000 600 48 1.000000 0.052000 0.052000 1.200000 0.037000 0.044000
1566906665241591453	1200 47 1.100000 0.078000 0.091000 1100 42 0.900000 1.574000 1.567000 600 48 1.000000 0.052000 0.052000 1.200000 0.028000 0.033000
1566906665748406536	1200 47 1.100000 0.075000 0.087000 1100 42 0.900000 1.566000 1.559000 600 48 1.000000 0.052000 0.052000 1.200000 0.024000 0.028000
1566906666255325286	1200 47 1.100000 0.065000 0.076000 1100 42 0.900000 1.580000 1.573000 600 48 1.000000 0.052000 0.052000 1.200000 0.025000 0.030000
1566906666762314244	1200 47 1.100000 0.068000 0.079000 1100 42 0.900000 1.564000 1.557000 600 49 1.000000 0.052000 0.052000 1.200000 0.024000 0.028000
1566906667269450119	1200 47 1.100000 0.091000 0.106000 1100 42 0.900000 1.592000 1.585000 600 48 1.000000 0.052000 0.052000 1.200000 0.030000 0.036000
1566906667776707661	1200 47 1.100000 0.079000 0.092000 1100 42 0.900000 1.582000 1.575000 600 48 1.000000 0.052000 0.052000 1.200000 0.027000 0.032000
1566906668283807953	1200 47 1.100000 0.067000 0.078000 1100 42 0.900000 1.563000 1.556000 600 48 1.000000 0.052000 0.052000 1.200000 0.023000 0.027000
1566906668791355870	1200 47 1.100000 0.063000 0.073000 1100 42 0.900000 1.576000 1.569000 600 49 1.000000 0.052000 0.052000 1.200000 0.024000 0.028000
1566906669298587578	1200 47 1.100000 0.069000 0.080000 1100 42 0.900000 1.582000 1.575000 600 48 1.000000 0.052000 0.052000 1.200000 0.025000 0.030000
1566906669805697578	1200 47 1.100000 0.077000 0.090000 1100 42 0.900000 1.582000 1.575000 600 48 1.000000 0.052000 0.052000 1.200000 0.028000 0.033000
1566906670312603453	1200 47 1.100000 0.069000 0.080000 1100 42 0.900000 1.593000 1.586000 600 48 1.000000 0.052000 0.052000 1.200000 0.025000 0.030000
1566906670819492287	1200 47 1.100000 0.070000 0.082000 1100 42 0.900000 1.559000 1.552000 600 48 1.000000 0.052000 0.052000 1.200000 0.023000 0.027000
1566906671326450703	1200 47 1.100000 0.077000 0.090000 1100 42 0.900000 1.588000 1.581000 600 48 1.000000 0.052000 0.052000 1.200000 0.026000 0.031000
1566906671833310537	1200 47 1.100000 0.063000 0.073000 1100 42 0.900000 1.582000 1.575000 600 48 1.000000 0.052000 0.052000 1.200000 0.023000 0.027000
1566906672340070787	1200 47 1.100000 0.065000 0.076000 1100 42 0.900000 1.574000 1.567000 600 48 1.000000 0.052000 0.052000 1.200000 0.023000 0.027000
1566906672846858662	1200 47 1.100000 0.064000 0.075000 1100 42 0.900000 1.589000 1.582000 600 48 1.000000 0.052000 0.052000 1.200000 0.024000 0.028000
1566906673354007537	1200 47 1.100000 0.064000 0.075000 1100 42 0.900000 1.684000 1.677000 600 48 1.000000 0.052000 0.052000 1.200000 0.032000 0.038000
1566906673860838495	1200 47 1.100000 0.072000 0.084000 1100 42 0.900000 1.592000 1.585000 600 48 1.000000 0.052000 0.052000 1.200000 0.026000 0.031000
1566906674367640995	1200 47 1.100000 0.070000 0.082000 1100 42 0.900000 1.557000 1.550000 600 48 1.000000 0.052000 0.052000 1.200000 0.025000 0.030000
1566906674874306079	1200 47 1.100000 0.063000 0.073000 1100 42 0.900000 1.560000 1.553000 600 48 1.000000 0.052000 0.052000 1.200000 0.023000 0.027000
1566906675381326537	1200 47 1.100000 0.069000 0.080000 1100 42 0.900000 1.595000 1.588000 600 48 1.000000 0.052000 0.052000 1.200000 0.031000 0.037000
1566906675888489204	1200 47 1.100000 0.073000 0.085000 1100 42 0.900000 1.618000 1.611000 600 48 1.000000 0.052000 0.052000 1.200000 0.026000 0.031000
1566906676395502704	1200 47 1.100000 0.071000 0.083000 1100 42 0.900000 1.577000 1.570000 600 48 1.000000 0.052000 0.052000 1.200000 0.026000 0.031000
1566906676903097871	1200 47 1.100000 0.074000 0.086000 1100 42 0.900000 1.548000 1.541000 600 48 1.000000 0.052000 0.052000 1.200000 0.025000 0.030000
1566906677410878662	1200 47 1.100000 0.065000 0.076000 1100 42 0.900000 1.562000 1.555000 600 49 1.000000 0.052000 0.052000 1.200000 0.024000 0.028000
1566906677918020621	1200 47 1.100000 0.069000 0.080000 1100 42 0.900000 1.620000 1.613000 600 48 1.000000 0.052000 0.052000 1.200000 0.029000 0.035000
1566906678424923537	1200 47 1.100000 0.069000 0.080000 1100 42 0.900000 1.605000 1.598000 600 48 1.000000 0.052000 0.052000 1.200000 0.025000 0.030000
1566906678931916496	1200 47 1.100000 0.073000 0.085000 1100 42 0.900000 1.583000 1.576000 600 48 1.000000 0.052000 0.052000 1.200000 0.025000 0.030000
1566906679439493663	1200 47 1.100000 0.071000 0.083000 1100 42 0.900000 1.611000 1.604000 600 48 1.000000 0.052000 0.052000 1.200000 0.026000 0.031000
1566906679946671788	1200 47 1.100000 0.079000 0.092000 1100 42 0.900000 1.637000 1.630000 600 48 1.000000 0.052000 0.052000 1.200000 0.029000 0.035000
1566906680453594746	1200 47 1.100000 0.064000 0.075000 1100 42 0.900000 1.588000 1.581000 600 48 1.000000 0.052000 0.052000 1.200000 0.024000 0.028000
1566906680960525704	1200 47 1.100000 0.066000 0.077000 1100 42 0.900000 1.582000 1.575000 600 48 1.000000 0.052000 0.052000 1.200000 0.023000 0.027000
1566906681468414829	1200 47 1.100000 0.074000 0.086000 1100 42 0.900000 1.578000 1.571000 600 48 1.000000 0.052000 0.052000 1.200000 0.026000 0.031000
1566906681975939288	1200 47 1.100000 0.093000 0.109000 1100 42 0.900000 1.635000 1.628000 600 48 1.000000 0.052000 0.052000 1.200000 0.033000 0.039000
1566906682483044913	1200 47 1.100000 0.073000 0.085000 1100 42 0.900000 1.561000 1.554000 600 48 1.000000 0.052000 0.052000 1.200000 0.027000 0.032000
1566906682990055955	1200 47 1.100000 0.077000 0.090000 1100 42 0.900000 1.604000 1.597000 600 49 1.000000 0.052000 0.052000 1.200000 0.028000 0.033000
1566906683497111621	1200 47 1.100000 0.078000 0.091000 1100 42 0.900000 1.580000 1.573000 600 48 1.000000 0.052000 0.052000 1.200000 0.027000 0.032000
1566906684004122080	1200 47 1.100000 0.067000 0.078000 1100 42 0.900000 1.616000 1.609000 600 49 1.000000 0.052000 0.052000 1.200000 0.028000 0.033000
1566906684511053663	1200 47 1.100000 0.065000 0.076000 1100 42 0.900000 1.572000 1.565000 600 48 1.000000 0.052000 0.052000 1.200000 0.024000 0.028000
1566906685018191913	1200 47 1.100000 0.067000 0.078000 1100 42 0.900000 1.558000 1.551000 600 48 1.000000 0.052000 0.052000 1.200000 0.024000 0.028000
1566906685525235330	1200 47 1.100000 0.063000 0.073000 1100 42 0.900000 1.592000 1.585000 600 48 1.000000 0.052000 0.052000 1.200000 0.025000 0.030000
1566906686032494497	1200 47 1.100000 0.066000 0.077000 1100 42 0.900000 1.562000 1.555000 600 49 1.000000 0.052000 0.052000 1.200000 0.024000 0.028000
1566906686539584247	1200 47 1.100000 0.078000 0.091000 1100 42 0.900000 1.683000 1.676000 600 48 1.000000 0.052000 0.052000 1.200000 0.036000 0.043000
1566906687047576163	1200 47 1.100000 0.071000 0.083000 1100 42 0.900000 1.593000 1.586000 600 48 1.000000 0.052000 0.052000 1.200000 0.025000 0.030000
1566906687554801580	1200 47 1.100000 0.073000 0.085000 1100 42 0.900000 1.595000 1.588000 600 48 1.000000 0.052000 0.052000 1.200000 0.027000 0.032000
1566906688062357997	1200 47 1.100000 0.076000 0.089000 1100 42 0.900000 1.577000 1.570000 600 49 1.000000 0.052000 0.052000 1.200000 0.026000 0.031000
1566906688569703497	1200 47 1.100000 0.069000 0.080000 1100 42 0.900000 1.685000 1.678000 600 48 1.000000 0.052000 0.052000 1.200000 0.039000 0.047000
1566906689076761080	1200 47 1.100000 0.066000 0.077000 1100 42 0.900000 1.575000 1.568000 600 48 1.000000 0.052000 0.052000 1.200000 0.024000 0.028000
1566906689583691622	1200 47 1.100000 0.064000 0.075000 1100 42 0.900000 1.586000 1.579000 600 48 1.000000 0.052000 0.052000 1.200000 0.024000 0.028000
1566906690090524706	1200 47 1.100000 0.070000 0.082000 1100 42 0.900000 1.575000 1.568000 600 48 1.000000 0.052000 0.052000 1.200000 0.024000 0.028000
1566906690597554081	1200 47 1.100000 0.077000 0.090000 1100 42 0.900000 1.693000 1.686000 600 49 1.000000 0.052000 0.052000 1.200000 0.033000 0.039000
1566906691104543831	1200 47 1.100000 0.064000 0.075000 1100 42 0.900000 1.583000 1.576000 600 48 1.000000 0.052000 0.052000 1.200000 0.024000 0.028000
1566906691611968622	1200 47 1.100000 0.063000 0.073000 1100 42 0.900000 1.593000 1.586000 600 48 1.000000 0.052000 0.052000 1.200000 0.023000 0.027000
1566906692119020622	1200 47 1.100000 0.068000 0.079000 1100 42 0.900000 1.602000 1.595000 600 48 1.000000 0.052000 0.052000 1.200000 0.025000 0.030000
1566906692626124206	1200 47 1.100000 0.066000 0.077000 1100 42 0.900000 1.580000 1.573000 600 49 1.000000 0.052000 0.052000 1.200000 0.024000 0.028000
1566906693133083414	1200 42 1.100000 0.079000 0.092000 1100 41 0.900000 1.060000 1.056000 600 46 1.000000 0.052000 0.052000 1.200000 0.029000 0.035000
1566906693639736164	1200 40 1.100000 0.069000 0.080000 1100 40 1.000000 0.153000 0.153000 600 45 1.000000 0.052000 0.052000 1.200000 0.026000 0.031000
