#Timestamp	CPU(0) Frequency(MHz)	CPU(0) Temperature(C)	A7 Voltage(V)	A7 Current(A)	A7 Power(W)	CPU(4) Frequency(MHz)	CPU(4) Temperature(C)	A15 Voltage(V)	A15 Current(A)	A15 Power(W)	GPU Frequency(MHz)	GPU Temperature(C)	GPU Voltage(V)	GPU Current(A)	GPU Power(W)	RAM Voltage(V)	RAM Current(A)	RAM Power(W)
1559843567140627153	600 38 0.900000 0.066000 0.062000 600 37 0.900000 0.097000 0.088000 600 42 1.000000 0.051000 0.051000 1.200000 0.047000 0.056000
1559843567652361070	600 39 0.900000 0.028000 0.026000 600 37 0.900000 0.319000 0.290000 600 42 1.000000 0.051000 0.051000 1.200000 0.045000 0.054000
1559843568164890445	600 39 0.900000 0.036000 0.034000 600 37 0.900000 0.323000 0.294000 600 42 1.000000 0.051000 0.051000 1.200000 0.033000 0.039000
1559843568677010820	600 39 0.900000 0.045000 0.042000 600 37 0.900000 0.355000 0.323000 600 41 1.000000 0.051000 0.051000 1.200000 0.042000 0.050000
1559843569188790279	600 38 0.900000 0.025000 0.023000 600 37 0.900000 0.322000 0.293000 600 41 1.000000 0.051000 0.051000 1.200000 0.028000 0.033000
1559843569700542320	600 38 0.900000 0.025000 0.023000 600 37 0.900000 0.320000 0.291000 600 41 1.000000 0.051000 0.051000 1.200000 0.028000 0.033000
1559843570212386029	600 38 0.900000 0.043000 0.040000 600 37 0.900000 0.324000 0.295000 600 41 1.000000 0.051000 0.051000 1.200000 0.033000 0.039000
1559843570724426654	600 38 0.900000 0.037000 0.035000 600 37 0.900000 0.324000 0.295000 600 41 1.000000 0.051000 0.051000 1.200000 0.047000 0.056000
1559843571236235404	600 38 0.900000 0.025000 0.023000 600 36 0.900000 0.323000 0.294000 600 41 1.000000 0.051000 0.051000 1.200000 0.029000 0.035000
1559843571748185071	600 38 0.900000 0.025000 0.023000 600 36 0.900000 0.324000 0.295000 600 41 1.000000 0.051000 0.051000 1.200000 0.029000 0.035000
1559843572260187779	600 38 0.900000 0.042000 0.039000 600 36 0.900000 0.327000 0.297000 600 41 1.000000 0.051000 0.051000 1.200000 0.033000 0.039000
1559843572774564737	600 38 0.900000 0.060000 0.057000 600 36 0.900000 0.356000 0.324000 600 42 1.000000 0.051000 0.051000 1.200000 0.051000 0.061000
1559843573287685446	600 38 0.900000 0.100000 0.095000 600 37 0.900000 0.715000 0.647000 600 43 1.000000 0.051000 0.051000 1.200000 0.042000 0.050000
1559843573800007487	600 39 0.900000 0.074000 0.070000 600 37 0.900000 0.715000 0.644000 600 43 1.000000 0.051000 0.051000 1.200000 0.035000 0.042000
1559843574312145738	600 39 0.900000 0.079000 0.075000 600 37 0.900000 0.717000 0.646000 600 43 1.000000 0.051000 0.051000 1.200000 0.041000 0.049000
1559843574825793279	600 39 0.900000 0.083000 0.078000 600 37 0.900000 0.718000 0.647000 600 43 1.000000 0.051000 0.051000 1.200000 0.037000 0.044000
1559843575339144863	600 39 0.900000 0.074000 0.070000 600 37 0.900000 0.724000 0.653000 600 43 1.000000 0.051000 0.051000 1.200000 0.046000 0.055000
1559843575851417654	600 39 0.900000 0.075000 0.071000 600 37 0.900000 0.717000 0.646000 600 43 1.000000 0.051000 0.051000 1.200000 0.027000 0.032000
1559843576363630946	600 39 0.900000 0.080000 0.076000 600 37 0.900000 0.718000 0.647000 600 43 1.000000 0.051000 0.051000 1.200000 0.039000 0.047000
1559843576876007613	600 39 0.900000 0.078000 0.074000 600 37 0.900000 0.719000 0.648000 600 43 1.000000 0.051000 0.051000 1.200000 0.032000 0.038000
1559843577388792613	600 39 0.900000 0.075000 0.071000 600 37 0.900000 0.718000 0.647000 600 43 1.000000 0.051000 0.051000 1.200000 0.031000 0.037000
1559843577901430321	600 39 0.900000 0.079000 0.075000 600 37 0.900000 0.745000 0.671000 600 44 1.000000 0.051000 0.051000 1.200000 0.052000 0.062000
1559843578413831863	600 39 0.900000 0.080000 0.076000 600 37 0.900000 0.714000 0.644000 600 43 1.000000 0.051000 0.051000 1.200000 0.037000 0.044000
1559843578926154446	600 39 0.900000 0.078000 0.074000 600 37 0.900000 0.717000 0.646000 600 43 1.000000 0.051000 0.051000 1.200000 0.039000 0.047000
1559843579439082196	600 39 0.900000 0.074000 0.070000 600 37 0.900000 0.722000 0.651000 600 43 1.000000 0.051000 0.051000 1.200000 0.028000 0.033000
1559843579951467988	600 39 0.900000 0.085000 0.080000 600 37 0.900000 0.770000 0.694000 600 43 1.000000 0.051000 0.051000 1.200000 0.049000 0.059000
1559843580464289863	600 39 0.900000 0.078000 0.074000 600 37 0.900000 0.712000 0.642000 600 44 1.000000 0.051000 0.051000 1.200000 0.036000 0.043000
1559843580976855280	600 39 0.900000 0.082000 0.077000 600 37 0.900000 0.712000 0.642000 600 43 1.000000 0.051000 0.051000 1.200000 0.040000 0.048000
1559843581489035030	600 39 0.900000 0.078000 0.074000 600 37 0.900000 0.715000 0.644000 600 44 1.000000 0.051000 0.051000 1.200000 0.030000 0.036000
1559843582000985488	600 39 0.900000 0.076000 0.072000 600 37 0.900000 0.735000 0.663000 600 43 1.000000 0.051000 0.051000 1.200000 0.037000 0.044000
1559843582513357989	600 39 0.900000 0.093000 0.088000 600 37 0.900000 0.743000 0.670000 600 43 1.000000 0.051000 0.051000 1.200000 0.055000 0.066000
1559843583025882655	600 39 0.900000 0.088000 0.083000 600 37 0.900000 0.751000 0.677000 600 44 1.000000 0.051000 0.051000 1.200000 0.041000 0.049000
1559843583538321239	600 39 0.900000 0.082000 0.077000 600 37 0.900000 0.724000 0.653000 600 43 1.000000 0.051000 0.051000 1.200000 0.029000 0.035000
1559843584051675614	600 39 0.900000 0.074000 0.070000 600 37 0.900000 0.718000 0.647000 600 43 1.000000 0.051000 0.051000 1.200000 0.030000 0.036000
1559843584566605697	600 39 0.900000 0.093000 0.088000 600 37 0.900000 0.791000 0.714000 600 44 1.000000 0.051000 0.051000 1.200000 0.052000 0.062000
1559843585078836989	600 39 0.900000 0.096000 0.091000 600 37 0.900000 0.720000 0.649000 600 43 1.000000 0.051000 0.051000 1.200000 0.046000 0.055000
1559843585591165989	600 39 0.900000 0.079000 0.075000 600 37 0.900000 0.716000 0.645000 600 44 1.000000 0.051000 0.051000 1.200000 0.037000 0.044000
1559843586103448989	600 39 0.900000 0.074000 0.070000 600 37 0.900000 0.716000 0.645000 600 43 1.000000 0.051000 0.051000 1.200000 0.028000 0.033000
1559843586615147031	600 39 0.900000 0.094000 0.089000 600 37 0.900000 0.761000 0.686000 600 44 1.000000 0.051000 0.051000 1.200000 0.031000 0.037000
1559843587127362031	600 39 0.900000 0.091000 0.086000 600 37 0.900000 0.724000 0.653000 600 43 1.000000 0.051000 0.051000 1.200000 0.043000 0.052000
1559843587643074697	600 39 0.900000 0.074000 0.070000 600 37 0.900000 0.713000 0.643000 600 43 1.000000 0.051000 0.051000 1.200000 0.037000 0.044000
1559843588156289114	600 39 0.900000 0.073000 0.069000 600 37 0.900000 0.714000 0.644000 600 44 1.000000 0.051000 0.051000 1.200000 0.036000 0.043000
1559843588669879614	600 39 0.900000 0.080000 0.076000 600 37 0.900000 0.714000 0.644000 600 44 1.000000 0.051000 0.051000 1.200000 0.028000 0.033000
1559843589182620239	600 39 0.900000 0.093000 0.088000 600 37 0.900000 0.754000 0.680000 600 43 1.000000 0.051000 0.051000 1.200000 0.050000 0.060000
1559843589694824531	600 39 0.900000 0.074000 0.070000 600 37 0.900000 0.713000 0.643000 600 44 1.000000 0.051000 0.051000 1.200000 0.036000 0.043000
1559843590207649239	600 39 0.900000 0.077000 0.073000 600 37 0.900000 0.712000 0.642000 600 44 1.000000 0.051000 0.051000 1.200000 0.037000 0.044000
1559843590719791906	600 39 0.900000 0.079000 0.075000 600 37 0.900000 0.713000 0.643000 600 43 1.000000 0.051000 0.051000 1.200000 0.028000 0.033000
1559843591232486948	600 39 0.900000 0.084000 0.079000 600 37 0.900000 0.734000 0.662000 600 43 1.000000 0.051000 0.051000 1.200000 0.039000 0.047000
1559843591744919156	600 39 0.900000 0.081000 0.076000 600 37 0.900000 0.718000 0.647000 600 43 1.000000 0.051000 0.051000 1.200000 0.032000 0.038000
1559843592257540698	600 39 0.900000 0.075000 0.071000 600 37 0.900000 0.723000 0.652000 600 43 1.000000 0.051000 0.051000 1.200000 0.028000 0.033000
1559843592769962948	600 39 0.900000 0.075000 0.071000 600 37 0.900000 0.719000 0.648000 600 43 1.000000 0.051000 0.051000 1.200000 0.037000 0.044000
1559843593282274990	600 39 0.900000 0.074000 0.070000 600 37 0.900000 0.713000 0.643000 600 43 1.000000 0.051000 0.051000 1.200000 0.038000 0.045000
1559843593794510615	600 39 0.900000 0.111000 0.105000 600 37 0.900000 0.732000 0.660000 600 43 1.000000 0.051000 0.051000 1.200000 0.042000 0.050000
1559843594306797073	600 39 0.900000 0.079000 0.075000 600 37 0.900000 0.722000 0.651000 600 43 1.000000 0.051000 0.051000 1.200000 0.029000 0.035000
1559843594819053823	600 39 0.900000 0.081000 0.076000 600 37 0.900000 0.713000 0.643000 600 43 1.000000 0.051000 0.051000 1.200000 0.035000 0.042000
1559843595332415573	600 39 0.900000 0.075000 0.071000 600 37 0.900000 0.712000 0.642000 600 43 1.000000 0.051000 0.051000 1.200000 0.038000 0.045000
1559843595844996448	600 39 0.900000 0.099000 0.094000 600 37 0.900000 0.749000 0.676000 600 43 1.000000 0.051000 0.051000 1.200000 0.058000 0.070000
1559843596358878532	600 39 0.900000 0.074000 0.070000 600 37 0.900000 0.709000 0.639000 600 43 1.000000 0.051000 0.051000 1.200000 0.038000 0.045000
1559843596872217199	600 39 0.900000 0.080000 0.076000 600 37 0.900000 0.713000 0.643000 600 43 1.000000 0.051000 0.051000 1.200000 0.030000 0.036000
1559843597384335490	600 39 0.900000 0.074000 0.070000 600 37 0.900000 0.711000 0.642000 600 43 1.000000 0.051000 0.051000 1.200000 0.033000 0.039000
1559843597896477699	600 39 0.900000 0.089000 0.084000 600 37 0.900000 0.742000 0.669000 600 43 1.000000 0.051000 0.051000 1.200000 0.046000 0.055000
1559843598410865907	600 39 0.900000 0.081000 0.077000 600 37 0.900000 0.713000 0.643000 600 43 1.000000 0.051000 0.051000 1.200000 0.034000 0.041000
1559843598923882657	600 39 0.900000 0.075000 0.071000 600 37 0.900000 0.712000 0.642000 600 43 1.000000 0.051000 0.051000 1.200000 0.027000 0.032000
1559843599435997407	600 39 0.900000 0.080000 0.076000 600 37 0.900000 0.712000 0.642000 600 43 1.000000 0.051000 0.051000 1.200000 0.036000 0.043000
1559843599948560491	600 39 0.900000 0.095000 0.090000 600 37 0.900000 0.716000 0.645000 600 43 1.000000 0.051000 0.051000 1.200000 0.036000 0.043000
1559843600460901616	600 39 0.900000 0.084000 0.079000 600 37 0.900000 0.760000 0.686000 600 43 1.000000 0.051000 0.051000 1.200000 0.050000 0.060000
1559843600973926699	600 39 0.900000 0.081000 0.077000 600 37 0.900000 0.720000 0.650000 600 43 1.000000 0.051000 0.051000 1.200000 0.036000 0.043000
1559843601486413824	600 39 0.900000 0.074000 0.070000 600 37 0.900000 0.717000 0.646000 600 43 1.000000 0.051000 0.051000 1.200000 0.038000 0.045000
1559843601998762158	600 39 0.900000 0.086000 0.081000 600 37 0.900000 0.723000 0.652000 600 43 1.000000 0.051000 0.051000 1.200000 0.038000 0.045000
1559843602510958241	600 39 0.900000 0.083000 0.078000 600 37 0.900000 0.742000 0.670000 600 43 1.000000 0.051000 0.051000 1.200000 0.036000 0.043000
1559843603023237574	600 39 0.900000 0.081000 0.077000 600 37 0.900000 0.714000 0.644000 600 43 1.000000 0.051000 0.051000 1.200000 0.027000 0.032000
1559843603535575783	600 39 0.900000 0.074000 0.070000 600 37 0.900000 0.714000 0.644000 600 43 1.000000 0.051000 0.051000 1.200000 0.039000 0.047000
1559843604047780366	600 39 0.900000 0.090000 0.085000 600 37 0.900000 0.713000 0.643000 600 43 1.000000 0.051000 0.051000 1.200000 0.044000 0.053000
1559843604562715783	600 39 0.900000 0.075000 0.071000 600 37 0.900000 0.712000 0.642000 600 43 1.000000 0.051000 0.051000 1.200000 0.037000 0.044000
1559843605076565616	600 39 0.900000 0.084000 0.079000 600 37 0.900000 0.715000 0.644000 600 43 1.000000 0.051000 0.051000 1.200000 0.035000 0.042000
1559843605588855950	600 39 0.900000 0.075000 0.071000 600 37 0.900000 0.713000 0.643000 600 43 1.000000 0.051000 0.051000 1.200000 0.028000 0.033000
1559843606101016116	600 39 0.900000 0.080000 0.076000 600 37 0.900000 0.720000 0.650000 600 43 1.000000 0.051000 0.051000 1.200000 0.044000 0.053000
1559843606613441950	600 39 0.900000 0.078000 0.074000 600 37 0.900000 0.719000 0.649000 600 43 1.000000 0.051000 0.051000 1.200000 0.037000 0.044000
1559843607125521908	600 39 0.900000 0.090000 0.085000 600 37 0.900000 0.737000 0.665000 600 43 1.000000 0.051000 0.051000 1.200000 0.054000 0.065000
1559843607641030742	600 39 0.900000 0.074000 0.070000 600 37 0.900000 0.719000 0.649000 600 43 1.000000 0.051000 0.051000 1.200000 0.027000 0.032000
1559843608154319367	600 39 0.900000 0.089000 0.084000 600 37 0.900000 0.716000 0.646000 600 43 1.000000 0.051000 0.051000 1.200000 0.040000 0.048000
1559843608666656658	600 39 0.900000 0.075000 0.071000 600 37 0.900000 0.720000 0.650000 600 43 1.000000 0.051000 0.051000 1.200000 0.037000 0.044000
1559843609180989158	600 39 0.900000 0.082000 0.077000 600 37 0.900000 0.720000 0.650000 600 43 1.000000 0.051000 0.051000 1.200000 0.049000 0.059000
1559843609695514658	600 39 0.900000 0.092000 0.087000 600 37 0.900000 0.754000 0.680000 600 43 1.000000 0.051000 0.051000 1.200000 0.047000 0.056000
1559843610208589700	600 39 0.900000 0.076000 0.072000 600 37 0.900000 0.717000 0.647000 600 43 1.000000 0.051000 0.051000 1.200000 0.038000 0.045000
1559843610721115159	600 39 0.900000 0.074000 0.070000 600 37 0.900000 0.728000 0.656000 600 43 1.000000 0.051000 0.051000 1.200000 0.039000 0.047000
1559843611235508325	600 39 0.900000 0.079000 0.075000 600 37 0.900000 0.719000 0.649000 600 43 1.000000 0.051000 0.051000 1.200000 0.029000 0.035000
1559843611748904700	600 39 0.900000 0.101000 0.095000 600 37 0.900000 0.734000 0.662000 600 43 1.000000 0.051000 0.051000 1.200000 0.052000 0.062000
1559843612260869325	600 39 0.900000 0.075000 0.071000 600 37 0.900000 0.720000 0.650000 600 43 1.000000 0.051000 0.051000 1.200000 0.035000 0.042000
1559843612773147450	600 39 0.900000 0.096000 0.091000 600 37 0.900000 0.722000 0.651000 600 43 1.000000 0.051000 0.051000 1.200000 0.036000 0.043000
1559843613285429617	600 39 0.900000 0.079000 0.075000 600 37 0.900000 0.721000 0.651000 600 43 1.000000 0.051000 0.051000 1.200000 0.036000 0.043000
1559843613798312451	600 39 0.900000 0.075000 0.071000 600 37 0.900000 0.720000 0.650000 600 43 1.000000 0.051000 0.051000 1.200000 0.047000 0.056000
1559843614310646576	600 39 0.900000 0.078000 0.074000 600 37 0.900000 0.730000 0.659000 600 43 1.000000 0.051000 0.051000 1.200000 0.027000 0.032000
1559843614822989159	600 39 0.900000 0.087000 0.082000 600 37 0.900000 0.727000 0.656000 600 43 1.000000 0.051000 0.051000 1.200000 0.031000 0.037000
1559843615335315826	600 39 0.900000 0.080000 0.076000 600 37 0.900000 0.730000 0.659000 600 43 1.000000 0.051000 0.051000 1.200000 0.036000 0.043000
1559843615848084451	600 39 0.900000 0.076000 0.072000 600 37 0.900000 0.741000 0.669000 600 43 1.000000 0.051000 0.051000 1.200000 0.037000 0.044000
1559843616360883868	600 39 0.900000 0.085000 0.080000 600 37 0.900000 0.763000 0.688000 600 43 1.000000 0.051000 0.051000 1.200000 0.031000 0.037000
1559843616876282076	600 39 0.900000 0.081000 0.076000 600 37 0.900000 0.733000 0.661000 600 43 1.000000 0.051000 0.051000 1.200000 0.044000 0.053000
1559843617389831951	600 39 0.900000 0.076000 0.072000 600 37 0.900000 0.732000 0.660000 600 43 1.000000 0.051000 0.051000 1.200000 0.037000 0.044000
1559843617903774784	600 39 0.900000 0.075000 0.071000 600 37 0.900000 0.735000 0.663000 600 43 1.000000 0.051000 0.051000 1.200000 0.030000 0.036000
1559843618416334993	600 39 0.900000 0.092000 0.087000 600 37 0.900000 0.760000 0.686000 600 43 1.000000 0.051000 0.051000 1.200000 0.043000 0.052000
1559843618928808576	600 39 0.900000 0.093000 0.088000 600 37 0.900000 0.756000 0.682000 600 43 1.000000 0.051000 0.051000 1.200000 0.046000 0.055000
1559843619441734035	600 39 0.900000 0.082000 0.077000 600 37 0.900000 0.744000 0.671000 600 43 1.000000 0.051000 0.051000 1.200000 0.029000 0.035000
1559843619954162493	600 39 0.900000 0.076000 0.072000 600 37 0.900000 0.738000 0.666000 600 43 1.000000 0.051000 0.051000 1.200000 0.034000 0.041000
1559843620466721576	600 39 0.900000 0.076000 0.072000 600 37 0.900000 0.735000 0.663000 600 43 1.000000 0.051000 0.051000 1.200000 0.036000 0.043000
1559843620979283910	600 39 0.900000 0.107000 0.101000 600 37 0.900000 0.779000 0.703000 600 43 1.000000 0.051000 0.051000 1.200000 0.055000 0.066000
1559843621491373202	600 39 0.900000 0.081000 0.076000 600 37 0.900000 0.738000 0.666000 600 43 1.000000 0.051000 0.051000 1.200000 0.030000 0.036000
1559843622003673285	600 39 0.900000 0.076000 0.072000 600 37 0.900000 0.732000 0.660000 600 43 1.000000 0.051000 0.051000 1.200000 0.030000 0.036000
1559843622515861910	600 39 0.900000 0.076000 0.072000 600 37 0.900000 0.735000 0.663000 600 43 1.000000 0.051000 0.051000 1.200000 0.037000 0.044000
1559843623028128618	600 39 0.900000 0.116000 0.110000 600 37 0.900000 0.771000 0.696000 600 43 1.000000 0.051000 0.051000 1.200000 0.044000 0.053000
1559843623540518577	600 39 0.900000 0.077000 0.073000 600 37 0.900000 0.743000 0.670000 600 43 1.000000 0.051000 0.051000 1.200000 0.032000 0.038000
1559843624052939160	600 39 0.900000 0.075000 0.071000 600 37 0.900000 0.738000 0.666000 600 43 1.000000 0.051000 0.051000 1.200000 0.028000 0.033000
1559843624565234410	600 39 0.900000 0.076000 0.072000 600 37 0.900000 0.730000 0.659000 600 43 1.000000 0.051000 0.051000 1.200000 0.038000 0.045000
1559843625079885827	600 39 0.900000 0.076000 0.072000 600 37 0.900000 0.735000 0.663000 600 43 1.000000 0.051000 0.051000 1.200000 0.039000 0.047000
1559843625593227660	600 39 0.900000 0.091000 0.086000 600 37 0.900000 0.733000 0.661000 600 43 1.000000 0.051000 0.051000 1.200000 0.042000 0.050000
1559843626105754410	600 39 0.900000 0.082000 0.077000 600 37 0.900000 0.737000 0.665000 600 43 1.000000 0.051000 0.051000 1.200000 0.030000 0.036000
1559843626617883910	600 39 0.900000 0.077000 0.073000 600 37 0.900000 0.726000 0.655000 600 43 1.000000 0.051000 0.051000 1.200000 0.032000 0.038000
1559843627130034119	600 39 0.900000 0.076000 0.072000 600 37 0.900000 0.730000 0.659000 600 43 1.000000 0.051000 0.051000 1.200000 0.036000 0.043000
1559843627642616994	600 39 0.900000 0.104000 0.098000 600 37 0.900000 0.766000 0.691000 600 43 1.000000 0.051000 0.051000 1.200000 0.041000 0.049000
1559843628155133119	600 39 0.900000 0.076000 0.072000 600 37 0.900000 0.735000 0.663000 600 43 1.000000 0.051000 0.051000 1.200000 0.036000 0.043000
1559843628667409494	600 39 0.900000 0.076000 0.072000 600 37 0.900000 0.733000 0.661000 600 43 1.000000 0.051000 0.051000 1.200000 0.037000 0.044000
1559843629179654452	600 39 0.900000 0.082000 0.077000 600 37 0.900000 0.737000 0.665000 600 43 1.000000 0.051000 0.051000 1.200000 0.037000 0.044000
1559843629691659869	600 39 0.900000 0.086000 0.081000 600 37 0.900000 0.741000 0.669000 600 43 1.000000 0.051000 0.051000 1.200000 0.037000 0.044000
1559843630204064578	600 39 0.900000 0.075000 0.071000 600 37 0.900000 0.738000 0.666000 600 43 1.000000 0.051000 0.051000 1.200000 0.044000 0.053000
1559843630719759953	600 39 0.900000 0.077000 0.073000 600 37 0.900000 0.735000 0.663000 600 43 1.000000 0.051000 0.051000 1.200000 0.038000 0.045000
1559843631232584661	600 39 0.900000 0.076000 0.072000 600 37 0.900000 0.735000 0.663000 600 43 1.000000 0.051000 0.051000 1.200000 0.038000 0.045000
1559843631745407661	600 39 0.900000 0.091000 0.086000 600 37 0.900000 0.735000 0.663000 600 43 1.000000 0.051000 0.051000 1.200000 0.037000 0.044000
1559843632257881869	600 39 0.900000 0.102000 0.096000 600 37 0.900000 0.756000 0.682000 600 43 1.000000 0.051000 0.051000 1.200000 0.053000 0.064000
1559843632771836495	600 39 0.900000 0.077000 0.073000 600 37 0.900000 0.727000 0.656000 600 43 1.000000 0.051000 0.051000 1.200000 0.037000 0.044000
1559843633285330036	600 39 0.900000 0.078000 0.074000 600 37 0.900000 0.728000 0.657000 600 43 1.000000 0.051000 0.051000 1.200000 0.039000 0.047000
1559843633797687536	600 39 0.900000 0.095000 0.090000 600 37 0.900000 0.735000 0.663000 600 43 1.000000 0.051000 0.051000 1.200000 0.041000 0.049000
1559843634311204745	600 39 0.900000 0.094000 0.089000 600 37 0.900000 0.775000 0.699000 600 43 1.000000 0.051000 0.051000 1.200000 0.041000 0.049000
1559843634823975828	600 39 0.900000 0.076000 0.072000 600 37 0.900000 0.726000 0.655000 600 43 1.000000 0.051000 0.051000 1.200000 0.033000 0.039000
1559843635336417245	600 39 0.900000 0.076000 0.072000 600 37 0.900000 0.726000 0.655000 600 43 1.000000 0.051000 0.051000 1.200000 0.035000 0.042000
1559843635848792495	600 39 0.900000 0.091000 0.086000 600 37 0.900000 0.732000 0.660000 600 43 1.000000 0.051000 0.051000 1.200000 0.041000 0.049000
1559843636362836495	600 39 0.900000 0.087000 0.082000 600 37 0.900000 0.735000 0.663000 600 43 1.000000 0.051000 0.051000 1.200000 0.028000 0.033000
1559843636875875787	600 39 0.900000 0.096000 0.091000 600 37 0.900000 0.762000 0.688000 600 43 1.000000 0.051000 0.051000 1.200000 0.057000 0.069000
1559843637388156578	600 39 0.900000 0.082000 0.077000 600 37 0.900000 0.743000 0.670000 600 43 1.000000 0.051000 0.051000 1.200000 0.036000 0.043000
1559843637900394912	600 39 0.900000 0.075000 0.071000 600 37 0.900000 0.741000 0.669000 600 43 1.000000 0.051000 0.051000 1.200000 0.028000 0.033000
1559843638412671620	600 39 0.900000 0.082000 0.077000 600 37 0.900000 0.731000 0.660000 600 43 1.000000 0.051000 0.051000 1.200000 0.034000 0.041000
1559843638927897745	600 39 0.900000 0.076000 0.072000 600 37 0.900000 0.760000 0.686000 600 43 1.000000 0.051000 0.051000 1.200000 0.044000 0.053000
1559843639441174912	600 39 0.900000 0.077000 0.073000 600 37 0.900000 0.729000 0.658000 600 43 1.000000 0.051000 0.051000 1.200000 0.039000 0.047000
1559843639953439620	600 39 0.900000 0.078000 0.074000 600 37 0.900000 0.737000 0.665000 600 43 1.000000 0.051000 0.051000 1.200000 0.030000 0.036000
1559843640465769245	600 39 0.900000 0.081000 0.077000 600 37 0.900000 0.726000 0.655000 600 43 1.000000 0.051000 0.051000 1.200000 0.031000 0.037000
1559843640980805620	600 39 0.900000 0.077000 0.073000 600 37 0.900000 0.735000 0.663000 600 43 1.000000 0.051000 0.051000 1.200000 0.038000 0.045000
1559843641494687496	600 39 0.900000 0.076000 0.072000 600 37 0.900000 0.717000 0.647000 600 43 1.000000 0.051000 0.051000 1.200000 0.040000 0.048000
1559843642007118162	600 39 0.900000 0.086000 0.081000 600 37 0.900000 0.732000 0.660000 600 43 1.000000 0.051000 0.051000 1.200000 0.031000 0.037000
1559843642519405496	600 39 0.900000 0.079000 0.075000 600 37 0.900000 0.717000 0.646000 600 43 1.000000 0.051000 0.051000 1.200000 0.027000 0.032000
1559843643034371454	600 39 0.900000 0.075000 0.071000 600 37 0.900000 0.723000 0.652000 600 43 1.000000 0.051000 0.051000 1.200000 0.036000 0.043000
1559843643546737037	600 39 0.900000 0.085000 0.080000 600 37 0.900000 0.746000 0.673000 600 43 1.000000 0.051000 0.051000 1.200000 0.048000 0.058000
1559843644059056329	600 39 0.900000 0.076000 0.072000 600 37 0.900000 0.726000 0.655000 600 43 1.000000 0.051000 0.051000 1.200000 0.037000 0.044000
1559843644571342871	600 39 0.900000 0.074000 0.070000 600 37 0.900000 0.726000 0.655000 600 43 1.000000 0.051000 0.051000 1.200000 0.028000 0.033000
1559843645083375704	600 39 0.900000 0.081000 0.077000 600 37 0.900000 0.727000 0.656000 600 43 1.000000 0.051000 0.051000 1.200000 0.032000 0.038000
1559843645595607079	600 39 0.900000 0.088000 0.083000 600 37 0.900000 0.745000 0.672000 600 43 1.000000 0.051000 0.051000 1.200000 0.052000 0.062000
1559843646107804829	600 39 0.900000 0.092000 0.087000 600 37 0.900000 0.761000 0.687000 600 43 1.000000 0.051000 0.051000 1.200000 0.035000 0.042000
1559843646620197371	600 39 0.900000 0.097000 0.092000 600 37 0.900000 0.732000 0.660000 600 43 1.000000 0.051000 0.051000 1.200000 0.043000 0.052000
1559843647135043746	600 39 0.900000 0.076000 0.072000 600 37 0.900000 0.728000 0.657000 600 43 1.000000 0.051000 0.051000 1.200000 0.037000 0.044000
1559843647648763080	600 39 0.900000 0.076000 0.072000 600 37 0.900000 0.729000 0.658000 600 43 1.000000 0.051000 0.051000 1.200000 0.037000 0.044000
1559843648161350996	600 39 0.900000 0.103000 0.097000 600 37 0.900000 0.757000 0.683000 600 43 1.000000 0.051000 0.051000 1.200000 0.049000 0.059000
1559843648673727580	600 39 0.900000 0.094000 0.089000 600 37 0.900000 0.733000 0.661000 600 43 1.000000 0.051000 0.051000 1.200000 0.038000 0.045000
1559843649186200205	600 39 0.900000 0.074000 0.070000 600 37 0.900000 0.730000 0.659000 600 43 1.000000 0.051000 0.051000 1.200000 0.037000 0.044000
1559843649699268330	600 39 0.900000 0.074000 0.070000 600 37 0.900000 0.732000 0.660000 600 43 1.000000 0.051000 0.051000 1.200000 0.037000 0.044000
1559843650211904497	600 39 0.900000 0.074000 0.070000 600 37 0.900000 0.728000 0.657000 600 43 1.000000 0.051000 0.051000 1.200000 0.046000 0.055000
1559843650724402705	600 39 0.900000 0.093000 0.088000 600 37 0.900000 0.732000 0.660000 600 43 1.000000 0.051000 0.051000 1.200000 0.033000 0.039000
1559843651236745038	600 39 0.900000 0.081000 0.077000 600 37 0.900000 0.738000 0.666000 600 43 1.000000 0.051000 0.051000 1.200000 0.036000 0.043000
1559843651748931580	600 39 0.900000 0.078000 0.074000 600 37 0.900000 0.734000 0.662000 600 43 1.000000 0.051000 0.051000 1.200000 0.037000 0.044000
1559843652262947247	600 39 0.900000 0.075000 0.071000 600 37 0.900000 0.728000 0.657000 600 43 1.000000 0.051000 0.051000 1.200000 0.037000 0.044000
1559843652777905664	600 38 0.900000 0.101000 0.095000 600 37 0.900000 0.755000 0.681000 600 43 1.000000 0.051000 0.051000 1.200000 0.032000 0.038000
1559843653290229914	600 39 0.900000 0.081000 0.077000 600 37 0.900000 0.729000 0.658000 600 43 1.000000 0.051000 0.051000 1.200000 0.033000 0.039000
1559843653802558122	600 39 0.900000 0.076000 0.072000 600 37 0.900000 0.720000 0.650000 600 43 1.000000 0.051000 0.051000 1.200000 0.035000 0.042000
1559843654314922080	600 39 0.900000 0.075000 0.071000 600 36 0.900000 0.718000 0.648000 600 43 1.000000 0.051000 0.051000 1.200000 0.036000 0.043000
1559843654827020039	600 39 0.900000 0.110000 0.104000 600 37 0.900000 0.774000 0.698000 600 43 1.000000 0.051000 0.051000 1.200000 0.043000 0.052000
1559843655339911914	600 39 0.900000 0.074000 0.070000 600 37 0.900000 0.745000 0.672000 600 43 1.000000 0.051000 0.051000 1.200000 0.037000 0.044000
1559843655852505872	600 39 0.900000 0.073000 0.069000 600 37 0.900000 0.728000 0.657000 600 43 1.000000 0.051000 0.051000 1.200000 0.036000 0.043000
1559843656364893414	600 39 0.900000 0.073000 0.069000 600 37 0.900000 0.720000 0.649000 600 43 1.000000 0.051000 0.051000 1.200000 0.028000 0.033000
1559843656882566706	600 39 0.900000 0.074000 0.070000 600 37 0.900000 0.719000 0.649000 600 43 1.000000 0.051000 0.051000 1.200000 0.035000 0.042000
1559843657395412122	600 39 0.900000 0.111000 0.105000 600 37 0.900000 0.780000 0.704000 600 43 1.000000 0.051000 0.051000 1.200000 0.055000 0.066000
1559843657908932956	600 39 0.900000 0.078000 0.074000 600 37 0.900000 0.722000 0.651000 600 43 1.000000 0.051000 0.051000 1.200000 0.029000 0.035000
1559843658421418706	600 39 0.900000 0.076000 0.072000 600 37 0.900000 0.723000 0.652000 600 43 1.000000 0.051000 0.051000 1.200000 0.036000 0.043000
1559843658936138039	600 39 0.900000 0.075000 0.071000 600 37 0.900000 0.720000 0.649000 600 43 1.000000 0.051000 0.051000 1.200000 0.037000 0.044000
1559843659448770039	600 39 0.900000 0.101000 0.095000 600 37 0.900000 0.765000 0.690000 600 43 1.000000 0.051000 0.051000 1.200000 0.050000 0.060000
1559843659961450039	600 39 0.900000 0.076000 0.072000 600 37 0.900000 0.731000 0.660000 600 43 1.000000 0.051000 0.051000 1.200000 0.030000 0.036000
1559843660473823831	600 39 0.900000 0.075000 0.071000 600 36 0.900000 0.726000 0.655000 600 43 1.000000 0.051000 0.051000 1.200000 0.033000 0.039000
1559843660987507915	600 38 0.900000 0.078000 0.074000 600 37 0.900000 0.727000 0.656000 600 43 1.000000 0.051000 0.051000 1.200000 0.038000 0.045000
1559843661499610498	600 39 0.900000 0.091000 0.086000 600 37 0.900000 0.736000 0.664000 600 43 1.000000 0.051000 0.051000 1.200000 0.043000 0.052000
1559843662012024665	600 39 0.900000 0.074000 0.070000 600 37 0.900000 0.721000 0.650000 600 43 1.000000 0.051000 0.051000 1.200000 0.032000 0.038000
1559843662524318290	600 38 0.900000 0.080000 0.076000 600 37 0.900000 0.718000 0.648000 600 43 1.000000 0.051000 0.051000 1.200000 0.028000 0.033000
1559843663036940290	600 39 0.900000 0.074000 0.070000 600 37 0.900000 0.719000 0.649000 600 43 1.000000 0.051000 0.051000 1.200000 0.037000 0.044000
1559843663553361373	600 39 0.900000 0.086000 0.081000 600 37 0.900000 0.712000 0.642000 600 43 1.000000 0.051000 0.051000 1.200000 0.041000 0.049000
1559843664066587832	600 39 0.900000 0.088000 0.083000 600 37 0.900000 0.756000 0.682000 600 43 1.000000 0.051000 0.051000 1.200000 0.046000 0.055000
1559843664580339123	600 39 0.900000 0.076000 0.072000 600 37 0.900000 0.723000 0.652000 600 43 1.000000 0.051000 0.051000 1.200000 0.037000 0.044000
1559843665093200957	600 39 0.900000 0.076000 0.072000 600 37 0.900000 0.723000 0.652000 600 43 1.000000 0.051000 0.051000 1.200000 0.038000 0.045000
1559843665605620332	600 39 0.900000 0.097000 0.092000 600 37 0.900000 0.732000 0.660000 600 43 1.000000 0.051000 0.051000 1.200000 0.033000 0.039000
1559843666117529373	600 39 0.900000 0.076000 0.072000 600 37 0.900000 0.728000 0.657000 600 43 1.000000 0.051000 0.051000 1.200000 0.028000 0.033000
1559843666630069040	600 39 0.900000 0.073000 0.069000 600 37 0.900000 0.723000 0.652000 600 43 1.000000 0.051000 0.051000 1.200000 0.042000 0.050000
1559843667142535874	600 39 0.900000 0.078000 0.074000 600 37 0.900000 0.722000 0.651000 600 43 1.000000 0.051000 0.051000 1.200000 0.038000 0.045000
1559843667654842665	600 39 0.900000 0.097000 0.092000 600 37 0.900000 0.738000 0.666000 600 43 1.000000 0.051000 0.051000 1.200000 0.039000 0.047000
1559843668169422832	600 39 0.900000 0.075000 0.071000 600 37 0.900000 0.724000 0.653000 600 43 1.000000 0.051000 0.051000 1.200000 0.029000 0.035000
1559843668682773707	600 39 0.900000 0.075000 0.071000 600 37 0.900000 0.729000 0.658000 600 43 1.000000 0.051000 0.051000 1.200000 0.053000 0.064000
1559843669198378707	600 38 0.900000 0.073000 0.069000 600 37 0.900000 0.709000 0.640000 600 43 1.000000 0.051000 0.051000 1.200000 0.038000 0.045000
1559843669711258749	600 39 0.900000 0.075000 0.071000 600 36 0.900000 0.712000 0.642000 600 43 1.000000 0.051000 0.051000 1.200000 0.044000 0.053000
1559843670223710832	600 39 0.900000 0.076000 0.072000 600 37 0.900000 0.710000 0.641000 600 43 1.000000 0.051000 0.051000 1.200000 0.030000 0.036000
1559843670735725457	600 39 0.900000 0.093000 0.088000 600 37 0.900000 0.758000 0.684000 600 43 1.000000 0.051000 0.051000 1.200000 0.049000 0.059000
1559843671247997624	600 39 0.900000 0.076000 0.072000 600 37 0.900000 0.712000 0.642000 600 43 1.000000 0.051000 0.051000 1.200000 0.036000 0.043000
1559843671761040041	600 39 0.900000 0.089000 0.084000 600 37 0.900000 0.724000 0.653000 600 43 1.000000 0.051000 0.051000 1.200000 0.041000 0.049000
1559843672273530291	600 39 0.900000 0.078000 0.074000 600 37 0.900000 0.707000 0.638000 600 43 1.000000 0.051000 0.051000 1.200000 0.029000 0.035000
1559843672787202833	600 39 0.900000 0.085000 0.080000 600 37 0.900000 0.741000 0.669000 600 43 1.000000 0.051000 0.051000 1.200000 0.032000 0.038000
1559843673299696416	600 39 0.900000 0.073000 0.069000 600 37 0.900000 0.712000 0.642000 600 43 1.000000 0.051000 0.051000 1.200000 0.035000 0.042000
1559843673811833041	600 39 0.900000 0.078000 0.074000 600 36 0.900000 0.713000 0.643000 600 43 1.000000 0.051000 0.051000 1.200000 0.030000 0.036000
1559843674324291624	600 38 0.900000 0.073000 0.069000 600 37 0.900000 0.717000 0.647000 600 43 1.000000 0.051000 0.051000 1.200000 0.032000 0.038000
1559843674840421916	600 39 0.900000 0.074000 0.070000 600 36 0.900000 0.726000 0.655000 600 43 1.000000 0.051000 0.051000 1.200000 0.036000 0.043000
1559843675353601125	600 39 0.900000 0.079000 0.075000 600 36 0.900000 0.753000 0.679000 600 43 1.000000 0.051000 0.051000 1.200000 0.050000 0.060000
1559843675865663625	600 39 0.900000 0.074000 0.070000 600 37 0.900000 0.714000 0.644000 600 43 1.000000 0.051000 0.051000 1.200000 0.032000 0.038000
1559843676377996666	600 39 0.900000 0.094000 0.089000 600 36 0.900000 0.710000 0.641000 600 43 1.000000 0.051000 0.051000 1.200000 0.030000 0.036000
1559843676890383208	600 39 0.900000 0.079000 0.075000 600 36 0.900000 0.713000 0.643000 600 43 1.000000 0.051000 0.051000 1.200000 0.036000 0.043000
1559843677405802458	600 39 0.900000 0.074000 0.070000 600 37 0.900000 0.741000 0.669000 600 43 1.000000 0.051000 0.051000 1.200000 0.040000 0.048000
1559843677919119208	600 39 0.900000 0.075000 0.071000 600 37 0.900000 0.717000 0.647000 600 43 1.000000 0.051000 0.051000 1.200000 0.037000 0.044000
1559843678431416167	600 39 0.900000 0.085000 0.080000 600 36 0.900000 0.722000 0.651000 600 43 1.000000 0.051000 0.051000 1.200000 0.030000 0.036000
1559843678943658708	600 39 0.900000 0.073000 0.069000 600 37 0.900000 0.712000 0.642000 600 43 1.000000 0.051000 0.051000 1.200000 0.034000 0.041000
1559843679457399833	600 39 0.900000 0.074000 0.070000 600 37 0.900000 0.710000 0.641000 600 43 1.000000 0.051000 0.051000 1.200000 0.037000 0.044000
1559843679971032250	600 39 0.900000 0.083000 0.078000 600 37 0.900000 0.719000 0.649000 600 43 1.000000 0.051000 0.051000 1.200000 0.044000 0.053000
1559843680483584667	600 39 0.900000 0.079000 0.075000 600 37 0.900000 0.706000 0.637000 600 43 1.000000 0.051000 0.051000 1.200000 0.029000 0.035000
1559843680995869000	600 39 0.900000 0.073000 0.069000 600 37 0.900000 0.710000 0.641000 600 43 1.000000 0.051000 0.051000 1.200000 0.027000 0.032000
1559843681508163542	600 39 0.900000 0.080000 0.076000 600 37 0.900000 0.718000 0.648000 600 43 1.000000 0.051000 0.051000 1.200000 0.036000 0.043000
1559843682020398625	600 39 0.900000 0.088000 0.083000 600 37 0.900000 0.729000 0.658000 600 43 1.000000 0.051000 0.051000 1.200000 0.057000 0.069000
1559843682532616750	600 39 0.900000 0.090000 0.085000 600 37 0.900000 0.718000 0.648000 600 43 1.000000 0.051000 0.051000 1.200000 0.032000 0.038000
1559843683046219542	600 38 0.900000 0.077000 0.073000 600 37 0.900000 0.706000 0.636000 600 43 1.000000 0.051000 0.051000 1.200000 0.036000 0.043000
1559843683558685042	600 38 0.900000 0.075000 0.071000 600 37 0.900000 0.721000 0.650000 600 43 1.000000 0.051000 0.051000 1.200000 0.037000 0.044000
1559843684072044001	600 39 0.900000 0.074000 0.070000 600 36 0.900000 0.714000 0.644000 600 43 1.000000 0.051000 0.051000 1.200000 0.029000 0.035000
1559843684584870376	600 39 0.900000 0.107000 0.101000 600 37 0.900000 0.757000 0.683000 600 43 1.000000 0.051000 0.051000 1.200000 0.050000 0.060000
1559843685097438417	600 39 0.900000 0.076000 0.072000 600 37 0.900000 0.726000 0.655000 600 43 1.000000 0.051000 0.051000 1.200000 0.038000 0.045000
1559843685613531834	600 39 0.900000 0.073000 0.069000 600 36 0.900000 0.721000 0.651000 600 43 1.000000 0.051000 0.051000 1.200000 0.038000 0.045000
1559843686126904959	600 38 0.900000 0.076000 0.072000 600 36 0.900000 0.710000 0.641000 600 43 1.000000 0.051000 0.051000 1.200000 0.033000 0.039000
1559843686639022543	600 39 0.900000 0.109000 0.103000 600 37 0.900000 0.743000 0.670000 600 43 1.000000 0.051000 0.051000 1.200000 0.053000 0.064000
1559843687151385918	600 38 0.900000 0.073000 0.069000 600 36 0.900000 0.715000 0.645000 600 43 1.000000 0.051000 0.051000 1.200000 0.035000 0.042000
1559843687663671543	600 39 0.900000 0.072000 0.068000 600 36 0.900000 0.712000 0.642000 600 43 1.000000 0.051000 0.051000 1.200000 0.037000 0.044000
1559843688176614376	600 38 0.900000 0.073000 0.069000 600 36 0.900000 0.715000 0.644000 600 43 1.000000 0.051000 0.051000 1.200000 0.038000 0.045000
1559843688690592710	600 39 0.900000 0.074000 0.070000 600 36 0.900000 0.717000 0.646000 600 43 1.000000 0.051000 0.051000 1.200000 0.043000 0.052000
1559843689202849876	600 38 0.900000 0.081000 0.077000 600 36 0.900000 0.719000 0.648000 600 43 1.000000 0.051000 0.051000 1.200000 0.029000 0.035000
1559843689715238876	600 39 0.900000 0.079000 0.075000 600 37 0.900000 0.714000 0.644000 600 43 1.000000 0.051000 0.051000 1.200000 0.035000 0.042000
1559843690227641543	600 38 0.900000 0.074000 0.070000 600 36 0.900000 0.717000 0.647000 600 43 1.000000 0.051000 0.051000 1.200000 0.036000 0.043000
1559843690740647168	600 39 0.900000 0.076000 0.072000 600 36 0.900000 0.718000 0.648000 600 43 1.000000 0.051000 0.051000 1.200000 0.037000 0.044000
1559843691254959751	600 38 0.900000 0.093000 0.088000 600 37 0.900000 0.753000 0.679000 600 43 1.000000 0.051000 0.051000 1.200000 0.032000 0.038000
1559843691767511752	600 38 0.900000 0.077000 0.073000 600 36 0.900000 0.707000 0.638000 600 43 1.000000 0.051000 0.051000 1.200000 0.035000 0.042000
1559843692280061960	600 38 0.900000 0.075000 0.071000 600 36 0.900000 0.714000 0.644000 600 43 1.000000 0.051000 0.051000 1.200000 0.030000 0.036000
1559843692792308752	600 39 0.900000 0.081000 0.077000 600 36 0.900000 0.718000 0.648000 600 43 1.000000 0.051000 0.051000 1.200000 0.030000 0.036000
1559843693304513043	600 39 0.900000 0.081000 0.077000 600 37 0.900000 0.716000 0.646000 600 43 1.000000 0.051000 0.051000 1.200000 0.041000 0.049000
1559843693817524502	600 38 0.900000 0.073000 0.069000 600 36 0.900000 0.744000 0.671000 600 43 1.000000 0.051000 0.051000 1.200000 0.038000 0.045000
1559843694331571919	600 38 0.900000 0.073000 0.069000 600 36 0.900000 0.716000 0.646000 600 43 1.000000 0.051000 0.051000 1.200000 0.031000 0.037000
1559843694844098460	600 39 0.900000 0.074000 0.070000 600 37 0.900000 0.710000 0.641000 600 43 1.000000 0.051000 0.051000 1.200000 0.027000 0.032000
1559843695359393294	600 39 0.900000 0.092000 0.087000 600 36 0.900000 0.734000 0.662000 600 43 1.000000 0.051000 0.051000 1.200000 0.035000 0.042000
1559843695872746919	600 39 0.900000 0.104000 0.098000 600 36 0.900000 0.754000 0.680000 600 43 1.000000 0.051000 0.051000 1.200000 0.045000 0.054000
1559843696385933544	600 38 0.900000 0.074000 0.070000 600 36 0.900000 0.718000 0.648000 600 43 1.000000 0.051000 0.051000 1.200000 0.036000 0.043000
1559843696898675377	600 39 0.900000 0.074000 0.070000 600 36 0.900000 0.715000 0.645000 600 43 1.000000 0.051000 0.051000 1.200000 0.028000 0.033000
1559843697411193669	600 38 0.900000 0.094000 0.089000 600 36 0.900000 0.714000 0.644000 600 43 1.000000 0.051000 0.051000 1.200000 0.033000 0.039000
1559843697923175252	600 38 0.900000 0.089000 0.084000 600 37 0.900000 0.763000 0.688000 600 43 1.000000 0.051000 0.051000 1.200000 0.038000 0.045000
1559843698435637044	600 38 0.900000 0.073000 0.069000 600 36 0.900000 0.719000 0.649000 600 43 1.000000 0.051000 0.051000 1.200000 0.029000 0.035000
1559843698947988086	600 39 0.900000 0.073000 0.069000 600 36 0.900000 0.709000 0.640000 600 43 1.000000 0.051000 0.051000 1.200000 0.035000 0.042000
1559843699462585002	600 38 0.900000 0.082000 0.077000 600 36 0.900000 0.712000 0.642000 600 43 1.000000 0.051000 0.051000 1.200000 0.042000 0.050000
1559843699977378711	600 39 0.900000 0.083000 0.078000 600 36 0.900000 0.709000 0.640000 600 43 1.000000 0.051000 0.051000 1.200000 0.037000 0.044000
1559843700490343169	600 38 0.900000 0.089000 0.084000 600 36 0.900000 0.714000 0.644000 600 43 1.000000 0.051000 0.051000 1.200000 0.037000 0.044000
1559843701002618628	600 39 0.900000 0.076000 0.072000 600 36 0.900000 0.709000 0.640000 600 43 1.000000 0.051000 0.051000 1.200000 0.032000 0.038000
1559843701515940128	600 38 0.900000 0.076000 0.072000 600 36 0.900000 0.714000 0.644000 600 43 1.000000 0.051000 0.051000 1.200000 0.033000 0.039000
1559843702029321253	600 38 0.900000 0.079000 0.075000 600 36 0.900000 0.710000 0.641000 600 43 1.000000 0.051000 0.051000 1.200000 0.029000 0.035000
1559843702541903753	600 38 0.900000 0.078000 0.074000 600 36 0.900000 0.767000 0.692000 600 43 1.000000 0.051000 0.051000 1.200000 0.037000 0.044000
1559843703054210586	600 38 0.900000 0.073000 0.069000 600 36 0.900000 0.712000 0.642000 600 43 1.000000 0.051000 0.051000 1.200000 0.038000 0.045000
1559843703566501128	600 38 0.900000 0.078000 0.074000 600 36 0.900000 0.713000 0.643000 600 43 1.000000 0.051000 0.051000 1.200000 0.038000 0.045000
1559843704078724711	600 38 0.900000 0.077000 0.073000 600 36 0.900000 0.720000 0.650000 600 43 1.000000 0.051000 0.051000 1.200000 0.029000 0.035000
1559843704590498503	600 39 0.900000 0.074000 0.070000 600 37 0.900000 0.717000 0.647000 600 43 1.000000 0.051000 0.051000 1.200000 0.032000 0.038000
1559843705102873420	600 39 0.900000 0.072000 0.068000 600 36 0.900000 0.717000 0.647000 600 43 1.000000 0.051000 0.051000 1.200000 0.046000 0.055000
1559843705615144128	600 39 0.900000 0.083000 0.078000 600 36 0.900000 0.719000 0.649000 600 43 1.000000 0.051000 0.051000 1.200000 0.038000 0.045000
1559843706127363045	600 38 0.900000 0.072000 0.068000 600 36 0.900000 0.708000 0.639000 600 43 1.000000 0.051000 0.051000 1.200000 0.030000 0.036000
1559843706642628545	600 38 0.900000 0.073000 0.069000 600 36 0.900000 0.708000 0.638000 600 43 1.000000 0.051000 0.051000 1.200000 0.029000 0.035000
1559843707155571170	600 38 0.900000 0.096000 0.091000 600 37 0.900000 0.730000 0.659000 600 43 1.000000 0.051000 0.051000 1.200000 0.057000 0.068000
1559843707671392087	600 38 0.900000 0.074000 0.070000 600 37 0.900000 0.703000 0.634000 600 43 1.000000 0.051000 0.051000 1.200000 0.037000 0.044000
1559843708184693045	600 38 0.900000 0.073000 0.069000 600 36 0.900000 0.706000 0.636000 600 43 1.000000 0.051000 0.051000 1.200000 0.035000 0.042000
1559843708697117170	600 38 0.900000 0.079000 0.075000 600 36 0.900000 0.708000 0.639000 600 43 1.000000 0.051000 0.051000 1.200000 0.029000 0.035000
1559843709209514962	600 39 0.900000 0.087000 0.082000 600 36 0.900000 0.749000 0.676000 600 43 1.000000 0.051000 0.051000 1.200000 0.046000 0.055000
1559843709721589004	600 39 0.900000 0.073000 0.069000 600 37 0.900000 0.712000 0.642000 600 43 1.000000 0.051000 0.051000 1.200000 0.035000 0.042000
1559843710235822795	600 38 0.900000 0.076000 0.072000 600 36 0.900000 0.706000 0.637000 600 43 1.000000 0.051000 0.051000 1.200000 0.036000 0.043000
1559843710748917754	600 38 0.900000 0.076000 0.072000 600 36 0.900000 0.718000 0.648000 600 43 1.000000 0.051000 0.051000 1.200000 0.035000 0.042000
1559843711261817337	600 39 0.900000 0.074000 0.070000 600 36 0.900000 0.709000 0.640000 600 43 1.000000 0.051000 0.051000 1.200000 0.036000 0.043000
1559843711778248837	600 38 0.900000 0.096000 0.091000 600 37 0.900000 0.743000 0.670000 600 43 1.000000 0.051000 0.051000 1.200000 0.055000 0.066000
1559843712290702879	600 39 0.900000 0.081000 0.077000 600 36 0.900000 0.717000 0.646000 600 43 1.000000 0.051000 0.051000 1.200000 0.037000 0.044000
1559843712802948212	600 38 0.900000 0.072000 0.068000 600 36 0.900000 0.715000 0.645000 600 43 1.000000 0.051000 0.051000 1.200000 0.034000 0.041000
1559843713315750671	600 39 0.900000 0.074000 0.070000 600 37 0.900000 0.712000 0.642000 600 43 1.000000 0.051000 0.051000 1.200000 0.037000 0.044000
1559843713827988213	600 39 0.900000 0.074000 0.070000 600 37 0.900000 0.743000 0.670000 600 43 1.000000 0.051000 0.051000 1.200000 0.047000 0.056000
1559843714340184421	600 39 0.900000 0.090000 0.085000 600 37 0.900000 0.711000 0.642000 600 43 1.000000 0.051000 0.051000 1.200000 0.038000 0.045000
1559843714852603588	600 38 0.900000 0.079000 0.075000 600 37 0.900000 0.709000 0.640000 600 43 1.000000 0.051000 0.051000 1.200000 0.030000 0.036000
1559843715365009796	600 38 0.900000 0.073000 0.069000 600 36 0.900000 0.709000 0.640000 600 43 1.000000 0.051000 0.051000 1.200000 0.038000 0.045000
1559843715883643296	600 38 0.900000 0.074000 0.070000 600 37 0.900000 0.720000 0.650000 600 43 1.000000 0.051000 0.051000 1.200000 0.038000 0.045000
1559843716397542629	600 39 0.900000 0.096000 0.091000 600 36 0.900000 0.708000 0.639000 600 43 1.000000 0.051000 0.051000 1.200000 0.042000 0.050000
1559843716909832338	600 38 0.900000 0.078000 0.074000 600 36 0.900000 0.709000 0.640000 600 43 1.000000 0.051000 0.051000 1.200000 0.027000 0.032000
1559843717422100546	600 38 0.900000 0.074000 0.070000 600 37 0.900000 0.712000 0.642000 600 43 1.000000 0.051000 0.051000 1.200000 0.035000 0.042000
1559843717937334088	600 38 0.900000 0.073000 0.069000 600 36 0.900000 0.704000 0.635000 600 43 1.000000 0.051000 0.051000 1.200000 0.036000 0.043000
1559843718451907380	600 38 0.900000 0.092000 0.087000 600 36 0.900000 0.735000 0.662000 600 43 1.000000 0.051000 0.051000 1.200000 0.055000 0.066000
1559843718964724463	600 38 0.900000 0.075000 0.071000 600 37 0.900000 0.709000 0.640000 600 43 1.000000 0.051000 0.051000 1.200000 0.028000 0.033000
1559843719476945880	600 38 0.900000 0.076000 0.072000 600 36 0.900000 0.708000 0.639000 600 43 1.000000 0.051000 0.051000 1.200000 0.031000 0.037000
1559843719989641755	600 38 0.900000 0.073000 0.069000 600 36 0.900000 0.711000 0.642000 600 43 1.000000 0.051000 0.051000 1.200000 0.033000 0.039000
1559843720501191380	600 39 0.900000 0.075000 0.071000 600 36 0.900000 0.722000 0.651000 600 43 1.000000 0.051000 0.051000 1.200000 0.029000 0.035000
1559843721013686172	600 38 0.900000 0.090000 0.085000 600 36 0.900000 0.792000 0.715000 600 43 1.000000 0.051000 0.051000 1.200000 0.042000 0.050000
1559843721526231380	600 38 0.900000 0.075000 0.071000 600 37 0.900000 0.719000 0.648000 600 43 1.000000 0.051000 0.051000 1.200000 0.038000 0.045000
1559843722038692588	600 38 0.900000 0.074000 0.070000 600 36 0.900000 0.716000 0.646000 600 43 1.000000 0.051000 0.051000 1.200000 0.037000 0.044000
1559843722551238922	600 39 0.900000 0.078000 0.074000 600 36 0.900000 0.714000 0.644000 600 43 1.000000 0.051000 0.051000 1.200000 0.029000 0.035000
1559843723063755380	600 39 0.900000 0.099000 0.094000 600 37 0.900000 0.757000 0.683000 600 43 1.000000 0.051000 0.051000 1.200000 0.052000 0.062000
1559843723576085255	600 39 0.900000 0.072000 0.068000 600 37 0.900000 0.710000 0.641000 600 43 1.000000 0.051000 0.051000 1.200000 0.038000 0.045000
1559843724091675714	600 38 0.900000 0.073000 0.069000 600 36 0.900000 0.716000 0.646000 600 43 1.000000 0.051000 0.051000 1.200000 0.037000 0.044000
1559843724604975005	600 39 0.900000 0.080000 0.076000 600 37 0.900000 0.717000 0.647000 600 43 1.000000 0.051000 0.051000 1.200000 0.029000 0.035000
1559843725117391922	600 39 0.900000 0.094000 0.089000 600 36 0.900000 0.719000 0.648000 600 43 1.000000 0.051000 0.051000 1.200000 0.044000 0.053000
1559843725629855714	600 39 0.900000 0.073000 0.069000 600 37 0.900000 0.715000 0.644000 600 43 1.000000 0.051000 0.051000 1.200000 0.035000 0.042000
1559843726143718256	600 38 0.900000 0.078000 0.074000 600 37 0.900000 0.722000 0.651000 600 43 1.000000 0.051000 0.051000 1.200000 0.036000 0.043000
1559843726656982964	600 39 0.900000 0.074000 0.070000 600 36 0.900000 0.712000 0.642000 600 43 1.000000 0.051000 0.051000 1.200000 0.034000 0.041000
1559843727169607131	600 39 0.900000 0.075000 0.071000 600 36 0.900000 0.718000 0.647000 600 43 1.000000 0.051000 0.051000 1.200000 0.030000 0.036000
1559843727683413006	600 39 0.900000 0.088000 0.083000 600 36 0.900000 0.755000 0.681000 600 43 1.000000 0.051000 0.051000 1.200000 0.034000 0.041000
1559843728196018756	600 38 0.900000 0.074000 0.070000 600 36 0.900000 0.708000 0.638000 600 43 1.000000 0.051000 0.051000 1.200000 0.035000 0.042000
1559843728708217298	600 38 0.900000 0.074000 0.070000 600 37 0.900000 0.709000 0.639000 600 43 1.000000 0.051000 0.051000 1.200000 0.035000 0.042000
1559843729222307839	600 38 0.900000 0.093000 0.088000 600 36 0.900000 0.715000 0.645000 600 43 1.000000 0.051000 0.051000 1.200000 0.044000 0.053000
1559843729735470214	600 38 0.900000 0.080000 0.076000 600 37 0.900000 0.715000 0.645000 600 43 1.000000 0.051000 0.051000 1.200000 0.047000 0.056000
1559843730247712923	600 38 0.900000 0.073000 0.069000 600 37 0.900000 0.717000 0.647000 600 43 1.000000 0.051000 0.051000 1.200000 0.036000 0.043000
1559843730760404840	600 38 0.900000 0.079000 0.075000 600 36 0.900000 0.715000 0.645000 600 43 1.000000 0.051000 0.051000 1.200000 0.029000 0.035000
1559843731272945215	600 38 0.900000 0.090000 0.085000 600 36 0.900000 0.717000 0.647000 600 43 1.000000 0.051000 0.051000 1.200000 0.043000 0.052000
1559843731787873673	600 39 0.900000 0.076000 0.072000 600 37 0.900000 0.714000 0.644000 600 43 1.000000 0.051000 0.051000 1.200000 0.035000 0.042000
1559843732303185340	600 38 0.900000 0.094000 0.089000 600 37 0.900000 0.739000 0.667000 600 43 1.000000 0.051000 0.051000 1.200000 0.037000 0.044000
1559843732816723631	600 38 0.900000 0.074000 0.070000 600 36 0.900000 0.715000 0.645000 600 43 1.000000 0.051000 0.051000 1.200000 0.028000 0.033000
1559843733328868548	600 39 0.900000 0.085000 0.080000 600 36 0.900000 0.713000 0.643000 600 43 1.000000 0.051000 0.051000 1.200000 0.037000 0.044000
1559843733843615215	600 39 0.900000 0.078000 0.074000 600 36 0.900000 0.712000 0.642000 600 43 1.000000 0.051000 0.051000 1.200000 0.037000 0.044000
1559843734356455923	600 38 0.900000 0.094000 0.089000 600 36 0.900000 0.798000 0.720000 600 43 1.000000 0.051000 0.051000 1.200000 0.047000 0.056000
1559843734869596757	600 38 0.900000 0.074000 0.070000 600 36 0.900000 0.714000 0.644000 600 43 1.000000 0.051000 0.051000 1.200000 0.031000 0.037000
1559843735382203798	600 38 0.900000 0.091000 0.086000 600 36 0.900000 0.717000 0.647000 600 43 1.000000 0.051000 0.051000 1.200000 0.034000 0.041000
1559843735894628715	600 38 0.900000 0.078000 0.074000 600 36 0.900000 0.706000 0.637000 600 43 1.000000 0.051000 0.051000 1.200000 0.035000 0.042000
1559843736406599965	600 38 0.900000 0.086000 0.081000 600 37 0.900000 0.728000 0.657000 600 43 1.000000 0.051000 0.051000 1.200000 0.054000 0.065000
1559843736919116715	600 38 0.900000 0.073000 0.069000 600 36 0.900000 0.709000 0.639000 600 43 1.000000 0.051000 0.051000 1.200000 0.036000 0.043000
1559843737431289090	600 38 0.900000 0.095000 0.090000 600 36 0.900000 0.715000 0.645000 600 43 1.000000 0.051000 0.051000 1.200000 0.035000 0.042000
1559843737944126549	600 38 0.900000 0.077000 0.073000 600 36 0.900000 0.706000 0.636000 600 43 1.000000 0.051000 0.051000 1.200000 0.032000 0.038000
1559843738458174090	600 39 0.900000 0.075000 0.071000 600 37 0.900000 0.715000 0.645000 600 43 1.000000 0.051000 0.051000 1.200000 0.032000 0.038000
1559843738971323091	600 39 0.900000 0.084000 0.079000 600 37 0.900000 0.755000 0.681000 600 43 1.000000 0.051000 0.051000 1.200000 0.044000 0.053000
1559843739483464257	600 38 0.900000 0.074000 0.070000 600 36 0.900000 0.711000 0.642000 600 43 1.000000 0.051000 0.051000 1.200000 0.038000 0.045000
1559843739995681424	600 38 0.900000 0.086000 0.081000 600 37 0.900000 0.719000 0.649000 600 43 1.000000 0.051000 0.051000 1.200000 0.035000 0.042000
1559843740509507591	600 38 0.900000 0.074000 0.070000 600 36 0.900000 0.717000 0.647000 600 43 1.000000 0.051000 0.051000 1.200000 0.028000 0.033000
1559843741022947924	600 39 0.900000 0.079000 0.075000 600 37 0.900000 0.732000 0.660000 600 43 1.000000 0.051000 0.051000 1.200000 0.036000 0.043000
1559843741535242424	600 39 0.900000 0.074000 0.070000 600 37 0.900000 0.715000 0.645000 600 43 1.000000 0.051000 0.051000 1.200000 0.042000 0.050000
1559843742047692383	600 38 0.900000 0.078000 0.074000 600 37 0.900000 0.715000 0.645000 600 43 1.000000 0.051000 0.051000 1.200000 0.038000 0.045000
1559843742560069466	600 38 0.900000 0.073000 0.069000 600 36 0.900000 0.714000 0.644000 600 43 1.000000 0.051000 0.051000 1.200000 0.029000 0.035000
1559843743074172799	600 39 0.900000 0.074000 0.070000 600 37 0.900000 0.717000 0.646000 600 43 1.000000 0.051000 0.051000 1.200000 0.037000 0.044000
1559843743586872966	600 39 0.900000 0.080000 0.076000 600 37 0.900000 0.716000 0.645000 600 43 1.000000 0.051000 0.051000 1.200000 0.054000 0.065000
1559843744099100758	600 38 0.900000 0.076000 0.072000 600 37 0.900000 0.707000 0.637000 600 43 1.000000 0.051000 0.051000 1.200000 0.041000 0.049000
1559843744611500383	600 38 0.900000 0.075000 0.071000 600 37 0.900000 0.710000 0.640000 600 43 1.000000 0.051000 0.051000 1.200000 0.029000 0.035000
1559843745123697258	600 38 0.900000 0.078000 0.074000 600 37 0.900000 0.707000 0.638000 600 43 1.000000 0.051000 0.051000 1.200000 0.032000 0.038000
1559843745636132008	600 39 0.900000 0.091000 0.086000 600 37 0.900000 0.745000 0.671000 600 43 1.000000 0.051000 0.051000 1.200000 0.052000 0.062000
1559843746148570841	600 36 0.900000 0.047000 0.044000 600 36 0.900000 0.073000 0.066000 600 41 1.000000 0.051000 0.051000 1.200000 0.031000 0.037000
1559843746659812966	600 36 0.900000 0.025000 0.023000 600 36 0.900000 0.069000 0.062000 600 40 1.000000 0.051000 0.051000 1.200000 0.022000 0.026000
