#Timestamp	CPU(0) Frequency(MHz)	CPU(0) Temperature(C)	A7 Voltage(V)	A7 Current(A)	A7 Power(W)	CPU(4) Frequency(MHz)	CPU(4) Temperature(C)	A15 Voltage(V)	A15 Current(A)	A15 Power(W)	GPU Frequency(MHz)	GPU Temperature(C)	GPU Voltage(V)	GPU Current(A)	GPU Power(W)	RAM Voltage(V)	RAM Current(A)	RAM Power(W)
1560042077867148860	200 41 0.900000 0.022000 0.020000 1500 37 1.000000 0.727000 0.785000 600 43 1.000000 0.051000 0.051000 1.200000 0.038000 0.045000
1560042078377081526	200 41 0.900000 0.016000 0.014000 1500 38 1.000000 0.785000 0.858000 600 42 1.000000 0.051000 0.051000 1.200000 0.039000 0.047000
1560042078886874318	200 42 0.900000 0.012000 0.010000 1500 38 1.000000 0.799000 0.873000 600 43 1.000000 0.051000 0.051000 1.200000 0.038000 0.045000
1560042079396689277	200 42 0.900000 0.012000 0.010000 1500 38 1.000000 0.784000 0.856000 600 43 1.000000 0.051000 0.051000 1.200000 0.038000 0.045000
1560042079905288110	200 46 0.900000 0.013000 0.011000 1500 39 1.000000 1.453000 1.593000 600 45 1.000000 0.051000 0.051000 1.200000 0.043000 0.052000
1560042080413783902	200 48 0.900000 0.019000 0.017000 1500 40 1.000000 1.830000 2.009000 600 46 1.000000 0.051000 0.051000 1.200000 0.034000 0.041000
1560042080922420735	200 48 0.900000 0.013000 0.011000 1500 41 1.000000 1.754000 1.925000 600 47 1.000000 0.052000 0.052000 1.200000 0.025000 0.030000
1560042081431052360	200 49 0.900000 0.013000 0.011000 1500 41 1.000000 1.750000 1.921000 600 47 1.000000 0.052000 0.052000 1.200000 0.024000 0.028000
1560042081939771694	200 49 0.900000 0.013000 0.011000 1500 42 1.000000 1.744000 1.914000 600 47 1.000000 0.052000 0.052000 1.200000 0.023000 0.027000
1560042082448282610	200 50 0.900000 0.020000 0.018000 1500 42 1.100000 1.982000 2.180000 600 48 1.000000 0.052000 0.052000 1.200000 0.039000 0.047000
1560042082957076735	200 50 0.900000 0.014000 0.012000 1500 42 1.000000 1.864000 2.046000 600 48 1.000000 0.052000 0.052000 1.200000 0.024000 0.028000
1560042083465471069	200 50 0.900000 0.013000 0.011000 1500 42 1.000000 1.764000 1.936000 600 48 1.000000 0.052000 0.052000 1.200000 0.024000 0.028000
1560042083976831152	200 50 0.900000 0.013000 0.011000 1500 43 1.000000 1.764000 1.936000 600 48 1.000000 0.052000 0.052000 1.200000 0.025000 0.030000
1560042084485948735	200 51 0.900000 0.014000 0.012000 1500 43 1.000000 1.773000 1.946000 600 50 1.000000 0.052000 0.052000 1.200000 0.024000 0.028000
1560042084994417486	200 51 0.900000 0.022000 0.020000 1500 43 1.000000 1.788000 1.963000 600 49 1.000000 0.052000 0.052000 1.200000 0.031000 0.037000
1560042085503232069	200 51 0.900000 0.014000 0.012000 1500 43 1.000000 1.754000 1.925000 600 49 1.000000 0.052000 0.052000 1.200000 0.026000 0.031000
1560042086011743277	200 51 0.900000 0.014000 0.012000 1500 43 1.000000 1.756000 1.928000 600 49 1.000000 0.052000 0.052000 1.200000 0.025000 0.030000
1560042086523104694	200 51 0.900000 0.014000 0.012000 1500 43 1.000000 1.764000 1.936000 600 49 1.000000 0.052000 0.052000 1.200000 0.024000 0.028000
1560042087032302111	200 51 0.900000 0.024000 0.021000 1500 44 1.000000 1.918000 2.105000 600 50 1.000000 0.052000 0.052000 1.200000 0.040000 0.048000
1560042087540761028	200 51 0.900000 0.014000 0.012000 1500 44 1.000000 1.882000 2.066000 600 49 1.000000 0.052000 0.052000 1.200000 0.024000 0.028000
1560042088049447028	200 51 0.900000 0.014000 0.012000 1500 44 1.000000 1.784000 1.958000 600 49 1.000000 0.052000 0.052000 1.200000 0.024000 0.028000
1560042088558072111	200 51 0.900000 0.014000 0.012000 1500 44 1.000000 1.744000 1.914000 600 49 1.000000 0.052000 0.052000 1.200000 0.023000 0.027000
1560042089066648194	200 52 0.900000 0.023000 0.020000 1500 44 1.000000 1.791000 1.966000 600 51 1.000000 0.052000 0.052000 1.200000 0.035000 0.042000
1560042089575481486	200 52 0.900000 0.015000 0.013000 1500 44 1.000000 1.893000 2.078000 600 50 1.000000 0.053000 0.053000 1.200000 0.024000 0.028000
1560042090084072069	200 52 0.900000 0.014000 0.012000 1500 44 1.000000 1.760000 1.932000 600 50 1.000000 0.052000 0.052000 1.200000 0.023000 0.027000
1560042090592449320	200 52 0.900000 0.014000 0.012000 1500 44 1.000000 1.790000 1.965000 600 50 1.000000 0.053000 0.053000 1.200000 0.023000 0.027000
1560042091102566903	200 52 0.900000 0.014000 0.012000 1500 44 1.000000 1.761000 1.933000 600 51 1.000000 0.052000 0.052000 1.200000 0.024000 0.028000
1560042091611452445	200 52 0.900000 0.022000 0.020000 1500 44 1.100000 1.993000 2.192000 600 50 1.000000 0.052000 0.052000 1.200000 0.042000 0.050000
1560042092120139611	200 52 0.900000 0.014000 0.012000 1500 44 1.000000 1.792000 1.967000 600 50 1.000000 0.052000 0.052000 1.200000 0.024000 0.028000
1560042092637906195	200 52 0.900000 0.014000 0.012000 1500 44 1.000000 1.754000 1.924000 600 50 1.000000 0.052000 0.052000 1.200000 0.025000 0.030000
1560042093152891195	200 52 0.900000 0.015000 0.013000 1500 44 1.000000 1.781000 1.953000 600 51 1.000000 0.052000 0.052000 1.200000 0.025000 0.030000
1560042093661665778	200 52 0.900000 0.019000 0.017000 1500 44 1.000000 1.898000 2.084000 600 50 1.000000 0.052000 0.052000 1.200000 0.035000 0.042000
1560042094170325320	200 52 0.900000 0.014000 0.012000 1500 44 1.000000 1.766000 1.939000 600 50 1.000000 0.053000 0.053000 1.200000 0.023000 0.027000
1560042094678882153	200 52 0.900000 0.014000 0.012000 1500 45 1.000000 1.787000 1.960000 600 50 1.000000 0.053000 0.053000 1.200000 0.024000 0.028000
1560042095190708153	200 52 0.900000 0.014000 0.012000 1500 45 1.000000 1.782000 1.954000 600 51 1.000000 0.053000 0.053000 1.200000 0.023000 0.027000
1560042095701693653	200 52 0.900000 0.014000 0.012000 1500 45 1.000000 1.892000 2.077000 600 51 1.000000 0.052000 0.052000 1.200000 0.028000 0.033000
1560042096210423612	200 52 0.900000 0.020000 0.018000 1500 45 1.000000 1.889000 2.074000 600 50 1.000000 0.052000 0.052000 1.200000 0.023000 0.027000
1560042096719373112	200 52 0.900000 0.014000 0.012000 1500 45 1.000000 1.804000 1.980000 600 50 1.000000 0.052000 0.052000 1.200000 0.024000 0.028000
1560042097232367195	200 52 0.900000 0.014000 0.012000 1500 45 1.000000 1.750000 1.921000 600 52 1.000000 0.052000 0.052000 1.200000 0.023000 0.027000
1560042097743990529	200 52 0.900000 0.014000 0.012000 1500 45 1.000000 1.809000 1.986000 600 51 1.000000 0.052000 0.052000 1.200000 0.024000 0.028000
1560042098253156154	200 52 0.900000 0.021000 0.019000 1500 45 1.100000 2.037000 2.240000 600 51 1.000000 0.052000 0.052000 1.200000 0.025000 0.030000
1560042098761931779	200 52 0.900000 0.014000 0.012000 1500 45 1.000000 1.764000 1.936000 600 51 1.000000 0.053000 0.053000 1.200000 0.023000 0.027000
1560042099275172071	200 52 0.900000 0.014000 0.012000 1500 45 1.000000 1.759000 1.931000 600 51 1.000000 0.052000 0.052000 1.200000 0.024000 0.028000
1560042099784288821	200 52 0.900000 0.015000 0.013000 1500 45 1.000000 1.894000 2.079000 600 51 1.000000 0.053000 0.053000 1.200000 0.028000 0.033000
1560042100292649237	200 53 0.900000 0.015000 0.013000 1500 45 1.000000 1.786000 1.961000 600 51 1.000000 0.053000 0.053000 1.200000 0.031000 0.037000
1560042100801351112	200 52 0.900000 0.014000 0.012000 1500 45 1.000000 1.805000 1.981000 600 51 1.000000 0.052000 0.052000 1.200000 0.024000 0.028000
1560042101314403904	200 52 0.900000 0.014000 0.012000 1500 45 1.000000 1.757000 1.929000 600 51 1.000000 0.052000 0.052000 1.200000 0.024000 0.028000
1560042101823340071	200 53 0.900000 0.014000 0.012000 1500 45 1.000000 1.869000 2.052000 600 51 1.000000 0.052000 0.052000 1.200000 0.029000 0.035000
1560042102334101154	200 53 0.900000 0.015000 0.013000 1500 45 1.000000 1.778000 1.952000 600 52 1.000000 0.052000 0.052000 1.200000 0.024000 0.028000
1560042102842655613	200 53 0.900000 0.019000 0.017000 1500 45 1.100000 1.930000 2.123000 600 51 1.000000 0.052000 0.052000 1.200000 0.033000 0.039000
1560042103351487029	200 53 0.900000 0.014000 0.012000 1500 45 1.000000 1.789000 1.964000 600 51 1.000000 0.053000 0.053000 1.200000 0.025000 0.030000
1560042103860312071	200 53 0.900000 0.015000 0.013000 1500 45 1.000000 1.912000 2.099000 600 51 1.000000 0.052000 0.052000 1.200000 0.030000 0.036000
1560042104395672446	200 53 0.900000 0.014000 0.012000 1500 45 1.000000 1.754000 1.925000 600 51 1.000000 0.053000 0.053000 1.200000 0.024000 0.028000
1560042104908102780	200 53 0.900000 0.018000 0.016000 1500 45 1.100000 2.012000 2.213000 600 51 1.000000 0.053000 0.053000 1.200000 0.035000 0.042000
1560042105420659571	200 53 0.900000 0.014000 0.012000 1500 45 1.000000 1.769000 1.942000 600 51 1.000000 0.053000 0.053000 1.200000 0.025000 0.030000
1560042105929589613	200 53 0.900000 0.018000 0.016000 1500 45 1.000000 1.764000 1.936000 600 51 1.000000 0.053000 0.053000 1.200000 0.033000 0.039000
1560042106438471280	200 53 0.900000 0.014000 0.012000 1500 45 1.000000 1.761000 1.933000 600 51 1.000000 0.053000 0.053000 1.200000 0.025000 0.030000
1560042106947215321	200 53 0.900000 0.018000 0.016000 1500 45 1.100000 2.092000 2.301000 600 51 1.000000 0.052000 0.052000 1.200000 0.032000 0.038000
1560042107455933655	200 53 0.900000 0.014000 0.012000 1500 45 1.000000 1.783000 1.957000 600 51 1.000000 0.053000 0.053000 1.200000 0.027000 0.032000
1560042107964676363	200 53 0.900000 0.015000 0.013000 1500 45 1.000000 1.805000 1.981000 600 51 1.000000 0.052000 0.052000 1.200000 0.025000 0.030000
1560042108473148405	200 53 0.900000 0.014000 0.012000 1500 45 1.000000 1.776000 1.950000 600 51 1.000000 0.053000 0.053000 1.200000 0.024000 0.028000
1560042108981548363	200 53 0.900000 0.014000 0.012000 1500 45 1.000000 1.773000 1.946000 600 52 1.000000 0.053000 0.053000 1.200000 0.024000 0.028000
1560042109490151488	200 53 0.900000 0.017000 0.015000 1500 45 1.000000 1.801000 1.977000 600 51 1.000000 0.053000 0.053000 1.200000 0.029000 0.035000
1560042109999119697	200 53 0.900000 0.014000 0.012000 1500 45 1.100000 1.881000 2.069000 600 51 1.000000 0.053000 0.053000 1.200000 0.024000 0.028000
1560042110507819239	200 53 0.900000 0.015000 0.013000 1500 45 1.000000 1.788000 1.963000 600 51 1.000000 0.052000 0.052000 1.200000 0.025000 0.030000
1560042111018648280	200 53 0.900000 0.014000 0.012000 1500 45 1.000000 1.751000 1.922000 600 53 1.000000 0.052000 0.052000 1.200000 0.024000 0.028000
1560042111527357280	200 53 0.900000 0.016000 0.014000 1500 45 1.000000 1.817000 1.993000 600 51 1.000000 0.052000 0.052000 1.200000 0.031000 0.037000
1560042112036249905	200 53 0.900000 0.015000 0.013000 1500 46 1.000000 1.875000 2.058000 600 51 1.000000 0.053000 0.053000 1.200000 0.030000 0.036000
1560042112544746197	200 53 0.900000 0.014000 0.012000 1500 45 1.000000 1.770000 1.943000 600 51 1.000000 0.053000 0.053000 1.200000 0.025000 0.030000
1560042113053285322	200 53 0.900000 0.014000 0.012000 1500 45 1.000000 1.765000 1.937000 600 51 1.000000 0.053000 0.053000 1.200000 0.024000 0.028000
1560042113561870239	200 53 0.900000 0.018000 0.016000 1500 46 1.000000 1.939000 2.129000 600 51 1.000000 0.052000 0.052000 1.200000 0.036000 0.043000
1560042114070723531	200 53 0.900000 0.015000 0.013000 1500 46 1.000000 1.872000 2.055000 600 51 1.000000 0.053000 0.053000 1.200000 0.029000 0.035000
1560042114579563739	200 53 0.900000 0.014000 0.012000 1500 46 1.000000 1.776000 1.950000 600 51 1.000000 0.053000 0.053000 1.200000 0.024000 0.028000
1560042115088125947	200 53 0.900000 0.015000 0.013000 1500 45 1.000000 1.784000 1.958000 600 51 1.000000 0.053000 0.053000 1.200000 0.025000 0.030000
1560042115596537906	200 53 0.900000 0.014000 0.012000 1500 46 1.000000 1.784000 1.958000 600 52 1.000000 0.053000 0.053000 1.200000 0.024000 0.028000
1560042116105199948	200 53 0.900000 0.019000 0.017000 1500 46 1.000000 1.903000 2.089000 600 52 1.000000 0.053000 0.053000 1.200000 0.028000 0.033000
1560042116613772656	200 53 0.900000 0.014000 0.012000 1500 46 1.000000 1.785000 1.959000 600 51 1.000000 0.053000 0.053000 1.200000 0.025000 0.030000
1560042117122319781	200 53 0.900000 0.014000 0.012000 1500 46 1.000000 1.764000 1.936000 600 51 1.000000 0.053000 0.053000 1.200000 0.024000 0.028000
1560042117633192739	200 53 0.900000 0.014000 0.012000 1500 46 1.000000 1.775000 1.948000 600 52 1.000000 0.053000 0.053000 1.200000 0.024000 0.028000
1560042118141846656	200 53 0.900000 0.021000 0.019000 1500 46 1.100000 1.969000 2.165000 600 52 1.000000 0.053000 0.053000 1.200000 0.037000 0.044000
1560042118650343365	200 53 0.900000 0.014000 0.012000 1500 46 1.000000 1.769000 1.942000 600 51 1.000000 0.053000 0.053000 1.200000 0.024000 0.028000
1560042119158816865	200 53 0.900000 0.014000 0.012000 1500 46 1.000000 1.773000 1.946000 600 51 1.000000 0.053000 0.053000 1.200000 0.023000 0.027000
1560042119667579156	200 53 0.900000 0.015000 0.013000 1500 46 1.000000 1.768000 1.941000 600 51 1.000000 0.053000 0.053000 1.200000 0.024000 0.028000
1560042120175995406	200 53 0.900000 0.022000 0.020000 1500 46 1.100000 2.098000 2.307000 600 52 1.000000 0.053000 0.053000 1.200000 0.041000 0.049000
1560042120684884073	200 53 0.900000 0.015000 0.013000 1500 46 1.000000 1.784000 1.958000 600 52 1.000000 0.053000 0.053000 1.200000 0.024000 0.028000
1560042121193643698	200 53 0.900000 0.015000 0.013000 1500 46 1.000000 1.779000 1.953000 600 51 1.000000 0.053000 0.053000 1.200000 0.023000 0.027000
1560042121702243782	200 53 0.900000 0.015000 0.013000 1500 46 1.000000 1.804000 1.980000 600 51 1.000000 0.053000 0.053000 1.200000 0.024000 0.028000
1560042122212942948	200 54 0.900000 0.015000 0.013000 1500 46 1.000000 1.777000 1.951000 600 53 1.000000 0.053000 0.053000 1.200000 0.025000 0.030000
1560042122722007865	200 53 0.900000 0.022000 0.020000 1500 46 1.000000 1.795000 1.970000 600 52 1.000000 0.053000 0.053000 1.200000 0.033000 0.039000
1560042123230764907	200 53 0.900000 0.014000 0.012000 1500 46 1.000000 1.778000 1.952000 600 51 1.000000 0.053000 0.053000 1.200000 0.024000 0.028000
1560042123739344407	200 53 0.900000 0.015000 0.013000 1500 46 1.000000 1.774000 1.947000 600 52 1.000000 0.053000 0.053000 1.200000 0.025000 0.030000
1560042124255364074	200 53 0.900000 0.015000 0.013000 1500 46 1.000000 1.776000 1.950000 600 52 1.000000 0.053000 0.053000 1.200000 0.025000 0.030000
1560042124764105490	200 53 0.900000 0.020000 0.018000 1500 46 1.100000 1.958000 2.153000 600 52 1.000000 0.053000 0.053000 1.200000 0.034000 0.041000
1560042125272467324	200 53 0.900000 0.014000 0.012000 1500 46 1.000000 1.781000 1.955000 600 52 1.000000 0.053000 0.053000 1.200000 0.024000 0.028000
1560042125780964574	200 53 0.900000 0.014000 0.012000 1500 46 1.000000 1.776000 1.950000 600 52 1.000000 0.053000 0.053000 1.200000 0.024000 0.028000
1560042126289854407	200 53 0.900000 0.015000 0.013000 1500 46 1.000000 1.782000 1.956000 600 52 1.000000 0.053000 0.053000 1.200000 0.028000 0.033000
1560042126798840616	200 53 0.900000 0.020000 0.018000 1500 46 1.100000 1.880000 2.068000 600 52 1.000000 0.053000 0.053000 1.200000 0.035000 0.042000
1560042127307714532	200 53 0.900000 0.015000 0.013000 1500 46 1.000000 1.766000 1.939000 600 52 1.000000 0.053000 0.053000 1.200000 0.024000 0.028000
1560042127816384824	200 53 0.900000 0.014000 0.012000 1500 46 1.000000 1.783000 1.957000 600 52 1.000000 0.053000 0.053000 1.200000 0.024000 0.028000
1560042128325135491	200 53 0.900000 0.015000 0.013000 1500 46 1.000000 1.785000 1.959000 600 52 1.000000 0.053000 0.053000 1.200000 0.029000 0.035000
1560042128834029782	200 54 0.900000 0.015000 0.013000 1500 46 1.000000 1.764000 1.936000 600 53 1.000000 0.053000 0.053000 1.200000 0.033000 0.039000
1560042129343067491	200 53 0.900000 0.023000 0.020000 1500 46 1.100000 2.099000 2.308000 600 52 1.000000 0.052000 0.052000 1.200000 0.031000 0.037000
1560042129851678324	200 53 0.900000 0.015000 0.013000 1500 46 1.000000 1.776000 1.950000 600 52 1.000000 0.053000 0.053000 1.200000 0.024000 0.028000
1560042130360381616	200 54 0.900000 0.015000 0.013000 1500 46 1.000000 1.767000 1.940000 600 52 1.000000 0.053000 0.053000 1.200000 0.025000 0.030000
1560042130876319033	200 53 0.900000 0.015000 0.013000 1500 46 1.000000 1.808000 1.985000 600 52 1.000000 0.053000 0.053000 1.200000 0.024000 0.028000
1560042131384996699	200 53 0.900000 0.019000 0.017000 1500 46 1.100000 1.995000 2.194000 600 52 1.000000 0.053000 0.053000 1.200000 0.032000 0.038000
1560042131893530283	200 53 0.900000 0.014000 0.012000 1500 46 1.000000 1.778000 1.952000 600 52 1.000000 0.053000 0.053000 1.200000 0.024000 0.028000
1560042132402011658	200 54 0.900000 0.015000 0.013000 1500 46 1.000000 1.775000 1.948000 600 52 1.000000 0.053000 0.053000 1.200000 0.024000 0.028000
1560042132910904991	200 53 0.900000 0.014000 0.012000 1500 46 1.000000 1.793000 1.968000 600 52 1.000000 0.053000 0.053000 1.200000 0.023000 0.027000
1560042133419624741	200 54 0.900000 0.014000 0.012000 1500 46 1.100000 1.902000 2.092000 600 52 1.000000 0.053000 0.053000 1.200000 0.033000 0.039000
1560042133928317991	200 54 0.900000 0.014000 0.012000 1500 46 1.000000 1.784000 1.958000 600 52 1.000000 0.053000 0.053000 1.200000 0.024000 0.028000
1560042134445938866	200 53 0.900000 0.014000 0.012000 1500 46 1.000000 1.784000 1.958000 600 52 1.000000 0.053000 0.053000 1.200000 0.029000 0.035000
1560042134956121533	200 54 0.900000 0.015000 0.013000 1500 46 1.000000 1.787000 1.962000 600 52 1.000000 0.053000 0.053000 1.200000 0.024000 0.028000
1560042135473514908	200 54 0.900000 0.015000 0.013000 1500 46 1.000000 1.794000 1.969000 600 53 1.000000 0.053000 0.053000 1.200000 0.032000 0.038000
1560042135982615492	200 54 0.900000 0.014000 0.012000 1500 46 1.000000 1.756000 1.928000 600 52 1.000000 0.053000 0.053000 1.200000 0.023000 0.027000
1560042136491338825	200 54 0.900000 0.015000 0.013000 1500 46 1.000000 1.763000 1.935000 600 52 1.000000 0.053000 0.053000 1.200000 0.029000 0.035000
1560042136999980325	200 54 0.900000 0.015000 0.013000 1500 46 1.000000 1.896000 2.081000 600 52 1.000000 0.053000 0.053000 1.200000 0.025000 0.030000
1560042137513709575	200 54 0.900000 0.015000 0.013000 1500 46 1.000000 1.782000 1.956000 600 53 1.000000 0.053000 0.053000 1.200000 0.025000 0.030000
1560042138022610992	200 54 0.900000 0.020000 0.018000 1500 46 1.100000 2.104000 2.314000 600 52 1.000000 0.053000 0.053000 1.200000 0.030000 0.036000
1560042138531411159	200 54 0.900000 0.015000 0.013000 1500 46 1.000000 1.773000 1.946000 600 52 1.000000 0.053000 0.053000 1.200000 0.024000 0.028000
1560042139039886325	200 54 0.900000 0.014000 0.012000 1500 46 1.000000 1.790000 1.965000 600 52 1.000000 0.052000 0.052000 1.200000 0.023000 0.027000
1560042139548510867	200 54 0.900000 0.015000 0.013000 1500 46 1.000000 1.764000 1.936000 600 52 1.000000 0.053000 0.053000 1.200000 0.024000 0.028000
1560042140057003617	200 54 0.900000 0.016000 0.014000 1500 46 1.100000 2.022000 2.224000 600 52 1.000000 0.053000 0.053000 1.200000 0.033000 0.039000
1560042140565670867	200 54 0.900000 0.015000 0.013000 1500 46 1.000000 1.781000 1.955000 600 52 1.000000 0.053000 0.053000 1.200000 0.025000 0.030000
1560042141074440451	200 54 0.900000 0.015000 0.013000 1500 46 1.000000 1.764000 1.936000 600 52 1.000000 0.053000 0.053000 1.200000 0.026000 0.031000
1560042141583111492	200 54 0.900000 0.015000 0.013000 1500 46 1.000000 1.760000 1.930000 600 52 1.000000 0.053000 0.053000 1.200000 0.025000 0.030000
1560042142091698617	200 54 0.900000 0.015000 0.013000 1500 46 1.000000 1.896000 2.081000 600 53 1.000000 0.053000 0.053000 1.200000 0.024000 0.028000
1560042142600285701	200 54 0.900000 0.014000 0.012000 1500 46 1.000000 1.761000 1.933000 600 52 1.000000 0.053000 0.053000 1.200000 0.024000 0.028000
1560042143108859201	200 54 0.900000 0.015000 0.013000 1500 46 1.000000 1.760000 1.932000 600 52 1.000000 0.053000 0.053000 1.200000 0.025000 0.030000
1560042143617717076	200 54 0.900000 0.014000 0.012000 1500 46 1.000000 1.761000 1.933000 600 52 1.000000 0.053000 0.053000 1.200000 0.024000 0.028000
1560042144146108118	200 54 0.900000 0.015000 0.013000 1500 46 1.000000 1.785000 1.959000 600 54 1.000000 0.053000 0.053000 1.200000 0.025000 0.030000
1560042144656504701	200 54 0.900000 0.018000 0.016000 1500 46 1.100000 2.070000 2.277000 600 52 1.000000 0.053000 0.053000 1.200000 0.033000 0.039000
1560042145165209951	200 54 0.900000 0.014000 0.012000 1500 46 1.000000 1.820000 1.998000 600 52 1.000000 0.053000 0.053000 1.200000 0.030000 0.036000
1560042145673878868	200 54 0.900000 0.015000 0.013000 1500 46 1.000000 1.771000 1.944000 600 52 1.000000 0.053000 0.053000 1.200000 0.024000 0.028000
1560042146182749576	200 53 0.900000 0.015000 0.013000 1500 46 1.000000 1.791000 1.966000 600 53 1.000000 0.053000 0.053000 1.200000 0.024000 0.028000
1560042146691384368	200 54 0.900000 0.018000 0.016000 1500 46 1.100000 2.132000 2.345000 600 53 1.000000 0.053000 0.053000 1.200000 0.031000 0.037000
1560042147200018493	200 54 0.900000 0.015000 0.013000 1500 46 1.000000 1.783000 1.957000 600 52 1.000000 0.053000 0.053000 1.200000 0.029000 0.035000
1560042147708603660	200 54 0.900000 0.015000 0.013000 1500 46 1.000000 1.781000 1.955000 600 52 1.000000 0.053000 0.053000 1.200000 0.025000 0.030000
1560042148228274285	200 54 0.900000 0.015000 0.013000 1500 46 1.000000 1.763000 1.935000 600 52 1.000000 0.053000 0.053000 1.200000 0.024000 0.028000
1560042148736899951	200 54 0.900000 0.020000 0.018000 1500 46 1.100000 1.996000 2.195000 600 53 1.000000 0.053000 0.053000 1.200000 0.031000 0.037000
1560042149245555452	200 54 0.900000 0.015000 0.013000 1500 46 1.000000 1.765000 1.937000 600 52 1.000000 0.053000 0.053000 1.200000 0.025000 0.030000
1560042149754354160	200 54 0.900000 0.014000 0.012000 1500 46 1.000000 1.755000 1.926000 600 52 1.000000 0.053000 0.053000 1.200000 0.025000 0.030000
1560042150263156993	200 54 0.900000 0.014000 0.012000 1500 46 1.000000 1.753000 1.924000 600 52 1.000000 0.053000 0.053000 1.200000 0.025000 0.030000
1560042150775546535	200 54 0.900000 0.018000 0.016000 1500 46 1.100000 1.857000 2.042000 600 53 1.000000 0.053000 0.053000 1.200000 0.024000 0.028000
1560042151284259202	200 54 0.900000 0.015000 0.013000 1500 46 1.000000 1.767000 1.940000 600 52 1.000000 0.053000 0.053000 1.200000 0.030000 0.036000
1560042151802491410	200 54 0.900000 0.015000 0.013000 1500 46 1.000000 1.756000 1.928000 600 52 1.000000 0.053000 0.053000 1.200000 0.024000 0.028000
1560042152320772077	200 54 0.900000 0.015000 0.013000 1500 46 1.000000 1.788000 1.963000 600 52 1.000000 0.053000 0.053000 1.200000 0.025000 0.030000
1560042152829668285	200 54 0.900000 0.015000 0.013000 1500 46 1.000000 1.772000 1.945000 600 52 1.000000 0.053000 0.053000 1.200000 0.025000 0.030000
1560042153338495619	200 54 0.900000 0.015000 0.013000 1500 46 1.100000 2.162000 2.380000 600 52 1.000000 0.053000 0.053000 1.200000 0.033000 0.039000
1560042153847153035	200 54 0.900000 0.015000 0.013000 1500 46 1.000000 1.775000 1.948000 600 52 1.000000 0.053000 0.053000 1.200000 0.025000 0.030000
1560042154355637702	200 54 0.900000 0.014000 0.012000 1500 46 1.000000 1.789000 1.964000 600 52 1.000000 0.053000 0.053000 1.200000 0.025000 0.030000
1560042154864394244	200 54 0.900000 0.015000 0.013000 1500 46 1.000000 1.757000 1.929000 600 52 1.000000 0.053000 0.053000 1.200000 0.025000 0.030000
1560042155372970744	200 54 0.900000 0.015000 0.013000 1500 47 1.100000 2.080000 2.288000 600 53 1.000000 0.053000 0.053000 1.200000 0.029000 0.035000
1560042155881487286	200 54 0.900000 0.015000 0.013000 1500 46 1.000000 1.773000 1.946000 600 52 1.000000 0.053000 0.053000 1.200000 0.025000 0.030000
1560042156390251577	200 54 0.900000 0.015000 0.013000 1500 47 1.000000 1.758000 1.930000 600 52 1.000000 0.053000 0.053000 1.200000 0.025000 0.030000
1560042156899015244	200 54 0.900000 0.014000 0.012000 1500 46 1.000000 1.759000 1.931000 600 52 1.000000 0.053000 0.053000 1.200000 0.025000 0.030000
1560042157407934744	200 54 0.900000 0.015000 0.013000 1500 47 1.000000 1.868000 2.051000 600 54 1.000000 0.053000 0.053000 1.200000 0.029000 0.035000
1560042157916606911	200 54 0.900000 0.014000 0.012000 1500 47 1.000000 1.770000 1.943000 600 52 1.000000 0.053000 0.053000 1.200000 0.024000 0.028000
1560042158425157036	200 54 0.900000 0.015000 0.013000 1500 46 1.000000 1.758000 1.930000 600 52 1.000000 0.053000 0.053000 1.200000 0.024000 0.028000
1560042158933885953	200 54 0.900000 0.015000 0.013000 1500 46 1.000000 1.761000 1.933000 600 52 1.000000 0.052000 0.052000 1.200000 0.023000 0.027000
1560042159442928411	200 54 0.900000 0.023000 0.020000 1500 46 1.000000 1.782000 1.956000 600 53 1.000000 0.053000 0.053000 1.200000 0.030000 0.036000
1560042159951576203	200 54 0.900000 0.016000 0.014000 1500 46 1.100000 2.125000 2.337000 600 52 1.000000 0.053000 0.053000 1.200000 0.032000 0.038000
1560042160460238870	200 54 0.900000 0.015000 0.013000 1500 46 1.000000 1.770000 1.943000 600 52 1.000000 0.053000 0.053000 1.200000 0.026000 0.031000
1560042160978460786	200 54 0.900000 0.015000 0.013000 1500 46 1.000000 1.782000 1.956000 600 52 1.000000 0.053000 0.053000 1.200000 0.024000 0.028000
1560042161487459370	200 54 0.900000 0.015000 0.013000 1500 47 1.000000 1.760000 1.932000 600 52 1.000000 0.053000 0.053000 1.200000 0.026000 0.031000
1560042161996248078	200 54 0.900000 0.016000 0.014000 1500 47 1.000000 1.798000 1.974000 600 53 1.000000 0.053000 0.053000 1.200000 0.027000 0.032000
1560042162513960620	200 54 0.900000 0.015000 0.013000 1500 47 1.000000 1.779000 1.953000 600 52 1.000000 0.053000 0.053000 1.200000 0.025000 0.030000
1560042163024271203	200 54 0.900000 0.015000 0.013000 1500 47 1.000000 1.787000 1.962000 600 52 1.000000 0.053000 0.053000 1.200000 0.025000 0.030000
1560042163532794370	200 54 0.900000 0.015000 0.013000 1500 47 1.000000 1.764000 1.936000 600 52 1.000000 0.053000 0.053000 1.200000 0.030000 0.036000
1560042164041269203	200 54 0.900000 0.017000 0.015000 1500 47 1.000000 1.784000 1.958000 600 53 1.000000 0.053000 0.053000 1.200000 0.025000 0.030000
1560042164549906787	200 54 0.900000 0.015000 0.013000 1500 47 1.100000 1.873000 2.060000 600 52 1.000000 0.053000 0.053000 1.200000 0.025000 0.030000
1560042165058789787	200 54 0.900000 0.015000 0.013000 1500 47 1.000000 1.773000 1.946000 600 52 1.000000 0.053000 0.053000 1.200000 0.023000 0.027000
1560042165567415620	200 54 0.900000 0.015000 0.013000 1500 46 1.000000 1.794000 1.969000 600 52 1.000000 0.053000 0.053000 1.200000 0.029000 0.035000
1560042166077385079	200 54 0.900000 0.015000 0.013000 1500 46 1.000000 1.771000 1.944000 600 53 1.000000 0.053000 0.053000 1.200000 0.023000 0.027000
1560042166586486370	200 54 0.900000 0.019000 0.017000 1500 47 1.100000 1.961000 2.157000 600 52 1.000000 0.053000 0.053000 1.200000 0.024000 0.028000
1560042167095121579	200 54 0.900000 0.015000 0.013000 1500 47 1.000000 1.766000 1.939000 600 52 1.000000 0.053000 0.053000 1.200000 0.024000 0.028000
1560042167603794370	200 54 0.900000 0.015000 0.013000 1500 46 1.000000 1.773000 1.946000 600 52 1.000000 0.053000 0.053000 1.200000 0.025000 0.030000
1560042168112645329	200 54 0.900000 0.015000 0.013000 1500 47 1.000000 1.796000 1.972000 600 52 1.000000 0.053000 0.053000 1.200000 0.025000 0.030000
1560042168621380371	200 54 0.900000 0.018000 0.016000 1500 47 1.000000 1.791000 1.966000 600 53 1.000000 0.053000 0.053000 1.200000 0.034000 0.041000
1560042169130006621	200 54 0.900000 0.015000 0.013000 1500 47 1.000000 1.770000 1.943000 600 52 1.000000 0.053000 0.053000 1.200000 0.025000 0.030000
1560042169638766787	200 54 0.900000 0.015000 0.013000 1500 47 1.000000 1.786000 1.961000 600 52 1.000000 0.053000 0.053000 1.200000 0.025000 0.030000
1560042170147338704	200 54 0.900000 0.014000 0.012000 1500 47 1.000000 1.785000 1.959000 600 52 1.000000 0.053000 0.053000 1.200000 0.024000 0.028000
1560042170658446704	200 54 0.900000 0.017000 0.015000 1500 47 1.000000 1.773000 1.946000 600 54 1.000000 0.053000 0.053000 1.200000 0.025000 0.030000
1560042171167337371	200 54 0.900000 0.022000 0.020000 1500 47 1.000000 1.918000 2.105000 600 53 1.000000 0.053000 0.053000 1.200000 0.024000 0.028000
1560042171675966621	200 54 0.900000 0.015000 0.013000 1500 47 1.000000 1.793000 1.968000 600 53 1.000000 0.053000 0.053000 1.200000 0.029000 0.035000
1560042172192346163	200 54 0.900000 0.015000 0.013000 1500 47 1.000000 1.779000 1.953000 600 52 1.000000 0.053000 0.053000 1.200000 0.024000 0.028000
1560042172706837121	200 54 0.900000 0.015000 0.013000 1500 47 1.000000 1.787000 1.962000 600 53 1.000000 0.053000 0.053000 1.200000 0.024000 0.028000
1560042173215504704	200 54 0.900000 0.023000 0.020000 1500 47 1.100000 2.041000 2.245000 600 53 1.000000 0.053000 0.053000 1.200000 0.028000 0.033000
1560042173724267663	200 54 0.900000 0.016000 0.014000 1500 47 1.000000 1.770000 1.943000 600 53 1.000000 0.053000 0.053000 1.200000 0.030000 0.036000
1560042174232802371	200 54 0.900000 0.015000 0.013000 1500 47 1.000000 1.768000 1.941000 600 52 1.000000 0.053000 0.053000 1.200000 0.024000 0.028000
1560042174741611205	200 54 0.900000 0.015000 0.013000 1500 47 1.000000 1.759000 1.931000 600 52 1.000000 0.053000 0.053000 1.200000 0.023000 0.027000
1560042175250248955	200 54 0.900000 0.015000 0.013000 1500 47 1.000000 1.799000 1.975000 600 53 1.000000 0.053000 0.053000 1.200000 0.029000 0.035000
1560042175758769538	200 54 0.900000 0.015000 0.013000 1500 47 1.000000 1.840000 2.020000 600 53 1.000000 0.053000 0.053000 1.200000 0.024000 0.028000
1560042176267654871	200 54 0.900000 0.015000 0.013000 1500 47 1.000000 1.790000 1.965000 600 52 1.000000 0.053000 0.053000 1.200000 0.024000 0.028000
1560042176776329413	200 54 0.900000 0.014000 0.012000 1500 47 1.000000 1.785000 1.959000 600 52 1.000000 0.053000 0.053000 1.200000 0.024000 0.028000
1560042177287769497	200 54 0.900000 0.015000 0.013000 1500 47 1.000000 1.763000 1.935000 600 53 1.000000 0.053000 0.053000 1.200000 0.024000 0.028000
1560042177806009538	200 54 0.900000 0.025000 0.022000 1500 47 1.100000 1.978000 2.175000 600 53 1.000000 0.053000 0.053000 1.200000 0.025000 0.030000
1560042178316428163	200 54 0.900000 0.015000 0.013000 1500 47 1.000000 1.768000 1.941000 600 52 1.000000 0.053000 0.053000 1.200000 0.024000 0.028000
1560042178824992163	200 54 0.900000 0.015000 0.013000 1500 47 1.000000 1.790000 1.965000 600 52 1.000000 0.053000 0.053000 1.200000 0.024000 0.028000
1560042179333729997	200 54 0.900000 0.015000 0.013000 1500 47 1.000000 1.779000 1.953000 600 52 1.000000 0.053000 0.053000 1.200000 0.025000 0.030000
1560042179842386497	200 54 0.900000 0.023000 0.020000 1500 47 1.100000 2.078000 2.285000 600 53 1.000000 0.053000 0.053000 1.200000 0.030000 0.036000
1560042180351209622	200 54 0.900000 0.015000 0.013000 1500 47 1.000000 1.770000 1.941000 600 53 1.000000 0.053000 0.053000 1.200000 0.025000 0.030000
1560042180859636955	200 54 0.900000 0.015000 0.013000 1500 47 1.000000 1.764000 1.935000 600 52 1.000000 0.053000 0.053000 1.200000 0.025000 0.030000
1560042181368279372	200 54 0.900000 0.014000 0.012000 1500 47 1.000000 1.763000 1.935000 600 52 1.000000 0.053000 0.053000 1.200000 0.024000 0.028000
1560042181886443997	200 54 0.900000 0.023000 0.020000 1500 47 1.000000 1.952000 2.143000 600 53 1.000000 0.053000 0.053000 1.200000 0.025000 0.030000
1560042182395216080	200 54 0.900000 0.015000 0.013000 1500 47 1.000000 1.770000 1.943000 600 53 1.000000 0.053000 0.053000 1.200000 0.032000 0.038000
1560042182903907914	200 54 0.900000 0.015000 0.013000 1500 47 1.000000 1.782000 1.956000 600 53 1.000000 0.053000 0.053000 1.200000 0.025000 0.030000
1560042183412465831	200 54 0.900000 0.015000 0.013000 1500 47 1.000000 1.778000 1.952000 600 52 1.000000 0.053000 0.053000 1.200000 0.025000 0.030000
1560042183924058581	200 54 0.900000 0.015000 0.013000 1500 47 1.000000 1.791000 1.964000 600 53 1.000000 0.053000 0.053000 1.200000 0.025000 0.030000
1560042184433363247	200 54 0.900000 0.020000 0.018000 1500 47 1.100000 2.158000 2.375000 600 53 1.000000 0.053000 0.053000 1.200000 0.035000 0.042000
1560042184941934956	200 54 0.900000 0.015000 0.013000 1500 47 1.000000 1.768000 1.941000 600 53 1.000000 0.053000 0.053000 1.200000 0.025000 0.030000
1560042185450567331	200 54 0.900000 0.015000 0.013000 1500 47 1.000000 1.794000 1.969000 600 53 1.000000 0.053000 0.053000 1.200000 0.025000 0.030000
1560042185959307456	200 54 0.900000 0.015000 0.013000 1500 47 1.000000 1.767000 1.940000 600 52 1.000000 0.053000 0.053000 1.200000 0.025000 0.030000
1560042186467698789	200 55 0.900000 0.018000 0.016000 1500 47 1.100000 2.006000 2.206000 600 53 1.000000 0.053000 0.053000 1.200000 0.026000 0.031000
1560042186976493956	200 54 0.900000 0.014000 0.012000 1500 47 1.000000 1.765000 1.937000 600 53 1.000000 0.053000 0.053000 1.200000 0.025000 0.030000
1560042187485070164	200 54 0.900000 0.015000 0.013000 1500 47 1.000000 1.765000 1.937000 600 53 1.000000 0.053000 0.053000 1.200000 0.024000 0.028000
1560042187995527831	200 54 0.900000 0.015000 0.013000 1500 47 1.000000 1.767000 1.940000 600 52 1.000000 0.053000 0.053000 1.200000 0.024000 0.028000
1560042188507084040	200 54 0.900000 0.015000 0.013000 1500 47 1.000000 1.873000 2.056000 600 53 1.000000 0.053000 0.053000 1.200000 0.030000 0.036000
1560042189015741831	200 54 0.900000 0.015000 0.013000 1500 47 1.000000 1.770000 1.943000 600 53 1.000000 0.053000 0.053000 1.200000 0.032000 0.038000
1560042189524274998	200 54 0.900000 0.015000 0.013000 1500 47 1.000000 1.767000 1.940000 600 53 1.000000 0.053000 0.053000 1.200000 0.024000 0.028000
1560042190033063373	200 54 0.900000 0.015000 0.013000 1500 47 1.000000 1.797000 1.973000 600 52 1.000000 0.053000 0.053000 1.200000 0.025000 0.030000
1560042190541647706	200 54 0.900000 0.015000 0.013000 1500 47 1.100000 1.881000 2.069000 600 53 1.000000 0.053000 0.053000 1.200000 0.025000 0.030000
1560042191050413790	200 54 0.900000 0.015000 0.013000 1500 47 1.100000 1.996000 2.195000 600 53 1.000000 0.053000 0.053000 1.200000 0.025000 0.030000
1560042191559127665	200 54 0.900000 0.015000 0.013000 1500 47 1.000000 1.793000 1.968000 600 53 1.000000 0.053000 0.053000 1.200000 0.024000 0.028000
1560042192067619207	200 54 0.900000 0.015000 0.013000 1500 47 1.000000 1.764000 1.936000 600 53 1.000000 0.053000 0.053000 1.200000 0.025000 0.030000
1560042192576190707	200 54 0.900000 0.015000 0.013000 1500 47 1.000000 1.876000 2.059000 600 53 1.000000 0.053000 0.053000 1.200000 0.024000 0.028000
1560042193088101623	200 55 0.900000 0.015000 0.013000 1500 47 1.000000 1.818000 1.996000 600 54 1.000000 0.053000 0.053000 1.200000 0.025000 0.030000
1560042193605813748	200 54 0.900000 0.015000 0.013000 1500 47 1.000000 1.762000 1.934000 600 53 1.000000 0.053000 0.053000 1.200000 0.028000 0.033000
1560042194114374499	200 54 0.900000 0.015000 0.013000 1500 47 1.000000 1.768000 1.941000 600 53 1.000000 0.053000 0.053000 1.200000 0.025000 0.030000
1560042194623032749	200 54 0.900000 0.015000 0.013000 1500 47 1.000000 1.877000 2.060000 600 53 1.000000 0.053000 0.053000 1.200000 0.029000 0.035000
1560042195135167207	200 54 0.900000 0.015000 0.013000 1500 47 1.000000 1.758000 1.930000 600 53 1.000000 0.053000 0.053000 1.200000 0.024000 0.028000
1560042195644084582	200 55 0.900000 0.017000 0.015000 1500 47 1.000000 1.814000 1.991000 600 53 1.000000 0.053000 0.053000 1.200000 0.035000 0.042000
1560042196152674165	200 54 0.900000 0.014000 0.012000 1500 47 1.000000 1.763000 1.935000 600 53 1.000000 0.053000 0.053000 1.200000 0.024000 0.028000
1560042196661120082	200 54 0.900000 0.015000 0.013000 1500 47 1.000000 1.870000 2.053000 600 53 1.000000 0.053000 0.053000 1.200000 0.029000 0.035000
1560042197169837166	200 54 0.900000 0.015000 0.013000 1500 47 1.000000 1.772000 1.945000 600 53 1.000000 0.053000 0.053000 1.200000 0.024000 0.028000
1560042197678180499	200 54 0.900000 0.015000 0.013000 1500 47 1.000000 1.767000 1.940000 600 53 1.000000 0.053000 0.053000 1.200000 0.025000 0.030000
1560042198186685124	200 54 0.900000 0.018000 0.016000 1500 47 1.100000 1.979000 2.176000 600 53 1.000000 0.053000 0.053000 1.200000 0.025000 0.030000
1560042198695298707	200 54 0.900000 0.015000 0.013000 1500 47 1.000000 1.771000 1.944000 600 53 1.000000 0.053000 0.053000 1.200000 0.025000 0.030000
1560042199203909457	200 54 0.900000 0.015000 0.013000 1500 47 1.000000 1.790000 1.965000 600 53 1.000000 0.053000 0.053000 1.200000 0.024000 0.028000
1560042199717398458	200 54 0.900000 0.015000 0.013000 1500 47 1.000000 1.769000 1.942000 600 54 1.000000 0.053000 0.053000 1.200000 0.024000 0.028000
1560042200226296374	200 54 0.900000 0.020000 0.018000 1500 47 1.100000 2.077000 2.284000 600 53 1.000000 0.053000 0.053000 1.200000 0.034000 0.041000
1560042200735188624	200 54 0.900000 0.015000 0.013000 1500 47 1.000000 1.787000 1.962000 600 53 1.000000 0.053000 0.053000 1.200000 0.027000 0.032000
1560042201243766166	200 54 0.900000 0.015000 0.013000 1500 47 1.000000 1.787000 1.962000 600 53 1.000000 0.053000 0.053000 1.200000 0.024000 0.028000
1560042201752185833	200 54 0.900000 0.015000 0.013000 1500 47 1.000000 1.765000 1.937000 600 53 1.000000 0.053000 0.053000 1.200000 0.024000 0.028000
1560042202260830125	200 55 0.900000 0.018000 0.016000 1500 47 1.100000 1.983000 2.181000 600 53 1.000000 0.053000 0.053000 1.200000 0.036000 0.043000
1560042202769732791	200 54 0.900000 0.015000 0.013000 1500 47 1.000000 1.781000 1.955000 600 53 1.000000 0.053000 0.053000 1.200000 0.029000 0.035000
1560042203278214166	200 54 0.900000 0.015000 0.013000 1500 47 1.000000 1.771000 1.944000 600 52 1.000000 0.053000 0.053000 1.200000 0.024000 0.028000
1560042203786891541	200 54 0.900000 0.015000 0.013000 1500 47 1.000000 1.795000 1.970000 600 53 1.000000 0.053000 0.053000 1.200000 0.024000 0.028000
1560042204295396041	200 54 0.900000 0.017000 0.015000 1500 47 1.000000 1.872000 2.055000 600 53 1.000000 0.053000 0.053000 1.200000 0.032000 0.038000
1560042204803958958	200 54 0.900000 0.017000 0.015000 1500 47 1.100000 2.019000 2.220000 600 53 1.000000 0.053000 0.053000 1.200000 0.025000 0.030000
1560042205312642125	200 54 0.900000 0.015000 0.013000 1500 47 1.000000 1.794000 1.969000 600 53 1.000000 0.053000 0.053000 1.200000 0.025000 0.030000
1560042205828630500	200 54 0.900000 0.015000 0.013000 1500 47 1.000000 1.767000 1.940000 600 53 1.000000 0.053000 0.053000 1.200000 0.024000 0.028000
1560042206338765917	200 54 0.900000 0.015000 0.013000 1500 47 1.000000 1.794000 1.969000 600 54 1.000000 0.053000 0.053000 1.200000 0.025000 0.030000
1560042206847500875	200 55 0.900000 0.018000 0.016000 1500 47 1.100000 2.087000 2.295000 600 53 1.000000 0.053000 0.053000 1.200000 0.029000 0.035000
1560042207356223667	200 54 0.900000 0.015000 0.013000 1500 47 1.000000 1.786000 1.961000 600 53 1.000000 0.053000 0.053000 1.200000 0.025000 0.030000
1560042207864668250	200 54 0.900000 0.015000 0.013000 1500 47 1.000000 1.771000 1.944000 600 52 1.000000 0.053000 0.053000 1.200000 0.024000 0.028000
1560042208373348542	200 54 0.900000 0.015000 0.013000 1500 47 1.000000 1.791000 1.966000 600 53 1.000000 0.053000 0.053000 1.200000 0.024000 0.028000
1560042208882094084	200 55 0.900000 0.017000 0.015000 1500 47 1.100000 2.122000 2.334000 600 53 1.000000 0.053000 0.053000 1.200000 0.037000 0.044000
1560042209390932834	200 54 0.900000 0.015000 0.013000 1500 47 1.000000 1.776000 1.950000 600 53 1.000000 0.053000 0.053000 1.200000 0.024000 0.028000
1560042209899640250	200 54 0.900000 0.015000 0.013000 1500 47 1.000000 1.797000 1.973000 600 53 1.000000 0.053000 0.053000 1.200000 0.024000 0.028000
1560042210408076834	200 54 0.900000 0.015000 0.013000 1500 47 1.000000 1.762000 1.934000 600 53 1.000000 0.053000 0.053000 1.200000 0.024000 0.028000
1560042210916653417	200 55 0.900000 0.019000 0.017000 1500 47 1.000000 1.947000 2.137000 600 53 1.000000 0.053000 0.053000 1.200000 0.043000 0.051000
1560042211425322209	200 54 0.900000 0.015000 0.013000 1500 47 1.000000 1.759000 1.931000 600 53 1.000000 0.053000 0.053000 1.200000 0.024000 0.028000
1560042211933768126	200 54 0.900000 0.015000 0.013000 1500 47 1.000000 1.767000 1.940000 600 52 1.000000 0.053000 0.053000 1.200000 0.024000 0.028000
1560042212442164209	200 54 0.900000 0.015000 0.013000 1500 47 1.000000 1.798000 1.974000 600 52 1.000000 0.053000 0.053000 1.200000 0.025000 0.030000
1560042212974833042	200 55 0.900000 0.014000 0.012000 1500 47 1.000000 1.782000 1.956000 600 54 1.000000 0.053000 0.053000 1.200000 0.024000 0.028000
1560042213489802668	200 54 0.900000 0.021000 0.019000 1500 47 1.100000 2.145000 2.359000 600 53 1.000000 0.053000 0.053000 1.200000 0.031000 0.037000
1560042213998447584	200 55 0.900000 0.015000 0.013000 1500 47 1.000000 1.781000 1.955000 600 53 1.000000 0.053000 0.053000 1.200000 0.024000 0.028000
1560042214507133168	200 54 0.900000 0.015000 0.013000 1500 47 1.000000 1.773000 1.946000 600 53 1.000000 0.053000 0.053000 1.200000 0.024000 0.028000
1560042215019794501	200 54 0.900000 0.015000 0.013000 1500 47 1.000000 1.792000 1.967000 600 53 1.000000 0.053000 0.053000 1.200000 0.024000 0.028000
1560042215528707459	200 55 0.900000 0.018000 0.016000 1500 47 1.100000 2.171000 2.390000 600 53 1.000000 0.053000 0.053000 1.200000 0.035000 0.042000
1560042216037547418	200 54 0.900000 0.015000 0.013000 1500 47 1.000000 1.766000 1.939000 600 53 1.000000 0.053000 0.053000 1.200000 0.024000 0.028000
1560042216546068168	200 54 0.900000 0.015000 0.013000 1500 47 1.000000 1.796000 1.972000 600 52 1.000000 0.053000 0.053000 1.200000 0.024000 0.028000
1560042217058005335	200 54 0.900000 0.015000 0.013000 1500 47 1.000000 1.765000 1.937000 600 53 1.000000 0.053000 0.053000 1.200000 0.024000 0.028000
1560042217566690876	200 55 0.900000 0.017000 0.015000 1500 47 1.100000 1.902000 2.092000 600 53 1.000000 0.053000 0.053000 1.200000 0.038000 0.045000
1560042218075553418	200 54 0.900000 0.015000 0.013000 1500 47 1.000000 1.765000 1.937000 600 53 1.000000 0.053000 0.053000 1.200000 0.025000 0.030000
1560042218584129751	200 54 0.900000 0.015000 0.013000 1500 47 1.000000 1.764000 1.936000 600 53 1.000000 0.053000 0.053000 1.200000 0.025000 0.030000
1560042219096163752	200 54 0.900000 0.015000 0.013000 1500 47 1.000000 1.770000 1.943000 600 53 1.000000 0.053000 0.053000 1.200000 0.024000 0.028000
1560042219609864543	200 54 0.900000 0.015000 0.013000 1500 47 1.000000 1.761000 1.933000 600 54 1.000000 0.053000 0.053000 1.200000 0.030000 0.036000
1560042220118697127	200 55 0.900000 0.021000 0.019000 1500 47 1.000000 1.761000 1.933000 600 53 1.000000 0.053000 0.053000 1.200000 0.031000 0.037000
1560042220627251793	200 55 0.900000 0.015000 0.013000 1500 47 1.000000 1.784000 1.958000 600 52 1.000000 0.053000 0.053000 1.200000 0.025000 0.030000
1560042221135834252	200 54 0.900000 0.015000 0.013000 1500 47 1.000000 1.776000 1.950000 600 53 1.000000 0.053000 0.053000 1.200000 0.025000 0.030000
1560042221644945877	200 54 0.900000 0.015000 0.013000 1500 47 1.000000 1.906000 2.092000 600 53 1.000000 0.053000 0.053000 1.200000 0.029000 0.035000
1560042222153550919	200 55 0.900000 0.015000 0.013000 1500 47 1.100000 2.025000 2.227000 600 53 1.000000 0.053000 0.053000 1.200000 0.027000 0.032000
1560042222662122835	200 54 0.900000 0.015000 0.013000 1500 47 1.000000 1.773000 1.946000 600 53 1.000000 0.053000 0.053000 1.200000 0.024000 0.028000
1560042223170904169	200 54 0.900000 0.015000 0.013000 1500 47 1.000000 1.764000 1.936000 600 53 1.000000 0.053000 0.053000 1.200000 0.025000 0.030000
1560042223679806377	200 54 0.900000 0.015000 0.013000 1500 47 1.000000 1.878000 2.062000 600 53 1.000000 0.053000 0.053000 1.200000 0.029000 0.035000
1560042224188577252	200 55 0.900000 0.015000 0.013000 1500 47 1.000000 1.877000 2.060000 600 54 1.000000 0.053000 0.053000 1.200000 0.025000 0.030000
1560042224697095669	200 55 0.900000 0.015000 0.013000 1500 47 1.000000 1.761000 1.933000 600 53 1.000000 0.053000 0.053000 1.200000 0.028000 0.033000
1560042225205644752	200 54 0.900000 0.015000 0.013000 1500 47 1.000000 1.760000 1.932000 600 53 1.000000 0.053000 0.053000 1.200000 0.024000 0.028000
1560042225714720044	200 55 0.900000 0.014000 0.012000 1500 47 1.000000 1.766000 1.939000 600 53 1.000000 0.053000 0.053000 1.200000 0.029000 0.035000
1560042226226988752	200 54 0.900000 0.015000 0.013000 1500 47 1.000000 1.769000 1.942000 600 53 1.000000 0.053000 0.053000 1.200000 0.025000 0.030000
1560042226735691544	200 55 0.900000 0.015000 0.013000 1500 47 1.000000 1.764000 1.936000 600 53 1.000000 0.053000 0.053000 1.200000 0.034000 0.041000
1560042227244492878	200 54 0.900000 0.014000 0.012000 1500 47 1.000000 1.766000 1.939000 600 53 1.000000 0.053000 0.053000 1.200000 0.024000 0.028000
1560042227753284544	200 54 0.900000 0.014000 0.012000 1500 47 1.000000 1.901000 2.087000 600 53 1.000000 0.053000 0.053000 1.200000 0.025000 0.030000
1560042228261855669	200 54 0.900000 0.015000 0.013000 1500 47 1.000000 1.773000 1.946000 600 53 1.000000 0.053000 0.053000 1.200000 0.025000 0.030000
1560042228770345211	200 55 0.900000 0.014000 0.012000 1500 47 1.100000 1.983000 2.181000 600 53 1.000000 0.053000 0.053000 1.200000 0.024000 0.028000
1560042229279059044	200 54 0.900000 0.016000 0.014000 1500 47 1.000000 1.760000 1.932000 600 53 1.000000 0.053000 0.053000 1.200000 0.025000 0.030000
1560042229787668586	200 54 0.900000 0.015000 0.013000 1500 47 1.000000 1.878000 2.062000 600 53 1.000000 0.053000 0.053000 1.200000 0.030000 0.036000
1560042230296392045	200 54 0.900000 0.015000 0.013000 1500 47 1.000000 1.763000 1.935000 600 53 1.000000 0.053000 0.053000 1.200000 0.024000 0.028000
1560042230808595378	200 55 0.900000 0.015000 0.013000 1500 47 1.000000 1.793000 1.968000 600 54 1.000000 0.053000 0.053000 1.200000 0.025000 0.030000
1560042231317172795	200 55 0.900000 0.017000 0.015000 1500 47 1.000000 1.758000 1.930000 600 53 1.000000 0.053000 0.053000 1.200000 0.031000 0.037000
1560042231826082086	200 55 0.900000 0.015000 0.013000 1500 47 1.000000 1.784000 1.958000 600 53 1.000000 0.053000 0.053000 1.200000 0.029000 0.035000
1560042232334772836	200 54 0.900000 0.014000 0.012000 1500 47 1.000000 1.766000 1.939000 600 53 1.000000 0.053000 0.053000 1.200000 0.025000 0.030000
1560042232843308837	200 54 0.900000 0.015000 0.013000 1500 47 1.000000 1.765000 1.937000 600 53 1.000000 0.053000 0.053000 1.200000 0.024000 0.028000
1560042233351792212	200 55 0.900000 0.017000 0.015000 1500 47 1.100000 2.038000 2.241000 600 53 1.000000 0.053000 0.053000 1.200000 0.038000 0.045000
1560042233860646712	200 55 0.900000 0.016000 0.014000 1500 47 1.100000 1.878000 2.065000 600 53 1.000000 0.053000 0.053000 1.200000 0.029000 0.035000
1560042234369227295	200 55 0.900000 0.014000 0.012000 1500 47 1.000000 1.794000 1.969000 600 53 1.000000 0.053000 0.053000 1.200000 0.024000 0.028000
1560042234877740628	200 54 0.900000 0.015000 0.013000 1500 47 1.000000 1.764000 1.936000 600 53 1.000000 0.053000 0.053000 1.200000 0.024000 0.028000
1560042235386493670	200 55 0.900000 0.015000 0.013000 1500 47 1.000000 1.778000 1.952000 600 53 1.000000 0.053000 0.053000 1.200000 0.025000 0.030000
1560042235895599712	200 55 0.900000 0.019000 0.017000 1500 47 1.000000 2.005000 2.201000 600 53 1.000000 0.053000 0.053000 1.200000 0.030000 0.036000
1560042236404261087	200 54 0.900000 0.015000 0.013000 1500 47 1.000000 1.767000 1.940000 600 53 1.000000 0.053000 0.053000 1.200000 0.025000 0.030000
1560042236912746795	200 55 0.900000 0.015000 0.013000 1500 47 1.000000 1.784000 1.958000 600 53 1.000000 0.053000 0.053000 1.200000 0.025000 0.030000
1560042237424485129	200 55 0.900000 0.015000 0.013000 1500 47 1.000000 1.786000 1.961000 600 54 1.000000 0.053000 0.053000 1.200000 0.024000 0.028000
1560042237933354379	200 55 0.900000 0.021000 0.019000 1500 47 1.100000 2.073000 2.280000 600 53 1.000000 0.053000 0.053000 1.200000 0.039000 0.047000
1560042238441928796	200 54 0.900000 0.015000 0.013000 1500 47 1.000000 1.779000 1.953000 600 53 1.000000 0.053000 0.053000 1.200000 0.025000 0.030000
1560042238950702504	200 54 0.900000 0.015000 0.013000 1500 47 1.000000 1.788000 1.963000 600 53 1.000000 0.053000 0.053000 1.200000 0.023000 0.027000
1560042239459112587	200 54 0.900000 0.015000 0.013000 1500 47 1.000000 1.770000 1.943000 600 53 1.000000 0.053000 0.053000 1.200000 0.024000 0.028000
1560042239967610171	200 55 0.900000 0.017000 0.015000 1500 47 1.100000 2.015000 2.216000 600 53 1.000000 0.053000 0.053000 1.200000 0.040000 0.048000
1560042240476107879	200 55 0.900000 0.015000 0.013000 1500 47 1.000000 1.780000 1.954000 600 53 1.000000 0.053000 0.053000 1.200000 0.024000 0.028000
1560042240984794921	200 55 0.900000 0.015000 0.013000 1500 47 1.000000 1.767000 1.940000 600 53 1.000000 0.053000 0.053000 1.200000 0.024000 0.028000
1560042241493462046	200 54 0.900000 0.015000 0.013000 1500 47 1.000000 1.765000 1.937000 600 53 1.000000 0.053000 0.053000 1.200000 0.023000 0.027000
1560042242001793421	200 55 0.900000 0.014000 0.012000 1500 47 1.000000 1.772000 1.945000 600 54 1.000000 0.053000 0.053000 1.200000 0.024000 0.028000
1560042242510403629	200 55 0.900000 0.018000 0.016000 1500 47 1.100000 2.084000 2.292000 600 53 1.000000 0.053000 0.053000 1.200000 0.028000 0.033000
1560042243019149796	200 55 0.900000 0.015000 0.013000 1500 47 1.000000 1.790000 1.965000 600 53 1.000000 0.053000 0.053000 1.200000 0.025000 0.030000
1560042243527560754	200 54 0.900000 0.015000 0.013000 1500 47 1.000000 1.769000 1.942000 600 53 1.000000 0.053000 0.053000 1.200000 0.024000 0.028000
1560042244035829713	200 54 0.900000 0.015000 0.013000 1500 47 1.000000 1.798000 1.974000 600 54 1.000000 0.053000 0.053000 1.200000 0.029000 0.035000
1560042244544756421	200 55 0.900000 0.018000 0.016000 1500 47 1.100000 2.089000 2.297000 600 53 1.000000 0.053000 0.053000 1.200000 0.030000 0.036000
1560042245053409338	200 55 0.900000 0.015000 0.013000 1500 47 1.000000 1.776000 1.950000 600 53 1.000000 0.053000 0.053000 1.200000 0.024000 0.028000
1560042245561934796	200 55 0.900000 0.015000 0.013000 1500 47 1.000000 1.791000 1.966000 600 53 1.000000 0.053000 0.053000 1.200000 0.024000 0.028000
1560042246070960130	200 54 0.900000 0.016000 0.014000 1500 47 1.000000 1.777000 1.951000 600 53 1.000000 0.053000 0.053000 1.200000 0.029000 0.035000
1560042246579799671	200 55 0.900000 0.017000 0.015000 1500 47 1.100000 2.053000 2.258000 600 53 1.000000 0.053000 0.053000 1.200000 0.038000 0.045000
1560042247088421338	200 55 0.900000 0.015000 0.013000 1500 47 1.000000 1.756000 1.928000 600 53 1.000000 0.053000 0.053000 1.200000 0.024000 0.028000
1560042247596854213	200 55 0.900000 0.015000 0.013000 1500 47 1.000000 1.761000 1.933000 600 53 1.000000 0.053000 0.053000 1.200000 0.023000 0.027000
1560042248106691797	200 55 0.900000 0.015000 0.013000 1500 47 1.000000 1.881000 2.065000 600 53 1.000000 0.053000 0.053000 1.200000 0.030000 0.036000
1560042248615124047	200 55 0.900000 0.017000 0.015000 1500 47 1.000000 1.871000 2.054000 600 54 1.000000 0.053000 0.053000 1.200000 0.035000 0.042000
1560042249124121547	200 55 0.900000 0.022000 0.020000 1500 47 1.100000 1.980000 2.178000 600 53 1.000000 0.053000 0.053000 1.200000 0.028000 0.033000
1560042249632657005	200 54 0.900000 0.015000 0.013000 1500 47 1.000000 1.794000 1.969000 600 53 1.000000 0.053000 0.053000 1.200000 0.025000 0.030000
1560042250141185172	200 55 0.900000 0.015000 0.013000 1500 47 1.000000 1.770000 1.943000 600 53 1.000000 0.053000 0.053000 1.200000 0.025000 0.030000
1560042250653094797	200 54 0.900000 0.015000 0.013000 1500 47 1.000000 1.785000 1.959000 600 53 1.000000 0.053000 0.053000 1.200000 0.024000 0.028000
1560042251162441755	200 55 0.900000 0.023000 0.020000 1500 47 1.100000 2.104000 2.314000 600 53 1.000000 0.053000 0.053000 1.200000 0.035000 0.042000
1560042251671046214	200 55 0.900000 0.015000 0.013000 1500 47 1.000000 1.777000 1.951000 600 53 1.000000 0.053000 0.053000 1.200000 0.023000 0.027000
1560042252179797839	200 55 0.900000 0.015000 0.013000 1500 47 1.000000 1.777000 1.951000 600 53 1.000000 0.053000 0.053000 1.200000 0.028000 0.033000
1560042252688525714	200 55 0.900000 0.015000 0.013000 1500 47 1.000000 1.790000 1.965000 600 53 1.000000 0.053000 0.053000 1.200000 0.024000 0.028000
1560042253196937422	200 55 0.900000 0.014000 0.012000 1500 47 1.100000 1.938000 2.131000 600 53 1.000000 0.053000 0.053000 1.200000 0.038000 0.045000
1560042253705619547	200 55 0.900000 0.015000 0.013000 1500 47 1.000000 1.762000 1.934000 600 53 1.000000 0.053000 0.053000 1.200000 0.024000 0.028000
1560042254214213714	200 55 0.900000 0.015000 0.013000 1500 47 1.000000 1.803000 1.979000 600 53 1.000000 0.053000 0.053000 1.200000 0.029000 0.035000
1560042254723073131	200 54 0.900000 0.015000 0.013000 1500 47 1.000000 1.767000 1.940000 600 53 1.000000 0.053000 0.053000 1.200000 0.024000 0.028000
1560042255232609548	200 55 0.900000 0.015000 0.013000 1500 47 1.000000 1.793000 1.968000 600 54 1.000000 0.053000 0.053000 1.200000 0.032000 0.038000
1560042255741107506	200 55 0.900000 0.015000 0.013000 1500 47 1.000000 1.768000 1.941000 600 53 1.000000 0.053000 0.053000 1.200000 0.024000 0.028000
1560042256249620798	200 55 0.900000 0.015000 0.013000 1500 47 1.000000 1.773000 1.946000 600 53 1.000000 0.053000 0.053000 1.200000 0.024000 0.028000
1560042256758409673	200 55 0.900000 0.015000 0.013000 1500 47 1.000000 1.794000 1.969000 600 53 1.000000 0.053000 0.053000 1.200000 0.030000 0.036000
1560042257267144589	200 54 0.900000 0.015000 0.013000 1500 47 1.000000 1.771000 1.944000 600 53 1.000000 0.053000 0.053000 1.200000 0.025000 0.030000
1560042257776005131	200 55 0.900000 0.022000 0.020000 1500 47 1.100000 2.016000 2.217000 600 53 1.000000 0.053000 0.053000 1.200000 0.025000 0.030000
1560042258293692590	200 55 0.900000 0.015000 0.013000 1500 47 1.000000 1.795000 1.970000 600 53 1.000000 0.053000 0.053000 1.200000 0.025000 0.030000
1560042258802821756	200 55 0.900000 0.015000 0.013000 1500 47 1.000000 1.779000 1.953000 600 53 1.000000 0.053000 0.053000 1.200000 0.031000 0.037000
1560042259311442423	200 55 0.900000 0.015000 0.013000 1500 47 1.000000 1.767000 1.940000 600 53 1.000000 0.053000 0.053000 1.200000 0.025000 0.030000
1560042259819806423	200 55 0.900000 0.015000 0.013000 1500 47 1.000000 1.860000 2.042000 600 53 1.000000 0.053000 0.053000 1.200000 0.024000 0.028000
1560042260328436965	200 55 0.900000 0.017000 0.015000 1500 47 1.000000 1.764000 1.936000 600 53 1.000000 0.053000 0.053000 1.200000 0.029000 0.035000
1560042260837261590	200 55 0.900000 0.015000 0.013000 1500 47 1.000000 1.759000 1.931000 600 53 1.000000 0.053000 0.053000 1.200000 0.026000 0.031000
1560042261345855548	200 55 0.900000 0.015000 0.013000 1500 47 1.000000 1.761000 1.933000 600 53 1.000000 0.053000 0.053000 1.200000 0.024000 0.028000
1560042261857289090	200 55 0.900000 0.015000 0.013000 1500 47 1.000000 1.765000 1.937000 600 53 1.000000 0.053000 0.053000 1.200000 0.025000 0.030000
1560042262366906382	200 55 0.900000 0.018000 0.016000 1500 47 1.100000 1.871000 2.058000 600 53 1.000000 0.053000 0.053000 1.200000 0.037000 0.044000
1560042262875638132	200 55 0.900000 0.015000 0.013000 1500 47 1.000000 1.756000 1.928000 600 53 1.000000 0.053000 0.053000 1.200000 0.025000 0.030000
1560042263384382673	200 55 0.900000 0.015000 0.013000 1500 47 1.000000 1.788000 1.963000 600 53 1.000000 0.053000 0.053000 1.200000 0.024000 0.028000
1560042263892730424	200 55 0.900000 0.015000 0.013000 1500 47 1.000000 1.769000 1.942000 600 53 1.000000 0.053000 0.053000 1.200000 0.025000 0.030000
1560042264401377090	200 55 0.900000 0.019000 0.017000 1500 47 1.100000 1.958000 2.153000 600 53 1.000000 0.053000 0.053000 1.200000 0.024000 0.028000
1560042264910077215	200 55 0.900000 0.015000 0.013000 1500 47 1.000000 1.783000 1.957000 600 53 1.000000 0.053000 0.053000 1.200000 0.032000 0.038000
1560042265419008174	200 55 0.900000 0.015000 0.013000 1500 47 1.000000 1.761000 1.933000 600 53 1.000000 0.053000 0.053000 1.200000 0.025000 0.030000
1560042265927821174	200 55 0.900000 0.015000 0.013000 1500 47 1.000000 1.764000 1.936000 600 53 1.000000 0.053000 0.053000 1.200000 0.024000 0.028000
1560042266439478549	200 55 0.900000 0.015000 0.013000 1500 47 1.000000 1.765000 1.937000 600 54 1.000000 0.053000 0.053000 1.200000 0.025000 0.030000
1560042266948674966	200 55 0.900000 0.027000 0.024000 1500 47 1.000000 1.784000 1.958000 600 53 1.000000 0.053000 0.053000 1.200000 0.040000 0.048000
1560042267457226674	200 55 0.900000 0.015000 0.013000 1500 47 1.000000 1.762000 1.934000 600 53 1.000000 0.053000 0.053000 1.200000 0.025000 0.030000
1560042267966090591	200 55 0.900000 0.015000 0.013000 1500 47 1.000000 1.764000 1.936000 600 53 1.000000 0.053000 0.053000 1.200000 0.024000 0.028000
1560042268474842007	200 55 0.900000 0.014000 0.012000 1500 47 1.000000 1.765000 1.937000 600 53 1.000000 0.053000 0.053000 1.200000 0.025000 0.030000
1560042268983653132	200 55 0.900000 0.028000 0.025000 1500 47 1.100000 1.854000 2.039000 600 53 1.000000 0.053000 0.053000 1.200000 0.040000 0.048000
1560042269492468633	200 55 0.900000 0.015000 0.013000 1500 47 1.000000 1.771000 1.944000 600 53 1.000000 0.053000 0.053000 1.200000 0.024000 0.028000
1560042270000899716	200 55 0.900000 0.015000 0.013000 1500 47 1.000000 1.783000 1.957000 600 53 1.000000 0.053000 0.053000 1.200000 0.024000 0.028000
1560042270509759716	200 55 0.900000 0.015000 0.013000 1500 47 1.000000 1.782000 1.956000 600 53 1.000000 0.053000 0.053000 1.200000 0.024000 0.028000
1560042271018404508	200 55 0.900000 0.016000 0.014000 1500 47 1.000000 1.773000 1.946000 600 54 1.000000 0.053000 0.053000 1.200000 0.024000 0.028000
1560042271527307924	200 55 0.900000 0.028000 0.025000 1500 47 1.100000 2.045000 2.249000 600 53 1.000000 0.053000 0.053000 1.200000 0.032000 0.038000
1560042272035918883	200 55 0.900000 0.015000 0.013000 1500 47 1.000000 1.773000 1.946000 600 53 1.000000 0.053000 0.053000 1.200000 0.024000 0.028000
1560042272544472466	200 55 0.900000 0.015000 0.013000 1500 47 1.000000 1.775000 1.948000 600 53 1.000000 0.053000 0.053000 1.200000 0.025000 0.030000
1560042273055785216	200 55 0.900000 0.015000 0.013000 1500 47 1.000000 1.792000 1.967000 600 54 1.000000 0.053000 0.053000 1.200000 0.024000 0.028000
1560042273574083425	200 55 0.900000 0.031000 0.028000 1500 47 1.100000 2.149000 2.366000 600 53 1.000000 0.053000 0.053000 1.200000 0.039000 0.047000
1560042274084411841	200 55 0.900000 0.015000 0.013000 1500 47 1.000000 1.792000 1.967000 600 53 1.000000 0.053000 0.053000 1.200000 0.025000 0.030000
1560042274593189591	200 55 0.900000 0.015000 0.013000 1500 47 1.000000 1.774000 1.947000 600 53 1.000000 0.053000 0.053000 1.200000 0.024000 0.028000
1560042275101770633	200 55 0.900000 0.014000 0.012000 1500 47 1.000000 1.781000 1.955000 600 53 1.000000 0.053000 0.053000 1.200000 0.025000 0.030000
1560042275610419258	200 55 0.900000 0.022000 0.020000 1500 47 1.100000 2.080000 2.288000 600 53 1.000000 0.053000 0.053000 1.200000 0.040000 0.048000
1560042276119127175	200 55 0.900000 0.015000 0.013000 1500 47 1.000000 1.767000 1.940000 600 53 1.000000 0.053000 0.053000 1.200000 0.024000 0.028000
1560042276627832758	200 55 0.900000 0.015000 0.013000 1500 47 1.000000 1.788000 1.963000 600 53 1.000000 0.053000 0.053000 1.200000 0.024000 0.028000
1560042277136245717	200 55 0.900000 0.015000 0.013000 1500 47 1.000000 1.781000 1.955000 600 53 1.000000 0.053000 0.053000 1.200000 0.023000 0.027000
1560042277644849925	200 55 0.900000 0.015000 0.013000 1500 47 1.100000 1.976000 2.173000 600 54 1.000000 0.053000 0.053000 1.200000 0.035000 0.042000
1560042278153296800	200 55 0.900000 0.019000 0.017000 1500 47 1.100000 2.056000 2.261000 600 53 1.000000 0.053000 0.053000 1.200000 0.027000 0.032000
1560042278661869634	200 55 0.900000 0.015000 0.013000 1500 47 1.000000 1.770000 1.943000 600 53 1.000000 0.053000 0.053000 1.200000 0.024000 0.028000
1560042279170604384	200 54 0.900000 0.015000 0.013000 1500 47 1.000000 1.783000 1.957000 600 53 1.000000 0.053000 0.053000 1.200000 0.025000 0.030000
1560042279679151717	200 55 0.900000 0.015000 0.013000 1500 47 1.000000 1.787000 1.962000 600 55 1.000000 0.053000 0.053000 1.200000 0.029000 0.035000
1560042280187834800	200 55 0.900000 0.019000 0.017000 1500 47 1.100000 2.105000 2.315000 600 53 1.000000 0.053000 0.053000 1.200000 0.029000 0.035000
1560042280696306259	200 55 0.900000 0.015000 0.013000 1500 47 1.000000 1.791000 1.966000 600 53 1.000000 0.053000 0.053000 1.200000 0.025000 0.030000
1560042281213851342	200 55 0.900000 0.015000 0.013000 1500 47 1.000000 1.770000 1.943000 600 53 1.000000 0.053000 0.053000 1.200000 0.024000 0.028000
1560042281724065134	200 55 0.900000 0.015000 0.013000 1500 47 1.000000 1.786000 1.961000 600 53 1.000000 0.053000 0.053000 1.200000 0.029000 0.035000
1560042282242133509	200 55 0.900000 0.021000 0.019000 1500 47 1.100000 2.053000 2.258000 600 53 1.000000 0.053000 0.053000 1.200000 0.035000 0.042000
1560042282752512301	200 55 0.900000 0.015000 0.013000 1500 47 1.000000 1.789000 1.964000 600 53 1.000000 0.053000 0.053000 1.200000 0.024000 0.028000
1560042283261011343	200 55 0.900000 0.015000 0.013000 1500 47 1.000000 1.768000 1.941000 600 53 1.000000 0.053000 0.053000 1.200000 0.023000 0.027000
1560042283769619968	200 55 0.900000 0.015000 0.013000 1500 47 1.000000 1.876000 2.059000 600 53 1.000000 0.053000 0.053000 1.200000 0.028000 0.033000
1560042284278060509	200 55 0.900000 0.015000 0.013000 1500 47 1.100000 1.916000 2.107000 600 53 1.000000 0.053000 0.053000 1.200000 0.037000 0.044000
1560042284786920176	200 55 0.900000 0.015000 0.013000 1500 47 1.000000 1.775000 1.948000 600 53 1.000000 0.053000 0.053000 1.200000 0.024000 0.028000
1560042285295443509	200 55 0.900000 0.015000 0.013000 1500 47 1.000000 1.764000 1.936000 600 53 1.000000 0.053000 0.053000 1.200000 0.023000 0.027000
1560042285804356051	200 55 0.900000 0.015000 0.013000 1500 47 1.000000 1.767000 1.940000 600 53 1.000000 0.053000 0.053000 1.200000 0.024000 0.028000
1560042286316761760	200 55 0.900000 0.015000 0.013000 1500 47 1.000000 1.787000 1.962000 600 54 1.000000 0.053000 0.053000 1.200000 0.024000 0.028000
1560042286825625260	200 55 0.900000 0.025000 0.022000 1500 47 1.100000 2.073000 2.280000 600 53 1.000000 0.053000 0.053000 1.200000 0.033000 0.039000
1560042287334254468	200 55 0.900000 0.015000 0.013000 1500 47 1.000000 1.781000 1.955000 600 53 1.000000 0.053000 0.053000 1.200000 0.025000 0.030000
1560042287843016385	200 55 0.900000 0.015000 0.013000 1500 47 1.000000 1.781000 1.955000 600 53 1.000000 0.053000 0.053000 1.200000 0.026000 0.031000
1560042288351693718	200 55 0.900000 0.015000 0.013000 1500 47 1.000000 1.787000 1.962000 600 53 1.000000 0.053000 0.053000 1.200000 0.023000 0.027000
1560042288860336593	200 55 0.900000 0.024000 0.021000 1500 47 1.100000 2.004000 2.204000 600 53 1.000000 0.053000 0.053000 1.200000 0.039000 0.047000
1560042289368797552	200 55 0.900000 0.015000 0.013000 1500 47 1.000000 1.788000 1.963000 600 53 1.000000 0.053000 0.053000 1.200000 0.024000 0.028000
1560042289877613052	200 55 0.900000 0.015000 0.013000 1500 47 1.000000 1.781000 1.955000 600 53 1.000000 0.053000 0.053000 1.200000 0.029000 0.035000
1560042290386248677	200 55 0.900000 0.015000 0.013000 1500 47 1.000000 1.767000 1.940000 600 53 1.000000 0.053000 0.053000 1.200000 0.023000 0.027000
1560042290894666385	200 55 0.900000 0.015000 0.013000 1500 47 1.100000 1.856000 2.041000 600 54 1.000000 0.053000 0.053000 1.200000 0.034000 0.041000
1560042291403547552	200 55 0.900000 0.016000 0.014000 1500 47 1.000000 1.768000 1.941000 600 53 1.000000 0.053000 0.053000 1.200000 0.024000 0.028000
1560042291912238510	200 55 0.900000 0.015000 0.013000 1500 47 1.100000 1.881000 2.069000 600 53 1.000000 0.053000 0.053000 1.200000 0.029000 0.035000
1560042292430581885	200 55 0.900000 0.015000 0.013000 1500 47 1.000000 1.764000 1.936000 600 53 1.000000 0.053000 0.053000 1.200000 0.024000 0.028000
1560042292944130260	200 55 0.900000 0.015000 0.013000 1500 47 1.000000 1.764000 1.936000 600 54 1.000000 0.053000 0.053000 1.200000 0.027000 0.032000
1560042293462357177	200 55 0.900000 0.022000 0.020000 1500 47 1.100000 2.099000 2.310000 600 53 1.000000 0.053000 0.053000 1.200000 0.037000 0.044000
1560042293971232219	200 55 0.900000 0.015000 0.013000 1500 47 1.000000 1.771000 1.944000 600 53 1.000000 0.053000 0.053000 1.200000 0.026000 0.031000
1560042294479916844	200 55 0.900000 0.015000 0.013000 1500 47 1.000000 1.788000 1.963000 600 53 1.000000 0.053000 0.053000 1.200000 0.024000 0.028000
1560042294988667427	200 55 0.900000 0.015000 0.013000 1500 47 1.000000 1.767000 1.940000 600 53 1.000000 0.053000 0.053000 1.200000 0.024000 0.028000
1560042295497329511	200 55 0.900000 0.021000 0.019000 1500 47 1.100000 1.964000 2.160000 600 53 1.000000 0.053000 0.053000 1.200000 0.024000 0.028000
1560042296006081636	200 55 0.900000 0.015000 0.013000 1500 47 1.000000 1.784000 1.958000 600 53 1.000000 0.053000 0.053000 1.200000 0.027000 0.032000
1560042296514653011	200 55 0.900000 0.015000 0.013000 1500 47 1.000000 1.764000 1.936000 600 53 1.000000 0.053000 0.053000 1.200000 0.025000 0.030000
1560042297023231677	200 55 0.900000 0.015000 0.013000 1500 47 1.000000 1.757000 1.929000 600 53 1.000000 0.053000 0.053000 1.200000 0.024000 0.028000
1560042297535064678	200 55 0.900000 0.015000 0.013000 1500 47 1.000000 1.788000 1.963000 600 54 1.000000 0.053000 0.053000 1.200000 0.025000 0.030000
1560042298044412178	200 55 0.900000 0.019000 0.017000 1500 47 1.000000 1.880000 2.064000 600 53 1.000000 0.053000 0.053000 1.200000 0.033000 0.039000
1560042298553041761	200 55 0.900000 0.015000 0.013000 1500 47 1.000000 1.764000 1.936000 600 53 1.000000 0.053000 0.053000 1.200000 0.024000 0.028000
1560042299061671928	200 55 0.900000 0.014000 0.012000 1500 47 1.000000 1.759000 1.931000 600 53 1.000000 0.053000 0.053000 1.200000 0.025000 0.030000
1560042299571739678	200 55 0.900000 0.015000 0.013000 1500 47 1.000000 1.759000 1.931000 600 53 1.000000 0.053000 0.053000 1.200000 0.025000 0.030000
1560042300080450220	200 55 0.900000 0.017000 0.015000 1500 47 1.100000 1.892000 2.081000 600 53 1.000000 0.053000 0.053000 1.200000 0.032000 0.038000
1560042300598081428	200 55 0.900000 0.015000 0.013000 1500 47 1.000000 1.773000 1.946000 600 53 1.000000 0.053000 0.053000 1.200000 0.025000 0.030000
1560042301108576886	200 55 0.900000 0.015000 0.013000 1500 47 1.000000 1.790000 1.965000 600 53 1.000000 0.053000 0.053000 1.200000 0.025000 0.030000
1560042301617066178	200 55 0.900000 0.015000 0.013000 1500 47 1.000000 1.768000 1.941000 600 53 1.000000 0.053000 0.053000 1.200000 0.025000 0.030000
1560042302125657845	200 55 0.900000 0.018000 0.016000 1500 47 1.100000 2.010000 2.211000 600 54 1.000000 0.053000 0.053000 1.200000 0.024000 0.028000
1560042302634589928	200 55 0.900000 0.015000 0.013000 1500 47 1.000000 1.770000 1.943000 600 53 1.000000 0.053000 0.053000 1.200000 0.028000 0.033000
1560042303142969803	200 55 0.900000 0.015000 0.013000 1500 47 1.000000 1.768000 1.941000 600 53 1.000000 0.053000 0.053000 1.200000 0.025000 0.030000
1560042303651521553	200 55 0.900000 0.015000 0.013000 1500 47 1.000000 1.762000 1.934000 600 53 1.000000 0.053000 0.053000 1.200000 0.025000 0.030000
1560042304162322512	200 55 0.900000 0.015000 0.013000 1500 47 1.000000 1.872000 2.055000 600 54 1.000000 0.053000 0.053000 1.200000 0.024000 0.028000
1560042304671437178	200 55 0.900000 0.026000 0.023000 1500 47 1.000000 1.770000 1.943000 600 53 1.000000 0.053000 0.053000 1.200000 0.037000 0.044000
1560042305179976928	200 55 0.900000 0.015000 0.013000 1500 47 1.000000 1.763000 1.935000 600 53 1.000000 0.053000 0.053000 1.200000 0.024000 0.028000
1560042305688501720	200 55 0.900000 0.015000 0.013000 1500 47 1.000000 1.774000 1.947000 600 53 1.000000 0.053000 0.053000 1.200000 0.024000 0.028000
1560042306197377804	200 55 0.900000 0.015000 0.013000 1500 47 1.000000 1.776000 1.950000 600 53 1.000000 0.053000 0.053000 1.200000 0.025000 0.030000
1560042306706047012	200 55 0.900000 0.020000 0.018000 1500 47 1.100000 2.176000 2.395000 600 53 1.000000 0.053000 0.053000 1.200000 0.040000 0.048000
1560042307214677512	200 55 0.900000 0.014000 0.012000 1500 47 1.000000 1.775000 1.948000 600 53 1.000000 0.053000 0.053000 1.200000 0.023000 0.027000
1560042307723314595	200 55 0.900000 0.015000 0.013000 1500 47 1.000000 1.792000 1.967000 600 53 1.000000 0.053000 0.053000 1.200000 0.023000 0.027000
1560042308231779262	200 55 0.900000 0.015000 0.013000 1500 47 1.000000 1.764000 1.936000 600 53 1.000000 0.053000 0.053000 1.200000 0.024000 0.028000
1560042308740351262	200 55 0.900000 0.017000 0.015000 1500 47 1.000000 1.774000 1.947000 600 54 1.000000 0.053000 0.053000 1.200000 0.026000 0.031000
1560042309248825846	200 55 0.900000 0.018000 0.016000 1500 47 1.000000 1.942000 2.132000 600 53 1.000000 0.053000 0.053000 1.200000 0.025000 0.030000
1560042309757373471	200 55 0.900000 0.015000 0.013000 1500 47 1.000000 1.770000 1.943000 600 53 1.000000 0.053000 0.053000 1.200000 0.024000 0.028000
1560042310265782054	200 55 0.900000 0.015000 0.013000 1500 47 1.000000 1.784000 1.958000 600 53 1.000000 0.053000 0.053000 1.200000 0.025000 0.030000
1560042310774167887	200 55 0.900000 0.015000 0.013000 1500 47 1.000000 1.815000 1.992000 600 55 1.000000 0.053000 0.053000 1.200000 0.029000 0.035000
1560042311282902096	200 55 0.900000 0.017000 0.015000 1500 47 1.100000 2.002000 2.202000 600 53 1.000000 0.053000 0.053000 1.200000 0.027000 0.032000
1560042311791510888	200 55 0.900000 0.015000 0.013000 1500 47 1.000000 1.798000 1.974000 600 53 1.000000 0.053000 0.053000 1.200000 0.025000 0.030000
1560042312300111846	200 55 0.900000 0.015000 0.013000 1500 47 1.000000 1.775000 1.948000 600 53 1.000000 0.053000 0.053000 1.200000 0.024000 0.028000
1560042312812263596	200 55 0.900000 0.016000 0.014000 1500 47 1.100000 1.884000 2.072000 600 53 1.000000 0.053000 0.053000 1.200000 0.029000 0.035000
1560042313330192638	200 55 0.900000 0.019000 0.017000 1500 47 1.100000 2.100000 2.310000 600 53 1.000000 0.053000 0.053000 1.200000 0.034000 0.041000
1560042313840599471	200 55 0.900000 0.015000 0.013000 1500 47 1.000000 1.770000 1.943000 600 53 1.000000 0.053000 0.053000 1.200000 0.024000 0.028000
1560042314349021513	200 55 0.900000 0.015000 0.013000 1500 47 1.000000 1.801000 1.977000 600 53 1.000000 0.053000 0.053000 1.200000 0.023000 0.027000
1560042314857681180	200 55 0.900000 0.015000 0.013000 1500 47 1.000000 1.883000 2.067000 600 53 1.000000 0.053000 0.053000 1.200000 0.030000 0.036000
1560042315366282096	200 55 0.900000 0.018000 0.016000 1500 47 1.100000 1.996000 2.195000 600 53 1.000000 0.053000 0.053000 1.200000 0.039000 0.047000
1560042315875052596	200 55 0.900000 0.020000 0.018000 1500 47 1.000000 1.887000 2.071000 600 53 1.000000 0.053000 0.053000 1.200000 0.025000 0.030000
1560042316383715930	200 55 0.900000 0.015000 0.013000 1500 47 1.000000 1.766000 1.939000 600 53 1.000000 0.053000 0.053000 1.200000 0.024000 0.028000
1560042316892544055	200 55 0.900000 0.015000 0.013000 1500 47 1.000000 1.791000 1.966000 600 53 1.000000 0.053000 0.053000 1.200000 0.028000 0.033000
1560042317406355638	200 55 0.900000 0.015000 0.013000 1500 47 1.000000 1.779000 1.953000 600 54 1.000000 0.053000 0.053000 1.200000 0.024000 0.028000
1560042317915130888	200 55 0.900000 0.021000 0.019000 1500 47 1.100000 2.020000 2.222000 600 53 1.000000 0.053000 0.053000 1.200000 0.030000 0.036000
1560042318423767055	200 55 0.900000 0.015000 0.013000 1500 47 1.000000 1.781000 1.955000 600 53 1.000000 0.053000 0.053000 1.200000 0.024000 0.028000
1560042318932446805	200 55 0.900000 0.015000 0.013000 1500 47 1.000000 1.856000 2.037000 600 53 1.000000 0.053000 0.053000 1.200000 0.030000 0.036000
1560042319441269847	200 55 0.900000 0.014000 0.012000 1500 47 1.000000 1.766000 1.939000 600 53 1.000000 0.053000 0.053000 1.200000 0.024000 0.028000
1560042319949984764	200 55 0.900000 0.019000 0.017000 1500 47 1.100000 2.119000 2.330000 600 53 1.000000 0.053000 0.053000 1.200000 0.032000 0.038000
1560042320458861180	200 55 0.900000 0.015000 0.013000 1500 47 1.000000 1.790000 1.965000 600 53 1.000000 0.053000 0.053000 1.200000 0.024000 0.028000
1560042320967636972	200 55 0.900000 0.016000 0.014000 1500 47 1.000000 1.877000 2.060000 600 53 1.000000 0.053000 0.053000 1.200000 0.029000 0.035000
1560042321476143930	200 55 0.900000 0.015000 0.013000 1500 47 1.000000 1.760000 1.932000 600 53 1.000000 0.053000 0.053000 1.200000 0.024000 0.028000
1560042321993708889	200 55 0.900000 0.017000 0.015000 1500 47 1.100000 1.993000 2.192000 600 53 1.000000 0.053000 0.053000 1.200000 0.039000 0.047000
1560042322502594431	200 55 0.900000 0.015000 0.013000 1500 47 1.000000 1.759000 1.931000 600 53 1.000000 0.053000 0.053000 1.200000 0.024000 0.028000
1560042323011625097	200 55 0.900000 0.015000 0.013000 1500 47 1.000000 1.775000 1.948000 600 53 1.000000 0.053000 0.053000 1.200000 0.024000 0.028000
1560042323520326847	200 55 0.900000 0.015000 0.013000 1500 47 1.000000 1.786000 1.961000 600 53 1.000000 0.053000 0.053000 1.200000 0.025000 0.030000
1560042324052879722	200 55 0.900000 0.015000 0.013000 1500 47 1.000000 1.778000 1.952000 600 54 1.000000 0.053000 0.053000 1.200000 0.025000 0.030000
1560042324566390306	200 55 0.900000 0.024000 0.021000 1500 47 1.100000 2.011000 2.212000 600 53 1.000000 0.053000 0.053000 1.200000 0.032000 0.038000
1560042325075214847	200 55 0.900000 0.015000 0.013000 1500 47 1.000000 1.779000 1.953000 600 53 1.000000 0.053000 0.053000 1.200000 0.030000 0.036000
1560042325583745806	200 55 0.900000 0.015000 0.013000 1500 47 1.000000 1.774000 1.947000 600 53 1.000000 0.053000 0.053000 1.200000 0.025000 0.030000
1560042326092086764	200 55 0.900000 0.015000 0.013000 1500 47 1.000000 1.791000 1.966000 600 53 1.000000 0.053000 0.053000 1.200000 0.024000 0.028000
1560042326610253306	200 55 0.900000 0.018000 0.016000 1500 47 1.100000 2.109000 2.319000 600 53 1.000000 0.053000 0.053000 1.200000 0.030000 0.036000
1560042327120805223	200 55 0.900000 0.016000 0.014000 1500 47 1.000000 1.894000 2.079000 600 53 1.000000 0.053000 0.053000 1.200000 0.029000 0.035000
1560042327629672931	200 55 0.900000 0.015000 0.013000 1500 47 1.000000 1.763000 1.935000 600 53 1.000000 0.053000 0.053000 1.200000 0.024000 0.028000
1560042328138276181	200 55 0.900000 0.015000 0.013000 1500 47 1.000000 1.762000 1.934000 600 53 1.000000 0.053000 0.053000 1.200000 0.023000 0.027000
1560042328646644265	200 55 0.900000 0.015000 0.013000 1500 47 1.100000 2.091000 2.300000 600 53 1.000000 0.053000 0.053000 1.200000 0.032000 0.038000
1560042329155577640	200 55 0.900000 0.015000 0.013000 1500 47 1.000000 1.877000 2.060000 600 53 1.000000 0.053000 0.053000 1.200000 0.029000 0.035000
1560042329664268306	200 55 0.900000 0.015000 0.013000 1500 47 1.000000 1.761000 1.933000 600 53 1.000000 0.053000 0.053000 1.200000 0.024000 0.028000
1560042330172781223	200 55 0.900000 0.015000 0.013000 1500 47 1.000000 1.762000 1.934000 600 53 1.000000 0.053000 0.053000 1.200000 0.023000 0.027000
1560042330681174973	200 55 0.900000 0.016000 0.014000 1500 47 1.100000 2.011000 2.212000 600 54 1.000000 0.053000 0.053000 1.200000 0.033000 0.039000
1560042331189913890	200 55 0.900000 0.018000 0.016000 1500 47 1.000000 1.884000 2.068000 600 53 1.000000 0.053000 0.053000 1.200000 0.025000 0.030000
1560042331698465182	200 55 0.900000 0.015000 0.013000 1500 47 1.000000 1.771000 1.944000 600 53 1.000000 0.053000 0.053000 1.200000 0.026000 0.031000
1560042332207194765	200 55 0.900000 0.015000 0.013000 1500 47 1.000000 1.795000 1.970000 600 53 1.000000 0.053000 0.053000 1.200000 0.024000 0.028000
1560042332715913098	200 55 0.900000 0.015000 0.013000 1500 47 1.000000 1.784000 1.958000 600 54 1.000000 0.053000 0.053000 1.200000 0.024000 0.028000
1560042333224642432	200 55 0.900000 0.018000 0.016000 1500 47 1.100000 1.943000 2.137000 600 53 1.000000 0.053000 0.053000 1.200000 0.032000 0.038000
1560042333733226849	200 55 0.900000 0.015000 0.013000 1500 47 1.000000 1.764000 1.936000 600 53 1.000000 0.053000 0.053000 1.200000 0.024000 0.028000
1560042334241650182	200 55 0.900000 0.015000 0.013000 1500 47 1.000000 1.766000 1.939000 600 53 1.000000 0.053000 0.053000 1.200000 0.025000 0.030000
1560042334750217390	200 55 0.900000 0.015000 0.013000 1500 47 1.000000 1.768000 1.941000 600 53 1.000000 0.053000 0.053000 1.200000 0.025000 0.030000
1560042335258878265	200 55 0.900000 0.018000 0.016000 1500 47 1.100000 2.155000 2.370000 600 53 1.000000 0.053000 0.053000 1.200000 0.030000 0.036000
1560042335767592890	200 55 0.900000 0.015000 0.013000 1500 47 1.000000 1.761000 1.933000 600 53 1.000000 0.053000 0.053000 1.200000 0.026000 0.031000
1560042336276163515	200 55 0.900000 0.015000 0.013000 1500 47 1.000000 1.763000 1.935000 600 53 1.000000 0.053000 0.053000 1.200000 0.024000 0.028000
1560042336793806724	200 55 0.900000 0.015000 0.013000 1500 47 1.000000 1.767000 1.940000 600 53 1.000000 0.053000 0.053000 1.200000 0.024000 0.028000
1560042337302865016	200 55 0.900000 0.018000 0.016000 1500 47 1.100000 2.099000 2.308000 600 54 1.000000 0.053000 0.053000 1.200000 0.026000 0.031000
1560042337811678432	200 55 0.900000 0.015000 0.013000 1500 47 1.000000 1.762000 1.934000 600 53 1.000000 0.053000 0.053000 1.200000 0.027000 0.032000
1560042338320615182	200 55 0.900000 0.015000 0.013000 1500 47 1.000000 1.759000 1.931000 600 53 1.000000 0.053000 0.053000 1.200000 0.025000 0.030000
1560042338829275349	200 55 0.900000 0.015000 0.013000 1500 47 1.000000 1.786000 1.961000 600 53 1.000000 0.053000 0.053000 1.200000 0.024000 0.028000
1560042339350129891	200 55 0.900000 0.015000 0.013000 1500 47 1.000000 1.774000 1.947000 600 54 1.000000 0.053000 0.053000 1.200000 0.025000 0.030000
1560042339860803141	200 55 0.900000 0.020000 0.018000 1500 47 1.100000 2.006000 2.206000 600 53 1.000000 0.053000 0.053000 1.200000 0.035000 0.042000
1560042340370659474	200 55 0.900000 0.014000 0.012000 1500 47 1.000000 1.764000 1.936000 600 53 1.000000 0.053000 0.053000 1.200000 0.025000 0.030000
1560042340879202183	200 55 0.900000 0.015000 0.013000 1500 47 1.000000 1.767000 1.940000 600 53 1.000000 0.053000 0.053000 1.200000 0.025000 0.030000
1560042341390986474	200 55 0.900000 0.015000 0.013000 1500 47 1.000000 1.760000 1.932000 600 53 1.000000 0.053000 0.053000 1.200000 0.024000 0.028000
1560042341899782141	200 55 0.900000 0.017000 0.015000 1500 47 1.100000 1.878000 2.065000 600 53 1.000000 0.053000 0.053000 1.200000 0.032000 0.038000
1560042342408396016	200 55 0.900000 0.015000 0.013000 1500 47 1.000000 1.788000 1.963000 600 53 1.000000 0.053000 0.053000 1.200000 0.026000 0.031000
1560042342916885766	200 55 0.900000 0.015000 0.013000 1500 47 1.000000 1.792000 1.967000 600 53 1.000000 0.053000 0.053000 1.200000 0.024000 0.028000
1560042343425470433	200 55 0.900000 0.015000 0.013000 1500 47 1.000000 1.770000 1.943000 600 53 1.000000 0.053000 0.053000 1.200000 0.026000 0.031000
1560042343933905683	200 55 0.900000 0.017000 0.015000 1500 47 1.000000 1.896000 2.081000 600 53 1.000000 0.053000 0.053000 1.200000 0.032000 0.038000
1560042344442588183	200 55 0.900000 0.015000 0.013000 1500 47 1.000000 1.769000 1.942000 600 53 1.000000 0.053000 0.053000 1.200000 0.024000 0.028000
1560042344951375517	200 55 0.900000 0.015000 0.013000 1500 47 1.000000 1.781000 1.955000 600 53 1.000000 0.053000 0.053000 1.200000 0.024000 0.028000
1560042345459850058	200 55 0.900000 0.014000 0.012000 1500 47 1.000000 1.790000 1.965000 600 53 1.000000 0.053000 0.053000 1.200000 0.024000 0.028000
1560042345968594933	200 55 0.900000 0.016000 0.014000 1500 47 1.000000 1.881000 2.065000 600 55 1.000000 0.053000 0.053000 1.200000 0.027000 0.032000
1560042346477266933	200 55 0.900000 0.017000 0.015000 1500 47 1.100000 2.105000 2.315000 600 53 1.000000 0.053000 0.053000 1.200000 0.034000 0.041000
1560042346985910017	200 55 0.900000 0.015000 0.013000 1500 47 1.000000 1.786000 1.961000 600 53 1.000000 0.053000 0.053000 1.200000 0.024000 0.028000
1560042347494669392	200 55 0.900000 0.015000 0.013000 1500 47 1.000000 1.773000 1.946000 600 53 1.000000 0.053000 0.053000 1.200000 0.024000 0.028000
1560042348006162392	200 55 0.900000 0.016000 0.014000 1500 47 1.000000 1.892000 2.077000 600 53 1.000000 0.053000 0.053000 1.200000 0.030000 0.036000
1560042348515320934	200 55 0.900000 0.019000 0.017000 1500 47 1.100000 1.952000 2.147000 600 53 1.000000 0.053000 0.053000 1.200000 0.033000 0.039000
1560042349023901475	200 55 0.900000 0.015000 0.013000 1500 47 1.000000 1.773000 1.946000 600 53 1.000000 0.053000 0.053000 1.200000 0.024000 0.028000
1560042349532387100	200 55 0.900000 0.015000 0.013000 1500 47 1.000000 1.792000 1.967000 600 53 1.000000 0.053000 0.053000 1.200000 0.025000 0.030000
1560042350041026059	200 55 0.900000 0.015000 0.013000 1500 47 1.100000 1.884000 2.072000 600 53 1.000000 0.053000 0.053000 1.200000 0.030000 0.036000
1560042350549501809	200 55 0.900000 0.020000 0.018000 1500 47 1.000000 1.825000 2.003000 600 53 1.000000 0.053000 0.053000 1.200000 0.030000 0.036000
1560042351058422392	200 55 0.900000 0.015000 0.013000 1500 47 1.000000 1.794000 1.969000 600 53 1.000000 0.053000 0.053000 1.200000 0.024000 0.028000
1560042351567086226	200 55 0.900000 0.015000 0.013000 1500 47 1.000000 1.769000 1.942000 600 53 1.000000 0.053000 0.053000 1.200000 0.023000 0.027000
1560042352075891726	200 55 0.900000 0.015000 0.013000 1500 47 1.000000 1.873000 2.056000 600 53 1.000000 0.053000 0.053000 1.200000 0.029000 0.035000
1560042352590138309	200 55 0.900000 0.019000 0.017000 1500 47 1.000000 1.764000 1.936000 600 54 1.000000 0.053000 0.053000 1.200000 0.024000 0.028000
1560042353098910684	200 55 0.900000 0.019000 0.017000 1500 47 1.000000 1.837000 2.017000 600 53 1.000000 0.053000 0.053000 1.200000 0.024000 0.028000
1560042353607811268	200 55 0.900000 0.015000 0.013000 1500 47 1.000000 1.773000 1.946000 600 53 1.000000 0.053000 0.053000 1.200000 0.024000 0.028000
1560042354116649643	200 55 0.900000 0.015000 0.013000 1500 47 1.000000 1.789000 1.964000 600 53 1.000000 0.053000 0.053000 1.200000 0.029000 0.035000
1560042354625157476	200 55 0.900000 0.015000 0.013000 1500 47 1.000000 1.773000 1.946000 600 53 1.000000 0.053000 0.053000 1.200000 0.025000 0.030000
1560042355133709393	200 55 0.900000 0.017000 0.015000 1500 47 1.100000 1.981000 2.179000 600 53 1.000000 0.053000 0.053000 1.200000 0.031000 0.037000
1560042355642614601	200 55 0.900000 0.015000 0.013000 1500 47 1.000000 1.791000 1.966000 600 53 1.000000 0.053000 0.053000 1.200000 0.025000 0.030000
1560042356151467893	200 55 0.900000 0.015000 0.013000 1500 47 1.000000 1.873000 2.056000 600 53 1.000000 0.053000 0.053000 1.200000 0.030000 0.036000
1560042356660015476	200 55 0.900000 0.015000 0.013000 1500 47 1.000000 1.785000 1.959000 600 53 1.000000 0.053000 0.053000 1.200000 0.024000 0.028000
1560042357168596935	200 55 0.900000 0.017000 0.015000 1500 47 1.100000 1.884000 2.072000 600 53 1.000000 0.053000 0.053000 1.200000 0.029000 0.035000
1560042357677054643	200 55 0.900000 0.015000 0.013000 1500 47 1.000000 1.771000 1.944000 600 53 1.000000 0.053000 0.053000 1.200000 0.024000 0.028000
1560042358185818518	200 55 0.900000 0.015000 0.013000 1500 47 1.000000 1.870000 2.053000 600 53 1.000000 0.053000 0.053000 1.200000 0.029000 0.035000
1560042358694487102	200 55 0.900000 0.015000 0.013000 1500 47 1.000000 1.765000 1.937000 600 53 1.000000 0.053000 0.053000 1.200000 0.024000 0.028000
1560042359202935727	200 55 0.900000 0.015000 0.013000 1500 47 1.000000 1.782000 1.956000 600 54 1.000000 0.053000 0.053000 1.200000 0.027000 0.032000
1560042359711725685	200 55 0.900000 0.016000 0.014000 1500 47 1.000000 1.768000 1.941000 600 53 1.000000 0.053000 0.053000 1.200000 0.024000 0.028000
1560042360220591643	200 55 0.900000 0.016000 0.014000 1500 47 1.000000 1.882000 2.066000 600 53 1.000000 0.053000 0.053000 1.200000 0.029000 0.035000
1560042360729176852	200 55 0.900000 0.015000 0.013000 1500 47 1.000000 1.785000 1.959000 600 53 1.000000 0.053000 0.053000 1.200000 0.024000 0.028000
1560042361241525977	200 55 0.900000 0.015000 0.013000 1500 47 1.000000 1.777000 1.951000 600 53 1.000000 0.053000 0.053000 1.200000 0.025000 0.030000
1560042361750372935	200 55 0.900000 0.021000 0.019000 1500 47 1.100000 2.043000 2.247000 600 53 1.000000 0.053000 0.053000 1.200000 0.040000 0.048000
1560042362259136477	200 55 0.900000 0.015000 0.013000 1500 47 1.000000 1.808000 1.985000 600 53 1.000000 0.053000 0.053000 1.200000 0.030000 0.036000
1560042362767950810	200 55 0.900000 0.015000 0.013000 1500 47 1.000000 1.791000 1.966000 600 53 1.000000 0.053000 0.053000 1.200000 0.025000 0.030000
1560042363276624727	200 55 0.900000 0.015000 0.013000 1500 47 1.000000 1.762000 1.934000 600 53 1.000000 0.053000 0.053000 1.200000 0.024000 0.028000
1560042363785323060	200 55 0.900000 0.019000 0.017000 1500 47 1.100000 1.938000 2.131000 600 53 1.000000 0.053000 0.053000 1.200000 0.033000 0.039000
1560042364294056727	200 55 0.900000 0.015000 0.013000 1500 47 1.000000 1.872000 2.055000 600 53 1.000000 0.053000 0.053000 1.200000 0.030000 0.036000
1560042364802551436	200 55 0.900000 0.015000 0.013000 1500 47 1.000000 1.768000 1.941000 600 53 1.000000 0.053000 0.053000 1.200000 0.024000 0.028000
1560042365311386061	200 55 0.900000 0.015000 0.013000 1500 47 1.000000 1.766000 1.939000 600 53 1.000000 0.053000 0.053000 1.200000 0.024000 0.028000
1560042365823520727	200 55 0.900000 0.015000 0.013000 1500 47 1.000000 1.765000 1.937000 600 54 1.000000 0.053000 0.053000 1.200000 0.027000 0.032000
1560042366332712894	200 55 0.900000 0.020000 0.018000 1500 47 1.000000 1.880000 2.064000 600 53 1.000000 0.053000 0.053000 1.200000 0.029000 0.035000
1560042366841664102	200 55 0.900000 0.014000 0.012000 1500 47 1.000000 1.763000 1.935000 600 53 1.000000 0.053000 0.053000 1.200000 0.024000 0.028000
1560042367350555186	200 55 0.900000 0.015000 0.013000 1500 47 1.000000 1.761000 1.933000 600 53 1.000000 0.053000 0.053000 1.200000 0.023000 0.027000
1560042367859096311	200 55 0.900000 0.015000 0.013000 1500 47 1.000000 1.776000 1.950000 600 53 1.000000 0.053000 0.053000 1.200000 0.025000 0.030000
1560042368369261019	200 55 0.900000 0.017000 0.015000 1500 47 1.100000 2.008000 2.208000 600 53 1.000000 0.053000 0.053000 1.200000 0.037000 0.044000
1560042368877991561	200 55 0.900000 0.017000 0.015000 1500 47 1.000000 1.788000 1.963000 600 53 1.000000 0.053000 0.053000 1.200000 0.025000 0.030000
1560042369386648228	200 55 0.900000 0.015000 0.013000 1500 47 1.000000 1.780000 1.954000 600 53 1.000000 0.053000 0.053000 1.200000 0.024000 0.028000
1560042369895393895	200 55 0.900000 0.015000 0.013000 1500 47 1.000000 1.796000 1.972000 600 53 1.000000 0.053000 0.053000 1.200000 0.024000 0.028000
1560042370403767061	200 55 0.900000 0.016000 0.014000 1500 47 1.000000 1.816000 1.993000 600 54 1.000000 0.053000 0.053000 1.200000 0.029000 0.035000
1560042370912608228	200 55 0.900000 0.015000 0.013000 1500 47 1.000000 1.811000 1.988000 600 53 1.000000 0.053000 0.053000 1.200000 0.024000 0.028000
1560042371421341270	200 55 0.900000 0.015000 0.013000 1500 47 1.000000 1.761000 1.933000 600 53 1.000000 0.053000 0.053000 1.200000 0.024000 0.028000
1560042371930087061	200 55 0.900000 0.015000 0.013000 1500 47 1.000000 1.762000 1.934000 600 53 1.000000 0.053000 0.053000 1.200000 0.024000 0.028000
1560042372444049061	200 55 0.900000 0.015000 0.013000 1500 47 1.000000 1.762000 1.934000 600 53 1.000000 0.053000 0.053000 1.200000 0.024000 0.028000
1560042372952879853	200 55 0.900000 0.027000 0.024000 1500 47 1.000000 1.886000 2.070000 600 53 1.000000 0.053000 0.053000 1.200000 0.043000 0.051000
1560042373461845062	200 55 0.900000 0.015000 0.013000 1500 47 1.000000 1.758000 1.930000 600 53 1.000000 0.053000 0.053000 1.200000 0.025000 0.030000
1560042373970459603	200 55 0.900000 0.015000 0.013000 1500 47 1.000000 1.758000 1.930000 600 53 1.000000 0.053000 0.053000 1.200000 0.025000 0.030000
1560042374479285687	200 55 0.900000 0.015000 0.013000 1500 47 1.000000 1.763000 1.935000 600 53 1.000000 0.053000 0.053000 1.200000 0.025000 0.030000
1560042374997417728	200 55 0.900000 0.017000 0.015000 1500 47 1.100000 2.025000 2.227000 600 53 1.000000 0.053000 0.053000 1.200000 0.024000 0.028000
1560042375507610937	200 55 0.900000 0.017000 0.015000 1500 47 1.000000 1.786000 1.961000 600 53 1.000000 0.053000 0.053000 1.200000 0.035000 0.042000
1560042376016293270	200 55 0.900000 0.015000 0.013000 1500 47 1.000000 1.768000 1.941000 600 53 1.000000 0.053000 0.053000 1.200000 0.025000 0.030000
1560042376524812895	200 55 0.900000 0.015000 0.013000 1500 47 1.000000 1.761000 1.933000 600 53 1.000000 0.053000 0.053000 1.200000 0.025000 0.030000
1560042377036392062	200 55 0.900000 0.015000 0.013000 1500 47 1.000000 1.878000 2.062000 600 54 1.000000 0.053000 0.053000 1.200000 0.024000 0.028000
1560042377545807437	200 55 0.900000 0.017000 0.015000 1500 47 1.100000 1.813000 1.994000 600 53 1.000000 0.053000 0.053000 1.200000 0.040000 0.048000
1560042378054712604	200 55 0.900000 0.015000 0.013000 1500 47 1.000000 1.789000 1.964000 600 53 1.000000 0.053000 0.053000 1.200000 0.025000 0.030000
1560042378563147271	200 55 0.900000 0.015000 0.013000 1500 47 1.000000 1.785000 1.959000 600 53 1.000000 0.053000 0.053000 1.200000 0.024000 0.028000
1560042379071969771	200 55 0.900000 0.015000 0.013000 1500 47 1.000000 1.775000 1.948000 600 53 1.000000 0.053000 0.053000 1.200000 0.024000 0.028000
1560042379580698021	200 55 0.900000 0.019000 0.017000 1500 47 1.100000 1.959000 2.154000 600 53 1.000000 0.053000 0.053000 1.200000 0.032000 0.038000
1560042380089176979	200 55 0.900000 0.015000 0.013000 1500 47 1.000000 1.782000 1.956000 600 53 1.000000 0.053000 0.053000 1.200000 0.024000 0.028000
1560042380597911729	200 55 0.900000 0.015000 0.013000 1500 47 1.000000 1.779000 1.953000 600 53 1.000000 0.053000 0.053000 1.200000 0.025000 0.030000
1560042381106377479	200 55 0.900000 0.015000 0.013000 1500 47 1.000000 1.791000 1.966000 600 53 1.000000 0.053000 0.053000 1.200000 0.026000 0.031000
1560042381614913271	200 55 0.900000 0.020000 0.018000 1500 47 1.000000 1.794000 1.969000 600 54 1.000000 0.053000 0.053000 1.200000 0.028000 0.033000
1560042382123641271	200 55 0.900000 0.015000 0.013000 1500 47 1.000000 1.792000 1.967000 600 53 1.000000 0.053000 0.053000 1.200000 0.024000 0.028000
1560042382632320479	200 55 0.900000 0.015000 0.013000 1500 47 1.000000 1.777000 1.951000 600 53 1.000000 0.053000 0.053000 1.200000 0.024000 0.028000
1560042383141056271	200 55 0.900000 0.014000 0.012000 1500 47 1.000000 1.775000 1.948000 600 53 1.000000 0.053000 0.053000 1.200000 0.024000 0.028000
1560042383652584729	200 55 0.900000 0.015000 0.013000 1500 47 1.000000 1.804000 1.980000 600 54 1.000000 0.053000 0.053000 1.200000 0.025000 0.030000
1560042384161438355	200 55 0.900000 0.020000 0.018000 1500 47 1.100000 1.999000 2.198000 600 53 1.000000 0.053000 0.053000 1.200000 0.038000 0.045000
1560042384670065438	200 55 0.900000 0.015000 0.013000 1500 47 1.000000 1.773000 1.946000 600 53 1.000000 0.053000 0.053000 1.200000 0.024000 0.028000
1560042385179002855	200 55 0.900000 0.015000 0.013000 1500 47 1.000000 1.795000 1.970000 600 53 1.000000 0.053000 0.053000 1.200000 0.025000 0.030000
1560042385687662146	200 55 0.900000 0.015000 0.013000 1500 47 1.000000 1.780000 1.954000 600 53 1.000000 0.053000 0.053000 1.200000 0.024000 0.028000
1560042386196240146	200 55 0.900000 0.018000 0.016000 1500 47 1.000000 1.868000 2.051000 600 53 1.000000 0.053000 0.053000 1.200000 0.031000 0.037000
1560042386705019605	200 55 0.900000 0.015000 0.013000 1500 47 1.000000 1.793000 1.968000 600 53 1.000000 0.053000 0.053000 1.200000 0.025000 0.030000
1560042387213675855	200 55 0.900000 0.015000 0.013000 1500 47 1.000000 1.761000 1.933000 600 53 1.000000 0.053000 0.053000 1.200000 0.024000 0.028000
1560042387722494980	200 55 0.900000 0.015000 0.013000 1500 47 1.000000 1.784000 1.958000 600 53 1.000000 0.053000 0.053000 1.200000 0.024000 0.028000
1560042388234124605	200 55 0.900000 0.017000 0.015000 1500 47 1.000000 1.785000 1.959000 600 54 1.000000 0.053000 0.053000 1.200000 0.024000 0.028000
1560042388743473563	200 55 0.900000 0.015000 0.013000 1500 47 1.000000 1.786000 1.961000 600 53 1.000000 0.053000 0.053000 1.200000 0.024000 0.028000
1560042389252270647	200 55 0.900000 0.015000 0.013000 1500 47 1.000000 1.800000 1.976000 600 53 1.000000 0.053000 0.053000 1.200000 0.029000 0.035000
1560042389770486272	200 55 0.900000 0.015000 0.013000 1500 47 1.000000 1.855000 2.036000 600 53 1.000000 0.053000 0.053000 1.200000 0.026000 0.031000
1560042390282944689	200 54 0.900000 0.015000 0.013000 1500 47 1.000000 1.773000 1.946000 600 53 1.000000 0.053000 0.053000 1.200000 0.025000 0.030000
1560042390791836355	200 55 0.900000 0.015000 0.013000 1500 47 1.100000 1.932000 2.125000 600 53 1.000000 0.053000 0.053000 1.200000 0.034000 0.041000
1560042391300519814	200 55 0.900000 0.015000 0.013000 1500 47 1.000000 1.773000 1.946000 600 53 1.000000 0.053000 0.053000 1.200000 0.025000 0.030000
1560042391809288230	200 55 0.900000 0.015000 0.013000 1500 47 1.000000 1.784000 1.958000 600 53 1.000000 0.053000 0.053000 1.200000 0.024000 0.028000
1560042392317736189	200 55 0.900000 0.015000 0.013000 1500 47 1.000000 1.779000 1.953000 600 53 1.000000 0.053000 0.053000 1.200000 0.025000 0.030000
1560042392827919814	200 55 0.900000 0.015000 0.013000 1500 47 1.000000 1.772000 1.945000 600 53 1.000000 0.053000 0.053000 1.200000 0.027000 0.032000
1560042393336800647	200 55 0.900000 0.015000 0.013000 1500 47 1.000000 1.791000 1.966000 600 53 1.000000 0.053000 0.053000 1.200000 0.025000 0.030000
1560042393845624481	200 55 0.900000 0.015000 0.013000 1500 47 1.000000 1.791000 1.966000 600 53 1.000000 0.053000 0.053000 1.200000 0.025000 0.030000
1560042394354363689	200 55 0.900000 0.014000 0.012000 1500 47 1.000000 1.773000 1.946000 600 53 1.000000 0.053000 0.053000 1.200000 0.023000 0.027000
1560042394866010647	200 55 0.900000 0.015000 0.013000 1500 47 1.000000 1.764000 1.936000 600 54 1.000000 0.053000 0.053000 1.200000 0.024000 0.028000
1560042395375140231	200 55 0.900000 0.015000 0.013000 1500 47 1.000000 1.886000 2.070000 600 53 1.000000 0.053000 0.053000 1.200000 0.028000 0.033000
1560042395883788481	200 55 0.900000 0.014000 0.012000 1500 47 1.000000 1.767000 1.940000 600 53 1.000000 0.053000 0.053000 1.200000 0.024000 0.028000
1560042396392342106	200 55 0.900000 0.015000 0.013000 1500 47 1.000000 1.765000 1.937000 600 53 1.000000 0.053000 0.053000 1.200000 0.023000 0.027000
1560042396900835606	200 54 0.900000 0.015000 0.013000 1500 47 1.000000 1.764000 1.936000 600 53 1.000000 0.053000 0.053000 1.200000 0.024000 0.028000
1560042397409663814	200 55 0.900000 0.015000 0.013000 1500 47 1.100000 1.909000 2.099000 600 53 1.000000 0.053000 0.053000 1.200000 0.029000 0.035000
1560042397918566898	200 55 0.900000 0.015000 0.013000 1500 47 1.000000 1.805000 1.981000 600 53 1.000000 0.053000 0.053000 1.200000 0.024000 0.028000
1560042398427233481	200 46 0.900000 0.015000 0.013000 1500 45 1.100000 1.107000 1.217000 600 51 1.000000 0.053000 0.053000 1.200000 0.029000 0.035000
1560042398935304815	200 45 0.900000 0.013000 0.011000 1500 44 1.100000 0.221000 0.243000 600 49 1.000000 0.053000 0.053000 1.200000 0.023000 0.027000
