#Timestamp	CPU(0) Frequency(MHz)	CPU(0) Temperature(C)	A7 Voltage(V)	A7 Current(A)	A7 Power(W)	CPU(4) Frequency(MHz)	CPU(4) Temperature(C)	A15 Voltage(V)	A15 Current(A)	A15 Power(W)	GPU Frequency(MHz)	GPU Temperature(C)	GPU Voltage(V)	GPU Current(A)	GPU Power(W)	RAM Voltage(V)	RAM Current(A)	RAM Power(W)
1517189132867443932	1500 36 1.200000 0.074000 0.092000 1000 32 0.900000 0.831000 0.803000 600 37 1.000000 0.050000 0.050000 1.200000 0.034000 0.041000
1517189133374638307	1500 36 1.300000 0.087000 0.113000 1000 32 0.900000 0.806000 0.779000 600 37 1.000000 0.051000 0.051000 1.200000 0.024000 0.028000
1517189133881536349	1500 37 1.300000 0.088000 0.115000 1000 33 0.900000 0.814000 0.787000 600 38 1.000000 0.051000 0.051000 1.200000 0.024000 0.028000
1517189134388506932	1500 37 1.300000 0.088000 0.115000 1000 33 0.900000 0.821000 0.793000 600 38 1.000000 0.051000 0.051000 1.200000 0.023000 0.027000
1517189134895471890	1500 37 1.300000 0.090000 0.117000 1000 33 0.900000 0.825000 0.797000 600 38 1.000000 0.051000 0.051000 1.200000 0.024000 0.028000
1517189135402458432	1500 37 1.300000 0.088000 0.115000 1000 33 0.900000 0.823000 0.795000 600 38 1.000000 0.051000 0.051000 1.200000 0.023000 0.027000
1517189135909340724	1500 38 1.300000 0.088000 0.115000 1000 34 0.900000 0.811000 0.784000 600 38 1.000000 0.051000 0.051000 1.200000 0.023000 0.027000
1517189136416181599	1500 38 1.300000 0.088000 0.115000 1000 34 0.900000 0.809000 0.781000 600 38 1.000000 0.051000 0.051000 1.200000 0.023000 0.027000
1517189136923216057	1500 38 1.300000 0.088000 0.115000 1000 34 0.900000 0.801000 0.773000 600 39 1.000000 0.051000 0.051000 1.200000 0.023000 0.027000
1517189137430231224	1500 38 1.300000 0.088000 0.115000 1000 34 0.900000 0.846000 0.817000 600 39 1.000000 0.051000 0.051000 1.200000 0.023000 0.027000
1517189137937096599	1500 38 1.300000 0.088000 0.115000 1000 34 0.900000 0.824000 0.796000 600 39 1.000000 0.051000 0.051000 1.200000 0.022000 0.026000
1517189138443997016	1500 38 1.300000 0.089000 0.116000 1000 34 0.900000 0.836000 0.808000 600 39 1.000000 0.051000 0.051000 1.200000 0.022000 0.026000
1517189138950828808	1500 38 1.300000 0.088000 0.115000 1000 34 0.900000 0.818000 0.790000 600 39 1.000000 0.051000 0.051000 1.200000 0.022000 0.026000
1517189139457744266	1500 38 1.300000 0.089000 0.116000 1000 34 0.900000 0.826000 0.797000 600 39 1.000000 0.051000 0.051000 1.200000 0.022000 0.026000
1517189139964701891	1500 38 1.300000 0.088000 0.115000 1000 34 0.900000 0.835000 0.806000 600 39 1.000000 0.051000 0.051000 1.200000 0.023000 0.027000
1517189140471723683	1500 38 1.300000 0.089000 0.116000 1000 34 0.900000 0.844000 0.815000 600 39 1.000000 0.051000 0.051000 1.200000 0.023000 0.027000
1517189140978570100	1500 38 1.300000 0.088000 0.115000 1000 34 0.900000 0.849000 0.820000 600 39 1.000000 0.051000 0.051000 1.200000 0.023000 0.027000
1517189141485454975	1500 38 1.300000 0.088000 0.115000 1000 34 0.900000 0.822000 0.794000 600 39 1.000000 0.051000 0.051000 1.200000 0.023000 0.027000
1517189141992409141	1500 38 1.300000 0.088000 0.115000 1000 34 0.900000 0.831000 0.803000 600 39 1.000000 0.051000 0.051000 1.200000 0.023000 0.027000
1517189142499366891	1500 38 1.300000 0.089000 0.116000 1000 34 0.900000 0.839000 0.811000 600 39 1.000000 0.051000 0.051000 1.200000 0.022000 0.026000
1517189143006291933	1500 38 1.300000 0.088000 0.115000 1000 34 0.900000 0.842000 0.813000 600 39 1.000000 0.051000 0.051000 1.200000 0.023000 0.027000
1517189143513321891	1500 38 1.300000 0.088000 0.115000 1000 34 0.900000 0.839000 0.810000 600 39 1.000000 0.051000 0.051000 1.200000 0.022000 0.026000
1517189144020299517	1500 39 1.300000 0.088000 0.115000 1000 34 0.900000 0.822000 0.794000 600 39 1.000000 0.051000 0.051000 1.200000 0.022000 0.026000
1517189144527264017	1500 38 1.300000 0.088000 0.115000 1000 34 0.900000 0.818000 0.790000 600 39 1.000000 0.051000 0.051000 1.200000 0.022000 0.026000
1517189145034185600	1500 38 1.300000 0.089000 0.116000 1000 34 0.900000 0.818000 0.790000 600 39 1.000000 0.050000 0.050000 1.200000 0.023000 0.027000
1517189145541058725	1500 39 1.300000 0.088000 0.115000 1000 34 0.900000 0.821000 0.793000 600 39 1.000000 0.051000 0.051000 1.200000 0.022000 0.026000
1517189146047872392	1500 39 1.300000 0.088000 0.115000 1000 34 0.900000 0.821000 0.793000 600 39 1.000000 0.051000 0.051000 1.200000 0.022000 0.026000
1517189146554739850	1500 39 1.300000 0.089000 0.116000 1000 34 0.900000 0.845000 0.816000 600 39 1.000000 0.051000 0.051000 1.200000 0.023000 0.027000
1517189147061718434	1500 39 1.300000 0.088000 0.115000 1000 35 0.900000 0.835000 0.806000 600 39 1.000000 0.051000 0.051000 1.200000 0.023000 0.027000
1517189147568606684	1500 39 1.300000 0.089000 0.116000 1000 35 0.900000 0.843000 0.814000 600 39 1.000000 0.051000 0.051000 1.200000 0.023000 0.027000
1517189148075539309	1500 39 1.300000 0.089000 0.116000 1000 34 0.900000 0.823000 0.795000 600 39 1.000000 0.051000 0.051000 1.200000 0.022000 0.026000
1517189148582439017	1500 39 1.300000 0.088000 0.115000 1000 35 0.900000 0.840000 0.811000 600 39 1.000000 0.051000 0.051000 1.200000 0.023000 0.027000
1517189149089292142	1500 39 1.300000 0.088000 0.115000 1000 34 0.900000 0.848000 0.819000 600 39 1.000000 0.051000 0.051000 1.200000 0.023000 0.027000
1517189149596224559	1500 39 1.300000 0.088000 0.115000 1000 34 0.900000 0.808000 0.780000 600 39 1.000000 0.051000 0.051000 1.200000 0.022000 0.026000
1517189150103202059	1500 39 1.300000 0.088000 0.115000 1000 34 0.900000 0.823000 0.795000 600 39 1.000000 0.051000 0.051000 1.200000 0.022000 0.026000
1517189150610115809	1500 39 1.300000 0.088000 0.115000 1000 34 0.900000 0.821000 0.793000 600 39 1.000000 0.051000 0.051000 1.200000 0.022000 0.026000
1517189151116991309	1500 38 1.300000 0.088000 0.115000 1000 35 0.900000 0.818000 0.790000 600 39 1.000000 0.051000 0.051000 1.200000 0.022000 0.026000
1517189151623895226	1500 39 1.300000 0.088000 0.115000 1000 35 0.900000 0.817000 0.789000 600 39 1.000000 0.051000 0.051000 1.200000 0.022000 0.026000
1517189152130977393	1500 39 1.300000 0.088000 0.115000 1000 34 0.900000 0.826000 0.798000 600 39 1.000000 0.051000 0.051000 1.200000 0.023000 0.027000
1517189152638084184	1500 39 1.300000 0.088000 0.115000 1000 35 0.900000 0.852000 0.823000 600 39 1.000000 0.051000 0.051000 1.200000 0.023000 0.027000
1517189153145008601	1500 39 1.300000 0.088000 0.115000 1000 34 0.900000 0.843000 0.815000 600 39 1.000000 0.051000 0.051000 1.200000 0.023000 0.027000
1517189153651898351	1500 39 1.300000 0.089000 0.116000 1000 35 0.900000 0.843000 0.814000 600 39 1.000000 0.051000 0.051000 1.200000 0.023000 0.027000
1517189154158868851	1500 39 1.300000 0.089000 0.116000 1000 35 0.900000 0.844000 0.816000 600 39 1.000000 0.051000 0.051000 1.200000 0.023000 0.027000
1517189154665845601	1500 39 1.300000 0.091000 0.119000 1000 35 0.900000 0.839000 0.810000 600 39 1.000000 0.051000 0.051000 1.200000 0.022000 0.026000
1517189155172736351	1500 39 1.300000 0.088000 0.115000 1000 35 0.900000 0.825000 0.797000 600 39 1.000000 0.051000 0.051000 1.200000 0.023000 0.027000
1517189155679725643	1500 39 1.300000 0.088000 0.115000 1000 35 0.900000 0.826000 0.798000 600 39 1.000000 0.051000 0.051000 1.200000 0.022000 0.026000
1517189156186612476	1500 38 1.300000 0.088000 0.115000 1000 35 0.900000 0.810000 0.782000 600 39 1.000000 0.051000 0.051000 1.200000 0.022000 0.026000
1517189156693575018	1500 39 1.300000 0.088000 0.115000 1000 35 0.900000 0.810000 0.783000 600 39 1.000000 0.051000 0.051000 1.200000 0.022000 0.026000
1517189157200595560	1500 39 1.300000 0.088000 0.115000 1000 35 0.900000 0.818000 0.790000 600 39 1.000000 0.051000 0.051000 1.200000 0.022000 0.026000
1517189157707612810	1500 39 1.300000 0.088000 0.115000 1000 35 0.900000 0.802000 0.774000 600 39 1.000000 0.051000 0.051000 1.200000 0.022000 0.026000
1517189158214527685	1500 39 1.300000 0.088000 0.115000 1000 35 0.900000 0.815000 0.788000 600 39 1.000000 0.051000 0.051000 1.200000 0.023000 0.027000
1517189158721475393	1500 39 1.300000 0.088000 0.115000 1000 35 0.900000 0.812000 0.784000 600 39 1.000000 0.051000 0.051000 1.200000 0.023000 0.027000
1517189159228391852	1500 39 1.300000 0.089000 0.116000 1000 35 0.900000 0.852000 0.823000 600 39 1.000000 0.051000 0.051000 1.200000 0.023000 0.027000
1517189159735550602	1500 39 1.300000 0.088000 0.115000 1000 35 0.900000 0.835000 0.807000 600 39 1.000000 0.051000 0.051000 1.200000 0.023000 0.027000
1517189160242532227	1500 39 1.300000 0.089000 0.116000 1000 35 0.900000 0.805000 0.777000 600 39 1.000000 0.051000 0.051000 1.200000 0.023000 0.027000
1517189160749419269	1500 39 1.300000 0.089000 0.116000 1000 35 0.900000 0.814000 0.786000 600 39 1.000000 0.051000 0.051000 1.200000 0.022000 0.026000
1517189161256312435	1500 39 1.300000 0.088000 0.115000 1000 35 0.900000 0.834000 0.805000 600 39 1.000000 0.051000 0.051000 1.200000 0.022000 0.026000
1517189161763202894	1500 39 1.300000 0.088000 0.115000 1000 35 0.900000 0.825000 0.796000 600 40 1.000000 0.051000 0.051000 1.200000 0.022000 0.026000
1517189162270148852	1500 39 1.300000 0.088000 0.115000 1000 35 0.900000 0.809000 0.781000 600 39 1.000000 0.051000 0.051000 1.200000 0.022000 0.026000
1517189162777138227	1500 39 1.300000 0.088000 0.115000 1000 35 0.900000 0.811000 0.783000 600 39 1.000000 0.051000 0.051000 1.200000 0.022000 0.026000
1517189163284101102	1500 39 1.300000 0.088000 0.115000 1000 35 0.900000 0.825000 0.796000 600 39 1.000000 0.051000 0.051000 1.200000 0.022000 0.026000
1517189163791116102	1500 39 1.300000 0.088000 0.115000 1000 35 0.900000 0.809000 0.781000 600 39 1.000000 0.051000 0.051000 1.200000 0.023000 0.027000
1517189164298156477	1500 39 1.300000 0.088000 0.115000 1000 35 0.900000 0.809000 0.781000 600 39 1.000000 0.051000 0.051000 1.200000 0.023000 0.027000
1517189164805190811	1500 39 1.300000 0.089000 0.116000 1000 35 0.900000 0.797000 0.769000 600 39 1.000000 0.051000 0.051000 1.200000 0.023000 0.027000
1517189165312186686	1500 39 1.300000 0.088000 0.115000 1000 35 0.900000 0.835000 0.806000 600 39 1.000000 0.051000 0.051000 1.200000 0.023000 0.027000
1517189165819053352	1500 39 1.300000 0.089000 0.116000 1000 35 0.900000 0.823000 0.795000 600 39 1.000000 0.051000 0.051000 1.200000 0.023000 0.027000
1517189166325942853	1500 39 1.300000 0.089000 0.116000 1000 35 0.900000 0.812000 0.784000 600 39 1.000000 0.051000 0.051000 1.200000 0.023000 0.027000
1517189166832839311	1500 39 1.300000 0.089000 0.116000 1000 35 0.900000 0.834000 0.806000 600 39 1.000000 0.051000 0.051000 1.200000 0.023000 0.027000
1517189167339782894	1500 39 1.300000 0.089000 0.116000 1000 35 0.900000 0.802000 0.775000 600 39 1.000000 0.051000 0.051000 1.200000 0.023000 0.027000
1517189167846677894	1500 39 1.300000 0.088000 0.115000 1000 35 0.900000 0.832000 0.803000 600 39 1.000000 0.051000 0.051000 1.200000 0.023000 0.027000
1517189168353635353	1500 39 1.300000 0.088000 0.115000 1000 35 0.900000 0.815000 0.787000 600 39 1.000000 0.051000 0.051000 1.200000 0.023000 0.027000
1517189168860528686	1500 39 1.300000 0.088000 0.115000 1000 35 0.900000 0.811000 0.784000 600 39 1.000000 0.051000 0.051000 1.200000 0.023000 0.027000
1517189169367481770	1500 39 1.300000 0.088000 0.115000 1000 35 0.900000 0.819000 0.791000 600 39 1.000000 0.051000 0.051000 1.200000 0.023000 0.027000
1517189169874430603	1500 39 1.300000 0.088000 0.115000 1000 35 0.900000 0.823000 0.795000 600 39 1.000000 0.051000 0.051000 1.200000 0.023000 0.027000
1517189170381353436	1500 39 1.300000 0.088000 0.115000 1000 35 0.900000 0.812000 0.784000 600 39 1.000000 0.051000 0.051000 1.200000 0.022000 0.026000
1517189170888135395	1500 39 1.300000 0.088000 0.115000 1000 35 0.900000 0.836000 0.808000 600 39 1.000000 0.051000 0.051000 1.200000 0.023000 0.027000
1517189171394984353	1500 39 1.300000 0.088000 0.115000 1000 35 0.900000 0.816000 0.789000 600 40 1.000000 0.051000 0.051000 1.200000 0.022000 0.026000
1517189171901749853	1500 39 1.300000 0.088000 0.115000 1000 35 0.900000 0.836000 0.808000 600 40 1.000000 0.051000 0.051000 1.200000 0.022000 0.026000
1517189172408594520	1500 39 1.300000 0.089000 0.116000 1000 35 0.900000 0.830000 0.802000 600 39 1.000000 0.051000 0.051000 1.200000 0.023000 0.027000
1517189172915570937	1500 39 1.300000 0.089000 0.116000 1000 35 0.900000 0.822000 0.794000 600 39 1.000000 0.051000 0.051000 1.200000 0.023000 0.027000
1517189173422538978	1500 39 1.300000 0.089000 0.116000 1000 35 0.900000 0.817000 0.790000 600 40 1.000000 0.051000 0.051000 1.200000 0.023000 0.027000
1517189173929361062	1500 39 1.300000 0.088000 0.115000 1000 35 0.900000 0.823000 0.795000 600 39 1.000000 0.051000 0.051000 1.200000 0.023000 0.027000
1517189174436212770	1500 39 1.300000 0.088000 0.115000 1000 35 0.900000 0.814000 0.787000 600 39 1.000000 0.051000 0.051000 1.200000 0.023000 0.027000
1517189174943103895	1500 39 1.300000 0.088000 0.115000 1000 35 0.900000 0.820000 0.792000 600 40 1.000000 0.051000 0.051000 1.200000 0.023000 0.027000
1517189175449927895	1500 39 1.300000 0.088000 0.115000 1000 35 0.900000 0.803000 0.776000 600 39 1.000000 0.051000 0.051000 1.200000 0.023000 0.027000
1517189175956744562	1500 39 1.300000 0.088000 0.115000 1000 35 0.900000 0.819000 0.791000 600 40 1.000000 0.051000 0.051000 1.200000 0.022000 0.026000
1517189176463537229	1500 39 1.300000 0.088000 0.115000 1000 35 0.900000 0.854000 0.825000 600 39 1.000000 0.051000 0.051000 1.200000 0.023000 0.027000
1517189176970393104	1500 39 1.300000 0.088000 0.115000 1000 35 0.900000 0.816000 0.788000 600 39 1.000000 0.051000 0.051000 1.200000 0.022000 0.026000
1517189177477232854	1500 39 1.300000 0.088000 0.115000 1000 35 0.900000 0.824000 0.795000 600 39 1.000000 0.051000 0.051000 1.200000 0.022000 0.026000
1517189177983996729	1500 39 1.300000 0.088000 0.115000 1000 35 0.900000 0.832000 0.804000 600 40 1.000000 0.051000 0.051000 1.200000 0.022000 0.026000
1517189178491064812	1500 39 1.300000 0.088000 0.115000 1000 35 0.900000 0.828000 0.800000 600 39 1.000000 0.051000 0.051000 1.200000 0.023000 0.027000
1517189178997977479	1500 39 1.300000 0.089000 0.116000 1000 35 0.900000 0.830000 0.802000 600 40 1.000000 0.051000 0.051000 1.200000 0.024000 0.028000
1517189179504805312	1500 39 1.300000 0.089000 0.116000 1000 35 0.900000 0.846000 0.818000 600 39 1.000000 0.051000 0.051000 1.200000 0.023000 0.027000
1517189180011604104	1500 39 1.300000 0.088000 0.115000 1000 35 0.900000 0.856000 0.827000 600 40 1.000000 0.051000 0.051000 1.200000 0.023000 0.027000
1517189180518523229	1500 39 1.300000 0.088000 0.115000 1000 35 0.900000 0.846000 0.818000 600 39 1.000000 0.051000 0.051000 1.200000 0.023000 0.027000
1517189181025441479	1500 39 1.300000 0.088000 0.115000 1000 35 0.900000 0.843000 0.815000 600 39 1.000000 0.051000 0.051000 1.200000 0.023000 0.027000
1517189181532282938	1500 39 1.300000 0.089000 0.116000 1000 35 0.900000 0.837000 0.809000 600 39 1.000000 0.051000 0.051000 1.200000 0.023000 0.027000
1517189182039151938	1500 39 1.300000 0.088000 0.115000 1000 35 0.900000 0.839000 0.811000 600 40 1.000000 0.051000 0.051000 1.200000 0.023000 0.027000
1517189182546044021	1500 39 1.300000 0.088000 0.115000 1000 35 0.900000 0.817000 0.790000 600 40 1.000000 0.051000 0.051000 1.200000 0.022000 0.026000
1517189183052910730	1500 39 1.300000 0.088000 0.115000 1000 35 0.900000 0.831000 0.803000 600 40 1.000000 0.051000 0.051000 1.200000 0.022000 0.026000
1517189183559671563	1500 39 1.300000 0.089000 0.116000 1000 35 0.900000 0.815000 0.788000 600 40 1.000000 0.051000 0.051000 1.200000 0.023000 0.027000
1517189184066411605	1500 39 1.300000 0.088000 0.115000 1000 35 0.900000 0.821000 0.793000 600 39 1.000000 0.051000 0.051000 1.200000 0.022000 0.026000
1517189184573418063	1500 39 1.300000 0.089000 0.116000 1000 35 0.900000 0.818000 0.791000 600 40 1.000000 0.051000 0.051000 1.200000 0.022000 0.026000
1517189185080244605	1500 39 1.300000 0.089000 0.116000 1000 35 0.900000 0.857000 0.828000 600 40 1.000000 0.051000 0.051000 1.200000 0.023000 0.027000
1517189185587300272	1500 39 1.300000 0.089000 0.116000 1000 35 0.900000 0.828000 0.800000 600 39 1.000000 0.051000 0.051000 1.200000 0.023000 0.027000
1517189186094211063	1500 39 1.300000 0.089000 0.116000 1000 35 0.900000 0.851000 0.822000 600 39 1.000000 0.051000 0.051000 1.200000 0.023000 0.027000
1517189186601106105	1500 39 1.300000 0.088000 0.115000 1000 35 0.900000 0.838000 0.810000 600 39 1.000000 0.051000 0.051000 1.200000 0.022000 0.026000
1517189187108090272	1500 39 1.300000 0.088000 0.115000 1000 35 0.900000 0.821000 0.793000 600 40 1.000000 0.051000 0.051000 1.200000 0.022000 0.026000
1517189187614972397	1500 39 1.300000 0.088000 0.115000 1000 35 0.900000 0.849000 0.820000 600 39 1.000000 0.051000 0.051000 1.200000 0.023000 0.027000
1517189188121927147	1500 39 1.300000 0.088000 0.115000 1000 35 0.900000 0.824000 0.796000 600 39 1.000000 0.051000 0.051000 1.200000 0.023000 0.027000
1517189188628810605	1500 39 1.300000 0.088000 0.115000 1000 35 0.900000 0.833000 0.805000 600 40 1.000000 0.051000 0.051000 1.200000 0.022000 0.026000
1517189189135739064	1500 39 1.300000 0.088000 0.115000 1000 35 0.900000 0.826000 0.798000 600 40 1.000000 0.051000 0.051000 1.200000 0.022000 0.026000
1517189189642543189	1500 39 1.300000 0.088000 0.115000 1000 35 0.900000 0.828000 0.799000 600 40 1.000000 0.051000 0.051000 1.200000 0.022000 0.026000
1517189190149490814	1500 39 1.300000 0.089000 0.116000 1000 35 0.900000 0.813000 0.786000 600 39 1.000000 0.051000 0.051000 1.200000 0.022000 0.026000
1517189190656396564	1500 39 1.300000 0.088000 0.115000 1000 35 0.900000 0.808000 0.781000 600 39 1.000000 0.051000 0.051000 1.200000 0.022000 0.026000
1517189191163389689	1500 39 1.300000 0.088000 0.115000 1000 35 0.900000 0.821000 0.793000 600 39 1.000000 0.051000 0.051000 1.200000 0.022000 0.026000
1517189191670410356	1500 39 1.300000 0.089000 0.116000 1000 35 0.900000 0.840000 0.812000 600 39 1.000000 0.051000 0.051000 1.200000 0.023000 0.027000
1517189192177320772	1500 39 1.300000 0.089000 0.116000 1000 35 0.900000 0.818000 0.791000 600 39 1.000000 0.051000 0.051000 1.200000 0.023000 0.027000
1517189192684277606	1500 39 1.300000 0.089000 0.116000 1000 35 0.900000 0.829000 0.801000 600 40 1.000000 0.051000 0.051000 1.200000 0.022000 0.026000
1517189193191217439	1500 39 1.300000 0.088000 0.115000 1000 35 0.900000 0.836000 0.808000 600 39 1.000000 0.051000 0.051000 1.200000 0.023000 0.027000
1517189193698187522	1500 39 1.300000 0.088000 0.115000 1000 35 0.900000 0.838000 0.810000 600 39 1.000000 0.051000 0.051000 1.200000 0.023000 0.027000
1517189194205087106	1500 39 1.300000 0.088000 0.115000 1000 35 0.900000 0.825000 0.797000 600 39 1.000000 0.051000 0.051000 1.200000 0.022000 0.026000
1517189194711858689	1500 39 1.300000 0.088000 0.115000 1000 35 0.900000 0.832000 0.804000 600 39 1.000000 0.051000 0.051000 1.200000 0.022000 0.026000
1517189195218805564	1500 39 1.300000 0.088000 0.115000 1000 35 0.900000 0.808000 0.781000 600 40 1.000000 0.051000 0.051000 1.200000 0.022000 0.026000
1517189195725686189	1500 39 1.300000 0.088000 0.115000 1000 35 0.900000 0.804000 0.776000 600 40 1.000000 0.051000 0.051000 1.200000 0.022000 0.026000
1517189196232707564	1500 39 1.300000 0.088000 0.115000 1000 35 0.900000 0.808000 0.781000 600 40 1.000000 0.051000 0.051000 1.200000 0.023000 0.027000
1517189196739676648	1500 39 1.300000 0.089000 0.116000 1000 35 0.900000 0.812000 0.784000 600 39 1.000000 0.051000 0.051000 1.200000 0.022000 0.026000
1517189197246448523	1500 39 1.300000 0.088000 0.115000 1000 35 0.900000 0.819000 0.791000 600 40 1.000000 0.051000 0.051000 1.200000 0.023000 0.027000
1517189197753373606	1500 39 1.300000 0.089000 0.116000 1000 35 0.900000 0.834000 0.806000 600 39 1.000000 0.051000 0.051000 1.200000 0.023000 0.027000
1517189198260334190	1500 39 1.300000 0.089000 0.116000 1000 35 0.900000 0.848000 0.820000 600 40 1.000000 0.051000 0.051000 1.200000 0.023000 0.027000
1517189198767239773	1500 39 1.300000 0.089000 0.116000 1000 35 0.900000 0.846000 0.818000 600 40 1.000000 0.051000 0.051000 1.200000 0.023000 0.027000
1517189199274121065	1500 39 1.300000 0.089000 0.116000 1000 35 0.900000 0.828000 0.800000 600 40 1.000000 0.051000 0.051000 1.200000 0.022000 0.026000
1517189199781033482	1500 39 1.300000 0.088000 0.115000 1000 35 0.900000 0.801000 0.773000 600 39 1.000000 0.051000 0.051000 1.200000 0.022000 0.026000
1517189200287922107	1500 39 1.300000 0.089000 0.116000 1000 35 0.900000 0.845000 0.817000 600 40 1.000000 0.051000 0.051000 1.200000 0.022000 0.026000
1517189200794982565	1500 39 1.300000 0.088000 0.115000 1000 35 0.900000 0.818000 0.790000 600 40 1.000000 0.051000 0.051000 1.200000 0.022000 0.026000
1517189201301885107	1500 39 1.300000 0.088000 0.115000 1000 35 0.900000 0.814000 0.786000 600 40 1.000000 0.051000 0.051000 1.200000 0.022000 0.026000
1517189201808843815	1500 39 1.300000 0.088000 0.115000 1000 35 0.900000 0.812000 0.784000 600 40 1.000000 0.051000 0.051000 1.200000 0.022000 0.026000
1517189202315751524	1500 39 1.300000 0.089000 0.116000 1000 35 0.900000 0.826000 0.797000 600 40 1.000000 0.051000 0.051000 1.200000 0.022000 0.026000
1517189202822841399	1500 39 1.300000 0.088000 0.115000 1000 35 0.900000 0.803000 0.775000 600 40 1.000000 0.051000 0.051000 1.200000 0.023000 0.027000
1517189203329799774	1500 39 1.300000 0.089000 0.116000 1000 35 0.900000 0.826000 0.798000 600 40 1.000000 0.051000 0.051000 1.200000 0.023000 0.027000
1517189203836670649	1500 39 1.300000 0.088000 0.115000 1000 35 0.900000 0.820000 0.792000 600 39 1.000000 0.051000 0.051000 1.200000 0.023000 0.027000
1517189204343688440	1500 39 1.300000 0.089000 0.116000 1000 35 0.900000 0.834000 0.806000 600 39 1.000000 0.051000 0.051000 1.200000 0.023000 0.027000
1517189204850613482	1500 39 1.300000 0.088000 0.115000 1000 35 0.900000 0.823000 0.795000 600 40 1.000000 0.051000 0.051000 1.200000 0.022000 0.026000
1517189205357448149	1500 39 1.300000 0.089000 0.116000 1000 35 0.900000 0.812000 0.784000 600 40 1.000000 0.051000 0.051000 1.200000 0.022000 0.026000
1517189205864364191	1500 39 1.300000 0.089000 0.116000 1000 35 0.900000 0.823000 0.795000 600 39 1.000000 0.051000 0.051000 1.200000 0.022000 0.026000
1517189206371253899	1500 39 1.300000 0.088000 0.115000 1000 35 0.900000 0.803000 0.775000 600 40 1.000000 0.051000 0.051000 1.200000 0.022000 0.026000
1517189206878175649	1500 39 1.300000 0.088000 0.115000 1000 35 0.900000 0.815000 0.787000 600 39 1.000000 0.051000 0.051000 1.200000 0.023000 0.027000
1517189207385098024	1500 39 1.300000 0.088000 0.115000 1000 35 0.900000 0.809000 0.781000 600 39 1.000000 0.051000 0.051000 1.200000 0.023000 0.027000
1517189207891909691	1500 35 1.300000 0.088000 0.115000 1000 34 0.900000 0.224000 0.217000 600 39 1.000000 0.051000 0.051000 1.200000 0.024000 0.028000
1517189208398690274	1500 34 1.300000 0.087000 0.113000 1000 33 0.900000 0.105000 0.102000 600 38 1.000000 0.051000 0.051000 1.200000 0.023000 0.027000
