#Timestamp	CPU(0) Frequency(MHz)	CPU(0) Temperature(C)	A7 Voltage(V)	A7 Current(A)	A7 Power(W)	CPU(4) Frequency(MHz)	CPU(4) Temperature(C)	A15 Voltage(V)	A15 Current(A)	A15 Power(W)	GPU Frequency(MHz)	GPU Temperature(C)	GPU Voltage(V)	GPU Current(A)	GPU Power(W)	RAM Voltage(V)	RAM Current(A)	RAM Power(W)
1517207103725580033	1200 51 1.100000 0.076000 0.089000 1700 44 1.100000 0.931000 1.089000 600 49 1.000000 0.052000 0.052000 1.200000 0.040000 0.048000
1517207104230863574	1200 52 1.100000 0.063000 0.074000 1700 44 1.100000 1.175000 1.375000 600 49 1.000000 0.052000 0.052000 1.200000 0.033000 0.039000
1517207104736299866	1200 52 1.100000 0.063000 0.074000 1700 44 1.100000 1.152000 1.348000 600 49 1.000000 0.052000 0.052000 1.200000 0.032000 0.038000
1517207105241867908	1200 52 1.100000 0.063000 0.074000 1700 44 1.100000 1.149000 1.345000 600 49 1.000000 0.052000 0.052000 1.200000 0.033000 0.039000
1517207105747383533	1200 53 1.100000 0.193000 0.226000 1700 45 1.100000 1.857000 2.181000 600 51 1.000000 0.052000 0.052000 1.200000 0.042000 0.050000
1517207106253631741	1200 54 1.100000 0.195000 0.228000 1700 46 1.100000 1.981000 2.327000 600 53 1.000000 0.052000 0.052000 1.200000 0.042000 0.050000
1517207106761301575	1200 54 1.100000 0.202000 0.236000 1700 46 1.100000 1.992000 2.340000 600 52 1.000000 0.053000 0.053000 1.200000 0.036000 0.043000
1517207107267488658	1200 55 1.100000 0.191000 0.223000 1700 46 1.100000 2.010000 2.361000 600 53 1.000000 0.053000 0.053000 1.200000 0.035000 0.042000
1517207107772968825	1200 55 1.100000 0.197000 0.230000 1700 47 1.100000 2.089000 2.456000 600 53 1.000000 0.053000 0.053000 1.200000 0.042000 0.050000
1517207108278587575	1200 55 1.100000 0.195000 0.228000 1700 47 1.100000 2.012000 2.364000 600 53 1.000000 0.053000 0.053000 1.200000 0.034000 0.041000
1517207108784316241	1200 56 1.100000 0.204000 0.238000 1700 47 1.100000 2.187000 2.571000 600 54 1.000000 0.053000 0.053000 1.200000 0.049000 0.059000
1517207109290401408	1200 56 1.100000 0.195000 0.228000 1700 47 1.100000 2.006000 2.357000 600 54 1.000000 0.053000 0.053000 1.200000 0.034000 0.041000
1517207109795924325	1200 56 1.100000 0.195000 0.228000 1700 47 1.100000 2.108000 2.479000 600 54 1.000000 0.053000 0.053000 1.200000 0.041000 0.049000
1517207110301408992	1200 56 1.100000 0.190000 0.222000 1700 47 1.100000 1.999000 2.348000 600 54 1.000000 0.053000 0.053000 1.200000 0.034000 0.041000
1517207110806995158	1200 56 1.100000 0.204000 0.238000 1700 48 1.100000 2.202000 2.589000 600 54 1.000000 0.053000 0.053000 1.200000 0.046000 0.055000
1517207111312478158	1200 56 1.100000 0.195000 0.227000 1700 48 1.100000 1.997000 2.346000 600 54 1.000000 0.053000 0.053000 1.200000 0.036000 0.043000
1517207111819282533	1200 56 1.100000 0.188000 0.220000 1700 48 1.100000 2.004000 2.354000 600 54 1.000000 0.053000 0.053000 1.200000 0.038000 0.045000
1517207112326039534	1200 56 1.100000 0.193000 0.225000 1700 48 1.100000 1.988000 2.335000 600 54 1.000000 0.053000 0.053000 1.200000 0.039000 0.047000
1517207112831899617	1200 57 1.100000 0.195000 0.228000 1700 48 1.100000 2.198000 2.584000 600 55 1.000000 0.053000 0.053000 1.200000 0.044000 0.053000
1517207113337407909	1200 56 1.100000 0.195000 0.228000 1700 48 1.100000 2.009000 2.360000 600 54 1.000000 0.053000 0.053000 1.200000 0.036000 0.043000
1517207113843089992	1200 56 1.100000 0.195000 0.227000 1700 48 1.100000 2.088000 2.455000 600 54 1.000000 0.053000 0.053000 1.200000 0.038000 0.045000
1517207114348681367	1200 56 1.100000 0.195000 0.227000 1700 48 1.100000 2.013000 2.365000 600 54 1.000000 0.053000 0.053000 1.200000 0.036000 0.043000
1517207114855221492	1200 57 1.100000 0.190000 0.221000 1700 48 1.100000 2.056000 2.415000 600 55 1.000000 0.053000 0.053000 1.200000 0.034000 0.041000
1517207115361336201	1200 56 1.100000 0.196000 0.229000 1700 48 1.100000 2.010000 2.361000 600 54 1.000000 0.053000 0.053000 1.200000 0.035000 0.042000
1517207115867099784	1200 57 1.100000 0.197000 0.230000 1700 48 1.100000 2.081000 2.445000 600 55 1.000000 0.053000 0.053000 1.200000 0.043000 0.052000
1517207116372635159	1200 57 1.100000 0.195000 0.228000 1700 48 1.100000 2.003000 2.353000 600 55 1.000000 0.053000 0.053000 1.200000 0.036000 0.043000
1517207116877743326	1200 57 1.100000 0.196000 0.229000 1700 48 1.100000 1.998000 2.347000 600 55 1.000000 0.053000 0.053000 1.200000 0.035000 0.042000
1517207117383355201	1200 57 1.100000 0.195000 0.228000 1700 48 1.100000 1.991000 2.339000 600 55 1.000000 0.053000 0.053000 1.200000 0.036000 0.043000
1517207117888963076	1200 57 1.100000 0.184000 0.215000 1700 48 1.100000 1.971000 2.315000 600 55 1.000000 0.053000 0.053000 1.200000 0.039000 0.047000
1517207118394545368	1200 57 1.100000 0.195000 0.228000 1700 48 1.100000 2.002000 2.352000 600 55 1.000000 0.053000 0.053000 1.200000 0.035000 0.042000
1517207118900648409	1200 55 1.100000 0.193000 0.225000 1700 48 1.100000 1.999000 2.348000 600 56 1.000000 0.053000 0.053000 1.200000 0.035000 0.042000
1517207119406625409	1200 57 1.100000 0.194000 0.226000 1700 48 1.100000 2.217000 2.607000 600 55 1.000000 0.053000 0.053000 1.200000 0.044000 0.053000
1517207119912191951	1200 57 1.100000 0.195000 0.227000 1700 48 1.100000 2.088000 2.455000 600 55 1.000000 0.053000 0.053000 1.200000 0.038000 0.045000
1517207120417712160	1200 57 1.100000 0.195000 0.227000 1700 48 1.100000 2.004000 2.354000 600 55 1.000000 0.053000 0.053000 1.200000 0.036000 0.043000
1517207120923269035	1200 57 1.100000 0.191000 0.223000 1700 48 1.100000 2.005000 2.355000 600 54 1.000000 0.053000 0.053000 1.200000 0.037000 0.044000
1517207121429428118	1200 57 1.100000 0.204000 0.238000 1700 48 1.100000 2.188000 2.573000 600 55 1.000000 0.053000 0.053000 1.200000 0.046000 0.055000
1517207121935237951	1200 57 1.100000 0.195000 0.227000 1700 48 1.100000 2.084000 2.450000 600 55 1.000000 0.053000 0.053000 1.200000 0.044000 0.053000
1517207122440745035	1200 57 1.100000 0.190000 0.222000 1700 48 1.100000 1.997000 2.346000 600 55 1.000000 0.053000 0.053000 1.200000 0.035000 0.042000
1517207122946438743	1200 57 1.100000 0.195000 0.228000 1700 48 1.100000 2.003000 2.353000 600 55 1.000000 0.053000 0.053000 1.200000 0.035000 0.042000
1517207123451917410	1200 57 1.100000 0.202000 0.235000 1700 48 1.100000 2.181000 2.564000 600 55 1.000000 0.053000 0.053000 1.200000 0.051000 0.061000
1517207123957555285	1200 57 1.100000 0.197000 0.230000 1700 48 1.100000 1.998000 2.347000 600 55 1.000000 0.053000 0.053000 1.200000 0.037000 0.044000
1517207124463196202	1200 57 1.100000 0.195000 0.228000 1700 48 1.100000 2.002000 2.352000 600 55 1.000000 0.053000 0.053000 1.200000 0.036000 0.043000
1517207124968644660	1200 57 1.100000 0.186000 0.217000 1700 48 1.100000 1.984000 2.331000 600 55 1.000000 0.053000 0.053000 1.200000 0.036000 0.043000
1517207125474081327	1200 57 1.100000 0.196000 0.229000 1700 48 1.100000 2.065000 2.426000 600 55 1.000000 0.053000 0.053000 1.200000 0.042000 0.050000
1517207125980841910	1200 57 1.100000 0.201000 0.234000 1700 48 1.100000 2.156000 2.535000 600 55 1.000000 0.053000 0.053000 1.200000 0.042000 0.050000
1517207126486965910	1200 55 1.100000 0.186000 0.217000 1700 48 1.100000 2.019000 2.372000 600 55 1.000000 0.053000 0.053000 1.200000 0.037000 0.044000
1517207126992545660	1200 57 1.100000 0.193000 0.225000 1700 48 1.100000 1.997000 2.346000 600 55 1.000000 0.053000 0.053000 1.200000 0.036000 0.043000
1517207127499386619	1200 57 1.100000 0.196000 0.229000 1700 48 1.100000 2.024000 2.378000 600 55 1.000000 0.053000 0.053000 1.200000 0.034000 0.041000
1517207128004930827	1200 57 1.100000 0.192000 0.224000 1700 48 1.100000 2.132000 2.507000 600 55 1.000000 0.053000 0.053000 1.200000 0.040000 0.048000
1517207128510841494	1200 57 1.100000 0.198000 0.230000 1700 48 1.100000 2.051000 2.409000 600 55 1.000000 0.053000 0.053000 1.200000 0.042000 0.050000
1517207129016879036	1200 57 1.100000 0.195000 0.227000 1700 48 1.100000 2.055000 2.414000 600 55 1.000000 0.053000 0.053000 1.200000 0.035000 0.042000
1517207129522081702	1200 57 1.100000 0.198000 0.230000 1700 48 1.100000 2.064000 2.425000 600 56 1.000000 0.053000 0.053000 1.200000 0.034000 0.041000
1517207130028631661	1200 57 1.100000 0.198000 0.230000 1700 49 1.100000 2.239000 2.633000 600 55 1.000000 0.053000 0.053000 1.200000 0.039000 0.047000
1517207130534448161	1200 57 1.100000 0.188000 0.219000 1700 49 1.100000 2.056000 2.415000 600 55 1.000000 0.053000 0.053000 1.200000 0.036000 0.043000
1517207131040012577	1200 57 1.100000 0.198000 0.230000 1700 49 1.100000 2.069000 2.431000 600 55 1.000000 0.053000 0.053000 1.200000 0.036000 0.043000
1517207131547156744	1200 57 1.100000 0.198000 0.230000 1700 48 1.100000 2.045000 2.402000 600 56 1.000000 0.053000 0.053000 1.200000 0.036000 0.043000
1517207132053042578	1200 57 1.100000 0.199000 0.231000 1700 49 1.100000 2.151000 2.529000 600 55 1.000000 0.053000 0.053000 1.200000 0.051000 0.061000
1517207132558732328	1200 57 1.100000 0.198000 0.230000 1700 49 1.100000 2.048000 2.406000 600 55 1.000000 0.053000 0.053000 1.200000 0.035000 0.042000
1517207133064256328	1200 57 1.100000 0.198000 0.230000 1700 49 1.100000 2.073000 2.437000 600 55 1.000000 0.053000 0.053000 1.200000 0.036000 0.043000
1517207133569780661	1200 57 1.100000 0.189000 0.220000 1700 49 1.100000 2.046000 2.404000 600 55 1.000000 0.053000 0.053000 1.200000 0.035000 0.042000
1517207134075349078	1200 57 1.100000 0.207000 0.240000 1700 49 1.100000 2.217000 2.607000 600 55 1.000000 0.053000 0.053000 1.200000 0.048000 0.058000
1517207134581334620	1200 56 1.100000 0.198000 0.230000 1700 49 1.100000 2.064000 2.425000 600 55 1.000000 0.053000 0.053000 1.200000 0.036000 0.043000
1517207135086849828	1200 57 1.100000 0.191000 0.222000 1700 49 1.100000 2.061000 2.421000 600 55 1.000000 0.053000 0.053000 1.200000 0.036000 0.043000
1517207135592351703	1200 57 1.100000 0.198000 0.230000 1700 49 1.100000 2.060000 2.422000 600 55 1.000000 0.053000 0.053000 1.200000 0.040000 0.048000
1517207136097841495	1200 57 1.100000 0.213000 0.248000 1700 49 1.100000 2.260000 2.657000 600 55 1.000000 0.053000 0.053000 1.200000 0.038000 0.045000
1517207136603367120	1200 57 1.100000 0.196000 0.228000 1700 49 1.100000 2.030000 2.385000 600 55 1.000000 0.053000 0.053000 1.200000 0.035000 0.042000
1517207137110921953	1200 56 1.100000 0.196000 0.228000 1700 49 1.100000 2.048000 2.406000 600 55 1.000000 0.053000 0.053000 1.200000 0.038000 0.045000
1517207137616977578	1200 57 1.100000 0.195000 0.227000 1700 49 1.100000 2.073000 2.435000 600 55 1.000000 0.053000 0.053000 1.200000 0.042000 0.050000
1517207138122701162	1200 57 1.100000 0.198000 0.230000 1700 49 1.100000 2.044000 2.401000 600 55 1.000000 0.053000 0.053000 1.200000 0.036000 0.043000
1517207138628322328	1200 57 1.100000 0.205000 0.238000 1700 49 1.100000 2.095000 2.463000 600 55 1.000000 0.053000 0.053000 1.200000 0.042000 0.050000
1517207139133940328	1200 57 1.100000 0.198000 0.230000 1700 49 1.100000 2.045000 2.402000 600 55 1.000000 0.053000 0.053000 1.200000 0.037000 0.044000
1517207139641439328	1200 57 1.100000 0.198000 0.230000 1700 49 1.100000 2.067000 2.428000 600 55 1.000000 0.053000 0.053000 1.200000 0.036000 0.043000
1517207140147413037	1200 58 1.100000 0.198000 0.230000 1700 49 1.100000 2.057000 2.416000 600 56 1.000000 0.053000 0.053000 1.200000 0.035000 0.042000
1517207140653069162	1200 57 1.100000 0.190000 0.221000 1700 49 1.100000 2.056000 2.417000 600 55 1.000000 0.053000 0.053000 1.200000 0.040000 0.048000
1517207141158691329	1200 57 1.100000 0.198000 0.230000 1700 49 1.100000 2.047000 2.405000 600 55 1.000000 0.053000 0.053000 1.200000 0.041000 0.049000
1517207141664272287	1200 57 1.100000 0.198000 0.230000 1700 49 1.100000 2.056000 2.415000 600 55 1.000000 0.053000 0.053000 1.200000 0.036000 0.043000
1517207142170994954	1200 57 1.100000 0.198000 0.230000 1700 49 1.100000 2.102000 2.471000 600 56 1.000000 0.053000 0.053000 1.200000 0.036000 0.043000
1517207142677014245	1200 57 1.100000 0.198000 0.230000 1700 49 1.100000 2.047000 2.405000 600 55 1.000000 0.053000 0.053000 1.200000 0.044000 0.053000
1517207143182649787	1200 57 1.100000 0.190000 0.221000 1700 49 1.100000 2.035000 2.391000 600 55 1.000000 0.053000 0.053000 1.200000 0.036000 0.043000
1517207143688199204	1200 57 1.100000 0.196000 0.228000 1700 49 1.100000 2.038000 2.394000 600 55 1.000000 0.053000 0.053000 1.200000 0.037000 0.044000
1517207144193795704	1200 57 1.100000 0.198000 0.231000 1700 49 1.100000 2.026000 2.380000 600 55 1.000000 0.053000 0.053000 1.200000 0.037000 0.044000
1517207144700980412	1200 57 1.100000 0.198000 0.230000 1700 49 1.100000 2.241000 2.635000 600 55 1.000000 0.053000 0.053000 1.200000 0.044000 0.053000
1517207145207036246	1200 57 1.100000 0.192000 0.224000 1700 49 1.100000 2.047000 2.405000 600 55 1.000000 0.053000 0.053000 1.200000 0.036000 0.043000
1517207145712661871	1200 57 1.100000 0.196000 0.228000 1700 49 1.100000 2.033000 2.388000 600 55 1.000000 0.053000 0.053000 1.200000 0.036000 0.043000
1517207146218118079	1200 57 1.100000 0.194000 0.226000 1700 49 1.100000 2.053000 2.412000 600 55 1.000000 0.053000 0.053000 1.200000 0.043000 0.051000
1517207146724661246	1200 57 1.100000 0.204000 0.237000 1700 49 1.100000 2.229000 2.621000 600 55 1.000000 0.053000 0.053000 1.200000 0.041000 0.049000
1517207147231420121	1200 57 1.100000 0.198000 0.230000 1700 49 1.100000 2.019000 2.372000 600 55 1.000000 0.053000 0.053000 1.200000 0.035000 0.042000
1517207147737087038	1200 57 1.100000 0.189000 0.220000 1700 48 1.100000 2.034000 2.389000 600 55 1.000000 0.053000 0.053000 1.200000 0.038000 0.045000
1517207148242731079	1200 57 1.100000 0.198000 0.231000 1700 49 1.100000 2.079000 2.442000 600 55 1.000000 0.053000 0.053000 1.200000 0.036000 0.043000
1517207148748368788	1200 57 1.100000 0.205000 0.239000 1700 49 1.100000 2.224000 2.615000 600 55 1.000000 0.053000 0.053000 1.200000 0.043000 0.051000
1517207149253864455	1200 57 1.100000 0.197000 0.229000 1700 49 1.100000 2.008000 2.359000 600 55 1.000000 0.053000 0.053000 1.200000 0.035000 0.042000
1517207149759791913	1200 57 1.100000 0.196000 0.228000 1700 49 1.100000 2.028000 2.382000 600 55 1.000000 0.053000 0.053000 1.200000 0.039000 0.047000
1517207150265611246	1200 57 1.100000 0.197000 0.229000 1700 49 1.100000 2.020000 2.373000 600 55 1.000000 0.053000 0.053000 1.200000 0.035000 0.042000
1517207150771174413	1200 57 1.100000 0.196000 0.228000 1700 49 1.100000 2.039000 2.395000 600 55 1.000000 0.053000 0.053000 1.200000 0.036000 0.043000
1517207151276736413	1200 57 1.100000 0.205000 0.239000 1700 49 1.100000 2.020000 2.373000 600 55 1.000000 0.053000 0.053000 1.200000 0.036000 0.043000
1517207151782465747	1200 57 1.100000 0.197000 0.229000 1700 49 1.100000 2.048000 2.406000 600 55 1.000000 0.053000 0.053000 1.200000 0.038000 0.045000
1517207152287780288	1200 57 1.100000 0.195000 0.228000 1700 49 1.100000 2.027000 2.381000 600 55 1.000000 0.053000 0.053000 1.200000 0.034000 0.041000
1517207152793593497	1200 56 1.100000 0.197000 0.229000 1700 49 1.100000 2.006000 2.357000 600 56 1.000000 0.053000 0.053000 1.200000 0.037000 0.044000
1517207153299248288	1200 57 1.100000 0.188000 0.219000 1700 49 1.100000 2.020000 2.373000 600 55 1.000000 0.053000 0.053000 1.200000 0.040000 0.048000
1517207153804863872	1200 57 1.100000 0.197000 0.229000 1700 49 1.100000 2.028000 2.382000 600 55 1.000000 0.053000 0.053000 1.200000 0.035000 0.042000
1517207154310290872	1200 57 1.100000 0.196000 0.228000 1700 49 1.100000 2.031000 2.386000 600 55 1.000000 0.053000 0.053000 1.200000 0.035000 0.042000
1517207154816674164	1200 57 1.100000 0.195000 0.227000 1700 48 1.100000 2.016000 2.368000 600 56 1.000000 0.053000 0.053000 1.200000 0.043000 0.051000
1517207155324687997	1200 57 1.100000 0.195000 0.227000 1700 48 1.100000 2.004000 2.354000 600 55 1.000000 0.053000 0.053000 1.200000 0.036000 0.043000
1517207155830695497	1200 57 1.100000 0.194000 0.226000 1700 48 1.100000 2.020000 2.373000 600 55 1.000000 0.053000 0.053000 1.200000 0.036000 0.043000
1517207156336088039	1200 57 1.100000 0.190000 0.221000 1700 48 1.100000 2.021000 2.374000 600 55 1.000000 0.053000 0.053000 1.200000 0.036000 0.043000
1517207156841722789	1200 57 1.100000 0.193000 0.225000 1700 48 1.100000 2.001000 2.351000 600 55 1.000000 0.053000 0.053000 1.200000 0.039000 0.047000
1517207157347376372	1200 57 1.100000 0.197000 0.230000 1700 48 1.100000 2.221000 2.611000 600 55 1.000000 0.053000 0.053000 1.200000 0.047000 0.056000
1517207157854831914	1200 57 1.100000 0.189000 0.220000 1700 48 1.100000 2.013000 2.365000 600 55 1.000000 0.053000 0.053000 1.200000 0.036000 0.043000
1517207158360666539	1200 57 1.100000 0.194000 0.226000 1700 48 1.100000 1.989000 2.337000 600 55 1.000000 0.053000 0.053000 1.200000 0.043000 0.052000
1517207158866338706	1200 57 1.100000 0.198000 0.230000 1700 48 1.100000 2.009000 2.360000 600 55 1.000000 0.053000 0.053000 1.200000 0.035000 0.042000
1517207159371869622	1200 57 1.100000 0.202000 0.235000 1700 48 1.100000 2.226000 2.617000 600 55 1.000000 0.053000 0.053000 1.200000 0.045000 0.054000
1517207159877364123	1200 57 1.100000 0.198000 0.230000 1700 48 1.100000 2.017000 2.369000 600 55 1.000000 0.053000 0.053000 1.200000 0.037000 0.044000
1517207160383460498	1200 57 1.100000 0.189000 0.220000 1700 48 1.100000 2.023000 2.377000 600 55 1.000000 0.053000 0.053000 1.200000 0.036000 0.043000
1517207160889244748	1200 57 1.100000 0.196000 0.228000 1700 48 1.100000 2.010000 2.361000 600 55 1.000000 0.053000 0.053000 1.200000 0.034000 0.041000
1517207161394782748	1200 57 1.100000 0.203000 0.236000 1700 48 1.100000 2.214000 2.603000 600 55 1.000000 0.053000 0.053000 1.200000 0.044000 0.053000
1517207161900353081	1200 57 1.100000 0.195000 0.227000 1700 48 1.100000 2.013000 2.365000 600 55 1.000000 0.053000 0.053000 1.200000 0.039000 0.047000
1517207162405490040	1200 57 1.100000 0.197000 0.229000 1700 48 1.100000 2.013000 2.365000 600 55 1.000000 0.053000 0.053000 1.200000 0.037000 0.044000
1517207162911676456	1200 56 1.100000 0.196000 0.228000 1700 48 1.100000 2.102000 2.469000 600 55 1.000000 0.053000 0.053000 1.200000 0.036000 0.043000
1517207163417303040	1200 57 1.100000 0.188000 0.219000 1700 48 1.100000 2.014000 2.366000 600 55 1.000000 0.053000 0.053000 1.200000 0.038000 0.045000
1517207163922928415	1200 57 1.100000 0.204000 0.237000 1700 48 1.100000 2.209000 2.597000 600 55 1.000000 0.053000 0.053000 1.200000 0.038000 0.045000
1517207164428138706	1200 57 1.100000 0.197000 0.229000 1700 48 1.100000 2.026000 2.380000 600 55 1.000000 0.053000 0.053000 1.200000 0.035000 0.042000
1517207164933645831	1200 57 1.100000 0.195000 0.227000 1700 48 1.100000 2.109000 2.480000 600 55 1.000000 0.053000 0.053000 1.200000 0.034000 0.041000
1517207165439616998	1200 57 1.100000 0.198000 0.230000 1700 48 1.100000 2.038000 2.394000 600 56 1.000000 0.053000 0.053000 1.200000 0.039000 0.047000
1517207165945383373	1200 57 1.100000 0.195000 0.227000 1700 48 1.100000 2.157000 2.536000 600 55 1.000000 0.053000 0.053000 1.200000 0.036000 0.043000
1517207166450629373	1200 57 1.100000 0.196000 0.228000 1700 49 1.100000 2.043000 2.400000 600 55 1.000000 0.053000 0.053000 1.200000 0.034000 0.041000
1517207166956169748	1200 57 1.100000 0.197000 0.229000 1700 48 1.100000 2.102000 2.469000 600 55 1.000000 0.053000 0.053000 1.200000 0.042000 0.050000
1517207167462040665	1200 57 1.100000 0.190000 0.221000 1700 48 1.100000 2.030000 2.385000 600 56 1.000000 0.053000 0.053000 1.200000 0.036000 0.043000
1517207167968703415	1200 57 1.100000 0.198000 0.230000 1700 48 1.100000 2.119000 2.491000 600 55 1.000000 0.053000 0.053000 1.200000 0.035000 0.042000
1517207168474983624	1200 56 1.100000 0.200000 0.233000 1700 48 1.100000 2.020000 2.373000 600 55 1.000000 0.053000 0.053000 1.200000 0.035000 0.042000
1517207168980538124	1200 57 1.100000 0.186000 0.217000 1700 48 1.100000 2.107000 2.475000 600 55 1.000000 0.053000 0.053000 1.200000 0.042000 0.050000
1517207169486129957	1200 57 1.100000 0.196000 0.228000 1700 48 1.100000 2.021000 2.374000 600 55 1.000000 0.053000 0.053000 1.200000 0.037000 0.044000
1517207169991839665	1200 57 1.100000 0.198000 0.230000 1700 48 1.100000 2.151000 2.529000 600 55 1.000000 0.053000 0.053000 1.200000 0.046000 0.055000
1517207170497773540	1200 57 1.100000 0.188000 0.219000 1700 48 1.100000 2.017000 2.369000 600 55 1.000000 0.053000 0.053000 1.200000 0.041000 0.049000
1517207171004585249	1200 56 1.100000 0.200000 0.233000 1700 48 1.100000 2.117000 2.487000 600 55 1.000000 0.053000 0.053000 1.200000 0.035000 0.042000
1517207171510636457	1200 57 1.100000 0.197000 0.229000 1700 48 1.100000 2.014000 2.366000 600 55 1.000000 0.053000 0.053000 1.200000 0.036000 0.043000
1517207172016159124	1200 57 1.100000 0.201000 0.234000 1700 48 1.100000 2.189000 2.574000 600 55 1.000000 0.053000 0.053000 1.200000 0.045000 0.054000
1517207172521658582	1200 57 1.100000 0.198000 0.230000 1700 48 1.100000 2.018000 2.371000 600 55 1.000000 0.053000 0.053000 1.200000 0.035000 0.042000
1517207173027314624	1200 57 1.100000 0.188000 0.219000 1700 48 1.100000 2.126000 2.498000 600 55 1.000000 0.053000 0.053000 1.200000 0.040000 0.048000
1517207173534864958	1200 56 1.100000 0.197000 0.229000 1700 48 1.100000 2.000000 2.350000 600 55 1.000000 0.053000 0.053000 1.200000 0.037000 0.044000
1517207174040755916	1200 57 1.100000 0.200000 0.233000 1700 48 1.100000 2.219000 2.609000 600 55 1.000000 0.053000 0.053000 1.200000 0.043000 0.051000
1517207174546339416	1200 57 1.100000 0.192000 0.224000 1700 48 1.100000 2.046000 2.404000 600 55 1.000000 0.053000 0.053000 1.200000 0.043000 0.051000
1517207175051926624	1200 57 1.100000 0.200000 0.233000 1700 48 1.100000 2.122000 2.495000 600 55 1.000000 0.053000 0.053000 1.200000 0.035000 0.042000
1517207175557537499	1200 57 1.100000 0.197000 0.229000 1700 48 1.100000 2.014000 2.366000 600 55 1.000000 0.053000 0.053000 1.200000 0.036000 0.043000
1517207176065196499	1200 57 1.100000 0.194000 0.226000 1700 48 1.100000 2.021000 2.374000 600 55 1.000000 0.053000 0.053000 1.200000 0.042000 0.050000
1517207176571426916	1200 57 1.100000 0.205000 0.238000 1700 48 1.100000 2.031000 2.386000 600 55 1.000000 0.053000 0.053000 1.200000 0.044000 0.053000
1517207177076883000	1200 57 1.100000 0.197000 0.229000 1700 48 1.100000 2.098000 2.465000 600 55 1.000000 0.053000 0.053000 1.200000 0.037000 0.044000
1517207177582589250	1200 57 1.100000 0.191000 0.222000 1700 48 1.100000 2.035000 2.391000 600 55 1.000000 0.053000 0.053000 1.200000 0.043000 0.052000
1517207178087760666	1200 57 1.100000 0.197000 0.229000 1700 48 1.100000 2.016000 2.368000 600 56 1.000000 0.053000 0.053000 1.200000 0.035000 0.042000
1517207178594021625	1200 57 1.100000 0.192000 0.224000 1700 48 1.100000 2.016000 2.368000 600 55 1.000000 0.053000 0.053000 1.200000 0.040000 0.048000
1517207179100017000	1200 57 1.100000 0.199000 0.231000 1700 48 1.100000 2.096000 2.464000 600 55 1.000000 0.053000 0.053000 1.200000 0.040000 0.048000
1517207179605610708	1200 57 1.100000 0.198000 0.230000 1700 48 1.100000 2.016000 2.368000 600 55 1.000000 0.053000 0.053000 1.200000 0.038000 0.045000
1517207180111026625	1200 57 1.100000 0.190000 0.221000 1700 48 1.100000 2.015000 2.367000 600 55 1.000000 0.053000 0.053000 1.200000 0.034000 0.041000
1517207180617874458	1200 57 1.100000 0.201000 0.234000 1700 48 1.100000 2.204000 2.591000 600 55 1.000000 0.053000 0.053000 1.200000 0.042000 0.050000
1517207181124503208	1200 56 1.100000 0.198000 0.230000 1700 48 1.100000 2.119000 2.489000 600 55 1.000000 0.053000 0.053000 1.200000 0.041000 0.049000
1517207181630218083	1200 57 1.100000 0.189000 0.220000 1700 48 1.100000 2.030000 2.385000 600 54 1.000000 0.053000 0.053000 1.200000 0.037000 0.044000
1517207182135743334	1200 57 1.100000 0.198000 0.230000 1700 48 1.100000 2.030000 2.385000 600 55 1.000000 0.053000 0.053000 1.200000 0.035000 0.042000
1517207182641325459	1200 57 1.100000 0.198000 0.230000 1700 48 1.100000 2.249000 2.644000 600 55 1.000000 0.053000 0.053000 1.200000 0.041000 0.049000
1517207183146926459	1200 57 1.100000 0.189000 0.220000 1700 48 1.100000 2.120000 2.491000 600 55 1.000000 0.053000 0.053000 1.200000 0.041000 0.049000
1517207183653221250	1200 56 1.100000 0.198000 0.230000 1700 48 1.100000 2.018000 2.371000 600 55 1.000000 0.053000 0.053000 1.200000 0.037000 0.044000
1517207184158933792	1200 57 1.100000 0.198000 0.230000 1700 48 1.100000 2.012000 2.364000 600 55 1.000000 0.053000 0.053000 1.200000 0.036000 0.043000
1517207184664523792	1200 57 1.100000 0.196000 0.228000 1700 48 1.100000 2.219000 2.609000 600 55 1.000000 0.053000 0.053000 1.200000 0.043000 0.051000
1517207185170073334	1200 57 1.100000 0.198000 0.230000 1700 48 1.100000 2.104000 2.472000 600 55 1.000000 0.053000 0.053000 1.200000 0.041000 0.049000
1517207185675721334	1200 57 1.100000 0.191000 0.222000 1700 48 1.100000 2.006000 2.357000 600 55 1.000000 0.053000 0.053000 1.200000 0.036000 0.043000
1517207186182058042	1200 57 1.100000 0.197000 0.229000 1700 48 1.100000 2.014000 2.366000 600 55 1.000000 0.053000 0.053000 1.200000 0.041000 0.049000
1517207186687983001	1200 56 1.100000 0.198000 0.230000 1700 48 1.100000 2.024000 2.378000 600 55 1.000000 0.053000 0.053000 1.200000 0.035000 0.042000
1517207187193537501	1200 57 1.100000 0.196000 0.228000 1700 48 1.100000 2.113000 2.482000 600 55 1.000000 0.053000 0.053000 1.200000 0.036000 0.043000
1517207187699175543	1200 57 1.100000 0.198000 0.230000 1700 48 1.100000 2.016000 2.368000 600 55 1.000000 0.053000 0.053000 1.200000 0.036000 0.043000
1517207188204739501	1200 57 1.100000 0.198000 0.230000 1700 48 1.100000 2.016000 2.368000 600 54 1.000000 0.053000 0.053000 1.200000 0.041000 0.049000
1517207188710035793	1200 57 1.100000 0.194000 0.226000 1700 48 1.100000 2.035000 2.391000 600 55 1.000000 0.053000 0.053000 1.200000 0.036000 0.043000
1517207189217231834	1200 56 1.100000 0.198000 0.231000 1700 48 1.100000 2.088000 2.453000 600 55 1.000000 0.053000 0.053000 1.200000 0.039000 0.047000
1517207189722819126	1200 57 1.100000 0.197000 0.229000 1700 48 1.100000 2.013000 2.365000 600 55 1.000000 0.053000 0.053000 1.200000 0.042000 0.050000
1517207190228400418	1200 57 1.100000 0.189000 0.220000 1700 48 1.100000 2.010000 2.361000 600 54 1.000000 0.053000 0.053000 1.200000 0.037000 0.044000
1517207190733445626	1200 57 1.100000 0.197000 0.229000 1700 48 1.100000 2.014000 2.366000 600 55 1.000000 0.053000 0.053000 1.200000 0.034000 0.041000
1517207191238949710	1200 57 1.100000 0.200000 0.232000 1700 48 1.100000 2.100000 2.469000 600 55 1.000000 0.053000 0.053000 1.200000 0.037000 0.044000
1517207191746497210	1200 56 1.100000 0.197000 0.229000 1700 48 1.100000 2.011000 2.362000 600 55 1.000000 0.053000 0.053000 1.200000 0.036000 0.043000
1517207192252392460	1200 57 1.100000 0.197000 0.229000 1700 48 1.100000 2.006000 2.357000 600 54 1.000000 0.053000 0.053000 1.200000 0.034000 0.041000
1517207192758552668	1200 57 1.100000 0.197000 0.229000 1700 48 1.100000 2.014000 2.366000 600 55 1.000000 0.053000 0.053000 1.200000 0.036000 0.043000
1517207193264033752	1200 57 1.100000 0.207000 0.240000 1700 48 1.100000 2.300000 2.704000 600 55 1.000000 0.053000 0.053000 1.200000 0.048000 0.058000
1517207193769656460	1200 57 1.100000 0.197000 0.229000 1700 48 1.100000 2.022000 2.375000 600 54 1.000000 0.053000 0.053000 1.200000 0.038000 0.045000
1517207194277133710	1200 56 1.100000 0.188000 0.219000 1700 48 1.100000 2.014000 2.366000 600 55 1.000000 0.053000 0.053000 1.200000 0.035000 0.042000
1517207194783150002	1200 57 1.100000 0.195000 0.227000 1700 48 1.100000 1.995000 2.344000 600 54 1.000000 0.053000 0.053000 1.200000 0.036000 0.043000
1517207195288719252	1200 57 1.100000 0.203000 0.236000 1700 48 1.100000 2.262000 2.660000 600 55 1.000000 0.053000 0.053000 1.200000 0.048000 0.057000
1517207195794313627	1200 57 1.100000 0.190000 0.221000 1700 48 1.100000 2.020000 2.373000 600 55 1.000000 0.053000 0.053000 1.200000 0.038000 0.045000
1517207196299796127	1200 57 1.100000 0.197000 0.229000 1700 48 1.100000 2.012000 2.364000 600 54 1.000000 0.053000 0.053000 1.200000 0.034000 0.041000
1517207196806970377	1200 56 1.100000 0.204000 0.237000 1700 48 1.100000 2.116000 2.488000 600 55 1.000000 0.053000 0.053000 1.200000 0.043000 0.051000
1517207197313007252	1200 57 1.100000 0.203000 0.237000 1700 48 1.100000 2.177000 2.560000 600 55 1.000000 0.053000 0.053000 1.200000 0.049000 0.059000
1517207197818109335	1200 48 1.100000 0.130000 0.152000 1700 46 1.100000 0.270000 0.314000 600 52 1.000000 0.053000 0.053000 1.200000 0.026000 0.031000
1517207198323127085	1200 45 1.100000 0.064000 0.075000 1700 45 1.100000 0.285000 0.332000 600 50 1.000000 0.053000 0.053000 1.200000 0.023000 0.027000
