#Timestamp	CPU(0) Frequency(MHz)	CPU(0) Temperature(C)	A7 Voltage(V)	A7 Current(A)	A7 Power(W)	CPU(4) Frequency(MHz)	CPU(4) Temperature(C)	A15 Voltage(V)	A15 Current(A)	A15 Power(W)	GPU Frequency(MHz)	GPU Temperature(C)	GPU Voltage(V)	GPU Current(A)	GPU Power(W)	RAM Voltage(V)	RAM Current(A)	RAM Power(W)
1553297232310041505	300 34 0.900000 0.020000 0.018000 300 32 0.900000 0.233000 0.224000 600 37 1.000000 0.051000 0.051000 1.200000 0.039000 0.047000
1553297232833110672	300 34 0.900000 0.015000 0.013000 300 32 0.900000 0.198000 0.180000 600 37 1.000000 0.051000 0.051000 1.200000 0.037000 0.044000
1553297233355694047	300 34 0.900000 0.018000 0.016000 300 32 0.900000 0.287000 0.261000 600 37 1.000000 0.050000 0.050000 1.200000 0.041000 0.049000
1553297233878094089	300 33 0.900000 0.014000 0.012000 300 32 0.900000 0.196000 0.178000 600 36 1.000000 0.051000 0.051000 1.200000 0.029000 0.035000
1553297234400209505	300 33 0.900000 0.015000 0.013000 300 32 0.900000 0.195000 0.177000 600 36 1.000000 0.051000 0.051000 1.200000 0.029000 0.035000
1553297234922502255	300 33 0.900000 0.015000 0.013000 300 32 0.900000 0.195000 0.177000 600 36 1.000000 0.050000 0.050000 1.200000 0.034000 0.041000
1553297235446278005	300 33 0.900000 0.015000 0.013000 300 32 0.900000 0.199000 0.181000 600 36 1.000000 0.050000 0.050000 1.200000 0.035000 0.042000
1553297235968253172	300 33 0.900000 0.017000 0.015000 300 32 0.900000 0.252000 0.229000 600 36 1.000000 0.050000 0.050000 1.200000 0.030000 0.036000
1553297236489987131	300 33 0.900000 0.053000 0.048000 300 32 0.900000 0.179000 0.163000 600 36 1.000000 0.051000 0.051000 1.200000 0.025000 0.030000
1553297237011450089	300 33 0.900000 0.053000 0.048000 300 32 0.900000 0.174000 0.158000 600 36 1.000000 0.050000 0.050000 1.200000 0.028000 0.033000
1553297237536390047	300 33 0.900000 0.053000 0.048000 300 32 0.900000 0.180000 0.164000 600 36 1.000000 0.051000 0.051000 1.200000 0.025000 0.030000
1553297238060008506	300 33 0.900000 0.055000 0.050000 300 32 0.900000 0.265000 0.241000 600 36 1.000000 0.050000 0.050000 1.200000 0.030000 0.036000
1553297238581271922	300 33 0.900000 0.054000 0.049000 300 32 0.900000 0.180000 0.164000 600 36 1.000000 0.051000 0.051000 1.200000 0.025000 0.030000
1553297239104208506	300 33 0.900000 0.053000 0.048000 300 31 0.900000 0.175000 0.159000 600 36 1.000000 0.051000 0.051000 1.200000 0.025000 0.030000
1553297239626216131	300 33 0.900000 0.053000 0.048000 300 31 0.900000 0.186000 0.169000 600 36 1.000000 0.051000 0.051000 1.200000 0.025000 0.030000
1553297240148671381	300 33 0.900000 0.054000 0.049000 300 31 0.900000 0.177000 0.161000 600 36 1.000000 0.050000 0.050000 1.200000 0.027000 0.032000
1553297240670727506	300 33 0.900000 0.054000 0.049000 300 31 0.900000 0.254000 0.231000 600 36 1.000000 0.050000 0.050000 1.200000 0.027000 0.032000
1553297241194639756	300 33 0.900000 0.053000 0.048000 300 31 0.900000 0.169000 0.154000 600 36 1.000000 0.050000 0.050000 1.200000 0.025000 0.030000
1553297241716644173	300 33 0.900000 0.053000 0.048000 300 31 0.900000 0.202000 0.184000 600 36 1.000000 0.050000 0.050000 1.200000 0.025000 0.030000
1553297242237880215	300 33 0.900000 0.053000 0.048000 300 31 0.900000 0.168000 0.153000 600 35 1.000000 0.050000 0.050000 1.200000 0.025000 0.030000
1553297242760413465	300 33 0.900000 0.054000 0.049000 300 31 0.900000 0.243000 0.221000 600 36 1.000000 0.051000 0.051000 1.200000 0.034000 0.041000
1553297243281362006	300 32 0.900000 0.053000 0.048000 300 31 0.900000 0.170000 0.154000 600 35 1.000000 0.051000 0.051000 1.200000 0.025000 0.030000
1553297243803461506	300 33 0.900000 0.053000 0.048000 300 31 0.900000 0.221000 0.201000 600 35 1.000000 0.050000 0.050000 1.200000 0.025000 0.030000
1553297244324872548	300 32 0.900000 0.053000 0.048000 300 31 0.900000 0.166000 0.151000 600 35 1.000000 0.050000 0.050000 1.200000 0.025000 0.030000
1553297244847317465	300 32 0.900000 0.053000 0.048000 300 31 0.900000 0.168000 0.153000 600 35 1.000000 0.050000 0.050000 1.200000 0.026000 0.031000
1553297245369314465	300 32 0.900000 0.055000 0.050000 300 31 0.900000 0.271000 0.246000 600 35 1.000000 0.050000 0.050000 1.200000 0.030000 0.036000
1553297245893279673	300 33 0.900000 0.054000 0.049000 300 31 0.900000 0.238000 0.216000 600 35 1.000000 0.050000 0.050000 1.200000 0.031000 0.037000
1553297246414495715	300 32 0.900000 0.053000 0.048000 300 31 0.900000 0.167000 0.152000 600 35 1.000000 0.050000 0.050000 1.200000 0.027000 0.032000
1553297246935531840	300 32 0.900000 0.053000 0.048000 300 31 0.900000 0.166000 0.151000 600 35 1.000000 0.050000 0.050000 1.200000 0.026000 0.031000
1553297247461280299	300 32 0.900000 0.055000 0.050000 300 31 0.900000 0.226000 0.205000 600 36 1.000000 0.050000 0.050000 1.200000 0.026000 0.031000
1553297247984162007	300 32 0.900000 0.055000 0.050000 300 31 0.900000 0.239000 0.217000 600 35 1.000000 0.050000 0.050000 1.200000 0.034000 0.041000
1553297248505522340	300 32 0.900000 0.054000 0.049000 300 31 0.900000 0.169000 0.153000 600 35 1.000000 0.050000 0.050000 1.200000 0.027000 0.032000
1553297249026954382	300 32 0.900000 0.054000 0.049000 300 31 0.900000 0.167000 0.152000 600 35 1.000000 0.050000 0.050000 1.200000 0.025000 0.030000
1553297249548956882	300 32 0.900000 0.054000 0.049000 300 31 0.900000 0.177000 0.161000 600 35 1.000000 0.050000 0.050000 1.200000 0.026000 0.031000
1553297250070404882	300 32 0.900000 0.053000 0.048000 300 31 0.900000 0.224000 0.204000 600 36 1.000000 0.051000 0.051000 1.200000 0.026000 0.031000
1553297250592224341	300 32 0.900000 0.054000 0.049000 300 31 0.900000 0.204000 0.185000 600 35 1.000000 0.050000 0.050000 1.200000 0.037000 0.044000
1553297251113634799	300 32 0.900000 0.053000 0.048000 300 31 0.900000 0.180000 0.164000 600 35 1.000000 0.050000 0.050000 1.200000 0.027000 0.032000
1553297251634891007	300 32 0.900000 0.053000 0.048000 300 31 0.900000 0.175000 0.159000 600 35 1.000000 0.050000 0.050000 1.200000 0.026000 0.031000
1553297252158638382	300 32 0.900000 0.054000 0.049000 300 31 0.900000 0.177000 0.161000 600 36 1.000000 0.051000 0.051000 1.200000 0.026000 0.031000
1553297252680486091	300 32 0.900000 0.056000 0.051000 300 31 0.900000 0.306000 0.278000 600 35 1.000000 0.051000 0.051000 1.200000 0.040000 0.048000
1553297253201970924	300 32 0.900000 0.053000 0.048000 300 31 0.900000 0.179000 0.163000 600 35 1.000000 0.051000 0.051000 1.200000 0.027000 0.032000
1553297253721909799	300 32 0.900000 0.053000 0.048000 300 31 0.900000 0.178000 0.162000 600 35 1.000000 0.050000 0.050000 1.200000 0.026000 0.031000
1553297254243261633	300 32 0.900000 0.053000 0.048000 300 31 0.900000 0.175000 0.159000 600 35 1.000000 0.051000 0.051000 1.200000 0.026000 0.031000
1553297254768363091	300 32 0.900000 0.053000 0.048000 300 31 0.900000 0.260000 0.236000 600 36 1.000000 0.050000 0.050000 1.200000 0.032000 0.038000
1553297255290065674	300 32 0.900000 0.055000 0.050000 300 31 0.900000 0.211000 0.192000 600 35 1.000000 0.050000 0.050000 1.200000 0.031000 0.037000
1553297255811329425	300 32 0.900000 0.053000 0.048000 300 31 0.900000 0.174000 0.158000 600 35 1.000000 0.051000 0.051000 1.200000 0.027000 0.032000
1553297256332608466	300 32 0.900000 0.053000 0.048000 300 31 0.900000 0.170000 0.154000 600 35 1.000000 0.050000 0.050000 1.200000 0.026000 0.031000
1553297256855131341	300 32 0.900000 0.054000 0.049000 300 31 0.900000 0.237000 0.215000 600 35 1.000000 0.051000 0.051000 1.200000 0.030000 0.036000
1553297257377022675	300 33 0.900000 0.055000 0.050000 300 31 0.900000 0.271000 0.246000 600 35 1.000000 0.050000 0.050000 1.200000 0.030000 0.036000
1553297257898486841	300 32 0.900000 0.053000 0.048000 300 31 0.900000 0.171000 0.155000 600 35 1.000000 0.050000 0.050000 1.200000 0.026000 0.031000
1553297258419832716	300 32 0.900000 0.054000 0.049000 300 31 0.900000 0.169000 0.153000 600 35 1.000000 0.050000 0.050000 1.200000 0.026000 0.031000
1553297258941354425	300 32 0.900000 0.053000 0.048000 300 31 0.900000 0.240000 0.218000 600 35 1.000000 0.050000 0.050000 1.200000 0.028000 0.033000
1553297259463808133	300 32 0.900000 0.053000 0.048000 300 31 0.900000 0.175000 0.159000 600 35 1.000000 0.050000 0.050000 1.200000 0.027000 0.032000
1553297259985253342	300 32 0.900000 0.054000 0.049000 300 31 0.900000 0.223000 0.203000 600 35 1.000000 0.050000 0.050000 1.200000 0.032000 0.038000
1553297260506509758	300 32 0.900000 0.054000 0.049000 300 31 0.900000 0.169000 0.153000 600 35 1.000000 0.050000 0.050000 1.200000 0.027000 0.032000
1553297261028292467	300 32 0.900000 0.053000 0.048000 300 31 0.900000 0.231000 0.210000 600 35 1.000000 0.050000 0.050000 1.200000 0.027000 0.032000
1553297261549457217	300 32 0.900000 0.053000 0.048000 300 31 0.900000 0.167000 0.152000 600 35 1.000000 0.050000 0.050000 1.200000 0.026000 0.031000
1553297262072060634	300 32 0.900000 0.054000 0.049000 300 31 0.900000 0.266000 0.242000 600 36 1.000000 0.050000 0.050000 1.200000 0.030000 0.036000
1553297262594038175	300 32 0.900000 0.054000 0.049000 300 31 0.900000 0.168000 0.153000 600 35 1.000000 0.051000 0.051000 1.200000 0.028000 0.033000
1553297263115375967	300 32 0.900000 0.053000 0.048000 300 31 0.900000 0.116000 0.105000 600 35 1.000000 0.050000 0.050000 1.200000 0.026000 0.031000
1553297263636818592	300 31 0.900000 0.053000 0.048000 300 31 0.900000 0.088000 0.080000 600 35 1.000000 0.050000 0.050000 1.200000 0.025000 0.030000
1553297264161530217	300 31 0.900000 0.054000 0.049000 300 31 0.900000 0.058000 0.052000 600 35 1.000000 0.050000 0.050000 1.200000 0.025000 0.030000
1553297264685029342	300 31 0.900000 0.055000 0.050000 300 31 0.900000 0.162000 0.147000 600 35 1.000000 0.050000 0.050000 1.200000 0.030000 0.036000
1553297265206785801	300 31 0.900000 0.053000 0.048000 300 31 0.900000 0.061000 0.055000 600 35 1.000000 0.050000 0.050000 1.200000 0.025000 0.030000
1553297265728538467	300 31 0.900000 0.053000 0.048000 300 31 0.900000 0.108000 0.098000 600 35 1.000000 0.050000 0.050000 1.200000 0.025000 0.030000
1553297266249597717	300 31 0.900000 0.054000 0.049000 300 31 0.900000 0.058000 0.052000 600 35 1.000000 0.050000 0.050000 1.200000 0.024000 0.028000
1553297266772673134	300 31 0.900000 0.054000 0.049000 300 30 0.900000 0.058000 0.052000 600 35 1.000000 0.050000 0.050000 1.200000 0.027000 0.032000
1553297267294486926	300 31 0.900000 0.055000 0.050000 300 31 0.900000 0.149000 0.135000 600 35 1.000000 0.050000 0.050000 1.200000 0.027000 0.032000
1553297267816508343	300 31 0.900000 0.053000 0.048000 300 30 0.900000 0.136000 0.123000 600 35 1.000000 0.050000 0.050000 1.200000 0.026000 0.031000
1553297268337592551	300 31 0.900000 0.053000 0.048000 300 30 0.900000 0.056000 0.051000 600 35 1.000000 0.050000 0.050000 1.200000 0.025000 0.030000
1553297268858355884	300 31 0.900000 0.053000 0.048000 300 30 0.900000 0.057000 0.051000 600 35 1.000000 0.050000 0.050000 1.200000 0.025000 0.030000
1553297269379495134	300 31 0.900000 0.055000 0.050000 300 30 0.900000 0.143000 0.130000 600 35 1.000000 0.050000 0.050000 1.200000 0.032000 0.038000
1553297269900874135	300 31 0.900000 0.053000 0.048000 300 30 0.900000 0.140000 0.127000 600 35 1.000000 0.051000 0.051000 1.200000 0.028000 0.033000
1553297270422490801	300 31 0.900000 0.053000 0.048000 300 30 0.900000 0.056000 0.051000 600 35 1.000000 0.050000 0.050000 1.200000 0.024000 0.028000
1553297270943515051	300 31 0.900000 0.053000 0.048000 300 30 0.900000 0.048000 0.043000 600 35 1.000000 0.050000 0.050000 1.200000 0.025000 0.030000
1553297271468479010	300 31 0.900000 0.053000 0.048000 300 30 0.900000 0.046000 0.041000 600 35 1.000000 0.050000 0.050000 1.200000 0.025000 0.030000
1553297271989902926	300 31 0.900000 0.054000 0.049000 300 30 0.900000 0.222000 0.202000 600 35 1.000000 0.050000 0.050000 1.200000 0.034000 0.041000
1553297272510782552	300 31 0.900000 0.053000 0.048000 300 30 0.900000 0.047000 0.042000 600 34 1.000000 0.050000 0.050000 1.200000 0.024000 0.028000
1553297273031982760	300 31 0.900000 0.053000 0.048000 300 30 0.900000 0.055000 0.050000 600 35 1.000000 0.050000 0.050000 1.200000 0.025000 0.030000
1553297273552726302	300 31 0.900000 0.053000 0.048000 300 30 0.900000 0.056000 0.051000 600 34 1.000000 0.050000 0.050000 1.200000 0.025000 0.030000
1553297274075658010	300 31 0.900000 0.053000 0.048000 300 30 0.900000 0.056000 0.051000 600 35 1.000000 0.050000 0.050000 1.200000 0.025000 0.030000
1553297274597006468	300 31 0.900000 0.056000 0.051000 300 30 0.900000 0.195000 0.177000 600 35 1.000000 0.050000 0.050000 1.200000 0.030000 0.036000
1553297275118224843	300 31 0.900000 0.053000 0.048000 300 30 0.900000 0.058000 0.052000 600 35 1.000000 0.050000 0.050000 1.200000 0.025000 0.030000
1553297275639187302	300 31 0.900000 0.054000 0.049000 300 30 0.900000 0.056000 0.051000 600 35 1.000000 0.050000 0.050000 1.200000 0.025000 0.030000
1553297276161476510	300 31 0.900000 0.053000 0.048000 300 30 0.900000 0.056000 0.051000 600 35 1.000000 0.050000 0.050000 1.200000 0.025000 0.030000
1553297276682495719	300 31 0.900000 0.054000 0.049000 300 30 0.900000 0.163000 0.148000 600 35 1.000000 0.050000 0.050000 1.200000 0.031000 0.037000
1553297277203377177	300 31 0.900000 0.053000 0.048000 300 30 0.900000 0.072000 0.065000 600 35 1.000000 0.050000 0.050000 1.200000 0.025000 0.030000
1553297277724355552	300 31 0.900000 0.053000 0.048000 300 30 0.900000 0.059000 0.053000 600 35 1.000000 0.050000 0.050000 1.200000 0.025000 0.030000
1553297278245857761	300 31 0.900000 0.053000 0.048000 300 30 0.900000 0.055000 0.050000 600 35 1.000000 0.050000 0.050000 1.200000 0.025000 0.030000
1553297278771392719	300 31 0.900000 0.053000 0.048000 300 30 0.900000 0.132000 0.120000 600 35 1.000000 0.050000 0.050000 1.200000 0.027000 0.032000
1553297279295786052	300 31 0.900000 0.055000 0.050000 300 30 0.900000 0.175000 0.159000 600 34 1.000000 0.051000 0.051000 1.200000 0.030000 0.036000
1553297279816514052	300 31 0.900000 0.054000 0.049000 300 30 0.900000 0.058000 0.052000 600 34 1.000000 0.050000 0.050000 1.200000 0.025000 0.030000
1553297280337996344	300 31 0.900000 0.053000 0.048000 300 30 0.900000 0.055000 0.050000 600 35 1.000000 0.050000 0.050000 1.200000 0.024000 0.028000
1553297280859319761	300 31 0.900000 0.054000 0.049000 300 30 0.900000 0.137000 0.124000 600 34 1.000000 0.051000 0.051000 1.200000 0.029000 0.035000
1553297281381857594	300 31 0.900000 0.053000 0.048000 300 30 0.900000 0.099000 0.090000 600 35 1.000000 0.050000 0.050000 1.200000 0.029000 0.035000
1553297281902990678	300 31 0.900000 0.054000 0.049000 300 30 0.900000 0.085000 0.077000 600 35 1.000000 0.050000 0.050000 1.200000 0.024000 0.028000
1553297282423897053	300 31 0.900000 0.053000 0.048000 300 30 0.900000 0.059000 0.053000 600 34 1.000000 0.050000 0.050000 1.200000 0.024000 0.028000
1553297282945056219	300 31 0.900000 0.054000 0.049000 300 30 0.900000 0.135000 0.123000 600 34 1.000000 0.050000 0.050000 1.200000 0.031000 0.037000
1553297283468547178	300 31 0.900000 0.042000 0.038000 300 30 0.900000 0.058000 0.052000 600 35 1.000000 0.050000 0.050000 1.200000 0.023000 0.027000
1553297283990806761	300 32 0.900000 0.017000 0.015000 300 30 0.900000 0.286000 0.260000 600 35 1.000000 0.050000 0.050000 1.200000 0.040000 0.048000
1553297284513250553	300 32 0.900000 0.013000 0.011000 300 30 0.900000 0.204000 0.185000 600 35 1.000000 0.050000 0.050000 1.200000 0.025000 0.030000
1553297285035835595	300 32 0.900000 0.014000 0.012000 300 30 0.900000 0.250000 0.227000 600 35 1.000000 0.050000 0.050000 1.200000 0.036000 0.043000
1553297285557726053	300 32 0.900000 0.014000 0.012000 300 31 0.900000 0.199000 0.181000 600 35 1.000000 0.050000 0.050000 1.200000 0.024000 0.028000
1553297286083562261	300 32 0.900000 0.014000 0.012000 300 31 0.900000 0.206000 0.187000 600 35 1.000000 0.051000 0.051000 1.200000 0.032000 0.038000
1553297286605811512	300 32 0.900000 0.017000 0.015000 300 30 0.900000 0.243000 0.221000 600 35 1.000000 0.050000 0.050000 1.200000 0.028000 0.033000
1553297287128097428	300 32 0.900000 0.014000 0.012000 300 30 0.900000 0.226000 0.205000 600 35 1.000000 0.050000 0.050000 1.200000 0.036000 0.043000
1553297287650119678	300 32 0.900000 0.014000 0.012000 300 31 0.900000 0.197000 0.179000 600 35 1.000000 0.050000 0.050000 1.200000 0.025000 0.030000
1553297288172557928	300 32 0.900000 0.014000 0.012000 300 31 0.900000 0.196000 0.178000 600 35 1.000000 0.050000 0.050000 1.200000 0.027000 0.032000
1553297288694668095	300 32 0.900000 0.017000 0.015000 300 31 0.900000 0.283000 0.257000 600 35 1.000000 0.050000 0.050000 1.200000 0.032000 0.038000
1553297289217344845	300 32 0.900000 0.014000 0.012000 300 31 0.900000 0.207000 0.188000 600 35 1.000000 0.050000 0.050000 1.200000 0.031000 0.037000
1553297289739545470	300 32 0.900000 0.013000 0.011000 300 31 0.900000 0.196000 0.178000 600 35 1.000000 0.050000 0.050000 1.200000 0.029000 0.035000
1553297290261721012	300 32 0.900000 0.013000 0.011000 300 31 0.900000 0.196000 0.178000 600 35 1.000000 0.051000 0.051000 1.200000 0.027000 0.032000
1553297290785243262	300 32 0.900000 0.014000 0.012000 300 31 0.900000 0.196000 0.178000 600 35 1.000000 0.050000 0.050000 1.200000 0.026000 0.031000
1553297291307980637	300 32 0.900000 0.016000 0.014000 300 31 0.900000 0.271000 0.246000 600 36 1.000000 0.050000 0.050000 1.200000 0.041000 0.049000
1553297291830650262	300 32 0.900000 0.014000 0.012000 300 31 0.900000 0.195000 0.177000 600 35 1.000000 0.050000 0.050000 1.200000 0.031000 0.037000
1553297292352566929	300 32 0.900000 0.014000 0.012000 300 31 0.900000 0.197000 0.179000 600 35 1.000000 0.050000 0.050000 1.200000 0.027000 0.032000
1553297292874781262	300 32 0.900000 0.014000 0.012000 300 31 0.900000 0.198000 0.180000 600 35 1.000000 0.051000 0.051000 1.200000 0.026000 0.031000
1553297293400802512	300 32 0.900000 0.015000 0.013000 300 31 0.900000 0.259000 0.235000 600 35 1.000000 0.050000 0.050000 1.200000 0.029000 0.035000
1553297293923136304	300 32 0.900000 0.018000 0.016000 300 31 0.900000 0.203000 0.184000 600 35 1.000000 0.050000 0.050000 1.200000 0.040000 0.048000
1553297294445193012	300 32 0.900000 0.014000 0.012000 300 31 0.900000 0.196000 0.178000 600 35 1.000000 0.050000 0.050000 1.200000 0.027000 0.032000
1553297294967328096	300 32 0.900000 0.014000 0.012000 300 31 0.900000 0.197000 0.179000 600 35 1.000000 0.050000 0.050000 1.200000 0.027000 0.032000
1553297295489670513	300 32 0.900000 0.014000 0.012000 300 31 0.900000 0.197000 0.179000 600 35 1.000000 0.050000 0.050000 1.200000 0.026000 0.031000
1553297296011748971	300 32 0.900000 0.020000 0.018000 300 31 0.900000 0.304000 0.276000 600 35 1.000000 0.051000 0.051000 1.200000 0.045000 0.054000
1553297296534006304	300 32 0.900000 0.015000 0.013000 300 31 0.900000 0.228000 0.207000 600 35 1.000000 0.050000 0.050000 1.200000 0.029000 0.035000
1553297297056063638	300 32 0.900000 0.014000 0.012000 300 31 0.900000 0.197000 0.179000 600 35 1.000000 0.050000 0.050000 1.200000 0.025000 0.030000
1553297297578215638	300 32 0.900000 0.014000 0.012000 300 31 0.900000 0.197000 0.179000 600 35 1.000000 0.050000 0.050000 1.200000 0.027000 0.032000
1553297298101743096	300 32 0.900000 0.014000 0.012000 300 31 0.900000 0.223000 0.203000 600 35 1.000000 0.051000 0.051000 1.200000 0.026000 0.031000
1553297298624265721	300 32 0.900000 0.020000 0.018000 300 31 0.900000 0.280000 0.255000 600 35 1.000000 0.050000 0.050000 1.200000 0.039000 0.047000
1553297299146568513	300 32 0.900000 0.015000 0.013000 300 31 0.900000 0.203000 0.184000 600 35 1.000000 0.050000 0.050000 1.200000 0.026000 0.031000
1553297299668969555	300 32 0.900000 0.014000 0.012000 300 31 0.900000 0.206000 0.187000 600 35 1.000000 0.050000 0.050000 1.200000 0.027000 0.032000
1553297300191133013	300 32 0.900000 0.014000 0.012000 300 31 0.900000 0.207000 0.188000 600 35 1.000000 0.051000 0.051000 1.200000 0.026000 0.031000
1553297300714363972	300 32 0.900000 0.015000 0.013000 300 31 0.900000 0.221000 0.201000 600 35 1.000000 0.051000 0.051000 1.200000 0.031000 0.037000
1553297301236981138	300 32 0.900000 0.020000 0.018000 300 31 0.900000 0.240000 0.218000 600 35 1.000000 0.051000 0.051000 1.200000 0.041000 0.049000
1553297301759001597	300 32 0.900000 0.014000 0.012000 300 30 0.900000 0.200000 0.182000 600 35 1.000000 0.051000 0.051000 1.200000 0.027000 0.032000
1553297302281292388	300 32 0.900000 0.014000 0.012000 300 31 0.900000 0.200000 0.182000 600 35 1.000000 0.050000 0.050000 1.200000 0.026000 0.031000
1553297302803877388	300 32 0.900000 0.014000 0.012000 300 31 0.900000 0.201000 0.183000 600 35 1.000000 0.050000 0.050000 1.200000 0.034000 0.041000
1553297303326107180	300 32 0.900000 0.016000 0.014000 300 31 0.900000 0.294000 0.267000 600 35 1.000000 0.050000 0.050000 1.200000 0.032000 0.038000
1553297303848649055	300 32 0.900000 0.014000 0.012000 300 31 0.900000 0.260000 0.236000 600 35 1.000000 0.051000 0.051000 1.200000 0.030000 0.036000
1553297304371301055	300 32 0.900000 0.014000 0.012000 300 31 0.900000 0.207000 0.188000 600 35 1.000000 0.050000 0.050000 1.200000 0.027000 0.032000
1553297304893624805	300 32 0.900000 0.014000 0.012000 300 31 0.900000 0.262000 0.238000 600 35 1.000000 0.051000 0.051000 1.200000 0.037000 0.044000
1553297305419771014	300 32 0.900000 0.014000 0.012000 300 31 0.900000 0.207000 0.188000 600 35 1.000000 0.050000 0.050000 1.200000 0.027000 0.032000
1553297305941790930	300 32 0.900000 0.017000 0.015000 300 31 0.900000 0.285000 0.259000 600 35 1.000000 0.050000 0.050000 1.200000 0.040000 0.048000
1553297306464709681	300 32 0.900000 0.014000 0.012000 300 31 0.900000 0.207000 0.188000 600 35 1.000000 0.050000 0.050000 1.200000 0.026000 0.031000
1553297306989189306	300 32 0.900000 0.015000 0.013000 300 31 0.900000 0.244000 0.222000 600 35 1.000000 0.050000 0.050000 1.200000 0.036000 0.043000
1553297307511226556	300 32 0.900000 0.015000 0.013000 300 31 0.900000 0.211000 0.192000 600 35 1.000000 0.050000 0.050000 1.200000 0.026000 0.031000
1553297308037716931	300 31 0.900000 0.014000 0.012000 300 31 0.900000 0.206000 0.187000 600 35 1.000000 0.050000 0.050000 1.200000 0.029000 0.035000
1553297308559555806	300 31 0.900000 0.015000 0.013000 300 30 0.900000 0.195000 0.177000 600 35 1.000000 0.050000 0.050000 1.200000 0.031000 0.037000
